ill and died a M 1510
ill for over a M 1279
ill and have a M 792
ill for such a M 707
ill for only a M 683
ill see what i M 662
ill with such a M 542
ill and sent a M 276
ill with what i M 270
ill and need a M 250
ill and made a M 236
ill for what i M 222
ill may have a M 221
ill has been a M 208
ill and having a M 200
ill and when i M 194
ill for half a M 188
ill but what i M 174
ill and lost a M 150
ill with only a M 126
ill that only a M 118
ill with whom i M 108
ill than ever i M 108
ill can have a M 108
ill than when i M 102
ill for many a M 100
ill bear such a M 98
ill for even a M 90
ill and took a D 296
