mix them together . M 4790
mix all together . M 2266
mix with society . M 338
mix his colours . M 236
mix with anybody . M 162
mix them himself . M 158
mix them together ? M 150
mix things together . M 122
mix and quality . M 110
mix both together . M 103
mix and location . M 102
mix for himself . M 100
