mix all of the M 5378
mix them in the M 2563
mix with it the M 2303
mix them up in M 1970
mix has to be M 1252
mix and in the M 720
mix any of the M 628
mix you up in M 621
mix with it in M 580
mix one of the M 545
mix with it an M 537
mix them up so M 511
mix them on the M 462
mix out of the M 446
mix each of the M 441
mix and of the M 432
mix with it to M 429
mix had to be M 428
mix him up in M 418
mix due to the M 414
mid die of the M 396
mix that is the M 378
mix with us by M 370
mix them up as M 352
mix with it as M 336
mix and on the M 319
mit and at the M 308
mix and it is M 303
mid air by the M 292
mix them up to M 275
mix things up in M 270
mix and to the M 248
mix and so on M 244
mix was to be M 242
mix them at the M 226
mix with us in M 224
mix things up by M 199
mix than in the M 195
mix are to be M 194
mix them up or M 186
mix them in an M 186
mix that is to M 182
mix things up so M 181
mix one up in M 180
mid area of the M 179
mix both in the M 177
mid air to the M 176
mix and at the M 171
mid may to the M 169
mid air as it M 168
mix them to the M 167
mid way in the M 164
mix them so as M 162
mix this in the M 159
mix them up at M 154
mix and by the M 153
mix her up in M 150
mix them up is M 144
mit and in the M 138
mid air as if M 138
mid air as he M 136
mid air as the M 130
mix them up on M 127
mid air at the M 124
mix with it at M 119
mix that it is M 118
mix things up to M 115
mid air on the M 114
mix them up by M 112
mid way up the M 112
mix with or to M 108
mid may in the M 106
mid air in the M 106
mix them up if M 104
mid way of the M 104
mix with in the M 103
mit them to the M 100
mix with it or M 99
mix two of the M 98
mix with us as M 97
mix may be the M 97
mix things up on M 95
mix can be an M 94
mix them is to M 90
mid way on the M 88
mid day on the M 88
mix with us at M 87
mix was in the M 85
mix with it is M 84
mid day in the M 84
mix and eat it M 83
mix led to the M 80
mix can be the M 80
mix but it is M 80
mix with it so M 56
mix with the lo M 54
mix are in the M 52
mix and to be M 44
mix may be as M 43
mix with it by M 42
mix than it is M 41
mix with the sea D 628
mil area of the D 412
mid rib of the D 282
mix fed to the D 134
mic out of the D 125
mid gut of the D 98
mil inn mi mi D 56
mil mil mi mi D 48
