mid part of the M 2958
mix some of the M 2957
mid line of the M 2226
mid years of the M 1088
mix used in the M 951
mix well in the M 846
mid span of the M 690
mid third of the M 608
mix much in the M 595
mix more in the M 556
mix half of the M 501
mix some of it M 498
mid length of the M 448
mid range of the M 433
mix made up of M 419
mix will be the M 362
mid depth of the M 358
mix need to be M 348
mix have to be M 262
mix used by the M 241
mix when it is M 238
mix into it the M 202
mix these in the M 192
mix part of the M 192
mid hour of the M 172
mix prior to the M 166
mix such as the M 163
mix when in the M 155
mix even in the M 147
mix ratio of the M 142
mix down to the M 142
mix back to the M 142
mid ocean to the M 142
mix most of the M 139
mix only at the M 128
mix well on the M 114
mix more of the M 111
mid line at the M 108
mix will be in M 103
mid body of the M 103
mix well in an M 82
mix only in the M 56
mix there is no M 43
mid zone of the D 252
mid axis of the D 152
mid tone in the D 145
mil have to be D 116
mid tone on the D 107
mil foot of the D 59
