mice and men , M 24665
miss you too , M 8020
mind that now , M 8000
mind for you , M 4622
mind for him , M 4300
mind can not , M 4132
mind all that , M 3918
mind off things , M 3586
mixing with them , M 2879
mind all day , M 2871
mice and men : M 2832
mind was this : M 2729
mind was not , M 2646
mind with him , M 2370
mind and eye , M 2310
mind for her , M 2213
mind does not , M 2178
mind two things : M 2044
mind and that , M 2023
mile each way , M 2019
mine for you , M 1995
mind that day , M 1992
mind was that , M 1969
mind was set , M 1956
mind with them , M 1790
mine was not , M 1772
mind and being , M 1675
miss you all , M 1566
mind and then , M 1554
mind and say , M 1525
miss him too , M 1508
miss this one , M 1440
mind for them , M 1377
miss his aim , M 1372
mild and dry , M 1370
mind doing that , M 1358
mind are one , M 1334
mind with awe , M 1328
mind with god , M 1326
mind you now , M 1278
miss her too , M 1218
mind did not , M 1212
mind with fear , M 1112
miss them all , M 1070
mind with you , M 1061
mice and men ; M 1060
mind that you , M 1057
mine old age , M 1040
mine and his , M 1008
miss his way , M 994
mind that way , M 966
mine did not , M 951
mind that this , M 947
mind one day , M 932
mind all this , M 926
mind was this , M 909
mine are not , M 905
mind and things , M 892
mind and god , M 890
mine does not , M 884
mind long ago , M 878
mine for him , M 856
mine one day , M 851
mind with this , M 844
mile with him , M 843
miss its aim , M 840
mild and wet , M 830
mixing with air , M 810
mine and say , M 804
miss you both , M 802
mind that they , M 802
mine with you , M 795
mine was dead , M 791
miss all this , M 782
mixing with men , M 760
mind than his , M 756
mind that she , M 748
mind you this , M 746
mind was going , M 736
mine own son , M 735
mine was then , M 716
mind was weak , M 680
mine with him , M 679
mild old man , M 676
mind for that , M 659
mind and ego , M 655
mind can see , M 654
mind for now , M 652
mind and man , M 649
miss his aim ; M 640
mine are one , M 630
mind then was , M 619
mind our son , M 618
mind and wit , M 615
mind that man , M 614
mind for long , M 607
mind one bit , M 598
mind with joy , M 597
mind that now ; M 583
mind and death , M 552
mind him not , M 548
mind for him ; M 544
mind than this , M 539
mine own head , M 538
mind off her , M 524
mine own way , M 522
miss that one , M 521
mind that was , M 521
mine own age , M 513
mind with him ; M 512
mind doing this , M 510
mind that way ; M 500
mild and easy , M 500
mind led him , M 496
mind for this , M 494
mine for her , M 490
mind you that , M 490
mind and eye ; M 490
mind with her , M 489
mind has not , M 488
miss them too , M 484
mine may sit , M 478
mind and who , M 464
mind for that ; M 463
mind two things , M 459
mine own death , M 456
mine with him ; M 454
miss all that , M 453
mine that day , M 443
mind and earth , M 436
miss them both , M 428
mind than that , M 427
miss our way , M 426
mind are not , M 426
miss one day , M 424
mile one way , M 423
mind this year , M 422
mind for him : M 418
mind off him , M 416
mine with them , M 415
mind that god , M 408
mind she had , M 408
mile and then , M 404
mind and idea , M 400
mind this way , M 397
mind each day , M 397
mine own eye , M 390
mind may not , M 390
mind for war , M 384
mind and was , M 384
mind they are , M 383
mind had not , M 382
miss you now , M 378
mind but that , M 371
mind for one , M 370
mile each day , M 368
mine and then , M 367
mind can bear , M 366
mild may day , M 360
mine for them , M 357
mind and now , M 356
miss with him ; M 354
mice and man , M 354
mind but one , M 350
mile that way , M 349
mind may say , M 344
mind and all , M 344
mine was one , M 342
mine they are , M 340
mind was easy , M 336
mind that are , M 332
miss him now , M 328
mind and thus , M 324
mild and dry ; M 322
mind this day , M 317
mind are one ; M 314
mind and yet , M 312
mind with things , M 310
mine can not , M 308
mine for you ; M 306
mind and act , M 306
mine has not , M 305
mind than you , M 305
mine you are , M 300
mind and are , M 300
mind off them , M 298
mind and not , M 296
mine she goes , M 294
mind with his , M 292
mine and that , M 291
mine long ago , M 285
mind with them ; M 284
mixing with them ; M 282
mile for you , M 282
mind them now , M 281
mind was then , M 280
mind was far , M 280
mind for her ; M 278
mile each way ; M 276
mind for god , M 274
mind his own , M 270
mind that one , M 268
mind with awe ; M 262
mind than this ; M 262
mind all that ; M 260
mind then that , M 254
mile long and , M 250
mind this way : M 249
mind his age , M 249
mind with that , M 248
miss our aim , M 242
mine than his ; M 242
mind thus far , M 240
mind for them ; M 240
miss any one , M 234
mind all day ; M 234
miss her now , M 230
mind all that : M 230
mind was set ; M 228
mine did too , M 226
mind can say , M 222
mind and way , M 222
mind and how , M 221
mine own man , M 220
mine than his , M 219
mine own ease , M 219
mind but god , M 218
mind off this , M 216
mind she was , M 214
mind and say : M 214
mine that way , M 212
mile due east , M 212
mind does this , M 208
mind off that , M 206
mind with you ; M 204
mind has them , M 204
mind for death , M 202
mine and who , M 201
mind being old , M 201
mile with them , M 200
mind that day ; M 199
mind all this ; M 198
mild and low , M 198
mind his eye , M 196
mind are few , M 194
mind that can , M 193
mind him now , M 192
mine with his , M 189
mind she has , M 187
mind goes out , M 186
mind with wings , M 184
mind and this , M 182
mind that day : M 181
mine this year , M 180
mind was set : M 180
mind all day : M 179
miss you two , M 178
miss our way ; M 178
miss his dog , M 178
mine was then ; M 178
mind was now , M 178
mind may thus , M 176
mind being one , M 176
miss his aim : M 174
mine are one ; M 174
mine with her , M 173
miss them now , M 172
mind now was , M 172
mind and sky , M 172
mind and can , M 171
mine was this : M 170
mind and age , M 170
mist and sun , M 164
mind too that , M 164
mind that few , M 164
mind her now , M 164
mind off you , M 162
miss its aim ; M 161
mind too far , M 160
mind that has , M 160
mind long ago ; M 160
mile long each , M 160
mine this day , M 158
mile for him , M 158
miss its end , M 154
mind and had , M 154
mind you are , M 152
mind may yet , M 152
miss her way , M 150
mine was his , M 150
mind going out , M 150
mine was dying , M 149
mind than this : M 149
mind with new , M 148
mine was set , M 145
mind this now , M 144
mind and his , M 144
mild for them , M 144
mine but his , M 143
mind for long ; M 143
miss his way ; M 142
mind and ask , M 141
mind you had , M 140
mind was led , M 140
mind and being ; M 140
mild and wet ; M 140
mine own use , M 138
mind this idea , M 138
mind for them : M 137
mist going off , M 136
mind one has , M 136
mind now that , M 136
mile that day , M 136
mild and weak , M 136
mile this way , M 135
mind them not ; M 134
mind how this , M 134
mine with you ; M 132
mine nor his , M 132
mind was due , M 132
mind are real , M 132
mile too big , M 132
mind this one , M 129
mine who was , M 128
mine then was , M 126
mine own wit , M 126
miss with you , M 125
mine all day , M 125
mine you won , M 124
mine own way ; M 124
mine own too , M 124
mind with joy ; M 124
mind was dead , M 124
mind may ask , M 124
mind for you ; M 124
mine you see , M 122
mine own two , M 122
mind them that , M 122
mind can not ; M 122
mind being wet , M 122
mild and sad , M 122
mice and man : M 122
mind was his , M 120
mice did not , M 120
mine are now , M 119
mist hung low , M 118
mine too long , M 118
mine own son ; M 118
mine each day , M 118
mind was sad , M 118
mind are that : M 118
mile for them , M 118
mist all day , M 117
mine for him ; M 117
mind and head , M 116
mile each year , M 116
mind her age , M 115
mind this now ; M 114
mind them not , M 114
mist and all , M 113
mind with ease , M 113
miss his son , M 112
mine are dead , M 112
mind that had , M 112
mind than they , M 112
mind too long , M 111
mind off things ; M 111
mile with you , M 111
mine own things , M 110
mine are all , M 110
mine and say : M 110
mind you see , M 110
mind with god ; M 110
mind that dog , M 110
mind but his , M 110
mind and may , M 109
mine you can , M 108
mind two things ; M 108
mind dying now , M 108
mind and arm , M 108
mild that year , M 108
mine for long , M 107
mind that men , M 107
mine was too , M 106
mind can deal , M 106
mind can act , M 106
mind and wit ; M 106
mist and then , M 105
miss that man , M 105
mind that now : M 105
mind are two : M 105
mind and eye : M 105
mind that thus , M 104
mind but this , M 104
mind and has , M 104
mild for him , M 104
mine own act , M 102
mind than men , M 102
mind than his ; M 102
mind for use , M 102
mind are two , M 102
mind and see , M 102
mind and man : M 102
mind with death , M 100
mind was one , M 100
mind was easy ; M 100
mind that then , M 100
mind does that , M 100
mind does not ; M 100
mine was red , M 98
mind with man , M 98
mind that too , M 98
mind has few , M 98
miss one meal , M 97
mine own men , M 96
mine can see , M 96
mind for all ; M 96
mind can read ; M 96
mind and you , M 96
mile too far , M 96
mild and shy , M 96
mine does too , M 95
mind this day ; M 95
mind for her : M 95
mind was doing , M 94
mind may see , M 94
mind how long , M 94
mind can heal , M 94
mind and his ; M 94
mind that year , M 93
mine had got , M 92
mind was low , M 92
mild for you , M 92
mild all year , M 92
mixing with you , M 91
mine did that , M 91
mine did not ; M 91
mixing with them : M 90
mine was bad , M 90
mine own sin , M 90
mine for them ; M 90
mine age too , M 90
mine did say : M 89
mind all things , M 89
mixing with all , M 88
mine old age ; M 88
mind that age , M 88
mind one way , M 88
mind but are , M 88
mind are that , M 88
mind and men , M 88
mice can not , M 88
mine who had , M 87
mine was read , M 87
mine was near , M 87
miss its way , M 86
miss him and , M 86
mine was not ; M 86
mind doing them , M 86
mind that each , M 85
mind may act , M 84
mice and that , M 84
mind but now , M 83
mind not going , M 82
mixing with death , M 80
miss with death , M 80
miss this one ; M 80
mine that was , M 80
mind was real , M 80
mind goes far , M 80
mile one way ; M 69
mine for his , M 64
mind his own ; M 61
miss that too , M 60
mind can bring , M 59
mind not that , M 58
mine had not , M 54
mixing and use , M 52
mine for now , M 52
mind being dead , M 52
mine was one ; M 49
mind you say , M 49
mine and his ; M 48
mine and yet , M 46
mind set and , M 46
mine goes off , M 44
mixing and using , M 43
mist and sky , M 43
mind using them , M 43
miss this year , M 42
mind for you : M 42
mind and yes , M 42
mind with him : M 41
mind that long , M 41
mind one who , M 41
mind nor man , M 41
mine with you : M 40
mine not his , M 40
mind two men , M 40
mind our own , M 40
mile off now , M 40
