mind of the reader M 155181
mind of the child M 74249
mind of the people M 59253
mind of the author M 42424
mind of the world M 20472
mind of the pupil M 19425
mine in the world M 17467
mind is no longer M 14642
mind of the first M 13234
mind of the judge M 11602
mile to the right M 11238
mind in the first M 10659
mind as he wrote M 10085
mind as to which M 9515
mind of the maker M 9211
mind of the whole M 8742
mind in the world M 8677
mind in the midst M 8550
mind of the queen M 8442
mile up the river M 8092
mind of the father M 8058
mixing of the water M 7911
mind of the agent M 7490
mile of the place M 7429
mind of the human M 7345
mind of the actor M 6766
mind to the point M 6724
mile of the river M 6541
mind to the study M 6415
mind is the cause M 6373
mind of the buyer M 5910
mist of the morning M 5905
mind to the world M 5731
mind of the party M 5592
mind of the mother M 5524
mind of the woman M 5488
mind in the sense M 5334
mile or so above M 5006
mind is the first M 4852
mind on the issue M 4752
mile of the house M 4699
mind of the white M 4667
mile of the enemy M 4531
mind by the reader M 4495
mile or so below M 4493
mind in the lower M 4366
mind as to where M 4314
mind in the light M 4245
mind as he stood M 4011
mind to do anything M 3882
mind of the enemy M 3880
mind in the study M 3796
mixing of the blood M 3768
mind in the right M 3492
mind of the adult M 3478
mind of the state M 3451
mind of the deity M 3420
mind is the devil M 3321
mile on the right M 3287
mine in the state M 3187
mind in the morning M 3154
mind on the point M 3074
mind of the house M 3035
mind of an author M 2876
mind of the period M 2808
mind of the slave M 2806
mine is the first M 2683
mind in the state M 2675
mind at the start M 2600
mine in the first M 2588
mind or on paper M 2515
mind of the crowd M 2427
mind at the first M 2400
mist in the morning M 2393
mind as the first M 2388
mind is the brain M 2378
mind of the leader M 2368
mind of the owner M 2360
mind in the order M 2359
mind by the study M 2320
mind of the group M 2237
mind of the working M 2164
mist on the river M 2161
mind by the power M 2161
mile to the house M 2114
mind in the brain M 2109
mile to the river M 2079
mind of the lower M 2001
mind to the brain M 2000
mile or so apart M 1981
mind of the prime M 1927
mile of the coast M 1918
mixing of the fluid M 1887
mind in the sound M 1882
mind of an adult M 1877
mind in the whole M 1866
mile up the stream M 1857
mind of the black M 1846
mind by the force M 1846
mind by the first M 1829
mind on the whole M 1778
mind to be found M 1775
mind to the facts M 1763
mind of the growing M 1754
mind it is quite M 1753
mind is at first M 1745
mind of the noble M 1744
mile of the trail M 1728
mile to the front M 1714
mind of the story M 1700
mind is the power M 1690
mind of the royal M 1674
mind is the image M 1672
mind as he tried M 1664
mind by the words M 1662
mile up the trail M 1632
mist on the water M 1624
mind of the elder M 1602
mile to the first M 1551
mice in the house M 1536
mind to the worst M 1521
mind at the close M 1505
mixing in the upper M 1488
mind to the people M 1476
mixing of the upper M 1434
mind of the times M 1430
mist of the night M 1416
mind as he began M 1406
mice in the walls M 1394
mind in the human M 1386
mind of the small M 1372
mind as the cause M 1370
mind of the right M 1361
mind or the brain M 1357
mind as we study M 1356
mile of the point M 1351
mind on the first M 1350
mind on the alert M 1348
mind in the field M 1345
mile or so until M 1339
mind to the whole M 1327
mind at the period M 1322
mine on the table M 1321
mind of the ruler M 1316
mind of the grand M 1309
mind of the image M 1296
mind of the worthy M 1288
mind in the house M 1278
mixing in the world M 1274
mind so he could M 1256
mind of the notion M 1222
mine in the black M 1217
mind to go after M 1216
mine in the sense M 1215
mind in the event M 1213
mind in the search M 1211
mind to be still M 1210
mind to be happy M 1208
mile of my house M 1208
mile of the route M 1207
mind in the shape M 1205
mind if he could M 1202
mind to the reader M 1199
mind of the older M 1198
mind of the giver M 1192
mind on the right M 1190
mind of my father M 1181
mind in an house M 1168
mind on an issue M 1164
mind to the state M 1161
mist on the hills M 1160
mine in the morning M 1103
mixing in the water M 1101
mind of the local M 1100
mind to the first M 1092
mine is no longer M 1087
mind is no doubt M 1079
mind at the point M 1077
mist of the evening M 1074
mile or so after M 1073
mind to the light M 1063
mind to be quite M 1052
mind is the place M 1051
mind in the period M 1049
mile to the place M 1047
mind as he moved M 1040
mind on the night M 1036
mind of the later M 1032
mile of the landing M 1032
mind is an image M 1030
mind to be taken M 1028
mind in the people M 1028
mine in the house M 1023
mind on the morning M 1010
mind in the author M 987
mind of the thinking M 985
mind of the count M 983
mind to be quiet M 982
mind on the words M 974
mind of the healer M 956
mind to be easily M 953
mile in the world M 951
mind to be aware M 946
mind as an image M 936
mile of the water M 935
mind in the healthy M 930
mine is the power M 929
mind to the right M 914
mind of my reader M 906
mind is the world M 890
mile or so later M 882
mile of the front M 882
mind is an empty M 879
mind is so strong M 878
mind in the reader M 872
mine is the world M 867
mind of my mother M 866
mind by the sense M 862
mind to the place M 860
mile of the wreck M 857
mile of the walls M 856
mind as he could M 853
mind as the model M 849
mind in the writing M 847
mind on the topic M 830
mind is the whole M 830
mind of the upper M 828
mind to the truths M 826
mind in the space M 826
mind in the child M 823
mile up the coast M 816
mind of the power M 804
mind of the newly M 797
mind in the final M 797
mind to the words M 790
mind to the cause M 788
mind is the worst M 784
mind as he paced M 779
mile in the woods M 778
mind as he thinks M 773
mind by the action M 766
mind on the story M 763
mind in the night M 760
mind as the place M 759
mind at the right M 758
mine in the whole M 748
mind to the power M 744
mind to the minds M 744
mind to go right M 742
mind is in doubt M 740
mind it is still M 738
mixing of the solid M 736
mind to the issue M 734
mind as it moves M 729
mind of the words M 727
mile on the river M 725
mind to be drawn M 718
mind to the human M 712
mind as the final M 712
mind of the board M 709
mind in the later M 706
mice in the first M 706
mine in the hills M 703
mixing of the lower M 702
mind of the place M 702
mind it is easier M 701
mind or the vital M 699
mile up the track M 696
mile of the first M 696
mind of the moral M 690
mind in the above M 685
mind as we begin M 685
mile to the point M 684
mist of the river M 678
mind as the train M 675
mile or so short M 674
mind in the months M 671
mind is the final M 669
mind of the nurse M 665
mice in the world M 664
mind in us which M 662
mind in the place M 662
mind by the author M 659
mind is the feeling M 657
mile in the first M 656
mind of the plain M 653
mind as an inner M 653
mine in the upper M 652
mind by the whole M 652
mixing in the lower M 645
mind of the blind M 645
mind in the cause M 643
mind is an amazing M 640
mile of the stream M 640
mind of the class M 639
mind is the notion M 636
mind is the basic M 636
mind in the evening M 631
mice in the group M 630
mind as to cause M 628
mind is to create M 623
mind if the whole M 623
mine by the right M 622
mind on the brain M 621
mind on the facts M 616
miss in the cache M 615
mine in the orange M 615
mind as he works M 615
mind is in danger M 612
mice in the study M 608
mind is at every M 604
mine is the right M 603
mine in the leaves M 598
mind if we could M 598
mixing up the order M 594
mind is in every M 594
mind is the story M 593
mind to the needs M 592
mind of the women M 591
mile of the track M 590
mile of the meeting M 589
mind of the feeling M 578
mind is at issue M 578
mind as he tries M 578
mind of the fourth M 577
mind of the devil M 574
mind is the reason M 574
mine on the right M 573
mind as the author M 571
mine is the fault M 568
mild as to cause M 568
mixing in the crowd M 566
mind on the evening M 565
mind is the right M 564
mind as he looks M 563
mile in the whole M 560
mind of the false M 558
mind to the beauty M 555
mind or the minds M 550
mind of the knowing M 550
mind if he thinks M 549
mind in the words M 546
mind to the image M 538
mind is to avoid M 538
mind if he wants M 538
mind is the agent M 536
mile in the state M 536
mind of the others M 534
mind as he faced M 523
mice in the field M 523
mixing of the waste M 522
mind as the story M 522
mind on the verge M 520
mind as it really M 519
mind to the notion M 518
mind of the truly M 518
mind or the world M 516
mind is the inner M 515
mind on the world M 514
mind of the night M 514
mind of the strong M 512
mind of the sense M 512
mind of the meeting M 512
mind of an enemy M 512
mind is on earthly M 512
mind of the civil M 510
mind is the ruler M 510
mine is the voice M 508
mind to the paper M 508
mind of the brave M 508
mind if he comes M 508
miss on the first M 506
mine on the first M 506
mind to the change M 506
mind of an agent M 506
mind of the value M 505
mind as an agent M 505
mine in the field M 503
mind to be fully M 503
mind in the power M 498
mind if we change M 496
mind by the light M 496
mind to the house M 494
mind is at times M 490
mind of the major M 487
mine on the floor M 486
mind in the image M 486
mind or the human M 485
mind to be known M 484
mind on the music M 482
mile to the store M 482
mixing in the first M 480
mind to be mixed M 480
mind as he makes M 479
mine on my mother M 478
mind as the others M 478
mind it at first M 477
mind is so often M 477
mind as the world M 477
mixing at the point M 476
mixing of the white M 474
mind of the order M 474
mind is the state M 472
mind in the weeks M 470
mind as the agent M 469
mile to my right M 469
mind to the limit M 468
mind as the image M 468
mile in the depths M 466
mile of the state M 465
mind to the search M 463
mind to go round M 463
mile on the trail M 463
mind as the clock M 462
mile or so nearer M 459
mixing of the light M 458
mind by the image M 458
miss it the first M 455
mind of the happy M 455
mixing of the whole M 453
mine of the world M 453
mind to be fixed M 452
mind on the plane M 452
mind as he headed M 452
mind as an empty M 452
mile of the works M 452
mine in the hands M 450
mind in the hours M 450
mixing of the first M 448
mine is the story M 448
mind as the reader M 448
mile of the whole M 445
mind to the order M 438
mind of an actor M 438
mind is the human M 437
mind on the study M 436
mind it is often M 435
mind of an image M 434
mind to the author M 432
mind by the story M 429
mine is the kingdom M 426
mind to the sense M 426
mile to the upper M 426
mist on the morning M 425
mind if we search M 425
mind is so fully M 422
mind as it comes M 422
mile of the outer M 421
mine in the midst M 420
mind on the image M 420
mind of the fable M 420
mind if we check M 420
mind of the cells M 418
mind in the group M 418
mind to go again M 416
mice of the first M 416
mind is so fixed M 412
mind to go alone M 410
mind in the worst M 410
mile to the large M 409
mind to be hanged M 408
mind to be either M 408
mind of an eight M 406
mind in the short M 406
mind in the party M 406
mile of the grand M 404
mind to the inner M 403
mind is the sense M 403
mind is the unity M 401
mind in the brief M 399
mind of the proud M 398
mind on the state M 396
mile to the small M 396
mind of the facts M 395
mind in the usual M 393
mind by the state M 393
mile of the plant M 392
mile of the lines M 392
mile of the field M 391
mind to the final M 390
mind or the power M 390
mind of the grown M 389
mind as the study M 389
mind to the habit M 388
mind if we start M 388
mile up the right M 388
mine on the field M 387
mind to go where M 386
mind to the value M 385
mind of the crown M 385
mixing in the right M 384
mind to do right M 384
mind is the total M 384
mile to the trail M 384
mixing up the names M 382
mist of the hills M 380
mind is in touch M 380
mind as to whose M 380
mind it is which M 379
mind by the sound M 379
mind of the danger M 378
mind of the action M 377
mice to the lethal M 376
mind at the opening M 375
mine to the river M 374
mind as it seeks M 374
mind it is plain M 372
mind is so quick M 372
mile in the morning M 372
mice in the grass M 372
mixing of the cells M 371
mind as he found M 371
mile to the water M 371
mind of the vision M 369
mind on the drive M 368
mind is the enemy M 368
mind is no small M 368
mine at the first M 367
mind is the author M 367
mind to be alert M 366
mind is in action M 366
mind if it takes M 366
mind as it seems M 365
mile up the steep M 365
mind as he walks M 363
mind to my father M 360
mind to be willing M 358
mind is in heaven M 358
mind by the facts M 358
mind to be cured M 356
mind as it works M 356
mind to the sound M 355
mind in the strong M 355
mist of the storm M 352
mist in the night M 350
mixing in the solid M 349
mind to be saved M 349
mind is the father M 349
mind as to admit M 349
mind on the stage M 348
mind as it might M 348
mine if he fails M 347
mind to the stage M 347
mine is the whole M 346
mind to do about M 346
mind if we watch M 346
mixing of the reacting M 345
mind is the point M 345
miss in the first M 344
mind in so short M 342
mind he is still M 342
mind to be brave M 340
mixing in the oceans M 338
mine in the times M 338
mind as the power M 338
mind on the lower M 337
mine on the coast M 336
mind to the noble M 336
mind to be alone M 336
mind of the guilt M 336
mile on the track M 335
mind of the press M 334
mind of the final M 334
mind is the order M 334
mine to the coast M 332
mind of the passing M 332
mind is as strong M 332
mind if he asked M 332
mine to the point M 330
mind to the outer M 329
mind to the field M 329
mind is the study M 329
mine to the world M 328
mine of the enemy M 328
mild to the point M 328
mind is the grand M 327
mind in the teaching M 326
mind in the quiet M 326
mind of the awful M 324
mind is the leader M 324
mind as the light M 324
mind in the opening M 323
mind of the eight M 322
mind of an older M 322
mind of an acute M 322
mine to the first M 320
mind on the place M 320
mind on me alone M 320
mind is the issue M 320
mind in the cells M 319
mind as he moves M 319
mind is the light M 318
mind as we write M 318
mile up the water M 318
mind to the party M 316
mind is an agent M 316
mind to go about M 314
mind on the track M 314
mind by the teaching M 314
mind as we enter M 314
mind to the music M 312
mind of the guest M 312
mind as he plans M 311
mile to the lower M 311
mist of the world M 310
mind to the story M 308
mind of the legal M 308
mine to the right M 307
mind on the value M 307
mind as the basic M 307
mile or so where M 307
mind is the child M 305
mine in the night M 304
mind in the works M 304
mind to be under M 302
mind is in order M 300
mind in the kingdom M 300
mind on the house M 299
mind in an adult M 299
mind to the tasks M 298
mind to the event M 298
mind at the meeting M 298
mind as he knelt M 298
mist in the trees M 297
mind on the inner M 297
mind is the danger M 297
mind as we watch M 297
mind on the woman M 296
mind is to write M 296
mind is of large M 296
mind by the people M 295
mind to be anything M 294
mind of the adept M 294
mixing of the black M 293
mind as an option M 293
mine to the place M 292
mind of the exact M 292
mind is to study M 292
mind if he never M 292
mile of the lower M 292
mind to the father M 291
mind to the action M 290
mind of the exile M 290
mind is so easily M 290
mind is an enemy M 290
mind by an appeal M 290
mind in the fourth M 289
mind as we trace M 289
mixing of the oceans M 288
mind in the woman M 288
mind in the story M 287
mind as the words M 287
mixing in the field M 286
mine on the lower M 286
mind is the prime M 286
mind as it looks M 286
mine on the order M 285
mine in the place M 285
mind in the quest M 285
mind as we stood M 285
mind as the prime M 285
mixing up the words M 284
mind of the guide M 284
mind of the change M 284
mind as the modes M 284
mine of the first M 283
mind of the light M 283
mind of the judging M 283
mine as the first M 282
mind or the thinking M 282
mind of the users M 282
mind of the elite M 282
mind is so prone M 282
mile to the start M 282
mile to the state M 281
mine on the upper M 280
mind in the crown M 280
mind if he stays M 279
mixing in the fluid M 278
mind of the error M 278
mind to be ruled M 277
mind of the brain M 277
mind in the class M 277
mind if we asked M 277
mind is an issue M 275
mind to the voice M 274
mind to the views M 274
mind of the large M 274
mind in the habit M 274
mind as he turns M 274
mile of the royal M 274
mine to the plant M 272
mine is the worst M 272
mind on the basic M 272
mind is the field M 272
mind is so taken M 272
mind in the forms M 272
mind to the glory M 271
mind to the teaching M 270
mind of the field M 270
mile of the store M 270
mild in the first M 270
mind to be beaten M 268
mind of the healthy M 268
mind is to grasp M 268
mind in the daily M 268
mind as he might M 268
mile on the first M 268
mixing of the human M 266
mind is to allow M 266
mind as the guiding M 266
mile or so lower M 266
mine on the morning M 265
mind as the major M 265
miss it at first M 264
mind as the child M 264
mind it is rather M 263
mind as the plane M 263
mind to it could M 262
mind by the awful M 262
mine in the evening M 261
mile or so round M 261
mind if we share M 260
mind as he takes M 260
mile of the white M 260
mile of the ruins M 260
mile of the rocks M 260
mind if it could M 259
mixing of the added M 258
mind to the woman M 258
mind to the grand M 258
mind by the method M 258
mind at the sound M 258
mind on the human M 257
mind is an asset M 256
mind as it thinks M 256
mind to the small M 255
mind to the press M 254
mind or the moral M 254
mind of the dreaming M 254
mind is in issue M 254
mixing of the modes M 253
mixing of the local M 253
mind is the slave M 253
mind is the exact M 253
mind in the white M 253
mind as the reason M 253
mixing up the parts M 252
mine in the water M 252
mind to the reason M 252
mind is the abode M 252
mind as to stand M 252
mixing of the sound M 251
mind by the brain M 250
mile or so within M 250
mild at the onset M 250
mice on the floor M 250
mind of the plant M 249
mind as the whole M 249
mine to my father M 248
mind to the motion M 248
mind of the utter M 248
mind of my child M 248
mile to my house M 248
mind is to change M 247
mind is as quick M 246
mind by the notion M 246
mile to the landing M 246
mine in the light M 245
mine to be taken M 244
mind to be strong M 244
mind is so small M 244
mind in the closing M 244
mind if he found M 244
mile in the river M 244
mind is the guiding M 242
mind is the habit M 241
mind by the music M 241
mind to be moved M 240
mind to be freed M 240
mind of the poetic M 240
mind in the frame M 240
mind by the sweet M 240
mind as the sound M 240
mixing of the people M 238
mine so he could M 238
mine on the train M 238
mind at the stage M 238
mile in the lower M 238
mice in the meadow M 238
mine in the kingdom M 237
mind to the child M 236
mind to be first M 236
mind on the tasks M 236
mine in the shade M 234
mine in my hands M 234
mind as the worst M 234
mind in the terms M 233
mind go to sleep M 233
mind as the people M 233
mind to the steady M 232
mind to be about M 232
mind is in motion M 232
mind as it could M 232
mile of the gates M 232
mind on the train M 231
mind to be given M 230
mile of the drive M 230
mile of my place M 230
mind to the front M 229
mist in the woods M 228
mine is the cause M 228
mind on the model M 228
mind in the train M 228
mixing of the world M 227
mixing in the sense M 227
mind in the lines M 227
mind is the major M 226
mind by the world M 225
mist of the water M 224
mind to the writing M 224
mind of the naive M 224
mind by an order M 224
mind or of human M 223
mind is the method M 223
mile of the right M 223
mixing of the ashes M 222
mist in the evening M 222
mine to the power M 222
mine to be blown M 222
mind to the visit M 222
mind of the beauty M 222
mice by the method M 222
mind is an inner M 221
mind by the grace M 221
mixing in the final M 220
mind to the vision M 220
mind to be thinking M 220
mind of the wealthy M 220
mind is the maker M 220
mind as to every M 220
mind as it ought M 220
mixing in the blood M 219
mind in the pages M 219
mind as the water M 219
mine in the shape M 218
mind to an exact M 218
mind by the nurse M 218
mild in the sense M 218
mind or the outer M 217
mixing in the action M 216
mind to the topic M 216
mind or the inner M 216
mind of the sleep M 216
mile to the train M 216
mine of the whole M 215
mine of the state M 215
mine in the woods M 215
mile to the ruins M 215
mile of the total M 215
mixing it in water M 214
mind to the exact M 214
mind to be empty M 214
mind on the major M 214
mind of the angels M 214
mind in no small M 214
mind as it tries M 214
mixing is no longer M 213
mind on the sound M 213
mind as the right M 213
mine at the table M 212
mind to be really M 212
mind on the money M 212
mind of the teaching M 212
mind of the still M 212
mind in the sunny M 212
mind in the realms M 212
mind of the sound M 211
mind be as naked M 210
mind as he comes M 210
mind of the budding M 209
mile to the total M 209
mixing in the model M 208
mist of the stream M 208
mind of the cause M 208
mind of the above M 208
mind is to brain M 208
mixing of the final M 207
mind on the field M 207
mind of the sweet M 207
mind is at fault M 207
mind if the world M 207
mine so we could M 206
mind on the sense M 206
mind is to place M 206
mind by the human M 206
mind by the strong M 205
mind as the voice M 205
mine on the night M 204
mind to the names M 204
mind to the match M 204
mind to be civil M 204
mind of the music M 204
mind is the thinking M 204
mind in the mother M 204
mind of the close M 203
mind as my father M 203
mine to my mother M 202
mind to the danger M 202
mind on the watch M 202
mind of the alien M 202
mind is as empty M 202
mind if he knows M 201
mind on the vital M 200
mind of the given M 200
mind is to start M 200
mind is the limit M 200
mind is of still M 200
mine as he tried M 199
mind to go below M 199
mind in the still M 199
mine in the event M 198
mind is in total M 198
mind is as alert M 198
mind as the night M 198
mile or so which M 198
mile on the whole M 198
mine is the guilt M 197
mind to do either M 197
mind of the inner M 197
mine in the small M 196
mind on the search M 196
mice of the people M 196
mind to the quiet M 195
mind on the trail M 195
mind of my first M 195
mind in the hands M 195
mind at the onset M 195
mind as the brain M 195
mile of the upper M 195
mind is so alert M 194
mind in the action M 194
mind if we moved M 194
mind if he takes M 194
mind by the works M 194
mild or of short M 194
mine to be found M 193
mind to the night M 193
mind as the point M 193
mind to the daily M 192
mind of the junior M 192
mind of the cares M 192
mind of my worthy M 192
mind is to focus M 192
mind as the focus M 192
mind as it grows M 192
miss to the right M 191
mine in the nearby M 191
mind of the praying M 191
mind of my wants M 191
mind as he asked M 191
mind to the close M 190
mind of the stage M 190
mixing of the input M 189
mind to the vital M 189
mind of the creating M 189
mind to the lower M 188
mind is the proof M 188
mind of it again M 187
mind as we stand M 187
mixing of the river M 186
mixing of the color M 186
mist of the first M 186
mine on the phone M 186
mine as we stood M 186
mind to the wider M 186
mind to the legal M 186
mind to the given M 186
mind on the exact M 186
mind of the warmth M 186
mind is in chaos M 186
mind to the white M 185
mind to the basic M 185
mind is the action M 185
mind as it opens M 185
mind to it until M 184
mind to be acted M 184
mind or the state M 184
mind of the wiser M 184
mind of the kingdom M 184
mind is the stage M 184
mind is in terms M 184
mile as the trail M 184
mist to the right M 183
mine is the blame M 183
mixing up the whole M 182
mine on the river M 182
mind of the piece M 182
mind of my people M 182
mind of an utter M 182
mind is the vital M 182
mind in the shaping M 182
mind in the grasp M 182
mind as it makes M 182
mild in the morning M 182
mice on the first M 182
mine in the usual M 181
mind to the quick M 181
mind in the notion M 181
mind if it seems M 181
mind to the queen M 180
mind to it after M 180
mind on the final M 180
mind of the total M 180
mind of an alien M 180
mind is the guide M 180
mind is no match M 180
mind is it given M 180
mind in the agent M 180
mind as the party M 180
mile on my right M 180
mist in the hills M 179
mind of the lines M 179
mile of the cross M 179
miss in the world M 178
mind is the focus M 178
mind is of small M 178
mind is to begin M 177
mile to the woods M 177
mile to the local M 177
mind to the moral M 176
mind to the depths M 176
mind in an agony M 176
mind as to create M 176
mist as it rises M 175
mine to my house M 175
mind to my mother M 174
mind on the moral M 174
mind of the green M 174
mind as the group M 174
mind as an enemy M 174
mind of my right M 173
mind as he tells M 173
mixing of the inner M 172
mind if the people M 172
mind he is thinking M 172
mile of the above M 172
mind by my visit M 171
mind as the human M 171
mixing of the terms M 170
mine is the place M 170
mine at the close M 170
mind to the claim M 170
mind to be blown M 170
mind or the reason M 170
mind or of reason M 170
mind in the vague M 170
mind in no doubt M 170
mind if he joins M 170
mind by the motion M 170
mind by the daily M 170
mile in the space M 170
mine is the house M 169
mind of the alert M 169
mind is the force M 169
mind as the leader M 169
mixing to the place M 168
mine be the blame M 168
mind to the passing M 168
mind on the action M 168
mind is an utter M 168
mind if it hurts M 168
mind as in blood M 168
mind as he neared M 168
mile of my father M 168
mild as he could M 168
mixing of the stream M 167
mine in the lower M 167
mile or so under M 167
mixing of the parts M 166
mist on the plain M 166
mine to the whole M 166
mind of the worst M 166
mind of the money M 166
mind is as sound M 166
mind by the color M 165
mild on the whole M 165
mine is the final M 164
mind is to admit M 164
mind in the large M 164
mind at the exact M 164
mind as he seeks M 164
mile of the start M 164
mile in the water M 164
mixing of the outer M 163
mind on my first M 163
mind as he learns M 163
mind to the force M 162
mind on the reason M 162
mind on the deity M 162
mind of the weaker M 162
mind in the moral M 162
mind in the learning M 162
mind in an uneasy M 162
mind by the vision M 162
mind by the habit M 162
mind by the beauty M 162
mind as the enemy M 162
mile of the hills M 162
mine is the glory M 161
mile or so beneath M 161
mixing to the point M 160
mist on the grass M 160
mine in the royal M 160
mind to go under M 160
mind to be again M 160
mind or of feeling M 160
mind of the river M 160
mind of the quiet M 160
mind of the quick M 160
mind of the monks M 160
mind at the lines M 160
mile on the hither M 160
mile of the usual M 160
mile in the front M 160
mind in the inner M 159
mind by the above M 159
mind as we search M 159
mixing of the small M 158
mixing of the basic M 158
mine is my mother M 158
mine be the first M 158
mind to the plane M 158
mind is the judge M 158
mind is in search M 158
mile or so every M 158
mild on the coast M 158
mind on the lines M 157
mind at the words M 157
mixing up of units M 156
mixing in the fight M 156
mist by the river M 156
mind to the total M 156
mind to it again M 156
mind to be worse M 156
mind on the passing M 156
mind in an equal M 156
mind as the notion M 156
mind as the abode M 156
mice in the story M 156
mine if he could M 155
mind or the sense M 155
mind is the voice M 155
mind as an adult M 155
mile to the stream M 155
mind on the beauty M 154
mind of the shape M 154
mind of the really M 154
mind of an alert M 154
mind in the exact M 154
mind in the cases M 154
mind by the growth M 154
mind as it knows M 154
mild as the evening M 154
mine in the beauty M 153
mind to be rather M 153
mind if the girls M 153
mist in the depths M 152
mine if it likes M 152
mine be the guilt M 152
mind to the group M 152
mind to my words M 152
mind on the meeting M 152
mind on the author M 152
mind of the bearer M 152
mind in the depths M 152
mind as we wrote M 152
mice in the night M 152
mine by the mother M 151
mind is to carry M 151
mind in the upper M 151
mist or the evening M 150
mine in the front M 150
mine in the cause M 150
mine at the royal M 150
mind to the others M 150
mind is in quest M 150
mind as the total M 150
mile of the light M 150
mild as to cover M 150
mice in the fable M 150
miss of the kingdom M 149
miss in the works M 149
mind is the moral M 149
mind at the final M 149
mist in the upper M 148
mist in the shape M 148
mine in the white M 148
mind to go hunting M 148
mind so in unity M 148
mind is in right M 148
mind is an abyss M 148
mind if the house M 148
mile in the upper M 148
mile at the lower M 148
mind in the knowing M 147
mind if we never M 147
mind as the woman M 147
mile up the drive M 147
mile on the lines M 147
mixing in the whole M 146
mine is in danger M 146
mine as he could M 146
mind to the feeling M 146
mind to an alien M 146
mind on the books M 146
mind is to serve M 146
mind is the lower M 146
mind in an image M 146
mind as the inner M 146
mile of the small M 146
mine on the rocks M 145
mine is to blame M 145
mine in the paper M 145
mind is to build M 145
mind if we drive M 145
mile to the field M 145
mile in the evening M 145
mind to the works M 144
mind on the order M 144
mind on my books M 144
mind in the beauty M 144
mind by the false M 144
mice in my house M 144
mind of the model M 143
mind in the small M 143
mixing in the mixed M 142
mist of the falling M 142
mine on the board M 142
mine in the essay M 142
mind or in words M 142
mind on the child M 142
mind is no proof M 142
mind is in large M 142
mind in the facts M 142
mice in the woods M 142
mind is the small M 141
mind is the growing M 141
mind if it makes M 141
mind if he wrote M 141
mist on the meadow M 140
miss it by about M 140
mine at the front M 140
mind to the period M 140
mind to the method M 140
mind to be worthy M 140
mind to an image M 140
mind so as never M 140
mind of the labor M 140
mind go to waste M 140
mile to the lodge M 140
mile at the point M 140
mind on the pages M 139
mind of the water M 139
mind is to raise M 139
mind he no longer M 139
mist in the nearer M 138
mine to the train M 138
mine in the right M 138
mine by the force M 138
mind to the unity M 138
mind to the money M 138
mind to be truly M 138
mind to be loved M 138
mind of the tiger M 138
mind in the pupil M 138
mind by the house M 138
mind at the touch M 138
mind as in dreaming M 138
mile of the large M 138
mile is the usual M 138
miss in the engine M 137
mind of an elder M 137
mind is the vision M 137
mind as we shall M 137
mixing of the seeds M 136
miss is the sense M 136
mine on the bending M 136
mind to the verge M 136
mind to the learning M 136
mind to be proud M 136
mind to an event M 136
mind of the known M 136
mind is the large M 136
mind is so given M 136
mind as the meeting M 136
mind as an event M 136
mind on the paper M 135
mind as the music M 135
mice of the world M 135
mixing up the facts M 134
mixing up the dates M 134
mixing of the above M 134
mine to the water M 134
mind to the times M 134
mind to the opening M 134
mind to the large M 134
mind on the grand M 134
mind on the cause M 134
mind on an image M 134
mind is to marry M 134
mind in the style M 134
mind as we began M 134
mind as he waits M 134
mine or my mother M 133
mine on my father M 133
mind if the child M 133
mixing in the small M 132
mine is the agony M 132
mine is no worse M 132
mind to the modes M 132
mind of an event M 132
mind in the unity M 132
mind at the season M 132
mind as the sense M 132
mixing of the chain M 131
mine on the people M 131
mine in the river M 131
mile of the steep M 131
mile at the upper M 131
mixing to the forms M 130
mixing on the paper M 130
mixing it in every M 130
mine on the front M 130
mine of the group M 130
mine in the space M 130
mine at the right M 130
mine as he seems M 130
mind to the meeting M 130
mind to go until M 130
mind in the awful M 130
mind as he grows M 130
mice in the traps M 130
mist in the light M 129
mine in the final M 129
mind to be right M 129
mind is the equal M 129
mind in the total M 129
mind in the press M 129
mind in the black M 129
mile up the winding M 129
mixing of the cloud M 128
mist of the place M 128
mind to be asked M 128
mind of the cruel M 128
mind it is easily M 128
mind is the strong M 128
mind is in favor M 128
mind if the others M 128
mind if the blood M 128
mind by the child M 128
mind as he slept M 128
mine on the stage M 127
mind is the usual M 127
mind if he really M 127
mine of the human M 126
mine is the shame M 126
mine in or about M 126
mind to the breaking M 126
mind it is hoped M 126
mind is the change M 126
mind is in keeping M 126
mind in the poetry M 126
mind in an alien M 126
mind by my mother M 126
mind as it rises M 126
mile to the stage M 126
mile in the night M 126
mine at the price M 125
mind to the grace M 125
mind is to apply M 125
mile or so while M 125
mile in the right M 125
mixing in the large M 124
mind of the holes M 124
mind of my enemy M 124
mind is to enter M 124
mind is the crime M 124
mind in the working M 124
mind in the stage M 124
mind if it costs M 124
mind he no doubt M 124
mind by the visit M 124
mind by the mother M 124
mind at the altar M 124
mild in the light M 124
mild at the start M 124
mind on the people M 123
mind of the fully M 123
mind is the vague M 123
mind if it comes M 123
mixing up the first M 122
mine on the cover M 122
mind to the shape M 122
mind to the morning M 122
mind to the devil M 122
mind to be above M 122
mind the thing which M 122
mind is the space M 122
mind if we sleep M 122
mind by the right M 122
mind if we tried M 121
mile to the gates M 121
mist in the first M 120
miss it at times M 120
mine is so light M 120
mine is no place M 120
mind to the logic M 120
mind of the hungry M 120
mind is to point M 120
mind is of vital M 120
mind is of equal M 120
mind in the danger M 120
mind by the names M 120
mind be no doubt M 120
mind at the given M 120
mind as to drown M 120
mile of the train M 120
mile of the globe M 120
mind of the thirty M 119
mind is the teaching M 119
mixing up of people M 118
mixing in the layer M 118
mist in my brain M 118
mine in the group M 118
mind to the river M 118
mind to go nearer M 118
mind on the power M 118
mind on the danger M 118
mind of the folly M 118
mind is to train M 118
mind is no reason M 118
mind if we visit M 118
mind as the field M 118
mind as an added M 118
mile to the enemy M 118
mind is to search M 117
mind is the mother M 117
mind is the crown M 117
mind if the water M 117
mind as he chose M 117
mixing of the mother M 116
mixing of the bands M 116
mind to the forms M 116
mind on the trees M 116
mind of the truths M 116
mind is to watch M 116
mind in the season M 116
mind if he spent M 116
mind as he leaves M 116
mind as an issue M 116
mile on the weather M 116
mild on my threats M 116
mice on the growth M 116
mine is no beauty M 115
mind by the devil M 115
mile of the green M 115
mist on the right M 114
mine to the people M 114
mine on the force M 114
mine of the fourth M 114
mine at the world M 114
mine at the start M 114
mind to an offer M 114
mind of the worry M 114
mind of the demon M 114
mind it is really M 114
mind is to doubt M 114
mind is in ruins M 114
mind at the table M 114
mind as is shown M 114
mind as he finds M 114
mile in the midst M 114
mixing in the outer M 113
miss me at first M 113
mine to the press M 113
mine on the point M 113
mine by the owner M 113
mind is the rather M 113
mind as we moved M 113
mixing in the phase M 112
mist on the outer M 112
mine by my father M 112
mind to the terms M 112
mind to be steady M 112
mind of the usual M 112
mind of the study M 112
mind of the rough M 112
mind of the heroes M 112
mind is the model M 112
mind by the tales M 112
mind as it shows M 112
mile of the inner M 112
mile of me which M 112
mild in the lower M 112
miss if he could M 111
mind is the growth M 111
mile to be found M 111
mist of the color M 110
mine up the river M 110
mind to be never M 110
mind on the floor M 110
mind of the tutor M 110
mind of the earthly M 110
mind is to check M 110
mind is by doubt M 110
mind in the woods M 110
mind in the legal M 110
mind if he finds M 110
mind as the limit M 110
mind as it takes M 110
mixing of the mixed M 109
mine in the daily M 109
mind in the vision M 109
mind in the hopes M 109
mind if the reader M 109
mind as he added M 109
mine of the count M 108
mine is to yours M 108
mind to the noise M 108
mind to the awful M 108
mind on the cross M 108
mind of the risen M 108
mind of the habit M 108
mind is to judge M 108
mind if the first M 108
mind at the price M 108
mind as we start M 108
mind as we focus M 108
mind as in every M 108
mile to the white M 108
mile if the weather M 108
mile by the river M 108
mild as to allow M 108
mind to be cross M 107
mind is of value M 107
mind in the vital M 107
mind as is found M 107
mind as he drank M 107
mild is the parting M 107
mist of the cloud M 106
mist of my dreams M 106
mind to the parts M 106
mind to be healthy M 106
mind to an amazing M 106
mind on the women M 106
mind on the small M 106
mind of the issue M 106
mind of the doubt M 106
mind is the claim M 106
mind is of prime M 106
mind in the enemy M 106
mind if it looks M 106
mind if he makes M 106
mind as to knock M 106
mind as it turns M 106
mile of the stuff M 106
mine or of others M 105
mine by the royal M 105
mind to go first M 105
mind is the sound M 105
mind as the judge M 105
mixing of the layer M 104
mixing in the river M 104
mixing in the inner M 104
mist on the coast M 104
miss in the woods M 104
mine to the upper M 104
mine or an exact M 104
mine on the abuse M 104
mind to the upper M 104
mind or in writing M 104
mind on my teaching M 104
mind of an order M 104
mind is the house M 104
mind by the grand M 104
mind by my father M 104
mind by an image M 104
mind be the cause M 104
mile of the woods M 104
mixing at the upper M 103
mine to the quick M 103
mine is the morning M 103
mine in the lands M 103
mine in my first M 103
mind in the times M 103
mind as the weeks M 103
mind as the price M 103
mile on the lower M 103
mile of the world M 103
mixing up the story M 102
mixing of the types M 102
mixing of the phase M 102
mine on the backs M 102
mind to the water M 102
mind to the strong M 102
mind or the child M 102
mind on the parts M 102
mind is the glory M 102
mind is on getting M 102
mind is an event M 102
mind by the press M 102
mind as he urged M 102
mice in the place M 102
mine to the royal M 101
mine on the evening M 101
mine at the point M 101
mind of the short M 101
mind if my mother M 101
mixing at the edges M 100
mist in the world M 100
mind to the train M 100
mind of the willing M 100
mind of no small M 100
mind of my pupil M 100
mind is as easily M 100
mind in me which M 100
mind by the lines M 100
mind by my first M 100
mind at the hands M 100
mind at my first M 100
mind as it tried M 100
mile on my hands M 100
mile of the black M 100
mind if we spend M 99
mind by the pupil M 99
mixing up of names M 98
mixing of the state M 98
mixing of the right M 98
mixing of the large M 98
mist on the lower M 98
mine is the exact M 98
mine is so small M 98
mind up to marry M 98
mind to the black M 98
mind to be blind M 98
mind on the notion M 98
mind of the guard M 98
mind of an exile M 98
mind is as still M 98
mind in the stream M 98
mind in the seven M 98
mind if he loses M 98
mind by the vivid M 98
mind by the guiding M 98
mind by so uneasy M 98
mind be of right M 98
mind as to yours M 98
mind as it moved M 98
mind as it began M 98
mile of the climb M 98
mice in the lower M 98
mine to the woods M 97
mind to the plain M 97
mind to go looking M 97
mind it is above M 97
mind in the sweet M 97
mind in the method M 97
mind in the hurry M 97
mind as he views M 97
mixing up of words M 96
mixing of the stuff M 96
mind to the sweet M 96
mind to the solid M 96
mind to be bored M 96
mind or to thinking M 96
mind of the glory M 96
mind is my kingdom M 96
mind in the shade M 96
mind if the enemy M 96
mind as we utter M 96
mile or so still M 96
mild at the first M 96
mild as the morning M 96
mice to the virus M 96
mind as we headed M 95
mind as my first M 95
mile to the rocks M 95
mixing of the album M 94
mine in the mother M 94
mind to the vices M 94
mind to the quest M 94
mind to the evening M 94
mind to me about M 94
mind or in others M 94
mind on my money M 94
mind of the minds M 94
mind is to repeat M 94
mind is to blame M 94
mind is the shape M 94
mind is in space M 94
mind in the voice M 94
mind in the deeds M 94
mind as to count M 94
mind as the older M 94
mind as the blood M 94
mile of the chase M 94
mile at the first M 94
mild as it could M 94
mice to be found M 94
mixing is to place M 93
mind to the growing M 93
mind on the water M 93
mind is to state M 93
mixing in the usual M 92
mine as the light M 92
mind to the ordeal M 92
mind to the known M 92
mind to the civil M 92
mind to no avail M 92
mind to be upset M 92
mind of the hasty M 92
mind by the front M 92
mind by the change M 92
mind as to force M 92
mind as the state M 92
mild as to admit M 92
mild as it might M 92
mice to the action M 92
mice of the field M 92
mine by the first M 91
mind of the speaking M 91
mind is the engine M 91
mind if he broke M 91
mind do the drawing M 91
mile or so right M 91
mile of the seven M 91
mixing it up again M 90
mixing in the daily M 90
mine at the state M 90
mind to the owner M 90
mind to do after M 90
mind to be working M 90
mind to be burning M 90
mind on the needs M 90
mind on the altar M 90
mind of the rather M 90
mind of the loser M 90
mind of the basic M 90
mind is the fourth M 90
mind is an engine M 90
mind in the point M 90
mind if it wants M 90
mind as the period M 90
mind as the force M 90
mice at the start M 90
mixing of the newly M 89
mixing in the stream M 89
mist in the still M 89
mind of the daily M 89
mind as the evening M 89
mile on the route M 89
mixing of the codes M 88
mixing in the forms M 88
mine in the blood M 88
mind to the utter M 88
mind to the green M 88
mind to be quick M 88
mind so it could M 88
mind on the writing M 88
mind on the table M 88
mind of the landing M 88
mind of the grief M 88
mind of the grace M 88
mind of the forms M 88
mind is to dwell M 88
mind is the falling M 88
mind is as fully M 88
mind is an order M 88
mind in the music M 88
mind in the mould M 88
mind if we spent M 88
mind if he slept M 88
mind by the morning M 88
mind as to right M 88
mind as the mother M 88
mind as the later M 88
mind as the facts M 88
mile to the coast M 88
mild or no signs M 88
mine as the father M 87
mind or to guess M 87
mind on the board M 87
mind in the after M 87
mind by the feeling M 87
mine is on sweet M 86
mine is in yours M 86
mine in the press M 86
mine at the major M 86
mind to the appeal M 86
mind to the above M 86
mind on the works M 86
mind of the thanks M 86
mind of the forty M 86
mind of the armed M 86
mind is to stand M 86
mind is to logic M 86
mind is the healer M 86
mind in no sense M 86
mind in an empty M 86
mind by the books M 86
mind as the really M 86
mile of the others M 86
mile of the major M 86
mice by the action M 86
mind to an equal M 85
mind of the morning M 85
mind is to offer M 85
mixing on an equal M 84
mine or of yours M 84
mind to the pupil M 84
mind to it months M 84
mind to be uneasy M 84
mind or the labor M 84
mind on the stream M 84
mind of the girls M 84
mind of the evening M 84
mind of the dreams M 84
mind in the essay M 84
mind if he stops M 84
mind do we really M 84
mind by the board M 84
mind as the white M 84
mind as he built M 84
mile of the crime M 84
mind of the loved M 83
mind is the meeting M 83
mixing of the strong M 82
miss of the usual M 82
miss in the wiser M 82
mine in the stage M 82
mind to the labor M 82
mind to the happy M 82
mind or of anything M 82
mind or in terms M 82
mind of the terms M 82
mind is to guide M 82
mind is to adapt M 82
mind is the utter M 82
mind is the irony M 82
mind is the error M 82
mind is so acute M 82
mind is in error M 82
mind in the toils M 82
mind in the fight M 82
mind at the times M 82
mind as the guide M 82
mind as he rises M 82
mind to the space M 81
mind is the close M 81
mixing up the pages M 80
mixing of the order M 80
mist at the edges M 80
mine or my author M 80
mind or an action M 80
mind on the match M 80
mind on it until M 80
mind of the storm M 80
mind is to every M 80
mind is the easier M 80
mind is so large M 80
mind by the owner M 80
mind by the deity M 80
mind as to parting M 80
mind as the small M 80
mile of the worst M 80
mild as the first M 80
mice to the human M 80
mile of the plain M 78
mind in the front M 69
miss at the first M 67
mind is the opening M 67
mind if he tried M 67
mine as to which M 65
mind of the opening M 64
mind to the working M 62
mine to do anything M 61
mine or my father M 61
mine at the local M 61
mine to be given M 59
mixing of the burning M 58
mine if it could M 58
mine it is found M 57
mind is the value M 57
mine to the house M 56
mine to be happy M 56
mine in the writing M 56
mine in the study M 56
mind of the seven M 56
mind it is either M 56
mind if he keeps M 56
mist of the plain M 54
miss in the morning M 54
mine on the track M 54
mixing of the shell M 53
mind is the working M 53
mind if he gives M 53
mine to be yours M 52
mind on the outer M 52
mile of the block M 52
mine at the place M 51
mind of the table M 51
mind it is never M 51
mind if he liked M 51
mind in the drawing M 50
mind if it turns M 50
mine in the pages M 49
mine in my house M 49
mind is the period M 49
mind by the terms M 49
mile of the weather M 49
mile by the water M 49
mine to the owner M 48
mind on the light M 48
mind of the cross M 48
mind in the water M 48
mind in the passing M 48
mind as it first M 48
mist on the woods M 47
mind on the breathing M 47
mind is so close M 47
mind if the right M 47
mine to the block M 46
mine on my first M 46
mine as to where M 46
mind on the opening M 46
mind is the night M 46
mixing of the total M 45
mixing in the space M 45
mine to my sweet M 45
mind or the right M 45
mind on the burning M 45
mind of the outer M 45
mind as my mother M 45
mile on the plain M 45
mist in the lower M 44
miss on the right M 44
mine in the trunk M 44
mine in the crowd M 44
mine in the class M 44
mind is the search M 44
mind if the price M 44
mine to the state M 43
mine on my hands M 43
mine if he wants M 43
mind is the actor M 43
mind in the poetic M 43
mind if we close M 43
mind if he feels M 43
mind by the working M 43
mind as the hours M 43
mind as an author M 43
mine to the front M 42
mind is the white M 42
mind is the shift M 42
mind is as though M 42
mind in an order M 42
mind as it often M 42
mine in the search M 41
mind to go visit M 41
mind is the group M 41
mind by the magic M 41
mind by the local M 41
mind as to appear M 41
mine to the floor M 40
mine on the whole M 40
mine is to watch M 40
mine in the grand M 40
mine in the above M 40
mine in my right M 40
mind of the event M 40
mind in the local M 40
mind in the forming M 40
mind if he moved M 40
mind as to unfit M 40
mind as the father M 40
mile on the water M 40
mill on the floss D 109849
mind of the nation D 26453
mind of the hearer D 23741
mind of the court D 12984
mile of the shore D 12502
mixing of the races D 10763
milk of the mother D 8976
mind of the negro D 8942
mind of the flesh D 8744
mill in the world D 8318
milk in the morning D 8025
mixing of the sexes D 7880
milk on the table D 6914
mill on the river D 6634
mingling of the sexes D 6456
mind on the basis D 5792
mingling of the races D 5031
mind of the chief D 4867
mind at the sight D 4090
mind by the sight D 3624
mind of the roman D 3510
mill in the state D 3504
mint in the tower D 3471
milk in the first D 3420
mill on the banks D 3352
mining in the region D 3089
mixing of the gases D 3079
milk of the flock D 3034
milk on the floor D 2951
mile to the parking D 2907
milk in the house D 2896
milk in the udder D 2738
mice of the genus D 2644
mingle in the crowd D 2641
milk in the breast D 2498
mingling in the crowd D 2363
mining in the state D 2362
milk of the cocoa D 2236
mile up the creek D 2214
mind if we would D 2202
mind of the lover D 2126
mind as he drove D 2084
milk to the dairy D 2058
milk as it comes D 2036
mill at the falls D 2024
mind as he spoke D 2002
mile of sea water D 1977
milk on the stove D 1974
mingling of the blood D 1904
mind of the trier D 1902
mill to be built D 1788
mind to the level D 1720
milk is no longer D 1687
mind as the basis D 1678
milk on the basis D 1611
milk to the child D 1530
mint at the tower D 1525
milk in the evening D 1503
mind is the basis D 1445
mind of the juror D 1425
mind is the chief D 1417
mind to go blank D 1401
milk in the world D 1395
mind on the flesh D 1379
milk is the chief D 1379
milk in the mother D 1373
mingle in the dance D 1358
mind of the donor D 1348
mind as he gazed D 1345
milk to the boiling D 1338
milk in the dairy D 1337
milk to the house D 1316
milk to be given D 1310
mining is the chief D 1276
mill on the stream D 1248
mind of the voter D 1246
milk of the nurse D 1210
mind as he would D 1193
mingle in the world D 1181
mill on the right D 1179
mind of the social D 1160
mirth of the evening D 1122
mind of the saint D 1119
milk in an earthen D 1118
milk at the store D 1114
mining in the upper D 1112
mill on the creek D 1102
mire of the world D 1100
mixing of the dough D 1086
mile of the scene D 1079
mining in the black D 1078
milk of the sheep D 1054
milk is the first D 1037
mile to the shore D 1014
milk of the camel D 998
mind of the heathen D 976
mind of the novel D 974
mind is as sharp D 960
mill in the morning D 922
mixing of the fresh D 918
milk in the state D 905
mirth of the party D 904
mind to be merry D 900
mist of the falls D 898
mill by the river D 894
mind as it would D 892
milk to the people D 892
mind of the nabob D 881
mill in the first D 881
mind is an organ D 846
milk of the first D 842
milk in the glass D 836
mine in the region D 825
milk is the cause D 818
mind as the chief D 815
milk to the water D 814
milk by the action D 810
mile of the court D 810
milk on the growth D 809
mining is no longer D 805
mind if he would D 792
mind of the rural D 776
mingle in the social D 774
mind of the horse D 769
mingling in the world D 766
milk is the major D 758
milk of the breast D 752
mind of the widow D 747
mirth of the whole D 740
mind of the laity D 740
milk to the local D 736
mind is the organ D 733
mill in the region D 730
mile of the canal D 730
mind on the level D 722
mite to the cause D 716
mixing of the metal D 715
mind as an organ D 708
mind on the brink D 702
milk at the dairy D 697
mice in the attic D 686
mind of the would D 672
milk by the quart D 664
mingle in the fight D 661
milk in the feeding D 660
mixing of sea water D 656
mind of the wearer D 642
milk in the water D 640
milk of the human D 636
milk is the basis D 636
milk of the goats D 630
mile to the hotel D 629
mild to the taste D 626
milk to the plant D 625
mind of my uncle D 621
mind at the level D 614
mingling of the comic D 613
mind of the logos D 612
mingling in the ranks D 611
mist on the glass D 608
mind as we drove D 604
milk at the breast D 603
mirth in the sound D 602
mind or he would D 599
milk to be taken D 588
mind of the baron D 582
mind of the pilot D 580
milk at the table D 580
milk to the table D 576
milk of the morning D 575
mind of the brute D 564
mind of the sages D 562
mill in the place D 558
mill in the evening D 558
mile up the brook D 554
mind at the mercy D 550
mite of the widow D 540
mingle in the ranks D 536
mine on the cliff D 536
mind of the serial D 536
mill on the upper D 535
mirth at the sight D 533
mining in the world D 532
milk to be added D 532
mining of the ports D 530
mill by the stream D 529
milk as it leaves D 528
mind in the nation D 526
mind to the social D 522
mind of the raven D 521
mind in the ensuing D 518
mingling of the human D 516
mill in the whole D 516
mile up the slope D 511
mind of the dutch D 506
mind as the reins D 506
milk to the towns D 504
milk by the mother D 503
mind of the bible D 498
mike on the phone D 496
mile of the falls D 495
mind of the bigot D 494
mill is no longer D 494
mingling of the people D 493
milk of the white D 489
milk in the human D 482
mining in the first D 481
mine at the sight D 480
milk in the cocoa D 478
mixing in the dance D 476
mill to be sawed D 476
milk of the dairy D 476
milk in the churn D 472
mind as the smell D 470
mind if it would D 466
milk to the flour D 466
mile of the creek D 461
milk of the woman D 460
mingling in the fight D 456
mind is the locus D 456
mining of the seabed D 454
mind is the reins D 452
mill in the shape D 452
mill on the brook D 451
mind as the locus D 446
mint in the reign D 442
mind on the lotus D 442
mica in the rocks D 442
mine as he spoke D 438
milk if the mother D 436
mine on the basis D 434
mind in the guise D 430
milk to the stork D 430
mite of the genus D 428
milk to the urban D 424
milk of the nursing D 424
milk in the large D 422
milk in the diets D 422
mixing of the resin D 420
milk of the whole D 419
mile on the level D 419
mill in the midst D 416
mixing in the region D 415
mind of the abbot D 415
mind as he speaks D 412
milk to the breast D 412
mill at the lower D 410
mixing of the batch D 408
mind of the vicar D 407
mile to the crest D 407
mint in the world D 406
mill on the lower D 404
mile to the falls D 400
milk on the first D 397
mind of the timid D 396
mirth of the world D 394
mind on the score D 393
mind of the senior D 392
milk on the shelf D 392
milk of my mother D 390
mile to the cabin D 389
mind as the scene D 388
mile to the creek D 387
mile of the march D 387
milk in the gland D 386
milk as it flows D 386
milk of the bitch D 384
mike if he would D 384
mile of the hotel D 383
mite in the midst D 380
mining at the royal D 378
mingling of the water D 378
mixing of the social D 377
mind of the scene D 376
mile of the ranch D 376
mill on the table D 375
mixing of the flour D 374
milk in the usual D 374
mill or the upper D 372
milk in the daily D 372
mill in the woods D 370
mill is the first D 369
mile up the shore D 368
mind of the pagan D 363
mind to the scene D 362
mill on the shore D 360
milk in the region D 360
mining in the rocky D 359
mirth of the people D 358
mirth of the crowd D 358
mine on the title D 357
mine at the hotel D 356
mind of the synod D 354
milk of the green D 352
milk is the usual D 352
mind of the tribe D 350
mire of the swamp D 348
mind on the scene D 348
mind on the cards D 348
mind of the bride D 347
milk as he could D 346
mingling as he could D 344
mind in the region D 342
milk in the tubes D 342
mining is the major D 338
mind so he would D 338
mind of the epoch D 337
mirth of the meeting D 336
milk to the first D 336
mingling of the white D 334
mill of the world D 334
mica in the world D 334
mill on the canal D 332
mile of the cable D 332
milk in the upper D 330
milk in the ducts D 328
mind in the flesh D 327
mile of the ferry D 326
mixing of the genes D 324
mind by the court D 324
milk on my cereal D 324
milk of the stars D 324
mill of the state D 323
mind is the scene D 322
mixing of the paint D 320
milk at the right D 318
milk as the basis D 317
milk of the water D 315
mind of the clerk D 314
mixing of the plume D 312
mind of the rider D 312
mind at the speed D 312
mine to be sprung D 310
mind of my hearer D 308
mile up the ridge D 303
mingling of the social D 302
mind by the scene D 302
mirth to the grave D 300
mind is at stake D 300
mile of the rebel D 299
mining on the basis D 298
milk on the cereal D 298
milk in the night D 298
mixing of the vapor D 297
mile of the crest D 297
milk of the evening D 296
milk is in short D 296
milk in the store D 296
mixing in the radial D 293
milk to the right D 293
mine on the staff D 292
mind of the weaver D 292
mind to go thither D 291
milk on the farms D 290
mining in the parks D 286
mining in the leaves D 286
mingling of the mother D 286
mind of the staff D 286
mind of the scout D 286
mind of the rebel D 286
mixing of the paste D 285
mine in the hotel D 284
milk in the ration D 284
mind to be pliant D 282
mind of the petty D 282
mill on the basis D 282
mill at the place D 282
mile of the wharf D 280
milk at the start D 279
mining in the hills D 278
mind is an arena D 278
milk to the state D 278
milk as the first D 278
mice on the basis D 278
mine on the banks D 277
mingling in the dance D 276
milt of the males D 276
milk at the first D 275
milk is at first D 274
mice on the horse D 274
mind to be thrown D 272
mils to the right D 272
milk on an empty D 272
mind is the social D 271
mingle in the scene D 270
mill on the place D 270
mill is in motion D 270
milk on the porch D 270
mile of the ridge D 270
milk of the world D 268
mind of the urban D 266
mind of the gazer D 266
milk to the pound D 266
mill at the upper D 265
mill to the right D 264
milk to the point D 264
milk in the place D 264
mind as the organ D 263
mind of the seaman D 262
mind is as blank D 262
mist at the heels D 260
mirth of the others D 260
mind is the fruit D 260
mill in the house D 260
mixing at the atrial D 258
mill in the upper D 258
milk or in water D 258
mirth in the house D 256
mingling in the social D 256
mile to the ferry D 256
mind of the taker D 255
mirth in the midst D 254
mining in the period D 254
mind of the rajah D 254
mill in the nation D 254
milk to be heated D 254
milk in the above D 254
mile of the cabin D 254
mixing of the alloy D 253
mind in the pineal D 252
milk to the beaten D 252
mining in the solid D 250
milk to the woman D 250
milk is at fault D 250
milk in the small D 250
mile to the depot D 249
mind in the sight D 247
mind of the stern D 246
mind of the rater D 246
mica in the paste D 246
mind of the mover D 245
milk to be drunk D 245
mingle in the flood D 244
milk is of value D 244
milk in the child D 244
milk at the point D 244
milk to the tough D 242
mile or so broad D 242
mixing in the solar D 240
mirth to the small D 240
mind as we would D 239
mind to be frank D 238
mill to the point D 238
milk in the urban D 238
milk in the towns D 238
mind to be bound D 237
mind of the sober D 236
mind in the novel D 236
milk is the basic D 236
milk in the shops D 236
milk in the pails D 236
milk in the local D 236
milk to the nursing D 234
milk to be drawn D 234
mind to the rhythm D 232
milk at the price D 230
milk of my breast D 228
milk is the fresh D 228
mining of the lower D 226
milk to be found D 226
milk by the method D 226
mind if we swamp D 225
mixing of the atoms D 224
mixing in the flour D 224
mining of the house D 224
mingle as an equal D 224
mind of the elect D 224
mind in the social D 223
mire of the abyss D 222
mind to the stern D 222
mind of the naval D 222
milk of the mares D 222
mile to the ranch D 222
mind of the dealer D 221
mind to the bible D 220
mind as he leaned D 220
mind as he raced D 218
mill on the first D 218
milk of the black D 218
milk is the fluid D 218
mind of the angler D 217
mixing of the cards D 216
mine is the shining D 216
mill on the coast D 216
milk to the sugar D 216
milk to the mother D 216
milk at the plant D 216
mile of it would D 216
mixing of the chyme D 214
mind is so rapid D 214
mill to the river D 214
mining on the upper D 213
mile on the roads D 213
mind to the sight D 212
mind in the ranks D 212
mind as he talks D 212
milk is the whole D 212
mile of the blast D 212
mire of the roads D 210
mill in the right D 210
milk of the fruit D 210
mind by the social D 209
mind of the loyal D 206
mill or an upper D 206
mill at the river D 206
milk or the white D 206
mind of an epoch D 205
mingling of the minds D 204
mill in the nearby D 204
mill at the table D 204
milk by the breast D 204
mile of the forts D 204
mike on the floor D 204
mitt on the floss D 203
mind of the miser D 202
milk or eat dairy D 202
mind of the witch D 201
mind on my driving D 200
mind of the maniac D 200
mind of the comic D 200
milk in the rural D 200
milk at the house D 200
mind if we smoke D 199
mind of the popes D 198
milk in the nursing D 198
mist of the spray D 197
milk in the whole D 197
milk as the cause D 197
mind on the court D 196
mill in the small D 196
mill in the hands D 196
milk to the whole D 196
mixing of the sugar D 194
mind as the winds D 194
mile of the banks D 194
mixing of the stock D 192
mixing of the grain D 192
mill in the lower D 192
mite to the world D 191
mind to the pitch D 191
milk as in human D 191
mile to the ridge D 191
milk is the state D 190
mile on the basis D 190
mike if he could D 190
mining in the basin D 189
mine in the rocky D 189
mind of the treaty D 189
mixing of the heated D 188
mind of the trade D 188
mill to the house D 188
milk in the shape D 188
mill on the water D 187
mixing up the cards D 186
mind of the tired D 186
mind of the stone D 186
mind of the stoic D 186
mill in the usual D 186
milk in the right D 186
milk at the local D 186
mile to the banks D 186
mixing on the basis D 185
mind in the split D 185
mind by the sheer D 185
mining in the fever D 184
mine or the singers D 184
milk on my table D 184
mind to be borne D 183
milk to the babes D 183
mire of the river D 182
mingle on an equal D 182
mingle in the beauty D 182
mind is the level D 182
milk to the large D 182
milk as the chief D 182
mile up the canal D 182
milk in my breast D 181
mind to the changing D 180
mind on the social D 180
mind of the region D 180
mill to be taken D 180
mill of the manor D 180
mile in the region D 180
mine in the sight D 179
mind as the sight D 179
mind of the welsh D 178
mill to be found D 178
mill of the first D 178
mill on the falls D 177
milk on the front D 177
mind in the hearer D 176
milk of my nurse D 176
milk is so small D 176
mind of the coach D 174
mind is as fresh D 174
milk as we could D 174
mining in the nearby D 173
mind in the broad D 173
mill as the first D 173
mirth or my gloom D 172
mingle in the stream D 172
mind or the social D 172
milk in the river D 172
milk by the dairy D 172
mind on the driving D 171
mite to the growing D 170
mining of the metal D 170
mine to be fired D 170
mill on the night D 170
mill at the point D 170
milk in the inner D 170
milk if it seems D 170
mirth in the world D 168
mining as the major D 168
mind is the sight D 167
mile of the roman D 167
mining in the hands D 166
mingling of the fresh D 166
mine in the nation D 166
mint in the first D 164
mining of the region D 164
mining in the outer D 164
mingling of the tribe D 164
mind to be loyal D 164
milk to the value D 164
milk as to cause D 164
mile or so would D 164
mike in the first D 164
mien to the close D 164
mice in the genus D 164
mingle in the moral D 163
mine at the naval D 163
milk to the front D 163
mind to be taxed D 162
mind of the mayor D 162
milk in the plant D 162
mice to the truck D 162
mile on the moors D 161
mind to the reins D 160
mind of the sales D 160
mill up the river D 160
mill by the action D 160
milk so he could D 160
milk in the woman D 160
mind on the movie D 159
milk to be mixed D 159
mixing of the brine D 158
mite in the shape D 158
milk of the herds D 158
milk of the father D 158
mild or no anemia D 158
mingling of the world D 157
mind as he gazes D 157
mile of my court D 157
mike on the table D 157
mixing of the comic D 156
mine ear as howling D 156
mind to an aviary D 156
mind of the sight D 156
mind as the nation D 156
milk it is about D 156
mice in the ceiling D 156
mixing of the singlet D 155
mixing in the social D 155
mining in the whole D 155
mind is so sharp D 155
mind in the framing D 155
milk to the total D 155
mixing in the giddy D 154
mining in the kingdom D 154
mile up the gulch D 153
milk to the snake D 152
milk it is often D 152
milk is at times D 152
milk in my glass D 152
mile of the roads D 152
mining the sea floor D 151
mining of the upper D 151
mine in the glass D 151
mind so it would D 151
mind as he rides D 151
milk of the whale D 151
mining as the chief D 150
mingling of the black D 150
mingle in so deadly D 150
mine as of march D 150
mind of the broad D 150
mind by the rapid D 150
mill in the steel D 150
milk of the right D 150
milk if the sauce D 150
mingling of the sweet D 149
mind to the organ D 149
mirth of the wedding D 148
mind to the evils D 148
mind on the march D 148
mind in the juror D 148
mill in the river D 148
milk of the night D 148
milk of the healthy D 148
milk is so easily D 148
milk at the lower D 148
mist on the moors D 147
milk to the small D 147
mixing up the spark D 146
mirth to the whole D 146
mirth on the faces D 146
mingling in the merry D 146
mingle in the train D 146
milk to be dried D 146
milk so it would D 146
milk in the short D 146
mile at the sight D 146
mingling of the light D 145
mint to the right D 144
mining in the total D 144
mingle in the slave D 144
mingle in the daily D 144
mine is in march D 144
milk to the nearby D 144
milk to the lambs D 144
milk in the serum D 144
milk at the farms D 144
mixing of the spray D 142
mine at the siege D 142
mind on the bible D 142
mind of the filial D 142
mind of my knife D 142
mill of the period D 142
mile up the canon D 142
mike is the author D 142
mien in the world D 141
mite to the store D 140
mite to the stock D 140
mirth at the table D 140
mingle in thy grief D 140
mind of the godly D 140
mind of the flock D 140
mind by the title D 140
mind by the lofty D 140
mime in the first D 140
mill to the place D 140
milk or the water D 140
milk in the period D 140
mind of the league D 139
mixing of the solar D 138
mining on the river D 138
mingle in the noisy D 138
mind if we spoke D 138
milk to the yolks D 138
milk to the hungry D 138
milk in the gourd D 138
milk in the fluid D 138
milk by the glass D 138
mixing of the glass D 137
mine as the flesh D 137
milk to the human D 137
mining of the first D 136
mind of the miner D 136
mind in the reign D 136
mill of the above D 136
mill in the hills D 136
milk to the dough D 136
milk in the fresh D 136
milk in the flask D 136
mingle in the first D 135
mind as he faces D 135
milk to the daily D 135
mirth of the house D 134
mining is the first D 134
mine if he would D 134
mind if the homes D 134
mime on the stage D 134
mile of the depot D 134
mien in the midst D 134
mirth in the court D 133
mixing in the quark D 132
mist to the vapor D 132
mist is so dense D 132
mingle in the party D 132
mingle in the midst D 132
mind of the gnawing D 132
mind in the scene D 132
milk at the evening D 132
mile up the gorge D 132
mile of the villa D 132
mile of the dreary D 132
mile of the basin D 132
mixing of the serum D 131
mining in the river D 131
mingle in the skies D 130
mind in the breast D 130
mill in the kingdom D 130
mile to the wharf D 130
mile on the banks D 130
mite is so small D 129
mind of the savior D 129
milk on the morning D 129
mice in the straw D 129
mixing up the dough D 128
mite on the altar D 128
mingle in the action D 128
mine to the miner D 128
mind to be vexed D 128
mind as the fruit D 128
mill to the turning D 128
mill is in error D 128
milk to the women D 128
milk to the needs D 128
milk to the action D 128
milk of the fresh D 128
milk at the sight D 128
mile of the nabob D 128
mica in the stone D 128
mill in the night D 127
mind on the pilot D 126
mind if he spoke D 126
mind as to shake D 126
milk in the hands D 126
milk in the final D 126
milk as he wants D 126
milk as an adult D 126
mist of the milky D 125
mind by the shock D 125
mixing of the fetal D 124
mining of the walls D 124
mining in the lower D 124
mingle in the blood D 124
mind as to tempt D 124
mind as the smoke D 124
mind as he plays D 124
mill in the above D 124
milk to the needy D 124
milk of my goats D 124
milk in the order D 124
mire of the marsh D 123
mind of the nomad D 123
mind of the groom D 123
mind if it rains D 123
mirth in the sunny D 122
mining in the mother D 122
mingle in the manly D 122
mine on the shore D 122
mind to the grave D 122
mind of the clown D 122
mind in the bible D 122
milk up to about D 122
milk on the steps D 122
milk in the spread D 122
milk by the usual D 122
milk as the major D 122
mile to the springs D 122
mile of the sandy D 122
mile of the abbey D 122
mixing at the inlet D 121
mint of the grand D 121
mill is in ruins D 121
mingling in the group D 120
mind to be blank D 120
mind of the giddy D 120
mind in the faces D 120
mill on the backs D 120
milk to the store D 120
milk to the level D 120
milk of the muses D 120
milk in the lower D 120
milk as the basic D 120
mile of the fatal D 120
mice in the grain D 120
mist on the shore D 118
mingling of the whole D 118
mingling of the flesh D 118
mingling in the blast D 118
mingle in the sable D 118
mind of the grave D 118
mind by the hearse D 118
milk of the small D 118
milk of the horse D 118
milk is the sugar D 118
milk as an index D 118
mile to the scene D 118
mixing of the lipid D 117
mite to the total D 117
mingle in the evening D 117
mind in the setting D 117
milk in the event D 117
mile of the inlet D 117
mike in the morning D 117
mind to the chief D 116
mind on the stars D 116
mind on the bench D 116
mind of the stock D 116
mind of the frank D 116
mind is the focal D 116
mill in the plant D 116
milk to the floor D 116
milk on the place D 116
milk in the fourth D 116
mile on the shore D 116
mile of the tents D 116
mike is the first D 116
milk in the light D 115
mixing in the basin D 114
mist is the tunic D 114
minx in the world D 114
mining of the large D 114
mine is the tongue D 114
mind to be swept D 114
mind of the fetus D 114
mind in the voter D 114
mill in the essay D 114
milk to the train D 114
milk to the growing D 114
milk to the depot D 114
milk on the train D 114
mind to the brink D 113
mind is the sheer D 113
mixing at the level D 112
miss is the title D 112
mining of the roads D 112
mingling of the older D 112
mingle in the human D 112
mind is the spell D 112
mind in the flash D 112
mind as the filthy D 112
mill so he could D 112
mill at the right D 112
milk on the tongue D 112
mike as he stood D 112
mist of sea spray D 111
mingling of the poetic D 111
mind to the nation D 111
mind as an arena D 111
mixing of the soils D 110
mirth at the noise D 110
mind up to shoot D 110
mind to the plunge D 110
mind of the trading D 110
mind of the ghost D 110
mind of the minor D 109
mixing of the flows D 108
mixing in the ranks D 108
miss at thy throne D 108
mining on the local D 108
mining of the world D 108
mining as the state D 108
mingling on the floor D 108
mingling of the witch D 108
mine or my uncle D 108
mind on the broad D 108
mind of the envoy D 108
mind is the arena D 108
mind as we delve D 108
milk on the rocks D 108
milk in the later D 108
milk in the blood D 108
milk in the adult D 108
milk as the child D 108
mile of the mills D 108
mixing of the grout D 107
mining on the coast D 107
mind by the stern D 107
mining of the shale D 106
mining is the search D 106
mind of the poles D 106
mill to the store D 106
mike at the wheel D 106
mind in the court D 105
mill in the black D 105
milk to go round D 105
mining of the money D 104
mind to the solving D 104
mind of the uncle D 104
mind of the lowly D 104
mind of the dashing D 104
mind of the bonny D 104
mind is the pivot D 104
milk to the world D 104
milk of the above D 104
milk as it cools D 104
mingling of the gases D 103
mind of the fatal D 103
mind is the arrow D 103
mirth in the minds D 102
mining is the method D 102
mine to the blush D 102
mind to the shock D 102
mind of the hardy D 102
mind in the bosom D 102
mill to the landing D 102
milk to the homes D 102
milk or of water D 102
milk on the night D 102
milk on the fourth D 102
milk by the local D 102
mile of the nation D 102
mice in the barns D 102
mine is the heron D 101
mixing of the bolus D 100
mixing in the mixer D 100
mirth on the verge D 100
mire of the ditch D 100
mining to the total D 100
mining of the oceans D 100
mingling of the pagan D 100
mingling of the grave D 100
mine of the region D 100
mine is at stake D 100
mind to the tongue D 100
mind or it would D 100
mind in the chief D 100
mill on the issue D 100
mill in the light D 100
milk on the black D 100
milk of the child D 100
milk is to blame D 100
milk in the black D 100
milk by the child D 100
mike in the front D 100
mingling of the first D 99
mind to be talking D 99
mind of the mouse D 99
mile in the rural D 99
mixing of the drugs D 98
mixing of the cooling D 98
mite to the growth D 98
mite to the grand D 98
mirth of the table D 98
mirth in the voice D 98
mirth at the comic D 98
mire by the first D 98
mingle in the water D 98
mind to the kinds D 98
mind to be saucy D 98
mind at the bidding D 98
mill on the nearby D 98
milk on the grass D 98
milk of the plant D 98
milk in the bowls D 98
mile up the bayou D 98
mixing of the urine D 96
mixing of the glaze D 96
mire of the slums D 96
mingling of the earthly D 96
mingle at the edges D 96
mind to the hearer D 96
mind on the horse D 96
mind of the farming D 96
mill or the forge D 96
mill in the stream D 96
milk to the udder D 96
milk to the bride D 96
milk or the flesh D 96
milk of the usual D 96
milk is to place D 96
milk in the modem D 96
milk as it would D 96
milk as he needs D 96
mile of the wagon D 96
mice at the level D 96
mixing of the blend D 95
mine to the steel D 95
mind to the flood D 95
mill on the black D 95
mile to the shops D 95
mixing of the flowing D 94
mite in the world D 94
mink or an otter D 94
mining in the sense D 94
mingling of the roman D 94
mine is the miner D 94
mind to the throne D 94
mind of the sealer D 94
mind of the fancy D 94
milk to the cereal D 94
milk in the belly D 94
milk in my hands D 94
milk if the dough D 94
mike on the cheek D 94
mice of the donor D 94
mixing in the dense D 93
mixing of the zones D 92
mining is the basic D 92
mingling of the false D 92
mine is the shrub D 92
mind to the shining D 92
mind or the flesh D 92
mind is the title D 92
mind is the sport D 92
mind is so fresh D 92
mill is the author D 92
milk is so strong D 92
milk in the sense D 92
mile of the region D 92
mike on the stage D 92
mike on the couch D 92
mirth to be found D 90
mirth in the morning D 90
mining in the field D 90
mingle in the filthy D 90
mine in the jungle D 90
mind to the stars D 90
mind or the tongue D 90
mind of the whale D 90
mind of the rabbi D 90
mind of an urban D 90
mind in the stars D 90
mind as the stone D 90
mind as it faces D 90
mind as he mused D 90
mind as he crept D 90
milk to the ration D 90
milk of the women D 90
mile of the rocky D 90
mice in the cabin D 90
mirth at the sound D 89
mind as the setting D 89
milk if the child D 89
mile on the paved D 89
mixing of the ethnic D 88
mining to the state D 88
mining in the later D 88
mingling in the lobby D 88
mind of my sahib D 88
mind is the region D 88
mind in the ruder D 88
mill at the start D 88
milk or an ounce D 88
milk on the child D 88
milk of the beasts D 88
milk in the season D 88
milk in my cereal D 88
mice to the toxic D 88
milk to the newly D 87
milk so we could D 87
mixing of the clays D 86
mite in the hopes D 86
mint on the table D 86
mining of the water D 86
mind to the mount D 86
mind to the lofty D 86
mind to be witty D 86
mind of the idler D 86
mind of the dreamy D 86
mill to the puffing D 86
mile to the paved D 86
mile of the springs D 86
mile of the rural D 86
mile of my cabin D 86
mining it is often D 85
mingling at the point D 85
mite is the cause D 84
mirth of the class D 84
mint tea to drink D 84
mingle in the arena D 84
mind to the sheer D 84
mind of the sword D 84
mind of the privy D 84
mind of the fiery D 84
mind is no widow D 84
mind in the blink D 84
mind if the glass D 84
mind by the bible D 84
mind as he draws D 84
mill is no worse D 84
milk to the owner D 84
milk to the dealer D 84
milk or the juice D 84
milk in the veins D 84
mile to the rocky D 84
mile of the cliff D 84
mike so he could D 84
mining to the point D 83
mingling in the action D 83
mirth in the bosom D 82
mingling of the trees D 82
mingle in the wreck D 82
mind to the bride D 82
mind so to rouse D 82
mind of the bench D 82
mind is the pilot D 82
mind if we drove D 82
mind by the caste D 82
mind as the liver D 82
mind as he dozed D 82
mill to the first D 82
mill of the social D 82
milk in the white D 82
milk in the nation D 82
mien of the people D 82
mixing in the vapor D 81
mixing of the basis D 80
mire to the house D 80
mingling in the smoke D 80
mind to the flesh D 80
mind on the vexed D 80
mind on the sight D 80
mind of the taint D 80
mind of the papal D 80
mind is as agile D 80
mill or the house D 80
mill on the small D 80
milk is of vital D 80
milk is no doubt D 80
milk if he could D 80
milk at the lunch D 80
mind in the roman D 73
mite to the whole D 68
mill to the water D 60
mill by the water D 58
mill in the logic D 57
mine in the cabin D 56
mining on the feather D 55
mixing of the inlet D 53
mine in the parking D 53
mine as he leaned D 52
mine to the grave D 51
mind to the drama D 51
mine on the wheel D 50
mind is the nagging D 50
milk at the front D 50
mining in the roman D 48
mind of the dancing D 48
milk in the flush D 48
mile of the camping D 48
mixing of the coating D 47
mining on the water D 47
mine on the shelf D 47
milk to an adult D 47
mingle in the melee D 46
mind of the movie D 46
mile to the tower D 46
mike is no longer D 46
mining on the banks D 45
mine is the chief D 45
mind is so tired D 45
mils in the cross D 45
mill to the boiling D 44
milk to the cooking D 44
milk of the milch D 44
mingling of the funds D 43
mingling in the stream D 43
mine in my purse D 43
mind on the nerve D 43
mind on the navel D 43
mind of the snake D 43
mining as the basis D 42
mine as it would D 42
milk or the mother D 42
mixing is so rapid D 41
mingle in my dreams D 41
mind to go fishing D 41
mind on the banks D 41
mill on the total D 41
mill on the seine D 41
mill of an abbey D 41
mile to the grave D 41
mirth in the drawing D 40
mingle in the river D 40
mind to the myriad D 40
mind as the lotus D 40
mill on the whole D 40
mile to the bluff D 40
