glad you found a M 774
glad and proud i M 510
glad and happy i M 214
glad that after a M 108
glad you chose a M 92
glad she found a M 92
glue that holds a D 2882
glue that binds a D 636
glee with which i D 492
glue that keeps a D 402
glue and screw a D 305
glee with which a D 300
glue that makes a D 127
glen she found a D 123
