glad to hear from M 111733
glad to get away M 55867
glad to get back M 52356
glad if you will M 27548
glad to see your M 22659
glad to get your M 20768
glad to get home M 17895
glad to hear your M 17578
glad to hear what M 13869
glad to get into M 9780
glad to see their M 9232
glad to sit down M 9179
glad to see some M 8330
glad it was over M 7476
glad he had come M 6944
glad to see such M 6100
glad he had been M 5870
glad to hear such M 4950
glad he was there M 4297
glad to see these M 4294
glad to get some M 4064
glad to lie down M 3934
glad in his heart M 3481
glad to see what M 3120
glad to get hold M 2838
glad to see there M 2732
glad it was dark M 2678
glad to hear there M 2636
glad he was gone M 2552
glad to read your M 2520
glad to see those M 2436
glad at any time M 2356
glad to hear some M 2284
glad he had done M 2262
glad to get their M 2232
glad to see from M 2228
glad to lay down M 2102
glad to get there M 2102
glad to get such M 2090
glad to see more M 2034
glad he had made M 2000
glad to hear more M 1990
glad it had been M 1988
glad of his coming M 1938
glad it has been M 1884
glad to get down M 1809
glad to say there M 1781
glad he was when M 1711
glad he was here M 1680
glad we had come M 1648
glad it was only M 1634
glad to lay hold M 1610
glad at any rate M 1596
glad if you were M 1542
glad he had gone M 1534
glad to see miss M 1472
glad to get even M 1416
glad to hear these M 1408
glad to hear good M 1373
glad he has come M 1358
glad he was able M 1292
glad to get here M 1258
glad we all were M 1224
glad of his help M 1218
glad to get these M 1186
glad to run away M 1176
glad to see even M 1150
glad to hear their M 1138
glad if they were M 1134
glad to get work M 1041
glad we are here M 1040
glad to read what M 1028
glad to hear those M 1028
glad he has gone M 1024
glad of each other M 1008
glad no one else M 1004
glad to get what M 998
glad to get from M 986
glad to say good M 984
glad to see here M 978
glad to get clear M 974
glad it was done M 966
glad if you have M 964
glad he had left M 964
glad it was there M 937
glad he was back M 934
glad in her heart M 900
glad of any help M 870
glad of our coming M 830
glad to get quit M 818
glad to run into M 804
glad he was coming M 796
glad he had told M 794
glad to get over M 787
glad it has come M 774
glad he has been M 774
glad we ran into M 770
glad he has done M 770
glad he had kept M 764
glad to see other M 756
glad to see lord M 750
glad he had said M 734
glad to see many M 722
glad he was home M 721
glad to get those M 708
glad to put their M 700
glad to pay their M 678
glad to put into M 674
glad he had seen M 664
glad it had come M 650
glad to see young M 628
glad if they will M 626
glad to see once M 625
glad as they were M 614
glad of his good M 574
glad of her help M 574
glad to get shut M 568
glad to see lots M 562
glad to hear when M 550
glad if you think M 542
glad it was just M 524
glad if you find M 520
glad if you like M 519
glad to put down M 516
glad he was safe M 516
glad to see just M 512
glad we had been M 508
glad to get safe M 506
glad to let their M 502
glad he had worn M 498
glad to see home M 478
glad to get more M 475
glad to hear also M 474
glad to buy your M 462
glad to see among M 458
glad to buy their M 456
glad he got away M 454
glad to see land M 452
glad he has made M 446
glad it was nothing M 438
glad we got here M 436
glad we can talk M 434
glad we had made M 424
glad at his coming M 420
glad of any means M 415
glad of any good M 412
glad he had such M 406
glad to say what M 404
glad to see lady M 402
glad to get free M 402
glad to use their M 384
glad to pay such M 376
glad to get good M 374
glad to put some M 370
glad it was your M 370
glad of her coming M 368
glad to buy some M 366
glad to buy from M 364
glad we had done M 360
glad to hear miss M 360
glad at this time M 358
glad of this last M 356
glad of this good M 354
glad to put away M 348
glad at not having M 348
glad to hear lord M 346
glad to buy back M 346
glad to not have M 344
glad of any other M 340
glad to sit next M 336
glad to sit back M 336
glad if you come M 336
glad to get past M 332
glad to buy peace M 326
glad at that time M 322
glad to act upon M 320
glad to put your M 318
glad to hear even M 317
glad to pay your M 316
glad to see done M 312
glad to bring their M 310
glad of any kind M 310
glad it was gone M 308
glad if you came M 308
glad to set down M 303
glad he had sent M 300
glad to run down M 298
glad if she were M 290
glad he was come M 290
glad to get help M 286
glad we can help M 284
glad to set eyes M 284
glad he was taking M 284
glad to get food M 283
glad to hear lady M 282
glad is his heart M 282
glad of that fact M 274
glad if this were M 274
glad he was away M 274
glad it was such M 270
glad if she will M 270
glad if you knew M 266
glad we are come M 264
glad to see come M 262
glad to fly from M 262
glad to see peace M 260
glad of being able M 260
glad to see only M 258
glad to see also M 254
glad it was time M 254
glad he was born M 254
glad to see most M 253
glad we can have M 252
glad to get once M 252
glad to pay more M 250
glad we had gone M 246
glad to see when M 246
glad to get jobs M 242
glad of our help M 242
glad to earn some M 240
glad to hear once M 239
glad to read these M 238
glad to see spring M 234
glad to earn their M 232
glad he has such M 232
glad he was rich M 230
glad we are having M 226
glad to use such M 226
glad in any case M 226
glad he has left M 226
glad the men were M 224
glad of this when M 224
glad we got away M 222
glad to say your M 222
glad to run back M 222
glad of her good M 222
glad to get well M 220
glad if you went M 220
glad if they have M 220
glad to use your M 218
glad if that were M 218
glad to see good M 216
glad to say here M 214
glad he had some M 214
glad to say these M 210
glad to lay their M 210
glad to ask your M 210
glad at being able M 208
glad to say have M 204
glad to pay well M 204
glad to get moving M 204
glad in each other M 204
glad he had more M 203
glad to see four M 202
glad to hear poor M 200
glad of any work M 200
glad to bid good M 198
glad of any sort M 196
glad of any just M 196
glad we are able M 192
glad to see poor M 192
glad to add your M 190
glad to add some M 184
glad of this early M 184
glad in his life M 184
glad we had seen M 182
glad to see will M 180
glad to get upon M 180
glad to get three M 179
glad to sit here M 178
glad to see were M 178
glad to get half M 178
glad of that much M 176
glad to see bell M 174
glad of this fair M 174
glad we had some M 172
glad we are back M 172
glad to fly away M 172
glad to die when M 172
glad of all these M 172
glad to pay five M 170
glad to buy these M 170
glad of his luck M 170
glad to earn what M 166
glad to add their M 166
glad he was well M 165
glad to get warm M 164
glad to earn three M 164
glad to try their M 162
glad of this fact M 162
glad if this book M 162
glad he did what M 162
glad to see made M 160
glad to fly into M 160
glad to bring some M 160
glad we had those M 158
glad to say were M 158
glad it has gone M 158
glad he was making M 158
glad to see back M 156
glad to add these M 156
glad to bring back M 155
glad to hear nothing M 154
glad to get four M 154
glad to get five M 154
glad to use these M 152
glad to say only M 150
glad to read some M 150
glad to pay high M 150
glad to hear tell M 150
glad of not having M 150
glad it had gone M 150
glad to see mark M 148
glad to pay back M 148
glad if you take M 148
glad he had only M 148
glad he had died M 148
glad we did what M 146
glad to say also M 146
glad of them when M 146
glad of all your M 146
glad it was here M 146
glad he was having M 146
glad to see have M 144
glad to say some M 144
glad to end their M 142
glad of that when M 142
glad of any sign M 142
glad he has some M 142
glad we can give M 140
glad to set their M 140
glad to get done M 140
glad it was good M 140
glad we are well M 138
glad it was made M 138
glad if you send M 138
glad he had when M 138
glad to see nothing M 136
glad he has lost M 136
glad by this time M 136
glad to get among M 134
glad he had held M 134
glad to get along M 133
glad to sit there M 132
glad to see coming M 132
glad to get word M 132
glad to bring your M 132
glad the old lady M 132
glad of our warm M 132
glad he had lost M 132
glad to see leave M 131
glad he was only M 131
glad to rid their M 130
glad no one knew M 130
glad to lead away M 128
glad if they knew M 128
glad he has seen M 128
glad we got there M 126
glad to say none M 126
glad to let some M 126
glad of its help M 126
glad he had heard M 126
glad to get leave M 125
glad in her life M 125
glad we are coming M 124
glad to see three M 124
glad to hear other M 124
glad my new coat M 124
glad in being able M 124
glad we are away M 122
glad to run from M 122
glad to read such M 122
glad to lie there M 122
glad to fly back M 122
glad to bear from M 122
glad of his life M 122
glad if you feel M 122
glad to say more M 121
glad we are when M 120
glad to pay even M 120
glad we had left M 118
glad to read more M 118
glad to let well M 118
glad it was late M 118
glad if you stay M 118
glad if you sent M 118
glad if she knew M 118
glad to say nothing M 116
glad to let such M 116
glad to hear told M 116
glad at this early M 116
glad to use some M 114
glad to say many M 114
glad to head back M 114
glad to buy what M 114
glad to see less M 113
glad to tag along M 112
glad of any hint M 112
glad it was true M 112
glad he had used M 112
glad to see great M 111
glad we now have M 110
glad to see fall M 110
glad to pay what M 110
glad to hear soon M 110
glad to hear many M 110
glad by this means M 110
glad to hear well M 109
glad if you make M 108
glad if his hurt M 108
glad we had these M 106
glad to see much M 106
glad to let these M 106
glad of all those M 106
glad he was free M 106
glad he was along M 106
glad by any means M 106
glad as you have M 106
glad to put back M 104
glad to lie back M 104
glad to lay eyes M 104
glad he was just M 104
glad he had nothing M 104
glad to die like M 102
glad of any break M 102
glad it was come M 102
glad if you know M 102
glad if any other M 102
glad to run home M 100
glad to let your M 100
glad if this work M 100
glad to cut down M 99
glad we got back M 98
glad we can keep M 98
glad of this much M 98
glad of any such M 98
glad it all came M 98
glad if you give M 98
glad he had eaten M 98
glad at long last M 98
glad to say such M 96
glad it was like M 96
glad he had good M 96
glad we both were M 94
glad to use what M 94
glad to set forth M 94
glad to get other M 94
glad to die here M 94
glad to buy such M 94
glad to hear only M 93
glad of this turn M 93
glad to see five M 91
glad we ran away M 90
glad to add here M 90
glad it was coming M 90
glad in this case M 90
glad he was wrong M 90
glad as any other M 90
glad to own such M 86
glad to her heart M 86
glad of his safe M 86
glad if you care M 86
glad he was part M 86
glad he has said M 86
glad at his heart M 86
glad at any cost M 86
glad as one hour M 86
glad to hear just M 84
glad to die there M 84
glad to beg their M 84
glad or sad when M 84
glad or not when M 84
glad it all went M 84
glad to sit upon M 82
glad to say their M 82
glad to say from M 82
glad of two days M 82
glad of that sort M 82
glad of one more M 82
glad of his fate M 82
glad it has your M 82
glad to get onto M 80
glad to dip into M 80
glad of this talk M 80
glad of his warm M 80
glad of her when M 80
glad he did when M 80
glad he beat those M 80
glad we had such M 59
glad to run over M 50
glad to read over M 42
glad at our coming M 41
glad to buy more M 40
gleam in his eyes D 51569
gleam in her eyes D 21989
glow in his eyes D 9068
glow in her eyes D 8262
glow on her face D 5060
glow on his face D 4661
gleam of his eyes D 4571
gleam of her eyes D 2880
gleam in his dark D 2859
glow of her eyes D 2482
glow of her skin D 2128
glow of his eyes D 1984
gleam in his blue D 1896
gleam of his teeth D 1850
glow in his heart D 1758
glow in his face D 1609
glow in her face D 1552
gleam of her hair D 1367
glue on one side D 1311
gleam in her dark D 1277
glow to her face D 1201
glow of her face D 1100
glow to her skin D 1078
glow in her heart D 1046
glee on his face D 995
gleam of her teeth D 994
glad to see john D 900
glad to hear news D 826
glee in his eyes D 814
gleam in her blue D 702
glow of her hair D 690
glow of his face D 686
glow of his pipe D 676
glad to get news D 672
glow to his face D 670
glow at his heart D 658
glow in his dark D 620
glue to one side D 616
glad to set foot D 594
glad he was wearing D 578
glad he was leaving D 578
glow of his love D 574
glow of its fire D 543
glow of his skin D 524
gleam to his eyes D 485
glow at her heart D 484
gleam of joy shot D 480
gleam in our eyes D 478
gleam in his gray D 466
gleam on his face D 456
glad of this news D 456
gleam of her lamp D 454
glue or hot glue D 453
glad to see jack D 446
glow of her love D 438
glow of his soul D 426
glow of his lamp D 422
gleam of her dark D 418
glow on her pale D 416
gleam in his deep D 409
glow of his heart D 402
glee in her eyes D 396
glue the two ends D 395
gleam of his hair D 388
glow to her eyes D 384
gleam in his face D 382
glow of his fire D 376
gleam to her eyes D 374
glue to one part D 362
glee on her face D 361
gleam in his pale D 354
glow of her youth D 338
glow to his skin D 336
glow in his mind D 335
glow to his eyes D 324
glow he had seen D 322
glad to lean upon D 321
gleam of her blue D 320
glow on her skin D 298
glow of one warm D 298
glow of our hearth D 295
glow of his youth D 294
gleam in its eyes D 294
gleam in his grey D 292
gleam on her face D 289
glow of heat over D 284
gleam of its life D 284
glad to get bread D 280
glow in her dark D 276
gleam of joy over D 270
gleam of his dark D 268
glow to her pale D 266
glow to his heart D 260
glow of his dark D 260
glow of her body D 260
gleam of joy came D 260
glow as with living D 258
gleam of her skin D 256
glue the top edge D 254
glad to see aunt D 254
gleam in his gaze D 252
glad to see bill D 252
glad to git back D 250
glow of this kind D 248
gleam of its eyes D 248
glow of his great D 246
glob of ice cream D 246
glow of new life D 244
glow of his body D 244
glad if thou wilt D 242
glue or any other D 240
glad to see nick D 240
glen by this time D 234
gleam of day from D 232
glow to her heart D 230
gleam of her bare D 230
glen of that name D 228
gleam of her face D 226
glue is too thick D 222
gleam in her gray D 218
glean in any other D 216
glad to ken what D 216
gleam of his deep D 215
glen in new york D 214
gleam in her hair D 214
glee at being able D 210
glow in any other D 204
gleam of that lake D 204
glen on each side D 203
glow of his mind D 200
glad to get shot D 199
gleam in her deep D 198
glue on each side D 197
gleam of his great D 196
glow of our fire D 190
gleam in his hand D 188
gleam in her face D 187
glow of his fame D 184
glow of red fire D 182
glad to see mike D 182
glow of her lamp D 180
glad to see papa D 179
glow of its eyes D 178
glee in his face D 178
glad in his soul D 174
gleam of his skin D 172
glee of our poor D 170
gleam of his blue D 170
glow of his desk D 169
gleam in her pale D 168
glow of new york D 164
glad of any news D 164
glow on his skin D 156
glow of that fire D 156
glow of his warm D 156
gleam in his beady D 155
glow of its rosy D 154
glue to both ends D 150
glow of each other D 150
gleam of her mast D 150
glad he was okay D 150
gleam in his dull D 148
gleam in his cold D 148
glad we are leaving D 148
glue in each hole D 146
glow of his wine D 146
gleam of joy upon D 146
glow in his blue D 144
gleam in his hard D 144
glad to lean back D 143
glue to each other D 142
glow of real life D 142
gleam of his gold D 141
glad to hear john D 140
glow of that great D 138
glad if you took D 138
gleam of his face D 137
glow in our eyes D 136
glad at this news D 136
glue to its hiding D 135
gluing the two ends D 134
gleam in his wife D 134
glad as with wine D 134
glow of his life D 133
gleam of that single D 132
glad to see mama D 132
glue the pin back D 130
glue on both ends D 130
gleam of his arms D 128
glad to git away D 128
glow of all these D 126
glow of new love D 124
glow of her young D 124
gleam of her neck D 124
gleam of joy into D 122
glow of our love D 120
gleam of this fire D 120
gleam of her wild D 120
gleam of her body D 118
glad to fee your D 118
glow of them grew D 116
glen to get some D 116
glad to set sail D 116
glue is put into D 114
glue is not used D 114
glow of his deep D 114
glow of heat from D 114
glow in her skin D 114
glad to see rose D 114
glad if his wife D 114
glue to each side D 113
glow of any kind D 112
glow in his deep D 112
gleam of red wall D 112
glue is being used D 110
glow in its wake D 110
gleam of new hope D 110
gleam in his keen D 110
gleam in her wide D 110
glue to one edge D 109
glen on our left D 109
glow of his last D 108
glee on any trip D 108
glow on one side D 106
glow of his young D 106
glow of his wife D 106
glow of his faith D 106
glow of his early D 106
glow in her blue D 106
gleam of his lamp D 106
gleam in his bold D 106
glad of any sale D 106
glue if you want D 105
glow to his work D 104
glow to her hair D 104
glow of her pure D 104
glow of her dark D 104
glow in his soul D 104
gleam of her pale D 104
gleam of her grey D 104
glad to hear aunt D 104
glow of its wick D 102
glow in its eyes D 102
glow on his pale D 100
glow of his clear D 100
glow in her mind D 100
glad he had paid D 100
glue on each knot D 98
glow in her pale D 98
gleam he had seen D 98
glow of her life D 96
glow in all their D 96
glow he had felt D 96
glee to see those D 96
gleam in his clear D 96
glow of that early D 94
glow in his hand D 94
glee in his heart D 94
gleam in his half D 93
glow of that love D 92
glow of red from D 92
glow of joy when D 92
glow of joy over D 92
gleam of sky along D 92
glow to its dark D 90
glow of this great D 90
gleam of its teeth D 90
gleam of fun slid D 90
gleam in her grey D 90
glad to get paid D 90
glue it all back D 88
glue in his mouth D 88
glow on his dark D 88
glow of our camp D 88
glow of his good D 88
glad of his wife D 88
glue to each knot D 86
glee in our eyes D 86
glad to see maria D 86
glow of her fire D 85
glow on her fair D 84
gleam of sun from D 84
gleam in his fine D 84
gleam in her hard D 83
glue on one edge D 82
glow in her hair D 82
gleam of that pale D 80
glad to see tony D 80
glad to hit upon D 80
gleam on her hair D 47
gleam of her gold D 43
glue to get high D 42
glum at not having D 40
