cut down on the M 143051
cut down by the M 64066
cut down to the M 60806
cut back on the M 55465
cut down in the M 39183
cut ends of the M 32857
cut back to the M 30580
cut edge of the M 25451
cut some of the M 17572
cup down on the M 15882
cut away at the M 15431
cut away by the M 13384
cut down at the M 9999
cut back in the M 7791
cut away in the M 7448
cut into by the M 7314
cut down on my M 6436
cut wood in the M 5630
cut most of the M 5426
cup back on the M 5281
cut away to the M 4890
cut away so as M 4781
cut down by an M 4595
cut made by the M 4442
cut made in the M 4414
cut back on my M 4260
cut away on the M 4217
cut back by the M 4190
cut over to the M 3899
cut part of the M 3879
cut deep in the M 3859
cut back at the M 2961
cut side of the M 2876
cut down to an M 2778
cut down so as M 2759
cup back to the M 2451
cut early in the M 2439
cut open at the M 2227
cut many of the M 1999
cut face of the M 1969
cut open by the M 1966
cut when it is M 1937
cut free of the M 1891
cut much of the M 1832
cup full of the M 1810
cut high in the M 1743
cut down as the M 1740
cut down to be M 1716
cut into it to M 1702
cut open in the M 1683
cut high on the M 1605
cut case of the M 1491
cut side up on M 1400
cut back to an M 1340
cut down in an M 1333
cut down on it M 1328
cut only by the M 1318
cup used at the M 1296
cup over to the M 1294
cut half of the M 1285
cut some of it M 1275
cup back in the M 1257
cut wood on the M 1222
cut only on the M 1195
cut open on the M 1171
cut down on or M 1133
cut side up in M 1126
cut made on the M 1069
cup when it is M 1065
cut prior to the M 1029
cut down as he M 1022
cut high at the M 976
cut over in the M 972
cut away as the M 954
cut view of the M 948
cut late in the M 921
cut will be on M 916
cup next to the M 916
cut back so as M 912
cut hole in the M 908
cut down at an M 907
cut back on or M 907
cut just as the M 892
cup used in the M 890
cut will be the M 844
cut length of the M 844
cup made of the M 832
cut back as the M 831
cut made at the M 817
cut into it at M 814
cut next to the M 809
cut leading to the M 804
cut most of it M 790
cup held in the M 781
cut gaps in the M 776
cut sets of the M 756
cup held by the M 756
cut part of it M 755
cup pass me by M 749
cut back on it M 742
cup down in the M 734
cut width of the M 727
cut ahead of the M 722
cut only in the M 719
cut over by the M 712
cut size of the M 707
cut line on the M 705
cut just to the M 689
cut high up in M 689
cut line of the M 685
cut clear of the M 684
cut bank of the M 676
cut away by an M 672
cut down if the M 668
cut open to the M 660
cut edge to the M 628
cut away at an M 611
cup fell to the M 606
cut only at the M 601
cut into it by M 579
cut back of the M 579
cut into it in M 575
cut down or the M 571
cut three of the M 566
cut down by my M 560
cut from it by M 549
cut into at the M 548
cut down as it M 546
cut down or to M 538
cut half of it M 537
cut just at the M 524
cut down as if M 523
cut case of an M 519
cut from it to M 517
cut down in my M 516
cup full to the M 516
cut some of my M 510
cut there is no M 504
cut deep at the M 502
cup down to the M 500
cut from it the M 498
cut down to as M 484
cut ends to the M 482
cut hard to the M 474
cut clear to the M 474
cut from it in M 470
cut down to it M 467
cut away as in M 463
cut those of the M 462
cut clean to the M 448
cut into it so M 440
cut south of the M 430
cut down it is M 430
cut away as to M 430
cut down as to M 429
cut back at an M 422
cut open so as M 421
cut down by at M 420
cut hair in the M 417
cut edge on the M 416
cut deep by the M 414
cup used by the M 406
cut ends in the M 399
cut only to the M 398
cut tomb in the M 396
cut down on to M 394
cut down on an M 394
cut from it as M 393
cut just as it M 391
cut down the king M 391
cut wide at the M 385
cut away as if M 383
cut away in an M 382
cut north of the M 380
cup full of it M 379
cut away to an M 377
cut logs in the M 374
cut upon it the M 369
cut away so the M 369
cup full of tea M 369
cut into in the M 363
cut test of the M 362
cut wide of the M 359
cut upon it in M 358
cut over at the M 353
cut into it as M 349
cut ideas as to M 343
cut mark on the M 339
cut down to my M 338
cut ties to the M 335
cut edge at the M 330
cut deep on the M 330
cut more of the M 328
cut ends at the M 327
cup will be the M 322
cut even at the M 319
cut west of the M 317
cut from the as M 317
cut down of the M 316
cup went to the M 316
cut down if it M 312
cut into it on M 306
cut hair on the M 305
cut high up on M 303
cup made in the M 302
cut four of the M 296
cup made by the M 296
cut back if the M 295
cut form in the M 294
cut away to be M 293
cut into on the M 292
cut tomb of the M 290
cup part of the M 288
cup more of the M 287
cut also in the M 284
cut will be in M 280
cut ends of an M 279
cut text to the M 276
cut form of the M 276
cut bank on the M 276
cut back on an M 276
cut free at the M 275
cut away up to M 274
cut into it is M 271
cut deep to the M 271
cut used in the M 269
cut full in the M 268
cut were to be M 266
cut back in an M 260
cut ends on the M 255
cut down the foe M 255
cut down so the M 255
cut made to the M 253
cut hair at the M 252
cut into it the M 245
cut will be of M 243
cut size in the M 241
cup high in the M 240
cut when in the M 238
cut into it or M 238
cut into by an M 238
cut from it is M 236
cut base of the M 235
cut line in the M 233
cut along to the M 233
cut wood to the M 230
cut open it is M 230
cut went to the M 228
cut theory of the M 228
cut edge in the M 228
cut wood at the M 225
cut back up the M 223
cut areas of the M 223
cut made in it M 222
cut back or to M 222
cut away or it M 222
cut down by it M 221
cut ideas on the M 219
cut even in the M 218
cut wood or to M 217
cut here in the M 217
cut down is the M 217
cut back up to M 217
cup back to me M 216
cup fell on the M 214
cut bank in the M 208
cut left by the M 205
cut there by the M 204
cut open by an M 204
cup even to the M 204
cut will be at M 203
cut must be at M 203
cut back to my M 202
cut most of my M 201
cut away at it M 199
cut more in the M 198
cut used by the M 197
cut away it is M 197
cut down to no M 194
cut away if the M 194
cut stem of the M 193
cut even if it M 193
cut into the ring M 191
cut sets in the M 190
cut back to it M 188
cut away or the M 188
cup held by an M 188
cut much of it M 187
cut down on me M 187
cut there is an M 184
cut from the wing M 184
cut down as in M 184
cup next to it M 184
cut data on the M 181
cut from the ring M 178
cut full at the M 176
cut made at an M 175
cut there in the M 174
cup came to my M 174
cut line to the M 173
cut hair of the M 173
cup tied to the M 172
cut back if it M 171
cut down as an M 170
cut north to the M 169
cut logs on the M 169
cut much in the M 168
cut even to the M 168
cut only if the M 167
cut till it is M 166
cut over on the M 166
cut back by at M 163
cut role in the M 162
cut away as it M 161
cup hanging on the M 160
cup fall to the M 160
cut part of my M 158
cut down to at M 158
cut came in the M 158
cup left in the M 156
cut away at my M 155
cut down by as M 152
cut back by an M 152
cut when he is M 151
cut icon on the M 151
cut high to the M 150
cut free by the M 150
cut case is the M 150
cut back on to M 150
cut rule as to M 149
cut must be in M 148
cut angle of the M 148
cup there is no M 148
cut also on the M 147
cut well at the M 146
cut logs to the M 146
cut have to be M 146
cut back to no M 146
cup down by the M 146
cut paths in the M 144
cut high up the M 143
cut such as the M 140
cut south to the M 140
cut from it at M 140
cut down as by M 140
cut clear in the M 140
cut break in the M 139
cut back on in M 139
cut once in the M 137
cut leads to the M 137
cut back by as M 136
cup when he is M 136
cut into the wing M 135
cut leads to an M 133
cut once by the M 132
cut jobs in the M 130
cut down on in M 130
cup made up of M 130
cup left on the M 130
cut ready to be M 129
cup side of the M 128
cut down if we M 127
cut made by an M 126
cut left at the M 126
cup over to me M 126
cut made of the M 125
cut back or the M 124
cup held to the M 124
cut into me so M 123
cut even by the M 122
cut clean by the M 122
cup were to be M 122
cup even of the M 122
cup early in the M 122
cut wood or do M 121
cut ahead of me M 121
cut down to so M 120
cut back as it M 120
cup some of the M 120
cup from the tea M 120
cut mine in the M 119
cup such as is M 119
cut five of the M 118
cup came to be M 118
cut paths to the M 117
cut more to the M 117
cut wood is to M 116
cup such as the M 116
cut will be to M 115
cut upon it by M 115
cut down in so M 115
cut line at the M 114
cut into or if M 114
cut areas in the M 114
cup tied to it M 114
cup down on an M 114
cut edge of an M 113
cut coat of the M 113
cut none of the M 112
cut ideas of the M 112
cut back to me M 112
cut down as we M 110
cut bank at the M 110
cut west to the M 109
cut down if he M 109
cut logs up to M 108
cut down on tea M 108
cut down at my M 108
cup from the king M 108
cut rule on the M 107
cut wood on it M 106
cut upon it an M 106
cut made by it M 106
cut lies in the M 106
cut bank to the M 106
cut away if it M 106
cut wood up to M 105
cut true to the M 105
cut more on the M 105
cut back to be M 105
cut down so it M 104
cut cool of the M 104
cut back in on M 104
cut these to the M 103
cut tomb on the M 102
cut down or in M 102
cut down is to M 102
cut down by so M 102
cut back or at M 102
cup pass by me M 102
cup just as the M 102
cup held up to M 102
cut south on the M 101
cut look of the M 101
cut back as in M 101
cut wood by the M 100
cut tops of the M 100
cut open as the M 100
cut down by me M 100
cut back to at M 100
cut side to the M 99
cut open to be M 98
cut down on us M 98
cup must be of M 98
cut open in an M 96
cut wood to be M 95
cut text at the M 95
cut some of us M 95
cut just on the M 95
cut left to the M 94
cut side on the M 93
cut here by the M 93
cut face in the M 93
cut ends in an M 92
cut arch in the M 92
cup there is an M 92
cup back on to M 92
cut were on the M 91
cut upon it at M 91
cut will go to M 90
cut deep so as M 90
cup leads to the M 90
cut just as he M 89
cut deals in the M 89
cut back so the M 88
cut back if we M 88
cup ready in the M 88
cup down on my M 88
cut deals on the M 87
cut away so it M 87
cut those in the M 86
cut open as if M 86
cut down on at M 86
cut back to as M 86
cut back on is M 86
cut away as is M 86
cut away as an M 86
cup must be in M 86
cup came to the M 86
cut into or be M 84
cut into by us M 84
cup size of the M 84
cut open so the M 83
cut clean at the M 83
cut wide in the M 82
cut down as is M 82
cut back is to M 82
cup sits on the M 82
cup over on the M 82
cup drop to the M 82
cup down as he M 82
cup said to be M 80
cup form of the M 80
cut wood of the M 71
cut upon it as M 70
cut bait on the M 58
cut full to the M 56
cut ahead of us M 56
cut road to the M 55
cut rule in the M 54
cut site in the M 53
cut will be as M 52
cut hair to the M 52
cut road in the M 49
cut used to be M 48
cut type of the M 48
cut away of the M 48
cut time in the M 47
cut pile of the M 47
cut logs at the M 47
cut deep as the M 47
cut even if the M 46
cut work on the M 45
cut work in the M 45
cut threat to the M 45
cut mark in the M 45
cut well to the M 44
cut need to be M 44
cut back on so M 44
cut into it of M 43
cut hard at the M 43
cut only if it M 42
cut next to it M 42
cut line to be M 42
cut work of the M 41
cut some in the M 40
cut must be of M 40
cut just as in M 40
cut into so as M 40
cut bits of the M 40
cut from ear to D 11764
cue ball to the D 1241
cue ball on the D 1152
cue ball in the D 946
cut from the sea D 619
cue ball at the D 609
cue from the king D 586
cut cane in the D 482
cue ball is in D 482
cut corn in the D 444
cue such as the D 388
cut from the ear D 375
cup into the sea D 370
cue used by the D 348
cut cane to the D 318
cut down to rs D 299
cut flat at the D 285
cub room of the D 278
cue down on the D 276
cut turf on the D 242
cut into the sea D 240
cue when it is D 240
cue ball is the D 222
cut from sea to D 218
cut flat on the D 213
cue back in the D 196
cut cane on the D 194
cut down to sea D 190
cue ball is to D 190
cut neck of the D 173
cut teeth in the D 171
cut teeth on the D 166
cur dogs in the D 166
cue ball as it D 163
cud upon it to D 160
cut outs in the D 159
cue ball or an D 158
cut turf in the D 155
cut wall of the D 149
cue word in the D 142
cue ball is at D 142
cur rent in the D 139
cue ball to be D 134
cue ball or the D 130
cut ruts in the D 125
cup hook in the D 124
cue ball is on D 120
cut into the ear D 119
cue such as an D 119
cup race at the D 118
cup milk to the D 117
cue used in the D 117
cup race in the D 116
cut gears up to D 114
cut singly or in D 110
cut finger or an D 110
cut fuel on the D 107
cut when the sea D 106
cut fuel in the D 106
cue lies in the D 104
cue will be the D 100
cut mouth of the D 98
cup race of the D 98
cut wheat in the D 94
cup broth to the D 93
cut corn or in D 88
cue ball by the D 86
cue back on the D 85
cud like an ox D 84
cub came to the D 80
cut corn to the D 75
cub back to the D 70
cut teeth of the D 66
cut outs of the D 62
cut film in the D 59
cut mining in the D 51
cut slot in the D 47
cut down the sea D 46
cut nail in the D 45
cut over the ear D 44
cut bread in the D 44
cue prior to the D 44
cue much of the D 42
cut turf at the D 41
cur dogs of the D 41
cut suit of the D 40
