book is due on M 485801
book is one of M 78016
book is that the M 56140
book is that it M 49936
body of one of M 44286
book is not to M 41564
body of men in M 40308
body of men to M 34472
born the son of M 31662
book on how to M 31576
book is set in M 31065
body so that the M 28652
book is not the M 28058
book of job is M 26070
body is not the M 23522
book is not an M 22906
body so that it M 22348
book is going to M 20884
born in one of M 20280
book is that of M 19786
body or out of M 19428
body by way of M 18604
body is that of M 16320
body of man is M 15915
body of men as M 15233
book is for the M 13854
body is one of M 13836
body as far as M 12936
book by one of M 12644
body of men of M 12348
body is not in M 12271
body on top of M 12090
body so that he M 11434
book is not so M 11149
born to them in M 11001
born to him in M 10969
born to set it M 10320
book is out of M 10240
book as one of M 10130
book of job in M 9798
body of law is M 9712
book is not in M 9322
body is not an M 9078
book to see if M 9076
body to that of M 8878
born to him by M 8838
body of all the M 8802
body is not to M 8664
body of men at M 8656
body is going to M 8636
body of men on M 8487
body is due to M 8266
body as long as M 8203
book so that the M 8182
body of men is M 8170
book is that we M 8022
body the dying of M 7993
body as that of M 7676
book is now in M 7430
body is not so M 6918
book of job as M 6602
body is out of M 6578
body of law in M 6562
book so that it M 6172
book we use the M 6164
body of man or M 6130
book is that in M 6117
body of law to M 6108
book the end of M 5862
book of all the M 5788
book is easy to M 5664
book on top of M 5500
body is for the M 5450
born to one of M 5396
book is due to M 5362
book is for my M 5310
body is but the M 5120
body in one of M 5088
born the idea of M 4895
book in that it M 4820
book in all the M 4810
book is that he M 4772
body of men so M 4733
book in one of M 4678
book of one of M 4656
book to try to M 4595
book as far as M 4520
body is that it M 4506
book as long as M 4416
book of job to M 4342
body or any of M 4333
body to act as M 4306
book is not as M 4300
body the death of M 4050
body of each of M 4036
body of law on M 3928
body to see if M 3922
book to all the M 3857
book to read to M 3841
body is not as M 3836
book the idea of M 3779
bone so that the M 3770
book the age of M 3690
book on one of M 3688
book or set of M 3684
book the myth of M 3681
born of all the M 3636
book to read on M 3634
book of job the M 3596
book is not on M 3574
body in all the M 3528
born on one of M 3513
book is with the M 3492
book to read in M 3491
born of one of M 3448
book is one to M 3398
body is that the M 3308
body it may be M 3262
born in any of M 3250
body so long as M 3211
book to one of M 3194
bone of one of M 3188
bone is one of M 3155
book is one in M 3140
book or two on M 3089
book of god is M 3062
body is put in M 3058
born to her in M 2998
book of kings is M 2988
body is apt to M 2956
book is how to M 2926
book he had in M 2916
book to get the M 2911
body is not at M 2911
born to all the M 2873
boys of ten or M 2870
boys do not do M 2804
book as this is M 2804
book is set up M 2794
body of men the M 2792
book by way of M 2785
body of men or M 2784
body as one of M 2770
book so that he M 2734
body so far as M 2728
body to get the M 2726
body in that it M 2714
book to see the M 2713
book the death of M 2671
book it may be M 2625
bold to say it M 2592
book of his on M 2574
body of law as M 2548
body as big as M 2526
book is all the M 2488
body so that we M 2480
born to them on M 2460
book of kings in M 2432
body as may be M 2416
book of job we M 2396
body is set in M 2383
book to read or M 2375
book is not at M 2374
body of men be M 2342
body of any of M 2252
body to try to M 2202
bone as far as M 2200
body of air is M 2200
born of god is M 2186
body is now in M 2172
boys in one of M 2170
body of sin is M 2166
boys do not go M 2154
body of men by M 2151
book to all of M 2150
book we try to M 2130
boys in all the M 2124
book of his is M 2124
body of man in M 2094
book is not of M 2086
body or that of M 2078
book by two or M 2052
body to act in M 2038
bold to ask the M 2030
book or two of M 2029
book is that if M 2018
book so far as M 2014
body is not of M 2014
body or with the M 1999
body or one of M 1994
born the year of M 1984
body of air in M 1964
book the way of M 1960
body of one or M 1958
book is both an M 1946
boys to see the M 1942
born in may or M 1928
body is lying in M 1928
body to one of M 1918
born to him of M 1886
book as that of M 1880
body of them in M 1868
body of two or M 1860
body of his foe M 1856
born on earth as M 1853
body by one of M 1840
book if you do M 1814
born to him at M 1803
body to use the M 1802
body of man to M 1796
book the use of M 1791
book or two in M 1790
body of law of M 1788
book to use in M 1742
body or for the M 1738
born in each of M 1734
body of men he M 1730
bone so that it M 1726
book to read is M 1720
body to lie in M 1712
body of man as M 1712
born in may of M 1711
body the way it M 1684
body of them to M 1678
book is read by M 1672
book of job by M 1670
body is set up M 1650
bone is due to M 1648
book is that by M 1646
body of god is M 1628
book to use the M 1614
body is with the M 1600
body is lying on M 1569
body to see the M 1564
body to all the M 1552
book or two to M 1550
body is one in M 1550
body in each of M 1550
book or any of M 1544
book to each of M 1543
boys in each of M 1538
body to him as M 1537
body to act on M 1532
book he was to M 1518
book to read the M 1508
book to add to M 1502
book of job or M 1492
boys to read or M 1481
body is one thing M 1470
born in all the M 1468
bold to say so M 1467
born of god in M 1459
boys to get the M 1456
born the year the M 1456
born to them at M 1452
book of his in M 1446
book is that an M 1444
book as big as M 1434
book on all the M 1424
born on earth to M 1411
book the aim of M 1404
body up off the M 1396
book by using the M 1381
body to bring the M 1380
body in any of M 1378
body so that no M 1372
born to him on M 1370
body of law or M 1370
book the law of M 1352
body of law by M 1350
book of god in M 1328
body as for the M 1322
born to die in M 1311
book of his to M 1303
book it can be M 1302
body as you do M 1302
book is that no M 1299
book to you in M 1286
born to them the M 1276
book to read it M 1275
born as one of M 1273
born of fear of M 1270
body in all of M 1268
book to read at M 1267
body is put on M 1266
body is near the M 1264
body is both the M 1258
book to use as M 1257
body to fit the M 1252
book to put in M 1244
body of god in M 1244
book is thus an M 1236
bold to say to M 1234
body if not in M 1234
book so that we M 1232
body of both the M 1226
book is thus to M 1224
book in each of M 1224
book of kings we M 1214
body is but an M 1208
book to get an M 1207
book of kings as M 1204
body it can be M 1195
body up out of M 1186
body or may be M 1184
book in any of M 1182
book is lying on M 1178
book in all of M 1178
book is set the M 1172
body on one of M 1172
boys of ten to M 1168
book on how the M 1168
book as far in M 1166
body of them is M 1164
boys go off to M 1158
book of how to M 1158
book is read in M 1149
book in use in M 1140
book he had to M 1140
book we see the M 1138
body be set up M 1138
body by using the M 1136
book on each of M 1122
bold as that of M 1110
book is one thing M 1108
body or any thing M 1106
book in that the M 1104
book to all my M 1102
boys as far as M 1101
book is but the M 1096
body to bring it M 1090
body is not my M 1088
born to you in M 1078
book of job it M 1078
book to deal in M 1077
boys to act as M 1070
body to aid in M 1065
book or one of M 1060
body is thus the M 1056
body to get to M 1054
boys is one of M 1042
book is how the M 1040
book is that on M 1037
bone in one of M 1036
book the act of M 1034
body as being the M 1024
body as low as M 1020
boys as long as M 1016
born to any of M 1016
book go out of M 1016
book is thus the M 1014
boys go out to M 1012
body the earth is M 1011
book is that to M 1010
bone by way of M 1008
boys of all the M 1006
book to read as M 1006
book the joy of M 1003
book to that of M 1002
body is all the M 1000
body as they do M 998
book of kings of M 996
book to you as M 992
book to him as M 986
book is not my M 984
boys to bring up M 980
book to read if M 974
born on earth in M 972
book in and of M 970
book is apt to M 966
book of god to M 964
book is set on M 963
body of ten or M 962
book is not by M 959
book as this to M 958
body the way he M 954
body to set up M 952
boys to read the M 950
book as being the M 947
book at one of M 936
book so long as M 934
born to him he M 930
book to bring the M 930
body is now the M 916
body by use of M 912
boys to try to M 908
book is for me M 908
boys of six or M 904
body as does the M 896
bone on top of M 890
born to them as M 884
boys is going to M 880
born to each of M 876
book to him in M 876
body of each is M 874
body in that the M 870
bows of one of M 868
book of kings the M 868
book is off the M 868
body or that the M 868
born to them by M 865
boys on top of M 864
book is now the M 864
born of her is M 860
bone is apt to M 854
boys to see if M 850
bone is not as M 850
book we aim to M 848
body or set of M 844
born is one of M 840
bone in each of M 830
body if you do M 830
book is due in M 828
bone is that of M 828
body as being in M 828
body of men it M 820
body of his or M 818
book he has in M 812
body in both the M 812
born of god the M 810
body is cut in M 806
bold to say the M 804
book we read of M 798
book of job he M 796
book is got up M 792
boys to use the M 790
born to lead the M 789
book of job at M 784
body to get it M 784
body is put to M 782
book as being in M 779
boys to bring the M 776
boys in both the M 774
born to him the M 772
body is set to M 770
body of six or M 768
boys to get up M 766
body the head is M 765
book of kings to M 764
body to let go M 760
born to see the M 757
body to bear the M 756
book we are to M 748
book is but an M 748
born of god do M 746
body is cut up M 744
body as with the M 742
book of job on M 740
born to them is M 739
body of him the M 738
book to aid in M 735
body of air or M 732
born is not the M 730
body to use up M 730
bone to that of M 726
book so far is M 722
book it was the M 722
body of man the M 722
book to mean the M 716
body of them at M 716
book to read by M 715
born to set the M 712
born in and of M 712
book or with the M 711
body to sit in M 709
body to run the M 706
book is and is M 704
born to them of M 702
born to her on M 702
born of god to M 695
book the war of M 690
bone is not the M 690
book is read as M 686
born in him to M 682
body is that in M 682
boys to see it M 680
body of law the M 680
body is not me M 677
book or for the M 673
boys do all the M 672
book is one we M 672
book to bear the M 669
body or head of M 668
born of god by M 666
boys to that of M 658
bone is out of M 658
body the head of M 658
boys to sit on M 656
body to get up M 655
body is then in M 654
body in one or M 654
body at death is M 654
born as far as M 652
bold as not to M 650
body to hear the M 648
book of things to M 646
body to use as M 642
boys to get to M 640
boys the use of M 640
book of job be M 640
body as are the M 640
book in his or M 638
body to sin as M 638
body in air is M 636
body to him in M 632
body of air to M 632
bone is not so M 628
body to put the M 628
body or that it M 628
born or yet to M 626
bone is not an M 626
body of death in M 626
boys to bring in M 625
book of kings it M 624
boys or men in M 622
bone is not in M 620
born so that the M 617
body of death is M 616
body of air at M 616
book to get to M 615
born in and the M 614
bone it may be M 614
body to his as M 614
book of god as M 610
body the way the M 606
body of sin in M 606
boys is that the M 604
body so that in M 604
book at all is M 600
body to god as M 599
body of man of M 598
body is then the M 598
born to her by M 596
born at one of M 596
book is read to M 594
book is put in M 594
bone or two to M 594
body up with the M 594
body to set the M 594
body of god the M 592
book the way we M 588
book is that as M 588
book in one or M 588
boys to one of M 586
born to bear the M 586
born in this or M 586
body as out of M 586
book to aid the M 584
bold to say in M 584
book to set the M 582
book the year of M 582
body to heal the M 582
born to him or M 580
born the day the M 579
body is and the M 578
born to die on M 577
born of her in M 576
body in and of M 574
book to fit the M 566
body as can be M 566
boys as one of M 562
book be read by M 562
body of this or M 562
book to bring to M 561
born at all is M 560
bold to ask if M 560
body by any of M 560
born to her as M 558
book an air of M 556
born on any of M 555
boys so that the M 554
born so near the M 554
bone in that it M 552
born in him the M 550
book of god the M 550
book is yet to M 548
born in one or M 547
book he was in M 546
book on him in M 544
born so that he M 536
body as she is M 535
boys to die in M 530
book he had on M 530
born to her at M 529
book is that at M 527
book on any of M 526
boys of one of M 524
bold to put in M 524
body to cut it M 524
body or with an M 524
body at death to M 524
born to him as M 522
book or see the M 522
body of man by M 522
body by one or M 520
born the myth of M 516
book the way to M 516
body is all of M 516
book to put the M 515
bold of him to M 514
book to her in M 512
body to use in M 511
body is low in M 510
book by him on M 508
body so that my M 508
boys to get in M 506
book we had to M 506
body as did the M 505
boys at one of M 504
boring it was to M 502
book as may be M 502
bold to put the M 502
born in all of M 501
book of his he M 500
bone of all the M 500
book of song of M 496
body to get at M 496
born of her as M 495
book on his or M 494
book to bring it M 493
bold to say my M 492
body as you go M 492
book to them as M 490
book at all if M 490
body to get in M 490
body it has no M 490
body is doing the M 490
body be put in M 490
body to use it M 488
body to one or M 488
body he was the M 488
book of his or M 486
body to aid the M 486
book of god or M 484
book up off the M 482
book by two of M 482
body be that of M 482
book to set up M 480
book in two or M 480
book to get it M 478
body to let the M 478
boys so that he M 476
book the key to M 476
boys is due to M 474
body of all of M 474
born by way of M 472
body we see the M 472
body to that in M 472
book of his the M 470
body or can be M 470
body he had to M 470
boys to put the M 468
boys to get on M 468
body it has the M 466
book be read in M 464
body of men we M 464
book as this of M 462
body is set on M 462
bone as long as M 461
body is hung on M 461
book we had in M 460
book in use at M 460
book to her as M 459
body is now so M 458
book of job of M 456
book to any of M 454
book is one on M 452
body to fix the M 452
body in man is M 452
body to ease the M 450
body at one of M 450
body as that in M 450
body to his in M 449
born the way he M 446
boring if you do M 446
body by that of M 444
born of god as M 443
body to lie on M 443
book or poem or M 442
body it has to M 442
boys go out in M 440
born is due to M 440
book to them in M 440
book as you do M 439
book is put on M 438
born as long as M 436
book to act as M 436
book on how we M 436
bone on one or M 436
body of her the M 436
body the use of M 434
book it was in M 433
body he had so M 433
book to win the M 432
book of any of M 432
bone is that the M 432
body we mean the M 430
born of god or M 429
book or out of M 429
book it was to M 428
body to pay the M 428
body the sum of M 427
boys to see me M 424
body is easy to M 424
book we are in M 422
book in both the M 422
book at all in M 422
book is now on M 420
boys to put on M 419
book as you go M 419
boys the age of M 418
boys as for the M 418
book to put on M 418
book is now to M 416
book is both the M 414
bone is that it M 414
body to add to M 414
book as for the M 412
boys by way of M 410
born to them to M 410
born to him to M 410
book by him is M 410
body of men do M 410
body of man be M 410
body is not on M 410
boys is not the M 408
book in all my M 408
book he read as M 408
body is now to M 408
bows to all the M 406
book to him on M 406
book to use to M 405
body as was the M 405
boys to sit in M 404
boys is that of M 404
boys is not so M 404
book we read the M 404
bold to say he M 402
boys or men to M 400
book of kings by M 400
body on earth is M 400
book the way the M 399
body to you as M 399
book of all is M 398
book he has to M 398
body of death to M 396
body of them as M 395
book or use the M 394
body to rot in M 394
boys he had to M 392
born by age of M 392
book the web of M 392
book the war in M 392
body we are in M 392
body it was the M 392
body is thus an M 392
boys to run the M 390
book he read in M 390
body so that if M 390
body as both the M 389
bold as was the M 388
body of law so M 388
book is both to M 386
book he had no M 386
bone is near the M 386
book he was so M 385
body he was in M 384
born as son of M 383
boys it may be M 382
born in and to M 382
body is cut by M 382
body he was to M 382
born the day of M 381
book to deal at M 380
book the way he M 380
book the path of M 380
book as they do M 378
book is now as M 377
body is not by M 377
boys or men of M 376
born of one or M 376
born of fear or M 376
book on aging in M 376
book of his as M 376
body in two or M 376
book is set by M 374
body to put it M 374
boys do not eat M 372
body to sit on M 372
boys so long as M 370
book is new to M 370
bone up for the M 370
bold of you to M 370
body it was in M 368
body is off the M 368
boys on how to M 366
book is now at M 366
bone or two in M 366
body of earth is M 366
body is going on M 366
born or die in M 365
body of law it M 364
body in air by M 364
body he was an M 364
book of kings or M 362
book is how we M 362
book is for us M 362
body by all the M 362
body to sit up M 361
born of them in M 360
bold to say as M 360
body it was to M 360
body is cut or M 360
body is both an M 360
book it due on M 358
body is now at M 358
body at all in M 358
book to her is M 356
book so far we M 356
book or two by M 355
boys of six to M 354
book on him by M 354
book he had so M 354
body to bear on M 354
boys it was the M 352
body to lead the M 352
body of god as M 352
book or two at M 351
book we read in M 350
book the god of M 350
body of this is M 350
body of sin to M 350
born of him in M 348
book the way it M 348
book is all in M 348
boys to set up M 346
book the day of M 346
book or going to M 346
born he was so M 344
book is that my M 344
book is set to M 344
bold to try to M 344
body so that an M 344
body or how it M 344
book to his or M 343
body is then to M 342
body is for me M 342
body is cut to M 342
body be cut in M 342
book the song of M 340
book it was my M 340
bone to get at M 340
body he had no M 340
body go with the M 340
body as far to M 340
born the day he M 339
boys in all of M 338
born in him as M 338
book the path to M 338
book of all of M 338
book is thus in M 338
book is owing to M 338
book as easy to M 338
bone or may be M 338
boys to get it M 336
book of all my M 336
book is all of M 336
body or near the M 334
born it was the M 332
book the man in M 332
body of man at M 332
body of law at M 332
boys on one of M 330
boys of both the M 330
book on all of M 330
body to get on M 330
body of sin be M 330
body at each of M 330
body as near as M 330
bows to him in M 328
book he may be M 328
bone in both the M 328
body is yet to M 328
boys at each of M 326
book or can be M 326
book of each of M 326
book is not is M 326
born or dying in M 325
born at all if M 324
bold to use the M 324
boys to put up M 322
book to let the M 322
body or wings of M 322
body as one to M 322
bold as can be M 320
body we may be M 320
book to lie on M 319
boys go out on M 318
born on top of M 318
body is low on M 318
book of job so M 316
book if they do M 316
book he goes on M 316
bold to say of M 316
body the seat of M 314
born of any of M 313
born to run the M 312
born in sin is M 312
book we may be M 312
book of how the M 312
body of them on M 312
born to them or M 310
book of law of M 310
book as being of M 310
bold to say no M 310
body is that by M 310
body is and is M 310
body as not to M 310
boys an idea of M 308
born so that we M 308
body of one so M 307
body to see it M 306
body he may be M 306
book to use it M 305
body as due to M 305
book by each of M 304
book as this in M 304
book as can be M 304
body to bear it M 304
body of law be M 304
body if one is M 304
born to sit on M 302
bone is not to M 302
boys to put in M 301
boys as old as M 301
born of both the M 301
book is going on M 300
body is weak or M 300
body as this is M 300
born by one of M 299
book by and by M 298
body of one in M 298
body is ill at M 298
body is fit to M 298
body as dead to M 298
book so you do M 297
born or had at M 296
book or two or M 296
book so far on M 294
body is doing in M 294
body at all or M 294
book be read as M 293
boys in any of M 292
book up for the M 292
body we are to M 292
body is thus in M 292
body is hung up M 292
body as being of M 292
body is that we M 290
boys to get an M 288
born to god in M 288
boring it can be M 288
book he had the M 288
body is now on M 288
body as god is M 288
boys if they do M 286
born to set us M 286
book the aim is M 286
book is put to M 286
body to put on M 286
born to sit in M 285
book to put it M 285
boys is apt to M 284
book to him at M 284
book by any of M 284
book as with the M 284
body to each of M 284
body in that of M 284
born in him by M 283
book is not up M 283
bone to act as M 283
boring it may be M 282
book of law in M 282
bone on both the M 282
body of one to M 282
body is that is M 282
body he had at M 282
bows on top of M 281
book to him to M 281
book he was at M 280
body to put in M 280
body if not the M 280
born so that it M 279
book the man of M 278
book or that the M 278
body so that at M 278
body is using the M 278
body of men up M 277
boys to bring me M 276
book at all the M 276
book as one in M 275
born in him at M 274
born in her is M 274
book is now so M 274
bone or with the M 274
bold as any of M 274
body to heal it M 274
body of air of M 274
body is using up M 274
boys to let the M 272
boys to lead the M 272
born it may be M 272
book is how it M 272
bone or bit of M 272
body as that on M 272
body is read as M 271
boys or one of M 270
book my aim is M 270
book is that so M 270
book in use by M 270
book if one is M 270
bone so that he M 270
bold to ask of M 270
bold as she is M 270
body to near the M 270
body the sun is M 270
body is not up M 270
body at one or M 270
born to lead in M 268
book we read is M 268
book it has no M 268
bone to get the M 268
body to heat up M 268
boys to let me M 266
book or poem is M 266
body of law we M 266
body is all in M 266
born on earth is M 264
born as men or M 264
book to him is M 264
body or not to M 264
body of god on M 264
body is thus to M 264
body is now an M 264
bone is going to M 262
body of god to M 262
boys is not as M 261
boring it all is M 260
book is then to M 260
bone is for the M 260
body of men if M 260
book on this is M 258
book he has the M 258
body is long in M 258
born to her is M 256
book so far to M 256
book is one the M 256
book is new in M 256
bone in any of M 256
body to set it M 256
born to bring the M 255
born he was the M 255
boys to run to M 254
book is out at M 254
body in this or M 254
body in death is M 254
book by him to M 253
born to and the M 252
born so near to M 252
born is going to M 252
book to him or M 252
bone of both the M 252
body the end of M 252
body of one is M 252
born to her the M 250
book so that no M 250
bone or two of M 250
body is for us M 250
born in red wing M 249
book to them is M 248
book or saw the M 248
body up for the M 248
body to see to M 248
body to lay it M 248
body to end in M 248
body to cling to M 248
body is with us M 248
book or may be M 247
born the year he M 246
book we get the M 246
book to two of M 246
book in that he M 246
body so you do M 246
book is long on M 245
boys to sit at M 244
born or for at M 244
book to both the M 244
book of things we M 244
book is set at M 244
bold of you as M 244
body or that he M 244
boys go with the M 242
book the eye of M 242
born to her of M 240
book of job an M 240
book by far the M 240
body to read the M 240
body is lying at M 240
body as being at M 240
book it has to M 239
book of death is M 238
bone in one or M 238
body the idea of M 238
book or how to M 237
body of them do M 237
book the cat in M 236
book of use to M 236
book of his by M 236
bone to see if M 236
bold thing for the M 236
bold of her to M 236
body of god or M 236
born he was in M 235
book to one or M 235
boys to use it M 234
born of man is M 234
book of god of M 234
book as does the M 234
body to both the M 234
born in sin as M 233
born as out of M 232
body go out of M 232
body at all to M 232
born or that he M 231
book by all the M 231
boys at all in M 230
bows of all the M 230
born to die of M 230
book of two or M 230
book is off my M 230
body or head is M 230
body of his king M 230
body if not of M 230
body he has to M 230
born to die as M 229
boys to act in M 228
born on earth of M 228
book is not it M 228
book is far the M 228
body is dead by M 228
body in with the M 228
born of man in M 227
bows so that the M 226
book is out in M 226
book he was the M 226
body to hang on M 226
body to any of M 226
body of them of M 226
body is ill or M 226
body he has no M 226
born at all or M 225
boys as they go M 224
born is not to M 224
book on using the M 224
book of law is M 224
book is old or M 224
body as that it M 224
body as easy as M 224
bows the head to M 222
book to lead the M 222
book as she is M 222
body to death in M 222
born so and so M 221
born to one or M 220
born of god he M 220
book or that he M 220
book or goes to M 220
body to put up M 220
body of him in M 220
body is owing to M 220
body is doing to M 220
boys to read it M 218
born he may be M 218
book to both of M 218
book so dear to M 218
book or two he M 218
book is thus of M 218
book he had at M 218
body he had the M 218
body by two or M 218
body at all is M 218
boys to hear the M 216
boys to get me M 216
bows to each of M 216
book of god by M 216
body or due to M 216
body be not in M 216
book by him in M 215
book as being an M 215
boys my age in M 214
born in was an M 214
book to get up M 214
book so far in M 214
book as not to M 214
body is run by M 214
body is and go M 214
body as that to M 214
body of his as M 213
boys to beat the M 212
born to rot in M 212
book we hear the M 212
book so that my M 212
book it was he M 212
body in death as M 212
book so that if M 211
boys is not to M 210
born is not an M 210
book or try to M 210
book of his at M 210
book is out to M 210
bone as may be M 210
body is key to M 210
body in being it M 210
born so long as M 209
born at all in M 209
boys go out of M 208
boys as they do M 208
born to see it M 208
book of both the M 208
book is out on M 208
book as this the M 208
bone to end in M 208
body so that by M 208
body on any of M 208
body of this king M 208
body of men an M 208
body it had to M 208
body is that he M 208
book is one by M 207
book do not in M 207
boys if you do M 206
born on this or M 206
book to get my M 206
book or two is M 206
book is read at M 206
bone is not of M 206
body at death it M 206
body at death in M 206
boys as big as M 204
book by far is M 204
body of man on M 204
body as one in M 204
boys to use as M 203
boys so long to M 202
boys or with the M 202
born the end of M 202
book or poem to M 202
book at all on M 202
body to hear me M 202
body or not at M 202
body it goes to M 202
body he had in M 202
body as any of M 202
boys is not in M 200
boys at all the M 200
born of god we M 200
book the fear of M 200
book on both the M 200
book if due on M 200
body to win the M 200
body the act of M 200
body or head to M 200
body or does it M 200
body as all the M 200
boys or men or M 198
boys is that it M 198
book to get me M 198
book of his we M 198
book is now of M 198
book in aid of M 198
book he can be M 198
bone to one of M 198
bold to say is M 198
bold to ask my M 198
body is rid of M 198
body is all we M 198
body as weak as M 198
born in his or M 197
book to you to M 197
book do not go M 197
book by going to M 197
boys to see to M 196
boys if any of M 196
boys he was the M 196
born or not to M 196
book is weak in M 196
body so with the M 196
body is dead or M 196
body if she is M 196
body by using it M 196
book up with the M 195
book it was as M 195
bows of two of M 194
born the way we M 194
book is now an M 194
bone as big as M 194
body to bring in M 194
book so that in M 193
boys the way to M 192
boys the way he M 192
bows the head in M 192
born in him in M 192
book we saw the M 192
book or ask the M 192
book as low as M 192
bone at one or M 192
body so near to M 192
body of his is M 192
body as old as M 192
body as fit as M 192
body as being an M 192
born to both of M 191
boys or for the M 190
boys in that he M 190
book or read the M 190
book of god we M 190
book me for the M 190
book is both in M 190
book as old as M 190
book as did the M 190
bows to him as M 189
born in both the M 189
book be one of M 189
boys up for the M 188
book to sit on M 188
book or hear it M 188
book on him is M 188
book in use is M 188
bone so that no M 188
body to god the M 188
body or not is M 188
book or that of M 187
boys on each of M 186
born of them is M 186
book or not is M 186
book is read the M 186
book is for if M 186
bone in that the M 186
body to lie at M 186
body to all of M 186
body by eating the M 186
body at end of M 186
book he read on M 185
book as are the M 185
body is now no M 185
boys to use in M 184
boys to bring it M 184
born to die the M 184
born to die at M 184
book we had the M 184
book the war on M 184
body on earth to M 184
body is doing it M 184
boys the way the M 182
boys is not an M 182
boys in for the M 182
boys he had in M 182
born in him or M 182
book to you by M 182
book at all to M 182
body to that on M 182
body of things he M 182
body in his or M 182
body he can be M 182
body by both the M 182
boring to sit in M 181
body on earth as M 181
body it was as M 181
book of kings at M 180
book in for the M 180
bold an idea as M 180
body of men go M 180
body of him to M 180
body is but as M 180
body as both an M 180
born is that of M 179
born is now the M 179
boys to put it M 178
born to him is M 178
born of him or M 178
book to use is M 178
book the sum of M 178
body to see me M 178
body to ask the M 178
body is set at M 178
boys to beat up M 177
book we can do M 176
book of them in M 176
body to him to M 176
body on one or M 176
body do all the M 176
boys do with the M 174
born is not so M 174
book he has no M 174
body of them by M 174
body of men no M 174
body is his or M 174
body if this is M 174
body do not go M 174
book to get in M 173
book the idea is M 173
boys it was an M 172
book he read to M 172
bone to near the M 172
bone of any of M 172
body as does an M 172
body as bad as M 172
boys is not no M 171
born as she is M 171
book to pay the M 171
book or any thing M 171
bone is put in M 171
born in sin of M 170
book to you if M 170
book or that it M 170
book on them is M 170
book of man is M 170
bold to put to M 170
body to act at M 170
body or one or M 170
body on all the M 170
body of one as M 170
body of air as M 170
body in all my M 170
body by act of M 170
body at ease in M 170
born to use the M 169
boys or any of M 168
book at any of M 168
book as this it M 168
book as easy as M 168
book an idea of M 168
book an act of M 168
bone to fit the M 168
body to god in M 168
body or who is M 168
body on both the M 168
body is dead to M 168
body in rear of M 168
body as any in M 168
book of his of M 167
boys to read in M 166
boys so far as M 166
boys as being the M 166
born of her to M 166
book or read it M 166
book is read or M 166
book in with the M 166
bone or one of M 166
bone is cut in M 166
bone as that of M 166
body the heat is M 166
body the eye is M 166
body the air is M 166
body so that as M 166
body on each of M 166
body of his to M 166
body at death or M 166
born he had to M 165
body to fix on M 165
body of air by M 165
boys do not sing M 164
born to put an M 164
born as men of M 164
book to you is M 164
book to use at M 164
book to lay the M 164
book is for an M 164
bold thing for me M 164
bold an act as M 164
body to end the M 164
born by all the M 163
boys to act the M 162
bows as far as M 162
book to sum up M 162
book the two of M 162
book on how he M 162
book it for the M 162
book is new or M 162
bone of one or M 162
bone it can be M 162
body to bring to M 162
body the things of M 162
body of earth to M 162
body in two of M 162
born in them or M 161
boring to say the M 161
book to hear the M 161
bone to use as M 161
book at all or M 160
bone in man is M 160
body to get me M 160
body the way we M 160
body of all is M 160
body is then at M 160
body is doing at M 160
body in that he M 160
body at both the M 160
boys we had to M 158
boys the idea of M 158
born to win the M 158
boring of all the M 158
book we are at M 158
book to lie in M 158
bold to bear the M 158
body on that of M 158
body if they do M 158
book as out of M 157
born the era of M 156
born of him by M 156
born in sin or M 156
born in her to M 156
born as men in M 156
book or poem so M 156
book of all in M 156
book an end to M 156
bone on one of M 156
body to try the M 156
body to one in M 156
body or near it M 156
body he saw the M 156
boys to set the M 154
born of fear is M 154
born of and in M 154
born in was the M 154
book of war of M 154
book is why the M 154
book is weak on M 154
bone is then to M 154
body to lay the M 154
body on how to M 154
body as one thing M 154
born in them as M 153
boys to cut the M 152
boys on all the M 152
born to fit the M 152
born in him of M 152
book is fit to M 152
bone in all of M 152
bold he was in M 152
body of six to M 152
body of six of M 152
body is doing or M 152
body is dead in M 152
book or put it M 151
born to try to M 150
born to see so M 150
born is that the M 150
born as any of M 150
book as this if M 150
bone so that in M 150
bone of him is M 150
bone in two or M 150
body we see is M 150
body we see in M 150
body to end up M 150
body is ill to M 150
book to see it M 149
body be put on M 149
born to you as M 148
book we hear of M 148
book to get at M 148
book the way in M 148
book as any of M 148
bone by one of M 148
body to use to M 148
body to cut the M 148
body or all of M 148
body of his he M 148
body is yet in M 148
body do with the M 148
born in and in M 146
book of law or M 146
book as being on M 146
bold to ask it M 146
body to die in M 146
body of earth in M 146
body in with my M 146
body he was at M 146
bone is going on M 145
born to win by M 144
born to her or M 144
born to die so M 144
born in fear of M 144
book in may of M 144
bone by using the M 144
body up and to M 144
body the law of M 144
body or was it M 144
body on earth in M 144
body is hung by M 144
body by using an M 144
body by doing the M 144
body be set in M 144
born of each of M 143
born it was as M 143
book to say the M 143
book the air of M 143
book in one go M 143
boys to die on M 142
boys to bring my M 142
boys to add to M 142
boys go off on M 142
born to lead us M 142
born of his or M 142
born as man is M 142
book up out of M 142
book to men of M 142
book on them in M 142
book at all it M 142
bone by all the M 142
body to see us M 142
body to fit it M 142
body so they do M 142
body so does the M 142
body of ten to M 142
body of one we M 142
body of law he M 142
body it has an M 142
body is led by M 142
body is doing is M 142
body is dead on M 142
body as near the M 142
body as heat or M 142
boring as that of M 141
born to run is M 140
born to act in M 140
book we use it M 140
book we owe to M 140
book or not to M 140
book of this or M 140
book is and the M 140
bold to set the M 140
bold an act of M 140
body to them in M 140
body to god by M 140
body to act by M 140
body or try to M 140
body is one to M 140
body in two to M 140
body as real at M 140
boys to hang on M 139
boys to all the M 138
boys as may be M 138
born to put it M 138
born the age of M 138
born of this or M 138
born in may in M 138
born in and is M 138
book to you at M 138
book to run to M 138
book the seat of M 138
book it has the M 138
book by using it M 138
book as this at M 138
book as dry as M 138
bold to use my M 138
bold to use it M 138
bold of them to M 138
body is than an M 138
body is near to M 138
body is near or M 138
body in aid of M 138
boring as far as M 137
book by one or M 137
boys to see us M 136
boys so that we M 136
born to run in M 136
born to all of M 136
born so far as M 136
book the day the M 136
book so long in M 136
bone to try to M 136
body we see no M 136
body or two to M 136
body at any of M 136
book or box of M 135
book as one to M 135
bold to see in M 135
body to set in M 135
born to rid the M 134
born the day we M 134
born so out of M 134
born of her or M 134
boring as can be M 134
book to end on M 134
book if this is M 134
book he was an M 134
book by you on M 134
book as was the M 134
bone to get to M 134
bone in all the M 134
bold as any in M 134
body to one at M 134
body if that is M 134
body do its thing M 134
body as that by M 134
boys or men as M 132
boys he was to M 132
boys as mad as M 132
boys as can be M 132
born to men of M 132
born to her to M 132
born of her by M 132
bone in his or M 132
bold in doing so M 132
body of our foe M 132
body is east of M 132
body if one of M 132
body he saw in M 132
born in them to M 131
book to her by M 131
book to fix the M 131
boys to read to M 130
boys on both the M 130
born to are as M 130
born or how he M 130
born as one is M 130
born as did my M 130
book is using the M 130
book is that is M 130
book he has an M 130
book as this we M 130
bone by use of M 130
body to this or M 130
body to get my M 130
body to aim at M 130
body the day he M 130
body of man so M 130
body is dead my M 130
body by aid of M 130
born to act as M 129
book is read on M 129
boys to bring us M 128
boys or men on M 128
boys my age to M 128
born to them he M 128
born in her as M 128
book to say so M 128
book on wings of M 128
book on how it M 128
book of law to M 128
book is lying in M 128
book he read at M 128
book as both an M 128
body or how the M 128
body if you eat M 128
body at all the M 128
body as each of M 128
body an act of M 128
book to let us M 127
book or two as M 127
book of his so M 127
body is dead as M 127
boys or all the M 126
boys do not be M 126
born to two of M 126
born at two in M 126
book we had at M 126
book the son of M 126
book so bad as M 126
book or was it M 126
book of kings he M 126
book do not do M 126
book at all at M 126
bone is not at M 126
bold in that it M 126
bold as ask the M 126
body to let me M 126
body to get an M 126
body so and so M 126
body of idea on M 126
body is now of M 126
born to that of M 125
book to read of M 125
book it had to M 125
book be out of M 125
book as that by M 125
body to get as M 125
body of sin as M 125
boys to win the M 124
boys to men in M 124
boys in both of M 124
bows to them in M 124
bows to god in M 124
bows by way of M 124
born to you by M 124
born on may the M 124
born is both to M 124
book to run the M 124
book to read so M 124
book to her to M 124
book is with me M 124
book he saw in M 124
book he read the M 124
book he goes to M 124
book by far on M 124
bone is yet to M 124
bone he had to M 124
body up and the M 124
body to you in M 124
body to bring up M 124
body or how to M 124
body or head or M 124
body is then of M 124
body is red in M 124
body is put at M 124
body is for an M 124
body is dead it M 124
body by going to M 124
boring is one of M 123
book the day it M 123
boys to put to M 122
boys to ask the M 122
boys so they do M 122
boys in out of M 122
book to you or M 122
book to say it M 122
book so easy to M 122
book is this of M 122
book is near the M 122
book in that we M 122
book he has at M 122
book as being to M 122
bone to aid in M 122
bold it may at M 122
body to let it M 122
body at death as M 122
body as that is M 122
born the head of M 121
boys to each of M 120
boys or men is M 120
boys of each of M 120
boys in two of M 120
boys go for the M 120
born to die by M 120
born the year in M 120
born he has no M 120
born at red wing M 120
boring in for the M 120
book we are the M 120
book to you on M 120
book or song or M 120
book on top to M 120
book on earth so M 120
book is cut in M 120
bold to say we M 120
body to rid it M 120
body to put an M 120
body to act or M 120
body or head in M 120
body of myth in M 120
body is out in M 120
body is led to M 120
body is due in M 120
body in two at M 120
body as near to M 120
book to add the M 119
boys to run in M 118
born on earth at M 118
born on each of M 118
book or using the M 118
book on one or M 118
book of all to M 118
book is all it M 118
book as this on M 118
bold or with the M 118
body to lead to M 118
body to her in M 118
body to bear up M 118
body it was an M 118
body it had no M 118
body in using the M 118
body he was so M 118
born of man or M 117
born as any in M 117
book is not me M 117
body to fit in M 117
boys to man the M 116
boys in how to M 116
born the idea to M 116
born it was to M 116
born in him an M 116
born as man in M 116
book so that an M 116
book or use it M 116
book or poem of M 116
book of use in M 116
book is then an M 116
book is read it M 116
book if that is M 116
book as bad as M 116
bone of each of M 116
bone is that in M 116
bold he may be M 116
body up off of M 116
body to aid it M 116
body of sin or M 116
body of death as M 116
body is east or M 116
body is dead the M 116
boring as long as M 115
book it was an M 115
boys to cut up M 114
boys go with me M 114
born we had no M 114
born to see if M 114
born to bring us M 114
book or that is M 114
bone of man is M 114
bone as one of M 114
body to reap the M 114
body to her as M 114
body the sky is M 114
body of things is M 114
body of myth is M 114
body of any king M 114
body is lit up M 114
body in doing so M 114
body he was no M 114
body as one or M 114
born of them as M 113
book we read on M 113
boys it can be M 112
born to get on M 112
born at six in M 112
book to him by M 112
book to get on M 112
book or with an M 112
book of them to M 112
book of men in M 112
book is thus on M 112
book be read to M 112
book as near as M 112
bold so that it M 112
body to aid me M 112
body the heat of M 112
body so far to M 112
body or two in M 112
body of man we M 112
body is that if M 112
body in fear of M 112
body in air be M 112
body do not in M 112
born he had the M 111
book to aid me M 111
body to you so M 111
body to him so M 111
boys he was an M 110
boys do not at M 110
boys as you do M 110
born to bring to M 110
born of her at M 110
born is not in M 110
born in two or M 110
book we mean by M 110
book the era of M 110
book if for no M 110
book he read it M 110
book by use of M 110
bone is easy to M 110
body we had to M 110
body to say to M 110
body or out to M 110
body or all the M 110
body of them the M 110
body of them be M 110
body of song in M 110
body is let go M 110
body am out of M 110
boys do not as M 109
book to bring in M 109
boys in that the M 108
boys by one of M 108
born or that the M 108
born or can be M 108
born in her the M 108
book to say to M 108
book or get it M 108
book or all the M 108
book on this or M 108
book is then the M 108
book is set is M 108
book at his or M 108
book at all as M 108
bold to beg the M 108
body the way an M 108
body it was no M 108
body is weak the M 108
body in both of M 108
body in air to M 108
body he was on M 108
body be one of M 108
body at all as M 108
book to read up M 107
boys in one or M 106
boys at both the M 106
born it has to M 106
born in them in M 106
born in sin to M 106
born as son to M 106
book we read as M 106
book to get is M 106
book to fit my M 106
book to ask the M 106
book the zen of M 106
book or for my M 106
book of them is M 106
book of all on M 106
book he had an M 106
book at him in M 106
book at end of M 106
bold to set up M 106
body to read it M 106
body of that king M 106
body of man it M 106
body of being of M 106
body it has so M 106
body is for it M 106
body in air at M 106
body by being in M 106
body up with my M 105
body to them as M 105
boys to bring to M 104
bows at one of M 104
born it has no M 104
boring is that the M 104
book we read no M 104
book to bear in M 104
book the too of M 104
book if all the M 104
book by both the M 104
book as that on M 104
book as that is M 104
book as that in M 104
bone to see the M 104
bold to add the M 104
bold by using the M 104
body to dry it M 104
body of two to M 104
body of and the M 104
body an air of M 104
book it was so M 103
boys we had in M 102
boys to death in M 102
boys so that it M 102
boys it was to M 102
boys do that to M 102
boys as with the M 102
bows to one of M 102
bows of each of M 102
born to his or M 102
born to heal the M 102
born the year my M 102
boring to read the M 102
boring is not the M 102
book to lay it M 102
book on out of M 102
book of one or M 102
book is due at M 102
book at each of M 102
book as due to M 102
bone is cut to M 102
body to man the M 102
body to his or M 102
body or being of M 102
body or area of M 102
body in both is M 102
body in and by M 102
body he has the M 102
body he has in M 102
born of god at M 101
boys to try the M 100
boys to run up M 100
boys to beat at M 100
boys go out at M 100
boys do for the M 100
born or that it M 100
book to win me M 100
book on why the M 100
book is thus as M 100
book is one he M 100
book is all my M 100
bone so that an M 100
bone as low as M 100
bold so that the M 100
bold in singing the M 100
body to rid the M 100
body of real or M 100
body of heat in M 100
body is red or M 100
body in one to M 100
boys the fear of M 98
boys on any of M 98
boys in that it M 98
born to you is M 98
born to lead an M 98
born or die or M 98
born in them the M 98
born in that of M 98
born if you do M 98
book in doing so M 98
book he had by M 98
bone if you do M 98
body to run to M 98
body to god is M 98
body is then an M 98
body is both in M 98
body is all he M 98
body in air or M 98
body be cut to M 98
body as red as M 98
born to put up M 97
boring as all the M 97
boys up with the M 96
boys to try it M 96
boys to buy the M 96
boys to aim at M 96
bows so near the M 96
born of fear in M 96
book we read or M 96
book we can be M 96
book the man on M 96
book or toy to M 96
book on war in M 96
book he saw the M 96
book he saw it M 96
bone to bring the M 96
bone so that we M 96
bone is cut at M 96
bold is not the M 96
body to sit at M 96
body to ask me M 96
body the way to M 96
body of old king M 96
body it had the M 96
body is that to M 96
body is not he M 96
body do not do M 96
body by eating or M 96
body as being so M 96
body an arc of M 96
body in man as M 95
boys to any of M 94
boys he was so M 94
born to you or M 94
born the fear of M 94
born in them of M 94
born by her to M 94
book to hear me M 94
book to buy if M 94
book or are in M 94
book is read is M 94
body to use or M 94
body of both of M 94
body is that at M 94
body is how to M 94
body he had on M 94
born in and as M 93
boys to end up M 92
boys of one or M 92
boys my age or M 92
boys he saw in M 92
boys by two to M 92
born to run on M 92
born it was at M 92
book to use if M 92
book to mean an M 92
book to her or M 92
book to get us M 92
book to buy it M 92
book or off it M 92
book of war by M 92
book of and the M 92
book is key to M 92
book is doing so M 92
book as this be M 92
bone is now in M 92
bold to say on M 92
bold as one of M 92
body to them to M 92
body to mean the M 92
body to him on M 92
body the kings in M 92
body so dear to M 92
body of myth to M 92
body of and in M 92
body is that on M 92
body in may of M 92
body he sat up M 92
body as two or M 92
book to bring up M 91
body of earth so M 91
boys to cling to M 90
boys of two or M 90
boys as was the M 90
bows the head of M 90
born we had to M 90
born of all of M 90
born it was an M 90
born it had to M 90
born is now in M 90
born at all to M 90
boring us with the M 90
book to them at M 90
book to see an M 90
book the poet is M 90
book of kings on M 90
book of all he M 90
book it out of M 90
book in ten or M 90
book as any in M 90
bone the leg of M 90
bone at one of M 90
bold to add to M 90
body the sin of M 90
body the man is M 90
body so that on M 90
body so out of M 90
body of two of M 90
body of things to M 90
body it was so M 90
body is wet or M 90
body is not us M 90
body in man or M 90
body as with it M 90
book to see in M 89
boys we saw in M 88
bows on all the M 88
born we are the M 88
born of earth is M 88
born it was in M 88
born in them by M 88
born he was at M 88
born he had an M 88
book to him if M 88
book or all of M 88
book on zen in M 88
book it for me M 88
bone at end of M 88
bold to say at M 88
bold to ask in M 88
bold in god to M 88
body we see it M 88
body to rot on M 88
body to god to M 88
body to end at M 88
body so near the M 88
body of that is M 88
body of her king M 88
body is going at M 88
body is each of M 88
body is any thing M 88
body if all the M 88
body at all if M 88
body as with an M 88
born of earth to M 87
born he was an M 87
boring to him as M 87
boys as that of M 86
bows my head to M 86
born in him is M 86
born an age of M 86
book up for me M 86
book to read he M 86
book to lead to M 86
book to buy or M 86
book to bear on M 86
book the year it M 86
book the man is M 86
book or for an M 86
book of six or M 86
book it was no M 86
book is being so M 86
book he was on M 86
book he read or M 86
book be put on M 86
body of one the M 86
body of air the M 86
body be not the M 86
born on earth or M 85
book as being at M 85
boys to get at M 84
boys is out of M 84
boys at six or M 84
born the year we M 84
born so was the M 84
book to set it M 84
book to let me M 84
book to him he M 84
book of how it M 84
book at all of M 84
book as this by M 84
book an area of M 84
bone as near to M 84
bold as may be M 84
body to say it M 84
body of song of M 84
body it does so M 84
body is wet by M 84
body is two or M 84
body is going in M 83
boys to men of M 82
boys so that if M 82
boys is that we M 82
born to put the M 82
born to men in M 82
born in may to M 82
boring to try to M 82
book to two or M 82
book to them to M 82
book or pay the M 82
book or hear in M 82
book on that of M 82
book of two of M 82
book no end of M 82
book is thus at M 82
book is going so M 82
book is all we M 82
book in two of M 82
book as being so M 82
bone so long as M 82
bone so far as M 82
bone go with the M 82
bold it may be M 82
body we use to M 82
body we get the M 82
body to hang in M 82
body to buy the M 82
body to bet on M 82
body the day of M 82
body of them or M 82
body of song is M 82
body of myth or M 82
body of all he M 82
body is can be M 82
body do not at M 82
body as this to M 82
body as heat is M 82
book is his as M 81
boys we had the M 80
boys to sit up M 80
boys or that the M 80
boys is now in M 80
boys in that of M 80
boys go off in M 80
bows to see the M 80
born to you to M 80
born so and the M 80
book or how it M 80
book is with us M 80
book is dear to M 80
book he has on M 80
book as that to M 80
book as his or M 80
bone by one or M 80
bone be put in M 80
bone at both the M 80
bone as they do M 80
bone as can be M 80
bold to put it M 80
bold to ask to M 80
body or two or M 80
body or being in M 80
body of law if M 80
body of heat is M 80
body is one the M 80
body is not it M 80
body in two by M 80
body in and the M 80
body he can do M 80
body as both in M 80
bows to her as M 67
body to his so M 65
book to see on M 61
book on him as M 59
body to run on M 55
body if they so M 55
bows as long as M 52
born in you as M 52
born of two or M 51
bows to them as M 50
bows to her in M 50
born of man to M 49
body is then no M 49
born of all my M 48
born to them so M 47
boys to run on M 46
bows to him at M 46
born as for the M 46
born is that he M 45
boring is going on M 45
book up with me M 45
born is apt to M 44
born in man as M 44
born he had no M 44
born as was the M 44
book to you so M 44
book to her at M 44
born as not to M 43
boring to read as M 43
boring or that it M 43
boring is not it M 43
book if not the M 43
body is now as M 43
body is doing as M 43
boys to bring on M 42
boring to see the M 42
book be put in M 42
body he was as M 42
born of being the M 41
born is not as M 41
book so that at M 41
book if any of M 41
boring to hear the M 40
book or ask at M 40
body in two as M 40
book the art of D 11151
boat as far as D 6764
bore the seal of D 6038
boss is going to D 5659
bore the sin of D 5166
bond is one of D 5028
bore up for the D 4784
bowl on top of D 3930
boat so that the D 3144
boat so that it D 2918
bore the head of D 2764
boat is going to D 2720
bore to that of D 2712
bore it with the D 2558
boat to see the D 2454
boss of all the D 2441
bond to pay the D 2366
boat to get to D 2366
bore the air of D 2338
boil on top of D 2316
bore an air of D 2310
boat to one of D 2194
bowl so that the D 2169
boxing the ears of D 2144
bond as may be D 2080
boat is one of D 1981
bond is that the D 1916
bore the ark of D 1866
boat as long as D 1804
boat so that he D 1714
bond so that the D 1662
boat to see if D 1650
bond is due to D 1586
bomb is going to D 1536
boss of one of D 1464
boil an egg in D 1414
boat on one of D 1398
bowl so that it D 1386
bore it off to D 1384
bore to him the D 1378
boat to get the D 1378
boon to ask of D 1370
boat on top of D 1366
bore it off in D 1358
boat is out of D 1356
bond is not the D 1350
bond is that of D 1348
bore me off to D 1306
bond is that it D 1300
bomb to end the D 1274
boat he was in D 1239
boat to try to D 1228
bowl or two of D 1216
boat in one of D 1172
bond to one of D 1152
boil it with the D 1133
boss is out of D 1114
body of gas is D 1106
bomb in one of D 1084
bowl is one of D 1078
bond of men in D 1060
boat he was on D 1056
book is dub on D 1053
boat is not in D 1046
bore up with the D 1042
bore the son of D 1026
bowing the head to D 1022
bolt so that the D 1007
book of gad the D 986
boss is one of D 950
bowl of hot tea D 946
boat to bring the D 946
bond is not an D 940
bore the heat of D 930
bond is not as D 930
bowing my head to D 920
boat by way of D 910
bond of all the D 900
bond is for the D 898
bond is one in D 884
boss is not the D 874
bore it all in D 872
boil up out of D 862
boat so that we D 862
bore the death of D 846
bond is not to D 810
book is fun to D 786
born in east la D 780
boat is not the D 780
boat at one of D 776
bond of man to D 774
bond in each of D 770
bore so that the D 756
boat as near the D 756
bore it with so D 748
bond in one of D 748
bond in that it D 744
bolt so that it D 732
bond is not in D 709
boil an egg or D 703
body of ore in D 702
bore us with it D 700
bomb on one of D 700
boat as big as D 688
bout as big as D 686
born at bath in D 680
boat of one of D 680
born to wear the D 667
boss to see if D 660
booth in one of D 660
bowing to him as D 658
bore me out of D 656
bomb is that it D 650
bowing to him on D 643
bowing the head at D 636
boon to both the D 630
bond is not so D 624
bowing the head in D 623
boon to all the D 616
boss is not in D 610
booth is one of D 602
boot of one of D 600
bomb is set to D 594
bowl to see if D 590
bore to all the D 590
boat up with the D 586
boom so that the D 580
bond as long as D 580
bomb is not the D 580
body of ore is D 576
bowing to all the D 574
bore by far the D 574
boat up out of D 570
boxing is one of D 569
bond by way of D 568
bomb so that it D 567
bore it with an D 564
boat to see us D 564
boil to see the D 558
bowing my head in D 555
boil it for an D 550
bole of one of D 548
bowing to each of D 547
bowing to her as D 544
bore it out of D 542
boat is not so D 534
bomb on top of D 530
boil it and eat D 519
boys the art of D 514
boat is not to D 510
boot me out of D 508
bond to each of D 508
body is hot or D 508
bowl as big as D 504
bore it off as D 504
body of ice in D 504
bowing to her in D 500
bowing as low as D 498
boat to bring it D 496
bowl or cup of D 494
boat we had to D 494
body of gas at D 492
boon it was to D 490
boat is that it D 486
boss to let me D 484
bond is going to D 478
boat to get it D 478
boss so that he D 470
bond is set at D 470
boat to see me D 468
body to hit the D 462
body as thin as D 462
bowing to him in D 460
bond so that it D 460
boss to get the D 458
boat if you do D 458
boat to tow the D 456
boat he was to D 448
book la due on D 446
bomb is one of D 444
bond of one of D 442
book is duo on D 438
boot on top of D 435
bore us with the D 434
body is dug up D 431
bond of being in D 430
boat is apt to D 428
bolt on top of D 427
bore to one of D 424
bore me with the D 424
bore in for the D 418
boss or one of D 414
bore on them the D 414
bore it for the D 414
boon to all of D 414
boot so that the D 413
boat is now in D 412
bolt or nut is D 410
boil it for at D 409
boss as long as D 408
born to wear it D 408
boss is not so D 407
bond as one of D 406
bore it was to D 404
bowl of one of D 400
bore up for it D 400
bolt in one of D 398
bore me off in D 396
boning up for the D 394
booth to see if D 392
boom is that it D 392
bomb go off in D 392
bond is that if D 389
boat so far as D 388
boom is that the D 386
boot is now on D 382
bolt or two of D 378
boat is that the D 378
boat to act as D 377
body of gas in D 376
boat to lie in D 376
bond to that of D 372
boat in tow of D 372
boom so that it D 371
bond in that the D 370
bowl of them on D 368
booth so that the D 368
boom is due to D 368
bond is with the D 368
bout the end of D 366
boss as far as D 366
boom is going to D 362
body of ice is D 362
boar is one of D 360
book on art in D 358
boat is due to D 358
bore on one of D 356
boil so that the D 354
boot or shoe is D 352
boat by one of D 352
bowl to get the D 350
bore in them the D 346
booth at one of D 346
boot to lead us D 346
boat as one of D 346
bomb so that the D 345
boom is one of D 344
bomb on pan am D 344
bomb is not an D 344
boxing ring and the D 342
born in bath in D 342
boss in one of D 340
boon to her in D 340
bore it all as D 338
boil the meat in D 338
boat to bring me D 336
bore up out of D 334
boat up for the D 334
bout or two of D 332
boss is that he D 332
body of ice to D 332
boat of all the D 332
boat is not an D 332
boot on and the D 330
boat to get us D 330
boat it was my D 330
boom of one of D 328
bore as far as D 327
body of oil in D 326
boat or one of D 324
boat as near as D 324
boat to row to D 322
bowing to you as D 320
boat to try the D 320
bowing the head or D 316
boat to bring us D 314
bolt as far as D 311
body is fed by D 310
boat is not as D 310
bore it out to D 308
booth is set up D 308
bore us out of D 304
bowl in one of D 303
boot in one of D 303
boss to try to D 300
boss of all of D 300
boat to get on D 298
boat in all the D 298
bore so that it D 294
bolt of one of D 294
born to set thy D 293
bore me and the D 292
bond the two of D 292
bond in with the D 292
boring the ears of D 290
book or pen in D 290
boat to dry in D 288
boat to bring in D 287
bowing to them as D 286
bout as long as D 286
bomb is due to D 286
boat we saw the D 286
bore it all is D 282
book to hit the D 282
bore the boy to D 280
boat so long as D 280
boat is for the D 280
born to vex the D 278
boon in that it D 278
bond to one or D 278
bomb to hit the D 277
bowl to put it D 276
born the art of D 276
bore to them the D 276
body is met by D 274
boss is not to D 272
boss is not an D 272
bore me out in D 270
bond is that in D 270
boat to put me D 270
boss if you do D 268
bore to him in D 266
boss is out to D 264
bore me and my D 264
boat to use in D 264
boot so that it D 263
bore it was the D 262
booth so that he D 262
boat up one of D 262
boat is not at D 262
boil as long as D 261
bowl or pan of D 260
body of ore of D 260
boil an egg on D 259
bond so that he D 258
body to lean on D 258
boat he saw the D 258
boat he had to D 258
bore an axe on D 256
bore as long as D 254
boot on one of D 254
boil it for the D 254
boat as far up D 252
boys he met in D 250
bowl on one of D 250
book the dead sea D 250
bomb or two on D 250
bore to her the D 246
boot of all the D 246
boon to him to D 244
boom in both the D 244
bond to pay to D 244
boat to tow us D 244
boat is that of D 244
bore it all so D 243
bowl of ice in D 242
bomb or not to D 242
bond to tie the D 240
bomb as far as D 240
bolt on one of D 240
bowl so that he D 238
bowl or pan to D 238
bowl of ice on D 238
boss is not as D 238
bolt or nut to D 238
bout of flu or D 237
bore to men of D 236
bore as yet the D 236
boon to one of D 236
bowing to one of D 234
bore as one of D 234
booth is not the D 234
boat or try to D 234
boat or out of D 234
bowl of ice to D 232
bore us off to D 232
bomb is not to D 232
boat to put the D 232
bowl is not the D 230
boss so that the D 230
boss on top of D 228
bond to both the D 228
boat is set up D 228
boon to him in D 226
bomb or two in D 226
bowl of ale in D 224
boot to get it D 224
bond of him to D 224
boys to wear the D 222
boat is easy to D 222
boat to put in D 220
bowl to put the D 218
book on sex in D 218
body of art in D 218
boat to let the D 218
bore to him an D 216
born at bath on D 214
bore of one of D 214
bond be put in D 214
bomb is that the D 213
bore the cup to D 212
bond is one the D 212
bond is due in D 212
bore it for us D 210
boat to get up D 210
boon he had to D 208
boat to run the D 208
boat to get me D 208
boat to bring up D 208
boat is near the D 208
bowl to use as D 207
bore to you to D 206
booth is going to D 206
booth as one of D 206
boom as long as D 206
body of art is D 206
body as hot as D 206
bowl or cup in D 204
boon of being the D 204
bomb it out of D 204
bomb at one of D 204
boat to tie up D 204
bowing to them in D 202
boss on how to D 202
boss at one of D 202
boat to set up D 202
bore up for us D 200
boom on top of D 200
bond the sum of D 200
bond is not of D 200
boil it for me D 200
boss to see the D 198
born to thee in D 198
boon to beg of D 198
born at rye in D 196
bore in all the D 196
boot or shoe to D 196
bond so far as D 196
boil an egg to D 194
body of ice on D 194
boat to run on D 194
boat as she is D 194
bowing of one or D 193
bowl to mix the D 192
bowl of her ear D 192
boom is not the D 192
bowl as long as D 190
bowing to each in D 190
boss or with the D 190
bond so long as D 190
body to swing the D 190
boat in for the D 190
boat to run in D 189
boat is going up D 189
bore me with it D 188
boot or shoe on D 188
bomb as long as D 188
boil to read of D 187
boxing ring with the D 186
bore us all to D 186
bore the end of D 186
bond as far as D 186
boat in use on D 186
bond of each of D 184
body of gas to D 184
bore is one of D 182
bomb us out of D 182
boat he had in D 182
boat at any of D 182
bowl to one of D 180
boom as far as D 180
boat to see it D 180
boat or two to D 180
boat or any of D 180
boat it may be D 180
bowl as you go D 178
body of gas or D 178
boat so low in D 178
boot so that he D 177
boos is due on D 177
bore to him to D 176
bolt or key on D 176
boom in all the D 175
boss as head of D 174
bore it and the D 174
booth to try to D 174
bond of any of D 174
bomb to bring the D 174
boys to bed in D 172
bowl or jar of D 172
bond to get the D 172
bond or pay the D 172
bomb is not in D 172
boat to use the D 172
boat is lying in D 172
bowing my head as D 171
boxing is that it D 170
bore the man no D 170
bore the ears of D 170
bore it with as D 170
bond to his or D 170
bond is set by D 170
bond as that of D 170
body be dug up D 170
boat to get my D 170
bore the key of D 168
bond in his or D 168
body of ore or D 168
boil up with the D 167
boil to hear the D 167
boys he met at D 166
bowl of hot or D 166
bowl is set on D 166
body of ore on D 166
body of oil is D 166
boat to that of D 166
boat or two on D 166
boss is apt to D 164
boot us out of D 164
bond in both the D 164
body is hit by D 164
boat up near the D 164
boat to beat the D 164
boon of god to D 162
bond in sum of D 162
bomb to one of D 162
boat of two or D 162
boat is not on D 162
boat is going at D 162
boar as big as D 162
bowl as far as D 160
bout of flu in D 160
bore to him as D 160
bore in with the D 160
bolt is put in D 160
boat to row the D 160
boat the way he D 160
boon to them in D 159
boil in all the D 159
bout as far as D 158
born in bath on D 158
bore as yet no D 158
booth of one of D 158
book on art by D 158
bond is put in D 158
bond in any of D 158
body the fur is D 158
boat as near to D 158
bowl of them in D 156
boom to all the D 156
bolt of death is D 156
body of ore to D 156
boat to put us D 156
boat is put in D 156
boat is head to D 156
bowl to each of D 154
bout as bad as D 154
boss to say he D 154
bore it with me D 154
booth to see the D 154
boil it all up D 154
boat so that no D 154
boot to see if D 153
bore the sting of D 152
bore by way of D 152
bond is easy to D 152
bobs up out of D 152
boot as far as D 151
boss by his or D 150
boot or shoe in D 150
bond to pay it D 150
boat we had the D 150
boat so near the D 150
boat is now on D 150
boat is not of D 150
bowl is that of D 149
born in that sea D 149
boil the pot of D 149
bowl in pan of D 148
boss as one of D 148
bore is that of D 148
boon on men of D 148
bond is set up D 148
boat to ply the D 148
boat to hear the D 148
boat by using the D 148
bout the way he D 147
bore it for me D 146
bomb is not so D 146
body to tip of D 146
boat is off the D 146
bowing by all the D 144
boot up with the D 144
boon to them to D 144
bone is thin or D 144
boat to set the D 144
boat is lying at D 144
boat in that sea D 144
boat he had the D 144
bore the cup of D 142
bore me out to D 142
boot me off the D 142
bone of each toe D 142
bond by one of D 142
bomb to try to D 142
boat to hit the D 142
boat to cut the D 142
boat to any of D 142
boat is out in D 142
bowl or pot of D 140
boss of both the D 140
bore as big as D 140
boom in one of D 140
bony as that of D 140
bowl the head of D 138
bond to all the D 138
bond or tie of D 138
bond is now in D 138
bond by using the D 138
bomb on each of D 138
bomb as one of D 138
body to row me D 138
boat in two or D 138
bowl is that it D 136
bore as that of D 136
bond or not to D 136
body as fat or D 136
boat to row us D 136
boat to all the D 136
boat to aid in D 136
boat or car or D 136
boat it can be D 136
body of gas as D 135
boat to get in D 135
boxing as one of D 134
bowl is for the D 134
boss is not at D 134
bore the dead to D 134
bore of all the D 134
boom is going on D 134
boat we read of D 134
boys to hit the D 132
boxing ring for the D 132
boss is going on D 132
bore us off on D 132
bore to fit the D 132
bore on all the D 132
bond is all the D 132
bond at par in D 132
boil the sap in D 132
boil it and it D 132
body of his ex D 132
boat to use on D 132
boat to tow it D 132
boat to sit in D 132
boat at six in D 132
boil up two or D 131
boil so that it D 131
boss is not no D 130
bore to hear of D 130
bore if you do D 130
boat to put it D 130
boat to ask the D 130
boat go with the D 130
boxing is not the D 128
bowl of sky on D 128
bowl of dip in D 128
bowl of ale to D 128
booth so that it D 128
bond in all the D 128
boss to use the D 126
boss he had to D 126
bore so far the D 126
boon to both of D 126
bond is weak or D 126
bomb so that as D 126
bogs is one of D 126
body of ore at D 126
boat he goes in D 126
boat as all the D 126
bowl is set in D 124
bore the earth on D 124
bore as you do D 124
bond or for the D 124
boil on one of D 124
boat to put to D 124
boat to ask if D 124
boat is now at D 124
boot to get the D 123
boon to him as D 123
boys to fag us D 122
boxing ring set up D 122
bowl is not to D 122
boss so long as D 122
boss or head of D 122
booth to get the D 122
boot to get at D 122
boot or shoe of D 122
book or pen or D 122
bond of all is D 122
bond is weak in D 122
bond is that we D 122
bolt up out of D 122
boll of meal to D 122
boil it and the D 122
bode no ill to D 122
boat up and to D 122
boat or for the D 122
boat by two of D 122
boat or two in D 121
boat is going in D 121
boxing is that the D 120
bowl or cup is D 120
boss on one of D 120
book the beak of D 120
bomb to get the D 120
bolt or pin to D 120
boil the kid in D 120
body in art is D 120
boat we are in D 120
boat to get an D 120
boat to row on D 119
bowl or cup to D 118
bowl if you do D 118
bowing my head on D 118
bore the hue of D 118
bore it all the D 118
boom as one of D 118
bond is not at D 118
bond he was to D 118
boat or with the D 118
boat is one thing D 118
bomb wing and the D 117
boat is put on D 117
bout the age of D 116
boss the job of D 116
boss in his or D 116
born in fez in D 116
bore to that in D 116
bore the year of D 116
bond to bring the D 116
bond so near as D 116
bolt is that it D 116
body the fat is D 116
body as lean as D 116
boat to use as D 116
boar is not so D 116
bowing the head is D 114
boss or any of D 114
bore up with an D 114
bore the man to D 114
booth or any of D 114
boon as far as D 114
bond on one of D 114
body of ore as D 114
boat to row me D 114
boar to lion to D 114
bowing the head as D 113
book is being re D 113
boys to bed at D 112
bowl is not in D 112
bowl is going to D 112
bowl in each of D 112
boss to that of D 112
boss of his or D 112
bore the ark in D 112
boon is not to D 112
bomb to win the D 112
bomb as big as D 112
bolt or pin is D 112
body of ice of D 112
boat to lead the D 112
boat to get at D 112
bore us and the D 110
bore on top of D 110
booth to read the D 110
bond or oath of D 110
bond in all of D 110
bolt or nut in D 110
boat if they do D 110
boat go off on D 110
boss is not on D 109
bowl of peas to D 108
boss to set up D 108
bore the bow of D 108
boot to get me D 108
boot me out the D 108
book xi and the D 108
bond is and the D 108
boat to win the D 108
boat to put on D 108
boat or car to D 108
boat on any of D 108
boat is set on D 108
boat in any of D 108
boar at bay in D 108
bowl of oil on D 106
boss is mad at D 106
bore the tinge of D 106
bond to pay an D 106
bond of law or D 106
bond it may be D 106
bond he had to D 106
boat to head up D 106
boat to bear the D 106
boat so far up D 106
boat is dead in D 106
bowl is out of D 104
bowl is now in D 104
bore to them in D 104
bond of law is D 104
bond is out of D 104
bond is one to D 104
bond is near the D 104
bomb go off at D 104
bomb at him in D 104
bolt is going to D 104
body of this sea D 104
boat is due in D 104
bowl or pan in D 102
bowl of peas in D 102
bowl as you do D 102
bowing to him or D 102
boss is that the D 102
boss is that of D 102
bore to get the D 102
bore the earl of D 102
booth on top of D 102
bond is one on D 102
body of ice so D 102
boat to tow on D 102
boat to him in D 102
boat the sum of D 102
boat or off the D 102
book as fat as D 101
body of ice as D 101
bowing to both of D 100
bowing as low to D 100
boss me all the D 100
bore to all of D 100
bore it had to D 100
booth by one of D 100
boom is not in D 100
bond or that of D 100
bomb in use at D 100
bomb in that it D 100
boll of meal or D 100
boil the peas in D 100
boil is due to D 100
boat or two of D 100
boat in with the D 100
bond is put on D 99
boys to mow the D 98
boys he met on D 98
bowl to win the D 98
bowl of peas on D 98
bowl of ale at D 98
bowl is put on D 98
bowl by one of D 98
bowing my head at D 98
bowing is due to D 98
bore me for my D 98
bore it can be D 98
bore is out of D 98
bond or that the D 98
bond is apt to D 98
bomb or two at D 98
bolt or bar of D 98
body as per the D 98
boat to lie at D 98
boat in use at D 98
bowl to that of D 96
bowing to you in D 96
bowing to all of D 96
bowing the head of D 96
boss to pay me D 96
boss to get to D 96
bore me not be D 96
bore it with no D 96
bore in one of D 96
boon to her to D 96
boom is now in D 96
book is pan of D 96
bond to all of D 96
bond or with the D 96
bond be set at D 96
bond at par at D 96
bolt to see if D 96
bolt as long as D 96
body of art or D 96
body as fat as D 96
boat to each of D 96
boat so you do D 96
boat so near to D 96
boat in tow to D 96
boat in tow is D 96
boat in doing so D 96
boar of one of D 96
bout is one of D 94
boss to pay the D 94
boss so that it D 94
boss or for the D 94
bore the idea of D 94
bore of old the D 94
bore it thus to D 94
booth of all the D 94
boom it was the D 94
bond is then the D 94
body of ice at D 94
boat so that if D 94
boat my bed is D 94
boat is lying on D 94
bowl to let the D 92
bout it and he D 92
boss to act as D 92
bore so long as D 92
bore is that it D 92
boon of all is D 92
book it duo on D 92
bond on top of D 92
bond is set to D 92
boil the meat of D 92
body to rub the D 92
body to ape the D 92
boat we had in D 92
boat we are on D 92
boat of ten or D 92
boat is all the D 92
boar is not to D 92
boxing ring and in D 91
bowl to see the D 90
boss to set the D 90
boss is doing the D 90
boss in each of D 90
born to thee of D 90
born of thee in D 90
bore the wings of D 90
bore in him the D 90
booth as long as D 90
boot is going to D 90
bond so that we D 90
bond or with an D 90
bond it can be D 90
bond is put up D 90
bond in one or D 90
bolt or nut or D 90
body to wear it D 90
body in bed at D 90
boat to tow me D 90
boat to fit the D 90
boat go off at D 90
boxing ring and on D 88
bowl is not so D 88
bore us and we D 88
bore it may be D 88
booth by and by D 88
book of art of D 88
boning up for an D 88
bone to tip of D 88
bone as thin as D 88
bond is that he D 88
body or bed of D 88
boat it was the D 88
boat if one is D 88
bond to him as D 87
boys we met in D 86
boys to hit it D 86
bowl is not an D 86
bowing to him at D 86
bout me and my D 86
boss is due to D 86
bore us all in D 86
booth is not in D 86
boot so far up D 86
book on art or D 86
bond is for an D 86
bond if one is D 86
boat to run to D 86
boat he had no D 86
boil to death in D 85
boat in this sea D 85
bowl of meat or D 84
bowing is one of D 84
boss to one of D 84
boss to his or D 84
boss to ask if D 84
boss is fit to D 84
booth to pay the D 84
boot it out of D 84
boon to man in D 84
boon as long as D 84
book to his ear D 84
bond to him is D 84
bond to him in D 84
bond it with the D 84
bond in this ring D 84
boil to hear of D 84
boil the sap to D 84
body of art to D 84
boat we had no D 84
boat so that in D 84
boat in tow at D 84
boys to wear to D 82
bowl or pot is D 82
bowing to her at D 82
born in thee thy D 82
bore the bow in D 82
bore on him the D 82
bore it out in D 82
bore at all on D 82
boon to you in D 82
boon of all to D 82
book on art is D 82
bond to pay me D 82
bomb or two to D 82
bold to rob the D 82
boat we had an D 82
boat so that at D 82
boat he had so D 82
boat as that in D 82
bowl or cup on D 80
bowing to them on D 80
bout the way it D 80
boss to get me D 80
boss is not my D 80
bore me for the D 80
bore it was in D 80
booth is that it D 80
bond is thus the D 80
bomb to that of D 80
bolt to act as D 80
boat to ply on D 80
boat is going on D 62
boil in one of D 56
boot if you do D 54
boot by using the D 50
boon to them as D 49
book is sue on D 49
boil an egg at D 49
boil or fry it D 47
book ls due on D 46
boat to lie on D 46
boom so long as D 45
body of art as D 45
bout as old as D 43
boot so long as D 43
boot is put on D 43
boot is not the D 43
boil so that he D 43
boil an egg is D 43
bowl is not as D 42
boss to get on D 42
bolt so that he D 42
boil or fry the D 42
bowing so that the D 41
boot is one of D 41
boom is not as D 41
bowing to see the D 40
bowing so low as D 40
book to lean on D 40
