book deals with the M 79292
book dealing with the M 33434
book grew out of M 27244
body from head to M 22536
book will not be M 19760
book sets out to M 18180
body other than the M 17324
body will not be M 15562
book ends with the M 13385
book came out in M 13260
book kept for the M 9982
boys were going to M 9054
book like this is M 8697
born into one of M 8241
body must not be M 7224
body like that of M 7192
book ends with an M 6769
body along with the M 6074
body size and the M 5690
book will try to M 5466
book dealt with the M 5026
boys from ten to M 4498
boys will not be M 4314
boys came out of M 4256
body more than the M 4154
book from one of M 4134
boys went out to M 4104
book along with the M 4052
book form for the M 4026
book must not be M 3866
body need not be M 3844
body part that is M 3799
boys went off to M 3688
book need not be M 3584
book will use the M 3494
boys were out of M 3360
bone loss due to M 3219
book says that the M 3154
body gets rid of M 3039
book like this to M 2999
book came out of M 2804
body will then be M 2664
body mass and the M 2558
body from top to M 2520
bone loss can be M 2490
book other than the M 2462
book sets out the M 2460
body from that of M 2460
boys were not to M 2414
book form with the M 2338
boys were not in M 2274
bone loss may be M 2239
body laid out on M 2214
book will lead to M 2190
bone loss and the M 2178
body into that of M 2164
boys know how to M 2160
body there was no M 2054
book show that the M 2007
body into one of M 1978
book went out of M 1928
boys came out to M 1894
body half out of M 1894
body there can be M 1840
body theory and the M 1825
boys were all in M 1807
boys just out of M 1796
boys were not so M 1763
book will add to M 1744
body moving with the M 1744
boys learn how to M 1700
body will try to M 1672
book deals with an M 1669
boys were put to M 1668
boys have got to M 1654
body size may be M 1644
body were not the M 1602
book will not do M 1592
body part and the M 1589
bone mass and the M 1581
body part can be M 1571
body laid out in M 1566
boys knew how to M 1554
born along with the M 1547
boys from six to M 1518
body there may be M 1517
book ready for the M 1510
body along with it M 1500
born from age to M 1487
book there are no M 1477
boys were not the M 1452
book there was no M 1444
boys must not be M 1436
body such that the M 1430
bold push for the M 1422
book form and in M 1417
body length and the M 1402
body mass can be M 1398
body ends and the M 1392
book will act as M 1380
book down and go M 1380
book lies not in M 1368
bone pain due to M 1358
book came off the M 1348
book also has an M 1312
boys were out in M 1284
book like that of M 1284
body means that the M 1282
body size can be M 1281
bone pain may be M 1247
body must put on M 1226
book came out at M 1224
bone mass can be M 1187
body dealing with the M 1186
boys were set to M 1180
boys coming out of M 1168
book make use of M 1163
book from end to M 1158
born into and the M 1154
boys come out to M 1144
book says that it M 1142
boys were put in M 1122
book will not go M 1122
body came out of M 1114
boys from all the M 1106
book were all my M 1098
book like this in M 1094
born free and is M 1086
body part may be M 1076
boys come out of M 1072
book said that the M 1072
bone mass may be M 1071
book brings out the M 1062
boys aged ten to M 1046
body will now be M 1040
body gave way to M 1026
bone along with the M 1024
boys drop out of M 1021
body into two or M 1008
boys knew that the M 1002
body ready for the M 991
boys were out on M 986
born there was no M 982
book will now be M 972
body size and in M 970
born only out of M 962
boys were not as M 952
book into one of M 952
body when not in M 952
born free but is M 950
bone mass due to M 948
bold dash for the M 946
book fell out of M 936
book more than the M 932
book will aid in M 931
book will then be M 930
body type and the M 929
body hair and the M 929
body size than the M 928
body from all the M 928
book coming out in M 922
boys have all the M 908
boys were not at M 902
book form and the M 900
body will lead to M 896
book will thus be M 886
body over that of M 878
book there can be M 870
body will lie in M 860
body once set in M 856
body made out of M 848
book came out he M 846
body from one of M 846
body mass may be M 843
body held that the M 842
born only for the M 840
body dies and the M 836
boys from one of M 832
body when one is M 824
book used for the M 822
born more out of M 811
bone will not be M 810
boys come and go M 802
boys will not go M 800
body shop and the M 800
boys said that the M 796
body there are no M 794
body move with the M 794
boys more than the M 792
body will not do M 792
book help you to M 782
book there was an M 777
book asks you to M 776
boys left for the M 762
book form and on M 760
bold step for the M 756
boys have had to M 752
boys will all be M 750
book made for the M 750
born during one of M 748
body part with the M 748
boys were lying in M 747
body gave him the M 746
book came out the M 742
body when she is M 738
body there was an M 738
boys were with me M 734
body must then be M 734
book were read by M 732
born anew out of M 730
body deals with the M 729
bone loss that is M 728
boys there was no M 724
body dies but the M 722
bone from one of M 720
body worn out by M 720
born from one of M 713
book home with me M 713
bold type and the M 704
boys said that he M 702
book will bring to M 698
boys felt that the M 690
born into all the M 690
book means that in M 686
book there may be M 677
bone ends and the M 676
body mass for the M 675
book show how the M 672
body type that is M 666
body form and the M 666
book only for the M 665
boys aged six to M 664
body mass that is M 664
boys went out on M 663
bold plan for the M 662
boys were put on M 660
bold type are the M 660
bold text that is M 656
body must lie in M 646
book will aid the M 634
body only for the M 634
body also has the M 632
body ever going to M 630
body vary with the M 628
body such that it M 627
boys were doing the M 626
book fair and the M 626
body knew that the M 624
body hair may be M 624
book also has the M 622
book made use of M 620
book like this it M 618
body from end to M 608
book down with the M 606
boys will try to M 596
book made out of M 596
body knew how to M 592
born unto him in M 588
body from day to M 588
book gone with the M 586
body runs out of M 586
boys were now in M 582
body will act as M 580
body plan and the M 580
book fell off the M 578
body also may be M 576
book show that he M 571
boys have had the M 570
boys went out in M 568
book will win the M 568
body must now be M 568
body more than to M 568
book says that he M 566
book from that of M 562
body told him to M 560
boys from going to M 558
book must now be M 556
book will bring the M 554
book came out on M 554
body gets out of M 554
born only with the M 552
book dealing with an M 551
body size than do M 548
book also can be M 544
boys were apt to M 534
boys were led to M 528
boys know that the M 528
book will lead the M 522
body brings with it M 522
book just for the M 520
boys were lying on M 516
bone must not be M 510
book like this of M 509
born baby and the M 504
born when she is M 501
born here and the M 500
book came out it M 500
boys went out of M 498
body were not in M 498
body mass and an M 497
boys were with the M 496
born there and the M 496
book means that the M 496
book gave him the M 496
boring into her as M 494
body size and to M 493
boys were doing in M 492
book sets out in M 492
body coming out of M 492
boys were all at M 488
bone loss and to M 488
bold move for the M 488
boys will not do M 484
body show that the M 483
boys were all on M 480
bold type for the M 478
body other than by M 478
boys when they go M 476
boys from each of M 476
body were going to M 476
bone pain can be M 474
body core and the M 474
boys play with the M 472
book form and to M 471
boys have got the M 470
body told her to M 470
book came out as M 469
boys were off to M 468
body will not go M 466
body dies and is M 464
bold type are to M 462
body size for the M 461
born from out of M 460
body when you eat M 458
book form and is M 457
boys went off in M 456
book only with the M 456
book says that if M 454
body more than it M 454
book leads one to M 452
body lies near the M 451
book meant for the M 450
bold type that the M 450
body fell out of M 450
book list for the M 449
body mass and is M 449
bone will not go M 448
body when you do M 448
body part for the M 448
body acting for the M 448
bone mass that is M 446
born from one or M 445
book show that it M 444
body were not so M 443
born into one or M 442
body said that the M 442
boys were with us M 440
body will use the M 440
body type may be M 440
body also has an M 440
boys told him the M 438
born will not be M 438
body size that is M 438
boys along with the M 436
body text for the M 436
book have had to M 435
book room and the M 434
boys like you to M 432
book were not so M 432
body size due to M 430
book like one of M 429
book lies not so M 428
bone there may be M 426
boys from out of M 424
bone mass and an M 424
body part due to M 423
boys want you to M 422
boys told him to M 422
boys were dying in M 420
boys knew that he M 418
book just off the M 418
body mass due to M 417
body will thus be M 416
book turn out to M 415
book form and as M 411
book gave two or M 410
book from now on M 410
body were not to M 410
body text and the M 410
book will see the M 408
body once put in M 408
book more than he M 407
boys turn out to M 406
boys ready for the M 406
book down and do M 406
body from out of M 406
book will deal in M 405
boys were all the M 402
body used for the M 402
boys were not on M 400
book show how to M 400
bold plan was to M 400
body means that it M 400
book shop and the M 399
boys need not be M 398
boys gave him the M 398
book will set the M 398
book like this we M 398
book form with an M 398
book come out of M 398
book along with me M 398
body like one of M 398
book like this on M 396
body size and is M 396
bone ends may be M 394
bold face are in M 394
bold break with the M 394
born there and he M 392
body knew that he M 392
book from all the M 390
body mass than the M 390
body from one to M 390
boys have not the M 388
body less than the M 388
boys were out at M 384
boys come with me M 384
boys went with the M 382
book open for me M 382
body mass and to M 381
book must bear the M 380
book said that he M 378
boys were using the M 376
boys were out to M 374
boys there may be M 374
boys also had to M 374
born here and we M 374
body will lie on M 374
boys will get the M 372
book were not the M 372
body warm and to M 372
body there are the M 372
body also can be M 372
born here and it M 370
book also may be M 370
book form was the M 368
body grew out of M 368
boys were for the M 366
boys made use of M 366
book time and the M 366
book said that it M 366
body will get the M 366
body meant that the M 366
body size and wing M 365
body length and is M 365
body make use of M 364
body down with the M 364
bone loss and is M 362
book some new thing M 360
body told him he M 354
body size than in M 354
book like this the M 350
book like this at M 350
body when one of M 350
book reading and the M 349
body hanging out of M 348
boys came out in M 346
book will aim to M 346
book from idea to M 344
boys knew that it M 342
body plan that is M 342
book will get the M 340
boys went with me M 338
book were read in M 338
book give you the M 338
body also has to M 338
boys came out on M 336
born anew with the M 336
body there was the M 336
boys home for the M 334
book like that in M 333
book work for the M 332
body when you go M 332
body left for the M 332
body like that in M 329
body other than in M 328
born here and so M 327
born there and it M 326
body will use up M 326
body only with the M 326
book work and the M 325
body length for the M 325
boys were both in M 324
boys felt that it M 324
book leads you to M 324
body gave off the M 324
body form and in M 323
bone mass and to M 321
book form was in M 319
boys will see to M 318
book will end up M 318
book were not to M 316
book from each of M 316
body over with the M 316
body made for the M 316
book there are the M 315
book have had the M 315
book upon one of M 314
boys said that it M 312
body else that he M 312
boys made for the M 310
book deals with is M 310
born young man of M 308
born like him in M 308
book will lay it M 308
bone need not be M 308
book like that is M 306
boring into him as M 304
body part that the M 304
body else has an M 304
boys were going on M 302
boys there are in M 302
book says that we M 302
book only was so M 302
book much that is M 302
book means that it M 302
body more than in M 302
boys were all of M 300
boys fell out of M 300
born unto god in M 300
born here and my M 300
book call for the M 300
bone loss with the M 300
book from off the M 298
body type can be M 298
book come out in M 296
body high off the M 296
body break out in M 296
book other than to M 294
body well off the M 293
book says that in M 292
book from day to M 292
body come out of M 292
body will put on M 290
body when all the M 290
body text with the M 289
boys stay out of M 288
book coming out of M 288
body only that is M 288
body lies with the M 288
boys make use of M 286
book list and the M 286
born into them as M 285
boys were doing it M 284
book born out of M 284
book when one of M 283
born here and he M 282
boys went for the M 280
boys have got it M 280
born there was an M 280
book have led to M 280
body have not the M 280
body areas can be M 280
book puts you in M 278
book ends and the M 278
body told him it M 278
body felt that the M 278
body hair can be M 277
boys were due to M 276
body were due to M 276
body size and an M 276
body gets all the M 276
bone pain and the M 275
boys rush out to M 274
book tour for the M 274
book there was the M 274
bone other than the M 274
body hair than the M 274
body even with the M 274
body when this is M 272
book will lie in M 270
body into his as M 270
book more than in M 269
book form may be M 269
boys knew that if M 268
body size with the M 268
book were not in M 266
body were set in M 266
body moving with an M 266
body have led to M 266
book will read it M 264
book lies with the M 264
body warm and the M 263
boys like you in M 262
born unto him of M 262
book also won the M 262
bold face and the M 262
body were set up M 262
boys know that he M 260
boys feel that the M 260
born from all the M 260
body were out of M 260
body back out of M 260
book form and it M 259
boys when they do M 258
book ratio for the M 258
body mass than do M 257
book grow out of M 254
bold type can be M 254
body ever hear of M 254
book even for the M 253
boys left with the M 252
boys ages six to M 252
born from out the M 252
book came with it M 252
book were read to M 250
book saying that the M 250
book during one of M 250
book along with an M 250
body told her it M 250
boys will get to M 248
boys were off on M 248
body into all the M 248
body part and is M 247
boys went off on M 246
boys more than in M 246
boys ever got the M 246
book like this as M 246
book from one to M 246
body seem now to M 246
body other than an M 246
body knew that it M 246
boys like him in M 244
boys help with the M 244
book will put the M 244
bone mass and is M 244
body size are the M 244
body along with an M 244
boys ages ten to M 242
book laid out the M 242
body size and of M 241
bone loss and in M 240
body gave off an M 240
bone healing can be M 239
body work and the M 239
bone ends can be M 238
body other than my M 238
body give way to M 238
boys told him he M 236
boys have had no M 236
book were going to M 236
book like that to M 236
body part and to M 235
boys were one of M 234
boys learn that the M 234
bold theory that the M 234
bold even for the M 234
book form can be M 233
boys think that the M 232
boys home with me M 232
born young men of M 232
born into this or M 232
born here and is M 232
book brings you the M 232
bone loss than the M 232
bone health and the M 232
bone came out of M 232
bone also may be M 232
body went out of M 232
body mass and in M 232
body like this is M 232
body from that in M 232
book dealing with it M 231
book coming out on M 231
boys were going in M 230
book from any of M 230
bold push for it M 230
body plan can be M 230
body know how to M 230
body form that is M 230
boys were off at M 228
boys were not of M 228
boys more than to M 228
book from him at M 228
bone loss for the M 228
body uses them to M 228
born into any of M 226
bone healing and the M 226
body part with an M 226
body more than he M 226
book show that in M 225
book maps out the M 225
born there and my M 224
book among all the M 224
body says that he M 224
book were for the M 222
bone loss and an M 222
body will end up M 222
body more than is M 222
body length may be M 222
born when all the M 221
book meet with the M 221
boys sent out to M 220
body torn out by M 220
boys have had an M 218
boys have for the M 218
book living with the M 218
body onto one of M 218
body mass and wing M 217
body else who is M 217
body told her he M 216
body means that we M 216
body dealt with the M 216
book away with me M 215
boys know that it M 214
born less out of M 214
book will use it M 214
book very easy to M 214
body went out to M 214
body must act in M 214
body blow for the M 214
body among all the M 214
body says that the M 212
body said that he M 212
body know that he M 212
book giving all the M 211
born free and he M 210
book like this or M 210
book also for the M 210
bold step was the M 210
body made use of M 210
body gave her the M 210
book when one is M 209
boys were now at M 208
born upon one or M 208
book will run on M 208
book reading for the M 208
book from him in M 208
bold push with the M 208
body were men of M 208
body sees fit to M 208
body have not an M 208
boys were all so M 207
boys like you do M 206
boys like him to M 206
boys from now on M 206
born into them or M 206
born into his or M 206
born baby may be M 206
book evil and the M 206
book early for the M 206
book deals with my M 206
book deals with it M 206
book also had to M 206
bone like that of M 206
body well out of M 206
boys there was the M 204
book went out to M 204
body size than is M 204
body know that it M 204
born poor and in M 202
book more than an M 202
book away and go M 202
bone ends are in M 202
body from both the M 202
boys just had to M 200
book those who we M 200
book sets out an M 200
book says not to M 200
book have all the M 200
book also had the M 200
bone will out in M 200
bone mass than do M 200
body type for the M 200
body areas may be M 200
boys were near the M 198
book said that if M 198
book from two to M 198
book brings with it M 198
body leads him to M 198
body copy and the M 197
boys were set up M 196
boys leave for the M 196
book when she is M 196
bold font for the M 196
body will all be M 196
body back and the M 195
boys were off in M 194
boys were going up M 194
boys came with the M 194
boys came with me M 194
book from two of M 194
book from out of M 194
body came out in M 194
boys gave way to M 192
born love for the M 192
book your god is M 192
book were all the M 192
book said that in M 192
book must then be M 192
bold line and the M 192
body were that of M 192
body from each of M 192
born free and the M 190
book give you an M 190
book along with my M 190
bone will lead to M 190
body part out of M 190
bone pain that is M 189
body form may be M 189
born among them of M 188
book came with the M 188
book aims not to M 188
book ahead for the M 188
bold step was to M 188
body must all be M 188
body mass with the M 188
body during one of M 188
book ratio and the M 187
body length can be M 187
boys when one of M 186
boys went with us M 186
book will lead us M 186
book leads him to M 186
bone into two or M 186
book page and the M 185
boys were men at M 184
born along with it M 184
book some idea of M 184
book have one thing M 184
body there for the M 184
body cell and the M 183
boys were led by M 182
boys heading for the M 182
book when you go M 182
book says that at M 182
bold face are the M 182
body just for the M 182
body clean out of M 182
bows down with the M 181
boys hanging out in M 180
book gets out of M 180
book dealing with so M 180
bold type with the M 180
bold move was to M 180
body giving way to M 180
bone healing may be M 179
born into one on M 178
bold plan for an M 178
body will pay the M 178
body were not as M 178
body form and of M 178
body fell off the M 178
body calm and at M 178
boys were doing to M 176
boys from two to M 176
born free but he M 176
book much read by M 176
book gave way to M 176
book from top to M 176
book also has to M 176
body other than to M 176
body from earth to M 176
boys know that we M 174
boys grew out of M 174
boys from both the M 174
boys feel that it M 174
born into and in M 174
born along with us M 174
book were read at M 174
book came out to M 174
book came out by M 174
body when they go M 174
body when eating or M 174
body into one or M 174
body gave him an M 174
body away and the M 174
body also had to M 174
body mass than in M 173
born into and to M 172
born free and in M 172
book much read in M 172
book from year to M 172
bone mass than the M 172
body such and so M 172
body more than an M 172
body having all the M 172
body from any of M 172
body form can be M 172
body felt that it M 172
boys must all be M 170
boys like that in M 170
boys grow out of M 170
book have yet to M 170
body will set up M 170
body know that the M 170
body hair that is M 170
body from now on M 170
boys were all up M 169
boys well and to M 168
boys have won the M 168
boys gave him an M 168
born very near the M 168
born last year in M 168
born from fear of M 168
bone from each of M 168
bold young man of M 168
body work with the M 168
body were not of M 168
boys were now on M 167
body copy can be M 167
boys were doing at M 166
boys made all the M 166
boys left and the M 166
born among all the M 166
book will all be M 166
book there are at M 166
book must read it M 166
book like this by M 166
bone from both the M 166
body will act in M 166
body from two to M 166
body self and the M 165
boys went out the M 164
boys there was an M 164
boys keep with the M 164
boys hanging out on M 164
book will bear the M 164
book need not in M 164
book gave him an M 164
boys were singing the M 162
book will long be M 162
bold face for the M 162
body were all the M 162
body text that is M 162
body cell that is M 162
born there and so M 161
boys knew all the M 160
boys along with me M 160
born from her in M 160
book sent him by M 160
book like this if M 160
book also led to M 160
book also had an M 160
body when they do M 160
body were all in M 160
body plan for the M 160
body part that it M 160
body from year to M 160
body came off the M 160
body blow with the M 160
body areas and the M 160
born there and is M 158
book will lay the M 158
book saying that he M 158
book rich with the M 158
book form both in M 158
book form all the M 158
bone mass for the M 158
body else can do M 158
boys were not up M 157
body work for the M 157
body cast may be M 157
born only two or M 156
book will cut no M 156
book week and the M 156
bone pain are the M 156
bold type and in M 156
body went with the M 156
body told her so M 156
body must lie on M 156
body lies not in M 156
body lies dead in M 156
boys will end up M 154
boys seem not to M 154
boys learn that it M 154
boys care for the M 154
bows were not so M 154
born there may be M 154
book were set in M 154
book three and the M 154
book teach you to M 154
book hope that the M 154
body told him the M 154
body other than as M 154
body heavy with the M 154
body work can be M 153
body else but the M 153
boys work for the M 152
boys were off the M 152
book were out of M 152
book went off to M 152
book meant that the M 152
book like this be M 152
book like that on M 152
book into two or M 152
book hoping that it M 152
body will bear the M 152
body over all the M 152
body only but of M 152
boys there was at M 150
boys take out the M 150
born down with the M 150
book down with an M 150
body left lying in M 150
body have yet to M 150
body back with me M 150
book more than it M 149
book form and so M 149
boys were put up M 148
boys only and the M 148
boys kept out of M 148
born poor and he M 148
book down off the M 148
book cost and the M 148
body size was the M 148
boys other than the M 146
boys from one to M 146
born there and we M 146
book were due to M 146
book fair for the M 146
bone such that the M 146
bold heart and the M 146
body were for the M 146
body type with the M 146
body mass with an M 145
body hair for the M 145
born when one of M 144
born upon one of M 144
book will not in M 144
book into that of M 144
book held out to M 144
bold step for an M 144
body will read it M 144
body were put to M 144
body very near the M 144
body length and in M 144
body from top of M 144
body back with the M 144
born sons and the M 143
born love out of M 143
boys told him of M 142
boys take them to M 142
boys more than it M 142
born from may to M 142
book what they do M 142
book saying that it M 142
book just out of M 142
book have for the M 142
book feel that the M 142
bone will then be M 142
body high out of M 142
body from that on M 142
body felt that he M 142
body copy for the M 142
boys work with the M 140
boys more than he M 140
boys living near the M 140
born from now on M 140
book dealing with my M 140
body plan with the M 140
body here and the M 140
body help you to M 140
body were put in M 139
boys will get it M 138
boys have read the M 138
boys find that the M 138
born unto him by M 138
born heir and to M 138
book will ease the M 138
book will bring in M 138
book when you do M 138
book were run on M 138
book along with it M 138
bone from that of M 138
bold young men of M 138
body text set in M 138
body knew how king M 138
body have had the M 138
body from using the M 138
body from being in M 138
body come and go M 138
body back for the M 138
book back with the M 137
boys stay with the M 136
boys meet with at M 136
boys jump out of M 136
boys heard that the M 136
boys felt that he M 136
born free and no M 136
book your seat in M 136
book told him to M 136
book tell you to M 136
book pray for my M 136
bone more than the M 136
bone mass and in M 136
body will use it M 136
body size and on M 136
body save for the M 136
body like this to M 136
body fall out of M 136
body ever hear the M 136
body deals with it M 136
body length with the M 135
body length than the M 135
boys town and the M 134
born young men to M 134
book there are so M 134
body will not in M 134
body reach out to M 134
body more than of M 134
body just had to M 134
body gave out on M 134
body also had the M 134
book know that the M 133
boys think this is M 132
boys into one of M 132
boys from that of M 132
boys down for the M 132
born unto them in M 132
book told how to M 132
bone must then be M 132
bold game for the M 132
body text can be M 132
body size and by M 132
body must act as M 132
body male and the M 132
body like you to M 132
body gave him no M 132
body from being the M 132
body ends with the M 132
body came with the M 132
book from him as M 131
boys were easy to M 130
boys must not go M 130
boys learn not to M 130
book used was the M 130
book these are the M 130
book hope that it M 130
bone used for the M 130
bone means that the M 130
bone loss are the M 130
body will bring the M 130
body there was to M 130
body said that it M 130
body must thus be M 130
body just has to M 130
born baby has no M 129
book back with me M 129
body show that he M 129
boys when out of M 128
boys went out at M 128
boys steal with so M 128
boys have set up M 128
born upon earth in M 128
born there and to M 128
born free and to M 128
book ends with my M 128
book deals for the M 128
bone show that the M 128
bold dash for it M 128
body leads one to M 128
body along with me M 128
boys your age do M 126
boys will see the M 126
boys said that if M 126
boys here for the M 126
born must not be M 126
born anew and the M 126
book will not so M 126
book will bring us M 126
book said that up M 126
book must lie in M 126
book making and the M 126
book away for the M 126
body will heat up M 126
body size than to M 126
body nothing but the M 126
body have all the M 126
body half off the M 126
boys were not by M 124
boys stay with me M 124
boys into men in M 124
born poor and to M 124
book said not to M 124
book like that by M 124
book lies and the M 124
book ends with no M 124
bone hand with the M 124
bold move was the M 124
body when out of M 124
body plan may be M 124
body must both be M 124
body mass was the M 124
body clean and the M 124
body cell has the M 124
body bent for the M 124
body along with my M 124
book more for the M 123
book home for the M 123
boys were using it M 122
boys there are no M 122
boys have had it M 122
bows made out of M 122
born once and no M 122
born into each of M 122
born also out of M 122
book will aim at M 122
book laying out the M 122
book laid out on M 122
book down for the M 122
bold type and is M 122
bold text for the M 122
bold step out of M 122
body such things as M 122
body show that it M 122
body nothing can be M 122
body moving and the M 122
body here for the M 122
body cast for the M 122
body back with us M 122
book case for the M 121
body type was the M 121
body ever had so M 121
boys soon had the M 120
boys have yet to M 120
boys also had the M 120
born back due in M 120
book were set up M 120
book swim with the M 120
book more than is M 120
book gave her the M 120
book from being an M 120
book ever was or M 120
book even with the M 120
book dealt with an M 120
bone lies near the M 120
bone cuts can be M 120
bold need not be M 120
bold felt that he M 120
body will aid in M 120
body when set in M 120
body only can be M 120
body must die at M 120
body lies may be M 120
body bent and the M 120
bold come and go M 119
boys will not eat M 118
boys know that if M 118
boys into men by M 118
boys have ate me M 118
book open with the M 118
book healing and the M 118
book gets off to M 118
book form one of M 118
book form but in M 118
bone health may be M 118
bone gain and the M 118
bold dealing with the M 118
body were all of M 118
body upon one of M 118
body must see the M 118
body knew any thing M 118
body flow with the M 118
body felt out of M 118
body acts and the M 118
boring when you do M 117
body must act on M 117
boys your age to M 116
boys dealt with by M 116
born only then to M 116
born brings with it M 116
born baby with the M 116
book there was in M 116
book sent out by M 116
book ending with the M 116
book deals with in M 116
bone health can be M 116
body when dead is M 116
body more apt to M 116
body home for the M 116
body gave way in M 116
body gave her no M 116
body else with the M 116
body areas with the M 116
boys lost out to M 115
born young men in M 115
body mass and of M 115
boys will put up M 114
boys wait for the M 114
boys have with the M 114
boys have had at M 114
boys came with us M 114
boys came for the M 114
book tour and the M 114
book such that it M 114
book made him the M 114
book like that he M 114
book down out of M 114
bone from head to M 114
bold text and the M 114
body when using the M 114
body upon him as M 114
body there are as M 114
body size with an M 114
body sent with the M 114
body part that he M 114
body part has to M 114
body must bear no M 114
body mass are the M 114
body during all the M 114
body down off the M 114
bone ever put on M 113
body such that no M 113
boys will see at M 112
boys there can be M 112
boys there are the M 112
born like him of M 112
born into all of M 112
book were not as M 112
book page for the M 112
book must try to M 112
book make this the M 112
book here with me M 112
book gave them the M 112
bone from one or M 112
body were fit to M 112
body size than at M 112
body must lead to M 112
body must bear the M 112
body down and the M 112
body born out of M 112
body areas are the M 112
book when all the M 111
book were read as M 111
book there was to M 111
body else for the M 111
boys were all to M 110
born here and to M 110
book mind and the M 110
body will bear it M 110
body when lying on M 110
body shop for the M 110
body must try to M 110
body like that to M 110
body giving him the M 110
body down and to M 110
born here and in M 109
boys will let me M 108
boys were singing in M 108
boys were set on M 108
boys think that it M 108
boys gave them no M 108
boys coming out to M 108
born less than an M 108
born good and is M 108
book will not by M 108
book upon him in M 108
book shop near the M 108
book laid out in M 108
book give way to M 108
book from him to M 108
book away with the M 108
bone must now be M 108
bold blow for the M 108
body will dry up M 108
body were both in M 108
body turn out to M 108
body says that it M 108
body moving near the M 108
body line and the M 108
body like that is M 108
body less than an M 108
body left him by M 108
body heavy and the M 108
body down with it M 108
body along for the M 108
book nothing but the M 107
boys were out the M 106
boys from using it M 106
book will put it M 106
book will bring me M 106
book says this is M 106
book other than in M 106
book like how to M 106
book have had an M 106
book from her in M 106
book down for an M 106
book coming off the M 106
book asks how the M 106
bone pain and in M 106
bone mass with an M 106
bold step and to M 106
bold font and the M 106
bold call for the M 106
body such that if M 106
body sent out by M 106
body like you do M 106
body into his so M 106
body hair and an M 106
body giving off the M 106
body came out to M 106
book were put in M 105
book form and be M 105
body were put on M 105
boys will bring the M 104
boys were eating the M 104
boys told them to M 104
boys till that my M 104
boys gave her the M 104
boys come all the M 104
boys came out at M 104
boys born out of M 104
born there was the M 104
born there can be M 104
born there and in M 104
born poor and on M 104
book work with the M 104
book will see at M 104
book save for the M 104
book here lying on M 104
body type and in M 104
body save that of M 104
body part was the M 104
body hurt but my M 104
body hair with the M 104
body giving out the M 104
body else can be M 104
bows high out of M 103
born from each of M 103
boys were dying on M 102
boys want him to M 102
boys tied him by M 102
boys here are in M 102
boys have one or M 102
boys from then on M 102
born free and we M 102
book open for the M 102
book open and the M 102
book means that we M 102
book just now as M 102
book help you in M 102
book have led me M 102
book aims both to M 102
bold step with the M 102
body site may be M 102
body sets out to M 102
body says she is M 102
body pass but the M 102
body more than my M 102
body means that he M 102
body from east to M 102
born baby can be M 101
boys told her to M 100
boys look for in M 100
boys live with the M 100
boys knew him as M 100
boys keep out of M 100
boys just off the M 100
boys crying out the M 100
boys back with me M 100
born from god the M 100
book will for the M 100
book making use of M 100
book hope for the M 100
book gave you the M 100
bone also can be M 100
bold were both at M 100
bold ideas for the M 100
bold eyes and the M 100
body will set me M 100
body were cut in M 100
body these are the M 100
body size and it M 100
body made for us M 100
body made all the M 100
body like all the M 100
body hurt with the M 100
body grow out of M 100
body from death to M 100
born there are no M 99
book sent out to M 99
book deals with so M 99
bone pain and an M 99
body from him as M 99
boys were mean to M 98
boys sent out by M 98
boys pick them up M 98
boys just for the M 98
boys fell off the M 98
boys call out to M 98
book were all of M 98
book told how the M 98
book list can be M 98
book have you in M 98
book from his or M 98
book form was an M 98
bone will now be M 98
bone coming out of M 98
bold line for the M 98
body will let me M 98
body uses them in M 98
body there with the M 98
body size than it M 98
body runs low on M 98
body part that we M 98
body meant that it M 98
body length than in M 98
body length out of M 98
body hanging off the M 98
body from six to M 98
body else was to M 98
body during each of M 98
body down one of M 98
body bent with the M 98
born among them to M 97
body type than the M 97
boys work out the M 96
boys were then to M 96
born here and of M 96
born from both of M 96
book will read the M 96
book will get to M 96
book were that it M 96
book were all in M 96
book very dear to M 96
book tour for my M 96
book three men in M 96
book like that at M 96
book like his is M 96
book just now is M 96
book from all of M 96
book five and the M 96
book deals are the M 96
bone there was an M 96
bold type may be M 96
bold plan and it M 96
body will set the M 96
body when that is M 96
body were not at M 96
body upon that of M 96
body over with it M 96
body only but in M 96
body making for the M 96
body like this in M 96
body laid out at M 96
body from one or M 96
body from going to M 96
body cell can be M 96
body cast out of M 96
born from her as M 95
book says that no M 95
boys will bring it M 94
boys will beat me M 94
boys will ask me M 94
boys will all go M 94
boys were new to M 94
boys their age in M 94
boys rush out of M 94
boys make all the M 94
boys like that to M 94
boys hanging out of M 94
boys gave them the M 94
boys came off the M 94
born upon earth as M 94
born free that it M 94
book text set in M 94
book show him to M 94
book reading can be M 94
book made all the M 94
book help you do M 94
book came out we M 94
bone there are no M 94
bone from near the M 94
bold step that the M 94
body will not at M 94
body side and the M 94
body pass with the M 94
body made him an M 94
body just off the M 94
body half out at M 94
body crying out to M 94
body also act as M 94
book room for the M 93
book reading may be M 93
book here and in M 93
boys will get up M 92
boys were then in M 92
boys take her to M 92
boys came and we M 92
born anew and to M 92
book will end in M 92
book were put on M 92
book were one of M 92
book uses both the M 92
book there was on M 92
book just had to M 92
book from him on M 92
book during all the M 92
book down for me M 92
book come off the M 92
body were but in M 92
body went with it M 92
body went off to M 92
body uses all of M 92
body over one of M 92
body living can do M 92
body leads her to M 92
body gave way at M 92
body eager for the M 92
body brings out the M 92
body along one of M 92
boys were now to M 90
boys were both at M 90
boys told him it M 90
boys show that the M 90
boys over that of M 90
boys have read it M 90
boys from off the M 90
boys away with the M 90
born from day to M 90
boring work for the M 90
book were one or M 90
book went with me M 90
book tell how to M 90
book said was the M 90
book from that in M 90
body will not of M 90
body when all of M 90
body uses for the M 90
body only and the M 90
body mass than is M 90
body have had to M 90
body giving her the M 90
body ever saw it M 90
body back and to M 90
born among them in M 89
book from her as M 89
boys will win the M 88
boys will now be M 88
born there with the M 88
born just out of M 88
born idiot than of M 88
born here than in M 88
born here out of M 88
born here and do M 88
book must thus be M 88
book must not go M 88
book means that he M 88
book coming out at M 88
book call for an M 88
bone loss and of M 88
bone healing and to M 88
bone fell out of M 88
bold young man to M 88
bold push was to M 88
bold move with the M 88
bold heart that the M 88
body will see the M 88
body will cut the M 88
body were lying in M 88
body size was an M 88
body over his to M 88
body just out of M 88
body having one or M 88
body from near the M 88
body from all of M 88
body even for the M 88
body away with the M 88
book more than to M 87
bone length can be M 87
boys will then be M 86
boys were near to M 86
boys were got up M 86
boys feel that in M 86
born rich and he M 86
book will bring it M 86
book when this is M 86
book were men of M 86
book there are to M 86
book health and the M 86
book have led us M 86
book from then on M 86
book form and he M 86
book feel that it M 86
bone loss with an M 86
bold plan that he M 86
bold hunt for the M 86
body will die in M 86
body will add to M 86
body will act on M 86
body warm with the M 86
body upon each of M 86
body there are at M 86
body talk ill of M 86
body more than on M 86
body making use of M 86
body made him the M 86
body lift off the M 86
body else out of M 86
body care and the M 86
body acts for the M 86
book your seat on M 85
body cell with the M 85
boys will read it M 84
boys when she is M 84
boys when not in M 84
boys tell them to M 84
boys only had to M 84
boys know how it M 84
born girl and the M 84
boring their way in M 84
book told you to M 84
book shop for the M 84
book over with the M 84
book meant that it M 84
book like all the M 84
book knew how to M 84
book from both the M 84
book form but it M 84
book brings out in M 84
body made her the M 84
body kept out of M 84
body grew and the M 84
body gave her an M 84
body from this to M 84
body from off the M 84
body crying out in M 84
body clean and in M 84
body cast can be M 84
body also for the M 84
body ages and the M 84
book form that it M 83
body work may be M 83
body clear out of M 83
boys were low in M 82
boys want them to M 82
boys used them to M 82
boys think that if M 82
boys said that we M 82
boys need all the M 82
boys gone off to M 82
born like that or M 82
book will see it M 82
book will run to M 82
book will put to M 82
book will get an M 82
book shut with an M 82
book puts you on M 82
book nothing can be M 82
book grew all in M 82
book gave him so M 82
book form and by M 82
book down and the M 82
book deals not so M 82
book case and the M 82
book came out my M 82
book adds that the M 82
bone pain and is M 82
bone made with an M 82
bold type was the M 82
bold spring for the M 82
body were led to M 82
body hair and of M 82
body form one thing M 82
body fill with the M 82
body came not to M 82
book ready for my M 81
boys tell him to M 80
boys step out of M 80
boys over with the M 80
boys move out of M 80
boys hanging out the M 80
boys give him the M 80
boys come out in M 80
born anew for the M 80
book were put to M 80
book other than an M 80
book lies near us M 80
book felt that the M 80
book also has no M 80
bone there can be M 80
bone pain and to M 80
bone from out of M 80
body what sin is M 80
body size but is M 80
body other than on M 80
body only but the M 80
body moving with it M 80
body more than me M 80
body meant that he M 80
body hurt and he M 80
body here with the M 80
body here was the M 80
body held her in M 80
body from then on M 80
body fell off as M 80
body even than the M 80
body down out of M 80
body down for the M 80
body back and he M 80
body theory can be M 63
born more than the M 62
born baby who is M 60
boys went out as M 55
born baby for the M 55
book will fit in M 55
boys were doing as M 51
born were not the M 50
born term and the M 50
body hair than do M 50
boys will get on M 49
book like this so M 49
body mode and the M 49
body laid out as M 49
born youth now in M 48
body theory for the M 48
born from year to M 47
book page with the M 47
born from that of M 46
book ratio can be M 46
book came out so M 46
body type and is M 45
body mass using the M 45
boys from going on M 44
bows very low to M 44
book shop with the M 44
book icon and the M 44
boys gave him no M 43
born need not be M 43
born fool not to M 43
book form that is M 43
body hair and is M 43
boys went off up M 42
boys have got on M 42
born were not to M 42
boys were led in M 41
book sets out as M 41
book hand and the M 41
body size but the M 41
body size and so M 41
body ideal that is M 41
body else was in M 41
book what was the M 40
book there are as M 40
body type and to M 40
body cuts off the M 40
bode well for the D 43896
book scan that ma D 19728
bore away for the D 7184
body wall and the D 6851
bomb went off in D 6596
boss asks you to D 4250
bone scan may be D 4223
bond will not be D 3552
bomb went off at D 2590
bowl along with the D 2473
bode plot for the D 2385
book club and the D 2308
boat from one of D 2290
boys made fun of D 2066
boss told him to D 1914
boat will not be D 1908
bond length and the D 1824
boss will not be D 1674
boat came out to D 1532
boat drew near the D 1438
book lays out the D 1436
bore arms for the D 1430
bone scan can be D 1320
bond rate and the D 1291
boat club and the D 1263
boat came off to D 1250
boat along with the D 1212
bore down with the D 1208
bond need not be D 1194
bore down all the D 1192
boom years for the D 1170
boat made out of D 1138
boys make fun of D 1122
book fund for the D 1094
boom gave way to D 1042
boom time for the D 1028
boat along with it D 1000
boss told him he D 948
bode well for an D 943
bore along with it D 922
bond length for the D 917
boot camp and the D 860
boat came out of D 858
boat ready for the D 856
bore down all my D 852
bode well for my D 846
bore upon them the D 838
bomb went off on D 820
bode well for me D 813
boot camp for the D 794
boat took him up D 790
boat came near us D 778
body wall and is D 770
bode well for us D 766
body axis and the D 733
boat shot out of D 724
boat used for the D 710
boat draw near the D 708
boss told you to D 706
boat came near the D 692
bore down for the D 690
boat ride out to D 688
boat drew near to D 686
boat there was no D 682
boat race and the D 681
bone flap may be D 680
body wall near the D 676
boil their meat in D 668
boat making for the D 662
born unto thee in D 656
boss told her to D 652
boat trip out to D 652
boding well for the D 643
boat heading for the D 642
body wall may be D 641
boat must not be D 632
boom years and the D 629
boat made for the D 620
bony union with the D 612
bomb will not be D 606
boat will not go D 602
bowing very low to D 598
body wall and to D 597
boat went out to D 586
book club for the D 584
bomb fell near the D 574
boss said that he D 572
boat took them to D 570
bond well with the D 558
boat half out of D 554
bone flap can be D 547
bond must not be D 540
body odor and the D 529
boat coming out of D 526
bond length can be D 523
bowl made out of D 522
boat ready for sea D 518
bond angle and the D 508
body wall and in D 503
boat just off the D 502
bore away with the D 498
boat took him to D 494
bond means that the D 492
boss gave him the D 488
boat went out of D 486
boat from bow to D 486
body wall with the D 482
body sank out of D 482
bore away for it D 476
boil down all the D 458
boat left for the D 456
body cope with the D 448
bond fund and the D 447
bore hole and the D 442
boat ride and the D 442
boat sent out to D 440
bowing your head to D 436
book card and the D 436
boat deck and the D 436
boar hunt and the D 432
bomb from one of D 430
boat from end to D 428
bore upon him the D 410
boss told them to D 404
boat into one of D 402
bore away with me D 392
boys club and the D 388
bond among all the D 388
bond such that the D 387
bore down with an D 386
boas plan for the D 386
book sold out in D 384
boom like that of D 382
bond other than the D 382
bomb hell out of D 376
body aching with the D 372
body rose out of D 368
boat when she is D 368
boss asks him to D 362
boat went off to D 358
bode well with the D 354
body slid off the D 350
boys making fun of D 342
bony wall and the D 342
boss came out of D 340
bore away all the D 336
boat taking him to D 334
body tingling with the D 332
boom came with the D 330
body from toes to D 326
boys swam out to D 324
book lent him by D 324
bond angle for the D 324
bolt from one of D 322
bond coat and the D 320
bone cyst may be D 318
boat when one of D 314
bode plot can be D 313
boss asks her to D 312
boon only for the D 310
boat leaving for the D 310
born babe and the D 306
boat ready for us D 304
boom took off in D 302
boss sent him to D 300
boat ramp and the D 300
body tube and the D 298
bond along with the D 296
bond like that of D 294
body wall and of D 294
boys took him to D 292
bore their way to D 290
bomb went off as D 288
boot disk for the D 286
bode plot and the D 285
body sway with the D 284
boat there was an D 284
boat need not be D 284
boat dock and the D 284
bowl from one of D 280
boss will let me D 280
bony face and the D 280
boat coming out to D 280
boom also led to D 278
bony union may be D 278
bond from each of D 278
bore away with it D 276
bond will then be D 276
body wall that is D 274
boat trip and the D 270
boom town and the D 268
bomb blew out the D 268
bolt came out of D 268
body bags and the D 268
booth said that he D 266
body from tip of D 266
boat came near to D 266
booth told him he D 264
boom will not be D 264
bond theory and the D 264
boil over and the D 264
body taut with the D 264
bony fish and the D 260
bone scan and the D 260
bolt hole and the D 260
boil away all the D 260
bond length may be D 258
boys took out the D 256
bond rate for the D 255
boat sank and he D 254
boat came for us D 254
body axes and the D 253
bore more than the D 252
body till his ear D 252
boil over with the D 250
bond save that of D 248
body wall can be D 248
boat down for the D 248
bore more than an D 246
bolt from out of D 246
boat back for the D 246
boot disk can be D 244
boys tend not to D 242
bomb made out of D 242
boat back out to D 242
bowl used for the D 238
bond must pay the D 238
book flew out of D 236
bomb test and the D 236
body wall are the D 236
boat crew and the D 236
body lice may be D 234
bony wall may be D 232
body lice can be D 230
book club was the D 226
boat from top to D 226
bore into her as D 224
bone flap and the D 224
body shot out of D 224
boat heading out to D 224
boss said that if D 222
bore will not be D 222
bore nothing but the D 222
boat went out on D 222
boat longing for the D 222
bomb will not go D 220
bomb their way to D 220
boot disk with the D 218
body rising out of D 218
boat ride with the D 218
bore down and the D 216
bony mass may be D 216
bond rating and the D 216
bond among all of D 216
bomb went off the D 216
bomb meant for the D 216
bomb load than the D 216
boss will try to D 214
boss said that the D 214
bond angle can be D 212
boat ramp near the D 212
boring mill and the D 210
book seats for the D 210
book bears out the D 210
bond will pay the D 210
bomb blew off the D 210
body odor may be D 210
bond axis and the D 209
boss says that he D 208
bore their way in D 208
boom along with the D 208
bolt shot out of D 208
boat other than the D 208
boat from each of D 208
body heaving with the D 206
body aching for the D 206
boys took them to D 204
boom will lead to D 204
boat rode low in D 204
boll worm and the D 203
boil away and the D 203
body more with thy D 202
boat came for me D 202
boot time using the D 200
boat will then be D 200
boat taking them to D 200
boot camp was the D 197
boys took all the D 196
bore arms with the D 196
booth just off the D 196
body tube with the D 196
boat trip can be D 196
bore from one to D 194
boom over one of D 194
boil till all the D 194
book bringing out the D 192
bond from one of D 192
boat away with my D 192
bore must not be D 190
bore into one of D 190
boat were going to D 190
bore hole can be D 188
bore away out of D 188
boom meant that the D 188
bone cyst and the D 188
body from tip to D 188
bowl will not be D 186
book bears all the D 186
bony face with the D 186
boat from off the D 186
body from hip to D 184
boat sank off the D 184
boat more than the D 184
boat like that in D 184
boss sent for me D 182
bond rating for the D 182
bomb into one of D 182
boat slid off the D 182
boat rose out of D 180
boat must now be D 180
bolt heads and the D 178
boat sent off to D 178
boat just out of D 178
boat from any of D 178
bowing down with the D 176
bond upon you to D 176
bold throw for the D 176
boat trip with the D 176
boot camp with the D 175
bond fund for the D 174
boys were met by D 172
bond more than the D 172
bond among them is D 172
boat slid out of D 170
boat sent out by D 170
boat came with the D 170
body odor can be D 169
boil down all of D 168
boat along with us D 168
bony union can be D 166
bony case for the D 166
boat when not in D 166
boat coming off to D 166
boss from now on D 164
boring tool can be D 164
bode plot for an D 164
boat come out of D 164
bowing their head to D 162
boss said not to D 162
bore down out of D 162
boon held out to D 162
boat swung out of D 162
body odor that is D 161
boys took off in D 160
bony hand for the D 160
boat ready for me D 160
boat like this is D 160
boat back out of D 160
boss know that he D 158
boss gave her the D 158
book lays out in D 158
boss rule and the D 156
booth said that the D 156
bomb will bring in D 156
body will hit the D 156
body jerk with the D 156
body axis with the D 155
boys rode out to D 154
bowl game for the D 154
boss told her he D 154
boss tell you to D 154
boss gave you the D 154
born race bear on D 154
bore tube and the D 154
bore from end to D 154
book flung out of D 154
body odor was so D 154
bond will lead to D 152
bomb threat and the D 152
bomb need bear the D 152
body wall and by D 152
boat heads for the D 152
bowl clean with the D 150
bore down for us D 150
bomb load and the D 150
bolt flew out of D 150
boat just for the D 150
boat come off to D 150
bolt will not be D 148
body slid out of D 148
boat there was the D 148
bond type and the D 147
bond fund that is D 146
bomb fell and the D 146
body mingle with the D 146
body longs for the D 146
boat sank and the D 146
boat riding low in D 146
boas felt that the D 146
bone poking out of D 144
bomb need not be D 144
boat ahead all the D 144
bowing down with us D 142
bore from ten to D 142
bond coming out of D 142
body uses fat as D 142
body pays for the D 142
body mingling with the D 142
boat ride off the D 142
boat puts out to D 142
boat gave way to D 142
bogs down and the D 141
boss will not do D 140
booth need not be D 140
book club bring it D 140
bond from him to D 140
boys took her to D 138
boss will not go D 138
boss took him to D 138
boon from god to D 138
boat took them in D 138
boat made way at D 138
boat from one to D 138
boat down one of D 138
boat deck with the D 138
boat crew had to D 138
boys took him by D 136
boys took him at D 136
boys paid for the D 136
bowl made for the D 136
bond fund with an D 136
body sway and the D 136
body flew out of D 136
boat there for the D 136
body bags for the D 135
boss said that it D 134
boss asking you to D 134
bore rule and the D 134
booth felt that the D 134
boot disk using the D 134
bony fish are the D 134
body lice and the D 134
boat trip out of D 134
boss over all the D 132
bore upon her the D 132
bore tube may be D 132
boor like thee to D 132
bone from hip to D 132
boat back with the D 132
bore upon him in D 130
bone cyst can be D 130
bond length due to D 130
bomb will end the D 130
bolt shot and the D 130
bolt from out the D 130
boat ride with me D 130
boat even with the D 130
boys leaving for the D 128
bowing very low as D 128
bore hole may be D 128
booth left her to D 128
boot sole and the D 128
book gold and the D 128
bone scan for the D 128
bond fund may be D 128
bomb must not be D 128
bomb meant that the D 128
boat were not so D 128
boat rose with the D 128
boat ride out of D 128
boat over one of D 128
boat back for me D 128
boar will use us D 128
boys took off the D 126
boss asks you if D 126
bony union and the D 126
bond pads and the D 126
bolt fell out of D 126
boat took them on D 126
boat heads out to D 126
boot disk and the D 125
bowl wall and the D 124
boss need not be D 124
bore only one or D 124
bone plug and the D 124
bond only for the D 124
boat went all to D 124
boot into one of D 123
boys took off at D 122
boys rode out of D 122
boss told him the D 122
boss know that the D 122
boss came out to D 122
bone plug can be D 122
bomb went off by D 122
bolt into one of D 122
boat into that of D 122
boat bringing them to D 122
bout what goes on D 121
boys took one of D 120
boss gave him an D 120
bongo have not the D 120
bond upon earth of D 120
bomb went off or D 120
body wall for the D 120
boat will try to D 120
boat were two of D 120
boat trip for the D 120
boat dock for the D 120
boar came out of D 120
boom town with the D 119
book slid out of D 118
bony fish with the D 118
body lice are the D 118
boat well out of D 118
boat took with me D 118
boil till they be D 117
boss sees that the D 116
boss says that the D 116
boss knew that he D 116
bond debt due to D 116
bolt over all the D 116
body roll and the D 116
bode well that the D 116
boat said that the D 116
boat ride for the D 116
boot along with the D 115
bond length with the D 115
bode evil for the D 115
booth made out of D 114
bond said that the D 114
bond must then be D 114
bond bond that is D 114
bomb load for the D 114
boat ready and to D 114
boys shot out of D 112
boss want you to D 112
born stingy can be D 112
bolt hole for the D 112
body wall and at D 112
body bags out of D 112
bode well for it D 112
bode plot with the D 112
boat like that he D 112
boat club was the D 112
bomb bade one go D 111
boss will get the D 110
boss gets all the D 110
bore upon one of D 110
booth told her he D 110
book sold out on D 110
bone scan and an D 110
bolt will then be D 110
bolt must not be D 110
body wall and an D 110
boat ride can be D 110
boat clear out of D 110
boss asking him to D 108
bore their way by D 108
boot came off in D 108
book took him to D 108
boat like one of D 108
boat gets out of D 108
boat dock near the D 108
boys took off to D 106
boss went out of D 106
boss knew that the D 106
boss felt that he D 106
boss asks them to D 106
bore their man to D 106
bore less than my D 106
bore into him as D 106
bore away with us D 106
book saith that the D 106
bond will now be D 106
body here wad do D 106
boat went with the D 106
boat away out of D 106
boat along one of D 106
bowl ready for the D 105
bowl must not be D 104
bowing your head in D 104
bore much for the D 104
bore hole for the D 104
bore among them the D 104
boot time with the D 104
book slid off the D 104
bond there may be D 104
bond also may be D 104
bomb lost off the D 104
bomb fell out of D 104
boat were you on D 104
boat race with the D 104
boat moving with the D 104
boat like that is D 104
bond fund can be D 103
boys took off on D 102
booth told him to D 102
boot camp was to D 102
boon held out by D 102
body wall and on D 102
body urging him to D 102
body roll with the D 102
boat will now be D 102
boat took off the D 102
boat runs out of D 102
boat came off the D 102
boat along with my D 102
boot camp and in D 101
bond theory can be D 101
bowl game and the D 100
boss told him it D 100
boring tool and the D 100
bore hell out of D 100
bore along with the D 100
booth gave him so D 100
boom there was an D 100
book pigs for the D 100
bony hand with the D 100
bony arch and the D 100
bond only with the D 100
bond fund with the D 100
boat yard and the D 100
boat sent for the D 100
boat club and of D 100
born lamb was in D 99
boring tool may be D 99
bolt clear out of D 99
boys mingle with the D 98
bore tube can be D 98
bore like that of D 98
booth made not the D 98
bony nose and the D 98
bony fish can be D 98
bond wire and the D 98
boat when all the D 98
boat deck near the D 98
boat also had to D 98
born wife and the D 97
boom days and the D 97
bout flew out of D 96
bore tube that is D 96
bore size and the D 96
boot will not go D 96
boot hill and the D 96
boom years was the D 96
boom must not be D 96
boom from one of D 96
book lays out an D 96
bony ribs and the D 96
bony legs and the D 96
bond said that he D 96
bomb hits and the D 96
body threw off the D 96
boat were out of D 96
boat over and we D 96
bowl held out to D 94
boss sent her to D 94
bony part near the D 94
bony face and an D 94
bond there was no D 94
bond sale for the D 94
bold theme for an D 94
body rose off the D 94
body ache with the D 94
boat shoes with no D 94
boom years and in D 93
bode good for the D 93
booth told him in D 92
book club and of D 92
bomb went off we D 92
bomb fell near by D 92
boat took off at D 92
boat there and go D 92
boat sank with the D 92
boat sail out of D 92
boat making for us D 92
boat down with it D 92
boat away for the D 92
boom town near the D 91
bond line and the D 91
body odor due to D 91
bowl will now be D 90
bowl into one of D 90
boss will say to D 90
boss left for the D 90
boot camp run by D 90
boom well off to D 90
book card with the D 90
bond length that is D 90
bomb like that on D 90
body even hit the D 90
boat sped out to D 90
boat sank out of D 90
boat sank one of D 90
boat sank and we D 90
boat race for the D 90
boat more than he D 90
boat crew for the D 90
born aunt and the D 89
boys diving off the D 88
bore hole with the D 88
booth were going to D 88
boom ends and the D 88
book will hit the D 88
boning nothing out of D 88
bond among men is D 88
bomb went off it D 88
bomb along with the D 88
body kens him by D 88
body from bed to D 88
body bears all the D 88
boat trip that he D 88
boat rode out the D 88
boat kept for the D 88
boat down with the D 88
bolt coming out of D 87
boys took this as D 86
bore away one of D 86
booth will not be D 86
boom there was no D 86
book flew off the D 86
bone scan with the D 86
bone dust and the D 86
bond born out of D 86
bomb came out of D 86
boat went way up D 86
boat well out in D 86
boat there may be D 86
boat racing and the D 86
boat puts off to D 86
boat over for me D 86
boat just aft of D 86
boys dive off the D 84
bore upon all the D 84
booth says that the D 84
boon will not be D 84
book club can be D 84
bond there can be D 84
bolt slid and the D 84
boil their pot in D 84
body fats and the D 84
body cone and the D 84
body axis can be D 84
boat when they go D 84
boat sets out to D 84
boat sets out on D 84
boat only for the D 84
boat left with the D 84
boat during one of D 84
boat drew out of D 84
boat came for the D 84
boys were fed on D 83
boil rice for the D 83
boil over and be D 83
boss went off to D 82
boss saying that he D 82
boss more than the D 82
boss coming out of D 82
bore when one is D 82
bore these things in D 82
book race and the D 82
bond length and is D 82
body iron may be D 82
bore down with it D 80
booth shot him in D 80
boob tube and the D 80
bomb went off he D 80
body swinging with the D 80
boat trip was the D 80
boat took him on D 80
boat till one of D 80
boat sent for me D 80
boil along with the D 71
boot from one of D 70
boss sees you as D 60
boss lady and the D 58
born babe one of D 55
boat there are no D 55
body dose for the D 54
boil from ten to D 52
body scan may be D 52
born babe may be D 43
boom days for the D 43
bolt said that he D 42
boat from now on D 42
boys took him up D 41
bout time for me D 40
boil over and to D 40
