my the nature of M 298
my the future of M 184
my the origin of M 164
my tea instead of M 100
my ear caught the D 2956
my ear through the D 1166
my foe beheld it D 966
my ear seemed to D 508
my ear closer to D 478
my hoe played the D 356
my hoe turned up D 328
my ear sounds on D 321
my pa taught me D 272
my ear toward the D 270
my ear instead of D 192
my ear picked up D 166
my ma taught me D 144
my the theology of D 140
my ear beyond the D 136
my ear drinks in D 114
my ear caused me D 104
my ear before he D 100
my ear cocked to D 98
my toe caught the D 94
my ear became so D 88
my ma degree in D 86
my toe pained me D 84
