myself for it . M 14374
myself with it . M 8812
myself doing it . M 3062
myself say it . M 1380
myself not to . M 644
myself out of . M 604
myself and me . M 475
myself see it . M 430
myself doing so . M 430
myself saw it . M 424
myself for it ! M 422
myself with it ? M 412
myself did it . M 324
myself can do . M 320
myself and it . M 296
myself for it ? M 284
myself get up . M 236
myself doing it ! M 232
myself with me . M 204
myself off it . M 158
myself for me . M 136
myself read it . M 134
myself all up . M 118
myself set up . M 114
myself and go . M 106
myself using it . M 104
myself and tea . M 104
myself let go . M 100
myself can be . M 100
myself with it ! M 98
myself why me ? M 96
myself that is . M 84
myself say so . M 84
myself with the . M 80
