keep reminding me . M 1334
kept steadily on . M 1292
kept between us . M 624
kept following me . M 608
keep referring to ? M 560
keep himself up . M 494
keep spirits up . M 458
keep covered up . M 434
kept reminding me . M 394
keep profits up . M 344
keep reminding us . M 340
keep account of . M 328
kept account of . M 326
kept bravely on . M 320
keep following me ? M 312
kept covered up . M 298
keep between us . M 280
keep referring to . M 274
kept chained up . M 270
keep following me . M 254
keep improving it . M 248
kept returning to . M 240
keep returning to . M 230
keep following it . M 224
kept reassuring me . M 222
kept referring to . M 212
keep herself up . M 212
kept reminding us . M 208
kept following us . M 202
kept outside it . M 194
keep reminding me ? M 176
keep believing it . M 158
keep mentioning it . M 146
keep himself so . M 146
keep steadily on . M 144
kept following it . M 130
keep replacing it . M 122
kept rejecting it . M 118
kept referring to ? M 104
keep quality up . M 102
kept threatening me . M 100
keep control of . M 100
kept herself up . M 94
kept troubling me . M 90
kept insisting on . M 86
keep numbers up . M 84
keep wandering to . M 82
