ye shall know the D 32605
ye shall seek me D 10875
ye shall keep my D 8997
ye shall bind on D 8334
ye shall find the D 6071
ye shall have no D 4495
ye shall keep it D 3932
ye asked nothing in D 3908
ye shall take it D 3677
ye stand fast in D 3398
ye would love me D 2726
ye shall have the D 2517
ye shall take no D 2307
ye shall have it D 2040
ye build unto me D 2025
ye shall keep the D 1858
ye shall find me D 1688
ye shall find an D 1604
ye might have it D 1582
ye ought also to D 1480
ye shall walk in D 1405
ye shall find it D 1399
ye shall come to D 1196
ye wrote unto me D 1112
ye might know the D 1112
ye shall give the D 1110
ye spake unto me D 1096
ye shall take my D 1070
ye shall know my D 1001
ye shall have an D 966
ye shall make no D 940
ye shall know of D 894
ye shall tell my D 875
ye shall have my D 842
ye shall pass on D 792
ye shall have to D 764
ye shall flee to D 762
ye would have no D 710
ye would have me D 709
ye might learn in D 708
ye shall rise up D 696
ye shall cast it D 660
ye shall have in D 628
ye would wish to D 574
ye shall stay no D 572
ye dwelt upon it D 552
ye would like to D 548
ye truly seek me D 544
ye shall make it D 512
ye shall take of D 502
ye shall slay the D 478
ye enter into the D 474
ye shall know it D 448
ye would make it D 442
ye enter into an D 426
ye major part of D 408
ye shall find no D 396
ye never heard of D 396
ye shall swear to D 385
ye would give me D 382
ye shall live in D 381
ye shall fall by D 373
ye shall leave me D 366
ye shall burn no D 353
ye shall find in D 350
ye shall take the D 346
ye dwell among us D 346
ye shall give in D 344
ye shall ever be D 344
ye shall find us D 342
ye shall give to D 326
ye shall blow an D 318
ye would have the D 312
ye might want to D 306
ye shall call the D 300
ye would have to D 294
ye shall find we D 290
ye might like to D 284
ye might come to D 284
ye shall have of D 282
ye really pity me D 282
ye shall obey my D 274
ye could tell me D 268
ye shall make go D 264
ye would have it D 260
ye thither unto us D 260
ye shall love the D 256
ye never knew the D 256
ye shall soon be D 250
ye drunk wine or D 248
ye would gain the D 240
ye shall give us D 240
ye really think so D 238
ye shall have as D 236
ye shall bury me D 236
ye shall give me D 234
ye shall also be D 226
ye offer unto me D 226
ye would leave me D 216
ye right hand of D 200
ye shall live to D 196
ye shall make the D 194
ye would hate the D 190
ye maybe paid it D 190
ye shall lose no D 188
ye shall come on D 188
ye shall know me D 186
ye shall come up D 186
ye shall slay no D 183
ye shall have me D 182
ye shall show the D 180
ye would tell the D 178
ye would know the D 176
ye upper part of D 176
ye shall pour it D 176
ye shall make an D 176
ye really think it D 176
ye might leave the D 176
ye shall angle to D 174
ye would call my D 172
ye enter into it D 172
ye would know my D 170
ye shall tell me D 166
ye shall find my D 164
ye never look to D 164
ye would give the D 162
ye would look to D 160
ye would find it D 160
ye shall have on D 158
ye still born in D 154
ye never learn to D 154
ye would come to D 152
ye would call me D 152
ye liked best to D 148
ye arena free in D 146
ye taken away my D 144
ye shall warn the D 144
ye shall speak no D 144
ye shall break it D 144
ye first book of D 142
ye shall live by D 140
ye really want to D 140
ye order forth my D 140
ye shall know by D 139
ye shall grow in D 138
ye shall bind me D 138
ye shall cease to D 136
ye shall lift up D 132
ye maybe able to D 132
ye guess what he D 132
ye stand fast by D 130
ye shall fade as D 130
ye lower part of D 130
ye would take the D 128
ye would speak an D 128
ye shall turn to D 128
ye shall make to D 128
ye might help me D 128
ye would have my D 126
ye would find the D 124
ye shall stop the D 124
ye shall come in D 124
ye still love me D 122
ye shall walk no D 122
ye manna speak to D 122
ye would make of D 120
ye never think of D 120
ye might call it D 120
ye shall feel the D 118
ye gates lift up D 118
ye could call it D 118
ye would have us D 116
ye shall learn to D 116
ye shall know if D 116
ye could give me D 116
ye shall kill the D 114
ye first turn the D 114
ye shall here of D 112
ye might take the D 110
ye leaves when as D 110
ye apart into the D 110
ye would find nae D 108
ye would fall to D 106
ye shall bind in D 106
ye about bringing the D 104
ye shall show me D 102
ye shall learn my D 102
ye would take me D 100
ye watch from the D 100
ye never heard the D 100
ye first part of D 100
ye would lose in D 98
ye shall will ye D 98
ye shall weep no D 98
ye shall ride to D 98
ye price there of D 98
ye never heard it D 98
ye yearly rent of D 96
ye shall hold in D 96
ye proud ones of D 96
ye would lift up D 94
ye shall think on D 94
ye shall lose the D 94
ye might just as D 94
ye might have the D 94
ye shall only be D 92
ye shall find to D 92
ye shall rise by D 90
ye shall know in D 90
ye ought just to D 90
ye might rely on D 90
ye drank only of D 90
ye might wish to D 88
ye stand hand to D 86
ye shall show to D 86
ye often made an D 86
ye might have to D 86
ye would send me D 84
ye would kill the D 84
ye whose fate by D 84
ye still want to D 84
ye shoot upon an D 84
ye shall teach the D 84
ye shall ride in D 84
ye shall know us D 84
ye shall kiss me D 84
ye hardy sons of D 84
ye carry back the D 84
ye would make me D 82
ye would back me D 82
ye shall take to D 82
ye daily such do D 82
ye whole body of D 80
ye right hand in D 80
ye never will be D 80
ye shall know no D 56
ye shall take up D 48
