years from today . M 8476
years were spent . M 3252
years from today ? M 2818
years were ended . M 2256
years hard labor . M 1742
years their junior . M 1648
years have shown . M 962
years three months . M 930
years nine months . M 910
years were passing . M 704
years five months . M 666
years from onset . M 642
years ever since . M 616
years your junior . M 614
years over again . M 612
years will begin . M 586
years four months . M 584
years into space . M 560
years have flown . M 534
years over again ? M 468
years been growing ! M 454
years were found . M 424
years well spent . M 362
years have ended . M 348
years were tough . M 336
years were happy . M 322
years from grant . M 224
years were taken . M 220
years from issue . M 212
years were rough . M 210
years been growing . M 204
years were women . M 200
years among women . M 192
years were added . M 190
years were missing . M 186
years post onset . M 182
years living alone . M 180
years into months . M 180
years were given . M 168
yell from below . M 166
years back again . M 166
years just after . M 158
years have flown ! M 158
years into hours . M 156
years very happy . M 152
years were noted . M 144
years past thirty . M 140
years once again . M 140
years will reveal . M 134
years were quiet . M 128
years their elder . M 126
years have known . M 116
years from hence . M 116
years were known . M 112
years over fifty . M 112
years were small . M 108
years back again ? M 106
years over thirty . M 104
years past forty . M 98
years your junior ? M 94
years were short . M 94
years were lived . M 94
years were harsh . M 94
years were awful . M 94
years just ended . M 94
years there after . M 92
years fell apart . M 92
years your elder . M 90
years were working . M 88
years among books . M 88
years were happy ? M 86
years time period . M 86
years over forty . M 86
yell from above . M 85
years will occur . M 84
years were black . M 84
years were spent ! M 80
years over again ! M 80
