yearning to return . M 480
yearning to escape . M 248
yearns to return . M 234
yearning to travel . M 194
yearns to escape . M 147
yells to escape . M 122
yearly or monthly . M 110
yells the master . M 86
yells of dismay . M 84
