blow himself up . M 1497
blow against it . M 782
blow everything up . M 628
blow against us . M 390
blow himself up ? M 333
blow herself up . M 236
blow society up . M 160
blow against me . M 156
blow awaited me . M 140
blow everything up ! M 106
