blamed for it . M 22018
blessing for me . M 2649
blamed for it ? M 2128
blessing for us . M 1908
blessing with it . M 1868
blessing for me ? M 1559
blessing for it . M 536
blamed for it ! M 398
blessing that is ! M 278
blessing that is . M 260
blessing for us ? M 192
blessing this is ! M 150
blocks with it . M 148
blocks for it . M 144
blessing for me ! M 140
blessing with me . M 136
blessing with us . M 134
blocks for me . M 130
blocks with me . M 124
bleeding for me ? M 124
blessing this is . M 117
bleeding for me . M 106
blocks for us . M 86
blessing for us ! M 81
