run over by a M 122800
run down by a M 24230
run down to a M 5548
run into by a M 4457
run away to a M 4444
run away in a M 4153
run down in a M 3864
run there is a M 3389
run away if i M 2432
run over in a M 2053
run back to a M 1950
run only on a M 1584
run away on a M 1408
run over to a M 1396
run down as a M 1305
run time of a M 1204
run wild in a M 1172
run away as a M 1172
run into in a M 1000
run will be a M 912
run down on a M 801
run only in a M 739
run along in a M 712
run away as i M 710
run away at a M 684
run down at a M 672
run into on a M 642
run over at a M 586
run well on a M 578
run over on a M 567
run free in a M 542
run ahead of a M 540
run only by a M 522
run time by a M 496
run along at a M 459
run well in a M 441
run wild as a M 440
run into at a M 434
run back in a M 426
run less of a M 393
run into as a M 358
run into is a M 354
run only as a M 352
run home in a M 351
run over as a M 344
run time on a M 336
run time in a M 336
run leads to a M 330
run more as a M 326
run away if a M 323
run once in a M 313
run away so i M 306
run only at a M 303
run length of a M 297
run along on a M 293
run high in a M 284
run over if i M 272
run away by a M 262
run away is a M 261
run cost of a M 245
run time as a M 244
run much of a M 242
run down as i M 238
run just as a M 236
run only to a M 235
run deep in a M 235
run wild on a M 230
run came to a M 225
run next to a M 223
run time is a M 215
run made by a M 207
run more of a M 205
run clear of a M 202
run fast as i M 200
run into it a M 197
run away or i M 196
run fast as a M 188
run fast in a M 184
run must be a M 181
run fast on a M 176
run even if a M 167
run true to a M 166
run only if a M 166
run cold as i M 166
run even if i M 161
run came on a M 154
run goal of a M 152
run over it a M 150
run best on a M 148
run along to a M 142
run back on a M 141
run leading to a M 138
run free on a M 134
run well as a M 132
run home to a M 132
run part of a M 131
run into the a M 127
run slow by a M 126
run into as i M 124
run even in a M 121
run west on a M 119
run even on a M 117
run hard on a M 116
run ending in a M 113
run these on a M 110
run down is a M 110
run prior to a M 109
run free as a M 108
run even at a M 105
run down of a M 105
run along so i M 103
run idle as a M 96
run ahead to a M 94
run once at a M 92
run down if i M 91
run till in a M 90
run wild as i M 88
run more in a M 88
run into if i M 88
run true in a M 84
run there as a M 84
run time to a M 83
run high as a M 82
run ahead in a M 82
run third in a M 80
run fine on a M 80
run just as i M 51
run such as a M 46
run here in a M 44
run acts as a M 43
run health of a M 41
run risk of a M 40
run past in a M 40
run made in a M 40
run foul of a D 1587
run amok in a D 579
rung down on a D 422
rub heard by a D 351
rut there is a D 264
rug will be a D 264
rub down to a D 229
rub salt in a D 206
rum sort of a D 200
rub over it a D 192
rub into it a D 183
rug next to a D 182
rum shop in a D 178
rut made by a D 174
rug used as a D 156
rug made of a D 150
rub salt on a D 122
run raid on a D 107
run amok on a D 103
rug made by a D 100
rub along in a D 90
run singly as a D 84
rub along on a D 82
