run after him . M 13645
run after her . M 6916
run after them . M 6786
run dialog box . M 6574
run after you . M 3989
run every day . M 2508
run after him ? M 917
run after all . M 862
run after him ! M 788
run growth path . M 781
run after you ? M 779
run either way . M 718
run after her ? M 632
run right now . M 582
run after them ? M 416
run under them . M 404
run after run . M 384
run after her ! M 368
run after men . M 346
run after you ! M 307
run every year . M 286
run after that . M 280
run every day ? M 268
run might read . M 266
run quite off . M 258
run right out . M 257
run after them ! M 230
run beneath them . M 215
run right off . M 197
run until then . M 112
run rather low . M 111
run round him . M 98
run round them . M 96
run within them . M 94
run right then . M 93
run rather dry . M 84
run since then . M 52
run quite dry . M 45
run right now ? M 42
run after that ? M 41
