rule a rule that M 2349
rule a great deal M 778
runs a risk that M 706
ruin a young man M 695
rule i have not M 679
runs a great way M 580
runs a home for M 574
runs a very real M 488
runs a good deal M 447
ruin a poor man M 418
rule a good deal M 400
rule i know not M 378
ruin a good man M 365
runs a very long M 336
runs a great deal M 327
rule a good one M 317
ruin a good day M 300
runs a mile and M 281
runs a deep and M 279
rule i find that M 267
rule i have long M 255
runs a slow and M 254
rule i gave you M 238
rule i think that M 221
ruin i have yet M 219
rule a rule for M 200
ruin a good dog M 194
rule i will not M 192
ruin i ever saw M 192
ruin a good meal M 192
runs a mild and M 190
runs a good way M 174
runs a shop and M 170
ruin i must run M 143
rule i have had M 135
rule i have for M 131
ruin a great and M 131
runs a high and M 128
rule i think you M 125
runs a wide and M 122
runs a game and M 120
rule a vast and M 119
runs a clear and M 114
ruin a good one M 114
rule i made for M 110
ruin a nice day M 102
rule i have set M 100
runs a great and M 98
ruin a great man M 96
ruin a great deal M 94
runs a home and M 92
runs a road that M 90
runs a thread that M 88
runs a risk and M 88
rule i think they M 88
runs a road with M 84
runs a good and M 84
rule i know for M 84
rule i made was M 82
rule i give you M 80
ruin i will not M 60
ruin a good idea M 40
rule a wife and D 10884
runs a race with D 666
runs a farm and D 180
rude a form that D 162
runs a camp for D 122
runs a club for D 114
ruling a vast and D 108
runs a race for D 96
rude a very long D 96
runs a single row D 94
runs a free bus D 90
