rule is that the M 159975
rule of law in M 130434
rule of law is M 119937
rule of law as M 40797
rule of law to M 35548
rule is that if M 26606
rule of law or M 25952
rule is that it M 23807
rule is not to M 19722
rule is that an M 16443
rule it may be M 13536
rule of law by M 13316
rule is one of M 11342
rush to get to M 10898
rule is that no M 10892
rule is that in M 10546
rule of law on M 10541
rule of law the M 10199
runs on top of M 9276
rule is that of M 7978
rush to get the M 7741
rule is for the M 7358
rule of god in M 7016
ruin of all the M 6730
rule is not the M 6480
rule of law of M 6276
rule or set of M 6197
rule of law at M 5808
rule in all the M 5564
rule as far as M 5539
rule is not so M 5372
rule of all the M 4979
rule is that we M 4876
rule is that he M 4859
rule as long as M 4806
rule it out as M 4746
runs as far as M 4714
rule it can be M 4562
rule is not an M 4501
rule to that of M 4383
rule so that the M 4319
rule it out of M 4306
rule or law of M 4268
rule of god is M 4094
ruin of one of M 4016
rule of one of M 3481
rule is not in M 3443
rush of air as M 3440
rule of law be M 3408
runs on and on M 3279
rule so far as M 3267
rule so that it M 3146
rule so long as M 2869
rule of law it M 2714
rule is not as M 2630
rule is easy to M 2588
rush to see the M 2564
rule as one of M 2401
rush to get on M 2396
rule in that it M 2331
rule of war of M 2202
rule it was the M 2168
rule of law so M 2144
rush to get it M 2096
rule as that of M 2083
rule of law if M 2081
rule of doing to M 2032
rule is that as M 2018
rule is due to M 1992
rule of doing as M 1956
rule to all the M 1924
rule the use of M 1922
runs as long as M 1854
ruin it for me M 1844
rush in with the M 1824
rush to buy the M 1746
rush of air in M 1732
rule is that to M 1732
rule in all of M 1662
rush of heat to M 1657
rush to get in M 1608
runs as low as M 1606
rule is going to M 1595
rush of all the M 1586
rule of god on M 1532
ruin it for the M 1437
rule in that the M 1372
rule is not of M 1367
runs by way of M 1366
rule of one or M 1345
rule on how to M 1331
rule to use the M 1321
rule of any of M 1301
rule by way of M 1295
rule of law we M 1280
rule to use in M 1276
rule of god as M 1276
rule it out in M 1274
rush of men to M 1262
rule to bear in M 1230
rule is that at M 1224
rule by using the M 1221
runs in each of M 1186
rule of all is M 1184
rush to get my M 1135
ruin of all my M 1110
rule it was to M 1100
runs to get the M 1098
rule he had to M 1095
rule in one of M 1080
ruin me and my M 1072
rule or law is M 1051
rule in each of M 1042
rush to set up M 1026
ruin is that of M 1019
rush of air on M 1000
ruin of both the M 988
rush of air to M 975
rule by all the M 966
rule on all the M 962
rule to get the M 961
rule of using the M 944
rule is that on M 939
runs so that the M 932
rush to beat the M 930
runs the idea of M 920
rule of both the M 914
rule in both the M 907
ruin to all the M 904
runs on all the M 902
rule to try to M 883
rule the law of M 883
rush of air is M 851
rule the earth in M 849
rule of god to M 848
rule or law to M 836
rush to see it M 834
ruin of that of M 826
rule of one king M 820
rush in for the M 819
ruin of one or M 816
rule is apt to M 806
rule is not at M 803
rule of law an M 802
runs to win the M 792
rule of this king M 771
rule of law he M 770
rule to one of M 761
rule of law do M 755
rule is out of M 745
runs on both the M 738
rule is set up M 716
rule as for the M 716
rule is that by M 715
ruin is one of M 711
rush to use the M 708
rule to each of M 703
rush to try to M 695
rule by law is M 687
rush on with the M 684
runs of two or M 684
rule in any of M 683
rule to see if M 674
ruin it for us M 666
runs to lead the M 654
runs on with the M 653
rule to add the M 650
rule of war is M 643
ruin it all by M 635
rule it out on M 634
rule to put the M 632
rush in and do M 626
rule to fit the M 624
rule is all the M 624
rush in and the M 622
runs on each of M 620
rule to let the M 620
rush to war in M 612
rush to get up M 612
runs to one of M 609
rush to buy it M 608
runs in one of M 606
rule of one is M 606
rule the earth as M 605
rush to put the M 600
runs is that of M 592
rule to set the M 588
runs on for so M 580
rule by one or M 580
ruin of things in M 580
rush at one of M 578
rule we are to M 573
rule to use is M 572
runs to all the M 566
rule of law no M 553
rush in with an M 546
rule is set to M 546
rule of how to M 544
rule me out of M 544
rush to get at M 543
rule is one in M 540
rule or law in M 536
rule as old as M 530
rush of joy at M 524
rule of men of M 521
runs on one of M 520
rule or law by M 520
rule to all of M 516
rush to him at M 501
rule to bring the M 501
runs in with the M 492
runs is that the M 490
rule the day in M 480
rule by one of M 475
rule is now in M 474
rule as can be M 474
rule as may be M 473
rule or law or M 472
rule on earth as M 469
rule at all in M 469
rule by law in M 468
rush of heat in M 458
rule to read the M 456
rush of air at M 454
rule is that so M 452
rule so that he M 447
ruin me with the M 446
rule is then to M 442
rule it for the M 440
rule by men of M 432
runs to see if M 430
runs of all the M 427
runs in both the M 426
runs in all the M 426
rule it out by M 424
rule is put in M 424
rule is now the M 420
rule to pay the M 410
rule by law or M 407
rush to put on M 406
rush of wings as M 406
rule we had to M 403
rule the area of M 396
ruin he had so M 396
rule at law is M 394
rule he has no M 393
rule of god the M 390
rush to one of M 388
rule is now to M 388
runs to get it M 385
rule of two or M 382
rule in all my M 382
rule as they do M 382
runs on one or M 381
rule or for the M 381
rule do not go M 381
ruin of both of M 378
rush to put it M 376
rule of god or M 376
rule of all of M 376
rush is one of M 374
rule the head of M 373
rush to aid the M 370
rule in one or M 369
rule or that of M 367
rule be read to M 363
ruin is not to M 363
rule on earth in M 362
rule of men is M 362
rule of men in M 362
rule of all my M 362
rule as head of M 358
ruin of all of M 358
rule as with the M 355
rule he had no M 354
rule on any of M 352
rush on and on M 351
rule be that the M 350
runs so near the M 341
rule so that we M 340
rule as being the M 340
ruin on top of M 339
rule it out at M 336
rush to hear the M 334
rule to get up M 334
rush at him as M 332
runs at each of M 331
rule or that the M 331
rule to act as M 330
rule on each of M 330
rule on both the M 330
rule he was so M 330
rule by that of M 330
rush of heat as M 328
rule to fix the M 328
rule it out if M 328
rule he was the M 328
rush to bring the M 327
ruin is due to M 327
rule of kings in M 326
ruin of man by M 326
ruin to one of M 324
rule on top of M 320
rule the men of M 316
ruin is not the M 314
rush as far as M 312
rule it has no M 311
rush of air or M 309
rule in that he M 309
runs it with the M 308
ruin of any of M 307
rush to see if M 306
rush me out of M 306
rule or one of M 306
rule is with the M 305
runs up with the M 304
rule of each of M 304
rule he has to M 303
rule as this is M 303
runs up all the M 300
rule me and my M 298
rule in his or M 296
rush up out of M 294
runs to get to M 294
runs of each of M 294
rule or with the M 294
rule of his he M 294
rule he was to M 293
rule to mean the M 292
rule of one to M 292
rush to get me M 291
rush to buy up M 290
runs the law of M 290
runs of one or M 290
rule is one thing M 290
rule by use of M 289
rush to heap up M 288
rule on all of M 288
rule to bring in M 284
rule as did the M 284
rush of joy to M 282
runs to two or M 282
rule we saw the M 282
ruin as far as M 282
rule is but an M 281
rush me off to M 280
runs to see the M 280
runs so near to M 280
rule the sum of M 278
rule is one to M 278
rule so that if M 277
rule is not by M 277
rule of all by M 276
rule on earth is M 275
rule by law to M 274
rule of god by M 272
rush to use it M 270
rule the idea of M 269
runs the path to M 268
runs to him in M 267
runs the way of M 266
rule no one is M 264
rule to set up M 263
rule as was the M 263
rule to cut in M 262
rule on one of M 262
rule on how the M 262
rule if you do M 260
ruin of all he M 260
rush of men in M 258
rule of this or M 257
rule at all to M 256
rule as kings or M 255
rush to read the M 254
rush to end the M 254
runs the path of M 254
rule or way of M 254
rule of going to M 252
rule it with the M 251
rule it has to M 251
rule of its king M 250
rule us with the M 248
ruin if you do M 248
rule so that an M 247
rule in using the M 246
rule be one of M 245
rush to get as M 244
runs on and the M 244
rule is and the M 244
rule to use as M 243
rush of two or M 242
rule to one or M 242
rule on use of M 242
ruin of both by M 242
rush to put up M 240
ruin me for the M 240
rush of being in M 238
rule is set in M 238
rule we use the M 235
rule as being in M 235
rush to him to M 234
rule is then the M 234
ruin us all if M 234
rule the earth by M 232
rule of sin in M 230
rule of kings is M 230
rule in this as M 230
runs so low at M 228
runs on all of M 228
rule to add to M 228
ruin me with my M 228
rule we try to M 227
rush of one of M 226
rule do not do M 226
rule us with an M 224
rule it was in M 224
rule to act by M 223
rule if all of M 223
runs on any of M 222
ruin in that of M 222
rule of being in M 221
rule it was an M 219
rush of joy in M 218
rule to lead to M 218
rule it and to M 218
ruin on all the M 217
rush of joy as M 216
rule of man in M 216
rule to try the M 215
rule is thus to M 214
rule of men by M 213
rule as that the M 213
runs the year of M 212
rule the way we M 211
rush to get us M 210
rush to get an M 209
rule to use to M 209
rule of use of M 208
rule of man by M 208
rule of all in M 208
rule is but the M 208
rush to see me M 206
rule to read it M 206
rule of man is M 206
rule if put on M 206
rule to let no M 204
rule of one in M 204
rule of war to M 202
rule as kings in M 202
rule he was in M 201
rush of wings in M 200
rule if one is M 199
rule of doing the M 198
rule we get the M 197
rule to ask the M 197
ruin to both of M 197
rush to you as M 196
rush at him in M 196
rule us nor do M 196
rule of man to M 196
ruin or death of M 196
rule is set at M 195
ruin the joy of M 195
rush to man the M 194
runs it all to M 192
rule to any of M 191
rule on that of M 191
rule me out as M 191
rule he has the M 190
rule so that in M 189
runs is one of M 188
rule of kings or M 188
rule if one of M 188
ruin as long as M 188
rule to see the M 187
rule so that no M 187
rule it with an M 186
rule is you do M 186
rule by far the M 186
ruin the idea of M 186
ruin so long as M 186
rush to fix the M 184
runs to read the M 184
rule at all of M 184
rule or may be M 183
rule is read as M 183
runs it for me M 182
rule is for an M 182
rule in and of M 181
rush of things to M 180
runs the way it M 180
rule we use to M 180
rule us out is M 180
rule or that it M 180
rush to bring in M 178
runs to man to M 178
runs so far as M 178
rule is thus the M 177
rule is now so M 177
rule of kings to M 176
rule is but to M 176
rule in both of M 176
rule an idea so M 176
ruin to all of M 175
rule to bar the M 173
runs to him as M 171
runs in all of M 171
rule of kings of M 170
ruin or that of M 170
runs in and the M 169
rush to put in M 168
rush is not the M 168
runs it out of M 168
rule to put in M 168
rule it does so M 168
rule at all is M 168
ruin is dear to M 168
runs up out of M 167
rush to hear me M 166
rush to all the M 166
rule of war in M 166
ruin in that as M 166
rule to set it M 165
runs to each of M 164
rule by going to M 164
ruin is for the M 164
rush in and be M 163
rule it out or M 163
rush of air up M 162
rule or not is M 162
ruin to them if M 162
ruin the end of M 162
runs it may be M 161
rule we use is M 161
rule to read in M 160
rule in doing so M 160
rule if they do M 160
ruin it with the M 160
rush to cut the M 159
rule to use at M 159
rule an act of M 159
ruin the lot of M 159
ruin or death to M 158
rush to him as M 157
rush it with the M 156
rush in and to M 156
runs to earth in M 156
runs of one to M 156
runs me out of M 156
rule he had the M 156
rule at all or M 156
rush to her as M 155
rush on one of M 155
rush of fear in M 154
rule the poet is M 154
rule the man in M 154
rule or two to M 154
rule it had to M 154
rule is how to M 154
rule at all the M 154
rush to read it M 153
rule the way he M 153
rush at her as M 152
rule we see the M 152
rule the end of M 152
rule on his or M 152
rule to put an M 151
rule the way it M 151
rule the eating of M 151
rule the death of M 151
rule the earth no M 150
rule of sin is M 150
rule of his to M 150
rule it out is M 150
rule if all the M 149
runs to bring the M 148
rule by law as M 147
rule of men as M 146
rule is yet to M 146
rush we got to M 144
rush at him to M 144
runs the end of M 144
runs it and the M 144
rule to hear the M 144
ruin by using the M 144
rule at both the M 143
runs in one or M 142
rule of doing my M 142
rush to win the M 141
rule the seat of M 141
rush of air the M 140
rule to act in M 140
rule or two of M 140
ruin on all my M 140
rush to her to M 139
runs of two to M 139
rush of men of M 138
rush of air by M 138
rule we are in M 138
rule to ask no M 138
rule to aid in M 138
rule it was of M 138
rule in law is M 138
rule as any is M 138
ruin us and the M 138
ruin to both the M 138
rule we may be M 137
rush it off to M 136
rule of use is M 136
rule is now of M 136
rule be put in M 136
rule as not to M 136
runs to beat the M 134
rule the age of M 134
rule of that king M 134
rule of and by M 134
rule is for it M 134
ruin in all the M 134
runs the day to M 133
runs is not the M 133
rule to end the M 133
rule to bring it M 133
rule on this is M 133
rule on earth by M 133
ruin he hath so M 133
rush of joy so M 132
runs to try to M 132
rule or with an M 132
rule is set by M 132
rule at all on M 132
rush at them in M 131
rule to him in M 131
rush of fear as M 130
rule to run the M 130
rule or any of M 130
rule is not on M 130
ruin it and the M 130
ruin is not so M 130
rush by all the M 129
rush me off my M 128
runs to one or M 128
rule to pay no M 128
rule of how the M 128
rule by fear of M 128
rule as that in M 128
rush to her in M 127
rule the set of M 127
runs the man in M 126
ruin as that of M 126
rule to both the M 125
rule in any thing M 125
ruin to him to M 125
ruin the day of M 125
runs to her to M 124
rule us out of M 124
rule of any king M 124
runs up one of M 123
runs to near the M 123
rule to bear on M 122
rule to all my M 122
rule it and us M 122
ruin of his king M 122
runs is due to M 121
rule by one is M 121
rush us out of M 120
rush up with the M 120
rush the dog to M 120
rush of heat at M 120
rush of air he M 120
rule of being an M 120
rule in use in M 120
rule he had in M 120
rule he can be M 120
ruin of one is M 120
ruin by doing it M 120
runs to win in M 119
rule if any of M 119
ruin so far as M 119
rush to buy or M 118
rush as one of M 118
rule of law go M 118
rule it has the M 118
ruin the day by M 118
ruin is not of M 118
runs by using the M 117
rule at one of M 117
runs to you to M 116
runs it with an M 116
rule the see of M 116
rule of war by M 116
rule by both the M 116
runs on for the M 115
rule of man as M 115
rule it was at M 115
rush us off to M 114
rush of red to M 114
rush is going to M 114
rule to use it M 114
rule to get to M 114
rule the day of M 114
rule of two of M 114
ruin to get the M 114
ruin so near at M 114
ruin of man is M 114
runs of one of M 112
rule the earth is M 112
rule of men or M 112
rule is easy of M 112
ruin of him in M 112
ruin me and the M 112
ruin by way of M 112
rule as that by M 111
ruin to that of M 111
ruin if they do M 111
runs of both the M 110
rule us and we M 110
rule the men do M 110
rush to him in M 109
rush in with my M 109
rush at any of M 109
runs up and the M 109
runs on with an M 109
rule is thus an M 109
rule by god or M 109
rule be set up M 109
ruin on all of M 109
ruin it was to M 109
runs to all of M 108
rule the head is M 108
rule of all or M 108
rule by using it M 108
rule by any of M 108
ruin is that it M 108
runs of six or M 107
rush to them in M 106
rush it was to M 106
rush at all to M 106
runs to head of M 106
runs so that it M 106
runs on his or M 106
runs of ten or M 106
runs in and is M 106
runs as one of M 106
rule it had no M 106
rule is that is M 106
rule by using an M 106
ruin of him if M 106
rush to death as M 105
rule to that in M 105
rule the law in M 105
rule the area is M 105
rule on who is M 105
rush of joy he M 104
rule to put on M 104
rule the air is M 104
rule it off in M 104
rush to war by M 103
rule the earth or M 103
runs it for the M 102
runs an arm of M 102
rule us and to M 102
rule to use an M 102
rule the top of M 102
rule of two to M 102
rule is due in M 102
rule in this or M 102
rule as are the M 102
ruin on one of M 102
ruin me than to M 102
ruin to him in M 101
rush to set the M 100
rule to hang on M 100
rule the man of M 100
rule of dog eat M 100
rule is then as M 100
rule in use by M 100
rule he was an M 100
rule he did it M 100
ruin is one thing M 100
rush to death or M 99
runs to him to M 99
rush the man to M 98
rush of things in M 98
runs to ten or M 98
runs it can be M 98
rule to buy the M 98
rule of all to M 98
rule is one we M 98
ruin the man by M 98
rush to his or M 97
rush in out of M 97
rule to act on M 97
rule if not the M 97
rule by two or M 97
rush to bar the M 96
rush of fear at M 96
rule us all in M 96
rule to say it M 96
rule by being the M 96
ruin of all we M 96
rush of air so M 95
rush so that the M 94
rule to put up M 94
rule to get an M 94
rule of his king M 94
rule of doing no M 94
rule no one of M 94
ruin to one or M 94
ruin to men of M 94
ruin the one or M 94
ruin of all by M 94
ruin by all the M 94
runs it not so M 93
rule as does the M 93
rush of men on M 92
rush of being on M 92
rush of any of M 92
runs to six or M 92
runs so far in M 92
runs by all of M 92
rule to say the M 92
rule to mean no M 92
rule of pay in M 92
rule of and the M 92
ruin by going to M 92
rule we had the M 91
runs up near the M 90
runs the cry of M 90
rule us for the M 90
rule to pay my M 90
rule the law is M 90
rule in war to M 90
rule as this in M 90
ruin to both in M 90
rush the end of M 89
rush in and he M 89
rule do not in M 89
rule we had in M 88
rule to sit on M 88
rule of that is M 88
rule in that if M 88
rule do not eat M 88
rule as kings of M 88
rush by them in M 87
rule we use in M 87
rule in all or M 87
rush at her in M 86
runs to his or M 86
rule or that he M 86
rule of god at M 86
rule in two or M 86
rule he can do M 86
ruin us all by M 86
ruin of this king M 86
ruin it and to M 86
rule on them in M 85
rule he does so M 85
rush on them in M 84
rush he was in M 84
rush by him in M 84
runs me off the M 84
rule we hear of M 84
rule or use the M 84
rule or law on M 84
rule as all the M 84
runs to and the M 83
runs the way to M 83
rule we can be M 83
rule no man is M 83
rush in with it M 82
rule to use no M 82
rule to read as M 82
rule it was no M 82
rule is for us M 82
ruin of men is M 82
ruin it now by M 82
rush to her at M 81
rush of wings to M 80
rush of wings is M 80
rush of going to M 80
rush of air it M 80
rule the earth to M 80
rule on earth of M 80
rule in war is M 80
ruin is but the M 80
rush on top of M 73
rule the lot of M 73
rule the way the M 71
ruin to him if M 68
rule the act of M 66
rule as out of M 65
ruin the head of M 63
runs to put the M 62
rush at them as M 60
rush to see my M 59
runs as for the M 59
rush of heat up M 57
runs to get in M 57
rule at law as M 57
rule to them as M 56
rule he was as M 56
rush in all the M 55
runs so long as M 55
runs in any of M 55
rush to buy in M 54
runs is that he M 54
rush by and the M 53
ruin so that he M 53
rush to bring it M 52
runs in for the M 51
rule by men is M 51
ruin so that the M 51
ruin in one of M 51
runs in two or M 50
runs at one of M 50
rule so and so M 50
rush to pay the M 49
runs to both the M 49
runs so that he M 49
ruin by one of M 49
rule an area of M 48
ruin it may be M 48
runs is that it M 47
runs at all in M 47
rule the men in M 47
rule so low as M 47
rush to fix it M 46
rule the kings of M 46
rule or law as M 46
rule on one or M 46
rush on them at M 45
rule the area as M 45
rule on earth to M 44
rule be that of M 44
ruin the son of M 44
ruin is going on M 44
rush to war on M 43
rush to sit on M 43
rush to act on M 43
rush or try to M 43
rush in and go M 43
rush at one or M 43
runs on and is M 43
rule it was so M 43
rule if they so M 43
rush by with the M 42
rush at his foe M 42
runs in with an M 42
rule or not to M 42
rush to try it M 41
rush in and eat M 41
rule the aim of M 41
rule or law the M 41
rush on his foe M 40
rush as long as M 40
runs in all my M 40
rule is then an M 40
rule is that up M 40
rule in that no M 40
rule as one to M 40
ruling is that the D 2746
rude of you to D 2182
ruse to get the D 1602
rued the day he D 1448
rude of him to D 1130
ruse to get me D 1106
rude as not to D 928
ruling is that it D 922
rude to one of D 806
ruling it out of D 802
rule of art is D 800
runs to tie the D 772
rude to him in D 766
rude to her in D 759
rude to say so D 708
rude as that of D 686
rude of her to D 682
rude if you do D 673
rude as was the D 612
rump of one of D 608
ruse to get us D 589
rude to you in D 582
ruling it out as D 581
rude to him at D 573
rugs on top of D 555
rude to say no D 555
ruby as big as D 547
rubs the top of D 536
rust is one of D 535
rude to you the D 535
rude it may be D 519
rude to you at D 516
rude as may be D 514
rude of them to D 474
rude to him on D 441
ruling is not in D 407
ruling in all the D 390
ruby is one of D 387
runs the tip of D 376
ruling as far as D 374
ruin the earl of D 373
rubs it with the D 361
rues the day he D 357
rugs to sit on D 355
rude to her at D 338
rude to her on D 336
ruling is not to D 330
ruling is that if D 328
rude to you or D 301
rude he was to D 300
ruling is one of D 298
ruling in one of D 295
ruling is not the D 291
rude to him as D 291
rude to them in D 286
rude to her as D 285
rude it was of D 282
ruse to try to D 278
rued it all the D 278
rude to her or D 274
ruling of law by D 272
ruling of one of D 262
rude to him or D 260
ruling on one of D 254
rule the art of D 254
ruling as long as D 252
rude to all the D 250
rule of art as D 246
rude to him the D 240
ruling on any of D 239
rude it was to D 238
rush of sap in D 236
ruling is not an D 232
ruling so that the D 228
rude to any of D 225
ruin the fun of D 209
rubs the tip of D 209
ruling is that of D 204
ruling on how the D 203
rude to you on D 203
ruling is going to D 202
ruling it out in D 200
rude to him to D 200
ruby ring and the D 196
rugs to lie on D 193
rude to them or D 187
rust is due to D 185
ruby is due to D 180
rule the sex to D 178
rude to try to D 178
rued the day in D 176
runs he hit in D 174
ruling is that in D 172
rude to ask if D 172
ruse we had no D 170
ruse to get to D 170
ruse to bring the D 166
ruling on how to D 165
rude to get up D 163
rule of art in D 160
rude to ask the D 160
rude to you as D 157
ruling the earth in D 156
rude to them on D 154
rude to him he D 154
rude or mean to D 154
rubs the head of D 153
ruse to put the D 152
ruling to that of D 151
rude to use the D 150
rude to all of D 150
rude to say to D 148
ruby is going to D 146
rude to him if D 142
ruling by way of D 139
rued the day the D 138
rude to them as D 138
ruling by one of D 137
rule the seas of D 136
ruby ring that he D 136
rule the seas as D 134
rust as long as D 133
rude to both of D 133
rubs the end of D 133
rugs in all the D 132
ruse to lead the D 130
ruby is not the D 130
ruling so far as D 128
rude to you if D 128
rude to her the D 127
rule the earl of D 126
ruling so long as D 124
rugs so that the D 124
ruling king and the D 123
ruling is that an D 122
rude to hang up D 122
rule to gang to D 120
rule of art or D 120
ruling of all the D 118
rust as big as D 116
rush on thee to D 116
ruse so that he D 116
ruling is that we D 116
ruse to win the D 115
rule is met by D 115
ruling of men by D 114
ruling is not so D 114
rush to tie the D 113
rush of gas to D 112
rugs is that the D 112
rued the day on D 112
ruling it with an D 111
rubs the oil on D 111
ruling on this is D 110
ruling of law or D 110
ruling it may be D 110
rude to say it D 110
rush of gas is D 108
ruse of his to D 108
rule is met in D 108
ruff is one of D 108
rump is cut so D 106
rude to bring up D 106
ruling on day or D 105
ruts of one of D 104
rude thing for the D 104
ruby ring set in D 104
ruling in each of D 102
ruling by any of D 102
ruff of fur on D 102
ruff it was of D 102
rude to say the D 102
rude or out of D 102
rule the oil is D 100
rush of gas as D 98
ruse to put us D 98
ruse of one of D 98
runs the bed of D 98
rump to get it D 98
ruling is not at D 98
rule of not re D 98
rude to read at D 98
rust so that it D 97
rush to hit the D 96
rump so that it D 96
ruling on each of D 96
ruling is not as D 96
rugs on all the D 96
rude to you to D 96
rule of law re D 95
rush of gas or D 94
rule is met if D 94
rule in art is D 94
rust on one of D 92
ruse to get at D 92
rule or art to D 92
rude if they do D 92
rush of sap to D 90
ruse of war in D 90
ruling is that no D 90
rued the day of D 90
rude as any of D 90
rust on any of D 88
ruse to put me D 88
ruse to get an D 88
ruse of war to D 88
runs an inn in D 88
rungs of one of D 88
rude as all the D 88
ruling is that he D 86
rude to her if D 86
ruby ring with the D 84
rush the pup to D 82
ruse to get my D 82
ruse as old as D 82
runs to hug me D 82
rude to ask to D 82
ruling is due to D 80
rude to her to D 80
ruling as they do D 66
ruling on all of D 60
rust so long as D 59
ruling on all the D 59
ruling in any of D 58
ruse to get in D 55
ruling on earth as D 53
ruling on both the D 53
rust so that the D 52
ruling in that it D 52
ruling the earth as D 49
rust is not the D 48
rust if you do D 44
rush to tap the D 43
ruling it for the D 43
rump so that he D 42
ruling the plea of D 41
ruts so that the D 40
rust is not so D 40
ruling it out on D 40
ruling in both the D 40
