ahead will be to M 1918
ahead will be the M 1444
ahead even of the M 1406
ahead even in the M 840
ahead most of the M 734
ahead were to be M 664
ahead even if the M 634
ahead early in the M 568
ahead leads to the M 398
ahead there is no M 382
ahead lies in the M 374
ahead only if the M 364
ahead down to the M 358
ahead even if it M 332
ahead just as if M 318
ahead late in the M 312
ahead when it is M 308
ahead will be an M 280
ahead some of the M 254
ahead will be in M 252
ahead just as the M 232
ahead even if he M 222
ahead when he is M 212
ahead only of the M 208
ahead only to the M 202
ahead must be the M 202
ahead when on the M 190
ahead even at the M 190
ahead just as he M 188
ahead back to the M 184
ahead part of the M 182
ahead just to be M 180
ahead only if it M 174
ahead there in the M 172
ahead seem to be M 168
ahead only in the M 166
ahead must be to M 164
ahead only to be M 162
ahead clear of the M 160
ahead just as we M 154
ahead when we go M 142
ahead there is the M 142
ahead there on the M 124
ahead need to be M 122
ahead came in the M 118
ahead there is an M 116
ahead have to be M 116
ahead many of the M 114
ahead leading to the M 114
ahead only on the M 110
ahead even if we M 110
ahead will be of M 108
ahead told of the M 108
ahead will be as M 105
ahead even as the M 104
ahead when in the M 98
ahead fast in the M 94
ahead just as it M 88
ahead even as he M 86
ahead prior to the M 84
ahead next to the M 80
ahead will be no M 56
ahead into the sea D 88
