nun and a priest M 714
nun has a number M 108
nun and a teacher M 48
nut with a wrench D 1476
nut and a washer D 303
nut with a hammer D 274
nut and a little D 214
nut with a torque D 136
nut with a socket D 120
nut with a cotter D 108
nut with a little D 106
nut with a kernel D 104
nut with a washer D 90
nut and a cotter D 86
nut but a legume D 85
