number was up . M 3382
number for me . M 2480
number may be . M 1760
number with me . M 896
number for me ? M 796
number for it . M 738
number did so . M 736
number for us . M 598
number with it . M 462
number one thing . M 438
number who do . M 426
number can be . M 324
number goes up . M 320
number was it ? M 254
number that is . M 204
number this is . M 170
number with us . M 154
number and the . M 114
number one is . M 94
number that do . M 92
number for us ? M 90
number this is ? M 86
