phase can not be M 11795
phone did not ring M 7154
phase and that the M 4374
phone does not ring M 3806
phase with that of M 3802
phone was out of M 3698
phone and put it M 3318
phase and can be M 3105
phone rings and it M 3103
phase may not be M 2959
phase was one of M 2710
phase that can be M 2626
phase and for the M 2588
phone was off the M 2560
phase was that of M 2438
phone with one of M 2035
phone and hung up M 1858
phase and that of M 1768
phase and out of M 1722
phase and may be M 1702
phase and with the M 1568
phase can then be M 1556
phone rings and the M 1501
phone and try to M 1465
phone and see if M 1376
phase may lead to M 1364
phase can lead to M 1280
phase that may be M 1278
phone rings and he M 1202
phone was hung up M 1024
phase and that it M 1018
phone and ran to M 1012
phone and put in M 995
phase with that in M 972
phone and let me M 940
phase and then the M 922
phone and set it M 916
phase and then to M 898
phone and got the M 890
phase and not the M 881
phase was due to M 868
phase but not in M 811
phase but not the M 804
phase and this is M 768
phone was going to M 764
phase and thus the M 752
phase and not in M 742
phase than that of M 732
phase for each of M 730
phone and get the M 724
phone rings off the M 718
phone that sat on M 712
phase out use of M 712
phone and put the M 701
phase was that the M 686
phase than for the M 678
phone and sat on M 654
phase and that in M 654
phase are due to M 648
phase may then be M 646
phone can not be M 644
phone that can be M 622
phone and set up M 603
phone and ask the M 585
phone and ask if M 582
phase that was to M 582
phone was one of M 540
phone and had to M 532
phase can now be M 532
phone being hung up M 526
phase and not to M 512
phase two was to M 507
phase one was the M 494
phase one was to M 489
phone and read the M 484
phase with that at M 483
phase for all the M 478
phone and let the M 476
phase one and the M 476
phase can thus be M 459
phase has led to M 456
phase and one of M 456
phase with all the M 447
phone and that he M 440
phase with one of M 440
phase and all the M 440
phase for both the M 438
phone and then the M 432
phone that hung on M 426
phone and had the M 424
phone was not in M 422
phase and one or M 416
phone and then he M 413
phone and ask me M 410
phase and one in M 402
phone for fear of M 401
phone and say in M 390
phase but may be M 386
phone for him to M 380
phone and hung it M 380
phase was not the M 380
phase was one in M 368
phase that has the M 362
phone was not the M 360
phase they are in M 355
phone may not be M 354
phone and sat in M 352
phase has yet to M 352
phone and sat at M 346
phase that led to M 344
phone and hang up M 342
phone and ask to M 342
phone and saw the M 336
phase two was the M 329
phase and day of M 322
phase you are in M 316
phone rings for the M 314
phone with all the M 313
phase and lead to M 313
phase that has to M 312
phone and use it M 308
phone with you at M 306
phone rings and we M 306
phase and not on M 306
phone that was in M 302
phone and let it M 302
phase was for the M 302
phone that was on M 300
phone was that of M 298
phase they may be M 298
phone and say he M 294
phone and say to M 293
phone and hear the M 280
phone and got up M 280
phone and that the M 278
phase was that it M 278
phase them out of M 278
phase may now be M 278
phone was lying on M 276
phase and has the M 276
phone and all the M 274
phase they can be M 274
phase and thus to M 273
phase with both the M 272
phone was not on M 270
phone him and he M 270
phase and not at M 270
phone and for the M 267
phone one day to M 266
phase but with the M 264
phase are not the M 263
phone rings and my M 256
phase and add to M 256
phone for her to M 253
phase was not as M 252
phone rings all the M 250
phase was not to M 248
phase than with the M 242
phase that saw the M 240
phone was that he M 238
phone and you do M 236
phase may thus be M 236
phase was not so M 234
phase and then in M 234
phase than any of M 232
phase and act as M 232
phase out lead in M 229
phase can act as M 226
phone and got to M 222
phase for use in M 220
phone for you to M 219
phase them out by M 218
phase and then by M 218
phase and are the M 218
phase are not in M 216
phase that had to M 214
phone and not in M 210
phone and how to M 209
phone and get an M 208
phase may act as M 208
phone and put on M 206
phase and that is M 202
phone that she is M 200
phone and out of M 200
phase one has to M 200
phase but can be M 200
phase and try to M 200
phase and that he M 200
phase and how the M 200
phase and are in M 200
phone with him at M 198
phone use and the M 194
phone that lay on M 194
phone and one of M 193
phone with her to M 192
phone and then at M 192
phase them out in M 190
phase for all of M 190
phase and then an M 190
phone and use the M 189
phone with her at M 186
phase and how it M 186
phase them out as M 185
phone was for me M 184
phone and with the M 184
phase was going to M 184
phone and then to M 181
phase and not as M 177
phone with him to M 176
phone and let us M 176
phone and can be M 176
phase was set to M 174
phase that was in M 174
phase and each of M 174
phone with him in M 172
phone box near the M 172
phone and set the M 172
phase and all of M 172
phase with one or M 170
phone you with the M 169
phase was not in M 169
phase was led by M 168
phase and how to M 168
phase with each of M 166
phase was that in M 166
phase out all of M 164
phone and got no M 163
phone and got in M 163
phone one day in M 162
phone and going to M 162
phase and not by M 162
phone and get in M 161
phone box and the M 160
phase and thus is M 160
phase one with the M 158
phase are not as M 158
phone tag with the M 157
phase lead and the M 157
phase than does the M 155
phone for use in M 154
phone and got an M 154
phone and did the M 154
phase and using the M 154
phase but that the M 153
phone and not the M 152
phase and led to M 152
phone and get to M 151
phone with her in M 150
phone but got no M 150
phone and then in M 150
phase was not an M 150
phase than did the M 150
phase and has no M 150
phone for them to M 148
phase are not so M 148
phase and that no M 146
phone and sat up M 145
phase out all the M 144
phone was that it M 142
phase for one of M 142
phase with that on M 140
phase two and the M 140
phase but not to M 140
phase and due to M 140
phase and let the M 139
phone with you in M 138
phone all day to M 138
phase and that we M 138
phase and that at M 138
phone and then we M 137
phone and then by M 134
phone and get me M 134
phase than that in M 134
phase and has an M 134
phase one can be M 133
phone and that it M 132
phone and goes to M 132
phone rings with the M 130
phone and all of M 130
phase map for the M 130
phase and had to M 130
phone and not to M 129
phone that has the M 128
phone and was in M 128
phone and read it M 128
phase that one of M 128
phase and with an M 128
phase and not of M 128
phone with her as M 127
phase lead can be M 126
phase and has to M 126
phase and had no M 126
phone and put my M 125
phone and get on M 125
phase and use the M 125
phone that one of M 124
phone rings and is M 124
phase had led to M 122
phase with and in M 121
phase and then on M 120
phase and near the M 120
phase and are of M 120
phone with you to M 118
phone rings and an M 118
phone ran out of M 118
phone off and on M 118
phone you for an M 117
phone and get it M 117
phone with him as M 116
phone was put in M 116
phone that this is M 116
phone and this is M 116
phase but this is M 116
phone with all of M 114
phone was set to M 114
phase but for the M 114
phone for one of M 113
phone that you do M 112
phone and was so M 112
phone and now the M 112
phase does not in M 112
phase being that of M 112
phase and not an M 112
phone with one or M 110
phone was one thing M 110
phone did not go M 110
phase with and the M 110
phase that has no M 110
phase and not be M 110
phone and was on M 109
phone and did as M 108
phase was set at M 108
phone was set up M 106
phone him with the M 106
phone and she is M 106
phone and now he M 106
phone and ran up M 105
phase and age of M 105
phone with them at M 104
phone goes off in M 104
phone for all the M 104
phase and was the M 104
phone was not as M 103
phase being due to M 103
phone for two or M 102
phone and had it M 102
phone and bring it M 102
phase are you in M 102
phone with you on M 100
phone box and ring M 100
phase with any of M 100
phase has set in M 100
phase but not at M 100
phase and then is M 100
phase had set in M 99
phone with you if M 98
phone was that the M 98
phone and that is M 98
phase and was in M 98
phone with you so M 96
phone was dead in M 96
phone and that of M 96
phase lead out of M 96
phase and low in M 96
phone was not an M 94
phone that may be M 94
phone can act as M 94
phase she was so M 94
phone box with the M 92
phase but one of M 92
phase but not on M 92
phase both with the M 92
phase and thus it M 92
phase and add up M 92
phone and not be M 91
phone with her the M 90
phone and see the M 90
phase with all of M 90
phase was not of M 90
phase for fear of M 90
phone was near the M 88
phone she had to M 88
phone for all of M 88
phone and had no M 88
phase this may be M 88
phase that has an M 88
phone and they do M 87
phase that all the M 86
phase lead may be M 86
phase being one of M 86
phase and thus be M 86
phase and then at M 86
phone with him the M 84
phone with any of M 84
phone and that we M 84
phone and one in M 84
phase was yet to M 84
phase was set in M 84
phase has all the M 84
phase for both of M 84
phase and that an M 84
phone you and we M 82
phone off for the M 82
phone and cut the M 82
phase than they do M 80
phase lead due to M 80
phase but that it M 80
phase and this in M 80
phase out and the M 56
phone and got on M 48
phone with him so M 47
phone use can be M 45
phone and say we M 45
phone and say the M 45
phase two can be M 45
phase one for the M 41
phase and then as M 40
phone rang and it D 10620
phone rang and he D 10376
phone rang and the D 5526
phone was ringing as D 4530
phone rang off the D 2148
phone rang for the D 2112
phone and hit the D 1810
phone was ringing in D 1563
phone and dial the D 1524
phone rang and my D 1310
phone ringing off the D 1134
phone and rang the D 1120
phase lag due to D 938
phone rang with the D 878
photo was one of D 660
phone rang and we D 642
photo and put it D 514
phone rang and an D 510
phase lag for the D 500
phone had rung at D 488
phase lag can be D 477
photo can not be D 456
phoebe was one of D 456
phone was ringing at D 454
phase lag and the D 451
phone ringing and the D 400
phone and rang up D 395
phone rang all the D 340
phone rang and as D 324
phone was ringing on D 323
phone had rung in D 314
photo she had of D 304
photo was that of D 296
photo and then at D 272
phone rang for me D 272
phoebe was going to D 270
photo does not do D 262
phage can not be D 258
phasing out use of D 242
photo with one of D 236
phoebe put one of D 230
phone ringing all the D 226
phone rang out in D 222
phasing out lead in D 222
phone and dial my D 210
photo that can be D 206
phone rang with an D 202
phobia can not be D 196
phase lag may be D 190
phone rang but he D 186
phobia may not be D 182
phone and fax to D 181
phasing them out in D 180
photo and read the D 176
phone rang and on D 174
photo was not of D 156
photo ops with the D 154
phage that can be D 152
photo may not be D 150
photo for use in D 148
phoebe was not the D 146
photo ops for the D 144
photo did not do D 144
phony and that the D 142
phobia and fear of D 139
phase lag with the D 136
photo that has the D 134
photo and then the D 134
phage can then be D 134
phone rang and no D 133
phoebe was not in D 132
phasing them out of D 132
phone rang that it D 128
photo was not the D 126
phloem can not be D 126
phase lag that is D 124
photo with that of D 122
photo was not in D 122
photo that was in D 120
phyla can not be D 118
photo that ran in D 116
photo and try to D 116
photo and that of D 116
phone rang but no D 116
phase lag than the D 116
photo and set it D 112
phony war and the D 110
phone was ringing by D 110
phone rang six or D 110
phoebe was not to D 110
photo and see if D 108
phoebe and all the D 106
photo that hung on D 104
photo for you to D 102
photo with him in D 100
photo lab and the D 100
phoebe was not so D 98
phase and oil is D 98
phasing out and the D 97
phone rang two or D 96
phase and peak of D 94
photo and use the D 92
photo that was on D 90
phone rang and at D 90
phoebe was out of D 90
phoebe was not at D 90
photo was going to D 88
phone was ringing or D 88
photo was that the D 86
photo can then be D 86
phone rang for an D 86
phone and rang my D 86
phone and fax in D 85
photo and that the D 84
phone with her ex D 82
phasing out all of D 82
phage that has the D 82
photo and all the D 80
phasing out all the D 80
phloem sap and the D 69
phone was ringing so D 63
phone had rung as D 58
phasing them out as D 57
phloem sap can be D 53
phone had rung so D 40
