skipping a meal or M 378
skipping a lot of M 326
skipping a beat as M 324
skipping a beat or M 288
skipping a beat in M 262
skipping a beat at M 250
skipping a day of M 216
skipping a day or M 194
skipping a beat he M 156
skipping a meal is M 122
skipping a year or M 88
skipping a beat the M 88
skipping a few of M 84
sketch a few of D 3191
sketch a map of D 2878
sketch a set of D 837
skills i had to D 452
sketch a way of D 335
sketch a bit of D 321
sketch i did of D 254
sketch i mean no D 160
skills i bring to D 140
sketch a way to D 140
sketch a way in D 122
skimming a pan of D 114
sketch a map to D 94
sketch a seat or D 80
