skipping to a new M 480
sketch of a man D 6681
sketch of a new D 6242
sketch of a few D 3422
skills in a way D 3274
skills in a new D 2947
sketch in a few D 2756
skills to a new D 2292
skills as a way D 1522
skills in a real D 1315
skills as a poet D 984
sketch of a two D 972
sketch of a head D 953
sketch of a boy D 948
skills of a few D 844
sketch of a day D 784
sketch of a map D 730
skills is a key D 688
skirts of a long D 668
sketch of a long D 656
skills of a new D 610
skills in a few D 586
skewed by a few D 560
skills in a fun D 558
skills of a team D 534
skills in a non D 507
sketch of a dog D 471
skills of a man D 470
skills as a team D 460
skills in a job D 438
sketch of a real D 424
skills as a key D 403
sketch of a cat D 402
skinny as i was D 390
skills in a team D 365
skewed in a way D 340
skills is a long D 294
sketch of a lion D 290
sketch of a dead D 290
skills of a job D 286
skills to a real D 279
skills on a par D 274
skills so i can D 260
skirts of a war D 257
sketch of a set D 256
sketch of a bow D 254
skinny as a bean D 247
sketch of a one D 245
sketch of a poem D 244
sketch of a cow D 242
skills of a poet D 236
skulls of a few D 234
sketch of a thin D 226
sketch of a bit D 220
skills of a top D 216
sketch of a way D 214
sketch of a row D 210
sketch of a car D 206
skills go a long D 202
skills in a low D 198
skills to a job D 194
sketch of a year D 188
sketch as i can D 185
skills or a new D 184
skills on a one D 183
skills on a day D 183
skirts of a man D 180
skills is a way D 178
sketch of a big D 176
skidding on a wet D 172
sketch of a song D 162
skills in a one D 159
skinny as a boy D 156
sketch of a poet D 150
skills of a two D 147
sketch in a new D 147
skills to a few D 146
sketch is a son D 146
skills as a new D 140
sketch is a man D 139
sketch of a box D 136
skills as a man D 133
sketch in a way D 131
skulls of a man D 128
sketch of a bear D 128
skills as a set D 127
skulls of a dog D 126
sketch of a non D 125
skills as a boy D 124
sketch of a gas D 123
skills is a new D 120
sketch of a leaf D 115
skills to a team D 114
sketch of a pig D 113
skirts in a way D 112
skinny as a kid D 112
skills on a real D 110
sketch of a law D 110
skills is a real D 108
sketch of a fat D 108
skills to a far D 107
sketch by a man D 106
skulls in a row D 104
skills as i had D 104
skills as a tax D 104
sketch of a beam D 104
skills of a real D 103
skills as a top D 103
skills in a long D 102
skills on a new D 98
skills of a six D 94
sketch by a few D 92
skills do i bring D 90
sketch as a way D 90
skills of a non D 89
sketch of a red D 89
skirts of a few D 88
skills in a bid D 88
skills as a spy D 84
sketch of a gear D 84
skates if i did D 84
sketch of a six D 58
sketch in a bit D 54
sketch of a being D 53
sketch on a pad D 52
skills in a day D 46
skills in a two D 45
skills in a set D 45
sketch of a low D 44
skills to a set D 42
skills is a far D 41
skidding of a car D 41
