how can you be M 308941
how they can be M 283315
how can this be M 263471
how this can be M 181272
how can they be M 168037
how long does it M 166294
how can that be M 164617
how and why the M 148920
how they are to M 148222
how they may be M 131558
how did you do M 124284
how long did it M 89716
how long has it M 83652
how are they to M 79338
how can you do M 72948
how then can we M 62770
how and why it M 60852
how this may be M 60102
how they did it M 56509
how are you to M 54752
how was she to M 48406
how can one be M 48340
how far does the M 46538
how far this is M 45910
how you can be M 43614
how long has he M 43150
how long did the M 38699
how long had it M 37290
how you say it M 36394
how you did it M 36318
how long does the M 34436
how long had he M 34236
how long has the M 33711
how this was to M 33338
how then are we M 33332
how and why of M 33071
how then can the M 32422
how far are we M 32045
how that can be M 32014
how does one go M 31763
how and why we M 30186
how you are to M 30014
how far can we M 29996
how she did it M 29308
how and why he M 29227
how long was it M 29134
how you can do M 29078
how did they do M 27893
how far and in M 27662
how far can the M 25869
how can you go M 25618
how can she be M 25222
how then can it M 24628
how long ago it M 24420
how long are we M 23746
how long was the M 22718
how old was he M 22584
how long did he M 22446
how and why do M 22399
how was this to M 21880
how far did the M 21590
how far does it M 21524
how things are in M 21250
how can they do M 20906
how was one to M 20834
how long can we M 20025
how she was to M 19460
how they say it M 17824
how long can the M 17780
how you use it M 17618
how did you go M 17498
how then does the M 17152
how are things in M 16527
how you use the M 15680
how far has the M 15307
how she does it M 15208
how they had to M 14994
how and why to M 14767
how far was the M 14690
how did she do M 14673
how far are the M 14656
how may they be M 14266
how you get on M 14129
how are things at M 14014
how then can he M 13620
how long ago the M 13620
how they got to M 13510
how long was he M 13148
how far was it M 13040
how one can be M 12938
how few are the M 12896
how they see the M 12748
how they can do M 12738
how far off the M 12678
how old she is M 12660
how she had to M 12456
how long are the M 12282
how all this is M 11976
how you see it M 11962
how they use the M 11906
how may this be M 11866
how can god be M 11694
how then did the M 11536
how they got the M 11094
how you going to M 11006
how does she do M 10960
how you see the M 10688
how you got the M 10508
how that may be M 10446
how old are the M 10364
how long can it M 10180
how you got to M 10038
how old was the M 9992
how things can be M 9718
how long had the M 9650
how they try to M 9610
how far out of M 9486
how far did he M 9376
how and why is M 9209
how you can go M 9106
how can any of M 8932
how god can be M 8837
how then does it M 8668
how each one of M 8516
how did things go M 8479
how you get to M 8460
how you may be M 8454
how they use it M 8425
how you got it M 8226
how big was the M 8200
how does one do M 8092
how far can it M 8014
how she got the M 7978
how are all the M 7952
how far you go M 7776
how they fit in M 7642
how you try to M 7536
how you set up M 7449
how she can be M 7448
how can you eat M 7357
how things are to M 7264
how big are the M 7210
how does each of M 7152
how far has it M 7098
how can man be M 7070
how you get the M 7036
how far did it M 6984
how they are in M 6904
how they got it M 6874
how long does he M 6758
how you had to M 6706
how you get it M 6688
how she put it M 6670
how she and the M 6666
how far was he M 6541
how you and the M 6514
how then was it M 6472
how she got to M 6372
how can she do M 6354
how they saw the M 6116
how does all of M 6090
how are you at M 6010
how far that is M 5990
how far any of M 5990
how are they the M 5810
how they got on M 5615
how long can he M 5586
how any one of M 5562
how one day he M 5528
how easy was it M 5498
how then are the M 5482
how they are the M 5362
how then does he M 5362
how bad was it M 5360
how they act in M 5344
how far does he M 5340
how this was the M 5180
how you put it M 5170
how they did so M 5168
how and why an M 5130
how one and the M 5076
how long ago is M 5036
how far they go M 5030
how did that go M 5026
how each can be M 4988
how far each of M 4928
how bad can it M 4884
how things are at M 4865
how she got it M 4858
how you got on M 4804
how far can he M 4776
how that was to M 4718
how far may the M 4688
how did they go M 4675
how she was the M 4644
how then did he M 4634
how can one do M 4578
how can men be M 4546
how far off is M 4538
how was that to M 4508
how then was the M 4438
how are you so M 4419
how far she is M 4382
how far one is M 4368
how you see me M 4270
how far has he M 4268
how you got in M 4239
how far and to M 4238
how then did it M 4156
how things may be M 4124
how each one is M 4084
how they lead to M 4078
how far had the M 4020
how they and the M 3982
how did each of M 3980
how they got in M 3938
how one set of M 3893
how one may be M 3850
how big was it M 3832
how this idea of M 3814
how long this is M 3714
how you are in M 3711
how far off it M 3686
how men can be M 3668
how far had he M 3666
how are you on M 3587
how they get the M 3582
how this led to M 3560
how they can go M 3548
how they see it M 3542
how did all of M 3540
how this way of M 3490
how one has to M 3454
how they get to M 3442
how can all the M 3420
how they put it M 3412
how can they go M 3400
how you cut it M 3392
how they won the M 3378
how they get it M 3370
how they get on M 3343
how can one go M 3328
how she was so M 3284
how can you so M 3280
how can all of M 3280
how long each of M 3252
how far may we M 3238
how long and in M 3236
how all that is M 3152
how are men to M 3132
how you mean to M 3104
how she had the M 3084
how bad was the M 3060
how long ago he M 3058
how easy this is M 3032
how she was in M 3012
how each may be M 2976
how you set the M 2970
how real was the M 2962
how can each of M 2908
how one was to M 2890
how long does an M 2886
how she saw the M 2880
how she may be M 2868
how you put up M 2866
how this was so M 2782
how they act on M 2775
how then may we M 2766
how any man of M 2756
how things can go M 2728
how they bear on M 2698
how can you as M 2666
how long did we M 2650
how are you in M 2648
how she got on M 2638
how man can be M 2626
how men are to M 2605
how did one go M 2574
how are things on M 2542
how long and to M 2530
how may that be M 2490
how are you my M 2472
how they are so M 2419
how can things be M 2394
how weak was the M 2350
how things are or M 2350
how far out the M 2338
how she can do M 2336
how god may be M 2330
how they set up M 2326
how they fit the M 2326
how this idea is M 2320
how she saw it M 2312
how one does it M 2312
how sad that the M 2308
how long that is M 2280
how they had the M 2276
how then was he M 2274
how they are at M 2271
how one can go M 2256
how are all of M 2256
how this set of M 2246
how near was the M 2240
how you read the M 2220
how odd that he M 2214
how and why in M 2172
how you can eat M 2148
how long and at M 2112
how you read it M 2096
how they did the M 2094
how far and by M 2074
how they saw it M 2036
how you put the M 2014
how can she go M 2014
how can one of M 2014
how far east or M 2000
how they see us M 1995
how you did on M 1967
how are each of M 1952
how you act in M 1950
how one day the M 1944
how does this thing M 1944
how did she go M 1944
how apt are we M 1932
how easy was the M 1904
how things got to M 1891
how one day in M 1890
how can you sing M 1888
how did all the M 1864
how then can an M 1852
how can any thing M 1848
how real are the M 1842
how they led to M 1826
how long can an M 1800
how can you or M 1792
how easy that is M 1790
how she goes on M 1788
how far can an M 1786
how far out on M 1777
how she got in M 1771
how his use of M 1770
how both can be M 1766
how they did in M 1762
how that was the M 1762
how long may it M 1762
how and why so M 1757
how they may do M 1746
how far they do M 1728
how you did the M 1722
how say you to M 1712
how long any of M 1708
how can both be M 1702
how you end up M 1698
how bad are the M 1676
how does that go M 1674
how she has to M 1672
how any man in M 1670
how far may it M 1666
how they are or M 1656
how you had the M 1638
how far out in M 1632
how long had we M 1620
how odd that the M 1618
how they may or M 1608
how then has it M 1596
how one can do M 1590
how long may the M 1580
how things are is M 1576
how they act as M 1576
how long she is M 1572
how far did we M 1566
how does any of M 1564
how she had no M 1556
how they read the M 1546
how you fit in M 1506
how does she go M 1500
how far all the M 1496
how can not be M 1496
how are they in M 1480
how then has the M 1470
how are things up M 1465
how this use of M 1460
how one had to M 1455
how weak are the M 1454
how they put the M 1418
how sad that we M 1412
how few can be M 1404
how can you in M 1395
how far each is M 1372
how bad this is M 1372
how sad that he M 1358
how long for the M 1354
how easy for the M 1348
how ill she is M 1342
how far off we M 1332
how they cling to M 1330
how far off he M 1326
how you get in M 1325
how this act of M 1324
how they mean to M 1324
how they add to M 1324
how bad does it M 1324
how far had it M 1320
how men may be M 1319
how did this thing M 1304
how low was the M 1302
how you saw the M 1284
how one who is M 1280
how each set of M 1270
how are you the M 1266
how you got so M 1264
how can this thing M 1264
how you are at M 1262
how god and the M 1262
how far due to M 1262
how far man is M 1260
how this law is M 1254
how old was it M 1248
how far out to M 1242
how you saw it M 1234
how and why my M 1232
how can one thing M 1228
how dear she is M 1200
how they end up M 1175
how they set the M 1172
how can both of M 1166
how bad she is M 1164
how any one in M 1160
how our use of M 1148
how all things in M 1146
how she had so M 1144
how you and he M 1142
how sad was the M 1142
how they long to M 1138
how she and my M 1116
how near are we M 1116
how far this or M 1115
how far does an M 1104
how big she is M 1100
how this and the M 1094
how they act is M 1092
how say you by M 1088
how you are the M 1086
how they act to M 1082
how then may the M 1082
how they get in M 1078
how are they at M 1075
how then did we M 1074
how she got so M 1063
how you run the M 1062
how things had to M 1061
how they had no M 1060
how mean you by M 1058
how they got up M 1046
how you did in M 1042
how they got so M 1031
how they put up M 1025
how you long to M 1022
how did any of M 1022
how you ask the M 1020
how you set it M 1012
how can each be M 1012
how you all do M 1006
how things are on M 1006
how she was at M 1006
how long may we M 1006
how long one is M 1004
how can one so M 1004
how then can my M 998
how she had at M 994
how they add up M 986
how war can be M 984
how she put up M 981
how this man is M 976
how that god by M 976
how can death be M 976
how you got me M 968
how she did so M 965
how they did on M 956
how did one of M 950
how big was he M 950
how far one of M 944
how that led to M 942
how any set of M 936
how one goes to M 934
how long this thing M 934
how far out it M 934
how bad off he M 924
how she got up M 923
how they act or M 922
how you run on M 920
how may one be M 916
how far this thing M 916
how far out we M 916
how they got me M 910
how big does the M 910
how are all my M 910
how odd that it M 896
how sad that so M 892
how they can or M 890
how can then the M 890
how things are as M 888
how sad that it M 888
how they going to M 880
how this war is M 876
how low can we M 876
how she can go M 874
how you may do M 870
how this man of M 870
how far out is M 870
how odd that we M 866
how are they so M 858
how easy had it M 850
how big this thing M 850
how far and at M 848
how had you the M 842
how can one in M 842
how this has to M 840
how you say the M 832
how bad that is M 832
how far and on M 829
how this son of M 828
how can god do M 820
how you got my M 812
how this law of M 806
how you are so M 802
how far had we M 802
how does one of M 802
how this was an M 800
how man may be M 790
how sad that is M 788
how this area of M 786
how old are we M 786
how low can the M 784
how you and me M 776
how may each of M 776
how one day at M 774
how are all at M 774
how are any of M 766
how old one is M 764
how you won the M 762
how sad for the M 758
how can all be M 757
how long has my M 756
how they had so M 754
how this one is M 752
how this bit of M 752
how they run the M 752
how you mean it M 750
how weak she is M 750
how did one do M 749
how one may go M 748
how all that he M 748
how that all the M 745
how old had he M 744
how god did it M 744
how can they eat M 740
how can men of M 738
how long you in M 736
how can they in M 733
how they are as M 730
how long ago we M 730
how far god is M 730
how war may be M 728
how long ago do M 728
how big this is M 728
how any man or M 728
how you got up M 727
how sad this is M 726
how did you eat M 723
how may you be M 722
how you act on M 721
how long you do M 720
how are you as M 717
how you get up M 713
how you say in M 706
how they see me M 700
how few men of M 700
how far out do M 698
how then does an M 692
how his idea of M 692
how far all of M 692
how this end is M 690
how did you or M 690
how big god is M 690
how can war be M 688
how you are as M 686
how law can be M 686
how things are the M 685
how you saw me M 684
how can two or M 684
how she had it M 682
how death can be M 682
how all that we M 682
how her use of M 678
how they got my M 676
how she did the M 676
how new was the M 676
how big can the M 676
how near are the M 675
how god was to M 672
how you bear it M 668
how they bring up M 666
how one got to M 662
how any can be M 662
how things got so M 660
how they cut the M 652
how sad she is M 652
how his way of M 652
how does use of M 652
how far that of M 650
how our way of M 648
how they saw me M 646
how long may be M 646
how long and by M 645
how she was on M 644
how they read it M 642
how long can my M 642
how far out he M 640
how does this go M 638
how far may he M 632
how does god do M 628
how she put the M 626
how she got my M 626
how and who to M 625
how they can in M 624
how far then is M 622
how apt are the M 622
how she saw me M 620
how few men in M 620
how you and my M 619
how they beat the M 616
how they map to M 610
how they ran the M 608
how she sat in M 608
how can sin be M 608
how both may be M 608
how long ago an M 606
how any one is M 606
how does all the M 604
how far one or M 600
how bad off we M 598
how not one of M 594
how get rid of M 594
how does this or M 594
how bad was he M 594
how can one eat M 592
how you let it M 590
how does she or M 590
how she sat on M 586
how can you if M 586
how can both the M 584
how they lie in M 582
how man and the M 581
how one day we M 580
how you cut the M 576
how she has the M 576
how big can it M 576
how long one of M 570
how you can so M 568
how far may be M 568
how near god is M 566
how may each be M 566
how all things go M 564
how this area is M 562
how has each of M 560
how they can so M 558
how sad are the M 558
how far both the M 554
how you let me M 552
how they may go M 552
how she won the M 552
how you get so M 551
how that man is M 550
how she does the M 550
how was man to M 546
how far can or M 546
how big that is M 546
how they did or M 544
how odd that is M 544
how you bear the M 542
how they sat in M 542
how far east the M 540
how man can do M 538
how they all go M 537
how they are of M 534
how odd this is M 532
how far off do M 531
how she did in M 530
how things are by M 528
how she was as M 528
how can they if M 528
how you get an M 526
how they lead us M 526
how this heat is M 524
how old age is M 524
how god does it M 524
how they had at M 522
how this goes on M 521
how far east of M 518
how one idea is M 514
how she was an M 512
how with all the M 507
how you let the M 506
how you act as M 506
how she led the M 506
how our idea of M 506
how dear are the M 506
how they can eat M 504
how then has he M 504
how easy then to M 504
how they all do M 502
how can you of M 500
how long hath he M 498
how easy are the M 498
how and not the M 497
how big does it M 496
how for him the M 494
how old did he M 492
how mad she is M 490
how far any thing M 486
how are you by M 486
how then may it M 484
how did god do M 484
how she was or M 482
how you pay me M 480
how sin can be M 480
how can they so M 479
how they are an M 478
how you get at M 476
how few are to M 476
how you act or M 474
how each area of M 474
how you hear the M 472
how low are the M 472
how long may he M 470
how deal with the M 470
how does one in M 469
how you act is M 468
how things may go M 466
how kings are to M 462
how can any be M 462
how and why at M 461
how his son is M 460
how they had it M 458
how she set up M 457
how you aim to M 456
how can you at M 456
how long ago in M 454
how are things to M 454
how one does the M 452
how his head is M 452
how they did eat M 449
how then had he M 446
how you did so M 445
how you cling to M 444
how you are on M 442
how did you he M 442
how they aid in M 440
how then had the M 440
how this aim is M 438
how old that is M 438
how can you he M 438
how long and on M 436
how its use is M 436
how can this he M 436
how are both of M 436
how new are the M 434
how you may go M 432
how his job is M 430
how few are at M 430
how she goes to M 428
how did they eat M 428
how any but the M 428
how you fit the M 426
how they set to M 426
how you put on M 424
how few out of M 424
how can things go M 424
how and why am M 424
how and who of M 424
how they aim to M 420
how that law is M 420
how that way of M 418
how old was my M 418
how can men do M 418
how you sit in M 416
how that was so M 416
how near this is M 416
how they are on M 415
how heat can be M 414
how far off in M 414
how far any or M 414
how each was to M 412
how can they sing M 412
how did this go M 411
how can she or M 410
how you see us M 408
how you ask it M 408
how was each of M 408
how they get so M 408
how long they do M 408
how far men of M 408
how are going to M 408
how they lay in M 407
how all can be M 406
how does one eat M 405
how you are or M 404
how few can we M 402
how one did it M 400
how far may an M 400
how any two of M 400
how now are we M 398
how long may an M 398
how she had an M 396
how are you or M 396
how was this so M 395
how was she so M 394
how you hear it M 392
how does using the M 392
how long and the M 390
how far does my M 390
how you fix it M 388
how they and we M 388
how all may be M 388
how this job is M 386
how this act is M 386
how one day it M 385
how you sat in M 384
how one man is M 384
how long you go M 382
how its going to M 382
how does that thing M 382
how they act at M 380
how her son is M 380
how each day is M 380
how but not the M 380
how bad off the M 380
how and who is M 380
how this was in M 378
how each job is M 378
how bad can the M 378
how this had to M 376
how they say the M 376
how that idea is M 376
how mean she is M 376
how you can sing M 374
how they got by M 374
how they beat me M 374
how long with the M 374
how god was at M 372
how you all go M 370
how that one of M 370
how one bit of M 370
how fear can be M 370
how cut off we M 370
how one man in M 366
how wit may be M 364
how she lay in M 364
how long they go M 364
how men act in M 362
how you doing on M 360
how this can go M 360
how things got the M 360
how death may be M 360
how you got us M 358
how they had an M 358
how they can at M 358
how old all the M 358
how man was to M 358
how far can be M 358
how god can do M 357
how old each of M 356
how this fear of M 354
how they can he M 354
how that bit of M 354
how long all of M 354
how easy may it M 354
how can law be M 354
how and why as M 354
how all but the M 354
how they get up M 352
how near death he M 352
how long does my M 352
how god was in M 352
how things are up M 350
how you beat the M 348
how they got at M 348
how long all the M 348
how his fear of M 348
how they put on M 346
how they ate it M 346
how she and he M 346
how can that of M 346
how one goes on M 344
how one area of M 344
how can this go M 344
how can man do M 344
how all was in M 344
how you did at M 342
how this sum of M 342
how her head is M 342
how bad does the M 342
how was she in M 341
how they use or M 340
how they bring the M 340
how say you of M 340
how long ago or M 340
how you bring up M 339
how this gap is M 338
how old does he M 336
how near can we M 336
how does being in M 334
how far this in M 333
how you doing in M 332
how she got me M 332
how each man is M 330
how they sat on M 328
how can one at M 328
how was they to M 324
how that set of M 324
how near she is M 324
how god led the M 324
how you put in M 322
how they sit in M 322
how she ran the M 322
how long was my M 322
how that got in M 319
how she did on M 318
how may not be M 318
how few men we M 318
how few men he M 318
how far out at M 316
how did that thing M 315
how they are no M 314
how easy can it M 314
how they may in M 313
how you had no M 312
how she read the M 312
how far they or M 312
how easy for me M 312
how any act of M 312
how you put me M 310
how two men of M 310
how get out of M 310
how can and do M 310
how this sum is M 308
how they hear the M 308
how things end up M 306
how they arc to M 306
how old this is M 306
how low can it M 306
how her fear of M 306
how has all of M 306
how two things so M 304
how this may or M 304
how they did go M 304
how they fit or M 302
how she ran to M 302
how she has no M 302
how far for the M 302
how you sit on M 300
how she does so M 300
how each bit of M 300
how you win the M 298
how you bring the M 298
how long you or M 298
how bad did he M 298
how things are so M 297
how war was to M 296
how long this or M 296
how easy she is M 296
how each area is M 296
how did they in M 295
how ill you do M 294
how does his or M 294
how did they so M 294
how you beat me M 292
how they use to M 292
how they hung on M 292
how old does the M 292
how does this in M 292
how bad did it M 292
how they had in M 290
how they get by M 290
how had she so M 290
how does she eat M 290
how are you he M 290
how was any of M 288
how things are if M 288
how and who we M 287
how she had in M 286
how long his or M 284
how you run it M 282
how and out of M 282
how you get by M 280
how you are an M 280
how old you is M 280
how dear was the M 280
how wet she is M 278
how they did sing M 278
how ill she do M 278
how did using the M 276
how aid can be M 276
how long you be M 274
how few are so M 274
how cut off he M 274
how can they he M 274
how are both the M 274
how they saw us M 273
how was all of M 272
how few they be M 272
how does one thing M 272
how this one or M 270
how they ate the M 270
how our being is M 270
how did you so M 269
how you add it M 268
how near does it M 268
how can that he M 268
how they bear the M 266
how they bear it M 266
how shy she is M 266
how she was no M 266
how she sat at M 266
how this poem is M 264
how they led the M 264
how long she or M 264
how that one is M 262
how one way of M 262
how each year the M 262
how apt one is M 262
how she lit up M 260
how one act of M 260
how men cling to M 260
how can things so M 260
how can one by M 260
how you add the M 258
how they saw to M 258
how long each is M 258
how can she sing M 258
how far they be M 256
how can heat be M 256
how they got us M 254
how they are by M 254
how near does the M 254
how you use an M 252
how you earn it M 252
how this man or M 252
how they pay it M 252
how one end of M 252
how men try to M 252
how does that do M 252
how bad off is M 252
how can this or M 251
how that son of M 250
how can they at M 250
how can one or M 248
how you can in M 246
how they may he M 246
how they let the M 246
how law and the M 246
how she put on M 245
how you add to M 244
how they get at M 244
how that you do M 244
how its use in M 244
how can men in M 244
how big are we M 244
how one day as M 243
how you set me M 242
how you get me M 242
how they read in M 242
how they may at M 242
how she does in M 242
how one led to M 242
how far with the M 242
how can two be M 242
how this has an M 240
how they are is M 240
how now can the M 240
how long did my M 240
how did you in M 240
how can being be M 240
how any one so M 240
how you are by M 239
how you use to M 238
how you buy it M 238
how real was it M 238
how long they or M 238
how god had so M 238
how far his or M 238
how you are is M 236
how that she is M 236
how that end is M 236
how that day he M 236
how had she the M 236
how for all the M 235
how you set to M 234
how they let me M 234
how one can in M 234
how use can be M 232
how they hang on M 232
how few are in M 232
how you bring it M 230
how she sat up M 230
how air can be M 230
how all goes on M 229
how each day the M 228
how can one sing M 228
how you sit or M 226
how that this is M 226
how sin may be M 226
how real this is M 226
how him and me M 226
how that has to M 224
how real god is M 224
how god has so M 224
how you can or M 222
how they set it M 222
how they lead the M 222
how men who do M 222
how men are in M 222
how you did or M 220
how that god is M 220
how that act is M 220
how sad that in M 220
how low does the M 220
how long can be M 220
how god had to M 220
how you had it M 218
how they buy it M 218
how they aid the M 218
how one does so M 218
how easy for us M 218
how did both the M 218
how can that thing M 218
how bad can he M 218
how now does the M 216
how you got by M 214
how two men in M 214
how they was to M 214
how they did at M 214
how then had it M 214
how one can or M 214
how few see the M 214
how apt was the M 214
how all was at M 214
how that job is M 212
how men had to M 212
how did this or M 212
how bad has it M 212
how any one at M 212
how heat may be M 211
how you use or M 210
how you see my M 210
how you pay the M 210
how you led to M 210
how this fear is M 210
how they hear it M 210
how can this in M 210
how they sat at M 208
how sad not to M 208
how odd that in M 208
how near man is M 208
how any man is M 208
how one day on M 207
how near may be M 207
how you got at M 206
how they run to M 206
how they fit on M 206
how then did my M 206
how her day is M 206
how far and no M 206
how can use of M 206
how can then we M 206
how can god the M 206
how one day an M 205
how far this so M 205
how with all my M 204
how this can he M 204
how things get to M 204
how odd are the M 204
how near did the M 204
how math can be M 204
how can using the M 204
how they did by M 202
how that was in M 202
how that idea of M 202
how one man of M 202
how law may be M 202
how his death is M 202
how far off my M 202
how each one in M 202
how bad for the M 202
how you lay the M 200
how they put me M 200
how his doing so M 200
how far both of M 200
how does being an M 200
how can that do M 200
how being can be M 200
how they put in M 199
how they beat up M 199
how you use me M 198
how they let us M 198
how they cut to M 198
how they cut it M 198
how that boy is M 198
how long ago no M 198
how ill did the M 198
how easy now to M 198
how each day he M 198
how death was to M 198
how and for the M 198
how weak man is M 196
how they sit on M 196
how few things in M 196
how big each of M 196
how that had to M 195
how they see or M 194
how they hid in M 194
how they get us M 194
how that war is M 194
how one can at M 194
how odd that an M 194
how far off or M 194
how you lead the M 192
how may heat be M 192
how ill does it M 192
how her way of M 192
how far all or M 192
how you act at M 190
how this can or M 190
how they beat us M 190
how that was an M 190
how that act of M 190
how men say the M 190
how low did the M 190
how long out of M 190
how long ere the M 190
how you both do M 188
how this was my M 188
how this mix of M 188
how they sum up M 188
how say you in M 188
how sad was my M 188
how god was the M 188
how far but the M 188
how can they or M 188
how all that the M 188
how was all the M 186
how they got an M 186
how sad for us M 186
how men can go M 186
how may all the M 186
how far then do M 186
how does one be M 185
how they lay on M 184
how near one is M 184
how has all the M 184
how did she or M 184
how are they of M 184
how they cut up M 183
how and why no M 183
how they put us M 182
how god has in M 182
how can she eat M 182
how can air be M 182
how things add up M 181
how she use to M 180
how she sat by M 180
how she can sing M 180
how now can we M 180
how low may be M 180
how bad this thing M 180
how you set an M 178
how this use is M 178
how they earn it M 178
how she let me M 178
how one was in M 178
how god led me M 178
how fit that we M 178
how few may be M 178
how far one thing M 178
how you mix it M 176
how they can sing M 176
how that for my M 176
how she read it M 176
how near one to M 176
how its use of M 176
how had this thing M 176
how had all of M 176
how far they in M 176
how far not to M 176
how can she if M 176
how all men of M 176
how you are my M 174
how this web of M 174
how this was no M 174
how one idea or M 174
how nor why it M 174
how man was at M 174
how you die is M 172
how she had on M 172
how she cut the M 172
how sad for me M 172
how and had the M 172
how you may or M 170
how things run in M 170
how they may so M 170
how long and he M 170
how his day is M 170
how you beat up M 168
how they bear up M 168
how that and the M 168
how old any of M 168
how myth can be M 168
how for them the M 168
how few things he M 168
how did both of M 168
how all things do M 168
how and all the M 167
how that sum is M 166
how she lay on M 166
how old did the M 166
how long ago my M 166
how him and the M 166
how got rid of M 166
how god who is M 166
how does going to M 166
how bias can be M 166
how they mix up M 165
how she saw in M 165
how this did or M 164
how this bias is M 164
how they run it M 164
how odd not to M 164
how near death is M 164
how men can do M 164
how low she is M 164
how can fear be M 164
how are you an M 164
how you was the M 162
how was this thing M 162
how this fit in M 162
how they won it M 162
how they run in M 162
how that use is M 162
how she got by M 162
how men with the M 162
how long had my M 162
how far east it M 162
how can then it M 162
how can men so M 162
how this can in M 160
how they fit to M 160
how that they in M 160
how that all is M 160
how old man is M 160
how near that is M 160
how far out or M 160
how far did my M 160
how you read my M 158
how this myth of M 158
how this boy is M 158
how they bring in M 158
how old you be M 158
how for use in M 157
how you fix the M 156
how she fit in M 156
how she can eat M 156
how put out he M 156
how one day my M 156
how his was the M 156
how easy has it M 156
how you can at M 154
how you act to M 154
how this was at M 154
how this myth is M 154
how she was my M 154
how one man or M 154
how had all the M 154
how had all my M 154
how far she or M 154
how did you the M 154
how she hung on M 153
how you sat on M 152
how you got an M 152
how war and the M 152
how they may by M 152
how they bring to M 152
how they bring it M 152
how that fit in M 152
how she beat the M 152
how one got the M 152
how old can he M 152
how his act of M 152
how each saw the M 152
how both are to M 152
how any one thing M 152
how and why on M 152
how you let go M 150
how was one of M 150
how this set is M 150
how they fear the M 150
how that area is M 150
how near was he M 150
how mean are the M 150
how and you do M 150
how they fly in M 149
how men run on M 149
how you see or M 148
how you ask me M 148
how this one thing M 148
how this being is M 148
how they ran to M 148
how that man of M 148
how one saw the M 148
how men see the M 148
how low you go M 148
how long but it M 148
how far can my M 148
how did you as M 148
how apt she is M 148
how and with the M 148
how you sit to M 146
how you mix the M 146
how you hid in M 146
how they lie to M 146
how they lay the M 146
how they bring us M 146
how she led me M 146
how she hid in M 146
how she got an M 146
how our fear of M 146
how far now to M 146
how you say no M 145
how you lay in M 144
how things that we M 144
how they and he M 144
how one that is M 144
how for each of M 144
how far owing to M 144
how big can we M 144
how this new thing M 142
how this idea or M 142
how this day is M 142
how she set the M 142
how one day to M 142
how his team is M 142
how any son of M 142
how two can be M 140
how they die in M 140
how they act up M 138
how that they be M 138
how she out of M 138
how near does he M 138
how far east he M 138
how and that he M 138
how was that so M 137
how you led the M 136
how you end the M 136
how with him the M 136
how they ask the M 136
how then and on M 136
how his pay is M 136
how does fear of M 136
how did men of M 136
how can god in M 136
how you two do M 135
how you end it M 134
how weak was my M 134
how this man in M 134
how they sat up M 134
how they mean it M 134
how she may do M 134
how real she is M 134
how one put it M 134
how long and so M 134
how far yet to M 134
how big that thing M 134
how they led up M 133
how you won it M 132
how you was to M 132
how you cut up M 132
how this may in M 132
how they say or M 132
how that area of M 132
how she had me M 132
how new this is M 132
how may men be M 132
how had any of M 132
how does god in M 132
how did his or M 132
how and then to M 132
how they use us M 130
how they ran up M 130
how then was an M 130
how that may or M 130
how she did go M 130
how our earth is M 130
how now does he M 130
how not all of M 130
how near they be M 130
how men get to M 130
how mean was the M 130
how kin she go M 130
how her eye is M 130
how god has to M 130
how few things we M 130
how far has an M 130
how any one or M 130
how and not to M 130
how this gap in M 128
how they hid the M 128
how red are the M 128
how one year he M 128
how man hung on M 128
how far off to M 128
how easy can the M 128
how does not the M 128
how bad all the M 128
how you had me M 126
how you doing up M 126
how you did as M 126
how they map the M 126
how they lit up M 126
how they lead up M 126
how then can so M 126
how she does on M 126
how one read the M 126
how one may or M 126
how one may do M 126
how god was so M 126
how fit that he M 126
how can two of M 126
how are two or M 126
how all things on M 126
how all are to M 126
how you ran the M 124
how you lay it M 124
how you bring in M 124
how this too is M 124
how things use to M 124
how they led me M 124
how one out of M 124
how god put the M 124
how each act of M 124
how bad are we M 124
how things fit in M 123
how but for the M 123
how you see an M 122
how was this in M 122
how was this an M 122
how they set me M 122
how they for the M 122
how they fly to M 122
how they did as M 122
how she hid the M 122
how our son is M 122
how one got it M 122
how near did he M 122
how few has it M 122
how few can it M 122
how far off an M 122
how far his is M 122
how dear that is M 122
how big can an M 122
how that god in M 121
how you lie in M 120
how you bear up M 120
how was not the M 120
how things and the M 120
how they lie on M 120
how that use of M 120
how she got us M 120
how one can eat M 120
how few can do M 120
how each team is M 120
how apt man is M 120
how you win in M 118
how was going to M 118
how they pay the M 118
how she read to M 118
how she goes it M 118
how odd was the M 118
how men are so M 118
how long yet to M 118
how far you do M 118
how death and the M 118
how bad may be M 118
how are you of M 118
how are you is M 118
how arc they to M 118
how they say in M 116
how they let it M 116
how they can by M 116
how that man in M 116
how that fear is M 116
how sad that my M 116
how one does or M 116
how long god is M 116
how has being in M 116
how had one of M 116
how each idea is M 116
how did she eat M 116
how cut off the M 116
how are you do M 116
how are two of M 116
how this cry of M 114
how they did do M 114
how then does my M 114
how that can go M 114
how set out in M 114
how not all the M 114
how men are the M 114
how can you on M 114
how two men so M 113
how you led us M 112
how they sit or M 112
how that was my M 112
how she saw us M 112
how our day is M 112
how men can so M 112
how far east is M 112
how can god as M 112
how big did the M 112
how are they as M 112
how she had by M 111
how you say to M 110
how she was of M 110
how mean you to M 110
how may air be M 110
how his eye is M 110
how got they in M 110
how for him it M 110
how fear may be M 110
how earth and the M 110
how does she sing M 110
how you ate it M 108
how weak are my M 108
how this path is M 108
how this had an M 108
how they did ring M 108
how that this king M 108
how near one of M 108
how far things go M 108
how far men go M 108
how each man in M 108
how being out of M 108
how bad sin is M 108
how can she so M 107
how can man in M 107
how this got in M 106
how this god is M 106
how they saw my M 106
how that heat is M 106
how that aid is M 106
how real that is M 106
how man had to M 106
how low that is M 106
how long has an M 106
how for fear of M 106
how far east we M 106
how dear you be M 106
how are you up M 106
how aging can be M 106
how does this so M 105
how and can do M 105
how you sit at M 104
how they mix the M 104
how they did to M 104
how they are if M 104
how that day or M 104
how one does in M 104
how old are my M 104
how odd that my M 104
how long they be M 104
how long then is M 104
how god set up M 104
how get you on M 104
how far are my M 104
how each day of M 104
how you hang on M 103
how yes and no M 103
how any man so M 103
how and has the M 103
how you own it M 102
how you led me M 102
how you did me M 102
how you ask is M 102
how was god to M 102
how this map is M 102
how this has the M 102
how they hang in M 102
how she let the M 102
how one saw it M 102
how one man at M 102
how man has to M 102
how low had he M 102
how long that thing M 102
how long did an M 102
how its way of M 102
how far men at M 102
how far each thing M 102
how each year he M 102
how but why the M 102
how and why by M 101
how you fit it M 100
how this can do M 100
how they end by M 100
how sin led to M 100
how now does it M 100
how long that he M 100
how long ere we M 100
how her job is M 100
how for joy he M 100
how does not it M 100
how can bias be M 100
how are not the M 100
how all six of M 100
how you use my M 98
how use may be M 98
how two out of M 98
how they say to M 98
how they may eat M 98
how she ate the M 98
how long now it M 98
how her idea of M 98
how each way of M 98
how did she at M 98
how apt that the M 98
how you try it M 96
how you mean the M 96
how you log in M 96
how this goes in M 96
how this god of M 96
how they put to M 96
how they had me M 96
how that goes on M 96
how that end of M 96
how she has so M 96
how pay can be M 96
how nor why he M 96
how how far the M 96
how his day at M 96
how far both he M 96
how does then the M 96
how big does he M 96
how she put in M 95
how you run an M 94
how you lie to M 94
how you fly in M 94
how two things or M 94
how this that is M 94
how this aid is M 94
how then hath it M 94
how that can do M 94
how she did at M 94
how our being in M 94
how odd that so M 94
how few can go M 94
how does god the M 94
how bad his or M 94
how are they or M 94
how and try to M 93
how and that is M 93
how you deal in M 92
how this sin is M 92
how they ran in M 92
how they ask it M 92
how that death is M 92
how she was by M 92
how say you the M 92
how one has the M 92
how may god be M 92
how long that it M 92
how long and it M 92
how god had in M 92
how far that or M 92
how does this at M 92
how dim was the M 92
how can joy be M 92
how can his or M 92
how can any king M 92
how can aid be M 92
how bad does he M 92
how she read in M 91
how you see is M 90
how you say or M 90
how you read to M 90
how you pay us M 90
how was that the M 90
how this song is M 90
how this does or M 90
how this day of M 90
how this all is M 90
how things can or M 90
how they fix the M 90
how they earn the M 90
how they die is M 90
how they deal in M 90
how they act the M 90
how that aim is M 90
how she ate it M 90
how one with the M 90
how one team of M 90
how one can so M 90
how men may by M 90
how has this thing M 90
how can things in M 90
how you did to M 88
how this age of M 88
how they aim at M 88
how she won us M 88
how she saw an M 88
how she going to M 88
how our god is M 88
how one boy in M 88
how old one of M 88
how odd that no M 88
how long that we M 88
how its use as M 88
how ill has the M 88
how god led us M 88
how fit she is M 88
how dead one is M 88
how arc you to M 88
how any use of M 88
how and then he M 88
how all was to M 88
how for all of M 87
how you say my M 86
how you put an M 86
how you earn the M 86
how too bad it M 86
how this way is M 86
how they win the M 86
how they sit at M 86
how they saw or M 86
how they does go M 86
how then and in M 86
how she cut it M 86
how near was it M 86
how men use the M 86
how long both the M 86
how ill had it M 86
how her day at M 86
how god can at M 86
how does one sing M 86
how can god at M 86
how bad was my M 86
how bad did the M 86
how and why king M 86
how all you do M 86
how aid was to M 86
how that for the M 85
how long has be M 85
how does one so M 85
how you how to M 84
how weak one is M 84
how was she at M 84
how this death is M 84
how they set an M 84
how they err in M 84
how then try it M 84
how she can so M 84
how nor why the M 84
how near dying he M 84
how may they do M 84
how low his or M 84
how long and no M 84
how ill was he M 84
how god did so M 84
how far and up M 84
how easy not to M 84
how each man by M 84
how does man in M 84
how did two so M 84
how did god the M 84
how are men in M 84
how all this at M 84
how all day the M 84
how they fit so M 83
how long had be M 83
how you saw my M 82
how was she on M 82
how they use an M 82
how they may to M 82
how they does it M 82
how they all in M 82
how that day the M 82
how sin was to M 82
how sad that no M 82
how one year the M 82
how one arm of M 82
how near any of M 82
how may she be M 82
how far can go M 82
how each was the M 82
how does being the M 82
how did being in M 82
how bad things go M 82
how you buy the M 80
how you add up M 80
how was she the M 80
how this earth is M 80
how they let go M 80
how they fear to M 80
how then did an M 80
how that goes in M 80
how that did or M 80
how she set to M 80
how she has an M 80
how may you do M 80
how its end is M 80
how few men do M 80
how each day we M 80
how big was my M 80
how any idea of M 80
how things get on M 65
how they all sing M 65
how she ran up M 59
how one got on M 59
how you hung on M 57
how and that the M 54
how they run up M 53
how and how to M 53
how and can be M 51
how they run on M 49
how one got in M 48
how you sat up M 44
how than with the M 44
how does that in M 44
how and and or M 44
how they are up M 43
how and use of M 43
how and all of M 43
how can man as M 41
hot and dry in D 12111
hot day and the D 6768
hot sun and the D 6416
hot air and the D 2929
hot and dry as D 2843
hot for him to D 2830
how thin was the D 2582
hot and out of D 2472
hot for them to D 2324
hot and dry to D 2262
hot air out of D 2160
hot for you to D 1818
hot air can be D 1702
hot for him in D 1618
how they met the D 1512
hot day and we D 1470
hot gas and the D 1402
how thin she is D 1398
hot bath and the D 1392
hot air may be D 1372
how art can be D 1339
hot day and he D 1282
how she met the D 1278
hot and dry or D 1198
hot for her to D 1156
hot bath and go D 1156
hot and dry the D 1142
hot sun and in D 1108
hot bath may be D 1040
hot meal for the D 1018
hot dog and the D 994
hot for them in D 964
hot and that the D 958
how then doth he D 920
hot and all the D 906
hot air for the D 882
how you wear it D 870
how she met my D 844
how you met the D 838
how can art be D 828
hot sun for the D 768
hot tub and the D 764
hot and red in D 758
hot air near the D 756
hot and had to D 748
hot and wet in D 736
hot sun with the D 728
how long are ye D 722
hot and can be D 702
how fat she is D 694
how sex can be D 674
hot day for the D 672
hot that all the D 668
hot day with the D 668
hot and dry at D 668
how they tie in D 666
hot and dry on D 665
how they met in D 660
hot bath and an D 642
hot and dry it D 634
hot dry air of D 632
how hot does it D 592
hot day and it D 580
how dear are thy D 575
hot key for the D 574
how hot was it D 572
hot oil and the D 568
hot gas that is D 566
hot bath for the D 564
hot air that is D 540
hot and wet as D 529
hot for you in D 528
hot and add the D 526
hot war with the D 524
hot day than on D 516
hot and may be D 514
how hot was the D 492
hot air with the D 490
how you hit the D 478
how does thee do D 478
hot and red as D 478
hot and wet on D 472
hot gas can be D 470
hot with all the D 462
how they met at D 460
hot for him as D 460
hot bath and to D 460
how this feat is D 458
hot day and in D 450
how old are ye D 448
hot and red on D 438
hot and that it D 434
how they met is D 424
how hot she is D 414
hot dog with the D 408
hot and one of D 406
how old are ya D 404
hot for him he D 402
hot they had to D 398
hot bath with the D 398
hot now and the D 392
hot bath can be D 386
how art thou to D 384
hot and then the D 382
hot and that he D 376
hot meal and the D 372
hot for you if D 370
how you met me D 368
hot for him at D 364
hot dog out of D 364
hot dry air is D 360
how you met my D 358
hot sun and to D 354
how they met or D 352
hot sun with no D 344
how they wear it D 342
hot end and the D 342
hot gas may be D 340
how art thou so D 339
how then can ye D 338
hot tub with the D 336
hot bath for me D 334
hot war and the D 328
hot sun for an D 328
how thin are the D 326
hot one and the D 324
how art may be D 314
how can sex be D 308
how yon beam of D 306
how does this ad D 306
hot and put it D 304
hot and you do D 298
hot day near the D 294
hot and then in D 290
hot sun beat on D 287
hot air than in D 284
hot and dry by D 282
how you hit it D 280
hot for him if D 280
hot dog and an D 276
hot and for the D 276
hot can not be D 275
hot for all the D 272
hot and dry is D 272
hot air bath is D 272
hot for them at D 270
hot tub for the D 268
hot for one of D 264
how thou art to D 262
how this guy is D 262
hot tip for the D 262
how they hit the D 258
hot oil with the D 258
hot and with the D 258
hot and then it D 256
hot and let it D 256
how you can re D 254
hot day with no D 254
hot air off the D 252
how gas can be D 250
hot oil act of D 250
hot gas near the D 248
hog meat and hoe D 247
hot for all of D 246
how she sang it D 244
how far art is D 244
how tom did so D 242
hot for her in D 242
hot and then he D 240
how oft has the D 238
hot day that the D 238
hot bath for an D 238
hot air and to D 238
hot she had to D 234
how can you re D 232
hot sun all the D 232
hot day may be D 230
how hot are the D 228
hot gas with the D 228
how this feat of D 224
hot wax and the D 224
hot tub can be D 224
hot air that the D 224
hot and fry the D 222
hot meal for us D 220
hot for him on D 220
hot day and as D 220
hot air out the D 220
hot air bath at D 220
how then are ye D 218
hot day can be D 218
hot day and my D 218
how does one re D 216
how they fed the D 214
hot and then to D 214
how this art is D 208
how hot does the D 206
how art and the D 206
hot tub for an D 206
hot bed for the D 206
hot one for the D 204
hot for men to D 204
hot day that we D 204
hot air and is D 204
hot than that of D 200
hot gas for the D 200
hot for both of D 200
hot for any of D 196
hog can not be D 194
hot you had to D 192
hot sun and no D 192
hot oil can be D 192
hot can not at D 192
hot air hit me D 192
hot oil may be D 190
hot for two or D 190
how gay did the D 188
hop off and on D 188
hot that all of D 186
hot head with the D 186
hot dry air in D 186
hot wax can be D 184
hot for use in D 184
hot and who is D 184
hot and not to D 184
how she sang the D 182
how this art of D 180
how they sang it D 180
hot seat for the D 180
hot lead and the D 180
hot that one of D 178
hot leg and the D 178
hot for him by D 178
hot and let the D 178
hog pen and the D 178
how then doth the D 176
how they can re D 174
how pap and me D 174
hot sun and he D 174
hot for them as D 174
hot sun out of D 172
hot dog off the D 172
how they sang so D 170
how oft are we D 170
hot sun near the D 170
hot air goes up D 169
hot and not so D 168
hot tub and an D 166
hot rod and the D 166
hot for them if D 166
hot day than to D 166
hot and this is D 166
hot that meat is D 164
hot sun off the D 164
hot for one to D 164
hot now that the D 162
hot day and no D 162
hot but not so D 162
hot and put in D 162
hot and put the D 160
hop can not be D 160
how they are re D 158
hot and wet to D 158
hot air bath or D 158
hob and set it D 158
how they sang the D 156
how she sang to D 156
hot day and on D 156
hot seat and the D 154
hot dog for the D 152
hot but not in D 152
hot but not as D 152
hot air and of D 152
how this tax is D 150
hot pan with the D 150
hot car with the D 148
hot air and no D 148
hot tub bath or D 146
hot sun and it D 146
hot meal with the D 146
hot head bring me D 146
how lean she is D 144
hot they may be D 144
hot sky and the D 144
hot for them on D 144
hot air gun to D 144
how they hit it D 142
how far are ye D 142
hot tip that the D 142
hot dog that is D 142
hot and she is D 142
hot and all of D 142
how they tie up D 140
hot that day in D 140
hot fat and the D 140
hot dog can be D 140
hot day but the D 140
hot box had to D 140
how each leaf is D 136
hot for you at D 136
hot dry day in D 136
hot bath was the D 136
hot for you as D 135
hot meal can be D 134
hot may day in D 134
hot air gun or D 134
hot and that of D 132
hot and hot to D 132
hot and had the D 132
hot and dry of D 132
how you hit me D 130
how they met on D 130
hot and that is D 130
hot air and an D 130
how they tax the D 128
how far aft of D 128
hot oil out of D 128
hot day and by D 128
hot bath and be D 128
hot air and it D 128
how oft has my D 126
hot sun with an D 126
hot sun and at D 126
hot and that in D 126
hot tub that is D 124
hot sun and my D 124
hot new seal of D 124
how this gas is D 122
how his art so D 122
hot things are in D 122
hot tar and the D 122
hot and set the D 122
how she fed the D 120
how each row of D 120
hot tub out on D 120
hot and dry so D 120
how she sang in D 118
hot new way to D 118
hot meal and to D 118
hot and wet at D 118
hot and has to D 118
hot they can be D 116
hot and heat the D 116
how that pie is D 114
hot tub with me D 114
hot sun and on D 114
hot new area of D 114
hot and red at D 114
hoer with his hoe D 114
how they met up D 112
how hot this is D 112
how gay are the D 112
hot and now it D 112
hog was all the D 112
how you tie it D 110
how tom did it D 110
hot things are to D 110
hot sun and is D 110
hot and wet or D 110
hop has got to D 110
how you swing the D 108
how god fed the D 108
hot zeal for the D 108
hot that they do D 108
hot for her if D 108
hot dry air to D 108
hot but that the D 108
hot box and the D 108
hot and ice is D 108
how they hit on D 106
how real was thy D 106
how oft has he D 106
how gay was the D 106
how can oil be D 106
hot seat with the D 106
hot earth and the D 106
hot day with an D 106
hot day that he D 106
hot air and in D 106
how they rob the D 104
how oft hath he D 104
hot now and he D 104
hot gas out of D 104
hot and raw as D 104
hot for her as D 103
how they met it D 102
how his art is D 102
hot for her he D 102
hot dog and he D 102
hot and then we D 102
hot air has to D 102
hob nob with the D 102
hop out and go D 101
how oil can be D 100
how mom did it D 100
how did you re D 100
hot sun can be D 100
hot rod with the D 100
hot dog and it D 100
hot bath and my D 100
how she met me D 98
hot tub bath is D 98
hot they had the D 98
hot for war as D 98
hot dry air or D 98
hot and one is D 98
hot and ill at D 98
hoes for use in D 98
how gay she is D 96
hot sun may be D 96
hot for fear of D 96
hot and yet the D 96
hot and that we D 96
how hot can it D 94
how can yon be D 94
hot tub may be D 94
hot day this is D 94
hot day that it D 94
hot day but it D 94
hot and they do D 94
hot tap and the D 92
hot oil and it D 92
hot for one thing D 92
hot for ice to D 92
hot day and to D 92
hot air was the D 92
how they tie to D 90
hot sun and we D 90
hot sun and an D 90
hot pan off the D 90
hot meal and an D 90
hop out and the D 90
hog was put in D 90
hog was one of D 89
how they fed me D 88
hot tub with my D 88
hot tub with an D 88
hot that they go D 88
hot pan and the D 88
hot one with the D 88
hot meat out of D 88
hot gas and is D 88
hot bath and it D 88
hot air out at D 88
how they sang in D 86
how did god re D 86
how art was to D 86
hot day was in D 86
hot and try to D 86
hot and had no D 86
hot air that it D 86
hot air out in D 86
hot air all the D 86
how they fed on D 84
how oft that he D 84
how each row is D 84
hot meal out of D 84
hot dog for me D 84
hot day out in D 84
hot day but we D 84
hot bed and the D 84
hot bath two or D 84
hot bath and is D 84
hot and not at D 84
hot air that he D 84
hot air are the D 84
how thou art in D 82
how lax was the D 82
how ice can be D 82
hot for him or D 82
hot and with an D 82
hot and not in D 82
how they dug the D 80
how far aft the D 80
hot meal for me D 80
hot day and an D 80
hot and dry he D 80
hot air with no D 80
hot air was to D 80
hot air and he D 80
hog lot and the D 80
hot and put on D 65
hot day and so D 48
hog and put it D 42
hob and nob in D 41
hop off with the D 40
