holy spirit in the M 119563
holy spirit is the M 73395
holy spirit as the M 28099
holy spirit to the M 23738
holy spirit on the M 23282
holy spirit to be M 17406
holy temple in the M 15410
holy spirit is to M 13091
holy spirit of the M 12388
holy spirit is in M 8911
holy orders in the M 8818
holy fathers of the M 8717
hold shares in the M 7050
holy family in the M 6758
holy spirit by the M 6678
hope seemed to be M 6592
hold meetings in the M 6461
holy spirit at the M 6427
holy spirit in us M 5852
holy spirit is at M 5355
holy spirit to do M 4969
hour earlier in the M 4959
holy spirit or the M 4398
holy orders of the M 4304
holy waters of the M 4170
home instead of in M 4076
home seemed to be M 4026
holy spirit as he M 3995
holy spirit is an M 3991
holy church of the M 3870
home member of the M 3847
hour before it is M 3813
holy cities of the M 3801
host plants of the M 3635
home should be the M 3530
home visits by the M 3471
home market of the M 3452
home owners in the M 3404
holy spirit as an M 3346
hour instead of the M 3327
home instead of the M 3310
home market in the M 3271
home market to the M 3260
host plants in the M 3252
hold myself to be M 3207
holy temple of the M 3176
hole created by the M 2954
holy spirit in my M 2949
holy family on the M 2876
home appears to be M 2736
holy horror at the M 2630
holy family of the M 2622
holy relics of the M 2552
hold meetings of the M 2487
home proved to be M 2472
hole opened in the M 2467
home earlier in the M 2466
home ground of the M 2364
hole formed by the M 2346
hour passed in the M 2284
home visits to the M 2271
home instead of at M 2266
hour circle of the M 2259
holy spirit it is M 2227
hope proved to be M 2176
hole appears in the M 2136
hold little or no M 2058
hole caused by the M 2051
holy church in the M 2038
home burned to the M 2004
holy spirit as we M 1996
holy nature of the M 1956
hour shifts in the M 1954
holy spirit is so M 1949
holy spirit is no M 1935
home before it is M 1918
hold meetings on the M 1912
holy orders at the M 1872
home button on the M 1799
holy spirit to us M 1783
holy ground of the M 1782
holy spirit is of M 1767
hold meetings at the M 1745
hour access to the M 1736
holy horror of the M 1716
hole formed in the M 1712
hour seemed to be M 1694
holy gospel of the M 1692
hoping thereby to be M 1664
holy writings of the M 1591
holy spirit as to M 1591
home market is the M 1581
home training of the M 1574
home visits in the M 1544
holy spirit is as M 1540
hope appears to be M 1525
home instead of to M 1522
holy spirit as it M 1496
home waters of the M 1468
home number on the M 1466
hole should be at M 1456
home prices in the M 1449
holy spirit in me M 1448
home states of the M 1434
hold shares of the M 1420
hole created in the M 1376
hole burned in the M 1376
hope rested on the M 1362
home should be in M 1350
hole states in the M 1349
holy spirit in an M 1308
home except in the M 1292
hold copies of the M 1290
hope always to be M 1281
holy fathers in the M 1276
hole through to the M 1266
host appears to be M 1258
holy orders by the M 1246
hour version of the M 1193
hole opened up in M 1192
hole course at the M 1169
home market by the M 1168
hole broken in the M 1158
home version of the M 1142
hold charge of the M 1133
home guards in the M 1125
holy spirit to go M 1122
hour shifts at the M 1109
hole instead of the M 1060
hope except in the M 1055
host reaction to the M 1051
home rulers in the M 1029
home building in the M 1023
holy images of the M 1018
home unless it is M 1010
home belongs to the M 1008
holy family at the M 998
hour before the king M 996
holy spirit if we M 994
hour speech to the M 989
holy spirit he is M 985
home served as the M 966
home access to the M 958
holy vessel of the M 958
hold myself up as M 950
holy temple to the M 939
holy church is the M 938
hold something of the M 937
hour speech on the M 917
hole course in the M 902
hour worked in the M 891
host seemed to be M 890
home market at the M 881
holy symbol of the M 874
home ground in the M 873
hold assets in the M 861
holy church to be M 855
holy relics in the M 848
hour before in the M 838
holy orders is the M 838
holy gospel in the M 838
hour should be the M 824
hold before us the M 822
home should be as M 812
hour course in the M 810
hole through it to M 809
hour speech in the M 805
hour before he is M 804
hour debate on the M 799
hour periods of the M 795
hold enough of the M 795
home belonging to the M 788
hole placed in the M 786
host plants on the M 780
home mission of the M 776
home member in the M 760
holy spirit or of M 760
home should be so M 755
host reaction in the M 740
home before he is M 738
hour appears to be M 732
holy orders to be M 732
hole exists in the M 732
hold something to be M 730
home waters in the M 724
holy ground to the M 724
home neither in the M 722
host disease in the M 718
home copies of the M 717
holy mission of the M 712
holy cities in the M 710
holy spirit or to M 705
hole course on the M 699
home should be an M 680
holy gospel to the M 678
hole should be the M 674
hold shares in an M 674
holy ground in the M 672
holy enough to be M 672
home except to go M 670
hope neither of us M 667
hour periods in the M 661
hour instead of by M 660
hour belongs to the M 660
holy spirit is my M 656
home caused by the M 652
hole should be as M 651
hole appears to be M 646
home market or in M 634
host disease of the M 630
holy spirit as in M 625
holy teachings of the M 622
home something of the M 620
holy spirit on us M 619
home closer to the M 614
holy orders on the M 614
hole seemed to be M 608
home edition of the M 603
holy images in the M 602
holy church by the M 600
hold itself in the M 598
home church of the M 588
home training in the M 587
hold itself at the M 578
holy person of the M 576
holy spirit as my M 572
hold itself to the M 572
home needed to be M 570
hole inside of me M 570
host turned to the M 568
hope placed in the M 565
holy bodies of the M 564
holy church to the M 560
home button in the M 558
hour stated in the M 552
hour earlier at the M 552
holy seasons of the M 552
holy spirit is by M 551
hold myself to the M 551
hold myself in the M 550
hour earlier on the M 543
hold myself at the M 538
hour before on the M 536
home safely in the M 536
home market as the M 532
hold meetings or to M 530
home values in the M 525
home circle of the M 518
hole should be of M 516
home guards of the M 514
hope belongs to the M 507
hole appearing in the M 502
host looked at me M 494
home instead of an M 494
holy spirit in it M 494
holy orders to the M 494
home serves as the M 490
hour debate in the M 487
holy spirit be the M 487
home owners of the M 485
home visits of the M 484
home number of the M 484
hour special on the M 483
hole should be in M 480
hour shifts on the M 479
holy spirit to me M 479
holy spirit or by M 479
host system to the M 478
home market on the M 476
hold shares in it M 474
home slowly in the M 473
home market to be M 473
hope appears in the M 470
holy circle of the M 470
host turned to me M 468
home number on it M 466
holy passion on the M 464
hour output of the M 463
hour proved to be M 461
holy spirit do the M 458
hold ground in the M 453
host proved to be M 452
hour before we go M 450
home cities of the M 444
hour record of the M 441
holy spirit so we M 441
home unless he is M 440
hope looked up at M 438
holy relics to the M 438
hope rested in the M 435
hope raised by the M 435
hour should do it M 434
home market or to M 434
hope created by the M 432
home looked as if M 430
holy family to the M 430
hold forced me to M 430
hour marked by the M 428
holy spirit is on M 428
home visiting in the M 426
home should be to M 426
home number in the M 426
holy church is to M 423
hole states of the M 420
hour seemed to me M 418
holy spirit so as M 418
home instead of on M 416
hole through it at M 413
holy family by the M 410
holy orders or the M 408
hole proved to be M 406
hole before it is M 406
home branch of the M 405
holy church on the M 405
hold itself up as M 404
host plants to the M 403
holy family is the M 403
hold instead of the M 403
hope dawned on the M 402
home something to eat M 402
home market or the M 399
holy figure of the M 398
holy spirit to an M 397
holy orders or to M 396
holy center of the M 396
hope myself to be M 394
home clearly to the M 394
host instead of the M 393
hold myself up to M 392
hour before by the M 390
holy mothers in the M 390
hope allows us to M 389
hole through it is M 388
hour speech at the M 387
hope rooted in the M 384
home listed on the M 382
home demand in the M 382
holy spirit if he M 382
holy altars of the M 380
home should be of M 378
hold something in the M 378
home waters as the M 376
hour earlier by the M 372
holy ground by the M 372
holy family or the M 372
hole charge in the M 370
hour before at the M 368
home safely at the M 367
hour course on the M 366
holy dwelling of the M 364
hour marked on the M 363
hope better of the M 361
host factor in the M 360
holy ground at the M 360
hope exists in the M 359
home mission to the M 358
hole burned in it M 358
holy object in the M 356
holy hermit of the M 356
hope looked at the M 354
home church in the M 354
hole course of the M 354
home market is to M 352
hour passed as the M 350
home owners on the M 350
hour crossing of the M 349
holy doctor of the M 348
hold rights to the M 348
hold button on the M 344
home habits of the M 342
home before we go M 342
hope church on the M 341
holy church as the M 341
home should be at M 340
holy person in the M 340
hour worked on the M 338
hour worked by the M 338
hour chosen by the M 338
hour catching up on M 338
home member to the M 338
hold itself to be M 338
home remedy is to M 336
hole occurs in the M 334
holy priest of the M 332
home stands on the M 330
home garden it is M 330
holy memory of the M 330
holy spirit be in M 326
home market as it M 324
home waters at the M 320
hold better in the M 320
hope instead of the M 319
home seemed to me M 318
hold claims on the M 318
hole nearest to the M 317
home catching up on M 316
host family in the M 314
host plants by the M 313
hour changes in the M 311
host looked at the M 310
home market is of M 310
holy spirit on my M 309
hope whoever it is M 308
holy spirit as if M 308
holy duties of the M 308
hour instead of an M 306
hour earlier or an M 306
home duties of the M 306
holy centre of the M 306
home school of the M 304
home garden in the M 304
holy fathers at the M 304
hole through it in M 304
home secure in the M 303
holy spirit is he M 301
hold values in the M 301
home stands in the M 300
holy hatred of the M 300
home number is on M 298
hope thereby to be M 296
holy temple to be M 296
holy orders as the M 294
holy hermit in the M 292
holy wisdom of the M 290
holy spirit so to M 290
home visiting by the M 288
holy prince of the M 288
holy gospel to be M 288
hour standing in the M 285
hoping thereby to go M 284
home proves to be M 284
home market as to M 284
hour neither of us M 283
hour arrive at the M 282
holy powers in the M 280
hole closer to the M 280
hold creation in my M 280
hole opened by the M 279
hour attack on the M 278
hold images of the M 278
home states in the M 276
home served as an M 276
home school in the M 276
hole appears at the M 276
hour output in the M 275
hour battle in the M 274
home market is so M 274
hour passed as we M 272
home supply of the M 270
hope begins to be M 269
hole instead of an M 269
hope credit or the M 268
home safely to me M 268
hold weight in the M 267
host states in the M 266
hope points to the M 266
home except on the M 266
holy preaching of the M 266
holy offering to the M 266
hold assets of the M 266
holy family as the M 265
home visits on the M 264
holy desire to be M 262
home safely on the M 260
home church to the M 260
home prices of the M 259
hour course of the M 257
home visits by an M 257
home safely to us M 257
hole hidden in the M 257
holy images on the M 256
host belongs to the M 254
home waters to the M 254
hold virtue to be M 252
hour closer to the M 251
home ground at the M 250
holy spirit as of M 250
hour visits to the M 248
host access to the M 248
home visits to be M 248
home engaged in the M 248
hold something in my M 248
home likely to be M 246
hour circle to the M 245
hope lights up the M 245
hold pieces of the M 245
hold myself in no M 244
hole through it so M 243
holy secret of the M 242
holy powers of the M 242
home market is in M 241
home depend on the M 240
hole should be no M 240
home rulers of the M 239
hold values of the M 238
hour before or an M 236
hope something of the M 236
hope smiled at the M 236
hold sacred in the M 236
host plants at the M 235
hour nature of the M 234
hope should be in M 233
home waters by the M 231
hold seemed to be M 231
hope dawned in the M 230
home signal is at M 230
home market it is M 228
holy purity of the M 228
holy person to be M 228
holy object of the M 228
hole showed in the M 228
home safely to the M 227
host listed in the M 226
home before we do M 226
hour passed by in M 225
home almost to the M 225
hole behind in the M 225
home itself is the M 224
home created by the M 224
hole through it as M 224
hole formed at the M 224
hold detail in the M 224
home owners to the M 223
holy spirit to my M 223
hour report on the M 222
home visiting of the M 222
hold closer to the M 221
hope picked up the M 220
holy cities by the M 220
hour instead of at M 218
home solely in the M 218
home mission in the M 218
home market or at M 218
holy passion of the M 218
home visits is to M 216
holy spirit as is M 216
hold prices at the M 216
hold before it is M 216
holy temple on the M 215
hole appears on the M 214
hold values up to M 214
host cities of the M 212
home pieces of the M 211
home server of the M 210
home safely to my M 210
hold before us as M 210
holy spirit do in M 209
hour further on we M 208
hope seemed at an M 208
home system of the M 208
home garden is the M 208
holy temple by the M 208
hold school in the M 208
hold myself to it M 208
home visits at the M 206
home domain of the M 206
holy ground to me M 206
hour system in the M 205
holy spirit or as M 204
host should be the M 202
host disease by in M 202
host caused by the M 202
home except to eat M 202
holy spirit or in M 202
holy relics to be M 202
holy instead of the M 202
holy spirit if the M 201
hour passed as he M 200
hour circle on the M 200
home sleeps in the M 200
home signal at the M 200
home should be on M 200
home serves as an M 200
holy rights of the M 200
host engaged in the M 199
hold already on the M 199
hour notice to the M 198
hour before or at M 198
home listed in the M 198
home circle in the M 198
home button at the M 198
holy member of the M 198
hold shares of an M 198
hour weekly in the M 197
hope proves to be M 196
home appears in the M 196
hold myself in my M 196
hour speech by the M 195
home enough to be M 195
host disease is the M 194
home waters on the M 194
home market is no M 194
hold another by the M 194
holy church at the M 193
hold unless it is M 193
home waters or in M 192
hope shared by the M 190
home stands at the M 190
home circle at the M 190
hour unless it is M 188
host belonging to the M 188
home cities in the M 188
home caused me to M 188
hole placed at the M 188
hold except in the M 187
host paused at the M 186
home signal of the M 186
home garden is to M 186
home exists in the M 186
home clearly to me M 186
holy thought in the M 186
holy spirit in so M 186
hole placed on the M 186
hold rights in the M 186
hold matter to be M 186
host walked up to M 184
host disease in an M 184
hoping someone in the M 184
home owners is the M 184
hold itself up to M 184
hour passes in the M 183
hope before it is M 183
home building on the M 183
hour instead of in M 182
host showed me the M 182
home relied on in M 182
hour further to the M 180
hour before to the M 180
hole belonging to the M 180
hold simply to the M 180
hold shares to the M 180
hold myself to my M 180
host serves as the M 178
host murder us on M 178
home whether it be M 178
holy family in an M 178
hole needed to be M 178
hold little of the M 178
hold gained by the M 178
hour standing on the M 176
hour sooner or an M 176
home glance at me M 176
holy spirit or an M 176
holy spirit on an M 176
hold relics of the M 176
hold myself up by M 176
hour passed on the M 174
host system in the M 174
hope seemed on the M 174
holy verses of the M 174
holy nature in the M 174
holy mission in the M 174
hole opened up by M 174
hole already in the M 174
hold itself up in M 174
home waters or the M 172
home owners at the M 172
home market is an M 172
hole burned by the M 172
hold itself up by M 172
home owners by the M 171
hour sooner in the M 170
host system on the M 170
home stayed in the M 170
hold eleven of the M 170
hour almost to the M 169
hope likely to be M 169
hold before it the M 169
hour recall of the M 168
host before it is M 168
hope should be the M 168
home visits as an M 168
home market if the M 168
holy tables of the M 168
hold myself up in M 168
hold closer in the M 168
hold always to the M 168
hour sacred to the M 166
host system is the M 166
hope enough so to M 166
hold meetings in it M 166
home ground is the M 165
hour before to go M 164
host standing in the M 164
home whether it is M 164
home rulers at the M 164
holy family as an M 164
hole should be on M 164
hour notice of the M 163
hole course is the M 163
home rulers on the M 162
hole serves as the M 162
hold little in the M 162
hour earlier to do M 160
home rulers to the M 160
home always in the M 160
holy cities to the M 160
hole serves as an M 160
home ground to the M 159
hour battle on the M 158
host begged me to M 158
home demand of the M 158
home circle to the M 158
holy spirit if it M 158
holy images to be M 158
hold myself up on M 158
hour lesson in the M 157
hope better of it M 156
home training on the M 156
home signal in the M 156
home helped me to M 156
holy person is the M 156
hold nature to be M 156
hold meetings in an M 156
hour course at the M 155
home fields of the M 154
home duties in the M 154
holy spirit by an M 154
hole states at the M 154
hole masses in the M 154
hold myself on my M 154
hole almost to the M 153
hold points on the M 153
hour periods on the M 152
hope turned to the M 152
home worker in the M 152
home mainly in the M 152
home broken up by M 152
holy waters in the M 152
holy energy in the M 152
hold another in the M 152
hour circle is the M 150
host seemed to me M 150
host picked up the M 150
home visits or to M 150
home remedy in the M 150
home before he or M 150
holy spirit of my M 150
holy priest in the M 150
holy maiden of the M 150
holy gospel is by M 150
holy family is in M 150
holy desire to do M 150
hour periods at the M 149
host instead of an M 148
hope enable me to M 148
home unless he or M 148
home relate to the M 148
home chosen by the M 148
home allows us to M 148
holy orders at an M 148
holy mission to the M 148
holy church or the M 148
hole opened at the M 148
hold spirit in the M 148
host reaction on the M 146
home burned in the M 146
home aspect of the M 146
holy dogmas of the M 146
holy actions of the M 146
home direct to the M 145
host meetings of the M 144
holy object on the M 144
hole hidden by the M 144
hole belongs to the M 144
hole appearing at the M 144
hold indeed as to M 144
home member on the M 143
holy spirit in no M 143
host joined in the M 142
hope always to do M 142
home relating to the M 142
home hidden in the M 142
home earlier on the M 142
home another of the M 142
holy spirit as on M 142
hole filled by the M 142
hold labour to be M 141
hour likely to be M 140
hoping thereby to do M 140
home shared by the M 140
home broken by the M 140
home agents in the M 140
holy prayer of the M 140
holy animal of the M 140
hole normal to the M 140
hold imaged in my M 140
hold better on the M 140
hold before me the M 140
home enough of the M 139
holy family is an M 139
hour marked at the M 138
host number of the M 138
host disease is an M 138
home market as an M 138
holy spirit we do M 138
holy relics or the M 138
holy person or thing M 138
holy fathers to be M 138
holy corner of the M 138
hole should be so M 138
hold prices up to M 138
hour except on the M 137
hope someone in the M 137
hope arises in the M 137
hole inside of the M 137
hold something up to M 137
home standing on the M 136
home except at the M 136
holy moment of the M 136
holy family to be M 136
hold someone in the M 136
home button to go M 135
hold before us in M 135
hour should be at M 134
hour shifts of the M 134
host engaged on the M 134
home market up to M 134
home locked up in M 134
holy wisdom in the M 134
holy temple is the M 134
holy symbol in the M 134
holy aspect of the M 134
hope standing in the M 133
home standing in the M 133
home demand is the M 133
holy spirit be so M 133
home seemed to go M 132
home makers of the M 132
home circle as the M 132
holy orders as an M 132
hole opened on the M 132
hour system is the M 131
hour ascent of the M 131
holy spirit as at M 131
host showed us the M 130
hope dawned on me M 130
home visits in an M 130
home guards on the M 130
home guards at the M 130
home course of the M 130
holy spirit so he M 130
holy relics on the M 130
hole through it of M 130
hour worked by an M 129
hour seemed to go M 128
hour ascent to the M 128
host wanted me to M 128
hope begins in the M 128
home visiting as an M 128
holy spirit on me M 128
holy orders if he M 128
holy horror as the M 128
holy desire in the M 128
hour report to the M 127
hour earlier to the M 127
hole closed by the M 127
hour sample of the M 126
host depend on the M 126
host choice by the M 126
home whether in the M 126
home training is the M 126
home prices to the M 126
home circle is the M 126
home allows me to M 126
holy duties in the M 126
holy building in the M 126
holy belongs to the M 126
hole worked in the M 126
hold should be the M 125
hour should be so M 124
host animal to the M 124
hope should be to M 124
hope seemed to go M 124
home whether he is M 124
home market by an M 124
home garden of the M 124
home appears to me M 124
hole exists at the M 124
hold itself on the M 124
home almost at the M 123
hole unless it is M 123
host appears in the M 122
hope solely in the M 122
hope opened to me M 122
home owners to be M 122
home number on my M 122
home forces in the M 122
home burned by the M 122
home attend to the M 122
holy legend of the M 122
holy ground is the M 122
hold belief in the M 122
hold signal to the M 121
host system of the M 120
host smiled as he M 120
hoping always to be M 120
hope caused by the M 120
home visiting is the M 120
home backed up to M 120
holy ground as it M 120
holy desire of the M 120
hole through the ring M 120
hour passed by the M 119
host plants or in M 119
hope nobody in the M 119
home happen to be M 119
hold someone up to M 119
home through it in M 118
home instead of me M 118
hole broken in it M 118
hour unless he is M 117
hour further up the M 117
hold direct of the M 117
hour before the tea M 116
host standing at the M 116
hope voiced in the M 116
home visits as the M 116
home system to the M 116
home safely by the M 116
home market so as M 116
home further up the M 116
home demand on the M 116
holy trance by the M 116
holy shadow of the M 116
holy number of the M 116
holy fathers to the M 116
holy design of the M 116
holy cities on the M 116
hold sacred to the M 116
hour tricks at the M 115
holy spirit by my M 115
hole myself up in M 115
hour supply of the M 114
host occurs in the M 114
hoping through it to M 114
hope unless it is M 114
home waters or to M 114
home design in the M 114
holy effect of the M 114
hold myself on the M 114
hole through it on M 113
hour landed on the M 112
host reaction of the M 112
host origin of the M 112
hope vested in the M 112
home watching it on M 112
home training is to M 112
home prices go up M 112
home instead of my M 112
holy volume of the M 112
holy temple of my M 112
holy mission to be M 112
hole created by an M 112
hour debate at the M 111
hope enough in the M 111
home relief to the M 111
hole slowly in the M 111
hour charge to the M 110
hope placed on the M 110
home solely on the M 110
home screen of the M 110
home rested on the M 110
home opened to the M 110
holy horror of it M 110
holy horror as he M 110
hold thought to be M 110
hour access to an M 109
home visits or in M 109
home edition is the M 109
hour further on is M 108
hour before to an M 108
hope indeed to be M 108
home papers of the M 108
home number to the M 108
home mothers in the M 108
home market at an M 108
home except by the M 108
home building to the M 108
holy horror of my M 108
hole through it the M 108
hold reality to be M 108
hold meetings in my M 108
hold calmly to the M 108
hour meetings of the M 107
hour meetings in the M 107
hour except in the M 107
home values of the M 107
hour earlier to be M 106
hour before we eat M 106
host rushed to the M 106
host plants to be M 106
home passed on to M 106
home mostly in the M 106
home ground on the M 106
home garden is an M 106
holy spirit do we M 106
holy moment in the M 106
holy feelings of the M 106
hold values to be M 106
hour notice by the M 105
holy spirit be at M 105
host plants as the M 104
host memory to the M 104
hope should go up M 104
home worked in the M 104
home should be no M 104
home church at the M 104
holy source of the M 104
holy shroud in the M 104
holy ground on the M 104
host plants or on M 103
hope through it to M 103
hole earlier in the M 103
hole almost in the M 103
hour shifts in an M 102
hour earlier so as M 102
hope before us of M 102
home visits or by M 102
home duties to the M 102
home duties on the M 102
home almost in the M 102
holy custom of the M 102
holy brother of the M 102
hole formed by an M 102
hour recall is the M 101
hour earlier to go M 100
host reaction is the M 100
home visits if the M 100
home studying in the M 100
home enough to do M 100
holy waters at the M 100
holy spirit to so M 100
hold shares in or M 100
hold another of the M 100
hold enough of it M 99
hour engaged in the M 98
hour belongs to us M 98
host member of the M 98
home visits is the M 98
home turned to the M 98
home market as in M 98
home building is the M 98
holy horror to the M 98
holy blessing of the M 98
hole depend on the M 98
hole circle of the M 98
hold myself in on M 98
hour should be in M 96
hope except by the M 96
home waters to be M 96
home wanted me to M 96
home prices at the M 96
home points to the M 96
home garden or the M 96
home editor of the M 96
home church on the M 96
holy mission is to M 96
hole occurs at the M 96
hold itself in an M 96
home design is the M 95
hole course is at M 95
host turned to us M 94
host system or the M 94
host plants is the M 94
hope church in the M 94
home record in the M 94
home placed on the M 94
home loaded to the M 94
home guards to the M 94
home chores to do M 94
home building of the M 94
holy lights of the M 94
holy before he is M 94
hole square in the M 94
hole looked as if M 94
hold events in the M 94
hold always of the M 94
hour voyage to the M 93
hour values of the M 93
hour report of the M 92
hour further is the M 92
host system to be M 92
host except in the M 92
host animal of the M 92
hope should go to M 92
hope needed to be M 92
hope except in an M 92
home visiting is an M 92
home training to be M 92
home school is the M 92
home picked up the M 92
home market in an M 92
home learned of the M 92
home further to the M 92
home forced me to M 92
home except to the M 92
home duties to an M 92
home almost on the M 92
holy relics by the M 92
holy relics as the M 92
home relief in the M 91
hour worked up to M 90
hour passed as if M 90
host looked up at M 90
host animal in the M 90
hope showed up in M 90
home unless it be M 90
home unless he be M 90
home thought of the M 90
home joined in the M 90
home building by the M 90
home before the king M 90
holy writings in the M 90
holy thought of the M 90
holy images to the M 90
holy belief in the M 90
home filled to the M 89
hour before we do M 88
hope highly of my M 88
home sleeping on the M 88
home shared in the M 88
home number in my M 88
home market or of M 88
home instead of by M 88
home already in the M 88
holy ground of my M 88
holy creator of the M 88
holy colour of the M 88
holy branch of the M 88
hole should be an M 88
hold shapes on the M 88
hour lesson on the M 87
hour before to be M 86
hour before the thing M 86
host walked to the M 86
host states of the M 86
host reaction to an M 86
hope voiced by the M 86
hope seemed to me M 86
hope placed in it M 86
hope neither of the M 86
hope before in the M 86
home visiting on the M 86
home valley of the M 86
home states to the M 86
home states to be M 86
home states at the M 86
home sleeping in the M 86
home should go to M 86
home laughing at the M 86
home demand to the M 86
holy spirit as by M 86
hole energy in the M 86
hole circle on the M 86
hold ground on the M 86
hour standing at the M 85
home prices on the M 85
holy spirit on to M 85
hole through the wing M 85
hour return to the M 84
hour called in the M 84
host wishes me to M 84
host should be in M 84
host proves to be M 84
host passed on to M 84
hope readers of the M 84
home should do so M 84
home played in the M 84
home demand at the M 84
home circle by the M 84
holy figure to the M 84
holy family is to M 84
hour instead of on M 83
host plants or by M 83
hour should be an M 82
host stands at the M 82
host showed us to M 82
home seemed to us M 82
home school at the M 82
home occurs in the M 82
home enough in the M 82
home belonging to an M 82
holy garden of the M 82
hole opened to the M 82
hold merely as the M 82
hold genius by the M 82
hold except on the M 82
hold creation to be M 82
hold before us is M 82
hour locked in the M 81
home marked by the M 81
hour battle at the M 80
host waited on the M 80
hoping someone on the M 80
home appeals to the M 80
holy voices of the M 80
holy visions of the M 80
holy virtue in the M 80
holy spirit so the M 80
holy person or the M 80
holy events of the M 80
hole through it be M 80
hold shares at the M 80
hold locked up in M 80
hour circle at the M 72
hold appears to be M 69
home spirit of the M 68
home makers in the M 60
hole system in the M 55
hole nature of the M 53
hold inside of the M 53
hold belonging to the M 53
holy spirit be my M 51
hole states to the M 51
hour meters of the M 50
hour crossing to the M 50
home teacher of the M 50
hold plants in the M 50
hour crowds in the M 49
hold earlier in the M 49
hope raised to the M 47
hold enough to be M 47
hour should be as M 46
hope spoken of in M 46
hole creation in the M 45
hold almost to the M 45
hope permit me to M 44
hour circle in the M 43
home owners as the M 43
hope enough of the M 42
hope almost to the M 42
hole marked on the M 42
hold merely to the M 42
hold mainly to the M 42
hour papers in the M 41
hour groups of the M 41
hour crowds on the M 41
hope stands at the M 41
home higher up the M 41
hour speech of the M 40
home something to be M 40
hold prices up by M 40
hold office in the D 20004
holy office of the D 19994
home office of the D 17861
hold firmly to the D 16186
holy places of the D 15711
hold office at the D 13602
holy places in the D 11340
home office in the D 7941
home office to the D 6720
host portion of the D 3916
home across the sea D 3827
home office on the D 3386
holy office in the D 3306
hold slaves in the D 2924
hoop stress in the D 2550
hold office on the D 2471
home office or the D 2402
home office is the D 2376
home office is in D 2100
home movies of the D 1998
home policy of the D 1978
holy shrine of the D 1976
holy supper of the D 1892
home office at the D 1874
holy virgin in the D 1796
holy office to the D 1774
holy places on the D 1755
horn player in the D 1694
holy virgin of the D 1644
home beyond the sea D 1622
home office by the D 1612
holy places to the D 1524
hold office or to D 1507
home office to be D 1431
home buyers in the D 1333
holy places by the D 1332
hour session in the D 1232
hoof prints in the D 1220
hold office if he D 1078
hour flight to the D 1036
holy office by the D 1034
home tended to be D 998
hold office by the D 957
hoop stress at the D 952
holy office on the D 922
hold office or be D 920
home section of the D 915
hold dearest in the D 878
home planet of the D 877
holy empire of the D 851
home office as to D 836
hold office if the D 821
home county of the D 816
holy places to be D 815
hold firmly to it D 810
home office or to D 798
hold office as the D 788
hold places in the D 765
holy virgin to be D 764
holy island of the D 744
hook caught in the D 715
hour session of the D 714
home office as the D 702
hold courts in the D 702
holy portion of the D 698
host portion of an D 688
holy rosary of the D 688
hood formed by the D 668
hogs belonging to the D 652
hold firmly in the D 639
home office of an D 632
home office or in D 620
holy island in the D 620
hold firmly by the D 613
holy office to be D 610
hour session at the D 602
holy sabbath to the D 598
hour session on the D 595
home office is to D 588
home office as an D 586
horn instead of the D 564
hoof prints of the D 564
hogs raised in the D 563
hour cruise on the D 558
home station of the D 556
holy bishop of the D 554
hold firmly on to D 546
home office or at D 543
home beside the sea D 536
hold office in an D 533
home soaked to the D 524
hold office as an D 524
holy terror of the D 510
hold office in it D 503
home equity is the D 491
hoof slides on the D 482
hoop tension in the D 477
holy places at the D 477
holy virgin is the D 476
holy office at the D 476
horn sounds in the D 459
hold firmly on the D 450
hoop skirts of the D 448
hold stocks of the D 446
hoax played on the D 446
holy chapel of the D 444
home portion of the D 440
holy canons of the D 440
host tissue in the D 435
host tissue by the D 435
horn tooted to the D 434
hoop stress on the D 434
holy banner of the D 434
horn player of the D 427
holy sabbath as an D 424
hold firmly to my D 420
hold office as if D 417
holy places as the D 402
hook portion of the D 400
home refers to the D 400
holy virgin on the D 400
hour portion of the D 397
hold equity in the D 397
hold dearest is to D 389
hole carved in the D 385
hook placed in the D 382
hour flight in the D 376
home office is at D 376
holy shrine in the D 368
home regions of the D 365
home office to do D 363
holy places or the D 362
host refers to the D 360
holy virgin at the D 358
home movies in the D 356
holy patron of the D 354
hole ripped in the D 352
hood looked at the D 350
host tissue to the D 349
holy supper in the D 347
hold office to the D 346
hope refers to the D 338
hose hooked up to D 336
hope welled up in D 336
home floating in the D 334
holy terror in the D 334
holy rosary in the D 332
homing device in the D 328
home office is an D 326
holy terror to the D 324
hole tapped in the D 322
hoof prints on the D 321
holy office or the D 320
home office or by D 318
holy supper is the D 318
home county in the D 316
holy pagans of the D 314
horn honked in the D 312
home planet in the D 312
horn appears to be D 310
hook caught on the D 310
hold office of the D 308
hold office up to D 307
horn section of the D 306
home island in the D 306
hoop strain in the D 303
home fronts of the D 298
hour struck on the D 294
holy places is the D 294
horn player at the D 292
hook instead of the D 292
home office in an D 292
home folder in the D 291
hole yawned in the D 290
host nations in the D 284
hole trapping in the D 284
hose clamps on the D 280
hold firmly of the D 280
hope stared at the D 278
holy sabbath of the D 278
hope flared up in D 277
holy virgin to the D 273
hour briefing on the D 271
hole gnawed in the D 271
home station on the D 266
hold office on an D 264
home parked in the D 260
hour review of the D 259
home parish of the D 258
hose belonging to the D 257
hold dances in the D 257
homing device on the D 256
home equity in the D 256
holy status of the D 256
hogs packed in the D 256
hold places on the D 253
hook should be of D 252
hood seemed to be D 252
hose should be of D 251
host tissue at the D 250
holy mosque to the D 248
hole gouged in the D 247
hook itself on to D 242
host galaxy of the D 240
hook formed by the D 240
hour struck in the D 238
hole through the ear D 237
horn blared in the D 236
holy unction of the D 236
hose instead of the D 234
hope gleamed in the D 234
holy saints of the D 232
holy office or to D 232
hold stocks in the D 231
home buyers to the D 230
hope surged up in D 228
hood pulled up to D 226
home county to the D 226
holy maxims of the D 226
hoop stress of the D 223
holy chrism in the D 222
holy legate of the D 220
hold tension in the D 220
hold stakes in the D 220
hold horses at the D 219
horn seemed to be D 214
hook through the ring D 214
home folder is the D 213
holy virgin or the D 213
hole sunken in the D 210
hour strike on the D 209
home movies on the D 209
hour refers to the D 208
hook placed on the D 208
holy martyr in the D 208
hour strike in the D 207
holy shrine on the D 204
holy places is an D 204
holy emblem of the D 204
horn button on the D 203
home office to go D 202
home folder on the D 202
holy places or to D 200
hoop strength of the D 198
home office if the D 196
home movies of my D 195
home suited to the D 194
holy spirit in thy D 192
home station to the D 190
hook firmly in the D 189
holy saints in the D 188
holy ritual of the D 188
hogs raised on the D 188
home office or an D 186
hoop placed on the D 184
home places in the D 184
holy banner to the D 184
holy virgin as the D 183
hour section of the D 182
horn sounding in the D 182
holy rivers of the D 182
holy bishop in the D 180
holy office as the D 178
holy island on the D 177
hold tension on the D 177
holy office is the D 176
hook hidden in the D 174
home farther up the D 174
home equity as an D 174
hold sittings of the D 173
home island of the D 172
holy chrism on the D 172
host rolled on to D 170
home office or on D 170
holy fruits of the D 170
host genome in the D 168
hoop tension at the D 168
hole trapping at the D 168
hold firmly to an D 167
hook instead of an D 166
hook placed at the D 164
home claiming to be D 164
holy grails of the D 164
holy terror on the D 162
holy island to the D 162
hold office in or D 162
hook buried in the D 161
hose fitted to the D 160
horn handle of the D 159
horn belonging to the D 159
hour farther on we D 158
hood picked up the D 158
home station in the D 158
hole drilling in the D 158
home buyers of the D 156
holy martyr to the D 156
hour farther to the D 155
host genome by the D 154
horn button in the D 152
hood instead of the D 151
hoax cooked up by D 151
hoop nailed to the D 150
holy virgin or of D 150
holy shrine at the D 150
holy scroll of the D 150
hour siesta in the D 149
hook itself to the D 149
hour cruise of the D 148
hose should be at D 148
horn reached the sea D 148
hook myself on to D 148
hoof caught in the D 148
holy infant in the D 148
hour series on the D 147
hole plasma in the D 147
howl seemed to be D 146
horn melody of the D 146
hope darted on the D 146
hoax played by the D 146
horn placed on the D 144
hook appears to be D 144
holy terror at the D 144
holy fervor in the D 144
hope soured on me D 143
home policy in the D 143
holy supper is an D 143
hogs rooted in the D 143
hour sermon on the D 142
host stared at me D 142
hose around to the D 142
hook before it is D 142
hole refers to the D 142
hoax dreamed up by D 142
home folder of the D 141
hour survey of the D 140
hour strike of the D 140
holy office is to D 140
hose clamps at the D 139
home office if it D 139
hour radius of the D 138
hope verily is the D 138
hood island in the D 136
homing pigeons to the D 136
home parked on the D 136
holy shrine to the D 136
holy parcel of the D 136
hold chairs in the D 136
hour strike at the D 134
hope flared in the D 134
homing pigeons in the D 134
home station at the D 134
hole chewed in the D 134
hops before it is D 133
hops around on the D 132
hoop strain at the D 132
hoof tracks of the D 132
holy sabbath in the D 132
holy fervor of the D 132
hour strike by the D 130
hose coiled on the D 130
home tucked up in D 130
home regions in the D 130
home movies at the D 130
home campus of the D 130
holy decree of the D 128
hour curfew on the D 127
hook caught in my D 127
holy supper is to D 127
horn island in the D 126
horn figure of the D 126
hook itched to do D 126
hood turned to the D 126
hold sittings in the D 126
hold office is the D 126
hook fitted to the D 125
howl raised by the D 124
hood should be of D 124
home opener of the D 124
hook around to the D 123
hour stroll in the D 122
horn refers to the D 122
horn filled to the D 122
hope shines in the D 122
holy virgin by the D 122
hour screwing up my D 120
hoop stress is the D 120
holy penmen of the D 120
holy office as an D 120
hold seances in the D 120
hour cruise to the D 119
hour before the sea D 119
hoof tracks in the D 119
home nations of the D 119
hose appears to be D 118
hood should be at D 118
home movies of me D 118
hold titles to the D 118
hope lingered in the D 117
home shopping in the D 117
horn regions of the D 116
hook myself up to D 116
hook bolted to the D 116
hoof raised in the D 116
holy office it is D 116
hour farther up the D 115
hour cruise up the D 115
host tissue of the D 114
horn belongs to the D 114
holy section of the D 114
hole behind the ear D 114
hoop skirts in the D 113
home settings in the D 113
hose placed in the D 112
horn section in the D 112
hope flamed up in D 112
hook welded to the D 112
home opener at the D 112
home fronts in the D 112
home cooler in the D 112
host before the sea D 110
hold dances on the D 110
hook formed on the D 108
home parish in the D 108
home office up to D 108
hour flight of the D 107
host driven by the D 106
horn looked at the D 106
horn filled up to D 106
home places of the D 106
home courts of the D 106
holy infant of the D 106
holy empire in the D 105
hook signal to the D 104
home versus in the D 104
home luxury in the D 104
home curled up in D 104
holy leaders of the D 104
hour patrol of the D 103
hour farther on is D 103
homing flight of the D 103
hogs wallow in the D 103
host tissue on the D 102
host camped on the D 102
holy girdle of the D 102
hold office is to D 102
horn portion of the D 101
hope pinned on the D 101
hobo jungles of the D 101
horn clause of the D 100
hook belonging to the D 100
home office to an D 100
home boards of the D 100
holy stones of the D 100
holy statue of the D 100
holy martyr of the D 100
horn melody in the D 99
hole melted in the D 99
hour struck by the D 98
host status of the D 98
host linked to the D 98
horn branch of the D 98
hook should be at D 98
hood looked up at D 98
home warmer to the D 98
home attest to the D 98
holy terror of my D 98
holy supper as the D 98
hogs grunting in the D 98
hock joints of the D 98
home buyers on the D 97
hose turned on the D 96
hose seemed to be D 96
hose nozzle to the D 96
hook should be in D 96
home parked at the D 96
home office via the D 96
home office is on D 96
home estate of the D 96
holy sparks of the D 96
holy places is to D 96
holy fruits in the D 96
hose nozzle on the D 94
horn tooted in the D 94
horn placed at the D 94
hope island in the D 94
hope diamond to the D 94
home policy to the D 94
home movies to be D 94
holy sphere of the D 94
holy houses of the D 94
hole hacked in the D 94
hogs raised by the D 94
hour flight on the D 93
holy supper to be D 93
hold status in the D 93
hold office by no D 93
hove upward to the D 92
horn honked on the D 92
horn formed by the D 92
horn blasts of the D 92
hook should be on D 92
home therapy if no D 92
home smelling of the D 92
home nestling in the D 92
hole bitten in the D 92
hope stirring in my D 91
home buyers at the D 91
hour curfew in the D 90
horn player on the D 90
hope soothes me in D 90
home tucked in the D 90
home rented by the D 90
home hooked up to D 90
holy supper by the D 90
holy repose of the D 90
holy office as to D 90
hold session in the D 90
hour stints at the D 89
host tissue is the D 88
horn proved to be D 88
holy regions of the D 88
hold office or the D 87
horn through to the D 86
hope floating in an D 86
home shopping on the D 86
home buyers is the D 86
holy breathings of the D 86
hoax created by the D 86
horn across the sea D 85
horn beeped in the D 84
hook formed at the D 84
hood behind to the D 84
hood appears to be D 84
home office so he D 84
home office or of D 84
holy unction to the D 84
holy places or of D 84
holy places in it D 84
hogs abound in my D 84
hour spells in the D 83
horn sounds on the D 82
horn called to the D 82
hope budded in the D 82
holy places as an D 82
hole etched in the D 82
hour faster in the D 81
hold portion of the D 81
hour office in the D 80
horn serves as the D 80
hope diamond in the D 80
holy graves of the D 80
hold oxygen in the D 80
hold firmly by it D 80
holy mosque of the D 71
hole portion of the D 59
home income of the D 57
horn spoons of the D 49
homing pigeons at the D 49
hole section of the D 47
hour rhythms in the D 46
hope dashed to the D 46
home office or as D 46
hole levels in the D 46
holy virgin is my D 45
hold office if it D 45
hour drinking in the D 44
horn handle in the D 43
hold feature of the D 42
hour varies as the D 41
homing pigeons on the D 40
