hours went by . M 9002
house upon it . M 5950
hoped from it . M 2684
hours wore on . M 2366
holding onto it . M 1712
honor into it . M 1462
house hard by . M 1352
hours were up . M 1348
hopes upon it . M 1255
hours went on . M 1136
house shut up . M 1056
hours over it . M 890
house will be . M 739
holes line up . M 684
house will do . M 676
house went on . M 664
house went up . M 620
house from me . M 604
hours pass by . M 598
holes into it . M 572
holding onto me . M 568
house over it . M 558
honor upon me . M 499
house were on . M 482
honor upon it . M 476
house made of ? M 462
house knew it . M 458
hopes from it . M 425
honor from it . M 420
holds onto it . M 416
hours gone by . M 400
house gave me . M 386
house from us . M 372
honor done me . M 372
honor among us . M 330
house like it . M 310
hours will be . M 298
house told me . M 292
honor from me . M 290
house must be . M 284
hours will do . M 272
house woke up . M 270
house into it . M 270
house west wing . M 260
hours from it . M 260
hours into it . M 248
house from it . M 238
holds over us . M 231
hours reading it . M 226
hours upon it . M 208
holes into me . M 198
house heard it . M 194
honor upon us . M 194
holding back on . M 186
house sits on . M 182
hours drag on . M 182
hours from us . M 176
house came on . M 174
house came up . M 170
hours went by ! M 170
house were up . M 168
hours drag by . M 166
holds among us . M 158
hopes went up . M 148
hours making it . M 146
honor their king . M 141
house unto me . M 140
holds over me . M 136
hours from me . M 134
holes must be . M 130
hopes were up . M 128
holes will be . M 122
house there is . M 116
house must go . M 114
house done up . M 112
house shut up ? M 110
house will go . M 104
hopes from me . M 102
honor from us . M 102
hours steal by ! M 100
house like it ? M 98
house used to . M 96
house room to . M 96
hopes kept up . M 96
house came by . M 92
honor unto it . M 92
house know it . M 90
holding onto it ? M 90
hoped from it ? M 84
hours pass on . M 82
house upon it ? M 80
hosts told us . M 80
house like me . M 48
hopes spring up . M 44
