long way to go M 416591
low end of the M 123479
long ago as the M 109328
long arm of the M 72057
long ago in the M 66703
long head of the M 62048
long way in the M 50344
long way to the M 41060
long run it is M 38986
long ago by the M 35642
long for me to M 29586
long one of the M 23212
low due to the M 22000
long end of the M 21892
long out of the M 20908
long day in the M 20809
long and up to M 20116
low that it is M 19752
long that it is M 17358
long run to the M 17129
long run to be M 16113
long ago to the M 12959
long ago on the M 12506
long for us to M 12394
long day at the M 11698
low man on the M 11419
long run in the M 11413
long way on the M 10998
lot out of the M 10215
long ago at the M 9887
long run is the M 9818
long way up the M 9780
long run by the M 9682
long for it to M 9426
lot going on in M 9361
long may it be M 9044
long ago as in M 8885
low and it is M 8210
long day on the M 8182
lot out of it M 7443
long ago to be M 7236
long run if the M 7183
long and it is M 7052
long are we to M 7028
long run on the M 6753
long and in the M 6732
long poem on the M 6544
long way of the M 6498
log out of the M 6396
long run of the M 6322
lot out of me M 5962
lot was to be M 5869
low bow to the M 5866
long run as the M 5717
low owing to the M 4814
lot for me to M 4758
low and in the M 4680
long run is to M 4600
long ago of the M 4442
long ago if it M 4400
long run at the M 4360
long leg of the M 4246
long poem in the M 4180
low and to the M 4130
long and of the M 4120
long run if it M 4058
low for me to M 4002
long use of the M 3976
long ago in my M 3862
long war of the M 3724
long gap in the M 3578
long had it in M 3391
long way to be M 3370
long due to the M 3340
long ago is it M 3321
long and at the M 3306
long ago in an M 2971
long ago it is M 2961
low for it to M 2882
low out of the M 2857
long that he is M 2852
lot had to be M 2815
long that by the M 2809
lot has to be M 2799
long one in the M 2756
long and in so M 2730
long path to the M 2720
long ago as to M 2698
long age in the M 2648
long day of it M 2634
long and on the M 2594
long way by the M 2558
long run be the M 2558
long ago if he M 2526
long ago by an M 2491
long was he in M 2434
long and is the M 2398
long run if we M 2376
long had to be M 2233
long not to be M 2214
long that in the M 2204
long can we go M 2162
long war in the M 2152
low pay in the M 2142
lot has to do M 2128
log that is in M 2086
long ago if the M 2082
long poem of the M 2044
long may he be M 2013
long way up to M 2012
low and at the M 2008
long can it be M 1978
long was to be M 1972
long run if he M 1942
lot going on at M 1927
long out of my M 1926
low heat or in M 1874
low and on the M 1818
low for us to M 1784
lot was on the M 1752
low pay of the M 1744
long run to do M 1618
long but it is M 1612
low idea of the M 1600
lot and in the M 1594
lot for us to M 1576
long day of the M 1560
low and if the M 1548
lot and on the M 1548
long and to the M 1540
long use in the M 1532
long had in my M 1518
long one on the M 1504
long run he is M 1484
long way to do M 1482
long out in the M 1474
long hung in the M 1450
low men on the M 1430
long run as it M 1427
long may be the M 1420
long ago as an M 1390
low use of the M 1378
long for it as M 1376
long ago as it M 1371
long and by the M 1360
low gap in the M 1352
log lying on the M 1351
long bar of the M 1337
lot and it is M 1331
low but it is M 1330
lot with the king M 1318
long owing to the M 1316
long era of the M 1308
long ago to do M 1277
long dead by the M 1266
low and of the M 1230
long way in my M 1230
lot that we do M 1228
long and if the M 1222
long bar at the M 1218
lot was in the M 1190
long each of the M 1176
long run by an M 1171
low that in the M 1152
long and is so M 1134
long arm to the M 1132
long out of it M 1126
long that we do M 1110
lot east of the M 1106
long and to be M 1106
long did it go M 1100
long path of the M 1084
low that he is M 1082
long run is an M 1080
long arc of the M 1080
log had to be M 1062
low and so is M 1060
low one of the M 1059
long one to the M 1050
long can it go M 1049
low seat by the M 1036
long then as the M 1030
long for in the M 1026
long for it in M 1022
long and by no M 1020
low and so the M 1008
long was it in M 1008
lot and at the M 1007
long run to an M 1004
long ago as he M 1003
long ago by my M 999
long for is the M 998
low one in the M 996
low heat on the M 994
low heat in the M 982
long run or the M 970
long for is to M 968
long are to be M 968
long run be of M 954
lot due to the M 951
long was in the M 947
long ago to me M 936
long has he or M 934
lot out of my M 931
long bar in the M 926
long ago if we M 921
long and of an M 918
long cut in the M 916
long lead in the M 912
low and to be M 904
lot sat in the M 897
long ago is the M 886
long one at the M 876
long poem by the M 872
long wings of the M 870
lot and to the M 869
lot goes on in M 868
long led to the M 854
lot out of us M 846
long sat in the M 844
long may it so M 840
low may be the M 823
long arm of an M 818
long ago to an M 817
low song of the M 812
low than in the M 794
long dead in the M 790
lot than to be M 784
log off of the M 783
low man in the M 782
long than in the M 781
lot and up the M 773
low area in the M 768
long run or in M 762
long and is to M 762
low area of the M 758
long was it to M 756
long lying in the M 756
long arm in the M 754
lot had to do M 752
long and is of M 750
long war on the M 748
low than if it M 742
low both in the M 738
long cry of the M 738
long and is in M 738
lot one of the M 735
long way to my M 732
long way it is M 728
long and he is M 722
low end to the M 710
long day to the M 708
long way up in M 700
long ago at an M 695
long with the king M 682
long dear to the M 682
long poem to the M 678
long had in the M 678
long path in the M 676
long bar on the M 673
long run to go M 668
low dip of the M 660
long run as an M 660
long poem to be M 660
long does it sing M 656
long way at the M 650
lot and of the M 643
long ago as my M 636
long age of the M 630
long run in an M 622
log has to be M 620
lot and by the M 618
long year in the M 616
long was on the M 615
low one on the M 610
low and he is M 610
log was to be M 602
lot area to be M 600
log and in the M 597
low bid on the M 594
long this is to M 588
long was he to M 584
long that is to M 583
long lead to the M 581
low age of the M 578
long run is of M 578
long ere it is M 578
long does it go M 574
long that on the M 570
long may we be M 566
long leg to the M 566
log lying in the M 564
long arm at the M 562
long way in an M 560
long ago to my M 554
low key in the M 550
long that it no M 550
long that he no M 548
low can we go M 545
lot not to be M 545
long that at the M 543
long run be to M 542
low due to an M 538
long run we do M 538
lot yet to be M 528
long run be an M 528
long one it is M 528
lot but it is M 526
long lead so as M 524
long one of my M 522
long but in the M 522
long for the king M 520
long ago as we M 520
lot was at the M 518
long seat at the M 518
lot for me in M 514
lot and he is M 508
long run as to M 507
long poem is the M 506
low dip to the M 504
lot lying in the M 499
long for it so M 499
long hid in the M 498
long run be as M 495
lot and up to M 491
low seat in the M 490
long any of us M 490
long any of the M 490
low that if the M 488
long run be in M 488
lot and go to M 486
long that the king M 482
long way if it M 480
long cut on the M 480
low cut in the M 478
long run is in M 476
long had by me M 476
low end by the M 474
long run up the M 474
long fit of the M 474
long ago as by M 473
low cut of the M 470
log and on the M 470
log all of the M 469
low for up to M 468
long lying on the M 468
long but by no M 468
log you on to M 466
long ago or in M 460
lot with us of M 458
lot was by no M 456
long all of the M 455
long with up to M 452
long and is an M 448
long that of the M 447
low but in the M 446
long ago to go M 446
lot off to the M 443
long war to an M 440
low bow as he M 438
long and if it M 438
long had to do M 435
low key of the M 434
long poem is an M 432
low and as the M 430
long ago as at M 429
low sun in the M 428
long run be no M 428
long arm on the M 426
long and to me M 426
long run up to M 425
long use by the M 424
long ago of my M 424
long now to be M 423
low seat at the M 422
long arc to the M 418
long and by so M 416
lot may be the M 414
lot doing to it M 414
long day by the M 414
long and at no M 414
long and as the M 414
lot with us in M 412
long you do it M 412
low bow of the M 410
low and by the M 410
lot out in the M 409
low that it no M 408
long can be no M 406
low end of an M 404
long bear to be M 404
lot are to be M 402
long heat of the M 402
long can he go M 402
long bow in the M 402
lot and to be M 400
long led me to M 400
long dead at the M 400
long and so on M 400
long end to the M 396
long area of the M 396
lot out on the M 395
low and is in M 394
long was he at M 394
long end of it M 394
long and so the M 394
long can we be M 392
long sat at the M 388
long run is by M 388
long job of it M 388
long hung on the M 388
long and be so M 387
long ago or the M 386
lot and so on M 385
long and is at M 384
long each of us M 382
low seat of the M 378
low end is the M 378
long way if the M 378
log you in to M 378
long day to be M 376
long use of it M 372
long and go to M 372
long way if he M 370
long leap to the M 370
long fear of it M 370
long has to be M 369
long was at the M 368
lot than in the M 366
long ago on an M 366
long run is no M 364
long with us to M 361
long run is as M 360
long lay in the M 360
long for me as M 359
low area to the M 358
long run as in M 358
long poem at the M 358
log mean of the M 355
long that we no M 354
long and to so M 354
long had it on M 352
long ago on my M 347
low cry of the M 346
log was in the M 346
long may it do M 345
long and in as M 345
low that by the M 344
low sun on the M 340
long arm up to M 340
log out in the M 340
log and to the M 340
low singing of the M 338
long way is to M 338
long lead on the M 338
low and so on M 337
lot that is to M 334
long and on an M 330
low and if it M 328
low area on the M 326
long way as the M 326
long seat in the M 326
long sat on the M 326
long ago of an M 326
long ago as if M 326
long way or the M 324
long bow of the M 324
long way on my M 322
low that we do M 320
long way to me M 320
long way to an M 320
long and we do M 320
long for it is M 318
long age as in M 318
low that at the M 316
long with me in M 314
long use to the M 312
long head is as M 307
long dip in the M 306
low gear on the M 304
long way in to M 304
long poem by an M 304
long and be as M 303
low bit of the M 300
long one is the M 300
low can it go M 296
low and in an M 296
long that if it M 296
long leg on the M 296
log lay on the M 296
lot that it is M 295
long way is the M 294
long one by the M 294
lot may be in M 292
low use is to M 290
long run as we M 290
long one to me M 290
long but at the M 290
long and at an M 290
lot are on the M 289
long led us to M 288
long arm is the M 288
long and if he M 288
lot lying on the M 287
long one or the M 286
log this is the M 286
long run or to M 284
lot are in the M 282
low one to the M 280
long out on the M 280
lot and we do M 278
long team up the M 278
long that if the M 276
long gap in my M 276
long bar to the M 276
long ere the king M 274
long can he be M 274
low heat of the M 270
low bow to my M 270
low and so it M 270
long lead of the M 270
long way if we M 268
long then as we M 267
long dead to the M 267
low than at the M 266
lot with me in M 266
lot that is in M 266
long set in the M 266
long run of it M 266
long and so it M 266
long she is to M 265
long run of an M 264
long two of the M 262
long run is so M 262
long fly to the M 262
low pay as the M 260
long but as the M 260
long all of us M 258
long that he or M 257
long run do the M 256
long cling to the M 255
low that if it M 254
low one at the M 254
long she or he M 254
low that on the M 252
low cut at the M 252
low bow at the M 252
long was he on M 252
long era in the M 252
long and at so M 252
long going on in M 251
low gear in the M 250
long with us in M 250
long wings in the M 250
low then it is M 249
low was in the M 248
long and so is M 248
long ago the king M 248
long now as it M 247
low pay is the M 246
lot for us in M 246
low and in no M 244
lot was it to M 244
long run or on M 244
low end or the M 242
long dead to be M 242
long ago at my M 242
low but at the M 240
low and is the M 240
long box in the M 240
low but by no M 238
lot for it to M 238
long box on the M 238
lot with us as M 237
low man in an M 236
long and as it M 236
lot and on to M 234
long run so as M 233
low pay or no M 231
long goes on to M 230
long for me in M 230
low that of the M 228
low pay on the M 228
long put to the M 227
long had of the M 227
long one as the M 226
long lie in the M 226
long had it at M 226
long ago to us M 226
long and is as M 225
low than it is M 224
low gear up the M 224
low men in the M 222
low and we do M 222
low and of no M 222
lot out to the M 221
long war to the M 220
long run the king M 220
long poem of my M 220
low this is the M 219
low are to be M 219
long this thing is M 219
long are in the M 218
long ago as on M 218
log and of the M 218
low pay at the M 216
low end in the M 216
long way to us M 216
long one to be M 216
long head to the M 216
long day in an M 216
long and as he M 216
long put on the M 215
long ago by us M 215
low and is of M 214
low than on the M 212
low pay to the M 212
low dip in the M 212
long way as an M 212
long ere it be M 211
low year of the M 210
low sun of the M 210
low now as it M 210
long arm by the M 208
long arc in the M 208
long ago up to M 208
low heat in an M 206
long bit of the M 206
log that is to M 206
long this is the M 205
long day in my M 204
lot with me to M 203
long and in no M 203
low things of the M 202
low key on the M 202
long way up or M 202
long death of the M 202
long they go on M 201
long lay on the M 201
long use as the M 200
long than if it M 200
long one is to M 200
long leap in the M 200
long going by as M 200
long and as if M 200
long ago is to M 200
low that is the M 199
low seat at my M 198
low bow in the M 198
long use of so M 197
low wings of the M 196
long had he to M 196
long and so we M 196
long and if we M 196
log and it is M 196
long for as the M 195
low that he or M 194
lot that he is M 194
lot and if the M 194
long year at the M 194
long run as he M 194
long fear of the M 194
long dead as to M 194
long are we in M 194
long bow to the M 193
lot was to go M 192
long way on to M 192
long way as it M 192
long did he go M 192
long day it is M 192
long and on so M 192
low area at the M 190
long poem is to M 190
long and of no M 190
lot but in the M 189
low beat of the M 188
log one of the M 188
low with me in M 186
low heat so the M 186
long way in it M 186
log them in the M 186
log out to the M 186
low gap at the M 184
low end on the M 184
long box at the M 184
long arm of it M 184
long and is on M 184
long led by the M 183
low heat to the M 182
lot but at the M 182
long head in the M 182
long for at the M 182
lot that is of M 180
long you go on M 180
long leg in the M 180
long that is as M 179
low that the king M 178
low arm of the M 178
lot out of an M 178
long set up in M 178
long one is in M 178
long had on the M 178
lot area of the M 177
lot has to go M 176
long year of the M 176
long head on the M 176
low and at an M 174
lot that of the M 174
lot and go on M 174
long run is it M 174
long and to no M 174
lot may be to M 172
long way on an M 172
long map of the M 172
long head is the M 172
long can we do M 172
lot yet to do M 170
long way up it M 170
long war by the M 170
long lay at the M 170
log and so on M 170
long seat of the M 168
long eating of the M 168
long and so he M 168
long ago is an M 167
low but on the M 166
long has he to M 166
long going to the M 166
long and as we M 166
low are we to M 165
low but as the M 164
lot with it in M 164
lot goes to the M 164
long way on in M 164
long use it is M 164
long going to be M 164
long ago by king M 164
long who on the M 162
long song of the M 162
long end in the M 162
long end at the M 162
long ash on the M 162
log was on the M 162
lot that is the M 161
lot going on up M 161
low pay or the M 160
low gear as it M 160
low bias in the M 160
long that to be M 160
long run we go M 160
long path on the M 160
low has to be M 159
long now in the M 159
low lying in the M 158
lot owing to the M 158
lot and do it M 158
long she is in M 158
long dear to me M 158
long ago or at M 157
low not to be M 156
low mean of the M 156
low and as it M 156
lot than it is M 156
lot but we do M 156
long way to it M 156
long cry to the M 156
long but on the M 156
long and in it M 156
long that if he M 155
long for it at M 155
lot with the so M 154
lot both of the M 154
lot and as he M 154
long run as is M 154
long day to me M 154
long day or the M 154
low can it be M 153
low end of it M 152
low arc of the M 152
low and if we M 152
long with it as M 152
long then as it M 152
long head at the M 152
long ban on the M 152
long one if it M 150
long dead on the M 150
long bow at the M 150
long and in an M 150
long with me as M 149
long led up to M 149
low yet as to M 148
low and up to M 148
long they do it M 148
long run is at M 148
long poem on an M 148
long one if the M 148
long led in the M 148
long wings to the M 146
long was it on M 146
long gap of the M 146
long for in my M 146
long end of an M 146
low now in the M 145
log you in as M 145
low head of the M 144
low cry as he M 144
lot going on to M 144
lot and so do M 144
long set by the M 144
long but of the M 144
long arm of no M 144
lot this is the M 143
low gear at the M 142
low gear as the M 142
low bid in the M 142
long ill of an M 142
long bow is the M 142
long being to the M 142
long let it be M 141
low that if we M 140
low key as the M 140
low and as if M 140
long use as an M 140
long run if an M 140
long leg up on M 140
long for it or M 140
long being in the M 140
lot may be so M 138
long with us as M 138
long run if no M 138
long run be at M 138
long for it if M 138
long day as the M 138
log and at the M 138
low with me at M 136
low bow to me M 136
low and is so M 136
lot was in no M 136
long way as he M 136
long plea to the M 136
long man in the M 136
long day as we M 136
long and to do M 136
long ago or by M 136
long ago is in M 136
low that if he M 134
low rear of the M 134
lot had to go M 134
lot all of the M 134
long war to be M 134
long use on the M 134
long than it is M 134
long one as it M 134
long day as he M 134
long with me is M 133
long ago or to M 133
lot that in the M 132
long key in the M 132
long ash at the M 132
long arm up the M 132
long and the wing M 132
long and go as M 132
low song in the M 130
low key so as M 130
low cry as of M 130
low being on the M 130
low and by no M 130
long run as if M 130
long end on the M 130
long dear to us M 130
long did he do M 129
log out of an M 129
long use to be M 128
long run he or M 128
long poem is in M 128
long cry in the M 128
long ago so he M 128
long out of an M 127
low one by the M 126
low arc in the M 126
long one to my M 126
long one of us M 126
long lying of the M 126
long does he or M 126
long cut of the M 126
long and in my M 126
long ago if so M 126
long that is the M 125
long read in the M 125
long lying in so M 125
low near to the M 124
lot for me at M 124
lot and if we M 124
long seat on the M 124
long run or at M 124
long run by so M 124
long one as he M 124
long can he or M 124
long beat of the M 124
log lying at the M 124
long had on my M 123
long for me the M 123
log lay in the M 123
low gap of the M 122
lot was to the M 122
lot was of the M 122
lot can go on M 122
long that he at M 122
long sit on the M 121
long ago is no M 121
lot now in the M 120
lot and as the M 120
long way as we M 120
long war at the M 120
long day at my M 120
long area in the M 120
lot may be of M 118
lot for me if M 118
long way on it M 118
long set on the M 118
long path up the M 118
long one as in M 118
long may he do M 118
long day to go M 118
long ago to eat M 118
low man of the M 116
low had to be M 116
low gear as he M 116
long way up on M 116
long way by it M 116
long nor is it M 116
long myth of the M 116
long did he or M 116
low all of the M 115
low heat at the M 114
low bar of the M 114
low air on the M 114
long now as the M 114
long job in the M 114
long for is in M 114
long dead of the M 114
long and on it M 114
low seat on the M 112
low gear to the M 112
lot and is the M 112
lot and if he M 112
long year on the M 112
long war is to M 112
long top of the M 112
long for me at M 112
long arm of my M 112
log set in the M 111
log out at the M 111
low end at the M 110
low and is an M 110
lot and if it M 110
lot and do the M 110
long way via the M 110
long tow to the M 110
long now to go M 110
long fly in the M 110
long bow on the M 110
long both in the M 110
long both by the M 110
log out of my M 110
long ere he is M 109
low gap on the M 108
low aim is the M 108
long poem on my M 108
long now to the M 108
long but he is M 108
long and if so M 108
lot going to the M 107
long way in so M 107
long both of us M 107
long and of so M 107
log off at the M 107
low gear of the M 106
low end of my M 106
lot may be at M 106
long year of my M 106
long way up at M 106
long run on an M 106
long poem as the M 106
long job to do M 106
long day to do M 106
long arc on the M 106
long and so to M 106
long ago if my M 106
low end up to M 104
low and go to M 104
lot area of at M 104
long one if he M 104
long that if we M 103
low pay in an M 102
low owing to an M 102
low but if the M 102
low bid to the M 102
low bar to the M 102
lot lay in the M 102
lot going on on M 102
lot but by the M 102
lot both in the M 102
long one if we M 102
long ago we do M 102
low two of the M 100
low seat as if M 100
low pay to be M 100
low and as he M 100
lot led to the M 100
lot for me as M 100
lot and to do M 100
lot and so it M 100
long was it he M 100
long put it in M 100
long poem it is M 100
long one or if M 100
long key to the M 100
long key at the M 100
long ill as to M 100
long day is the M 100
long bow or the M 100
log may be of M 100
log can be an M 100
lot but on the M 99
lot but he is M 99
long did the king M 99
low wings to the M 98
low key as to M 98
low end it is M 98
low east of the M 98
lot who is to M 98
lot that is at M 98
lot out by the M 98
long use of an M 98
long too as the M 98
long cut to the M 98
long box to the M 98
long arm is to M 98
long and is no M 98
log due to the M 98
long run be so M 97
low bid of the M 96
low bid at the M 96
lot out at the M 96
long that it be M 96
long run at an M 96
long long as the M 96
log than in the M 96
log and by the M 96
low than if the M 94
low set in the M 94
low heat or on M 94
low gap to the M 94
low being in the M 94
low and go up M 94
lot for it in M 94
long way to eat M 94
long day on my M 94
long arm as if M 94
log that is the M 94
log can be as M 93
low set of the M 92
low heat so it M 92
low and the king M 92
lot than to the M 92
long way so we M 92
long war is the M 92
long run so to M 92
long men of the M 92
long day as it M 92
long and do so M 92
long and be of M 92
lot not to do M 91
log are to be M 91
low that is in M 90
low sky of the M 90
low and of an M 90
long year to the M 90
long year to be M 90
long run of no M 90
long poem he is M 90
long leap of the M 90
long arc at the M 90
log that it is M 89
low bow to it M 88
low both on the M 88
lot with us on M 88
long run by no M 88
long has the king M 88
long day is an M 88
long arm to be M 88
long arm is at M 88
long run be on M 87
long dead or at M 87
long dead as the M 87
low year in the M 86
low than to the M 86
low mean thing to M 86
low lying on the M 86
low bow to us M 86
lot with us or M 86
lot goes on at M 86
long wings on the M 86
long that as he M 86
long set of the M 86
long seat by the M 86
long run at it M 86
long leg as he M 86
long head is in M 86
long cut on my M 86
long arm or the M 86
long and do the M 86
long aim of the M 86
long ago is of M 86
lot and to my M 85
long ran in my M 85
low sun on my M 84
low but he is M 84
low bow as the M 84
lot with us to M 84
lot and in no M 84
lot and eat at M 84
long run to no M 84
long run of my M 84
long poem in an M 84
long may we so M 84
long dip of the M 84
long day to us M 84
long ago as king M 84
low key by the M 82
low but so is M 82
low and so we M 82
lot was to do M 82
long path to be M 82
long one to go M 82
long one in my M 82
low one it is M 80
low and if he M 80
low and as we M 80
lot now to the M 80
lot may be an M 80
lot going on the M 80
long war is an M 80
long war as the M 80
long run in so M 80
long hung up in M 80
long east of the M 80
long day to an M 80
long day of my M 80
log and in my M 80
low low no no M 73
long for the thing M 73
long ago or of M 71
long had we to M 70
long then it is M 67
long for it the M 66
long sit in the M 63
log run in the M 63
long with us at M 62
long for or to M 60
long with me to M 56
long out at the M 56
long for is an M 56
lot may be as M 55
long are on the M 54
low yes no no M 53
long for to be M 53
long and go on M 53
lot sat at the M 52
long put in the M 52
long not to do M 51
long lying by me M 51
long ago is at M 50
long may be as M 49
long for on the M 49
low and the wing M 48
long way so as M 48
long for us as M 46
long for it on M 46
log put on the M 46
lot going to be M 44
long ago so as M 44
long ago he or M 44
long with me on M 43
long may the king M 43
long for it by M 43
long was of the M 42
long ago is as M 42
low was to be M 41
long ago so the M 41
lot being in the M 40
low ebb in the D 8968
low hum of the D 5196
long row to hoe D 3141
long sip of the D 2798
low ebb of the D 2648
low ebb at the D 1966
low tap at the D 1766
log hut in the D 1664
long row on the D 1564
long ears of the D 1552
log hut on the D 1430
long row of the D 1408
long nap in the D 1240
low rung of the D 1208
low rung on the D 1076
long swing in the D 920
long row in the D 906
low ebb by the D 900
long sip of tea D 892
log hut of the D 864
long lag in the D 840
long tear in the D 770
log jam in the D 723
long swing of the D 722
long for the sea D 703
long beak of the D 700
long sip of my D 670
long row to the D 576
long gun of the D 544
long row at the D 530
long bath in the D 530
low hum in the D 520
low bed in the D 518
low ebb of my D 500
low and the sea D 497
long rob of the D 484
low hum of an D 476
long beam of the D 474
low that the sea D 468
long swing to the D 456
long gun on the D 452
long gun in the D 426
long fur of the D 412
long nap on the D 410
long rip in the D 405
low rim of the D 402
long fed on the D 394
log jam on the D 372
low ebb on the D 350
long bay on the D 350
low rap at the D 348
log hut by the D 348
low ebb as the D 344
log jam at the D 339
low near the sea D 338
long fur on the D 334
long ears at the D 324
long day at sea D 318
log hut to the D 316
log with an ax D 314
long deaf to the D 300
long ears to the D 286
long rod of the D 284
loo with the king D 276
long dean of the D 270
long tip of the D 266
long and the sea D 263
low tax on the D 258
low rung in the D 258
long toes of the D 256
low tap on the D 254
lop nor in the D 244
long ode on the D 236
low den in the D 232
long rod in the D 230
long ears in the D 216
long leaf of the D 214
low bed of the D 212
low peak in the D 210
low wear of the D 206
long ago at sea D 206
long ears on the D 202
low peak of the D 200
low ebb in my D 200
low dam at the D 200
long rod to the D 196
log with the toe D 188
long ray of the D 186
log inn in the D 184
long for the re D 181
low beam of the D 178
long oar at the D 178
long hop to the D 178
long sung in the D 176
log tab of the D 176
low hum as the D 170
long gun at the D 170
long ton in the D 166
log hut at the D 166
long bed of the D 164
low ebb as to D 162
long way by sea D 162
long thong of the D 162
long pin in the D 162
low bun at the D 160
long way to re D 160
long pin to it D 154
long oar in the D 154
long beak in the D 154
long lip of the D 152
long ton at the D 150
long leap in thy D 150
low dam on the D 148
long way in re D 147
low beam in the D 146
long peal of the D 146
low fee or no D 145
long wear on the D 144
low thud of the D 142
low art of the D 140
long rod on the D 140
long rod at the D 140
low dam in the D 138
long ears of an D 138
long way to sea D 137
long ton of the D 134
long peal at the D 134
long hit on the D 132
long way at sea D 130
low ebb as it D 126
low cot in the D 126
long pan of the D 126
long bay in the D 126
long arm of sea D 126
long row by the D 122
long nap of the D 122
long row of us D 120
long out at sea D 120
lop off an ear D 118
long fin on the D 118
long ears as if D 118
low fat or no D 117
long ago as ad D 117
low ebb to the D 116
long ago the sea D 116
low hut on the D 114
low ebb to be D 110
log jam of the D 110
low din of the D 108
long ears as he D 108
long beak at the D 108
low peak at the D 106
long ringing of the D 106
long bay of the D 104
low peak to the D 102
low ebb as in D 102
long ode to the D 102
long beak to the D 102
long tom in the D 101
low sob of the D 100
low ebb if it D 98
long tom on the D 98
long beam to the D 98
long row up the D 96
long ton on the D 94
long jaw of the D 94
low guy on the D 92
long peak of the D 92
long bath at the D 92
low thud of an D 90
lop off at the D 90
long hay in the D 90
low hut of the D 88
long seam in the D 88
long bay to the D 88
low fog on the D 86
low fat in the D 86
low ebb it is D 86
long war at sea D 86
long nap by the D 84
low ebb as we D 82
long tom at the D 82
long beam in the D 82
low that the ear D 80
low for the ear D 80
long tom by the D 80
long sip at the D 80
long pin at the D 80
long gut of the D 80
long fed by the D 80
long fan of the D 80
lot with the sea D 55
long had the ear D 47
long near the sea D 46
low and the ion D 43
