old at that time M 24978
old do you think M 20065
old at this time M 16795
old or too young M 11724
old he was sent M 5642
old as you feel M 3996
old he was when M 3842
old he had been M 3400
old by this time M 3362
old in her arms M 3288
old as they were M 2986
old do you have M 2198
old or too sick M 2156
old king had been M 2134
old by that time M 2121
old as you think M 1566
old as any other M 1378
old it had been M 1226
old it has been M 1220
old it was said M 972
old to bring forth M 950
old or how young M 886
old do you feel M 860
old king had died M 824
old is too young M 794
old in his time M 788
old he was able M 784
old to new ways M 758
old do you take M 716
old he ran away M 712
old to get into M 708
old or has been M 702
old he was made M 698
old do not have M 680
old to bear arms M 658
old as you were M 618
old at any rate M 614
old he had made M 584
old as any part M 546
old as they look M 542
old in his arms M 530
old to run away M 521
old or too poor M 500
old to act like M 472
old do you want M 450
old at his birth M 448
old is this girl M 442
old do not know M 436
old is not only M 432
old at this date M 428
old or too busy M 410
old king was very M 401
old or too lazy M 394
old is not good M 384
old as you look M 380
old or too wise M 378
old or new form M 362
old if they were M 362
old he has been M 362
old do you call M 362
old by any means M 361
old or new ones M 354
old at any time M 341
old or who have M 336
old if they have M 336
old thing all over M 326
old king has been M 318
old up and down M 314
old do not want M 310
old at that date M 309
old king has died M 308
old is not ready M 308
old he had lost M 308
old or too ugly M 302
old in any case M 302
old he had seen M 300
old on that date M 290
old it was when M 290
old he was very M 288
old to get away M 286
old as ten years M 286
old on her back M 282
old as his time M 282
old he may have M 276
old to see what M 272
old in her eyes M 272
old or had been M 270
old on his next M 264
old in his youth M 264
old by her side M 260
old in this case M 258
old in this town M 255
old it may have M 248
old he had come M 246
old in this land M 242
old to die young M 238
old is not very M 236
old is not just M 236
old on one side M 234
old to each other M 232
old as they think M 228
old as they feel M 228
old as had been M 228
old at her side M 226
old as his years M 224
old thing you want M 222
old as has been M 222
old is far more M 220
old as they have M 216
old as two years M 214
old thing has been M 210
old is this young M 208
old to get back M 206
old in its turn M 206
old do not need M 202
old to its love M 200
old he was left M 200
old in new ways M 198
old he was just M 196
old to earn their M 194
old thing that came M 194
old on his last M 194
old in any other M 192
old to fit into M 190
old king had said M 190
old as they seem M 190
old by his side M 189
old king was living M 186
old in his ways M 186
old in all those M 186
old if she were M 186
old or ten years M 184
old on his back M 184
old to new ideas M 182
old in this part M 182
old of him told M 180
old he had gone M 180
old or new wood M 178
old or dead wood M 178
old it hath been M 178
old as you when M 178
old or new ideas M 172
old or any other M 170
old to new jobs M 166
old as six years M 166
old so that there M 160
old as they come M 160
old as she said M 160
old to get down M 159
old as you will M 158
old no one knew M 156
old in his mind M 156
old or new left M 154
old if you have M 154
old as this book M 152
old or new love M 150
old thing you were M 148
old no one ever M 148
old to get over M 147
old in this city M 147
old or new type M 146
old is that girl M 142
old do not seem M 142
old or new plan M 140
old it was hard M 140
old is this lady M 140
old is far from M 140
old do not think M 140
old as you want M 140
old as you like M 140
old to get used M 138
old thing had been M 138
old do they think M 138
old it was time M 136
old is not what M 136
old at his side M 136
old as its name M 136
old in ten years M 134
old in dog years M 134
old as her years M 134
old as all those M 132
old in day care M 131
old or too slow M 130
old or new land M 130
old on her next M 130
old it was very M 130
old is not able M 130
old or two years M 128
old it was clear M 128
old it had lost M 128
old to bear more M 127
old or too much M 127
old or new ways M 126
old king had even M 126
old is that tree M 126
old is dying young M 126
old he was well M 126
old in his turn M 124
old as you seem M 122
old as she felt M 122
old to six years M 120
old to new uses M 120
old is this tree M 120
old in his hand M 120
old is not worth M 118
old in this room M 118
old as she will M 118
old as its hope M 118
old as any form M 118
old as all time M 118
old is not more M 117
old thing that ever M 116
old or for some M 116
old in one case M 116
old he had ever M 116
old do not like M 116
old do not feel M 116
old as you have M 116
old it was held M 114
old in that time M 114
old if you were M 114
old he had used M 114
old he had left M 114
old do not make M 114
old is each girl M 112
old in his work M 112
old if you want M 112
old he was ready M 112
old he was much M 112
old is this baby M 111
old is not much M 111
old we are when M 110
old at this work M 110
old do not care M 108
old by ten years M 108
old it was only M 106
old in this life M 106
old in that city M 106
old king but once M 104
old in two ways M 104
old he was wont M 104
old he had once M 104
old at this game M 104
old at its birth M 104
old thing for years M 102
old in two days M 102
old as old time M 102
old as his face M 100
old or new book M 98
old as you make M 98
old to get work M 97
old king had just M 96
old in that part M 96
old in his heart M 96
old at ten years M 96
old at one time M 96
old to two years M 94
old to cry like M 94
old or new work M 94
old is that there M 94
old he was making M 94
old to run like M 92
old thing you like M 92
old is that baby M 92
old in all these M 92
old if you think M 92
old do they have M 92
old do not show M 92
old he was only M 91
old or too worn M 90
old in this book M 90
old do you know M 90
old as they used M 90
old king was laid M 88
old king one knew M 88
old in his last M 88
old it was wont M 87
old if not more M 87
old we all were M 86
old or that have M 86
old or had died M 86
old king had three M 86
old it was just M 86
old in two years M 86
old in that same M 86
old in his eyes M 86
old to new areas M 84
old in our youth M 84
old in each other M 84
old do not live M 84
old as that time M 83
old to sit upon M 82
old thing you know M 82
old or for young M 82
old king who felt M 82
old it was like M 82
old in all their M 82
old he was told M 82
old or new city M 80
old no one will M 80
old king and said M 80
old in her mind M 80
old he had some M 80
old he had done M 80
old to get much M 64
old to sit down M 52
old at his coming M 40
ole db for data D 977
old in new york D 930
old as his wife D 406
old as our race D 332
old to new laws D 308
old to lay eggs D 218
old sea dog like D 216
old he was sold D 206
old as new york D 154
old king was wrung D 152
old or new laws D 124
old on his knee D 114
old on our knee D 102
old thing that pops D 96
old do not roar D 92
old to wear such D 90
old or new media D 90
old or new corn D 88
old to new media D 86
old on her knee D 84
old at new york D 84
old as his legs D 80
