in the beginning i M 56336
in the country a M 45827
in the following i M 45258
in the process a M 42796
in an instant i M 35710
in the country i M 30157
in the process i M 28216
in the beginning a M 24740
in the passage i M 22484
in an instant a M 19096
in the following a M 18668
in the position i M 14880
in the daytime i M 10533
in my research i M 9890
in so complex a M 9617
in the doorway a M 9291
in my thoughts i M 8782
in my travels i M 8688
in the example i M 8612
in no respect a M 8095
in the picture i M 7984
in so perfect a M 7849
in as natural a M 7753
in the chapter i M 7680
in me because i M 7576
in so limited a M 7573
in the silence i M 7446
in as perfect a M 7176
in an article i M 6970
in the library a M 6968
in the article i M 6902
in the century a M 6514
in the capital a M 6511
in the library i M 6456
in the student a M 6090
in so glorious a M 6084
in so weighty a M 6043
in the account i M 5898
in so peculiar a M 5815
in the position a M 5674
in my position i M 5570
in so general a M 5543
in the letters i M 5328
in my despair i M 5196
in the language i M 5109
in it because i M 5036
in the patient a M 4716
in the stories i M 4628
in so distant a M 4611
in the picture a M 4514
in to provide a M 4413
in my journal i M 4392
in so dreadful a M 4340
in the service i M 4298
in so unusual a M 4291
in my country i M 4190
in as orderly a M 4106
in the company a M 4101
in the service a M 4100
in the sixties a M 4090
in the present a M 4052
in the company i M 3876
in the subject a M 3872
in the remarks i M 3846
in so extreme a M 3798
in the schools a M 3637
in the program a M 3606
in the preface i M 3522
in so pleasant a M 3412
in the equation a M 3388
in the silence a M 3348
in the schools i M 3346
in so obscure a M 3317
in the language a M 3273
in so unequal a M 3270
in the sixties i M 3210
in the passage a M 3188
in the doorway i M 3188
in the fifties a M 3162
in the solution a M 3141
in the present i M 3115
in so exposed a M 3098
in the council a M 3028
in the shadows a M 3021
in so painful a M 2926
in the following t M 2909
in my article i M 2898
in the classes i M 2860
in so natural a M 2834
in the daytime a M 2791
in the material i M 2650
in the example a M 2623
in so summary a M 2563
in my studies i M 2484
in as compact a M 2484
in the capital i M 2456
in to prevent a M 2443
in the research i M 2438
in the shadows i M 2398
in the project a M 2383
in the journal a M 2344
in so familiar a M 2334
in so private a M 2317
in the project i M 2316
in as neutral a M 2305
in my weakness i M 2222
in my classes i M 2222
in the college a M 2194
in the complex s M 2190
in as pleasant a M 2183
in as precise a M 2171
in the society a M 2158
in to produce a M 2146
in so regular a M 2136
in my letters i M 2132
in my country a M 2128
in my anxiety i M 2124
in the subject i M 2116
in my prayers i M 2110
in as private a M 2101
in so compact a M 2065
in the fifties i M 2048
in the program i M 2030
in so awkward a M 2012
in so material a M 2008
in the pleasure i M 2006
in my madness i M 1974
in the channel a M 1960
in the society i M 1958
in the journal i M 1932
in as general a M 1887
in the history i M 1884
in the congress a M 1884
in the instant i M 1882
in my address i M 1850
in so orderly a M 1839
in the circles i M 1832
in my absence i M 1830
in the preface a M 1806
in the chapter a M 1726
in the article a M 1705
in so decided a M 1697
in the northeast a M 1694
in my remarks i M 1666
in my trouble i M 1638
in so elegant a M 1614
in the studies i M 1598
in to perform a M 1594
in so crowded a M 1554
in the elderly a M 1550
in my defense i M 1546
in the attempt i M 1494
in the dimness i M 1488
in the opinions i M 1484
in my journey i M 1482
in my defence i M 1480
in my library a M 1472
in to deliver a M 1451
in so superior a M 1433
in as thorough a M 1412
in the letters a M 1410
in my lecture i M 1398
in my marriage i M 1372
in my library i M 1370
in so immense a M 1338
in the machine a M 1335
in the grounds a M 1314
in as uniform a M 1314
in the summers i M 1312
in so thorough a M 1303
in the respect i M 1302
in so hopeful a M 1298
in so ancient a M 1297
in so intense a M 1284
in to discuss a M 1272
in the academy a M 1270
in the lecture i M 1268
in an article a M 1268
in so unhappy a M 1263
in so retired a M 1251
in the complex a M 1240
in my infancy i M 1236
in the sources i M 1230
in or outside a M 1228
in so affecting a M 1226
in the workers a M 1224
in the columns a M 1210
in so foolish a M 1204
in the gardens a M 1196
in the balance a M 1178
in to support a M 1152
in the abdomen a M 1142
in the decision i M 1140
in the preceding i M 1122
in my absence a M 1116
in so corrupt a M 1114
in the message i M 1110
in so threatening a M 1107
in the college i M 1106
in my thoughts a M 1106
in or against a M 1101
in as complex a M 1100
in the records a M 1076
in to conduct a M 1074
in the details i M 1072
in it becomes a M 1044
in so fragile a M 1040
in the preceding t M 1029
in the journey i M 1028
in the address i M 1028
in the mixture a M 1020
in the forests a M 1012
in the support i M 1006
in to replace a M 998
in as summary a M 994
in the patient s M 993
in the question i M 992
in my account i M 984
in the southeast a M 982
in so hostile a M 976
in the valleys a M 974
in the relation i M 966
in so central a M 964
in as regular a M 963
in my preface i M 958
in the thoughts i M 944
in the figures i M 944
in so literal a M 943
in to prepare a M 941
in my service a M 932
in the network a M 931
in to develop a M 929
in so precise a M 914
in so careful a M 914
in the gardens i M 906
in to receive a M 896
in the members a M 887
in so pointed a M 883
in so diverse a M 879
in the current i M 874
in my company a M 874
in so hurried a M 872
in the division i M 868
in the records i M 864
in the measures i M 856
in the liberty i M 856
in as rational a M 854
in the relation a M 853
in the council i M 848
in the general a M 842
in the product a M 829
in so uniform a M 827
in as similar a M 824
in the account a M 821
in my example i M 816
in the equation i M 813
in the company s M 813
in as logical a M 802
in so gracious a M 801
in the emperor a M 774
in as limited a M 768
in the extreme a M 757
in the pattern a M 746
in the figures a M 740
in so degrading a M 740
in so rational a M 738
in so forward a M 732
in as literal a M 731
in the material a M 721
in so blessed a M 721
in an address i M 714
in as elegant a M 712
in the matters i M 702
in the history a M 702
in to examine a M 694
in so inferior a M 694
in so evident a M 688
in my journal a M 688
in the efforts i M 672
in so reduced a M 670
in so chaotic a M 662
in the moments i M 658
in the culture i M 658
in so gradual a M 658
in on everything i M 657
in so similar a M 654
in as extreme a M 652
in my service i M 646
in as careful a M 640
in the stranger a M 638
in my delight i M 634
in the choices i M 630
in to protect a M 629
in so northern a M 629
in so unhealthy a M 624
in the parents a M 622
in the position d M 619
in the religion i M 612
in as correct a M 612
in as central a M 611
in the concept a M 609
in the decision a M 599
in the balance i M 596
in the equation s M 594
in my illness i M 594
in the equation d M 589
in the parable a M 584
in the outcome a M 582
in the primary a M 581
in the lessons i M 576
in the package a M 574
in to achieve a M 571
in the surface a M 567
in the general i M 559
in the current a M 558
in the marriage a M 557
in the journal d M 555
in the country s M 554
in the minutes i M 552
in my conceit i M 552
in my fifties i M 548
in the answers i M 546
in the academy i M 542
in as faithful a M 542
in the function a M 541
in the question a M 538
in the analyst a M 534
in as hopeful a M 534
in the northern a M 533
in the complex t M 532
in it besides a M 532
in the message a M 530
in the guardian a M 528
in the vessels a M 527
in the episode i M 526
in so blatant a M 526
in the equation t M 524
in so capital a M 524
in my receiving a M 524
in as meaningful a M 522
in my company i M 520
in the bargain a M 512
in my stories i M 512
in to present a M 511
in the package i M 508
in the minutes a M 508
in the congress i M 506
in the attempt a M 506
in so nervous a M 504
in my message i M 504
in the culture a M 500
in the results i M 498
in so cautious a M 493
in the animals a M 484
in the pattern i M 482
in the northern i M 482
in the faithful a M 480
in the problem i M 472
in the shelter i M 466
in it appeared a M 466
in so visible a M 464
in the volumes i M 462
in so divided a M 460
in the division a M 459
in the windows i M 454
in the citizen a M 452
in the southern a M 447
in the following s M 447
in as familiar a M 447
in so subdued a M 446
in my passage i M 444
in the instant a M 442
in my chapter i M 442
in the outline i M 440
in the trouble i M 436
in the numbers i M 436
in so faithful a M 436
in so enviable a M 435
in the temples a M 434
in the promise i M 432
in it because a M 432
in so notable a M 431
in the average a M 429
in the visitor a M 428
in to attempt a M 426
in the request i M 426
in the channel i M 426
in as readable a M 426
in the episode a M 425
in the absence a M 425
in the glimpse i M 424
in the dimness a M 418
in my silence i M 418
in it against a M 416
in the species i M 412
in an address a M 412
in to request a M 410
in the pursuit i M 410
in as guarded a M 409
in the creature a M 408
in the alliance a M 406
in to suggest a M 405
in so correct a M 400
in the windows a M 399
in the exchange a M 398
in to collect a M 397
in the bargain i M 392
in or support a M 392
in the writers i M 390
in the relation s M 390
in the highest i M 390
in the complex i M 390
in as upright a M 387
in the preceding a M 384
in the females a M 384
in my command i M 384
in the position s M 383
in to correct a M 382
in so massive a M 382
in so guarded a M 382
in the objects i M 380
in so removed a M 379
in the journey a M 378
in the results a M 376
in the grounds i M 366
in so inhuman a M 365
in the friends i M 362
in my position a M 362
in as awkward a M 361
in my efforts i M 360
in so typical a M 357
in the problem a M 356
in so ruthless a M 356
in my language i M 356
in my material i M 354
in the summary i M 352
in the outcome i M 352
in to address a M 350
in the details a M 348
in the buildings i M 348
in so altered a M 348
in it towards a M 348
in my history i M 346
in the classes a M 343
in so precious a M 343
in or touches a M 342
in as diverse a M 341
in to enforce a M 336
in as cautious a M 336
in the research a M 334
in my poverty i M 334
in the northeast i M 332
in my beginning i M 330
in the winters i M 328
in the stories a M 328
in the samples i M 328
in the dispute a M 328
in the surface s M 326
in my sadness i M 324
in to witness a M 320
in the persons i M 320
in so southern a M 320
in the extreme s M 318
in as peculiar a M 317
in the quarter i M 316
in my project i M 316
in my picture i M 316
in my suffering i M 314
in the country t M 312
in so supreme a M 312
in so austere a M 312
in the versions i M 310
in the revision i M 310
in the descent i M 310
in as reassuring a M 310
in the request a M 308
in the phrases a M 308
in the phrases i M 306
in as forward a M 306
in the pursuit a M 302
in the machine i M 302
in the conduct i M 300
in the catalog a M 300
in so decayed a M 300
in the factors a M 296
in an example i M 294
in my conduct i M 292
in the prayers i M 288
in the anxiety i M 286
in it remains a M 286
in as sincere a M 283
in the freedom i M 282
in my century i M 282
in it everything i M 282
in my account a M 280
in the suffering i M 278
in so sincere a M 278
in so useless a M 276
in the grammar a M 274
in the advance a M 274
in my jealousy i M 274
in to satisfy a M 272
in the success i M 272
in the citadel a M 272
in the samples a M 271
in so hateful a M 271
in the uniform i M 270
in the routine i M 270
in the outline a M 270
in the colours i M 268
in my leisure i M 268
in to restore a M 266
in to destroy a M 266
in my descent i M 266
in as routine a M 266
in the element a M 265
in to explain a M 264
in the species a M 264
in the emperor s M 263
in the absence i M 263
in the captain a M 262
in so illegal a M 261
in my replies i M 260
in so prudent a M 258
in the vehicle a M 256
in the address a M 256
in it perhaps a M 256
in the accused a M 254
in so damaged a M 254
in to install a M 253
in as reliable a M 252
in to relieve a M 250
in to observe a M 250
in to justify a M 250
in the valleys i M 250
in the southern i M 250
in the soldier a M 250
in the highway a M 250
in my affairs i M 250
in my answers i M 246
in the solution i M 244
in the prisons a M 242
in so heavenly a M 242
in my summary i M 242
in to control a M 238
in the editions i M 238
in or between a M 236
in the exchange i M 234
in my travels a M 234
in the position t M 233
in so neutral a M 232
in so logical a M 232
in as intense a M 232
in the shelter a M 231
in the function s M 230
in the patient i M 228
in the debates i M 228
in so weakened a M 228
in as painful a M 228
in the tragedy a M 226
in as helpful a M 226
in the marriage i M 224
in as glorious a M 222
in so readable a M 220
in or visited a M 220
in the entropy s M 219
in the sources a M 218
in the forests i M 218
in the command a M 218
in as genuine a M 218
in the extreme i M 217
in us becomes a M 216
in so genuine a M 216
in as gracious a M 216
in the debates a M 215
in the instant t M 214
in the gateway a M 214
in the concern i M 212
in so declining a M 212
in as unified a M 212
in the systems a M 210
in the delight i M 210
in the defence i M 210
in no quarter a M 210
in an account i M 210
in so measured a M 209
in to exchange a M 208
in the quarter a M 208
in as chaotic a M 208
in the parable i M 206
in the century i M 206
in so worldly a M 206
in as visible a M 205
in the natural i M 203
in so confusing a M 202
in my letters a M 202
in the command i M 200
in my boredom i M 198
in my attempt i M 196
in an episode i M 196
in is usually a M 195
in to capture a M 194
in the animals i M 194
in my infancy a M 194
in it although i M 194
in the algebra a M 193
in to propose a M 192
in the location i M 192
in is because i M 192
in as certain a M 192
in the columns i M 190
in so diseased a M 190
in the product i M 188
in the teachers a M 186
in the devotee a M 186
in the crusade a M 186
in or attending a M 186
in the subject s M 184
in the remaining i M 184
in to congress a M 182
in the lecture a M 182
in so elderly a M 182
in so demanding a M 182
in it possess a M 182
in by providing a M 182
in as dreadful a M 182
in as distant a M 182
in the student s M 180
in so certain a M 180
in is largely a M 179
in the following d M 177
in the rotation a M 176
in the rainbow a M 176
in the comment i M 176
in so chronic a M 176
in my wandering i M 176
in it between a M 176
in the pilgrim s M 175
in the traffic a M 174
in it exceeds a M 174
in the spirits a M 172
in so unlucky a M 172
in so orthodox a M 172
in the display a M 170
in as foolish a M 170
in the witness a M 168
in the summons a M 168
in the occasion a M 168
in the imagery i M 168
in the domains i M 168
in as unhappy a M 168
in as gradual a M 168
in the highest a M 167
in the culprit a M 166
in the counsel i M 166
in it brought a M 166
in as optimal a M 166
in as hostile a M 166
in as subdued a M 165
in as truthful a M 163
in the aesthetic i M 162
in so capable a M 162
in no country a M 162
in as retired a M 162
in as minimal a M 162
in the present s M 161
in the effects a M 161
in as orthodox a M 161
in the profile a M 160
in the pleasure a M 160
in the function t M 160
in so suffering a M 160
in no language i M 160
in it implies a M 160
in as decided a M 159
in the purpose i M 158
in the profits a M 158
in so unknown a M 158
in my picture a M 158
in it require a M 158
in my remarks a M 156
in it requiring a M 156
in the western i M 155
in the function i M 155
in the vehicle i M 154
in the network i M 154
in it provide a M 154
in as weighty a M 154
in the quality i M 152
in as passive a M 152
in or occupying a M 151
in the unknown a M 150
in the preacher a M 150
in the monarch a M 150
in the gateway i M 150
in the central a M 150
in the beliefs i M 150
in my revision i M 150
in the systems i M 148
in the replies i M 148
in the mystery i M 148
in or control a M 148
in the turmoil i M 146
in my outrage i M 146
in my doorway a M 146
in the highest s M 145
in the pronoun i M 144
in the analogy i M 144
in an exchange a M 144
in the endeavor i M 142
in the concern a M 142
in the choices a M 141
in the traffic i M 140
in as enviable a M 140
in the initiate a M 138
in no stronger a M 138
in an algebra a M 138
in the program s M 137
in as threatening a M 137
in the familiar s M 136
in so devoted a M 136
in or operating a M 136
in my sixties i M 136
in my language a M 136
in the prophet a M 134
in no language a M 134
in my accepting a M 134
in it resides a M 134
in to dictate a M 132
in the mixture i M 132
in the descent a M 132
in the decades i M 132
in it produce a M 132
in it everything a M 132
in an unknown a M 132
in the control a M 130
in the algebra i M 130
in or following a M 130
in my classes a M 130
in as obscure a M 130
in the trainee a M 128
in the preceding s M 128
in my purpose i M 128
in as blatant a M 128
in the emotions i M 126
in my uniform i M 126
in my acquiring a M 126
in to execute a M 125
in the dispute i M 124
in an exchange i M 124
in the primary i M 123
in the minimal s M 123
in the voyages i M 122
in the burdens a M 122
in my research a M 122
in my comment i M 122
in to confirm a M 121
in as exposed a M 121
in the vocation i M 120
in the summary a M 120
in the protest i M 120
in the lantern a M 120
in the eternal i M 120
in the concept i M 120
in the abdomen i M 120
in so adverse a M 120
in my freedom i M 120
in it present a M 120
in it acquire a M 120
in as generic a M 120
in to sustain a M 118
in the reliance i M 118
in the prisons i M 118
in the numbers a M 118
in so cynical a M 118
in my religion i M 118
in it carries a M 118
in the relation t M 117
in the current s M 117
in by degrees a M 117
in to consult a M 116
in to appoint a M 116
in the victims a M 116
in the officer a M 116
in so elusive a M 116
in my division i M 116
in at present i M 115
in to declare a M 114
in the support a M 114
in the notices i M 114
in the element d M 114
in so routine a M 114
in or affecting a M 114
in the typical s M 112
in the squares i M 112
in the revision a M 112
in the control i M 112
in the ancient i M 112
in so passive a M 112
in or develop a M 112
in my decision i M 112
in it contain a M 112
in it carried a M 112
in as unusual a M 112
in to acquire a M 110
in the location a M 110
in the largest a M 110
in the climate i M 110
in the buildings a M 110
in so upright a M 110
in so quietly i M 110
in my friends i M 110
in the accepting a M 108
in so organic a M 108
in or observing a M 108
in or observe a M 108
in my patient a M 108
in my lecture a M 108
in the systems s M 107
in as massive a M 107
in the privacy i M 106
in the parties a M 106
in the language s M 106
in the illness a M 106
in the fraction a M 106
in the familiar i M 106
in the eleventh a M 106
in my subject i M 106
in me whereby i M 106
in he noticed a M 106
in the tragedy i M 104
in the mandate a M 104
in the centers a M 104
in the blessings i M 104
in so selfish a M 104
in or conduct a M 104
in it assumes a M 104
in an account a M 104
in the temples i M 102
in the providing a M 102
in the lightning a M 102
in the fraction i M 102
in the comfort i M 102
in the bordering a M 102
in my embrace i M 102
in me although i M 102
in the writers a M 100
in the weekend i M 100
in the triumph i M 100
in the reactions a M 100
in the exhibit a M 100
in the affairs i M 100
in no country i M 100
in my essence i M 100
in it touched a M 100
in as typical a M 100
in as focused a M 100
in as corrupt a M 100
in an embrace i M 100
in so cryptic a M 99
in the wonders i M 98
in the virtues i M 98
in the remaining a M 98
in the empress a M 98
in the embrace a M 98
in so truthful a M 98
in so fearless a M 98
in the central i M 97
in the success a M 96
in the religion a M 96
in the missions a M 96
in the miracle a M 96
in the finishing a M 96
in my lessons i M 96
in my devotion i M 96
in as ruthless a M 96
in an attempt i M 96
in as ancient a M 95
in the western a M 94
in the welcome i M 94
in the imagery a M 94
in the company d M 94
in so evasive a M 94
in my triumph i M 94
in my torment i M 94
in my request i M 94
in my disgust i M 94
in the teachers i M 92
in the sorrows i M 92
in the reactions i M 92
in the content i M 92
in the contact a M 92
in so assured a M 92
in it including a M 92
in the present t M 91
in the counter a M 91
in the assured a M 91
in us towards a M 90
in the vessels i M 90
in the typical t M 90
in the harness i M 90
in the effects i M 90
in the demands i M 90
in the defence a M 90
in the citadel i M 90
in the awakening i M 90
in the affront i M 90
in so magical a M 90
in my program i M 90
in my present i M 90
in it develop a M 90
in the visible a M 88
in so reliable a M 88
in my refusal i M 88
in my modesty i M 88
in it suggest a M 88
in an example a M 88
in the content a M 87
in to display a M 86
in the creature i M 86
in so immoral a M 86
in so dutiful a M 86
in my records a M 86
in the witness i M 84
in the viewers a M 84
in the recruit a M 84
in the letters s M 84
in the essence a M 84
in the designs i M 84
in the circles a M 84
in the assault a M 84
in so primary a M 84
in my baptism i M 84
in as hurried a M 84
in the volumes a M 82
in the thoughts a M 82
in the respect a M 82
in the familiar t M 82
in the failure a M 82
in the answers a M 82
in my ability i M 82
in the profits i M 80
in the harmony i M 80
in the catalog i M 80
in the apology a M 80
in my searches i M 80
in my euphoria i M 80
in my concern i M 80
in as notable a M 80
in as company a M 72
in to operate a M 67
in the peculiar a M 58
in the student t M 57
in the natural a M 56
in to clarify a M 53
in the general s M 53
in the element i M 51
in to service a M 49
in to fulfill a M 49
in to convert a M 49
in as measured a M 49
in the present d M 46
in to monitor a M 45
in to initiate a M 45
in to disturb a M 45
in the symbols a M 45
in the overall a M 45
in by following a M 45
in to recover a M 43
in the captain s M 43
in to whisper a M 42
in the function d M 42
in the familiar a M 42
in the compact a M 40
in the meantime i D 227248
in the meantime a D 107157
in the kitchen i D 17376
in the village a D 15818
in so eminent a D 13207
in the kitchen a D 12057
in the village i D 11524
in the interim i D 8672
in the streets a D 7323
in my boyhood i D 7288
in the interior a D 7137
in as concise a D 6282
in the bathroom i D 6138
in the interim a D 5829
in the foregoing i D 5724
in the streets i D 5540
in the vitamin d D 5500
in the vitamin a D 5232
in the commons a D 4718
in the bedroom i D 4342
in the gazette a D 4278
in the circuit a D 4080
in the stomach a D 4055
in the formula a D 4012
in the chamber a D 3971
in the tropics a D 3890
in the pacific a D 3820
in the treasury a D 3763
in the thirties a D 3698
in so ruinous a D 3323
in the hallway i D 3308
in the cabinet a D 3233
in my bedroom i D 3016
in the bathroom a D 2872
in the context i D 2713
in so exalted a D 2700
in the hallway a D 2684
in the islands a D 2444
in the bedroom a D 2196
in the suburbs a D 2081
in the gallery a D 2024
in the gospels a D 1989
in my stomach i D 1944
in so radical a D 1849
in the cabinet i D 1818
in so liberal a D 1804
in the gallery i D 1800
in the factory i D 1764
in the context a D 1760
in the courses i D 1738
in the carriage i D 1702
in the forties a D 1655
in the interior i D 1650
in my naivete i D 1650
in the charter a D 1648
in the furnace a D 1625
in so arduous a D 1614
in the factory a D 1592
in the posture i D 1572
in so forlorn a D 1542
in so promising a D 1512
in so popular a D 1506
in the thirties i D 1486
in the economy a D 1484
in my fantasy i D 1480
in the chancel a D 1462
in the convent a D 1375
in so gallant a D 1372
in the extract i D 1334
in my thirties i D 1306
in my pockets i D 1294
in the carriage a D 1291
in so unworthy a D 1277
in the tropics i D 1248
in the islands i D 1238
in the convent i D 1236
in the nursery a D 1220
in so pitiable a D 1220
in as relaxed a D 1204
in so pitiful a D 1157
in so drastic a D 1132
in the sheriff s D 1124
in the statute a D 1098
in as unbiased a D 1090
in as popular a D 1089
in the reports i D 1082
in so sublime a D 1076
in the formula i D 1075
in the cottage i D 1044
in my village i D 1038
in the crystal a D 1016
in the pacific i D 1008
in the orchard a D 987
in the variable a D 982
in the formula s D 982
in the horizon a D 971
in the foregoing a D 956
in the capitol a D 950
in the nucleus a D 948
in as eminent a D 936
in my boyhood a D 930
in so concise a D 923
in so cursory a D 918
in the orchard i D 914
in the election a D 914
in the tissues a D 908
in my chamber i D 906
in the preamble a D 890
in the suburbs i D 888
in the scenario i D 826
in so pathetic a D 814
in the forties i D 810
in the variable t D 808
in the chamber i D 808
in the sections i D 802
in the cockpit i D 786
in the stomach i D 776
in the nursery i D 776
in my kitchen i D 774
in so excited a D 768
in the odyssey a D 750
in so fertile a D 744
in my forties i D 734
in so startling a D 716
in the tribune a D 700
in the natives a D 690
in the bladder a D 690
in the chamber d D 680
in the cottage a D 678
in the formula d D 676
in the variable s D 666
in as liberal a D 654
in my rambles i D 648
in the treatise i D 632
in so gorgeous a D 631
in so haughty a D 616
in so heinous a D 612
in so graphic a D 610
in the pasture a D 601
in so shallow a D 591
in the roadway a D 588
in the airport i D 588
in my sermons i D 588
in so opulent a D 583
in the cockpit a D 576
in the offspring a D 574
in the sections a D 572
in so peaceful a D 570
in my dilemma i D 566
in the newborn a D 562
in the diaspora a D 562
in as tactful a D 546
in the scuffle a D 538
in my bedroom a D 534
in the diagonal a D 532
in as radical a D 531
in my reverie i D 530
in the sessions i D 528
in the vacation i D 526
in the seminar i D 526
in to resolve a D 525
in the triangles a D 523
in the chimney a D 523
in so genteel a D 520
in my naivety i D 508
in my chamber a D 504
in the scuffle i D 498
in an election a D 496
in the chancel s D 494
in so slender a D 494
in so catholic a D 490
in my paintings i D 486
in as peaceful a D 484
in the pavilion a D 482
in so variable a D 478
in so peaceable a D 468
in as graphic a D 465
in so warlike a D 458
in the grapple i D 456
in the indices i D 450
in the inquiry i D 442
in the contest i D 440
in the contest a D 438
in so revolting a D 438
in so prosaic a D 436
in so ghastly a D 436
in the segment a D 435
in the variable i D 433
in so parlous a D 430
in so cramped a D 428
in so youthful a D 424
in the election i D 422
in the curtain i D 422
in so refined a D 420
in the outlook a D 418
in so bizarre a D 414
in the circuit i D 413
in the commune a D 412
in my stomach a D 410
in the canteen i D 408
in the diagrams a D 403
in the dominion a D 400
in the petition a D 398
in as offhand a D 398
in the costume i D 396
in the previous t D 394
in the muscles a D 394
in the stables a D 390
in the borough a D 390
in my mailbox a D 390
in the markets a D 388
in so stately a D 383
in so poetical a D 374
in the trinity a D 372
in the sermons i D 368
in the commons i D 366
in so doleful a D 360
in as ruinous a D 358
in so spacious a D 357
in so insulting a D 346
in the stables i D 340
in the kidneys a D 340
in the grantee a D 338
in the fantasy i D 338
in the gospels i D 336
in as sterile a D 334
in so ungainly a D 332
in so comical a D 332
in my cabinet a D 332
in the previous a D 329
in the indices a D 329
in the freezer a D 328
in the backseat i D 326
in so tottering a D 324
in my reports i D 322
in so offhand a D 317
in the pasture i D 316
in the formula t D 316
in so congenial a D 315
in the liturgy a D 314
in the faculty a D 312
in my hammock i D 312
in the corners a D 308
in so mundane a D 308
in so ignoble a D 308
in the marshes a D 306
in my ecstasy i D 306
in as forlorn a D 306
in the marines i D 304
in the prelude a D 302
in the painter a D 302
in so foreign a D 302
in the science i D 300
in the tempest a D 298
in so audible a D 298
in as pitiable a D 298
in or adjoining a D 297
in so profuse a D 296
in my memoirs i D 296
in the medulla a D 294
in the epistle a D 293
in the treatise a D 290
in the paintings i D 290
in my village a D 290
in the previous i D 289
in the masonry a D 288
in the margins a D 288
in my bathroom i D 288
in an orchard a D 286
in the markets i D 284
in the laundry i D 284
in the hollows a D 284
in the workman a D 282
in my manhood i D 282
in the booklet a D 280
in the cluster a D 279
in so inglorious a D 278
in so diffuse a D 278
in the protein a D 276
in the diagrams i D 276
in so oblique a D 274
in the horizon i D 272
in my obtaining a D 270
in as stately a D 270
in the solvent s D 268
in the legends i D 266
in the peasants a D 264
in my pajamas i D 264
in my daydream i D 264
in so pompous a D 262
in the willows a D 257
in the thickets i D 256
in the gesture a D 254
in so tangible a D 254
in the solvent a D 252
in so uplifting a D 252
in so favored a D 252
in my courses i D 250
in my inquiry i D 248
in the straits a D 246
in the courier a D 246
in my carriage i D 246
in the prairie a D 244
in the economy i D 244
in the pillory a D 242
in the embassy i D 242
in my carriage a D 240
in my kitchen a D 236
in to promote a D 234
in the pharynx a D 234
in the margins i D 232
in the husband a D 232
in so dynamic a D 232
in the treasury i D 230
in the hammock i D 230
in the blanket i D 230
in so lawless a D 230
in the premise i D 228
in the mammals a D 228
in the lexicon a D 228
in the estuary a D 228
in so sterile a D 228
in so servile a D 228
in my luggage i D 228
in the omnibus i D 224
in my custody a D 222
in as pitiful a D 222
in as genteel a D 221
in the bottoms a D 220
in so relaxed a D 219
in the capsule a D 218
in the battery a D 218
in so especial a D 218
in as parlous a D 218
in the pavilion i D 216
in the balcony a D 216
in as pompous a D 216
in so appalling a D 214
in as promising a D 214
in as haughty a D 213
in the venture a D 210
in the flowers i D 210
in the cavalry a D 210
in so musical a D 210
in so caressing a D 210
in my pockets a D 210
in the embassy a D 208
in the tribute i D 206
in the offices i D 206
in as pathetic a D 206
in to inspect a D 204
in the notation i D 204
in the lottery i D 204
in the freezer i D 204
in the crystal i D 204
in the bottles a D 202
in so slavish a D 202
in as aseptic a D 202
in the residue a D 200
in the heroine a D 200
in the freeman s D 200
in the stadium a D 198
in the dilemma i D 198
in so profane a D 196
in the stirrup a D 192
in the mailbox a D 192
in the forehead a D 192
in so frantic a D 192
in as lenient a D 192
in the mercury a D 190
in my baggage i D 190
in the previous s D 189
in my cottage i D 188
in the romance a D 186
in the fishery a D 186
in the extract a D 186
in me strikes a D 186
in as gallant a D 186
in as creative a D 186
in the hammock a D 184
in the garbage i D 184
in as tangible a D 184
in to furnish a D 183
in the reserve i D 182
in the paddock i D 182
in the national i D 182
in the kibbutz a D 182
in the gesture i D 182
in the diameter d D 182
in so national a D 182
in so playful a D 180
in so official a D 180
in my blanket i D 180
in so agitating a D 178
in so erratic a D 176
in my vexation i D 176
in as peaceable a D 176
in the balcony i D 174
in as festive a D 173
in so needful a D 172
in my handbag i D 172
in as playful a D 172
in the paddock a D 171
in the rafters a D 170
in so tenuous a D 170
in so fulsome a D 170
in as exalted a D 170
in the psalter a D 168
in the maxilla a D 168
in the learners a D 168
in the dresses i D 168
in an epistle i D 168
in the melanges d D 166
in the cavalry i D 166
in so idyllic a D 166
in so settled a D 165
in the tribune i D 162
in the stirrup i D 162
in the pancreas a D 162
in so diluted a D 162
in the arsenal a D 161
in the pyramid a D 160
in the beauties i D 160
in the battles i D 160
in so brusque a D 160
in to diagnose a D 158
in the reports a D 158
in the tempest i D 156
in the progeny a D 156
in the inquiry a D 156
in the corners i D 156
in the striped t D 155
in the prairie i D 152
in the pockets a D 152
in the mailbox i D 152
in the ignition i D 152
in the booklet i D 152
in my husband a D 152
in as refined a D 150
in the trailer i D 148
in the thickets a D 148
in the portions i D 148
in my welfare i D 148
in so courtly a D 146
in an ecstasy i D 146
in the chanson d D 144
in the auditor a D 144
in so unpleasing a D 144
in so callous a D 144
in as startling a D 144
in us moderns i D 142
in the paintings a D 142
in the memorial i D 142
in the features i D 142
in the cartoon a D 142
in the canteen a D 142
in the warrant a D 140
in the vengeance i D 140
in the uplands a D 140
in the reviews i D 140
in the recital i D 140
in the caravan a D 140
in as dynamic a D 140
in the trinity i D 138
in the perusal a D 138
in the lattice a D 138
in so ravishing a D 138
in as factual a D 138
in the musical a D 137
in as seamless a D 137
in to reclaim a D 136
in the portico a D 136
in the petition i D 136
in the foundry a D 136
in so staunch a D 136
in the popular a D 134
in the flashes i D 134
in so puerile a D 134
in so garbled a D 134
in my custody i D 134
in the sierras i D 132
in the museums i D 132
in the gazette i D 132
in as legible a D 132
in as healthful a D 132
in an economy a D 132
in the steppes a D 130
in the chimney i D 130
in the bungalow a D 130
in the amounts i D 130
in so recluse a D 130
in so elastic a D 130
in so archaic a D 130
in as courtly a D 130
in the surveys i D 128
in the surgery i D 128
in the classic a D 128
in the ashtray i D 128
in so fervent a D 128
in so fatherly a D 128
in so equable a D 128
in as equable a D 128
in the diagonal d D 127
in thy service i D 126
in the sonnets a D 126
in the seminar a D 126
in the plaster a D 126
in the kibbutz i D 126
in the fairway a D 126
in so slighting a D 126
in so secular a D 126
in so huddled a D 126
in the stopper a D 124
in the scripts i D 124
in the ravines a D 124
in the railway a D 124
in the plunder a D 124
in the gazette d D 124
in the emulsion a D 124
in so ingenuous a D 124
in as drastic a D 124
in to extract a D 123
in the reserve a D 122
in the license a D 122
in the airport a D 122
in my baggage a D 122
in to express a D 120
in the musical i D 120
in the memoirs a D 120
in so ominous a D 120
in the steeple a D 118
in the obtaining a D 118
in the carcass a D 118
in the beloved a D 118
in so plastic a D 118
in so foppish a D 118
in as shallow a D 118
in the treaties a D 116
in the resolve i D 116
in the rectory a D 116
in the quarrel a D 116
in the oratory a D 116
in the laundry a D 116
in the flowers a D 116
in the archive a D 116
in my luggage a D 116
in my epitaph a D 116
in as cursory a D 116
in the smaller a D 115
in the scrotum a D 114
in the platoon i D 114
in so plebeian a D 114
in as official a D 114
in the sunbeams a D 112
in the glacier a D 112
in the cistern a D 112
in the bungalow i D 112
in the ballads a D 112
in the ammeter a D 112
in so sanguine a D 112
in my treatise i D 112
in my cabinet i D 112
in the chicken a D 111
in the backseat a D 111
in the troughs a D 110
in the trailer a D 110
in the recipes i D 110
in the furrows a D 110
in the furnace i D 110
in the diaspora i D 110
in my fatigue i D 110
in an airport i D 110
in the vectors a D 108
in the science a D 108
in the herbage a D 108
in the features a D 108
in so unmanly a D 108
in so express a D 108
in so direful a D 108
in by inserting a D 108
in the bazaars a D 107
in the peerage a D 106
in the offices a D 106
in the manager a D 106
in the borough i D 106
in my slumber i D 106
in my rapture i D 106
in as laconic a D 106
in the trilogy a D 104
in the subpoena a D 104
in the scherzo a D 104
in the saloons i D 104
in the rotunda a D 104
in the novella a D 104
in the national s D 104
in the marshes i D 104
in the marines a D 104
in the invasion a D 104
in the capitol i D 104
in it floated a D 104
in as stringent a D 104
in the venture i D 102
in the forceps a D 102
in the farmers a D 102
in the earthworm a D 102
in so specious a D 102
in so sketchy a D 102
in so pacific a D 102
in so deranged a D 102
in my husband i D 102
in my behavior i D 102
in as oblique a D 102
in so artless a D 101
in thy garland i D 100
in the willows i D 100
in the quarrel i D 100
in the polymer a D 100
in the notation a D 100
in the faculty i D 100
in the dickens i D 100
in the curtain a D 100
in the brigade i D 100
in so tightly i D 100
in so jocular a D 100
in an airport a D 100
in the prelude i D 98
in the mirrors a D 98
in the granite a D 98
in the galleys i D 98
in the deserts i D 98
in the couples i D 98
in it chiefly a D 98
in the sessions a D 96
in the players a D 96
in the marches a D 96
in the fictions i D 96
in the charges i D 96
in the alcohol a D 96
in so mutable a D 96
in my deposit a D 96
in an outhouse a D 96
in an ecstasy a D 96
in the dynasty a D 95
in the soviets a D 94
in the granary a D 94
in the boudoir a D 94
in so factious a D 94
in it bubbled a D 94
in so irksome a D 93
in the subsoil a D 92
in the stanzas i D 92
in the excerpt i D 92
in the diabetic a D 92
in the cellars a D 92
in the bubbles i D 92
in the blanket a D 92
in as excited a D 92
in the hayloft a D 91
in the servant a D 90
in the scenario a D 90
in the neophyte a D 90
in the memoirs i D 90
in the hollows i D 90
in the caravan i D 90
in the canvass i D 90
in my bathroom a D 90
in the veteran a D 88
in the eyelids a D 88
in the exterior a D 88
in the balloon a D 88
in so squalid a D 88
in so naughty a D 88
in so bemused a D 88
in my cubicle i D 88
in the regress i D 86
in the pockets i D 86
in the legends a D 86
in the legation i D 86
in the drapery a D 86
in the couplet a D 86
in so nauseous a D 86
in the soprano a D 84
in the outhouse a D 84
in the orifice a D 84
in the hamster a D 84
in the glasses i D 84
in the citation i D 84
in the chapels i D 84
in the bladder i D 84
in the taverns a D 82
in the statute i D 82
in the pipette a D 82
in the mirrors i D 82
in the garbage a D 82
in the galleys a D 82
in the drinker a D 82
in the deserts a D 82
in the cartoon i D 82
in the bracken a D 82
in so saintly a D 82
in so onerous a D 82
in so beloved a D 82
in my mailbox i D 82
in my coffers a D 82
in as pacific a D 82
in an omnibus i D 82
in so uncanny a D 81
in the luggage i D 80
in the drought a D 80
in the bazaars i D 80
in so laconic a D 80
in it conveys a D 80
in as fertile a D 80
in an election i D 80
in to salvage a D 66
in to referee a D 57
in to deposit a D 54
in the variable d D 52
in to finance a D 51
in to oversee a D 50
in the national a D 50
in the meantime d D 43
in so debased a D 41
in to reserve a D 40
in so uncivil a D 40
in as secular a D 40
