into which i had M 55792
into which i was M 45236
into which a man M 14188
into which i can M 8606
into which a few M 5250
into which i may M 3964
into which i put M 3756
into thinking i was M 3584
into which a new M 3165
into drive a and M 2630
into quite a few M 2186
into which i now M 1878
into quite a new M 1698
into quite a bit M 1542
into thinking i had M 1178
into which i saw M 1134
into which i did M 1120
into place a new M 1038
into creating a new M 1034
into motion a new M 996
into quite a lot M 938
into which a long M 918
into types i and M 868
into parts a and M 864
into class i and M 848
into which i got M 844
into class a and M 808
into power a new M 748
into action a new M 704
into types a and M 698
into force a new M 664
into group a and M 658
into focus a new M 632
into parts i and M 630
into action a few M 614
into finding a way M 590
into force a year M 560
into getting a job M 542
into which a boy M 528
into phase i and M 500
into passing a law M 498
into which a lot M 496
into where i was M 462
into which i and M 430
into which a set M 426
into forming a new M 420
into quite a long M 412
into which a too M 403
into place a few M 388
into which i then M 386
into quite a big M 382
into which a bar M 378
into group i and M 368
into while i was M 362
into place a set M 354
into which a red M 344
into which a bit M 332
into signing a new M 332
into motion a long M 332
into which i see M 320
into which i thus M 306
into finding a new M 300
into which i fit M 298
into finding a job M 298
into force a few M 296
into print a few M 286
into which a dead M 280
into thinking i can M 280
into exile a few M 276
into motion a set M 269
into which a year M 268
into space a few M 268
into under a law M 266
into which a key M 262
into quite a man M 261
into either a new M 258
into power a few M 250
into power a man M 248
into getting a new M 248
into which a poet M 246
into space a lot M 246
into learning a new M 220
into stage i and M 212
into writing a poem M 210
into writing a new M 206
into focus a few M 206
into which i ran M 202
into rather a bad M 200
into which i too M 196
into anything i can M 196
into which i dip M 194
into action a long M 194
into anything i did M 188
into action i had M 188
into which i led M 186
into which a day M 186
into which i mean M 182
into which a real M 180
into water a few M 180
into thinking i did M 176
into which a non M 174
into which a and M 174
into which i fear M 160
into after a day M 154
into which a one M 153
into which i read M 152
into after a long M 152
into shape a bit M 150
into force a law M 150
into class a few M 150
into which a poem M 148
into which a dog M 148
into writing a few M 146
into writing a long M 144
into which i bring M 144
into which a cat M 144
into place a long M 142
into opening a new M 142
into labor a few M 140
into passing a new M 134
into within a few M 132
into since i was M 132
into action a set M 132
into which a two M 131
into place i see M 130
into after a few M 130
into which a god M 128
into exile a year M 128
into words a few M 126
into about a year M 126
into which i let M 124
into which a job M 124
into thinking a new M 122
into signing a long M 120
into focus a set M 120
into motion a few M 118
into either a red M 118
into which i lead M 116
into which a low M 113
into which a weak M 112
into which a leg M 112
into which a big M 112
into quite a sum M 112
into poetry a new M 112
into which i get M 110
into killing a man M 110
into nearly a year M 109
into getting a dog M 109
into people i had M 108
into either a low M 107
into space a long M 104
into playing a few M 104
into which a law M 102
into shape a new M 102
into where i had M 100
into seeking a new M 100
into signing a law M 98
into power a year M 98
into focus i saw M 98
into either a long M 96
into words i can M 94
into quite a day M 94
into cells a and M 94
into rather a low M 92
into waiting a few M 90
into either a head M 90
into which a may M 88
into quite a fix M 88
into anything i was M 88
into which a box M 86
into staying a few M 86
into joining a new M 86
into which i set M 84
into where i can M 84
into focus a long M 84
into which a bad M 82
into which a being M 66
into which a lead M 54
into either a one M 41
into either a two M 40
into court a sum D 1943
into which a beam D 930
into which a pin D 826
into which a ray D 703
into which a jet D 544
into which a thin D 508
into telling a lie D 484
into which a sap D 408
into which a rod D 360
into which a gas D 352
inch above a bud D 335
into sight a few D 302
into court a few D 246
into vogue a few D 244
into which a hot D 243
into which a row D 228
into which a peg D 224
into zones a and D 174
into which a car D 158
into which a bee D 146
into vogue a new D 144
into either a leaf D 140
into joining a gang D 136
into orbit a few D 130
into china a new D 122
into which a raw D 120
into flame a few D 118
into which a bed D 112
into which a fox D 110
inch below a leaf D 106
into renting a car D 104
into which a tap D 100
into which a tin D 96
into which a rat D 92
into lipid a and D 90
inch since i saw D 83
into bloom a few D 80
into which a hog D 47
