indeed can be . M 11174
indeed they do . M 8398
inside with me . M 3830
indeed you do . M 3194
indeed she is . M 2446
inform you of . M 1646
inside with us . M 1176
invite him in ? M 1098
indeed they do ! M 850
intend doing so . M 848
intend them to . M 822
inside with it . M 699
indeed for me . M 664
indeed you do ! M 590
indeed with us . M 562
inform him of . M 554
indeed did so . M 544
invite you in ? M 494
inform them of . M 492
inside with me ? M 477
intend for me . M 476
invite you to . M 466
invite them in ? M 464
indeed for us . M 460
inside and eat . M 451
indeed she is ! M 438
inside for me . M 421
indeed going on . M 418
inside that thing . M 410
invite them to . M 394
inside this thing . M 382
induce him to . M 376
invite her in ? M 372
indeed was so . M 360
invite him up . M 350
inside for tea . M 313
intent may be . M 308
injury may be . M 300
invite him to . M 292
intend for it . M 280
indeed for it . M 280
injury due to . M 268
indeed was he . M 250
intend for us . M 236
indeed with me . M 236
indeed doing so . M 234
inside that thing ? M 230
initial set up . M 224
inside this ring . M 208
induce them to . M 206
indeed does so . M 200
insist they do . M 194
inside this thing ? M 192
injury they do . M 182
indeed are so . M 182
insect with it . M 180
indeed say so ? M 176
indeed not so . M 176
indeed not he . M 174
inside with us ? M 171
intend doing it . M 166
intend for me ? M 164
insane with it . M 164
indeed they do ? M 162
indeed say so . M 162
injury with it . M 158
inside that thing ! M 154
inlaid with it . M 154
invite them up . M 152
insist you do . M 148
indeed any thing . M 146
inside for it . M 142
inside for us . M 138
intact for me . M 136
inform him so . M 130
intent for us . M 128
invite you up . M 126
invite him in ! M 122
induce her to . M 122
inform you of ? M 118
invite you in ! M 116
invite her to . M 114
intend doing so ? M 114
insane not to . M 114
intend her to . M 110
indeed mean it . M 110
indeed may be . M 110
intend you to . M 108
inside that ring . M 108
inside with me ! M 106
insane but he . M 106
invite him up ? M 104
invite them in ! M 100
indeed got it . M 94
intend using it . M 92
indeed can be ? M 92
invite her up . M 90
intend not to . M 90
indeed see it . M 90
injure him so ! M 88
indeed can he . M 88
indeed with it . M 86
indeed say it . M 86
intend them so . M 84
injury can be . M 84
indeed had it . M 82
inward and up . M 67
inside for me ? M 53
