apes and man are D 630
apes and men are D 434
apex beat can not D 309
apex beat may not D 244
apes that mow and D 208
apes and man and D 184
apes than they are D 178
apes and man had D 168
apes and man may D 150
apex and does not D 142
apex beat was not D 135
apes and men and D 122
apes and man they D 122
apes and man has D 118
apes and man than D 116
apes and men was D 110
apes and man was D 110
apex was cut off D 109
apex beat does not D 89
apes are not our D 86
apes sat one day D 82
apex cut off and D 47
