apart a day for M 5185
apply a new one M 579
apply a sum not M 550
apply a sum out M 504
appear a bit too M 472
apply a long leg M 358
apply a new set M 320
apply a new and M 318
appear a bit odd M 312
apply a law that M 292
appear a long way M 282
appear i can not M 264
appear a new one M 248
appear a man who M 248
apart i can not M 200
appear i did not M 192
appear a new and M 192
appear a bad one M 178
apart a sum for M 170
appear a far cry M 164
appear a bad man M 158
appeal i can not M 136
appear a few low M 132
apart a sum not M 125
apply a new way M 124
apart a bit and M 124
apply a new idea M 118
apply a new law M 114
appear a long and M 108
appear a weak and M 98
appear a bit out M 96
apart i did not M 92
appear a dry and M 88
appear i was not M 84
apart a day and M 63
apart a man and M 46
appeal a year ago M 40
apply a thin bead D 620
apple a day and D 322
apple a day may D 316
apply a sling and D 313
apply a pad and D 204
apple a day for D 192
apple a day can D 128
apple i was eating D 124
apple i can not D 108
apple a day does D 100
apple a day that D 96
apply a red hot D 94
apart a lion with D 49
