lie buried in the M 27207
lie hidden in the M 22339
lie closer to the M 14074
lie mainly in the M 13982
lie solely in the M 5746
lie wholly in the M 5096
lie before us in M 4972
lie direct to the M 4344
lie mostly in the M 4174
lie merely in the M 3852
lie simply in the M 3748
lie nearest to the M 3740
lie deeper in the M 3358
lie latent in the M 3294
lie around in the M 2950
lie around on the M 2532
lie sleeping in the M 1844
lie further to the M 1601
lie freely in the M 1597
lie almost in the M 1514
lie heavily on the M 1474
lie asleep in the M 1464
lit corner of the M 1372
lie buried on the M 1290
lie normal to the M 1265
lie before us as M 1211
lie mainly on the M 1194
lie wholly on the M 1181
lie before me as M 1175
lie always in the M 1052
lie silent in the M 1046
lie mostly on the M 986
lie neither in the M 984
lie asleep on the M 947
lie inside of the M 900
lie almost on the M 883
lie before me in M 874
lie deeply in the M 857
lie buried at the M 854
lie folded up in M 766
lie broken on the M 708
lie almost at the M 706
lie bleeding on the M 686
lie around us in M 680
lie sleeping on the M 662
lie silent on the M 649
lie instead in the M 642
lie higher in the M 621
lit candle in the M 608
lie always on the M 599
lie seemed to be M 597
lie evenly on the M 597
lie wholly or in M 537
lie locked up in M 530
lie unused in the M 529
lie wholly at the M 527
lie before it in M 520
lie hidden at the M 513
lie nearest to it M 495
lit candle on the M 477
lie bleeding in the M 470
lie before me on M 444
lie broken in the M 440
lie mainly to the M 437
lie nearest to us M 435
lie instead of the M 433
lie hidden in it M 420
lie clearly in the M 412
lie solely on the M 405
lie buried in an M 396
lie stored up in M 392
lie already in the M 392
lit window of the M 389
lie mainly at the M 387
lie appears to be M 386
lie before us at M 380
lie unless it is M 368
lie buried in it M 357
lie abroad in the M 339
lie deemed to be M 338
lie beside me in M 338
lie hidden on the M 335
lit solely by the M 325
lie inside or on M 325
lie evenly in the M 324
lit window in the M 319
lie before us on M 318
lit waters of the M 317
lie further in the M 312
lie safely in the M 310
lie purely in the M 309
lie buried in my M 301
lie before us to M 300
lie merely on the M 290
lie served in the M 288
lie buried by the M 285
lit spaces of the M 268
lie before us if M 265
lie hidden by the M 262
lie heavily on my M 262
lie stored in the M 261
lie before us the M 261
lie locked in the M 254
lie higher on the M 253
lie unseen in the M 247
lit figure of the M 246
lie placed in the M 245
lit fairly in the M 244
lie rooted in the M 240
lie hidden if he M 234
lie engaged in the M 230
lit mainly by the M 229
lit another of the M 228
lie unused on the M 227
lie hidden in an M 225
lie folded in the M 224
lie mostly to the M 221
lie groaning on the M 218
lit softly by the M 216
lie behind us in M 216
lie looked at the M 214
lie belongs to the M 213
lie beyond in the M 212
lie thought of the M 211
lie higher up the M 210
lie wholly to the M 206
lit street in the M 204
lit center of the M 203
lie turned to the M 202
lie before the king M 200
lie mostly at the M 198
lie around us on M 198
lie always to the M 198
lie groups in the M 197
lie freely on the M 190
lie higher up in M 187
lie broken at the M 187
lie folded on the M 183
lie sleeping at the M 178
lie placed on the M 171
lie beside me on M 171
lit earlier in the M 170
lie further up the M 169
lie heavily in the M 166
lie deeper at my M 166
lie always at the M 166
lit instead on the M 164
lit window on the M 162
lit object in the M 159
lie behind it is M 151
lie around by the M 151
lie except on the M 149
lie beyond it in M 148
lie looked at me M 146
lie proved to be M 144
lie gently on the M 144
lie without in the M 143
lie simply on the M 143
lie sleeping on it M 142
lie around in my M 141
lie wished to be M 140
lie latent in it M 140
lie direct in the M 140
lie nature of the M 139
lie behind it in M 139
lie secure in the M 138
lie before me at M 138
lie hidden in us M 136
lie locked in by M 134
lie around it in M 134
lie should be the M 133
lie before us is M 132
lie closer to us M 129
lie claims to be M 128
lit centre of the M 127
lie lowest in the M 126
lie heavier on the M 122
lie asleep by the M 122
lie safely on the M 121
lie caused to be M 121
lie behind us as M 121
lie before it as M 121
lie solely at the M 120
lie afloat in the M 117
lie direct is the M 116
lie hidden to the M 114
lie fallen on the M 114
lie indeed in the M 111
lie bleeding in me M 110
lie unmoving on the M 109
lie around to be M 109
lie appears in the M 109
lie signed by the M 108
lie gently at the M 108
lie served on the M 107
lie behind in the M 106
lie closed in the M 105
lie wanted to be M 104
lie better in the M 104
lit circle of the M 103
lie something of the M 103
lit candle to the M 102
lie earlier in the M 101
lit mostly by the M 100
lie awhile in the M 100
lie abreast of the M 100
lie neither on the M 99
lie closer to it M 99
lie shaded by the M 98
lie better on the M 98
lie always in my M 98
lie square to the M 95
lie spoken in the M 94
lie direct to king M 92
lie beside me as M 92
lie softly on the M 91
lie beside it on M 90
lit candle in it M 89
lie watching in the M 88
lie behind or in M 87
lie appeals to the M 87
lie looked up at M 86
lie direct to my M 86
lie should be so M 85
lie beyond it is M 85
lit through by the M 82
lie seemed to me M 82
lit instead of the M 81
lie around as if M 81
lit except in the M 80
lie nearest to my M 80
lie before us so M 71
lie except in the M 67
lie behind the so M 65
lie before us we M 65
lie changes in the M 57
lie before it is M 57
lie groaning at the M 56
lie before me to M 56
lie behind it as M 53
lie inside the ring M 52
lie middle of the M 51
lie hidden in my M 48
lie before me the M 48
lie lodged in the M 47
lie closer to my M 47
lie fallen in the M 45
lie around us as M 43
lie writes to the M 42
lie inside of it M 42
lie already on the M 42
lit nights in the M 41
lie without the ring M 41
lie bottom of the M 41
lit tables in the M 40
lit cavern of the M 40
lie picked up the M 40
lie partly in the D 10828
lie dorsal to the D 3200
lie farther to the D 1754
lie supine on the D 1514
lie fallow in the D 1346
lie curled up in D 1164
lip curled as he D 1162
lie bleaching in the D 1156
lie bleaching on the D 1126
lie distal to the D 1064
lid margin at the D 836
lip curled at the D 798
lid margin to the D 752
lie firmly in the D 688
lion passed by it D 676
lie strewn on the D 643
lie caudal to the D 618
lie tumbling in my D 600
lie partly on the D 594
lion seemed to be D 586
lip curled up in D 582
lie coiled up in D 580
lie tumbling in the D 575
lie torpid in the D 565
lie curled up on D 546
lie strewn in the D 543
lie toward the sea D 517
lip appears to be D 516
lid margin in the D 480
lid placed on the D 460
lion appears to be D 456
lie refers to the D 451
lip homage to the D 435
lie thicker on the D 418
lit portion of the D 416
lion instead of the D 408
lion belongs to the D 404
lip curled in an D 389
lie starving in the D 374
lie coiled in the D 374
lid margin of the D 362
lion looked at the D 360
lie lazily in the D 348
lie snugly in the D 345
lie unsold in the D 316
lion roared in the D 314
lion standing by the D 312
lip formed by the D 310
lion standing in the D 308
lion appears on the D 308
lit section of the D 306
lip seemed to be D 300
lie frozen in the D 294
lie rolled up in D 290
lie tangent to the D 286
lion standing on the D 278
lion appears in the D 278
lip curled as if D 270
lie farther up the D 268
lip portion of the D 262
lie limply on the D 262
lie stinking in the D 249
lie firmly on the D 248
lie seaward of the D 247
lie thickly on the D 245
lie supine in the D 244
lid closed on the D 240
lit stairs to the D 232
lion sleeps in the D 232
lid firmly on the D 232
lion tracks in the D 231
lip instead of the D 228
lion carved on the D 226
lit eerily by the D 222
lion joined to the D 220
lion carved in the D 220
lie beyond the sea D 215
lie cranial to the D 212
lid margin on the D 208
lion caught in the D 206
lie dorsal to it D 203
lid appears to be D 202
lip turned up in D 200
lie floating on the D 200
lie flatly on the D 198
lion turned to the D 188
lie fallow or to D 187
lie coiled up on D 187
lie bedded in the D 170
lip repair in the D 168
lip looked as if D 166
lion proved to be D 164
lie moored to the D 163
lie across the sea D 163
lip turned up to D 162
lie rattling in my D 162
lie veiled in the D 161
lie beside the sea D 161
lie coiled on the D 160
lid instead of the D 160
lie moored in the D 157
lip caused by the D 154
lip prints on the D 151
lie farther in the D 151
lip rounding of the D 150
lip curled in the D 150
lie curled in the D 149
lip rounding in the D 146
lie frozen on the D 145
lion sleeping in the D 141
lion refers to the D 140
lit facade of the D 138
lie midway in the D 138
lie coiled at the D 138
lie partly in an D 136
lie curled on the D 136
lie hushed in the D 135
lip drains to the D 134
lie fallow at the D 133
lit golden by the D 131
lion roared at the D 128
lip curled up to D 126
lie floating in the D 126
lid margin is at D 126
lip curled up at D 124
lid margin is the D 122
lid margin is in D 120
lip almost to the D 118
lie snugly on the D 118
lid should be at D 116
lion stands on the D 114
lie lazily on the D 114
lit partly by the D 111
lie drooping on the D 110
lip formed on the D 108
lip curled up on D 106
lip curled up as D 106
lid margin or the D 106
lie fallow or be D 104
lid formed by the D 104
lie packed in the D 103
lion sought to go D 102
lie traces of the D 102
lip cancer in the D 100
lion stands in the D 100
lie inland of the D 99
lip curled up by D 98
lion looked up at D 98
lie poised on the D 98
lie moored at the D 97
lion checks at the D 96
lie sunken in the D 96
lip quiver as he D 94
lion couching in the D 92
lion standing on an D 90
lion standing at the D 90
lid appearing as if D 90
lie fallow on the D 88
lie callow in the D 88
lion emblem of the D 86
lion coiled in the D 86
lie fossil in the D 86
lie drowsing in the D 85
lion symbol of the D 84
lion prowling in the D 84
lion jumped on the D 84
lion engaged in the D 84
lie limply in the D 84
lie firmly at the D 84
lie patent to the D 83
lie astern of the D 83
lion belonging to the D 82
lid seemed to be D 82
lion pouncing on the D 80
lion belongs to it D 80
lie vomiting as if D 80
lid portion of the D 80
lit regions of the D 69
lit office in the D 58
lit office of the D 57
lie tangled in the D 57
lit aisles of the D 55
lie thickly in the D 46
lit office on the D 45
lion tracks on the D 45
lie athwart the sea D 42
lie opinion of the D 41
lie unsold on the D 40
