library or to the M 49863
liberty to do so M 46215
lighted up by the M 35842
limited as to the M 18394
limited as it is M 17474
liberty to do as M 16235
liberty is to be M 16046
listening in on the M 14554
liberty to go to M 12916
limited so as to M 10698
library is to be M 8760
liberty to do it M 8186
lighted up in the M 7102
library or on the M 6478
library or in the M 6142
library is in the M 5893
limited as to be M 5703
limited it to the M 5165
listening in to the M 4579
liberty so to do M 4512
liberty to be the M 4376
liberty to go on M 4362
lighted up at the M 4169
library of the king M 4103
liberty to do the M 3612
library is on the M 3568
lighted up as he M 3475
limited to the so M 3336
lightly on to the M 3224
listening to it in M 2976
limited as in the M 2914
liberty is in the M 2818
liberty as to the M 2684
limited to be of M 2514
listening to it on M 2498
listening to me at M 2416
lighted up as if M 2404
liberty of the king M 2294
listening to it as M 2121
liberty to do or M 2100
lighten up on the M 2084
limited as is the M 1968
listening to on the M 1954
library is at the M 1951
lighted it at the M 1933
liberty as it is M 1922
limited if it is M 1890
lightly as if it M 1726
lightly as if he M 1716
listening to the king M 1713
liberty to go in M 1698
lighted up by an M 1656
listening to in the M 1618
library or at the M 1617
lighted up on the M 1558
liberty to be as M 1530
limited to the king M 1497
lightly so as to M 1484
listening in on my M 1476
lightly up to the M 1410
listening to me or M 1390
listening to it is M 1358
listening to at the M 1336
liberty so as to M 1324
listening to me as M 1295
library as it is M 1282
limited by the king M 1239
limited up to the M 1234
listening as if he M 1207
listening to me in M 1143
listens in on the M 1121
limited as he is M 1091
liberty as in the M 1076
listening in on an M 1070
library so as to M 1049
limited by the so M 1040
listening to the ring M 1012
listening to it or M 1004
liberty is at the M 998
listening to me so M 983
library to be the M 982
liberty is on the M 932
liberty is to the M 896
lighted up as it M 884
library if it is M 883
linearly up to the M 874
liberty by the king M 864
lighted up to the M 828
listening to it at M 823
liberty to do in M 813
listening in at the M 810
liberty to go or M 810
library up to the M 801
liberty is at an M 796
lighted so as to M 785
liberty to go as M 771
liberty or of the M 760
liberty is of the M 756
listening is to be M 748
limited to or in M 744
library is to the M 742
library or of the M 741
liberty to be in M 740
liberty as to be M 706
liberty to be an M 704
lightly as if to M 686
listening to it the M 670
lighted up by it M 652
listens to it in M 644
library to do the M 643
listening to it ring M 638
limited or if the M 632
listening to us in M 630
listening to me to M 630
listening to me on M 628
liberty to the king M 622
listening in on us M 616
library is of the M 606
lighted up as the M 586
lightly as it is M 574
liberty if it is M 566
lightly as to be M 564
limited to up to M 560
limited to be the M 542
liberty as if it M 542
listening as it is M 533
liberty to go at M 530
liberty to be so M 530
liberty is of no M 530
library to go to M 528
liberty to be at M 524
literal as to be M 518
listening as if to M 511
listening to is the M 510
lightning or by the M 506
lightly as if the M 498
limited to or by M 492
liberty to eat of M 492
library as if it M 480
limited is to be M 479
liberty to eat the M 478
liberty is by no M 476
lighted up as by M 460
limited to the in M 455
library on to the M 454
library or by the M 452
listening so as to M 446
listening is at the M 446
lighted it in the M 446
lightning is to be M 442
liberty to go up M 442
listens to it as M 440
listening to it we M 438
liberty or in the M 438
literal as it is M 430
library wing of the M 430
library as in the M 428
liberty up to the M 418
liberty or to the M 412
lighted me on my M 404
listening to us on M 398
lighted as it is M 397
liberty as he is M 394
liberty if he is M 392
lighter it is the M 390
lighted on in the M 390
listens to me in M 388
limited by the at M 387
library to be an M 384
listening to us at M 382
listening to it he M 378
library is by no M 376
lightly as in the M 370
liberty to do if M 370
listens as if he M 368
limited me to the M 366
liberty is in no M 364
literal is to be M 363
limited by it in M 362
lightly on the wing M 361
listening to me go M 360
limited it to an M 358
listens to me or M 356
limited to the the M 356
lightning is in the M 356
lighted up in an M 356
library to do so M 356
liberty to be of M 356
listening as if in M 354
liberty is of so M 354
lighted up in my M 352
library or in an M 352
limited it in the M 350
listens to me as M 338
lightly or to be M 338
liberty to go if M 338
lighten up in the M 336
listening as if it M 334
lighted me to my M 334
lightly of it as M 329
limited us to the M 328
listening to me is M 326
lighted as if by M 324
listening to us as M 320
limited so it is M 320
lighten me of the M 316
listening to me sing M 312
library is in an M 312
listening to me he M 310
lighted it up as M 308
listens in to the M 305
limited if we do M 304
listens to on the M 303
limited to of the M 303
limited is in the M 303
lighter as it is M 300
listening to me the M 298
library is in no M 292
listening in to my M 286
lighter as we go M 286
library as to the M 283
listening to it to M 282
linearly as in the M 269
listens to it or M 268
lightning is to the M 268
listening to it by M 264
listening to us or M 258
limited in us is M 256
liberty to do my M 256
liberty as we do M 256
lightning or of the M 254
limited by the by M 253
library to be in M 252
liberty it is to M 252
listening to the am M 246
lighted me to the M 244
liberty the king of M 242
listens to us in M 240
lighter if it is M 240
lifelong foe of the M 240
library as on the M 240
listening to the thing M 236
lighted up at my M 236
lighter up to the M 235
lighted up by no M 233
listening to the so M 230
lightly of by the M 230
liberty to me to M 230
library as if he M 228
listens to it on M 226
lightning to be the M 226
limited if he is M 224
library of the of M 224
limited to be at M 221
lightning so as to M 218
library of up to M 218
limited to be no M 216
lightning or by an M 216
liberty to do by M 216
listens to the king M 214
listens to it is M 214
lightly as if on M 214
limited it by the M 212
limited by the the M 212
lighten up on me M 212
lighted it up at M 212
library or go to M 212
liberty to do to M 212
liberty to do is M 210
limited to in the M 209
limited to be in M 209
listens to in the M 207
liberty is in my M 206
limited to the thing M 205
literal as in the M 204
listening as if the M 204
limited by it is M 204
liberty to eat as M 204
lightly on in the M 202
listening to it so M 200
lighted on it by M 200
library or via the M 200
limited to an in M 197
lightly up on the M 196
literal or in the M 194
limited it is in M 194
liberty it is the M 194
lightly of the thing M 192
library or in my M 190
liberty as if he M 190
limited by or to M 189
limited or to be M 188
limited by it to M 188
lighted up as we M 188
lighted up in it M 186
library to be of M 186
liberty to do an M 184
lighted as if he M 182
library or to an M 182
lightly as if in M 180
lightly if it is M 178
liberty to do at M 178
lightning as if it M 176
lighted it on the M 176
library to do my M 176
library to be on M 176
lighted as if the M 174
lighted as by the M 174
listening to or in M 172
limited it on the M 170
lighted us to the M 170
listening to an am M 169
listening is in the M 169
lightning to be an M 168
library is to do M 168
library to do it M 166
liberty to eat it M 166
limited to the on M 164
lighted up so as M 164
liberty is to do M 164
listening to be the M 162
listening in as the M 162
liberty as the king M 160
lighted as if it M 158
liberty if it be M 158
listening to the hi M 156
listening in on me M 156
limited to do the M 156
lightning or in the M 156
lighter thing to be M 154
liberty as if we M 154
limited to by the M 153
lightning is of the M 152
literal if it is M 150
listening to the the M 150
listening in by the M 150
liberty or on the M 150
lightly as we do M 148
liberty to go the M 148
listens as if to M 147
lighter so as to M 147
liberty or by the M 146
limited to do so M 145
listening to the sing M 144
lighten it as he M 144
listens to me at M 142
limited it is to M 141
listens to it at M 140
listening to it if M 140
lighted up of an M 140
listening to as the M 138
listening in as he M 138
limited by or in M 138
listening to me if M 136
limited to the it M 136
limited by us to M 136
lighted it as he M 136
library up at the M 136
library is of no M 136
limited to be an M 135
listening to us is M 134
listening to on my M 134
library it is to M 134
listens to me is M 132
listening as we do M 132
lighten it up by M 132
library up in the M 132
listens in on my M 130
limited to the of M 130
limited to it in M 130
lightly or in the M 130
lightly on it to M 130
lightly of the king M 130
library it is the M 130
listening to us the M 128
listening to as he M 128
limited or in the M 128
limited to the ring M 126
liberty as is the M 126
limited by the on M 124
lighten up at the M 124
lighted me up the M 124
liberty to ring the M 124
liberty as if the M 124
limited if he or M 123
lighter on to the M 123
listening to it of M 122
lightning up in the M 122
lightly or on the M 122
liberty to go by M 122
limited to on the M 121
limited by the ring M 120
liberty to be king M 120
liberty to be no M 119
lighten up as the M 118
lighten it in the M 118
lighted up in me M 118
liberty to sing at M 118
lightning on to the M 116
lighted up to my M 116
limited to it by M 114
lightly of it in M 114
lightly as of no M 114
liberty to eat at M 114
listening to in my M 113
limited or it is M 113
literal is in the M 112
limited by it or M 112
lightning in it of M 112
lightly up on to M 112
library or to be M 112
liberty to eat or M 112
listens to me so M 111
lightly as if no M 110
lighted it on so M 110
limited is by the M 108
lightly on to it M 108
lighter on the wing M 108
liberty as of the M 108
limited to the by M 107
listens as if it M 106
linearly up to an M 106
lightly as on the M 106
liberty is to me M 106
limited he is in M 105
limited as if the M 105
lighter or on the M 105
lighted as to be M 105
lightning as it is M 104
lighter as in the M 104
lighted it up in M 104
limited or of no M 103
listening to me do M 102
listening in to an M 102
liberty is the thing M 102
liberty in the so M 102
limited it is the M 101
listening to it sing M 100
lighten up on my M 100
library is by the M 100
liberty to go my M 100
listens to as he M 98
lighter it is at M 97
lighted it by the M 97
lightning up to the M 94
lightly in at the M 94
listens to it by M 92
listening in to it M 92
lightning is on the M 92
lightly as if we M 92
lighted on by the M 92
liberty to do me M 92
liberty as is of M 92
listens to the ring M 90
listening to if it M 90
listening as we go M 90
lighted up to be M 90
lighted on it in M 90
lighted as if in M 90
library or by an M 90
liberty if we do M 90
limited to or is M 89
limited to if the M 89
listening to it my M 88
limited to to the M 88
library is up to M 88
listening to be an M 86
listening as he is M 86
linearly so as to M 86
lightly on the king M 86
lighted up at an M 86
lighted as in the M 86
library or at an M 86
listening in on or M 84
library wing on the M 84
library or to go M 84
liberty as do the M 84
listening or if he M 82
lightning as to the M 82
lifelong foe by the M 82
library go to the M 82
liberty to sing the M 82
listening as to an M 80
lighted up as in M 80
limited by the in M 71
literal is of the M 68
limited no no no M 62
listening is on the M 59
limited to the no M 59
lighter is to be M 59
limited as if it M 57
listening to the in M 56
listens to us as M 51
library to be as M 50
limited to an up M 49
listens to it ring M 48
listening to the on M 45
listening to the ping M 42
limited to it as M 42
limited as on the M 42
library to go on M 41
limited to it or M 40
limited to at the M 40
limited by it as M 40
liberal wing of the D 32540
likened it to the D 13026
license to do so D 9816
license is to be D 4316
license so to do D 4134
listening to the sea D 4014
license of the king D 3437
license to do as D 2794
likened it to an D 1854
listening ear to the D 1672
liturgy is to be D 1592
litters of up to D 1562
limited to the sea D 1430
license to go to D 1372
license to do the D 1268
liberty of the sea D 1216
listening ear of the D 1096
license is in the D 1054
linkage is to be D 1036
liberal as to the D 1022
liberal as it is D 963
liberal as to be D 884
lightly on the ear D 828
liturgy as it is D 806
liberal wing in the D 776
liturgy so as to D 754
linkage is in the D 736
license to be in D 671
license or go to D 660
license to do an D 657
lightning of the sea D 641
license to do it D 612
liquids is to be D 578
likened to the sea D 570
license as to the D 570
license to go on D 559
liquids in at the D 540
license as if the D 534
license if it is D 533
liturgy is in the D 529
linguists as to the D 506
liturgy up to the D 495
limited by the sea D 483
liberal as he is D 480
livened up by the D 454
license so as to D 454
limited to the re D 451
limited to the ear D 449
license or in the D 422
license to be an D 411
liberal as in the D 406
liquids is of the D 382
liberal is to be D 348
listens to the sea D 334
ligation is to be D 334
liturgy or in the D 332
liquors is to be D 326
linkage is of the D 326
lighted up the sea D 324
lighted me to hoe D 320
license to be the D 315
license to be as D 315
listening ear or the D 312
license is on the D 308
liberal thing to do D 308
licensing is to be D 303
license to be at D 303
liquids or in the D 302
linkage is to the D 300
license if he is D 296
likened to the king D 294
listening ear in the D 292
limited by the ion D 283
license if he or D 268
liquids so as to D 266
likened me to the D 258
lightly on the sea D 255
liquids is in the D 252
license it to the D 248
linkage is at the D 244
liberal to us in D 240
linkage so as to D 232
liberty in the sea D 231
limbering up in the D 228
listening ear to me D 226
linguists to be the D 226
liberal so as to D 225
liquors so as to D 218
likened us to the D 218
license or by the D 210
ligated so as to D 209
license up to the D 203
liberal to me in D 202
liturgy or of the D 200
liquids as in the D 200
license is of no D 191
linkage as in the D 190
license to be so D 185
liberal if it is D 184
likened to the so D 183
livened up in the D 182
limbering up on the D 180
linkage is by no D 178
lignite is to be D 174
liquids it is the D 172
liturgy to be the D 166
license or to the D 161
license or of the D 161
license is in my D 160
listening to the re D 158
liquids up to the D 158
liturgy is at the D 156
liquids or of the D 156
license as in the D 155
liturgy as in the D 152
likened the king to D 152
littering up of the D 150
lightly on the toe D 150
license to be on D 150
license as it is D 146
licensing if it is D 145
liturgy or to the D 143
liberal of it to D 138
liturgy it is the D 137
limited to the ex D 137
liturgy as if it D 136
liberty on the sea D 136
limbering up of the D 135
license to do or D 134
liquids as it is D 132
license as if it D 132
limited to the toe D 131
licensing it to the D 131
likened to an ox D 130
licensing or in the D 130
linkage of it to D 128
limited by the dc D 128
libation is to be D 128
liquids on to the D 126
lightly in the ear D 124
license or if the D 124
license or to be D 121
license as to be D 120
likened to it in D 118
liturgy to be in D 112
liberal or by the D 112
listening to an ex D 111
library as an ex D 109
liturgy as to the D 108
liberty to doe the D 108
license to eat as D 107
license or on the D 106
linkage in the ring D 104
liberal as is the D 104
listening ear on the D 102
linkage or in the D 102
license as of the D 102
liberal up to the D 102
litters or on the D 100
limbering up at the D 100
license is at the D 100
licensing so as to D 98
livable as it is D 96
liturgy is by no D 96
listening ear as the D 96
lindens or in the D 96
limited to the hoe D 96
ligated as in the D 96
liberal to us as D 96
limited to the ad D 95
licensing is in the D 95
listening ear at the D 94
liquids is by the D 94
limited to an ad D 94
license is up to D 94
livened up at the D 90
livened it up by D 90
lightly in my ear D 90
license to go in D 90
license me to be D 90
liberal of the king D 90
linguists up to the D 88
lineages up to the D 88
limited by the re D 87
licensing it is the D 87
license is in no D 86
liquids is on the D 84
linkage as it is D 84
liquors is in the D 82
liquefy it by the D 82
lightning on the sea D 82
listening ear of an D 80
lighter on the lea D 80
limited to an ex D 66
listening to the ex D 46
license to go as D 44
liberal of the ex D 41
license it in the D 40
