put in touch with M 33981
put in place and M 31625
put the blame for M 30516
put in place for M 24771
put it under his M 18904
put it aside for M 16991
put it aside and M 15938
put in order and M 12276
put in order for M 11754
put it about that M 10869
put the light out M 10410
put in writing and M 9671
put in place that M 8489
put to shame and M 8300
put in place with M 7568
put it under her M 6714
put in motion for M 6416
put up money for M 5988
put in motion and M 5822
put it where you M 4973
put in trust with M 4526
put it quite that M 4486
put to sleep and M 4394
put to sleep with M 4329
put to shame all M 4046
put it round her M 4040
put on board any M 3701
put to sleep for M 3607
put on board for M 3391
put the right man M 3188
put in trust for M 3111
put it aside with M 3101
put on board and M 3097
put on board his M 3086
put the fires out M 2997
put it round his M 2958
put in shape for M 2910
put on paper and M 2741
put it right out M 2619
put in water and M 2568
put in force for M 2489
put the whole lot M 2446
put in place new M 2443
put it under him M 2430
put it about his M 2308
put on board her M 2260
put in black and M 2251
put the first man M 2232
put the point this M 2228
put in motion with M 2227
put my hands out M 2174
put to shame for M 2171
put in writing that M 2164
put in force and M 2164
put in force with M 2154
put on board one M 2106
put on masks and M 2012
put on water for M 1987
put the women and M 1954
put the first two M 1944
put me quite out M 1942
put in place are M 1936
put in issue and M 1919
put the first one M 1914
put the water and M 1912
put in place all M 1890
put in train for M 1870
put in motion all M 1864
put in place was M 1863
put in order all M 1854
put in writing for M 1823
put it quite out M 1782
put on shows for M 1753
put in writing his M 1726
put in force any M 1647
put on paper for M 1636
put to music and M 1565
put an awful lot M 1528
put to shame that M 1506
put on paper his M 1506
put the money and M 1484
put the money out M 1472
put on board with M 1454
put my right arm M 1444
put up again and M 1428
put it about her M 1428
put on alert and M 1416
put to shame any M 1366
put in boxes and M 1355
put it right for M 1316
put in print and M 1316
put the child out M 1274
put in force all M 1266
put the motion for M 1244
put the money you M 1238
put to shame our M 1232
put on board our M 1220
put in order his M 1208
put it right and M 1198
put the money for M 1188
put in terms that M 1186
put on paper all M 1172
put in writing all M 1137
put on board this M 1126
put the point with M 1112
put on music and M 1088
put in about two M 1050
put in place but M 1049
put the white man M 1042
put the issue this M 1032
put the house and M 1026
put my trust and M 1022
put in place any M 997
put the paper and M 988
put in force his M 982
put me right off M 945
put the black man M 934
put in motion that M 928
put on every day M 916
put my hands and M 912
put the whole idea M 872
put the people who M 872
put in motion his M 866
put the first and M 856
put the empty cup M 846
put it right with M 846
put in order with M 844
put the search for M 840
put the money that M 836
put on board two M 824
put to human use M 823
put up signs and M 817
put on board them M 816
put to shame them M 809
put on alert for M 802
put me where you M 800
put in shape and M 793
put on paper that M 787
put the paper bag M 782
put it where they M 780
put on board each M 778
put us right with M 770
put to shame who M 770
put in place now M 770
put the reader off M 769
put up signs that M 768
put it quite this M 766
put to shame his M 765
put the right men M 764
put the enemy off M 759
put on first and M 759
put on again and M 756
put the money they M 754
put the bones and M 752
put the needs and M 730
put to daily use M 725
put in words that M 723
put the others out M 720
put me under his M 720
put the words and M 714
put in place its M 714
put in first and M 712
put it where she M 708
put on every year M 701
put in place long M 701
put it under one M 697
put in writing any M 680
put on paper with M 677
put in place one M 675
put in anything that M 674
put on board that M 670
put in power and M 666
put to board with M 664
put the blame not M 660
put the state and M 656
put the paper out M 656
put on shows and M 653
put up money and M 652
put to prove that M 647
put on again his M 646
put in water for M 646
put my light out M 645
put the books and M 644
put it beneath his M 642
put the story out M 640
put the point that M 634
put my mother and M 634
put on black and M 633
put it within his M 630
put the point thus M 626
put the names and M 624
put on anything that M 624
put up every year M 612
put in anything you M 609
put in order that M 608
put in force that M 607
put the strong law M 606
put in action for M 602
put it after his M 589
put on board all M 588
put in place two M 585
put me right with M 584
put the power and M 580
put the lives and M 578
put the paper with M 574
put the reason for M 573
put my books and M 566
put the people out M 564
put in action and M 562
put to argue that M 560
put the human being M 556
put the words that M 555
put in order our M 550
put to proof his M 542
put the mother and M 542
put the right things M 540
put in hours and M 540
put the onions and M 538
put in action all M 538
put the price tag M 536
put the motion and M 534
put me right out M 528
put to sleep all M 522
put in doubt and M 521
put it under our M 516
put in every day M 515
put the child off M 512
put on ships and M 512
put in money and M 506
put up walls and M 502
put the facts and M 502
put in front and M 499
put the table and M 496
put in place both M 496
put the enemy out M 494
put to wider use M 493
put in words for M 492
put the meeting off M 483
put in place not M 482
put on about ten M 478
put the civil war M 469
put on after her M 468
put on after his M 464
put the motion that M 459
put up again for M 458
put to paper and M 456
put in place they M 452
put in place than M 452
put the people and M 448
put the total for M 440
put in writing but M 440
put the landing gear M 439
put the winning run M 436
put in issue all M 436
put the lower end M 430
put the green one M 430
put in trust and M 430
put the engine out M 429
put the party who M 428
put it under that M 428
put in print for M 426
put the world out M 425
put the world and M 424
put the right one M 424
put the plant out M 424
put on paper any M 424
put in place this M 423
put to nurse with M 416
put on black for M 413
put the small end M 408
put on seven and M 408
put in place his M 407
put on paper was M 404
put in words and M 403
put on stage and M 402
put the money she M 400
put to stand for M 398
put it plain and M 398
put in store for M 398
put in about ten M 396
put me aside for M 394
put in order this M 390
put in money for M 390
put in again for M 386
put at about one M 386
put on again her M 384
put in force this M 384
put it under its M 383
put the child and M 382
put the light off M 378
put in place can M 378
put in motion this M 378
put in cages and M 374
put the party and M 370
put on guard and M 370
put in place has M 370
put me aside with M 368
put it above all M 368
put the notion out M 366
put in order her M 366
put in where they M 364
put on paper but M 362
put in about one M 361
put to every one M 358
put the queen and M 358
put the empty can M 356
put the place out M 355
put the whole job M 354
put in about six M 353
put the woman out M 352
put the woman and M 352
put the image out M 352
put me under oath M 352
put the whole sum M 351
put to shame with M 350
put in place using M 349
put the people off M 348
put in motion two M 348
put on anything but M 346
put my father and M 346
put in issue any M 346
put in place may M 343
put up water for M 342
put up signs all M 342
put in again and M 342
put the issue out M 339
put an utter end M 338
put the right arm M 336
put the items you M 336
put up signs for M 334
put in train and M 334
put on shows that M 333
put it within our M 332
put in writing was M 332
put in place had M 330
put up under his M 328
put the right way M 326
put on under his M 324
put to every man M 323
put the whole area M 322
put the visit off M 322
put the vital heat M 320
put me rather out M 320
put it within her M 316
put in writing how M 316
put it beneath her M 314
put on glory and M 312
put up where they M 310
put the empty box M 310
put on while you M 310
put on paper her M 310
put in peril our M 306
put in motion was M 304
put in action with M 304
put the right leg M 303
put at about two M 302
put to shame this M 301
put to guess his M 301
put the quest for M 300
put the plans for M 300
put my right leg M 300
put on people who M 299
put to press with M 298
put the tools and M 296
put in print that M 296
put in motion any M 296
put up about two M 295
put on board was M 295
put up again with M 294
put the issue thus M 294
put up every day M 292
put to shame not M 292
put by money for M 292
put the whole set M 291
put it right now M 290
put the power out M 289
put the others off M 289
put the watch and M 284
put by every year M 283
put my whole being M 279
put on shows with M 278
put an extra man M 278
put in every man M 277
put the frame and M 274
put to press and M 273
put the devil out M 273
put the leaves and M 272
put on again with M 272
put my money and M 272
put it under this M 272
put in motion may M 271
put on paper how M 270
put in print his M 270
put in place then M 269
put on first one M 268
put me under her M 264
put on clothing that M 263
put in writing with M 263
put the crown and M 262
put the black one M 262
put the first men M 260
put the child with M 260
put it first and M 260
put in words how M 260
put in hopes that M 260
put en route for M 258
put the woman off M 257
put on again for M 257
put the notes and M 256
put in force its M 254
put it within easy M 252
put in every one M 251
put it rather too M 250
put in harms way M 249
put the whole team M 248
put the blame and M 248
put the order for M 246
put the issue with M 246
put the cause for M 246
put in motion one M 245
put the black and M 244
put my hands all M 244
put my father out M 244
put it lower than M 244
put on music that M 243
put up about ten M 242
put the total area M 242
put me aside and M 242
put in rather than M 242
put the small box M 240
put the right and M 240
put by anything for M 240
put the white men M 238
put the money with M 238
put the lands out M 238
put on about two M 238
put me where they M 238
put me under any M 238
put in issue his M 238
put us right out M 236
put it round him M 236
put in place each M 236
put the match out M 235
put to shame one M 234
put the white things M 234
put to cruel death M 233
put on alert that M 233
put in people who M 233
put in place did M 232
put an extra one M 232
put on white man M 231
put to shift for M 230
put the whole deal M 230
put it aside now M 230
put in claim for M 230
put the check and M 228
put at either end M 228
put the whole earth M 226
put the times and M 226
put on extra men M 226
put up signs with M 224
put on stage for M 223
put to paper his M 222
put the blame off M 222
put on while they M 222
put my watch and M 222
put my money with M 222
put me under that M 222
put in lines for M 221
put on power and M 220
put it which way M 220
put to waste and M 218
put the party out M 218
put the first set M 218
put to sleep that M 217
put in books and M 216
put my hopes and M 214
put it about him M 214
put in motion they M 214
put the father and M 212
put me right and M 212
put the stuff out M 210
put the music box M 210
put the moral and M 210
put on paper than M 209
put to right use M 208
put in peril for M 208
put in force her M 208
put the joint out M 207
put it either way M 207
put it after that M 207
put the whole boy M 206
put the first few M 206
put the boxes and M 206
put in again with M 206
put to people who M 205
put to paper for M 204
put in words all M 204
put to sleep this M 203
put to sleep each M 202
put the words out M 202
put on paper are M 201
put the woman who M 200
put on white and M 200
put on while she M 200
put me under and M 200
put it later that M 200
put an enemy out M 200
put the light and M 198
put the claim for M 198
put the album out M 198
put no doubt but M 198
put in danger and M 197
put up posts and M 196
put on ships for M 196
put on after she M 196
put in motion its M 196
put the owner out M 195
put up first and M 194
put the point too M 194
put the final and M 194
put the whole man M 192
put the engine and M 192
put the black box M 192
put it later than M 192
put in place yet M 192
put in action now M 192
put to agree with M 191
put to sleep was M 190
put on guard for M 190
put it under any M 190
put the price you M 188
put the music and M 188
put in writing this M 188
put in doubt its M 188
put the towns and M 186
put in after that M 186
put an extra cup M 186
put it again and M 184
put in water with M 184
put up gates and M 182
put the white and M 182
put in power men M 181
put the value and M 180
put me under for M 180
put it above his M 180
put the stuff that M 179
put on warning that M 179
put the small one M 178
put the people you M 178
put the first things M 178
put the civil and M 176
put the board and M 176
put to sleep his M 175
put on stage with M 175
put to sleep but M 174
put to shame her M 174
put in plain and M 174
put in jails and M 174
put to deadly use M 172
put my trust not M 172
put in right with M 172
put in place our M 172
put in every year M 172
put in doubt all M 172
put the front end M 171
put the rules and M 170
put the facts out M 170
put it after one M 170
put in force was M 170
put in force two M 170
put on paper can M 169
put in place due M 169
put up after his M 168
put the brain and M 168
put the author and M 168
put on words with M 168
put my notes and M 168
put the birds out M 166
put on clothing and M 166
put on anything and M 166
put in boxes for M 166
put us under any M 164
put to local use M 164
put the loose end M 164
put the issue off M 164
put the dialog box M 164
put in order was M 163
put on wraps and M 162
put on about six M 162
put it front and M 161
put in peril her M 161
put the stuff you M 160
put the price too M 160
put the paper cup M 160
put the human and M 160
put in writing its M 160
put in cases and M 160
put an extra ten M 160
put the loved one M 159
put the house out M 159
put the reader out M 158
put me right for M 158
put in place too M 158
put in peril all M 158
put in motion can M 158
put in force now M 158
put the notion that M 157
put up boxes for M 156
put on paper not M 156
put in doubt his M 156
put in words but M 155
put in peril that M 155
put to press his M 154
put the money thus M 154
put the labor and M 154
put us under his M 152
put to study with M 152
put the whole day M 152
put the small and M 152
put the seeds and M 152
put the event out M 152
put on white men M 152
put on rather than M 152
put it round you M 152
put in writing our M 152
put in place near M 152
put in motion are M 152
put by people who M 152
put to shame but M 150
put the white one M 150
put the water for M 150
put my trust for M 150
put it under two M 150
put in calls for M 150
put the hands and M 148
put the books out M 148
put or place any M 148
put in writing her M 148
put in trees and M 148
put in longer and M 147
put in anything but M 147
put to tests that M 146
put on style and M 146
put on after they M 146
put in store and M 146
put to proof that M 145
put to study law M 144
put to claim that M 144
put the point for M 144
put the people they M 144
put the facts you M 144
put in print with M 144
put in paper and M 143
put the seven men M 142
put the price for M 142
put the older man M 142
put the issue that M 142
put on people and M 142
put on paper this M 142
put it right but M 142
put it after her M 142
put in under his M 142
put in every now M 142
put in action his M 142
put the chain and M 141
put on board him M 141
put to lodge with M 140
put the small boy M 140
put the place and M 140
put the burning end M 140
put in water they M 140
put in verse things M 140
put in others who M 140
put in nearly two M 140
put in motion but M 140
put up nearly all M 138
put the whole bag M 138
put the strong arm M 138
put on after you M 138
put me every day M 138
put it under ban M 138
put it aside but M 138
put in peril his M 138
put in force are M 138
put on under her M 137
put up first one M 136
put the upper and M 136
put the small bag M 136
put the chair and M 136
put the books that M 136
put on board but M 136
put of after its M 136
put up anything that M 135
put to names and M 134
put the right end M 134
put the cross and M 134
put me under this M 134
put in while her M 134
put in notes for M 134
put in motion her M 134
put in force but M 134
put in first with M 134
put to sleep any M 132
put to music for M 132
put the blame all M 132
put on paper things M 132
put in cages with M 132
put to later use M 131
put in words his M 131
put up right then M 130
put to quick use M 130
put to labor and M 130
put on every man M 130
put me first and M 130
put it where his M 130
put in place key M 130
put the story and M 129
put to shame both M 128
put on since his M 128
put on guard with M 128
put my house and M 128
put it under them M 128
put in writing why M 128
put on after that M 127
put in order are M 127
put up about one M 126
put to shame its M 126
put my plans for M 126
put it above her M 126
put in writing can M 126
put in boxes with M 126
put in after all M 126
put by every boy M 126
put at issue and M 126
put in doubt any M 125
put up either with M 124
put the phone and M 124
put the files you M 124
put the crime and M 124
put on every bit M 124
put on board than M 124
put my whole head M 124
put to sleep one M 123
put an alert out M 123
put the whole box M 122
put the right team M 122
put the poetic and M 122
put the evening meal M 122
put the check for M 122
put the cause and M 122
put the blood and M 122
put on every one M 122
put it right was M 122
put in power for M 122
put in order any M 122
put in motion has M 122
put in error for M 122
put an entry for M 122
put an empty box M 122
put on after all M 121
put in which was M 121
put to sleep her M 120
put to poetic use M 120
put the working man M 120
put the first day M 120
put on water and M 120
put it short and M 120
put in water that M 120
put in strong and M 120
put in order its M 120
put in force our M 120
put in action that M 119
put to prove his M 118
put to nurse them M 118
put the words you M 118
put on leaves and M 118
put on clothing for M 118
put on beneath his M 118
put my right and M 118
put it under and M 118
put in power with M 118
put in cells with M 118
put an album out M 118
put the ships out M 117
put in order one M 117
put in issue was M 117
put the black bag M 116
put on guard that M 116
put on after death M 116
put the women out M 115
put on white for M 115
put in nearly all M 115
put up easily with M 114
put the blind man M 114
put on table with M 114
put on about his M 114
put me above all M 114
put in words this M 114
put to sleep than M 113
put in doubt that M 113
put the worry out M 112
put the voice and M 112
put the press and M 112
put the party off M 112
put the facts that M 112
put so fully and M 112
put on until they M 112
put on nearly all M 112
put on board had M 112
put in peril and M 112
put in order they M 112
put in either one M 112
put in danger for M 112
put in cells and M 112
put the people that M 111
put the group out M 111
put on every two M 111
put my money out M 111
put to sleep our M 110
put to either use M 110
put the order out M 110
put the items that M 110
put on women and M 110
put on masks for M 110
put on green and M 110
put on board are M 110
put my mother out M 110
put in train with M 110
put in motion than M 110
put in doubt for M 110
put in danger all M 110
put in after each M 110
put us quite out M 109
put on which was M 109
put my child out M 109
put me under one M 109
put the words they M 108
put the notes for M 108
put the issue and M 108
put the goods and M 108
put the bowls and M 108
put the basic idea M 108
put my money all M 108
put it under each M 108
put it round that M 108
put in stays and M 108
put in order not M 108
put in order but M 108
put in action one M 108
put an extra bit M 108
put an empty one M 108
put us right and M 106
put up until they M 106
put to worthy use M 106
put the whole poem M 106
put the first aid M 106
put the books she M 106
put the birds and M 106
put on anything you M 106
put in writing are M 106
put in phase with M 106
put in force not M 106
put in every few M 106
put en cache for M 106
put up large and M 104
put the words with M 104
put the walls and M 104
put the value for M 104
put on while his M 104
put on paper now M 104
put on again all M 104
put in order now M 104
put in force they M 104
put in after them M 104
put the world off M 103
put the house key M 103
put on masks that M 103
put us under this M 102
put up money that M 102
put the money bag M 102
put the first real M 102
put the devil and M 102
put on trees and M 102
put on others and M 102
put on beauty and M 102
put my honor and M 102
put my empty cup M 102
put it rather low M 102
put in until they M 102
put in motion not M 102
put in looking for M 102
put at about six M 102
put the claim that M 101
put on paper one M 101
put in issue not M 101
put the small man M 100
put the rules for M 100
put the plant and M 100
put the moral law M 100
put on others that M 100
put on after being M 100
put it nearly two M 100
put it aside long M 100
put in every way M 100
put in cages for M 100
put in stuff that M 99
put an empty can M 99
put to moral use M 98
put to labor for M 98
put to board now M 98
put the tools for M 98
put the phone out M 98
put the large and M 98
put the ashes and M 98
put so large and M 98
put on learning and M 98
put on about one M 98
put my hands near M 98
put it where all M 98
put it about all M 98
put in where you M 98
put in pairs and M 98
put an equal sum M 98
put the whole east M 97
put to shame nor M 96
put the stage and M 96
put the river and M 96
put the people with M 96
put the empty bag M 96
put the dates and M 96
put on walls and M 96
put on board men M 96
put in words was M 96
put in which are M 96
put in force one M 96
put an order for M 96
put an engine off M 96
put it about two M 95
put up which was M 94
put up since his M 94
put up about this M 94
put the large one M 94
put the files and M 94
put the cakes and M 94
put on women who M 94
put on first her M 94
put on either one M 94
put it aside then M 94
put it after she M 94
put it about this M 94
put in under oath M 94
put in print but M 94
put in power they M 94
put in peril bear M 94
put in order than M 94
put an extra set M 94
put on cloak and M 93
put in doubt with M 93
put in anything for M 93
put us under that M 92
put us right are M 92
put up since you M 92
put up anything but M 92
put the total death M 92
put the state out M 92
put the short end M 92
put on state and M 92
put on music for M 92
put on growth and M 92
put on anything for M 92
put it under all M 92
put it aside that M 92
put in hours that M 92
put in about this M 92
put up money but M 90
put to paper with M 90
put the ships and M 90
put the phone near M 90
put the final death M 90
put the brown bag M 90
put on white kid M 90
put on board not M 90
put it right this M 90
put an undue and M 90
put in anything they M 89
put the phone off M 88
put the girls and M 88
put the first big M 88
put the files for M 88
put the fight for M 88
put the empty one M 88
put it about and M 88
put in shape with M 88
put in motion our M 88
put in first are M 88
put the works out M 87
put the queen out M 87
put the price low M 87
put in place who M 87
put us right for M 86
put to proof and M 86
put to noble use M 86
put to grass and M 86
put the large end M 86
put the hopes and M 86
put the goals and M 86
put the gates and M 86
put the fourth and M 86
put the first lot M 86
put the beauty and M 86
put on until you M 86
put on parts that M 86
put on board you M 86
put on anything they M 86
put it beneath our M 86
put in while you M 86
put in motion then M 86
put in force both M 86
put in action are M 86
put an upper and M 86
put up front and M 84
put up about that M 84
put to grass for M 84
put the legal and M 84
put the issue for M 84
put on words and M 84
put on people with M 84
put in working for M 84
put in action any M 84
put in power was M 83
put in every bit M 83
put up within two M 82
put to vital use M 82
put to paper had M 82
put the worthy man M 82
put the table with M 82
put the sense and M 82
put the owner and M 82
put the older and M 82
put the first bit M 82
put the chain with M 82
put on quite wet M 82
put on paper may M 82
put it right you M 82
put in issue for M 82
put in cells for M 82
put up costs and M 80
put up anything you M 80
put to words and M 80
put the child who M 80
put on either with M 80
put on again its M 80
put it round and M 80
put in words any M 80
put at about ten M 80
put an extra heap M 80
put to carry out M 78
put the girls out M 76
put in train that M 62
put the clock out M 58
put the files that M 57
put in issue that M 56
put the water that M 52
put on board both M 52
put the table out M 51
put to sleep long M 49
put the women off M 49
put on again that M 49
put the water out M 48
put the lines out M 48
put in comes out M 47
put in motion both M 46
put up walls that M 45
put to point out M 45
put the alert out M 45
put in danger that M 45
put my mother off M 43
put in quite this M 42
put the boxes out M 41
put on board they M 41
put it rather that M 41
put the traps out M 40
put in motion long M 40
put in front for M 40
put in about that M 40
put an extra two M 40
put in irons and D 8692
put in irons for D 3903
put the sugar and D 3789
put the final seal D 3779
put on flesh and D 2773
put on speed and D 2404
put the flour and D 2206
put the olive oil D 2177
put on plays and D 1846
put on boots and D 1716
put on shore and D 1570
put on socks and D 1489
put on coats and D 1208
put up tents and D 1196
put the sharp end D 1116
put in sacks and D 1017
put on plays for D 1016
put on armor and D 1000
put on shore with D 966
put the mercy seat D 910
put on pants and D 894
put the knife and D 868
put on shore for D 790
put the flame out D 751
put my tongue out D 694
put my tires and D 694
put the fruit and D 688
put up funds for D 670
put the horse and D 660
put on plays with D 631
put the horse out D 627
put the wedding off D 610
put to social use D 593
put up tents for D 578
put the blaze out D 566
put the plate and D 549
put on rouge and D 522
put on plays that D 519
put on robes and D 515
put my thinking cap D 508
put the taxes out D 504
put the trash out D 498
put the court and D 496
pus is mixed with D 491
put the bacon and D 463
put on shirt and D 460
put to shore and D 452
put the glass and D 442
put up poles and D 430
put the stars and D 422
put on cards and D 418
put the honey and D 410
put on suits and D 392
put the bride and D 386
put the bible and D 386
put the tongue out D 378
put the title and D 378
put the canal out D 376
put the flesh and D 374
put no fewer than D 370
put on boats and D 368
put the lamps out D 366
put the juice and D 360
put on buses and D 358
put in roads and D 356
put the social and D 352
put on earrings and D 344
put in march for D 342
put to shore for D 339
put the stock and D 316
put by gages and D 316
put on skits and D 311
put my knife and D 308
put the plate with D 304
put in sugar and D 304
put the sword and D 294
put on paint and D 290
put the royal seal D 288
put my socks and D 288
pus to drain out D 286
put an extra bed D 280
put the liver and D 276
put in boats and D 275
put to fresh use D 274
pus or blood may D 270
put the right shoe D 258
put in bonds and D 256
put in crops and D 255
put the stamp act D 252
put the black cap D 252
put to sword and D 244
put the stars out D 244
put the empty mug D 240
put to proof art D 233
put the broom and D 230
put in doors and D 226
put the bible out D 224
put the boats out D 223
put the glass with D 220
pus or blood and D 219
put the nation and D 216
put the washing out D 215
put the brush and D 214
put the teddy bear D 212
put on gowns and D 212
put my shirt and D 212
put the pizza box D 210
put the cigar out D 208
put the steel beam D 206
put the trash can D 204
put on sweats and D 204
put my pants and D 202
put up housing for D 200
put an extra tax D 200
put on scuba gear D 198
put in irons with D 196
put in stock and D 195
put up stating that D 192
put the basis for D 190
put up bonds for D 186
put on khaki and D 182
put the straw hat D 180
put the cigar box D 180
put an apron and D 180
put the metal box D 178
put the legal pad D 178
put the cooking pot D 178
put my purse and D 176
put on white tie D 174
put by babes and D 174
put the cards and D 172
put the shirt and D 170
put on shore all D 170
put on fresh and D 170
put in irons any D 167
put the teapot and D 166
put the rolling pin D 166
put the candy bar D 166
put the broad seal D 166
put in fresh oil D 166
put on weeds for D 162
put the scarf and D 160
put the skins and D 158
put on would not D 158
put in casks and D 158
put the guinea pig D 156
put in crops for D 156
put the stone and D 154
put in piles and D 154
put up lunch for D 152
put the purse with D 152
put on shore near D 152
put on regal and D 152
put my horse and D 152
put on cards for D 150
put ye every man D 148
put the mules and D 148
put on shore any D 148
put on carts and D 148
put in camps and D 148
put an apple and D 148
put the whole sex D 146
put the fresh one D 146
put my boots and D 146
put the whole gang D 144
put the spoon and D 144
put the skull and D 144
put the rifle and D 142
put the cards you D 142
put the basin out D 142
put my straw hat D 142
put thy trust and D 140
put in sacks for D 140
put at stake and D 140
put on social and D 139
put up flags and D 138
put up fruit and D 136
put to urban use D 136
put to sword all D 136
put the white hat D 136
put the paint and D 136
put the flags out D 136
put on trays and D 135
put the lunch box D 134
put the ferry out D 134
put the china and D 134
put on hooks and D 134
put my washing out D 133
put in honey and D 132
put to breast for D 130
put the mayor and D 130
put to novel use D 128
put to comic use D 128
put the diaper bag D 128
put it under seal D 128
pub in which they D 128
put the torch out D 126
put the apple and D 126
put on extra fat D 126
put my chest and D 126
put the steaming cup D 124
put on racks and D 124
pus is spread out D 124
put on brand new D 123
put the weapon out D 122
put the thrill and D 122
pus or mucus may D 122
pus is found and D 122
put the chess set D 121
put in large pot D 121
put the socks and D 118
put the dress and D 118
put the bills and D 118
put in fewer than D 118
put in canoes and D 118
put up sheds for D 116
put the roads and D 116
put on skits for D 114
put my cadet cap D 114
put my bible and D 114
put in irons but D 114
put an ounce and D 114
put the puppy out D 113
put an extra leaf D 113
put the water jug D 112
put my right shoe D 112
put in would not D 112
put at stake his D 112
put an apple pie D 112
put on skids and D 111
put in funds for D 111
put the metal cap D 110
put the cereal box D 110
put the blunt end D 110
pus in which are D 110
put the black hat D 109
put the index and D 108
put the cocoa and D 108
put the chick peas D 108
put in melting ice D 108
put in irons all D 108
put in coals and D 108
put the final cap D 107
put the cards out D 107
put up would not D 106
put the staff and D 106
put the split peas D 106
put the purse and D 106
put on while hot D 106
put on rafts and D 106
pub at night and D 106
put the stamp and D 104
put the extra leaf D 104
put in orbit and D 104
put the motor out D 103
pus or blood are D 103
put the privy seal D 102
put the paint can D 102
put the maids with D 102
put the fleet out D 102
put the final lid D 102
put the doors and D 102
put my tired head D 102
put the roman law D 101
put up rails and D 100
put to rhyme with D 100
put on heels and D 100
put the scene out D 98
put the round peg D 98
put the photo and D 98
put the nails and D 98
put up sails and D 96
put the rooms and D 96
put the glass jar D 96
put the cards for D 96
put on speed for D 96
put my cuffs and D 96
pup is thinking and D 96
put the whole egg D 94
put the white cap D 94
put the wagon and D 94
put the pouch and D 94
put the chewing gum D 94
put on shore two D 94
put on coals and D 94
put it would not D 94
put in rooms with D 94
put in irons had D 94
put the staff out D 93
put the yolks and D 92
put the violin out D 92
put the dough thus D 92
put the coins and D 92
pus in which they D 92
put the towel and D 91
put to drink that D 90
put the sheet with D 90
put the leather bag D 90
put the herbs and D 90
put on boots that D 90
put in linings and D 90
put to salve and D 88
put the whole pot D 88
put the tower and D 88
put the skill and D 88
put the sheet and D 88
put the sheep and D 88
put the salad and D 88
put on poles and D 88
put my fingers near D 88
pus or blood can D 88
put the parking lot D 87
put on flesh with D 87
put in molds and D 87
put up tents near D 86
put up pound for D 86
put up booths and D 86
put to social and D 86
put to flame and D 86
put the witch pie D 86
put the whole kit D 86
put the stick and D 86
put the flint and D 86
put the first row D 86
put on stove and D 86
put in coins and D 86
put the milky way D 85
put the feather bed D 85
put the taste out D 84
put the spoon with D 84
put the grain and D 84
put the whole cod D 82
put the weeping old D 82
put the steaming mug D 82
put the forks and D 82
put on armor for D 82
put my fingers and D 82
put up bills this D 80
put the water jar D 80
put the sinking and D 80
put the fleet and D 80
put the dutch out D 80
put the chest and D 80
put my horse out D 64
put the stove out D 56
put on fresh that D 55
put my fingers out D 53
put in boiling hot D 46
put the rooms out D 45
put the pilot off D 43
put in drums and D 42
put the snake out D 41
put the sheep out D 41
put the mines out D 41
put the horse off D 41
put the court out D 40
put the cable out D 40
put in pipes and D 40
