pure water a day M 550
puts quite a bit M 188
pure solid a and M 178
pure reason i mean M 166
pull quite a few M 130
puts quite a new M 128
puts quite a lot M 114
pull apart a bar M 106
push aside a few M 101
pure water a few M 100
pure white a few M 82
pure metal a and D 192
pump twice a day D 103
