arms once again . M 2912
army into action . M 1432
arms last night . M 1176
arms were empty . M 998
arms were strong . M 776
army from defeat . M 720
arms were taken . M 690
army ever since . M 670
army into shape . M 660
areas were found . M 658
arms were found . M 608
arms till morning . M 548
army once again . M 526
areas even today . M 482
arms wide apart . M 394
areas were added . M 394
army from within . M 384
areas over others . M 352
arch their backs . M 346
army fell apart . M 342
arms hanging loose . M 342
arms three times . M 296
areas were noted . M 284
areas more easily . M 282
arms when walking . M 262
arms ever since . M 260
areas were built . M 248
areas will occur . M 244
army will admit . M 240
areas were small . M 240
arms were missing . M 236
areas ever since . M 226
areas have grown . M 222
army from below . M 198
army into motion . M 186
areas were equal . M 184
areas were taken . M 182
arms last night ? M 180
army into panic . M 170
arms were naked . M 170
areas once again . M 164
arms were freed . M 160
arms felt empty . M 158
arms were longer . M 152
arms over night . M 152
arms were wanting . M 150
army home again . M 144
army back again . M 144
areas will appear . M 144
army next morning . M 142
arms many times . M 141
army much longer . M 140
army last night . M 140
army will appear . M 136
arms were short . M 136
areas more fully . M 130
arms were added . M 126
areas will change . M 126
areas take place . M 122
areas have healed . M 122
arms were burning . M 120
army four months . M 118
arms were lacking . M 118
areas were lacking . M 118
army were saved . M 116
areas among others . M 114
army been known . M 110
arms into place . M 110
areas more often . M 110
areas also exist . M 110
army were taken . M 108
army came first . M 108
arms down again . M 108
army into chaos . M 104
army gave chase . M 100
arms will allow . M 100
areas once daily . M 98
areas were given . M 96
army were drawn . M 94
arms over theirs . M 94
areas will arise . M 92
areas into towns . M 92
army base nearby . M 90
arms were white . M 90
arms were hurting . M 90
areas just noted . M 90
areas from above . M 90
areas also occur . M 90
arms once again ! M 88
areas much easier . M 88
areas from others . M 88
arms were saved . M 86
areas were black . M 86
arms length apart . M 85
arms were black . M 84
arms were thrust . M 82
arms from below . M 82
arms ever again . M 82
areas were mixed . M 82
