around the word " M 10785
around the term " M 3532
around the room " M 1858
around the flag " M 1044
around the town " M 905
around the city " M 870
around the bend " M 537
around the name " M 470
arrive at their " M 440
arrive at some " M 398
around the moon " M 312
around the body " M 294
around the fire " M 288
arrive at your " M 272
around the heart " M 270
around the eyes " M 246
arrange to have " M 216
around the verb " M 210
around in their " M 209
around the same " M 200
around the time " M 198
arrive on time " M 194
around the lake " M 192
around the home " M 190
around the three " M 178
around the door " M 172
around the loop " M 160
around the text " M 158
around the edge " M 154
arrive at these " M 150
around the tree " M 142
around to saying " M 140
around the back " M 140
around the great " M 136
arises the term " M 130
arrest is made " M 128
arrive at truth " M 126
arrive in time " M 124
around the four " M 122
arisen the term " M 122
around the ship " M 120
arriving at their " M 118
around the line " M 114
around the hill " M 114
arrive at those " M 104
around the main " M 100
around the other " M 98
around my life " M 98
arises the name " M 96
argued to have " M 94
arrive at such " M 92
around the hall " M 90
around the shop " M 84
around my heart " M 84
arriving at truth " M 82
around so much " M 52
around to play " M 45
