cry to god for M 9641
cry of joy and M 8330
cry of fear and M 3398
cry to him for M 3384
cry of one who M 2625
cry to him day M 2555
cry of his own M 2535
cry of joy she M 1617
cry to him that M 1593
cry of joy that M 1576
cry of her own M 1425
cry to you for M 1322
cry to her that M 1242
cry it all out M 1210
cry to god and M 1050
cry as she saw M 930
cry to god with M 876
cry of joy was M 852
cry of men who M 810
cry to god that M 745
cry of all who M 710
cry of him that M 663
cry to him who M 621
cry to see him M 602
cry to him with M 596
cry if they are M 551
cry of death and M 548
cry to see her M 546
cry to him and M 521
cry as she had M 492
cry of war and M 490
cry of him who M 490
cry as she was M 488
cry of our own M 480
cry is not for M 472
cry if she did M 455
cry is all for M 452
cry up all that M 448
cry to god day M 446
cry of them hath M 438
cry of war was M 428
cry at dead men M 424
cry of mad dog M 418
cry it out and M 379
cry is that they M 377
cry is weak and M 370
cry to them for M 366
cry of one and M 360
cry to this our M 330
cry as she did M 328
cry of its own M 325
cry of that dim M 324
cry in her own M 324
cry to her for M 320
cry of men and M 308
cry up that for M 306
cry to god was M 296
cry in his own M 291
cry it out for M 288
cry if you can M 272
cry in this way M 267
cry or get mad M 264
cry of his son M 264
cry the way she M 261
cry to you with M 258
cry of all was M 254
cry of fear that M 252
cry of one man M 248
cry of man for M 238
cry of its mad M 238
cry if they see M 237
cry to see how M 235
cry if you are M 234
cry or ask for M 226
cry is now for M 224
cry as she ran M 224
cry as she read M 222
cry of god and M 214
cry in that way M 212
cry to his men M 206
cry of her son M 206
cry to this day M 202
cry of our day M 198
cry as they did M 198
cry of fear she M 194
cry of them that M 193
cry of his was M 192
cry of joy with M 190
cry if she had M 189
cry to hear them M 188
cry in fear and M 188
cry to see them M 186
cry to him out M 182
cry to god out M 180
cry to you and M 178
cry to see you M 177
cry of our age M 173
cry of war with M 172
cry of this new M 172
cry of all his M 172
cry as she sat M 172
cry in our day M 170
cry the old man M 166
cry of fear was M 166
cry of joy for M 164
cry or run and M 161
cry to you that M 156
cry to say that M 154
cry of all men M 154
cry to but with M 152
cry so that they M 149
cry or hang her M 148
cry of that day M 148
cry to all who M 147
cry of joy ran M 146
cry as they are M 145
cry in our own M 143
cry to hear her M 142
cry he did not M 141
cry at his own M 140
cry to you then M 136
cry to her son M 136
cry of war had M 136
cry do not cry M 136
cry of man and M 134
cry to one who M 133
cry or beg for M 133
cry of law and M 132
cry to them with M 131
cry if she saw M 131
cry at all and M 130
cry to his god M 129
cry so that she M 127
cry if you get M 127
cry up his own M 126
cry of them all M 126
cry in him that M 126
cry to them that M 123
cry if they did M 123
cry is now being M 122
cry if you had M 122
cry if they can M 122
cry at her own M 122
cry on his own M 121
cry is one that M 119
cry to our god M 118
cry of death was M 118
cry woe for this M 116
cry as they saw M 115
cry as they bring M 112
cry to get rid M 110
cry of his old M 110
cry of her dear M 107
cry if she was M 107
cry is not that M 105
cry the way you M 104
cry of his new M 104
cry or cry out M 103
cry or you may M 102
cry of his men M 102
cry the way they M 101
cry if you cut M 101
cry if she does M 101
cry as all men M 99
cry of war for M 98
cry it out with M 97
cry to god has M 96
cry of joy they M 96
cry in all its M 96
cry is that you M 95
cry in his head M 95
cry of all our M 94
cry in fear for M 94
cry up thus his M 92
cry of awe and M 92
cry to them and M 91
cry it was all M 91
cry of our sad M 90
cry of her new M 90
cry is for men M 90
cry as yet for M 90
cry to get out M 89
cry to this man M 88
cry to hang him M 88
cry of dying men M 88
cry is that this M 88
cry is that our M 88
cry he put his M 88
cry of this man M 87
cry of our era M 86
cry of old and M 86
cry if you got M 86
cry of her who M 84
cry by all his M 84
cry of joy but M 83
cry of joy rings M 82
cry is not one M 82
cry he let out M 82
cry we are men M 80
cry to hear you M 80
cry is for you M 80
cry on her own M 75
cry to see that M 74
cry in that day M 67
cry to get her M 65
cry to get his M 63
cry as with one M 62
cry to his own M 61
cry on that day M 58
cry of all that M 56
cry to hear him M 55
cry is all that M 55
cry by day and M 55
cry to our own M 53
cry so long and M 48
cry of one that M 48
cry to let you M 47
cry so that you M 47
cry on and off M 47
cry as they fly M 46
cry to let them M 43
cry to that god M 42
cry to see his M 42
cry if any one M 42
cry of any one M 41
cry is that all M 41
cry as you read M 41
cry as she put M 41
cry so you can M 40
cry to thee for D 2341
cry in his ears D 748
cry of art for D 692
cry of joy rang D 214
cry of tar and D 204
cry in our ears D 194
cry of her sex D 178
cry in her ears D 173
cry of her cub D 172
cry to thee and D 157
cry of rue sang D 82
cry to thee with D 42
cry in her bed D 42
