creation of the new M 126839
created by the war M 45322
created by the new M 40100
created by the act M 38154
critic of the new M 35958
crossing of the red M 32336
creation of the earth M 31329
created by the use M 25277
created by an act M 24774
crisis of the old M 22195
crisis of the war M 18949
created by the law M 18130
crisis at the end M 16674
crisis of the mid M 16637
created at the end M 13986
creation of the sun M 13586
created by the death M 13480
created by the two M 12976
cracks in the earth M 10826
creation of the two M 10615
crossing of the two M 9896
creation of an all M 8943
creator of the new M 8722
created us in his M 8050
credit of the new M 8018
critic of the day M 8005
creator of the earth M 7422
crisis in the mid M 7386
crucial if we are M 7338
created in the mid M 7280
created in the new M 6970
created by the poet M 6238
creation of the law M 6159
creation of the poet M 5994
credit at the end M 5211
created by the end M 5130
crucial to the way M 4912
crisis in the east M 4561
critic of the war M 4559
created by the way M 4556
created in the year M 4422
crisis of the day M 4319
created by the old M 4284
creation of the war M 4268
crisis in the near M 4262
created by the sun M 4178
created on the fly M 3928
crisis in the far M 3879
creation of the old M 3842
creation is an act M 3796
creation of my own M 3766
credit to the new M 3757
critic of the old M 3715
crucial thing is that M 3708
crisis of the new M 3679
created by the one M 3660
created in the area M 3504
creation to the end M 3489
crucial to the long M 3454
created by the long M 3436
creation of the one M 3430
creation of the myth M 3416
creation of an area M 3320
critic of the age M 3310
crisis to an end M 3208
created by the god M 3150
crises of the mid M 3084
creation of an air M 3023
cracks in the old M 2912
creation in the old M 2878
crucial to the new M 2854
crossing to the east M 2836
creator of us all M 2795
created at the top M 2748
created if it does M 2742
creation of the all M 2725
creation of the man M 2718
credit to the man M 2680
created in the way M 2666
creation of the red M 2653
creator of the sun M 2628
creation of the idea M 2598
credit of the old M 2544
crisis of the age M 2528
credit in the year M 2482
crucial to the war M 2468
crossing of the big M 2428
crises of the war M 2407
creation of an east M 2392
creation of the poem M 2328
created by the non M 2302
creation of the mid M 2296
critic is he who M 2252
creation as an act M 2236
creation to the death M 2224
creation of the east M 2209
created by the air M 2187
created in the east M 2181
creation of the real M 2126
crossing of the bar M 2122
crisis of the year M 2121
created in the act M 2104
crucial it is for M 2082
crisis in the war M 2072
critic in the new M 2066
creation at the end M 2062
creation to the day M 2060
created by the son M 2023
creation to the year M 1961
crossing of the old M 1959
crisis in the new M 1920
created by an all M 1911
credit of the two M 1892
credit of the men M 1878
created in the two M 1877
created by the low M 1863
credit to the men M 1858
created by the men M 1846
credit to the old M 1844
created by the earth M 1840
critic on the new M 1826
created by the big M 1810
crawling on the earth M 1808
crisis in the law M 1804
created in the air M 1796
created by the ego M 1771
crises of the day M 1770
created in the old M 1755
created in the big M 1749
created on the earth M 1746
created in the near M 1711
creation of the god M 1704
created by the heat M 1694
created by the man M 1690
crimes in the area M 1681
creation in the new M 1661
created by my own M 1658
creation of the air M 1656
created by it and M 1632
creation on the one M 1628
crisis in the area M 1614
created by or for M 1608
creation of the ego M 1488
created by the web M 1467
creation of the web M 1422
creation of an idea M 1412
created in the war M 1403
crisis in the long M 1402
creation of the non M 1392
crisis in the old M 1384
crucial it is that M 1378
crossing on the way M 1375
crisis by the end M 1352
credit by or with M 1348
crisis of the end M 1327
created on the heap M 1325
created on the one M 1323
credit to the idea M 1294
creation of an old M 1291
created in the far M 1287
crisis it is not M 1270
creation as it was M 1270
cracking in the heat M 1270
created by the fear M 1259
created as it was M 1253
credit to or for M 1248
credit to the non M 1246
critic as he was M 1244
creation of the age M 1243
creation of the son M 1240
created in my own M 1237
crimes of the old M 1230
crucial to the use M 1219
creation of the six M 1214
critic at the new M 1204
credit on the one M 1204
created to be his M 1199
crucial to the idea M 1197
credit of the man M 1195
creator of it all M 1181
crucial in the long M 1164
credit in the way M 1161
credit if he had M 1154
credit to us all M 1150
creator of the idea M 1144
created by the poem M 1144
created in the earth M 1135
created by the team M 1110
crucial as it was M 1106
crisis as it was M 1098
credit is the sum M 1098
created by the real M 1096
created us so that M 1094
created in an area M 1090
created by the key M 1088
creation of the see M 1081
critic of the way M 1070
creation of the long M 1068
cracks of the old M 1068
crises at the end M 1060
created by the head M 1052
creation of the big M 1048
created by the all M 1047
creator of the red M 1043
crucial thing is not M 1042
crucial to the poem M 1034
credit to the head M 1032
cracks at the top M 1024
crises in the mid M 1012
created by the gap M 1008
created in the six M 1005
created as we now M 1004
crimes of the age M 982
credit to the one M 979
cracking in the sun M 977
crisis in the way M 968
created by the idea M 966
credit of my own M 956
cracks in the top M 952
created by the six M 939
creator of the law M 934
cracking of the earth M 930
created in the long M 921
critic of my own M 904
crimes of the day M 896
critic of the idea M 888
created by it are M 886
created it in his M 884
crisis in the age M 882
credit in the war M 881
creation of the act M 878
creation is the act M 874
created to be and M 872
created by the red M 862
crisis in the air M 855
credit in the new M 852
cracks in the dry M 852
crisis on the one M 850
created by the east M 850
crisis of the real M 848
created in the top M 848
crossing of the new M 845
crisis at the age M 844
crisis in the year M 837
credit of the age M 828
crawling up my leg M 828
crossing to the far M 826
credit to be got M 824
created by it was M 820
created on the new M 816
crisis in my own M 814
critic of no mean M 810
creation to the new M 808
creation of the now M 806
created in the day M 805
crises of the age M 799
created up to this M 798
credit of the idea M 790
crisis of the poem M 788
created on the day M 788
crucial to my own M 786
created it by his M 775
created up to that M 773
created me in his M 772
cracks of the earth M 770
crossing of the east M 767
crisis of the long M 766
crawling to the top M 766
created by the top M 758
created by me and M 758
created in the poem M 756
cracking in the air M 756
critic of the law M 745
credit of it all M 744
created by the few M 742
crossing at the end M 736
creation in the way M 734
created to do this M 731
creation of the ten M 729
crossing at the top M 724
credit to the real M 724
crisis of the two M 716
created by the pre M 714
creation of the area M 712
critic of the use M 704
creation in the mid M 700
created by us and M 700
created by the age M 698
creation on the earth M 697
created by the year M 696
creation of an era M 689
credit in the east M 683
created on the top M 683
created to be man M 682
creation of the pre M 681
critic of the sun M 680
creation of an age M 680
credit to no one M 675
created by the then M 674
created by the cut M 674
creator of the web M 673
critic is to see M 670
created in an era M 667
credit to the two M 666
created in the non M 666
created on the web M 658
crossing to the new M 649
crisis in the two M 646
created as we are M 643
created to be god M 642
created me so that M 642
created in the pre M 642
creation of the sky M 639
critic is the one M 638
crisis of my own M 638
creation of the song M 638
creation of an end M 638
crimes of the war M 635
crimes of the two M 630
created in the heat M 626
credit of the day M 625
credit in the two M 623
crisis at the top M 620
created by the set M 619
creator of the real M 618
creation of the men M 618
credit to my own M 617
crisis as it had M 616
crimes as if they M 612
created as an act M 612
creator of the old M 609
crucial is the way M 602
credit of the one M 600
crimes of the man M 599
crisis as it has M 596
credit to be had M 596
crucial in the new M 595
crowds on the way M 592
created it is not M 589
creation in so far M 588
created by it for M 588
cracks at the end M 587
crises on the one M 578
crises in the near M 577
credit to me and M 570
creator of the poem M 570
created by the kings M 570
crucial in the area M 566
created by the job M 566
credit of the war M 565
creation of an act M 562
creator of the two M 561
credit of it for M 560
creator in the way M 558
created by the dead M 556
crossing at the head M 555
crossing in the air M 554
crimes by the law M 554
creation it is not M 554
credit of the act M 552
crisis is the one M 549
creation of the day M 546
created up to now M 545
created by the sum M 545
crucial in the way M 544
critic of the two M 544
creator is the one M 539
crisis of the idea M 536
credit by the end M 536
crossing at or near M 535
crises in the area M 535
crossing of the don M 534
crisis is at its M 534
crimes at the end M 530
credit to us and M 530
cracks in the new M 530
created by the now M 528
creation of the job M 526
created by an old M 526
credit to an old M 524
credit in the area M 524
crisis in the real M 519
creator on the one M 518
creator of my own M 518
created to go with M 514
credit of the law M 513
credit in the end M 513
created in the era M 512
created in the eye M 511
crucial to me that M 508
critic of the era M 508
credit to me that M 508
crisis of the law M 507
credit to the team M 505
creation of the map M 502
credit of it was M 494
credit in the long M 492
created in an age M 492
creator of the sky M 491
credit as it was M 488
creator of an idea M 488
created or an old M 487
created in the sky M 486
crucial in the war M 485
crawling to the rear M 485
created at the head M 484
cracks in the log M 484
crises of the era M 483
crisis in the poet M 482
crowds in the big M 478
created by it has M 478
crisis of the east M 476
created by the eye M 475
crises of the new M 474
credit to us that M 474
creation of the end M 474
created to the end M 474
credit of the head M 473
created in the gap M 472
created by the bad M 472
credit on the new M 468
creation in the year M 468
credit of the east M 466
creation of the use M 466
cracks in the heat M 466
created by no one M 465
created at the mid M 462
created to be one M 459
cracks on the top M 459
credit of the poet M 458
creation of the far M 457
created in the real M 457
crucial to the team M 456
created by the weak M 456
crimes in the east M 454
credit in the old M 451
cracks in it and M 451
crossing of the bow M 450
created by the aid M 442
created in the end M 441
crimes he or she M 440
created by it can M 438
created at the new M 437
creation is the aim M 434
crimes of the men M 432
credit it is not M 430
credit by the use M 430
cracks in the sky M 430
cracks on the head M 428
credit it to his M 426
crises in the far M 423
crowds on the day M 422
credit to the law M 422
created of the earth M 422
critic if he had M 418
creator of the myth M 418
creation of the things M 416
crimes of the east M 414
created in the sun M 412
credit or in any M 410
created on the job M 410
created in the web M 410
created in the one M 406
critic at the end M 404
crisis of the death M 402
creation of the set M 401
critic of the year M 400
creation is in its M 398
created by the myth M 398
creator in the act M 396
credit to me for M 395
credit in the sum M 394
creation by an act M 394
crisis as he had M 392
creates it in his M 392
creation of the team M 391
credit at the bar M 388
creation is the one M 388
crisis by the mid M 387
crossing of the gap M 386
crisis of the era M 385
credit of the then M 382
creation in the east M 381
critic of the poem M 378
crisis in the idea M 378
credit me so long M 378
credit in my own M 378
cracks in the sun M 378
crises of the two M 377
crises in the two M 377
crisis we do not M 376
critic of the mid M 375
crucial of the two M 374
created by the arc M 374
crimes on the one M 373
cracks in the web M 370
created in the rear M 368
crimes in the year M 367
credit if it does M 366
creator of it and M 366
credit of the real M 364
creation in the area M 364
creation as the act M 364
crawling up to him M 364
created in the low M 363
credit is so low M 362
credit he or she M 361
crisis at the bar M 360
crimes of the new M 360
creation in the long M 358
creation as it has M 356
crisis to the end M 355
crimes of the few M 354
created thing is not M 354
created in the path M 353
created in the age M 351
crossing it in all M 350
credit to the poet M 349
creation of the head M 348
crowds at the end M 346
created in the head M 346
created by the ill M 346
crisis in the end M 344
crisis in the bud M 344
credit of it with M 342
crawling up to his M 342
crises of the year M 341
cracking of the long M 341
crises in the east M 340
creation is the key M 340
crimes in the two M 339
crucial to the job M 338
crisis as it did M 338
credit to the end M 338
created as the new M 338
crossing to the bar M 336
credit as if they M 336
created by the ten M 336
creates on the one M 335
crucial to the act M 334
credit to the air M 334
creation by the god M 334
creation is the god M 333
credit to it and M 332
creator of the things M 332
created to the east M 332
created by the wings M 332
crises in the long M 330
created in the law M 330
created by the ban M 330
created at or near M 330
creation of the boy M 328
creation as we see M 328
created as an aid M 328
created to be read M 327
critic of the act M 326
credit by the new M 326
credit as he had M 325
credit to the age M 324
critic is the man M 322
crimes he is far M 322
credit on the men M 322
cracks in an old M 322
creation of the year M 321
created by the too M 320
credit it at all M 319
created by the may M 319
crisis as the one M 318
credit as the one M 318
cracking of the old M 317
credit in the one M 313
crucial in so far M 312
crisis is the way M 312
credit is the key M 312
creation of the key M 312
created by the things M 312
cracks in the two M 312
created if we are M 311
created by us for M 310
created by the bias M 310
created by an air M 310
crossing of the path M 306
crossing of the long M 306
credit as it may M 306
crimes of the one M 304
created in the son M 304
crucial to the end M 302
crisis if it had M 302
crimes in the new M 302
crawling to me for M 302
crossing of the bug M 301
creation as it does M 300
created by the aging M 300
created by the near M 299
credit if he has M 298
creation is to bring M 298
created on the way M 298
creation of the pro M 297
crowds as if they M 296
crisis in the not M 296
credit on the day M 296
created by the run M 296
cracks in the air M 295
credit if it had M 294
created by the mid M 293
credit to the few M 292
crisis in so far M 288
credit of an act M 288
credit or on any M 286
created to do and M 286
created as an arm M 286
crawling up my arm M 286
credit if he can M 285
created thing or being M 285
credit in so far M 284
creation of the ill M 284
created in or near M 283
created by the song M 282
created by it had M 282
crawling up to them M 282
crowds to the new M 281
credit it to you M 281
created in my head M 281
crucial in the use M 280
credit it or not M 280
created by the day M 280
created in an act M 279
crucial in an age M 278
created as if they M 278
crises in the new M 276
crimes by my death M 276
credit is to pay M 276
creation to an end M 276
created on my own M 276
cracks in the area M 276
created at the rear M 275
created at the age M 275
crossing in the area M 274
creation of the death M 274
created as he was M 274
cracking at the end M 273
credit if it was M 272
credit as the man M 272
creates in us this M 272
created to be our M 272
created by the out M 272
created to do that M 270
created or at any M 270
created by the boy M 270
created by or with M 270
cracks in the box M 270
created it so that M 269
created in the use M 268
created in the poet M 268
crucial in an era M 266
crucial as it may M 266
critic is to set M 266
crimes in the eye M 266
created by the path M 266
credit on the man M 264
created by the mix M 264
creator of the song M 262
cravings of the age M 262
creation by the one M 261
created if he had M 258
created by it may M 258
created on the two M 257
created on the east M 256
credit if he does M 255
created by the lead M 255
crises of the pre M 254
credit to the sum M 254
crawling to the end M 254
critic of the poet M 252
crisis in the use M 252
credit the king with M 252
cracking of the top M 252
created in so far M 251
cracks in the end M 251
crisis of the pre M 250
credit as is due M 250
creator is the god M 250
creates in so far M 250
crowds of the year M 249
crowds of the big M 249
crowds in the new M 249
created it or not M 248
created by the pro M 248
crimes of the kings M 246
credit to the way M 246
credit if he did M 246
credit as it has M 246
creation as we are M 246
created at the death M 246
creation in the real M 245
creation as an end M 245
crucial to us that M 244
crimes he is not M 244
creation of the era M 244
creation in the act M 244
crawling up on his M 244
created in an old M 243
crisis on the death M 242
crimes in the way M 242
credit to the long M 242
creates in us both M 242
crises of the old M 240
crimes it is not M 240
credit or to his M 240
created on the death M 240
cravings of the ego M 240
cracking at the top M 240
created to do his M 239
crisis in the poem M 238
crisis if he had M 238
credit to it for M 238
creation or in its M 238
cracks of the day M 238
crucial to the law M 237
crowds of the day M 236
cracks in the head M 236
creation of the dead M 235
crimes of an old M 234
credit to be doing M 234
credit is at this M 234
creation of no new M 234
created by the dying M 234
created as an end M 234
crimes in the old M 233
creation we do not M 232
creation of the then M 232
cracks at or near M 232
crucial to the two M 231
created is the one M 231
critic on the one M 230
crimes as he was M 230
crossing of the sun M 229
crossing in the way M 228
crossing in the lot M 228
critic of the man M 228
critic in the mid M 228
crossing as it does M 226
crisis of the poet M 226
credit is the one M 226
created so as not M 226
cracking of the dry M 225
crucial to the poet M 224
crowds of the dead M 224
credit is so bad M 224
creation of no one M 224
created by the far M 224
crawling in on his M 224
crossing of the day M 223
credit to the bar M 222
creator at the end M 222
creation is of god M 221
crucial to the day M 220
crisis of the one M 220
creation by the new M 220
creates in the long M 220
created to be with M 220
created by the net M 220
created by the map M 220
crimes of the earth M 219
credit to the use M 219
crowds in the old M 218
crisis on the real M 218
credit he is due M 218
creation at the top M 218
creates in the head M 218
creates at the end M 218
created on the set M 218
created by us but M 218
created by the tag M 218
cravings of my own M 218
cracks of an old M 218
cracking in the dry M 218
credit do so for M 216
creation is the way M 216
creation in no way M 216
creation as it now M 216
crawling up the leg M 216
created in it and M 215
critic is to try M 214
created by the area M 214
created as we see M 214
created it in its M 213
crucial thing is for M 212
crisis as we are M 212
credit if it has M 212
credit as he was M 212
creator of the long M 212
creation of the way M 212
creation is in god M 212
creates in the poem M 212
created us in this M 212
created in the heap M 212
created if it had M 212
created by the dry M 212
created as the sum M 212
created as he now M 212
cracks in the path M 212
creation in the one M 211
crucial to do this M 210
crucial as it had M 210
crimes of the bad M 210
creation of it and M 210
created by the sin M 210
created by the bow M 210
created by it that M 210
crossing of the air M 209
credit to the war M 209
crucial as it has M 208
crossing on the bow M 208
crisis on the way M 208
crisis as he was M 208
credit in the near M 208
credit by it than M 208
created us in god M 208
created by an age M 208
crimes in the war M 207
creation of the dog M 207
creator of the day M 206
creation is the law M 206
created by an aging M 206
creation of the low M 205
creation of an earth M 205
crisis at an end M 204
crises in the old M 204
creator of the now M 204
creation of the eye M 204
created in me this M 204
crossing to the end M 203
credit on the old M 202
credit on the head M 202
credit in the eye M 202
creator of the man M 202
creation of an ego M 202
creation as he had M 202
created we do not M 202
created by the era M 202
credit of the non M 201
created at the two M 201
crucial to the area M 200
creation to be one M 200
creation in the near M 200
creation as if they M 200
creates in the way M 200
created if it did M 200
created by me for M 200
crucial thing to see M 198
credit if by its M 198
creates as it goes M 198
created in us and M 198
created as to his M 197
crimes of the dead M 196
credit of the year M 195
crisis of the earth M 194
credit on the two M 194
creator as the one M 194
creation of it was M 194
creation of an off M 194
creation of an easy M 194
created me in this M 194
created it in six M 194
credit in the mid M 193
crawling in on all M 193
crisis in the boy M 192
created us by his M 192
critic is in his M 190
crisis is as real M 190
credit in no way M 190
creator or of his M 190
created the king for M 190
crossing it at its M 188
crisis in the big M 188
crisis by the death M 188
creation of the path M 188
cracks in it that M 188
cracking up the old M 188
critic in the now M 187
creation in the two M 187
crossing of the real M 186
credit in an age M 186
created in no long M 186
cracks in the red M 186
crossing on the old M 185
crucial thing is how M 184
crossing it to get M 184
creation of an own M 184
creation in the non M 184
creation by the poet M 184
created it at all M 184
crisis in no way M 182
credit me or not M 182
created to be thus M 182
created in the man M 182
crawling on the top M 182
crisis to be one M 181
cracks in the long M 181
credit as it had M 180
created as the air M 180
critic of the east M 179
cracks of the two M 179
crossing on the red M 178
credit to the son M 178
credit to the east M 178
credit of the long M 178
credit it to him M 178
credit is by far M 178
credit at the age M 178
creator on the day M 178
created on the old M 178
crawling up to her M 178
crowds go to hear M 176
critic is to let M 176
critic in the pit M 176
critic in an age M 176
creation up to man M 176
creation is in this M 176
creation by the use M 176
created at the old M 176
crawling up the long M 176
crisis as the war M 174
credit of the sum M 174
creates in the air M 174
craved of my age M 174
crucial to the real M 172
crossing it is not M 172
critic it is not M 172
crisis he or she M 172
crisis by the use M 172
credit to the wit M 172
credit as he can M 172
creation is to see M 172
created if we had M 172
created by the mad M 172
craved to be with M 172
crossing at the old M 171
created in me that M 171
crossing to the head M 170
critic is so apt M 170
crisis is the real M 170
crisis in an area M 170
crisis as he saw M 170
creation in the end M 170
crossing on the east M 169
crawling up on all M 169
crossing it at all M 168
creates in the east M 168
crowds at the box M 167
critic of the men M 166
critic he is not M 166
crisis on the day M 166
crisis in the low M 166
crimes in an area M 166
credit of the see M 166
credit if it can M 166
creation of the dry M 166
creation is the new M 166
created by no man M 166
crossing it in one M 164
crisis up to that M 164
crimes of the era M 164
creation of the being M 164
creation by the end M 164
creation as we now M 164
created to be her M 164
created by the singing M 164
created by the oath M 164
credit of an old M 162
credit as in any M 162
creation is to god M 162
created as the two M 162
crucial at the end M 160
crucial as the one M 160
crisis on the job M 160
created to be its M 160
created by it but M 160
created it in her M 159
crowds in the east M 158
crossing of an old M 158
creation of the bad M 158
creation as it had M 158
created by an ill M 158
cracks in the rear M 158
critic of the then M 157
crucial to us all M 156
crucial if he was M 156
crowds to the old M 156
critic on my own M 156
critic of the pro M 156
credit or if you M 156
credit of it and M 156
creator to the things M 156
created to be not M 156
created on the path M 156
crowds in the area M 154
crises of the end M 154
crimes we do not M 154
credit to the things M 154
credit on the air M 154
credit is to use M 154
creation is the idea M 154
creates us in his M 154
created by the add M 154
credit in me non M 153
credit at the top M 153
created in the ten M 153
crucial to the old M 152
crisis as he did M 152
credit to be set M 152
creation to the son M 152
creates in the poet M 152
creates in the end M 152
cracks of the log M 152
creator of the one M 151
crucial thing in this M 150
crowds to the bar M 150
critic in the act M 150
crisis if we are M 150
crisis by the act M 150
crises in my own M 150
crimes of my own M 150
crimes in so far M 150
created is to say M 150
created in me and M 150
crossing to the old M 149
created if it was M 149
crucial is it that M 148
crowds at the new M 148
crises in the way M 148
credit on the age M 148
creator of the age M 148
creation is as yet M 148
created to do for M 148
created if it has M 148
created by the easy M 148
crawling up the sky M 148
creation in the big M 147
crowds to the area M 146
crisis it is easy M 146
crises on the way M 146
crises it is not M 146
credit on no one M 146
credit is in this M 146
credit as an aid M 146
creation of the gap M 146
created as the old M 146
cracks in the wings M 146
credit to us both M 145
crisis if it does M 144
crises in the war M 144
creation of my new M 144
created thing in this M 144
created in the then M 144
created by the sky M 144
credit to the bow M 143
credit is the way M 143
created by the off M 143
crucial in an area M 142
crossing of the sky M 142
crossing of the our M 142
crisis or in any M 142
crises of the poem M 142
crimes at the age M 142
credit of the big M 142
credit by the way M 142
creator of an era M 142
creation or the new M 142
creation by an all M 142
creation as he was M 142
created in the run M 142
crisis of an age M 141
credit to the red M 141
crucial to the deal M 140
crossing it at this M 140
crossing it at one M 140
crisis on the new M 140
crimes up to and M 140
credit of the few M 140
created by the dog M 140
crawling up on her M 140
cracks of the dry M 140
creation of the top M 139
creation in the six M 139
crucial to the myth M 138
crowds at the big M 138
crisis of the big M 138
crisis is to get M 138
credit on the song M 138
credit it is due M 138
creation in the eye M 138
creation in the earth M 138
creates or is for M 138
created to be both M 138
crisis or in war M 137
crimes in the law M 137
creation as the one M 137
critic is at his M 136
crisis is in our M 136
creation of the who M 136
creation of it out M 136
creation if we are M 136
creates in the act M 136
crawling up to you M 136
crawling in the sun M 136
crimes in or near M 135
credit up to that M 135
created via the new M 135
crisis is in its M 134
crisis in my being M 134
crisis by the year M 134
credit as he may M 134
cracks at the head M 134
credit at the head M 133
crucial if the new M 132
crowds to the box M 132
crowds as he was M 132
critic of the death M 132
critic is to ask M 132
crimes in no way M 132
credit to the job M 132
creation or in any M 132
creation is in his M 132
created in us all M 132
created thing in its M 131
created by the beat M 131
crucial in my own M 130
crossing it on his M 130
crisis to do with M 130
crisis on the war M 130
credit to my new M 130
credit as it did M 130
credit as he did M 130
created so by god M 130
created me is doing M 130
cracking of the head M 130
cracking it in two M 130
created to be that M 129
crucial in the end M 128
crowds of the old M 128
crowds as he had M 128
crossing in the sky M 128
critic to the poet M 128
critic to the new M 128
credit to the big M 128
creation or at any M 128
creation is to use M 128
creation is to say M 128
creation in the far M 128
created us as his M 128
created by the arm M 128
created by me with M 128
cracks in it are M 128
cracking of the die M 127
crucial to me and M 126
crossing as it did M 126
critic as the real M 126
crisis is to bring M 126
credit to us for M 126
credit to be won M 126
credit of the bar M 126
creation to the law M 126
creation is the real M 126
creation by the son M 126
created via the use M 126
created or it was M 126
cracks of the new M 126
credit to the god M 125
created in the boy M 125
crucial is to see M 124
crisis to the war M 124
crisis of the area M 124
crisis of an old M 124
crisis in the non M 124
crimes of the year M 124
credit by the aid M 124
creator of the map M 124
creation up to this M 124
creation as he does M 124
created in the lead M 124
created by the due M 124
created by it with M 124
creates in us that M 123
created in the box M 123
crucial is it for M 122
crowds at the bar M 122
crisis as the end M 122
crises of the real M 122
crimes on the plea M 122
credit to an out M 122
credit of the boy M 122
creation of an aid M 122
created to do all M 122
created on the six M 122
created me the way M 122
crisis of the man M 121
crucial of the war M 120
crossing of the year M 120
crossing it we had M 120
crisis as the new M 120
credit or to pay M 120
credit in the real M 120
creator in the old M 120
creation of the bear M 120
creation as he has M 120
creates in us its M 120
created by the saw M 120
created by the deal M 120
created by the bar M 120
created by an idea M 120
crawling on me and M 120
crisis is the end M 119
creation of an out M 119
created by the rear M 119
crossing on the far M 118
critic in so far M 118
crimes in the heat M 118
credit on my own M 118
credit of the god M 118
credit as it does M 118
creation to do with M 118
created us the way M 118
created by the odd M 118
crawling on my leg M 118
crucial in the age M 117
crisis is the key M 117
crossing as he did M 116
critic is to bring M 116
crimes in the mid M 116
credit of us all M 116
creation he is not M 116
creation by the two M 115
crowds of us had M 114
crossing it at any M 114
critic or the poet M 114
critic is to act M 114
credit up to one M 114
credit of the things M 114
credit is the use M 114
credit is at its M 114
credit in the aid M 114
credit if we are M 114
creation to be his M 114
creation of an ill M 114
creation is an idea M 114
creation by the law M 114
creates it by its M 114
created by my new M 114
cracks in the die M 114
crucial thing of all M 113
credit in the day M 113
credit if he was M 113
created in the few M 113
created by the wet M 113
crucial to us and M 112
crowds in the two M 112
crossing of the dry M 112
crisis it is now M 112
crisis is to use M 112
crisis is by far M 112
crisis in the man M 112
crisis by the war M 112
credit to the dead M 112
credit to it than M 112
credit so as not M 112
credit or the use M 112
credit in it for M 112
creation or the end M 112
creates it by his M 112
created or is being M 112
created in the job M 112
created in the dog M 112
created by the sad M 112
crossing at the east M 111
critic of the pre M 111
crisis in the then M 111
crises in the real M 111
credit up to two M 111
credit of the son M 111
creation of the lay M 111
crucial to us now M 110
crucial to the men M 110
crucial as it can M 110
crossing of the low M 110
crisis of the ego M 110
crisis by an act M 110
crimes on the god M 110
credit at the going M 110
creation is to him M 110
created to be put M 110
credit to be one M 109
creation to be god M 109
created it in this M 109
cracks in the low M 109
crucial is the idea M 108
crossing of the earth M 108
crossing of it was M 108
crossing in the one M 108
critic on the old M 108
crisis it is going M 108
crises as the death M 108
creation up to that M 108
creation of the weak M 108
creation of the net M 108
creation of the dot M 108
creation is at its M 108
creation if he had M 108
creates in the man M 108
created us at all M 108
created thing at all M 108
created by the and M 108
created as the seat M 108
crucial to the non M 107
creator of the sad M 107
creator in the one M 107
crucial to the ease M 106
crossing by the way M 106
critic on the sun M 106
crisis up to this M 106
crisis is to try M 106
credit to my top M 106
credit as to its M 106
credit as he has M 106
creator to the end M 106
creator of the non M 106
creation on the web M 106
creates in us and M 106
created by no law M 106
created as the real M 106
cracks of the ill M 106
cracks as of dry M 106
crossing to the day M 105
critic to be one M 105
crisis of the non M 105
crisis it is that M 105
credit of the dead M 105
created by the fly M 105
crucial to the song M 104
crisis is to see M 104
crisis in the job M 104
crisis he is one M 104
crises as if they M 104
crimes on the earth M 104
credit to the oath M 104
creation to the old M 104
creation to the age M 104
creation is of one M 104
created of the new M 104
created at the far M 104
crucial in the near M 103
critic to be that M 103
crises as the one M 103
credit up to ten M 103
credit to the day M 103
crucial it is not M 102
crucial in the two M 102
crowds in on you M 102
crossing it he had M 102
critic of an age M 102
critic is as bad M 102
crisis in the pre M 102
crises as it was M 102
credit to the lying M 102
credit to do that M 102
creator is in all M 102
creation to the idea M 102
creation of the few M 102
creation is an end M 102
created us as men M 102
created or the old M 102
created by us with M 102
cracking up at his M 102
cracking as he did M 102
created so it can M 101
created by the mean M 101
crucial thing to bear M 100
crowds of the two M 100
crowds of the new M 100
critic is to get M 100
critic as the man M 100
crisis in the top M 100
crisis at the death M 100
crimes is the one M 100
crimes as he had M 100
credit to the boy M 100
credit to me than M 100
credit of the red M 100
creation on the day M 100
creation in the poem M 100
creation as the poet M 100
created in the death M 100
crawling up the old M 100
cracks in the east M 100
crossing on the top M 99
crimes is so all M 99
credit of no one M 99
creation is the end M 99
created as the earth M 99
crucial to the path M 98
crucial in the real M 98
crowds in the rear M 98
crossing of it both M 98
crossing it at two M 98
critic is to say M 98
crisis to be let M 98
crisis is to cut M 98
crisis is so bad M 98
credit or to its M 98
credit is as bad M 98
creator is in both M 98
creator in the year M 98
created on the map M 98
created by the dim M 98
crawling up to its M 98
crawling in the air M 98
crucial to the low M 97
created by the not M 97
created by the box M 97
crucial in the pre M 96
crucial as to how M 96
crossing it in his M 96
critic in the age M 96
critic at the age M 96
crisis the king had M 96
crisis is to say M 96
credit of the net M 96
credit of it has M 96
credit as the way M 96
credit as the head M 96
creator of the all M 96
creation is at all M 96
creates it is not M 96
creates by an act M 96
created so we can M 96
created it in that M 96
created in the pit M 96
created by us are M 96
created by the log M 96
created by the doing M 96
created as it now M 96
created as it had M 96
crawling on my arm M 96
crawling in my head M 96
cracks in the law M 96
crucial to the man M 95
crucial to my being M 94
critic is so bad M 94
crisis as it does M 94
crimes or by his M 94
crimes in the long M 94
credit is of two M 94
credit is an act M 94
credit in the use M 94
creator in the sky M 94
creation to be not M 94
creation of the don M 94
creates in us for M 94
created us to his M 94
created in the map M 94
created as it has M 94
crisis in an age M 93
credit in the non M 93
creation of an arc M 93
created in the can M 93
created if the two M 93
created by the for M 93
cracks of the box M 93
crucial in the mid M 92
crowds to do him M 92
crowds as it was M 92
critic to do but M 92
critic of the big M 92
crisis is the death M 92
crimes is the use M 92
credit of so doing M 92
credit is to get M 92
credit is the new M 92
creator is he who M 92
creator in the day M 92
creation is by its M 92
creation is as old M 92
creation in the air M 92
creation as it can M 92
creation as he did M 92
created to the new M 92
created to eat and M 92
created to do things M 92
created on the low M 92
created in us new M 92
created by the bit M 92
created at the war M 92
crawling in the head M 92
cracks is to use M 92
cracking up at her M 92
created it in our M 91
crucial in the job M 90
crowds on the one M 90
crowds of the men M 90
crossing on the day M 90
crossing in the path M 90
critic of the end M 90
critic is in this M 90
crisis or if they M 90
crisis or at any M 90
crisis as is now M 90
crises on the job M 90
credit of the team M 90
creator to be his M 90
creation of an awe M 90
creation is in one M 90
creates in the boy M 90
created us in our M 90
created as to how M 90
cracks me up that M 90
cracking as he ran M 90
crisis in the meat M 89
creation of the box M 89
crucial in the poem M 88
critic to do this M 88
crisis is to end M 88
crisis is to act M 88
crimes in the real M 88
credit it as being M 88
creation to the poet M 88
creation of the log M 88
creation of the kings M 88
creation is of this M 88
created to do him M 88
created to be set M 88
created on the far M 88
created of by and M 88
created by an out M 88
created as to its M 88
crucial in the day M 87
credit as the real M 87
creation of the arc M 87
created or it can M 87
cracking of the dead M 87
crossing of the area M 86
crossing it at that M 86
crisis or the war M 86
crimes to do with M 86
crimes as it was M 86
credit to no man M 86
creation of it all M 86
created in the mean M 86
created by it all M 86
crawling up the seat M 86
cracks on the earth M 86
credit to my son M 85
credit as if you M 85
created in the men M 85
cracking is the use M 85
crucial is the use M 84
critic if he does M 84
crisis or the death M 84
crisis as if they M 84
crimes in the end M 84
crimes at the bar M 84
crimes as he has M 84
credit we do not M 84
credit to it now M 84
creation or of god M 84
creation of us and M 84
creation of the bar M 84
creation at the head M 84
creation as it may M 84
creates on the fly M 84
creates in the new M 84
created to be for M 84
created in the team M 84
created if the new M 84
created by an area M 84
created by an arc M 84
created as the head M 84
crawling to me with M 84
cracks in the bar M 84
created to the rear M 83
crucial to it and M 82
crucial if it was M 82
crowds as he did M 82
crossing of it may M 82
critic to do with M 82
critic in the year M 82
crisis is to put M 82
crisis is as yet M 82
crises on the real M 82
crimes as the law M 82
credit to the low M 82
credit on the way M 82
credit me in any M 82
credit is the man M 82
credit at the new M 82
creation or of any M 82
creation on the way M 82
creation as we can M 82
creates in the men M 82
created us in its M 82
created of the two M 82
created in us that M 82
created at the low M 82
cravings of the new M 82
cracks in the seat M 82
crimes in the one M 81
created to do god M 81
crucial thing we can M 80
crowds to go and M 80
crossing it in two M 80
credit or it may M 80
credit on the year M 80
creator to us and M 80
creator of the big M 80
creation is the sum M 80
created by or are M 80
created by an off M 80
crawling up on him M 80
cracks of the big M 80
cracks in the lead M 72
cracking on the top M 67
cracking in the area M 67
crowds in on him M 65
creation as the key M 64
crossing at the red M 63
crisis as the key M 63
cracking in the web M 62
crossing in the mid M 61
credit it to her M 61
crossing as it was M 58
credit to the then M 58
cracking of the heat M 57
cracking in the top M 57
crossing of the mean M 56
crimes on or near M 56
created me as one M 56
crossing of the one M 55
critic of the now M 55
crucial to the east M 54
crossing in the dead M 53
crimes of the red M 53
credit it is that M 53
created by an end M 53
crossing of the eye M 52
crossing of the end M 52
crisis on the east M 52
created on or near M 52
crossing by the old M 51
created in the red M 51
crossing it so that M 50
critic as the one M 50
crisis of the then M 50
credit as the key M 50
creation is in him M 50
crossing on the one M 49
crossing of the now M 49
crisis in the red M 49
creator of the east M 49
cracks in the mid M 49
credit or do not M 48
created in the key M 48
crossing of the arm M 46
cracking by the heat M 46
creator to be that M 45
crossing in the two M 44
crisis of an aging M 44
crises in the year M 44
crises in the pre M 44
credit so he can M 44
credit it to that M 44
creation to the man M 44
creation of the tcp M 44
created at the air M 44
created as the top M 44
crisis in the one M 43
crisis in the day M 43
credit in the pre M 43
creation of the not M 43
creation of the heat M 43
creates is the one M 43
created us is all M 43
created on the end M 43
created as the sun M 43
crowds of the east M 42
crossing of the war M 41
crossing in the rear M 41
credit up to this M 41
credit on the law M 41
credit he is not M 41
creation to the top M 41
created is the earth M 41
created in the set M 41
created in the not M 41
created by the die M 41
crossing of an arm M 40
crossing at the far M 40
credit to the far M 40
creation to the six M 40
creation of an eye M 40
created to the one M 40
created as the end M 40
cracks it is not M 40
cracks in the ice D 7639
creeping up on him D 6146
cradle of the new D 5245
creeps on the earth D 4339
creeping up on her D 3994
created by the dam D 3957
crests of the ilia D 3784
creeps up on you D 3726
crashing to the earth D 3153
creation of an art D 3052
crater at the top D 3017
creeping up on you D 2936
crowding in on him D 2892
cracking of the ice D 2889
creeping up on them D 2872
crowns of the two D 2830
created by the oil D 2744
cruising in the bay D 2707
cruise in the bay D 2658
created by the tax D 2586
crests of the two D 2258
crisis of the tax D 2173
cradling it in his D 2058
creation of the art D 2022
created on the eve D 1979
crossing the sea and D 1826
crowding in on her D 1803
crowns of the sun D 1775
cradling it in her D 1759
creation of the ems D 1726
cropping up in his D 1704
crossing on the ice D 1557
crater of an old D 1502
creeping up to her D 1316
crawls on the earth D 1304
crafty as he was D 1296
created by the art D 1280
crater of the arc D 1261
crushing it in his D 1242
created by an oil D 1241
creeping up to his D 1240
crowning of the may D 1218
critic of the art D 1206
crossing to the bed D 1180
crawling in the mud D 1145
crowning of the new D 1143
crumbs in the bed D 1130
crossing of the bay D 1111
cradle of the east D 1106
crowns on the head D 1098
created in the lab D 1094
created by the fiat D 1070
cropping up in all D 1054
crisis on the eve D 1005
crashing in on him D 988
creeping on the earth D 987
crashing in on her D 974
cracking of the oil D 963
created by the fan D 960
creeks in the area D 954
crisis in the oil D 934
creeds of the day D 930
crushing of the ore D 922
cropping up in our D 900
cropping up in this D 882
creeping up to him D 880
crossing of the ice D 868
crowning of the head D 843
crossing the sea with D 842
cradle of the art D 841
cruise to the east D 836
creation of the pan D 836
cranny of the old D 836
crater on the top D 814
crowding in to see D 799
crushing it to death D 786
cradle of the old D 786
creation of an oil D 782
created in the gas D 782
crimes of the gang D 780
cracks in the mud D 777
crests of the seas D 776
creaked as he sat D 768
cracks in the dam D 767
crater of the peak D 753
crowding in on them D 746
created by the gas D 744
creation of the tax D 743
cruising in the area D 738
creation of the fed D 734
creator of the art D 724
crowns of the kings D 716
crater in the earth D 694
created by the car D 684
creeks on the east D 681
crashing to an end D 680
crushing of the head D 676
cradle of the sun D 646
creeping up the sky D 642
credit of the tax D 629
creation of the emu D 614
creeps up on them D 611
cropping of the ears D 602
crater in the top D 596
cramps in the leg D 593
crayon in the box D 592
crater at the end D 586
crumbs on the top D 580
created by the fed D 562
cruise to the far D 557
creeps up on him D 557
creation of the sub D 556
crushing of the weak D 552
cruise in the east D 552
cradle of the law D 552
creeds of the east D 551
created by the hot D 551
crucial to the art D 550
creeping up on his D 542
created by the sub D 538
credit in the tax D 532
credit to the art D 530
creaked as it was D 524
crests of the long D 522
cranny of the earth D 520
cropping up in her D 516
credit of the sex D 514
created by the beam D 512
crisis to be met D 510
creation of the oil D 497
created by the ice D 493
crushing me to death D 492
creeping in on them D 484
crowns at the end D 479
crusts of the earth D 475
creation of the sex D 473
creeping in the mud D 468
crushing it in her D 460
crater on the far D 460
crater of an arc D 448
creeping up to them D 444
crashing in on them D 444
cruise at the end D 440
cruise in the red D 436
created in the art D 435
crashing of the ice D 435
created by the jet D 432
created at the tip D 432
crests of the low D 424
cradle at the end D 421
crushing as it was D 420
crossing of the seas D 420
crowding in on his D 416
crotch of an old D 416
crests on the head D 416
crafts of the area D 416
cradle it in his D 416
cradling me in his D 414
created the sea and D 412
crawls up to buy D 412
creator of the sir D 410
crater on the earth D 408
crushing to the earth D 406
creeping up on our D 406
crowns of the old D 404
credit to the zeal D 404
created by the pen D 404
crotch at the top D 400
crowns to the man D 398
cruise of the new D 396
crisis in the ems D 392
cradling it in both D 384
crushing of the ice D 383
crutch in the air D 378
crawls to the top D 376
cracks in the wax D 376
creeds of the two D 375
cracks in the thin D 373
cradle it in her D 371
crowding in on you D 370
crafts of the day D 370
cradle of the son D 370
creation of the cap D 368
creeping to the top D 367
created on the mac D 364
crowns of the egg D 362
crashing in on you D 360
cranks of the two D 360
credit on the tax D 356
cropping up in one D 351
created in the oil D 349
creeps up to him D 347
cruise in the far D 342
cruise of the war D 340
creeping up my leg D 340
crotch of an oak D 339
crater by the aid D 336
creation of the dam D 334
crushing it in its D 324
crisis in the art D 324
credit of the earl D 324
crushing on me now D 322
creeping in on him D 322
created by the ions D 322
crossing the sea for D 320
crater of the old D 320
creeks of the area D 318
crowed at the top D 316
crowding in on all D 316
creeps up to his D 316
crater on the east D 316
cradle of the war D 316
cradle in the east D 313
cradling me in her D 312
crowding in to hear D 306
cruise to an end D 304
creeping up the long D 302
cruise on the bay D 299
creator of an art D 296
cradle to the end D 296
crowns by the year D 295
creation to an art D 294
crests on the top D 291
crushing in the bud D 290
credit of my sex D 290
cradle of the earth D 290
crushing of my own D 280
critic in the art D 280
credit to the earl D 278
cracks in the bed D 277
crossing the sea was D 276
cracking of the gel D 276
crushing of the web D 274
crests of the mid D 273
crisis in the hot D 271
crazed by the heat D 271
creeks on the way D 270
crafts in the area D 270
cropping up in new D 268
created by the sex D 268
cracks in the beam D 268
created by the earl D 267
crawling up my ass D 265
cresting at the top D 264
creeps up on its D 263
creeping up on all D 262
created in the hot D 260
cranes in the sky D 257
crowding in on one D 256
cropping in the area D 256
creeps up to her D 255
credit to the pen D 255
cracks in the hut D 254
crumbs on the path D 252
creeps up on her D 252
crawling on the bed D 252
created by the tip D 250
creation of the ice D 249
cramming at the end D 247
crimes at sea act D 245
crowns in the year D 244
crowding in on each D 244
creeks to the east D 243
cradle of the two D 243
crunch of the big D 242
crunch at the end D 242
crashing to the axe D 240
created by the thin D 238
crater of the ant D 238
crossing of the rue D 235
crawling on the mud D 235
crushing of the bar D 234
crisis of the ems D 234
credit at the inn D 234
creation of the bay D 234
creeping up on one D 232
created by the dos D 232
creeps up on one D 231
created in the ram D 230
cranking up the heat D 230
crushing of the old D 228
cruising in the red D 228
crowding up in her D 228
credit of the art D 228
creaked as if they D 228
creaked as he got D 228
cranes in the air D 228
crests of the head D 226
created to be sung D 226
cradle at the top D 224
created in the sub D 221
cracks in the hot D 221
created by the fog D 220
cracking of the beam D 220
cruising in the seas D 219
crushing in on him D 218
crunch of the ice D 217
crowding of the ice D 217
crossing of the inn D 216
creeping up on its D 216
created by the gang D 216
crafts of the old D 216
cruising in the east D 215
crowding of the toes D 215
creation of an earl D 215
crowns of the earth D 214
crisis in the sub D 214
creeping on at one D 214
cracking of the thin D 214
crafts of the east D 213
cruder of the two D 212
creoles on the one D 212
creation of the gay D 212
crawls up to him D 212
cradle to the death D 212
crotch of the two D 211
cruise of the bay D 210
crowns of the six D 210
crowding in to get D 210
crossing of the rub D 210
crises to be met D 210
crunch of the mid D 209
crimes of the pol D 209
creator of the hit D 209
creeds of the new D 208
credit on the zeal D 208
created by an art D 208
crowns to the kings D 206
cropping up on all D 206
creeping in on her D 206
creation in the rig D 206
cruising in an area D 204
creation of the raw D 204
creation of an emu D 204
crushing of the pro D 203
critic of the dial D 203
cracks of the ice D 203
croaking in the ears D 202
creator of the egg D 202
created by the cap D 202
cradling it to her D 202
cracks in the icy D 202
cropping of the hop D 200
cruise in the area D 199
creation of the ecu D 198
cradle of the one D 198
crests of the one D 197
crowds in the rue D 196
cranny of the air D 196
crumbs on the rug D 194
creoles in the new D 194
crazes of the day D 194
crates at the end D 194
cracking of the gas D 194
crowding in the rear D 193
crowning of the poet D 192
creeks at the head D 192
created by the fur D 192
cramping of the toes D 190
cruise of the year D 189
crotch of the old D 188
creeping up to its D 188
credit to the tax D 188
cradle me in her D 188
crashing to the ice D 186
crowns at the top D 185
crowning of the year D 185
created by the tar D 184
created an ad that D 184
creased by the sun D 184
creaked as the man D 184
crazed by the death D 184
creeping up in his D 182
creation of the earl D 182
cropping in the dry D 181
crowding up to him D 180
credit at the ale D 178
created by the con D 177
cropping up of new D 175
created by the cad D 175
crowning of the kings D 174
creeping up to our D 174
cracking of the nut D 174
crushing of the two D 173
cracks in the cap D 173
cruise in the old D 172
crowns on the big D 172
cracks in the gel D 171
crotch to the top D 170
crossing the sea they D 170
creeping to the rear D 170
creation of the car D 170
cruise of the dry D 168
crotch of an elm D 168
crashing in on his D 168
cruise of the red D 167
crazed by the sun D 167
crushing us to death D 166
creeds of the earth D 166
cracks in the car D 166
crushing of the earth D 164
crests of the old D 164
cracks of the hut D 164
cranny of the law D 163
creeds of the old D 162
credit of my art D 162
crawling up the bed D 162
cranking up the old D 162
cradle me in his D 162
crowding of the two D 160
crisis of the oil D 160
crests of the bow D 160
crawls in the fen D 160
critic of the oil D 159
crests at the top D 159
crumbs of the earth D 158
cravat of the man D 158
cranky as an old D 158
crafts at the end D 158
crowding in of new D 156
crashing in the sky D 156
critic of the sung D 154
creaked as the men D 154
crazed as to put D 154
crater to the east D 154
crafty as it was D 154
crafts on the one D 154
cracking of the wax D 154
cruising in the air D 153
crossing of the icy D 152
creation of the seas D 152
crashing at the end D 152
crafty as the fox D 152
crusting of the lid D 151
cresting on the top D 151
crushing me to him D 150
crunch of the car D 150
crowns of the oak D 150
crowns as if they D 150
crazed by the fear D 150
crater in the area D 150
cracks at the tip D 150
crushing of the new D 148
crumbs in my bed D 148
crowns on the top D 148
crowns of the big D 148
created by the gay D 148
crashing to the mat D 148
cradling it to his D 148
cradle of the idea D 148
creeps to the top D 147
created as an art D 147
crawls to the end D 147
cropping up in both D 146
crises in the ems D 146
creation of the fee D 146
creation of the egg D 146
created in the lee D 146
created by the mob D 146
created by ho chi D 146
cranks on the rear D 146
cradle to the old D 146
cradle of my arm D 146
crowding in to say D 144
creeds as if they D 144
created in the beam D 144
crazed in the head D 144
created by the tie D 143
created by the raj D 143
crotch of the man D 142
creeping up my arm D 142
created at the peak D 142
cramps of the leg D 142
cradle of my son D 142
cruise to the bay D 141
created by the ebb D 141
crowding of the air D 140
crowding in on both D 140
created by the lag D 140
created by the gun D 140
crazed as he was D 140
cranking up the car D 140
cracks in the egg D 140
cracking of an egg D 140
created in the bed D 139
created by an ole D 139
cracks in the ingot D 139
crowns in the sun D 138
crowns in the cup D 138
crowding of the old D 138
crouch in the long D 138
cradling it in one D 138
cradle by the bed D 138
crowns of the new D 136
crowding of the men D 136
crowding in to pay D 136
crouch to the earth D 136
crests to the sky D 136
creeping up in her D 136
creation of the pot D 136
created by the swing D 136
cramps of the year D 136
crushing of the top D 135
crabbing in the bay D 135
crowns to be won D 134
crests of the hip D 134
creeping of the oil D 134
creases at the top D 134
creaked in the heat D 134
cracks in the rim D 134
crawls in the mud D 132
cracking of the tar D 132
crushing it so that D 131
crawling on the ice D 131
crouch in the lee D 130
crotch at the end D 130
critic or an art D 130
creator in the art D 130
created in the cad D 130
crashing in my head D 130
cruising in the car D 129
creation of the gas D 129
crossing the sea ice D 128
crimes of the mob D 128
crests of the big D 128
creeks in the war D 128
created by the rod D 128
cranking up the air D 128
cramping of the leg D 128
creeps up on his D 127
cracking of the egg D 127
crushing by the sow D 126
crumbs in the pan D 126
cruise on the old D 126
cropping up in any D 126
critic of an art D 126
created by the tug D 126
created by the row D 126
craven as he was D 126
cradle to the age D 126
creeps in at this D 125
creeds in the east D 125
creation is an art D 125
crusts on the head D 124
crushing of the gang D 124
crowds at the bus D 124
creeps up by this D 124
creation of an ice D 124
created in the bay D 124
created by the tear D 124
created an ad for D 124
crafting of the new D 124
cracks in the ore D 124
cruise on the east D 123
created in the tax D 123
cranny of my being D 123
crummy thing to say D 122
crumbs in the air D 122
crowns in the earth D 122
crowding at the end D 122
crisis of the raj D 122
creoles of the new D 122
creeping up the bed D 122
credit of the van D 122
creation of the fox D 122
creation in the art D 122
cradle of the poet D 122
crotch of the oak D 121
crushing me in his D 120
crowning the king and D 120
crooks on the run D 120
crafty in the sun D 120
crushing of an old D 118
crowning of the boy D 118
crowding in on our D 118
cropping up at odd D 118
creeping up the path D 118
creeping thing on earth D 118
crashing in my ears D 118
crafty in the way D 118
creeps up to its D 117
credit of the oil D 117
created on the lee D 117
cranny of the car D 117
cranks up the heat D 117
cruising on the east D 116
cruise in the war D 116
criers as it may D 116
creeks of the east D 116
creeds on the one D 116
credit of the gun D 116
creases of the toes D 116
crashing on the way D 116
cramps in the toes D 116
crafts in the new D 116
cradle in my own D 116
crotch in the top D 115
crawls up to her D 115
crutch to the weak D 114
crushing at the top D 114
crunch of the man D 114
crowning as it did D 114
cropping of the head D 114
crocus in the air D 114
crisis of the fin D 114
creeping of an ant D 114
credit to the hon D 114
creases in an old D 114
crater of the sun D 114
crafty as an old D 114
cruise on the seas D 113
creeps up to them D 113
created by the raw D 113
cruising in the sky D 112
crowding up to see D 112
crowding up as far D 112
crowding in the area D 112
crouch at the top D 112
creeping up to get D 112
creation of an ant D 112
created by the wax D 112
creased as if she D 112
craned up at her D 112
cramps in my leg D 112
cruise at sea and D 111
creation of the rue D 111
cruise to the new D 110
crowding up to her D 110
credit to the sex D 110
crates in the car D 110
cradle of the boy D 110
cradle in the sky D 110
crowns of the sum D 108
cropping up in odd D 108
creeps up the sky D 108
crashing on my head D 108
crafts in the old D 108
cracking of the thong D 108
crowds on the ice D 107
crowding of the new D 107
crossing the sea that D 107
croaking of my own D 107
creeping up to one D 107
crypts of the old D 106
cruising to an easy D 106
cruise in the new D 106
crossing to the car D 106
created in the rod D 106
cranes to do with D 106
cranes in the area D 106
crisis on the oil D 105
created in the ice D 105
crashing in on top D 105
crushing in the head D 104
crumbs of the pie D 104
cruise at an end D 104
crowns on the two D 104
crowning as it does D 104
creeks in the rear D 104
crashing on the far D 104
cranking it up and D 104
cruise up the bay D 103
crusty as an old D 102
cruise on the new D 102
creation by the fiat D 102
creases as an old D 102
crashing of the seas D 102
cradle of the real D 102
crunch in the mid D 101
crumbs on the seat D 101
crests of the earth D 101
creeds in the new D 101
crashing of the two D 101
crowding to the rear D 100
creeping up the bay D 100
creeping in on his D 100
credit in the ears D 100
creation of an egg D 100
created by the gnu D 100
creaked as the old D 100
cradle of us all D 100
cracks in the bay D 100
cruise to the end D 99
crowding at the top D 99
crushing at the end D 98
cruise in the year D 98
crowns on my head D 98
creeping up the man D 98
creeping in on all D 98
crater in the ice D 98
cranny of the big D 98
cranky at the end D 98
cranky as he was D 98
cradling it on his D 98
cruise to the top D 97
crushing in the ice D 96
cruise of the area D 96
crowding in on its D 96
crouch on the earth D 96
creeping up to you D 96
creeping up on this D 96
creeds of the age D 96
credit or the tax D 96
crawling in the bed D 96
craven of the lot D 96
crater in no man D 96
cranny of the new D 95
crushing of the air D 94
crowns by the end D 94
crowding in on top D 94
creoles of the old D 94
creation of the hot D 94
creased as if they D 94
creaked as the two D 94
creaked as he lay D 94
creaked as he did D 94
cranny of the ill D 94
critic of the tax D 93
created by the wear D 93
cruise up to this D 92
crowns of the east D 92
crisis in the gay D 92
crisis in the bay D 92
creeping up to bed D 92
creeping to the pot D 92
credit to the cap D 92
created on the cad D 92
crater in the mud D 92
croaking of an old D 91
craves to be fed D 91
crushing in on her D 90
crowds of the gay D 90
credit on the art D 90
created in the thin D 90
creases in it with D 90
crawls up to his D 90
crawling on the rug D 90
cravings in the van D 90
craned up to see D 90
crafts on the job D 90
cruise in the sun D 89
crisis of the art D 89
crawls in to get D 89
crutch at the end D 88
crusts on the pen D 88
crusts by the use D 88
crowns to the sky D 88
crowns to do him D 88
crowding up of things D 88
crooning of the old D 88
crests of the far D 88
creeping up to this D 88
creeping in my own D 88
credit on the eve D 88
credit is the tax D 88
creation by the fed D 88
crater on the near D 88
cranky in my old D 88
cranes at the top D 88
cracks of the mud D 88
cruise on the way D 87
cruise up the east D 86
cruise by the end D 86
crowns of the men D 86
crowns of the few D 86
crotch of the big D 86
created by the bean D 86
created by the ads D 86
crates at the far D 86
cradling it on her D 86
cradle in the old D 86
cracks in the lid D 86
created by the bay D 85
crushing me to his D 84
crushing it to her D 84
crowns of my own D 84
crowding up to get D 84
crocus in the dew D 84
crisis in the car D 84
crests of the red D 84
creeping on of death D 84
creeping on me with D 84
credit to the dean D 84
created by the cow D 84
crashing of the big D 84
crafty of the two D 84
cradle on the day D 84
cradle of an old D 84
crowds at the zoo D 83
crutch to the dead D 82
cruising of the war D 82
crowds on the lung D 82
crowding to do him D 82
crowding in at one D 82
crooning of my old D 82
croaking at the top D 82
creeping up on each D 82
created in the pan D 82
created in the egg D 82
creases in the old D 82
creases in the man D 82
crowning of the day D 81
created by the fig D 81
crumbs on the bed D 80
crowding up on each D 80
crowding on me with D 80
croaking of the old D 80
creeping in on you D 80
creation of the lion D 80
creaked as he put D 80
crawling in my bed D 80
crashing on the head D 80
cranks to the rear D 80
cradle as it was D 80
cracking in the hot D 75
cracking in the ears D 72
cradle on the top D 65
crooks at the top D 62
crushing of an egg D 57
cracking in the beam D 57
crouch to no one D 56
crouch at the end D 56
crates in the rear D 56
crowding in the old D 55
crouch on the bed D 55
cropping of the top D 55
created by the pan D 55
creator of the uni D 54
craggy at the top D 54
cradle of the red D 53
creeping up the east D 52
created by the riot D 52
crushing of the red D 49
crests to the east D 49
cruise on the red D 48
crouch in the mud D 48
cruising on the bay D 47
crowning of the dead D 47
crisping in the sun D 47
credit to the oil D 47
cracking of the seal D 47
crouch so as not D 46
created by the ringing D 46
crafts of the pre D 46
cracking in the ice D 46
cruise to the red D 45
cropping on the one D 45
cropping at the top D 45
crises of the fin D 45
created by the fee D 45
cruising by in his D 44
cruise in the seas D 44
crises in the oil D 44
creeping to the bed D 44
creation of the fur D 44
created by the mud D 44
created by the fat D 43
created by the bed D 43
creases in the bed D 43
crutch at the top D 42
crowds on the eve D 42
cranny of the area D 42
cranny of an old D 42
cranks it up and D 42
crushing of the east D 41
crowns of the fir D 41
creation of the uni D 41
created by an ice D 40
cranks at the end D 40
