fit to do so M 39411
fit to be the M 33397
fix it in the M 15227
fit to go to M 13930
fit it to the M 12182
fit in to the M 11007
fix it on the M 10066
fit so to do M 9858
fix it to the M 8986
fit to be in M 8933
fit to be an M 7094
fit on to the M 6269
fit to do it M 6046
fit to do the M 4537
fit to be at M 4042
fit to go on M 3962
fit to be so M 3940
fit in at the M 3072
fix it at the M 2832
fit it in the M 2817
fix it up so M 2589
fit as to the M 2508
fix it if it M 2486
fit to be king M 2380
fit to be my M 2272
fit it to be M 1978
fix it in my M 1976
fit to be of M 1891
fix it so it M 1864
fix it up in M 1758
fix it so he M 1717
fix it up to M 1708
fit it on the M 1681
fit to be on M 1637
fit is to be M 1616
fix it so the M 1442
fit to eat in M 1364
fit in on the M 1273
fit to go in M 1264
fix it up as M 1242
fit to do in M 1175
fix it so we M 1100
fit so as to M 1072
fit it up as M 1041
fix it is to M 991
fit in in the M 877
fix it so as M 871
fix it in an M 835
fit as if it M 829
fit is on me M 767
fit in as an M 746
fit it in to M 745
fit as it is M 742
fix to be in M 708
fit up to the M 693
fix it up the M 670
fix it by the M 664
fix on to the M 655
fit it on to M 636
fit if it is M 635
fit to eat or M 632
fit he is to M 622
fit us to be M 608
fit to eat at M 607
fit in or be M 592
fix it as an M 582
fit in or to M 578
fix us in the M 562
fix me to the M 556
fix me up in M 554
fix on me the M 532
fix it as the M 516
fix it up on M 484
fit in as the M 476
fix on it as M 474
fix on as the M 474
fit to be up M 463
fit to eat by M 459
fit us to do M 450
fit it up in M 442
fit to go up M 439
fix the thing up M 434
fit thing to be M 426
fit to do as M 425
fix it up if M 424
fit me to be M 420
fix it on to M 416
fit is in the M 401
fix me up so M 396
fix it on me M 390
fix me in the M 388
fit is on us M 387
fit on to it M 373
fit it to my M 366
fit me in the M 364
fix it up at M 356
fit to do or M 356
fix it up or M 354
fix it on my M 348
fit up in the M 347
fit it in my M 346
fix on it the M 337
fix it so no M 324
fix to be so M 316
fit is by no M 311
fix it up by M 310
fix it in no M 308
fit to go at M 308
fit in to an M 307
fit it to an M 298
fit it in as M 296
fit is on the M 295
fit to be no M 288
fix up in the M 286
fit in as if M 281
fix it to be M 280
fit as if he M 280
fit is of the M 279
fix it on an M 278
fit to eat the M 277
fix it if he M 276
fit as he to M 270
fix it or to M 268
fix it if we M 266
fit to do my M 264
fit in to my M 248
fit it in at M 246
fit as in the M 246
fit of the ring M 245
fit is to the M 240
fit to eat is M 239
fix it as it M 232
fit to eat on M 230
fit it is to M 224
fit in is to M 221
fit to do to M 216
fit on to an M 214
fit to go as M 207
fit so to be M 207
fix me up on M 206
fit to eat if M 204
fit in to it M 197
fit or as the M 195
fix it to an M 192
fix on us in M 191
fit to do is M 179
fit in or do M 176
fix it so my M 174
fix he is in M 174
fit to sing the M 174
fit me in at M 174
fix is in the M 172
fix on me as M 171
fix is to be M 168
fit it in an M 168
fit it up to M 164
fit is at the M 164
fit if he is M 164
fit to do no M 163
fix it at an M 156
fix in it the M 156
fit me to do M 156
fit or to be M 155
fix us to the M 154
fix up on the M 152
fit us in the M 152
fit it in on M 147
fix on in the M 146
fit to me to M 146
fix on us the M 145
fix me up as M 144
fit to be eat M 144
fit of to the M 144
fit to sing to M 143
fit in it at M 143
fit as he is M 142
fix me up to M 140
fit or if the M 135
fit thing to do M 134
fit to eat as M 133
fix it by an M 132
fit we go to M 132
fit to it the M 128
fit in the ring M 128
fit to go or M 127
fit in at my M 125
fix us up in M 124
fix me up at M 124
fit to do me M 123
fit in or if M 122
fit to eat it M 121
fit it at the M 120
fix it is by M 118
fix it if the M 118
fit to do at M 117
fit at the king M 117
fix it at no M 116
fit us as we M 116
fit in is the M 116
fix is at the M 114
fit me in on M 114
fit if we do M 114
fit in to be M 113
fix it as we M 112
fit in or on M 112
fit in as it M 109
fit to be as M 108
fix as to the M 107
fit to sing in M 107
fit as at the M 107
fix on it an M 106
fit to do us M 106
fit in as he M 106
fit to go the M 105
fix me in my M 104
fit to go by M 104
fit in if the M 104
fix on to it M 102
fix me on the M 102
fit me as if M 101
fix it as to M 100
fit it to do M 100
fit is of no M 100
fix the thing in M 98
fix me up if M 98
fit it is we M 98
fix is on the M 97
fit in so as M 97
fix it as if M 96
fit to be by M 95
fix us in an M 94
fix in us the M 93
fit up on the M 93
fit the ring to M 92
fit in at an M 92
fix the thing as M 90
fix it to my M 90
fix it to go M 90
fix it as he M 90
fit up by the M 90
fix it is the M 87
fix me on it M 86
fix if we do M 86
fit to go so M 86
fix it or the M 84
fix it or do M 84
fix it or at M 84
fit me at the M 84
fit the thing he M 82
fit the ring on M 82
fit it as the M 82
fit by the king M 82
fix it to no M 80
fit us to go M 80
fit of it on M 80
fit or in the M 77
fit as to be M 67
fit in if he M 63
fit in it as M 62
fix as it is M 55
fit as if the M 54
fix if it is M 52
fit on the ring M 51
fit me in as M 50
fit or on the M 49
fit in if we M 47
fit to the the M 46
fit to sing of M 46
fit of the king M 45
fit in if it M 45
fix so as to M 44
fit to the in M 44
fix up at the M 43
fit to he the M 43
fix it or it M 42
fix to go to M 41
fit to to be M 41
fit or of the M 41
fit to do on M 40
fit it in so M 40
fix in us thy D 902
fiat of the king D 666
fit in the ear D 446
fit to be re D 365
fin is in the D 328
fin is to be D 315
fin is of the D 315
fin is on the D 308
fit to be thy D 298
fiat or by the D 290
fin is at the D 220
fin as in the D 180
fir is to be D 171
fiat as in the D 122
fig is to be D 120
fiat or is it D 120
fiat is to be D 117
fit the ear of D 98
fit of the ear D 87
fix it at rs D 86
fit as an ox D 55
fin so as to D 48
fir as it is D 46
fix in the sea D 45
fin as it is D 44
fiat so as to D 44
fin in the sea D 43
