fit state to be M 10040
fit close to the M 4302
fit easily in the M 2186
fit state to go M 2078
fit either of the M 2028
fit state to do M 1602
fit based on the M 1600
fit right in at M 1389
fit seems to be M 917
fit tight to the M 855
fit right in the M 838
fit place in the M 837
fit easily on the M 698
fit right in to M 629
fit place to be M 626
fit value of the M 622
fit words to the M 550
fit judge of the M 504
fit right in on M 421
fit right on the M 418
fit tight in the M 415
fix anything in the M 380
fix blame on the M 356
fit needs to be M 352
fit model of the M 352
fit image of the M 334
fit state as to M 300
fit either to go M 296
fit given by the M 291
fit lines to the M 290
fit right in as M 288
fit parts of the M 284
fit leader of the M 278
fit leader in the M 270
fit words to it M 258
fit tests of the M 246
fix months in the M 241
fit either to be M 238
fit close up to M 232
fit types of the M 231
fit shown in the M 227
fit rather to be M 226
fit tends to be M 195
fit right in in M 193
fit model to the M 192
fit abode of the M 186
fit where it is M 180
fit people in the M 179
fix point of the M 178
fit people to the M 176
fit reply to the M 174
fit state of the M 169
fit option of the M 164
fit judge in the M 162
fit ruler of the M 158
fit either in the M 158
fix parts of the M 148
fit agent of the M 148
fix months of the M 146
fix began to be M 146
fit tight at the M 145
fix miles to the M 144
fit touch to the M 144
fit shown by the M 144
fit option in the M 142
fit tight on the M 140
fit state at the M 140
fit which is the M 138
fit times to be M 136
fix anything to eat M 134
fit close on the M 132
fit easily on to M 131
fix facts in the M 130
fit easily to the M 127
fit state to eat M 126
fit while in the M 125
fix again on the M 120
fit lines of the M 120
fit holes in the M 120
fix ships of the M 119
fit tests on the M 118
fit comes on by M 118
fit either of us M 116
fit right in if M 114
fit ought to be M 114
fit anything in the M 114
fit women to be M 112
fit close at the M 111
fit model is the M 110
fix holes in the M 109
fit woman to be M 108
fit abode in the M 108
fix still on the M 106
fit easily in my M 106
fix which of the M 100
fit which of the M 100
fit under the wing M 97
fit close of the M 94
fit cause to be M 94
fix short of the M 93
fit action to the M 93
fit shape to be M 92
fix words in the M 91
fix needs to be M 91
fit season of the M 88
fit reader of the M 88
fit place to do M 88
fit place at the M 88
fit share of the M 86
fit comes on in M 86
fit sense of the M 84
fix either of the M 82
fix dates in the M 80
fit agent to be M 80
fit appear to be M 74
fit right in my M 68
fit option on the M 66
fix based on the M 53
fit while at the M 53
fit until it is M 53
fix miles of the M 52
fit music to the M 51
fit might be the M 51
fit needs of the M 50
fit again to be M 46
fit seems to me M 45
fit right up to M 45
fit people to be M 45
fix times in the M 41
fit based on an M 41
fit since it is M 40
fit either to the M 40
fir trees in the D 3313
fir trees on the D 2552
fig trees in the D 1796
fit neatly in the D 1655
fir trees of the D 1181
fir trees at the D 1011
fir trees to the D 746
fit neatly on the D 706
fig trees on the D 676
fir region of the D 650
fix would be to D 632
fiat money in the D 530
fig trees of the D 479
fix rates on the D 382
fit flush to the D 364
fit curve to the D 360
fir trees by the D 358
fig trees at the D 332
fix rates to be D 326
fit would be the D 314
fiat money is the D 309
fig leaves in the D 298
fir woods of the D 292
fir woods on the D 278
fix rates so as D 275
fix rates in the D 260
fix wages at the D 254
fir trees to be D 250
fit would be to D 234
fiat money of the D 230
fit curve of the D 225
fiat money by the D 215
fix wages in the D 210
fit setting to the D 204
fir growing in the D 202
fig leaves on the D 200
fiat roofs of the D 194
fiat money to the D 193
fir cones in the D 186
fig leaves of the D 185
fir woods to the D 177
fit organ of the D 176
fit usher to the D 172
fiat money to be D 171
fir grows in the D 170
fin close to the D 167
fit neatly on to D 156
fir glows in the D 156
fir stand in the D 155
fir woods in the D 151
fin seems to be D 151
fig trees to the D 150
fit neatly to the D 147
fir cones on the D 145
fit index of the D 142
fig trees by the D 142
fir close to the D 133
fit neatly at the D 127
fiat plant in the D 126
fig borne by the D 124
fit index is the D 114
fiat money on the D 112
fix rates at the D 110
fig leaves to the D 109
fin playing on the D 108
fir found in the D 106
fir seems to be D 105
fix rates or to D 104
fin terms of the D 102
fiat bones of the D 101
fit slope of the D 100
fix rates is the D 96
fir woods at the D 93
fir trees or in D 93
fiat sides of the D 89
fit neatly in my D 87
fix ropes to the D 86
fit sauce to the D 86
fir grove at the D 85
fit token of the D 84
fit rival to the D 82
fir growing on the D 70
fin whale is the D 63
fin whale in the D 56
fit slots in the D 55
fiat money as the D 53
fig trees to be D 47
fir trees up to D 44
fit flush in the D 43
fit flush on the D 42
fir trees or the D 42
fit corks to the D 41
fin spite of the D 41
fir occur in the D 40
