five white mice " M 606
find words like " M 466
five lines from " M 365
five miles from " M 356
fifth vital sign " M 356
find terms like " M 272
five times more " M 186
five miles away " M 184
find anything like " M 104
five others were " M 90
fine gifts those " M 80
five times over " M 42
