finally got it . M 6726
finally did it . M 5186
finally let go . M 3370
finally did so . M 2576
finally get it . M 2006
finally hung up . M 1872
finally got up . M 1760
finally did it ! M 1206
finally saw it . M 1072
figures with me . M 1021
finally set up . M 980
fittest for it . M 867
finally had it . M 838
finally sat up . M 698
figures for me . M 670
finally got me . M 664
finally got it ! M 596
finally see it . M 524
finally won it . M 508
finishing his tea . M 500
finally doing it . M 478
figures for it . M 474
finally let up . M 450
finally saw me . M 438
finally end up . M 394
figures may be . M 348
finally does so . M 336
finally say it . M 328
figures for us . M 314
finally dry up . M 282
figures can be . M 272
fittest for us . M 260
finally beat me . M 260
finally get it ? M 254
finally read it . M 250
finally did it ? M 248
finally ate it . M 242
fittest for me . M 235
finishing her tea . M 230
finally with me . M 204
figures add up . M 194
finally had to . M 190
finally get up . M 190
finally get it ! M 186
finishing with it . M 184
finally end up ? M 182
figures for me ? M 170
finally doing so . M 168
finally with us . M 158
finally does it . M 158
finally end it . M 148
fifteen and up . M 144
finally hear it . M 138
finishing for me . M 136
finally eats it . M 136
finally put on . M 132
finally did go . M 132
finally got it ? M 128
figures with it . M 124
finally lit it . M 120
finally eating it . M 120
figures near it . M 118
fifteen for it . M 110
finally set up ? M 108
finishing them up . M 96
finally put it . M 96
finally using it . M 94
figures for the . M 92
figures add up ? M 90
finally saw us . M 88
finally lead to . M 88
finally had me . M 88
finally get in ? M 84
finally use it . M 80
finally say no . M 80
