owe me anything . M 9268
own the place . M 8382
own the world . M 4366
owe to others . M 3372
own the house . M 3003
own to offer . M 2676
owe me money . M 2256
owe the money . M 1728
owe the honor ? M 1640
own to serve . M 1448
own or others . M 1446
owe us anything . M 1368
own at night . M 1267
own by right . M 1123
own to spend . M 993
own the house ? M 890
own the place ? M 870
owe my thanks . M 790
own the store . M 714
own the asset . M 677
own to solve . M 652
owe us money . M 582
own the night . M 573
own at times . M 567
own to share . M 566
own the joint . M 564
own to others . M 550
own the place ! M 548
own at first . M 502
own be found . M 487
own the goods . M 478
own the state . M 466
own the paper . M 452
own the world ! M 448
owe my father . M 404
own by force . M 388
own to raise . M 384
owe me anything ? M 384
own to fight . M 374
owe the world . M 348
own in reply . M 338
own the plant . M 336
owe the state . M 332
owe to others ? M 322
own is yours . M 314
own the water . M 313
own it today . M 312
owe me anything ! M 288
own the press . M 284
own to carry . M 282
owe me money ! M 280
own no longer . M 274
own to spare . M 266
own to shame . M 264
own the whole . M 263
own the world ? M 262
owe me money ? M 262
own my guilt . M 252
own the river . M 248
own as usual . M 246
owe the money ? M 244
own the money . M 236
own the people . M 233
own the child . M 233
owing me money . M 233
own to enjoy . M 232
own it again . M 232
own to write . M 228
own in print . M 223
own my house . M 218
own the lands . M 214
own the field . M 214
owe to women . M 208
own the oceans ? M 207
owing the money . M 206
own in heaven . M 204
owing to weather . M 202
owe the change . M 200
own in space . M 198
own the slave . M 196
own ring again . M 196
own to avenge . M 194
owe no debts . M 184
own to claim . M 177
owing to habit . M 174
owe the world ? M 172
own in order . M 171
own to study . M 170
own the tools . M 168
own of today . M 166
own in danger . M 164
own an asset . M 164
own in place . M 162
owing me anything . M 162
owe my mother . M 162
own the vision . M 160
own to heaven . M 158
own the store ? M 158
own the trees . M 157
own to theirs . M 154
owe it still . M 152
own on board . M 148
own in check . M 146
owe me thanks . M 146
owe it anything . M 146
owing to others . M 139
own tea party . M 138
own or yours . M 136
own in action . M 136
owing to water . M 135
own on others . M 133
own in others . M 132
own an error . M 132
own is based . M 131
own to sleep . M 130
own in writing . M 127
own the issue . M 126
own the books . M 126
own it still . M 126
owing to decay . M 125
own to match . M 124
own the stage . M 122
own it either . M 122
own the story . M 121
own the change . M 121
own the space . M 119
own or others ? M 118
own on paper . M 118
own to count . M 116
own thing again . M 114
own the power . M 114
owe us anything ? M 114
own to guard . M 112
own the table . M 112
own to spoil . M 110
owing to study . M 110
own to nurse . M 108
own the units . M 108
own the works . M 106
own the music . M 106
own so easily . M 104
owe the people . M 104
own my fault . M 102
owe to color . M 102
own to create . M 100
own my error . M 100
own it first . M 98
owe it money . M 98
own the woman . M 94
own to visit . M 92
own to shape . M 92
own to order . M 92
own to exist . M 92
own the piece . M 92
own in power . M 92
own in class . M 92
owing us money . M 91
own the words . M 90
own on stage . M 90
owe no money . M 90
own so badly . M 89
own the items . M 86
own tea leaves . M 86
own by right ? M 86
owe the whole . M 86
own to carry ? M 84
own at night ? M 84
own by others . M 80
owing to hunger . M 42
own the worst . M 40
own the lodge . M 40
