catch a train . M 12100
catch a plane . M 5492
causing a panic . M 4926
cause a panic . M 2565
carry a child . M 1924
calling a meeting . M 1652
cause a change . M 1455
cause a crash . M 1400
cause a delay . M 1372
cause a fight . M 1292
carry a point . M 964
carry a light . M 964
carry a spare . M 862
carry a price . M 744
causing a delay . M 716
cause a smile . M 679
carry a woman . M 644
cause a short . M 626
carry a cross . M 602
cause a storm . M 595
causing a crash . M 578
catch a sound . M 566
cause a wreck . M 564
calling a method . M 560
catch a train ? M 554
carry a watch . M 526
calling a truce . M 486
calls a meeting . M 470
carry a warning . M 391
cause a laugh . M 330
catch a train ! M 320
carry a motion . M 306
causing a short . M 296
calls a night . M 290
cause i serve . M 288
causing a wreck . M 284
cause a crack . M 284
causing a fight . M 276
causing a wound . M 274
causing a draft . M 256
cause a fault . M 247
carry a curse . M 242
carry a piece . M 234
cause a wound . M 233
cause a sound . M 222
carry a story . M 222
causing a change . M 208
carry a watch ? M 196
carry a child ? M 188
catch a virus . M 186
catch a plane ? M 186
cases i agree . M 184
cause a draft . M 171
carry a virus . M 168
calling a meeting ? M 162
cause a block . M 147
cause a shift . M 146
catch a woman . M 142
calling a truce ? M 140
catch a tiger . M 138
carry a piece ? M 134
cause a knock . M 132
cause a noise . M 128
carry a light ? M 128
catch a draft . M 122
calls a voice . M 122
cause a panic ? M 120
causing a storm . M 118
cases a woman . M 118
carry a label . M 114
calling a child ? M 114
cause a check . M 112
causing a sound . M 110
calls a method . M 110
causing a fault . M 108
cause a habit . M 108
calls a truce . M 108
cause i loved . M 102
carry a chair . M 102
cause a scare . M 100
casts a light . M 98
cause a cycle . M 96
carry a moral . M 96
causing a click . M 94
carry a cross ? M 94
calls a house . M 94
catch a cloud . M 92
carry a state . M 92
casts a shade . M 90
carry a value . M 90
calling a child . M 90
catch a slave . M 82
carry a smile . M 82
carry a house . M 80
calls a crime . M 44
cause a deity ? M 40
