net result is that M 113994
new edition of his M 56232
net result of this M 50796
net effect of this M 41430
net effect is that M 40834
near enough to see M 37352
new edition of this M 33965
near enough to hear M 32876
net result of all M 31397
net effect of all M 19607
new scheme of things M 10658
new version of this M 6452
new version of his M 6336
near enough to him M 6297
net result of his M 6196
new edition of that M 5863
near enough so that M 5679
near enough to each M 5491
near enough to get M 5300
net profit or net M 4858
net profit to net M 4847
near enough to his M 4792
near enough to them M 4537
new system of law M 4348
new member of our M 4286
new edition of her M 4190
new school in new M 4126
new system is not M 4078
new methods of doing M 3703
new aspect of his M 3648
net result of our M 3632
new ground in this M 3628
near enough to her M 3557
new version of its M 3524
near thereto as she M 3444
new system is that M 3418
new system is being M 3350
near enough to one M 3307
new creation of god M 3025
new proofs of his M 3016
new ground in its M 2924
new images of man M 2872
new version of that M 2772
net effect of both M 2742
new volume of his M 2666
new ground in his M 2614
near future we may M 2540
new system of things M 2492
near enough to use M 2442
new methods of using M 2432
new spirit in you M 2390
new edition in one M 2315
net result is not M 2284
near enough to our M 2273
net result of two M 2243
new edition of one M 2232
net amount of heat M 2232
new creation of all M 2188
new aspect of this M 2188
new building is being M 2172
new edition of our M 2142
near future is not M 2078
net effect of his M 2070
net result of that M 2050
near thereto as may M 2042
net result of both M 2040
new version of our M 2026
near enough to that M 2022
new aspect of things M 1912
near future so that M 1899
net effect is not M 1846
near future it may M 1842
new member of his M 1840
net effect of each M 1802
new edition is now M 1776
new engines of war M 1722
near enough to put M 1687
near future we can M 1670
new methods or new M 1644
near enough to read M 1625
new member of this M 1622
new edition of them M 1606
new issues as they M 1548
net amount of any M 1528
near enough to this M 1510
new edition is being M 1504
new ground in that M 1498
net weight of each M 1482
new edition of all M 1475
new aspect of her M 1474
net result of its M 1468
net effect of any M 1444
near future is that M 1382
new church on earth M 1376
net impact of this M 1370
near enough to its M 1366
new object of his M 1356
new strength to his M 1354
new system in its M 1322
new branch of his M 1300
new edition of its M 1282
net amount of all M 1221
new aspect of our M 1216
new branch of law M 1212
new family of god M 1209
net charge on each M 1206
net profit on each M 1202
new strength in his M 1196
new creation of man M 1190
near enough to being M 1178
new version of her M 1168
new forces in old M 1168
near enough to let M 1166
new reality is that M 1160
new creation is not M 1138
near enough to any M 1138
net effect is one M 1108
near enough to you M 1100
near future we are M 1092
new building is not M 1080
net effect of that M 1080
new matter in this M 1072
net amount of each M 1072
new states as they M 1056
net effect of two M 1046
new button to add M 1042
new system it was M 1030
new system is now M 1024
new church in this M 1020
new system of war M 1019
new ground is being M 1016
net effect is for M 1012
near enough to bring M 1010
new spirit in them M 1004
near future in this M 1002
new thought of god M 987
new clothes he had M 976
net impact of all M 974
net profit is not M 968
new friend of his M 960
net amount of his M 960
new system so that M 948
new temple of god M 944
net assets or net M 930
net profit of one M 922
net assets at year M 918
net assets of all M 908
net result of any M 906
new methods of war M 905
new edition in two M 905
new edition is not M 896
near future to see M 894
new source of heat M 890
new factor is that M 884
net assets at end M 875
new owners do not M 874
new energy to his M 868
new factor in this M 860
net profit of each M 850
new spirit in our M 848
new building is now M 828
new ground in our M 826
new states of being M 820
new supply of air M 816
net effect of using M 816
new spirit in his M 814
new essays on new M 811
new version of one M 810
new school is not M 795
new branch of our M 792
new strength in her M 774
net effect of our M 774
net output of all M 773
net effect of its M 768
new building of its M 748
near enough to new M 748
new version is not M 744
net result of her M 744
net profit on net M 743
new states is not M 742
new church in its M 734
new factor in our M 728
new methods to deal M 722
new rights of way M 720
new thought to him M 714
new source of law M 707
new system of his M 706
new church is being M 704
new church of our M 700
new market on may M 692
new source of joy M 688
new methods do not M 686
new church is not M 682
new building is going M 672
new church in that M 670
net amount is due M 664
near enough to act M 664
new manner of being M 662
net result of each M 662
new member to our M 660
new thought of his M 658
near enough to death M 657
new values on new M 654
net profit of all M 654
new ground in two M 649
new edition he was M 646
new member of that M 644
new member of her M 644
new effort to bring M 638
new thought or idea M 636
net result in this M 636
near enough to say M 636
new images of god M 633
new creation of his M 632
near access to god M 630
new building in new M 628
net number of new M 628
new school is being M 626
new thought in his M 624
new church in his M 624
net assets to net M 624
new record is read M 622
new creation in him M 621
new strength to our M 616
net result of using M 616
near future as they M 612
new window on our M 608
near enough to god M 607
new theories of how M 606
net output of each M 606
new system is one M 604
new methods as they M 604
new aspect to her M 600
new object of her M 598
new version of old M 594
net profit of two M 593
new friend to his M 592
new school of law M 591
new edition of any M 590
net effect of one M 587
new matter is not M 584
new choice of law M 584
net effect in this M 582
new system in this M 580
new aspect to this M 580
new trends in this M 576
net profit on its M 574
new points of law M 572
near future if they M 570
new powers to deal M 568
new proofs of her M 566
new issues of long M 566
near enough to lay M 566
new thought is not M 564
net profit on this M 564
near enough to run M 563
new effort to get M 562
new shares of its M 560
new answer to this M 556
new church is now M 554
new system is put M 552
new scheme is that M 548
new person is not M 546
new orders to his M 544
new copies of this M 544
net assets of each M 544
new building or for M 542
new bodies of law M 541
new system is going M 540
new rights of man M 540
new member is not M 534
near future to bring M 533
new friend in his M 530
net return on his M 528
new system as they M 524
new owners of this M 522
new aspect is that M 522
new phases of old M 516
new ground in her M 514
new proofs of its M 512
new person in his M 512
new aspect to his M 508
new states in this M 506
near friend of his M 506
new scheme is not M 504
new theories do not M 502
new result is that M 501
new matter by way M 500
net effect is thus M 500
net amount of new M 496
new object or idea M 494
net amount of this M 492
new spirit of our M 490
near future of our M 490
new edition of old M 489
new thought to you M 488
new worlds to him M 486
new factor in his M 486
new aspect of its M 486
net profit on his M 482
new ground by using M 480
new course he had M 478
new thought to her M 476
new methods in his M 476
new building on its M 476
net result is one M 475
new record is being M 474
new aspect to our M 474
near enough to try M 472
new plants or new M 470
new methods in this M 470
new friend he had M 470
new scheme of his M 466
new groups of men M 466
new spirit is not M 462
new spirit in him M 460
new reality is not M 460
net result of them M 460
new member in his M 458
new matter of his M 458
near enough in age M 458
new labour is not M 457
new teacher is not M 456
net result of one M 456
net assets to one M 455
new spirit of his M 454
new building in its M 454
net profit to each M 454
new weight to his M 452
new issues in this M 452
net result is two M 451
net profit of ten M 450
new building so that M 448
net result is thus M 448
near enough to pay M 448
new edition is that M 447
new object is not M 446
new mothers do not M 446
new matter is being M 444
new supply of men M 442
new volume of this M 440
new system up and M 440
new states of this M 440
new aspect in this M 440
near enough to set M 438
new crisis in his M 434
new building of any M 434
net profit of this M 434
new family of his M 432
new worlds of its M 430
new edition of two M 430
near future is going M 430
near enough to cut M 428
new energy in his M 426
new phases of his M 424
new guides to old M 424
net effect of being M 424
new values do not M 420
new reality of our M 418
new person in our M 418
new object of this M 418
new building on his M 418
near future or that M 418
near twenty in all M 416
near future if not M 416
new school he was M 414
new member of its M 414
new fields of law M 414
new creation of this M 414
new clothes or new M 414
new object of that M 412
new church he had M 412
net result is this M 412
near twenty of them M 412
new ground by being M 410
net amount of its M 410
new proofs of this M 408
new ground in both M 408
new enough so that M 408
new design is not M 408
new states do not M 406
new edition of each M 406
new building in this M 406
new aspect of that M 406
new edition of both M 404
new creation of our M 404
new creation of its M 404
net assets of that M 404
near future the use M 404
new spirit be not M 402
new shares to its M 402
near future at any M 402
new methods is that M 401
new forces in our M 400
new states to our M 398
new person in her M 398
new course of things M 396
new topics in this M 395
near enough to earth M 393
new fields of use M 390
net result is then M 390
net result in both M 390
new strength to her M 388
new charge of air M 387
new course in its M 386
new visions of how M 384
new school in his M 384
new agency to deal M 384
net result so far M 384
near future do not M 383
new duties he had M 382
net charge of each M 382
new branch of this M 380
net assets is not M 380
new system in his M 378
new school in this M 378
new causes of death M 378
net effect of new M 378
net amount of man M 377
new spirit in this M 376
new volume is not M 374
new church of god M 374
new states in that M 371
new energy to all M 370
new plants do not M 368
new family is not M 368
new demand on his M 368
near future in any M 366
near enough to ask M 366
new values of all M 364
new school is that M 364
new babies do not M 364
net return on this M 364
net profit in each M 364
new horror to death M 362
new edition is due M 362
new building it was M 362
new medium is not M 360
new creation by god M 360
near future or not M 358
new forces as they M 356
new models of how M 354
new access to god M 354
net weight of all M 352
near future to use M 352
new plants as they M 350
new measure of man M 350
near future to get M 350
new issues do not M 348
new clothes on her M 346
new belief in god M 346
new values of and M 344
new system at all M 344
new matter in its M 344
net profit in this M 344
new system in that M 343
new thought or new M 342
new system he had M 342
new ordering of things M 342
new models or new M 342
new habits of eating M 342
new friend or two M 342
net profit is then M 342
new clothes so that M 341
new version of any M 340
new system of our M 340
new member to his M 340
new forces to bear M 340
new system he was M 338
new strength to bear M 338
new source of air M 338
new gospel to all M 338
new fields or new M 338
new building of his M 338
near future if you M 338
new printing of this M 336
new member in our M 336
new causes of war M 336
new spirit in its M 334
new matter in his M 334
new creation in its M 334
new church of all M 334
new system in one M 333
new strength be not M 332
new scheme to get M 332
new record is not M 332
new plants in new M 332
new issues or new M 332
new church at that M 332
new building of this M 332
new thought in her M 330
new system do not M 328
new market is not M 326
new events or new M 326
new creation or new M 326
new methods of use M 324
new version of each M 322
new scheme is being M 322
new duties he was M 322
net result is for M 322
new result of this M 320
new nature or new M 320
new attack on his M 320
net return on its M 320
net profit on all M 319
new ground as far M 318
new church of his M 318
new values to them M 316
new master of his M 316
net return on all M 316
new states of east M 315
new essays on its M 315
new version of don M 314
new system if they M 314
new design is being M 314
new powers in this M 312
new copies of all M 312
new volume of her M 310
new strength in its M 310
new methods of its M 310
new friend to her M 310
net assets of its M 310
new states is that M 309
near enough to aid M 309
new reality of god M 308
new theories or new M 306
new system of two M 306
new reality of being M 306
new building or new M 306
new aspect of god M 306
new orders of being M 304
new crisis to you M 304
new clothes on and M 304
new spirit of this M 302
new plants in this M 302
new object in his M 302
new forces to its M 302
net profit of not M 302
new volume is one M 300
new version is being M 300
new methods is not M 298
near bleeding to death M 298
new system to its M 296
new methods to bring M 296
new church he was M 296
new worker to his M 294
new system of long M 294
new owners of his M 294
new groups as they M 294
new essays on song M 294
new burden on his M 294
net output of this M 294
new system in all M 292
new object to his M 292
new methods to use M 292
new methods to get M 292
near future of this M 292
new system we are M 290
new system of this M 290
new plants of this M 290
new course in his M 290
net effect on real M 290
net effect is then M 290
new market or new M 288
new market is being M 288
new copies of old M 288
new attack of his M 288
new wholes of our M 286
new school or new M 286
new ground to him M 286
net effect in both M 286
new design is that M 285
new building on this M 284
new building is one M 284
net assets of not M 284
new church on this M 282
net profit at all M 282
net profit as one M 282
net charge of one M 281
new visions of god M 280
new orders of things M 280
new friend of her M 280
new church in new M 280
net amount of that M 280
net amount is then M 280
near future it can M 279
new worlds to them M 278
new talent in this M 278
new school in its M 278
new course is being M 278
net impact of each M 278
new trends in his M 276
new spirit in men M 276
new phases of its M 276
new person in this M 276
new friend in her M 276
net profit of his M 276
new version is that M 274
new system or new M 274
new strength to this M 274
new member to its M 274
new edition he has M 274
near scared to death M 273
new worlds to you M 272
new ground as they M 272
new effort in this M 272
new demand is for M 272
net profit of any M 272
new disease in man M 271
new record in this M 270
new reality of death M 270
new handle to his M 270
new clothes at all M 270
new worlds to her M 268
new theories is that M 268
new strength to its M 268
new lights in new M 268
new clothes on this M 268
new edition of man M 267
new edition in six M 267
net effect of age M 267
new spirit of joy M 266
new record in its M 266
new orders of men M 266
new manner of using M 266
new groups do not M 266
new entity is not M 266
net result in each M 266
new building in that M 265
new version is now M 264
new topics as they M 264
new models of its M 264
new lights on this M 264
new events as they M 264
new branch of that M 264
new bodies of men M 264
net effect on our M 264
new version of them M 262
new system of air M 262
new school of his M 262
new object is then M 262
new edition of don M 262
near enough of them M 261
new trends in our M 260
new system is then M 260
new system is its M 260
new clothes on him M 258
net profit to one M 258
net assets of any M 258
near enough to bear M 258
new thought in its M 257
new system of job M 257
new system on this M 256
new clothes to put M 256
new building to its M 256
net effect of her M 256
new layers on top M 255
new forces of our M 254
new energy to our M 254
new building in his M 254
net creation of new M 254
new system on both M 252
new system of non M 252
new spirit to our M 252
new ground on this M 252
new fields as they M 252
new changes do not M 252
near future he was M 252
near future it was M 251
new through the old M 250
new reality of its M 250
new building he had M 250
new theories of his M 248
new system of doing M 248
new reality in his M 248
net return on each M 248
net profit on that M 248
net assets of one M 248
new system is far M 247
near future to put M 247
new states it was M 246
new models do not M 246
new methods if they M 246
new medium in its M 246
new edition of who M 246
net assets of this M 246
net weight of one M 245
new spirit is being M 244
new images to his M 244
new dangers on that M 244
new clothes to fit M 244
near enough to all M 244
near future by using M 243
new system of pay M 242
new strength in our M 242
new scheme he had M 242
new models of old M 242
new edition of how M 242
net charge on both M 242
near future is for M 242
new member on his M 240
new member of any M 240
new effort to win M 240
new design of this M 240
new creation in his M 240
new spirit in all M 238
new number is not M 238
new ground is not M 238
new effort is being M 238
net impact is that M 237
new methods of his M 236
new issues of all M 236
new ground in using M 236
new building in may M 236
net profit in any M 236
net effect on each M 236
near enough to deal M 236
new system or set M 234
new school do not M 234
new edition of him M 234
new course is not M 234
new building on east M 234
net output of that M 234
new worlds to our M 232
new values in our M 232
new tenant in his M 232
new moment of his M 232
new course of his M 232
new clause be read M 232
new aspect to all M 232
net return is not M 232
net effect on its M 232
near future to add M 232
new teacher in his M 230
new system to all M 230
new issues of this M 230
new design of his M 230
new building on that M 230
near future to deal M 230
new duties as head M 229
new system we can M 228
new states to this M 228
new school or job M 228
new reality in its M 228
new measure of long M 228
new matter of this M 228
new family the aim M 228
new desire to see M 228
new bodies he has M 228
new agency is not M 228
net output of one M 228
new master in his M 226
near future on this M 226
near corner of his M 225
new wonder is this M 224
new tenant is not M 224
new system the new M 224
new methods so that M 224
new clothes in her M 224
near future in all M 224
new school he had M 222
new reality in our M 222
new object in its M 222
new genius in its M 222
new changes in our M 222
net assets of both M 222
new values in this M 220
new system of using M 220
new duties do not M 220
new creation in this M 220
new factor in its M 218
new chance to get M 218
new routes to old M 216
new member in this M 216
new ground in any M 216
new attack on this M 216
net assets at that M 216
new edition of die M 215
new volume in this M 214
new trends in both M 214
new strength of his M 214
new demand is not M 214
new candle is lit M 214
new aspect of him M 214
net effect on them M 214
net effect of job M 214
new matter of any M 212
new aspect in his M 212
net result as far M 212
new source of fear M 211
new version of how M 210
new strength in this M 210
new plants or for M 210
new pieces of his M 210
new disease of man M 210
near escape of being M 210
near enough so they M 210
new states or new M 208
new source of aid M 208
new shares to old M 208
new points in his M 208
new measure of his M 208
new hatred to that M 208
new creation in our M 208
new building in one M 208
new building he was M 208
net charge on this M 208
net charge in this M 208
near future is one M 207
new theories on how M 206
new teacher in this M 206
new source of this M 206
new reality of his M 206
new friend in this M 206
new family is being M 206
new course in this M 206
new becoming or new M 206
net charge of all M 206
net changes in each M 206
net assets to its M 206
net amount of pay M 206
new creation is that M 205
new system to our M 204
new system to get M 204
new strength in him M 204
new object of fear M 204
new issues of its M 204
new friend is not M 204
new friend as she M 204
new energy in her M 204
new colour in her M 204
new building is that M 204
new building at all M 204
net impact of any M 204
near future to try M 204
net profit of that M 203
new system is set M 202
new stores in new M 202
new release of its M 202
new models is that M 202
new manner of singing M 202
new dangers of war M 202
new course is set M 202
net charge is not M 202
near future to pay M 202
near future by one M 202
new worlds or new M 200
new worlds on earth M 200
new worker is not M 200
new values or new M 200
new values of its M 200
new shares or new M 200
new shares is not M 200
new sample at any M 200
new owners of that M 200
new manner of his M 200
new ground in one M 200
new aspect to him M 200
net assets do not M 200
near enough to both M 200
new spirit by this M 198
new church at its M 198
new scheme in his M 196
new labour is that M 196
new labour in its M 196
new creation of men M 196
new colour to his M 196
new clothes he was M 196
new attack on him M 196
near appeals to this M 196
new thought is that M 195
new system to them M 194
new system as one M 194
new source of low M 194
new phases of her M 194
new nature of this M 194
new models as they M 194
new methods of air M 194
new ground so far M 194
new clothes to buy M 194
new aspect in our M 194
net return to that M 194
net charge on any M 194
new factor in that M 193
new essays on his M 193
new thought in this M 192
new printing of his M 192
new passion in her M 192
new images of men M 192
new effort in his M 192
net return of not M 192
near future he may M 192
near future the new M 191
new system on its M 190
new spirit in her M 190
new proofs of our M 190
new points in this M 190
new plants if they M 190
new passion in his M 190
new market in may M 190
new energy to her M 190
new aspect of being M 190
net profit in that M 190
near enough to buy M 190
near future to set M 189
new window so that M 188
new system to his M 188
new strength to that M 188
new models of his M 188
new methods to bear M 188
new methods in our M 188
new feelings is for M 188
new family in his M 188
new emotion in her M 188
new edition it has M 188
new crisis in our M 188
new clothes if you M 188
new church at this M 188
new church at his M 188
new topics or new M 186
new tenant to pay M 186
new system or not M 186
new system of its M 186
new system is all M 186
new plants as may M 186
new clothes to his M 186
new changes in his M 186
new center of his M 186
new caution as they M 186
new building is put M 186
new building at this M 186
near enough is not M 185
new system in our M 184
new instead of old M 184
new belief in his M 184
net profit to its M 184
net effect of them M 184
new issues of law M 183
near future of any M 183
new values as they M 182
new kingdoms in this M 182
new friend to see M 182
new forces or new M 182
new emotion in his M 182
new edition at this M 182
net profit of six M 182
net output of any M 182
near future the two M 182
new person is being M 180
new matter the old M 180
new manner of use M 180
new feelings in her M 180
net effect on this M 180
near yielding to them M 180
new person in that M 179
new matter in that M 179
net through the air M 179
new values of each M 178
new system at its M 178
new nature is not M 178
new matter to his M 178
new clothes in his M 178
net effect of low M 178
net assets of his M 178
new school so that M 177
new school in that M 177
new worlds of his M 176
new theories of law M 176
new scheme to bring M 176
new effort to put M 176
new doctor or had M 176
new course he was M 176
new before the old M 176
net return on net M 176
near itself it can M 176
near future of all M 176
new strength to all M 175
new version of all M 174
new values to his M 174
new system of one M 174
new system is too M 174
new system as being M 174
new supply of this M 174
new supply of that M 174
new reality is being M 174
new powers he had M 174
new papers as they M 174
new ground at all M 174
new clothes do not M 174
new building at that M 174
net profit to him M 174
new values to old M 172
new school of men M 172
new powers to his M 172
new plants so that M 172
new methods of this M 172
new essays in new M 172
new changes in her M 172
new branch of her M 172
near future in our M 172
near future as long M 172
new spirit so that M 171
new version of god M 170
new values in his M 170
new record is set M 170
new clothes on his M 170
new clothes if they M 170
new answer to his M 170
new access to its M 170
near enough so she M 170
new family of low M 169
new edition of new M 169
new volume of air M 168
new system or for M 168
new supply is being M 168
new shares to new M 168
new measure of its M 168
new matter to its M 168
new images of our M 168
new friend on his M 168
new creation of any M 168
new changes in its M 168
new burden on her M 168
new building we are M 168
net charge at any M 168
net assets on that M 168
near chance of being M 168
new button if you M 167
net effect on all M 167
new visions of his M 166
new record of his M 166
new issues to deal M 166
new church on his M 166
net result is both M 166
net effect of not M 166
new values so that M 165
new system is thus M 164
new system by using M 164
new school is going M 164
new report on this M 164
new methods to old M 164
new issues of non M 164
new family of her M 164
new factor is not M 164
new colour in his M 164
new branch of its M 164
net return to all M 164
net charge on one M 164
new topics in his M 162
new system is run M 162
new spirit is now M 162
new readers of this M 162
new friend as they M 162
new energy is being M 162
new creation in all M 162
new client of his M 162
new church it was M 162
net charge of this M 162
near enough the earth M 162
new system of all M 161
new thought to them M 160
new system to see M 160
new strength by being M 160
new shares at any M 160
new proofs of that M 160
new powers to act M 160
new person we are M 160
new object is being M 160
new object in this M 160
new ground by going M 160
new factor in her M 160
new events in his M 160
near future at that M 160
new duties as one M 159
new values to all M 158
new strength of this M 158
new states on its M 158
new offering of any M 158
new object or new M 158
new nature in him M 158
new methods he had M 158
new member to this M 158
new medium is that M 158
new manner in his M 158
new layers on its M 158
new issues of both M 158
new factor in war M 158
new church of this M 158
new church in our M 158
new building on may M 158
net charge of two M 158
near future as far M 158
new methods in all M 157
near behind us all M 157
new worlds to his M 156
new scheme to try M 156
new record is then M 156
new master to his M 156
new issues is not M 156
new forest is not M 156
new fields to our M 156
new effort of his M 156
new creation of that M 156
new clothes as they M 156
new building on one M 156
new attack on her M 156
net output is not M 156
net credit or net M 156
near future is how M 155
new spirit to his M 154
new spirit in man M 154
new master on his M 154
new edition of max M 154
new edition it was M 154
new changes in this M 154
new answer to that M 154
net profit on any M 154
near future is being M 154
new version in its M 152
new school in our M 152
new parent is not M 152
new models of this M 152
new matter or new M 152
new lesson in that M 152
new factor is now M 152
new creation in man M 152
new building or any M 152
net return on that M 152
net charge in each M 152
near future at all M 152
new writer to get M 150
new teacher in her M 150
new senses of old M 150
new rulers of his M 150
new owners of our M 150
new measure is not M 150
new indeed to see M 150
new duties in his M 150
new church on may M 150
net profit of its M 150
net profit in one M 150
net before he can M 149
new spirit in that M 148
new source of long M 148
new phases of this M 148
new methods to our M 148
new methods to new M 148
new matter in them M 148
new groups or new M 148
new factor of air M 148
new essays in this M 148
new energy to its M 148
new copies of his M 148
net effect on any M 148
net before it was M 148
net amount of our M 148
near future to hear M 148
near future as new M 148
near enough so you M 148
new shares so that M 147
near enough to aim M 147
new values of are M 146
new school is now M 146
new scheme to them M 146
new nature of things M 146
new family of man M 146
new family of kings M 146
new edition to add M 146
new crisis of his M 146
new creation on earth M 146
new creation in god M 146
new church or old M 146
net result of new M 146
net result in any M 146
net output in each M 146
net effect at all M 146
near enough to fly M 146
new groups so that M 145
new values in them M 144
new tricks to get M 144
new trends as they M 144
new spirit he had M 144
new sorrow do you M 144
new object of our M 144
new member is being M 144
new family to get M 144
new divine thing that M 144
new crisis in her M 144
new course in our M 144
new building at its M 144
new bottom in her M 144
net weight of its M 144
new system as long M 143
new design so that M 143
new values to things M 142
new system the old M 142
new scheme it was M 142
new reality of war M 142
new plants he had M 142
new orders do not M 142
new nature of god M 142
new masses of air M 142
new ground in being M 142
new church on its M 142
new chance to win M 142
new aspect of war M 142
net profit by net M 142
new bodies so that M 141
new values is not M 140
new trends in its M 140
new system of eating M 140
new system is for M 140
new strength as they M 140
new source of both M 140
new shares to pay M 140
new number in this M 140
new nature in them M 140
new manner of doing M 140
new fathers do not M 140
new emotion to him M 140
new edition to see M 140
new duties of his M 140
new course to his M 140
new charge is put M 140
new button to bring M 140
near future is low M 140
near future as one M 140
net effect of air M 139
new tricks up her M 138
new pieces in this M 138
new issues of new M 138
new forces in his M 138
new effort to end M 138
new copies of them M 138
new attack on our M 138
net profit in his M 138
near myself to say M 138
near hatred as that M 138
near future in both M 138
new wisdom is that M 137
new worlds in his M 136
new wonder in his M 136
new window on top M 136
new values to its M 136
new theories in this M 136
new source is not M 136
new routes or new M 136
new options as they M 136
new nature of man M 136
new models of both M 136
new member or new M 136
new ground of being M 136
new gospel to them M 136
new design or new M 136
new appears to them M 136
net return of six M 136
net result is low M 136
net assets in that M 136
new ground is that M 135
new clothes on that M 135
net effect on his M 135
new version of him M 134
new thought to his M 134
new methods in both M 134
new matter is set M 134
new issues of any M 134
new frames or new M 134
new forces of his M 134
new edition to bring M 134
new duties in may M 134
new disease in this M 134
new custom of eating M 134
new corpus of law M 134
new building of red M 134
new agents in this M 134
net result of being M 134
net effect on both M 134
near enough to beat M 134
new belief in one M 133
new worlds in our M 132
new visions of our M 132
new strength to act M 132
new states in its M 132
new spirit of things M 132
new reality in this M 132
new methods to fit M 132
new methods of dry M 132
new matter to that M 132
new friend to you M 132
new family as they M 132
new crises as they M 132
new clothes at this M 132
new church of that M 132
new centre of his M 132
new agency in its M 132
net weight of this M 132
net values of all M 132
net result in all M 132
net effect in all M 132
net charge in any M 132
near enough to two M 132
new methods of job M 131
new version in his M 130
new system in two M 130
new states in new M 130
new school it was M 130
new school in one M 130
new rights or new M 130
new pledge of our M 130
new person to his M 130
new passion of his M 130
new matrix is then M 130
new master of this M 130
new layers to its M 130
new ground by its M 130
new friend to get M 130
new forest is one M 130
new energy to that M 130
new energy in this M 130
new creation of things M 130
new clause in this M 130
new breeds of men M 130
new belief in its M 130
net return in each M 130
net effect on net M 130
net assets or its M 130
near before he was M 130
near future or for M 129
new worlds of our M 128
new verses of his M 128
new temple to them M 128
new temple is being M 128
new system of both M 128
new system by its M 128
new school of singing M 128
new rulers as they M 128
new pledge of his M 128
new phases of our M 128
new phases of being M 128
new person or new M 128
new person he had M 128
new occurs to you M 128
new methods to try M 128
new methods in its M 128
new methods in due M 128
new injury to his M 128
new edition is out M 128
new crisis in its M 128
new creation is being M 128
new building of our M 128
new brother at his M 128
new belief is not M 128
new babies as they M 128
near access to his M 127
new visions of man M 126
new theories of man M 126
new system to use M 126
new shapes as they M 126
new scheme he was M 126
new result in this M 126
new reality of her M 126
new plants at its M 126
new person to get M 126
new number of all M 126
new models to its M 126
new methods of both M 126
new medium in his M 126
new medium at all M 126
new master to buy M 126
new manner of man M 126
new lights on old M 126
new labour in may M 126
new ground in all M 126
new gospel is being M 126
new duties in new M 126
new clothes to her M 126
net losses in all M 126
net amount of one M 126
new supply of heat M 125
new record in that M 125
near middle of each M 125
new window if you M 124
new thought is being M 124
new system to run M 124
new system in any M 124
new starts of any M 124
new senses to old M 124
new rulers of this M 124
new routes to new M 124
new readers of his M 124
new plants to add M 124
new plants in his M 124
new models of our M 124
new methods to his M 124
new methods of heat M 124
new client is not M 124
new cities or new M 124
new belief in her M 124
net impact of both M 124
near future to this M 124
near future if this M 124
new syntax is that M 123
new market is that M 123
new ground so that M 123
new edition of red M 123
new demand is that M 123
new wonder in her M 122
new window is not M 122
new weight on his M 122
new thought of our M 122
new thought in them M 122
new theories as they M 122
new source of meat M 122
new source of bias M 122
new shares of any M 122
new plants in that M 122
new object to its M 122
new models of god M 122
new models is not M 122
new mission in this M 122
new member or two M 122
new medium is being M 122
new measure is being M 122
new ground by his M 122
new figure is not M 122
new fields in both M 122
new belief is that M 122
net weight of dry M 122
net profit in its M 122
near future as our M 122
near friend of you M 122
near enough in with M 122
near future in that M 121
new system by going M 120
new strength to them M 120
new strength to one M 120
new strain of this M 120
new stores to its M 120
new school we are M 120
new school on its M 120
new prison of his M 120
new powers in man M 120
new plants to our M 120
new matter in red M 120
new habits or new M 120
new groups in new M 120
new ground in how M 120
new friend of all M 120
new forces of law M 120
new fields is not M 120
new family of six M 120
new family in this M 120
new edition is all M 120
new creation to his M 120
new clothes as she M 120
new blessing or new M 120
net return to each M 120
net effect of non M 120
net effect of aid M 120
net effect in each M 120
near future to lead M 120
near enough to heat M 120
near future of his M 119
new window in his M 118
new temple is not M 118
new teacher or new M 118
new system to deal M 118
new states of our M 118
new pledge of its M 118
new plants in low M 118
new person of him M 118
new mothers as they M 118
new models in this M 118
new master is then M 118
new images of how M 118
new ground of his M 118
new fields to its M 118
new energy of its M 118
new chance is not M 118
new building of that M 118
new babies in our M 118
net result is far M 118
near future be put M 118
near future as this M 118
new spirit is that M 117
new models of man M 117
new family of two M 117
net return of ten M 117
new virtue in any M 116
new vessel on her M 116
new version of you M 116
new version it was M 116
new system at this M 116
new school at all M 116
new rulers do not M 116
new reasons to fear M 116
new phases of things M 116
new owners to pay M 116
new object by using M 116
new nature of war M 116
new member of one M 116
new images do not M 116
new habits on its M 116
new ground he had M 116
new feelings of joy M 116
new edition to his M 116
new doctor is not M 116
new desire to read M 116
new desire of man M 116
new colour to her M 116
new castle or his M 116
new castle is now M 116
new building on any M 116
new building of all M 116
new building at his M 116
new attack on its M 116
near future as you M 116
new methods of non M 115
near enough of kin M 115
new writer the one M 114
new volume of our M 114
new volume in his M 114
new theories is not M 114
new talent is not M 114
new system it has M 114
new strength in them M 114
new school on his M 114
new school of new M 114
new scheme so that M 114
new rights in that M 114
new reality is one M 114
new readers to his M 114
new powers of his M 114
new plants is not M 114
new phrase is not M 114
new number of his M 114
new nature in man M 114
new mission he was M 114
new market be not M 114
new excels the old M 114
new duties of this M 114
new dangers to our M 114
new clothes by her M 114
new cities of this M 114
new building to his M 114
new building on top M 114
new building of god M 114
near future by any M 114
new system of pre M 113
net profit on one M 113
new wholes of his M 112
new verses to old M 112
new values of this M 112
new values in its M 112
new trends or new M 112
new points as they M 112
new plants to try M 112
new phrase to our M 112
new homage in his M 112
new habits in them M 112
new groups in this M 112
new gospel of his M 112
new events do not M 112
new entity in its M 112
new energy as they M 112
new creation we are M 112
new clothes is not M 112
new building at one M 112
new belief in man M 112
net effect of doing M 112
near enough to man M 112
new church at new M 111
near pulled it off M 111
new system it may M 110
new strength to him M 110
new strength of fear M 110
new sounds or new M 110
new school in her M 110
new ordering of our M 110
new options in this M 110
new number to each M 110
new number is then M 110
new medium to its M 110
new limits on his M 110
new issues of our M 110
new issues in our M 110
new family in our M 110
new factor to our M 110
new energy to this M 110
new effort on our M 110
new creation to him M 110
new church as are M 110
new charge is then M 110
net supply of new M 110
net result of six M 110
near thereto as can M 110
near drowning in that M 110
near catching up with M 110
new church is that M 109
new version of man M 108
new values to one M 108
new values at each M 108
new theories of war M 108
new temple of his M 108
new stages of being M 108
new record so that M 108
new plants at each M 108
new person is going M 108
new ordering of his M 108
new nature of our M 108
new methods on his M 108
new methods in use M 108
new member at this M 108
new market on its M 108
new letter to his M 108
new issues in all M 108
new groups of his M 108
new ground or one M 108
new gospel to his M 108
new friend in new M 108
new friend at his M 108
new fields so that M 108
new family in her M 108
new edition so that M 108
new church on top M 108
new building is its M 108
near future in his M 108
new weight to this M 106
new volume in its M 106
new unless it was M 106
new system to pay M 106
new system of men M 106
new system is with M 106
new scheme in this M 106
new scheme in its M 106
new release of this M 106
new powers to use M 106
new pieces to add M 106
new person of you M 106
new orders to cut M 106
new orders as they M 106
new methods as his M 106
new member is then M 106
new medium as they M 106
new fields in this M 106
new effort in that M 106
new course it was M 106
new clothes of her M 106
new church on that M 106
net result of doing M 106
net losses in both M 106
net effect on her M 106
net charge at this M 106
near future do you M 106
new issues so that M 105
net effect of war M 105
near double the sum M 105
new writings by and M 104
new wisdom of its M 104
new victim of his M 104
new version of new M 104
new theories to fit M 104
new teacher to see M 104
new supply of meat M 104
new states to its M 104
new stages of real M 104
new source of his M 104
new reality of this M 104
new powers to set M 104
new person to them M 104
new person he has M 104
new forces so that M 104
new forces in this M 104
new fields to his M 104
new energy in our M 104
new effort to deal M 104
new claims or new M 104
new church is one M 104
new church is going M 104
new charge is not M 104
new candle in its M 104
new building on our M 104
new bodies of this M 104
new aspect to things M 104
new aspect to its M 104
new agency be set M 104
net output in this M 104
net changes in all M 104
net assets in this M 104
net assets at any M 104
near future to any M 104
new system of real M 103
net should be put M 103
new writings of his M 102
new volume to his M 102
new verses as they M 102
new system if you M 102
new supply of each M 102
new school of any M 102
new remedy is not M 102
new pieces of this M 102
new phrase in our M 102
new person to him M 102
new orders to all M 102
new orders or new M 102
new methods it was M 102
new methods is one M 102
new measure is that M 102
new market or for M 102
new lights in his M 102
new letter to him M 102
new friend in that M 102
new family to his M 102
new edition in its M 102
new disease is not M 102
new detail of his M 102
new design is then M 102
new demand of his M 102
new creation is going M 102
new course of its M 102
new course in her M 102
new building is set M 102
new building in east M 102
net should be set M 102
net result of not M 102
net profit in all M 102
net impact is not M 102
near enough to fix M 102
new supply of low M 101
new issues in that M 101
new crisis in that M 101
near offering up his M 101
new worlds as they M 100
new temple in his M 100
new system to bring M 100
new strength so that M 100
new spirit of its M 100
new source of real M 100
new source of job M 100
new proofs of god M 100
new priest in his M 100
new powers in his M 100
new nature of his M 100
new mission in that M 100
new methods to cut M 100
new member to pay M 100
new member to her M 100
new master is not M 100
new issues of that M 100
new images of his M 100
new honour of being M 100
new ground he has M 100
new gospel is not M 100
new family in its M 100
new events in our M 100
new errors of its M 100
new duties on may M 100
new demand is being M 100
new course to that M 100
new clothes or not M 100
new claims on his M 100
new building in our M 100
new building in all M 100
new agents do not M 100
net losses in its M 100
net effect of heat M 100
net charge of any M 100
near future of new M 100
near future in one M 100
near enough to leap M 100
near enough to doing M 100
new object so that M 99
new creation so that M 99
new worker in this M 98
new victim to his M 98
new tricks up his M 98
new system of any M 98
new supply is not M 98
new scheme is now M 98
new record in his M 98
new record by using M 98
new readers to read M 98
new phases in its M 98
new person he was M 98
new orders he had M 98
new mission in his M 98
new member of god M 98
new member he was M 98
new medium of his M 98
new horror in her M 98
new honors he now M 98
new ground if you M 98
new forces in its M 98
new family he has M 98
new family he had M 98
new engines of death M 98
new duties in this M 98
new design of going M 98
new clothes we had M 98
new clause in its M 98
new claims on her M 98
new access to his M 98
net result is you M 98
net profit is thus M 98
near future if she M 98
new plants of all M 97
new plants in all M 97
new member is one M 97
new volume of its M 96
new visions of things M 96
new version of die M 96
new values of any M 96
new thought of this M 96
new theories of this M 96
new talent or new M 96
new system as you M 96
new supply of them M 96
new spirit of that M 96
new scheme of war M 96
new scheme of this M 96
new result is not M 96
new powers as they M 96
new plants of that M 96
new pieces he had M 96
new phases of that M 96
new phases it may M 96
new measure of this M 96
new matter on its M 96
new images in his M 96
new horror is this M 96
new groups of non M 96
new garden is being M 96
new friend of this M 96
new friend he was M 96
new factor at this M 96
new clothes to get M 96
new center of being M 96
new authors in this M 96
new actors do not M 96
net effect so far M 96
net effect of real M 96
net effect of long M 96
net assets on its M 96
near twelve of our M 96
near future to ask M 96
new spirit of man M 95
new models of all M 95
new methods of law M 95
near points of use M 95
near killed me and M 95
new weight on her M 94
new values of our M 94
new values of both M 94
new trails in this M 94
new tactic to get M 94
new system the two M 94
new system is both M 94
new system in new M 94
new system he has M 94
new system at one M 94
new symbol in this M 94
new strength in all M 94
new source of that M 94
new rights do not M 94
new resort to war M 94
new plants to get M 94
new plants of any M 94
new pieces as you M 94
new owners or new M 94
new number of her M 94
new mothers in this M 94
new methods he has M 94
new masses in new M 94
new issues in new M 94
new format is that M 94
new figure in our M 94
new fields or for M 94
new edition or new M 94
new edition in his M 94
new drives on this M 94
new design is put M 94
new course to her M 94
new clothes of his M 94
new church in one M 94
net return of one M 94
net result is going M 94
net reaction is thus M 94
near enough to men M 94
near enough to cry M 94
new system to that M 93
new domain is that M 93
new values of his M 92
new trends do not M 92
new strength to deal M 92
new strength by its M 92
new source of its M 92
new school to get M 92
new school of song M 92
new proofs of old M 92
new prices so that M 92
new powers to both M 92
new owners of old M 92
new mothers to get M 92
new market in this M 92
new lights on his M 92
new ground on his M 92
new edition we are M 92
new edition of god M 92
new disease in our M 92
new design in its M 92
new charge is being M 92
new building at new M 92
new aspect of man M 92
new agents as they M 92
new actors in this M 92
net return in this M 92
net profit to pay M 92
net figure is then M 92
near should be dim M 92
near enough of his M 92
new creation is one M 91
new version to his M 90
new trends in all M 90
new talent is being M 90
new talent in his M 90
new tactic of using M 90
new system in use M 90
new symbol of this M 90
new states as old M 90
new spirit of law M 90
new proofs of them M 90
new plants to use M 90
new pieces to fit M 90
new owners to use M 90
new object of any M 90
new notice of its M 90
new nature in its M 90
new mission in new M 90
new methods to this M 90
new methods to them M 90
new methods of and M 90
new member is now M 90
new measure of things M 90
new limits on how M 90
new issues if they M 90
new images as they M 90
new groups to get M 90
new ground as she M 90
new friend if she M 90
new figure the new M 90
new engines of this M 90
new course or new M 90
new column is not M 90
new building we had M 90
new building the old M 90
new building it had M 90
new agents or new M 90
net profit at this M 90
net losses in any M 90
net impact of that M 90
near future to our M 90
near future in its M 90
new orders so that M 89
near future or are M 89
new volume by this M 88
new version of job M 88
new tricks is not M 88
new talent in him M 88
new system on top M 88
new symbol is but M 88
new strength of our M 88
new strength is not M 88
new source is being M 88
new powers to that M 88
new powers to put M 88
new powers to its M 88
new points in its M 88
new phases as our M 88
new object of its M 88
new moment in this M 88
new models in its M 88
new member to get M 88
new issues of his M 88
new guests as they M 88
new ground it was M 88
new ground by doing M 88
new gospel of death M 88
new friend he has M 88
new format is not M 88
new forces he had M 88
new editor of this M 88
new edition of war M 88
new edition of law M 88
new edition is one M 88
new creation he now M 88
new copies of each M 88
new clothes in this M 88
new cities he had M 88
new church to its M 88
new church or new M 88
new burden to bear M 88
new building to bring M 88
new branch to add M 88
new aspect on this M 88
net return to its M 88
net return to him M 88
net losses or net M 88
net assets in any M 88
near future is thus M 88
new teacher is that M 87
new lights or old M 87
new worlds to win M 86
new worker is being M 86
new weight to any M 86
new temple of our M 86
new teacher is going M 86
new system is yet M 86
new system is due M 86
new supply of any M 86
new states in any M 86
new states by its M 86
new sounds in his M 86
new shares do not M 86
new reasons to buy M 86
new readers do not M 86
new plants if you M 86
new phases in his M 86
new moment is not M 86
new images of them M 86
new figure in this M 86
new family is going M 86
new effort on his M 86
new duties to his M 86
new credit is not M 86
new creation of them M 86
new clothes or for M 86
new clothes in new M 86
new button to set M 86
new burden on them M 86
new agenda is not M 86
net losses in this M 86
net charge on that M 86
near future so they M 86
new fields is that M 85
new worlds of being M 84
new volume of old M 84
new system of old M 84
new system of low M 84
new system it had M 84
new system in each M 84
new strength of her M 84
new strength he had M 84
new street is being M 84
new strain on his M 84
new script is not M 84
new scheme of being M 84
new rulers of that M 84
new pieces as they M 84
new options in our M 84
new methods we are M 84
new master be any M 84
new masses of men M 84
new limits on its M 84
new instead of being M 84
new images or new M 84
new friend in one M 84
new family on his M 84
new duties on her M 84
new design of any M 84
new demand in this M 84
new colour to our M 84
new clothes to all M 84
new claims on its M 84
new church to hear M 84
new church as they M 84
new beside the old M 84
new authors do not M 84
net return at all M 84
net result at this M 84
net effect in any M 84
net changes in its M 84
near enough by this M 84
new layers of earth M 83
new volume in our M 82
new version of both M 82
new tricks to old M 82
new thought in all M 82
new talent in all M 82
new system is this M 82
new system as far M 82
new states on this M 82
new shapes of his M 82
new plants to bring M 82
new object to one M 82
new models to deal M 82
new models of being M 82
new methods to aid M 82
new market to buy M 82
new limits to its M 82
new friend in tow M 82
new friend in all M 82
new figure in his M 82
new family at this M 82
new factor in man M 82
new effect in each M 82
new effect at each M 82
new edition is its M 82
new duties on them M 82
new duties on his M 82
new detail to our M 82
new detail to add M 82
new desire to get M 82
new desire of his M 82
new damage to his M 82
new colour to this M 82
new clause is not M 82
new centre of that M 82
new building it has M 82
new building in any M 82
new bodies of our M 82
new authors of that M 82
new actions or new M 82
net result is but M 82
net result is all M 82
near future to all M 82
near future so long M 82
new writer on this M 80
new writer is not M 80
new worlds in all M 80
new volume or set M 80
new vessel is not M 80
new values to our M 80
new tricks to try M 80
new strength of its M 80
new states of that M 80
new states in our M 80
new shapes of men M 80
new school of non M 80
new owners to get M 80
new object in her M 80
new images of her M 80
new friend by his M 80
new fields to him M 80
new fiction of his M 80
new feelings in his M 80
new except in its M 80
new doubts in his M 80
new desire to bear M 80
new cities in new M 80
net return of all M 80
net result is they M 80
net profit is now M 80
net profit if you M 80
net profit he has M 80
net effect is this M 80
near object is not M 80
near future is far M 80
near future by new M 80
near future as its M 80
near enough to add M 80
near anyone of that M 80
new version of tcp M 72
near center of each M 68
near middle of head M 59
near normal in all M 58
new models so that M 57
net effect is nil M 57
new states in east M 56
near enough the end M 54
near enough the top M 52
new version so that M 51
new images of aging M 50
new version of com M 49
new trends in east M 48
new course so that M 48
net enough to pay M 48
net around it and M 48
new changes so that M 47
net effect of aging M 47
near carrying me off M 47
new states so that M 46
new source of non M 46
new effect is that M 46
new church so that M 46
net result is nil M 46
net profit is that M 46
new building on new M 45
near before he saw M 45
new worlds in pre M 44
net reaction is that M 44
new disease in that M 43
new course is that M 43
new course in east M 43
new trends in man M 42
new owners so that M 42
new member so that M 42
new entity so that M 42
new building of one M 41
near indeed to being M 41
near future no one M 41
near enough my age M 41
near enough in its M 41
new school is one M 40
new edition is long M 40
near enough in all M 40
near double to his M 40
net income or net D 20563
net income to net D 15450
new feature of this D 6236
new jersey to new D 5419
net income of all D 5276
net income of each D 4756
net income is not D 4692
new school of art D 4526
new feature is that D 3926
new feature in this D 3884
new weapons of war D 3274
new clothes to wear D 2636
net income of any D 2582
new jersey is not D 2422
new jersey is one D 2357
new jersey it was D 2186
new jersey or new D 1982
new jersey to see D 1898
new source of raw D 1858
new report on sex D 1846
new trends in art D 1735
new terror to death D 1570
net income in each D 1450
new edition of sir D 1408
new policy is not D 1342
new feature of our D 1308
net income of that D 1296
new feature in our D 1250
net income of this D 1246
net profit as per D 1220
net income in any D 1136
new scales of pay D 1094
net amount of tax D 1066
new version of dos D 1054
new colony of new D 1036
net income in this D 1032
net income is then D 999
new policy is that D 994
net income of one D 988
new feature in his D 982
new jersey he was D 978
net inflow of long D 976
new twists on old D 965
net income of his D 962
near enough to hit D 961
new jersey he had D 948
new skills as they D 934
new jersey at that D 924
new jersey do not D 920
new versus the old D 909
new skills or new D 904
net income of both D 900
new spirit in art D 898
new policy is being D 896
new jersey it has D 896
new skills so that D 890
new jersey to his D 878
new regime is not D 876
new jersey or long D 876
new titles as they D 874
new yorker in his D 860
new jersey in his D 856
new branch of art D 847
new system of tax D 844
new courts of law D 829
new source of oil D 826
new bundle of joy D 826
new styles of art D 817
new policy in this D 814
new facets of his D 790
net income to its D 778
new jersey is now D 772
new jersey on may D 770
new museum of art D 766
new section to read D 760
new jersey to get D 752
new jersey in this D 744
new jersey the new D 721
new jersey in may D 720
new column or row D 719
new skills to use D 716
new jersey in its D 712
near starving to death D 712
new outfit to wear D 702
new jersey at this D 700
new titles in this D 699
new yorker is not D 668
net income by net D 666
new feature of his D 662
new jersey is that D 646
new shares at par D 644
new office of war D 628
new museum in new D 628
net income in year D 610
new theories of art D 608
new regime in its D 608
new realism in sub D 600
net income so that D 598
new places to see D 596
near freezing to death D 592
new status of being D 588
new tissue is being D 580
new jersey in new D 574
net income of not D 564
new twists to old D 562
new policy of non D 558
new styles in art D 552
new section of this D 552
new jersey to two D 552
net income in that D 549
new supply of oil D 539
new findings in this D 534
new feature in that D 528
new strain of flu D 525
new vistas in our D 524
new flavor of ice D 523
net income of non D 520
new policy of not D 518
new bottle of ink D 512
new skills to deal D 506
net income in one D 506
new levies of men D 502
new jersey on his D 490
new manner in art D 486
new jersey so that D 482
net income in its D 482
new sphere of being D 480
new section of his D 480
new policy of his D 480
net income at all D 478
net income on its D 474
net income of its D 474
new system of art D 468
new jersey as far D 463
net income is that D 462
new sights to see D 442
new policy in his D 442
new shoots as they D 440
new jersey by way D 440
new regime it was D 436
new luster to his D 436
new series of his D 434
new status as one D 433
new labels on old D 428
new series of six D 426
new jersey or any D 424
new variant of this D 422
new regions in man D 422
new levels of being D 422
new policy in its D 418
new series of this D 417
new bishop of bath D 408
new source of tax D 404
new solace in her D 404
new skills if they D 402
new policy to deal D 396
new medium of oil D 394
new portion of his D 392
new jersey the law D 390
new places to put D 384
net income to his D 384
new sloops of war D 382
new jersey as they D 380
new jersey to pay D 374
new jersey as his D 374
net income to pay D 372
net income as per D 372
new tissue is not D 370
new policy of using D 368
net effect of tax D 365
new leaders do not D 364
new jersey to its D 364
new findings in long D 362
new jersey to that D 360
new regime is that D 356
new jersey to long D 356
new bodies of ore D 354
new feature in its D 352
new cantos of don D 352
new feature to our D 348
new section in this D 346
new leaders at all D 346
new feature to this D 346
new kitten or cat D 344
net income or its D 344
near enough to singe D 344
new theology is not D 342
new skills in this D 342
new weapons or new D 338
new bridge is being D 338
net inflow of new D 338
new office he was D 334
net income to each D 334
new series of ads D 330
new facets of her D 328
new methods of art D 326
new bishop of new D 326
new section of our D 324
new regime as they D 324
new version of art D 322
new jersey is too D 322
new feature in war D 322
net income do not D 322
net income of two D 320
new jersey in that D 319
new yorker in its D 316
new strain or sub D 316
new barrel of oil D 314
new supply of gas D 312
new jersey to this D 312
new jersey on its D 310
new houses do not D 308
new gospel of art D 308
new device is not D 308
new chapel of ease D 306
new opinion of his D 304
net income as they D 304
new vistas in this D 302
new regime of law D 302
new policy it was D 302
new jersey to buy D 302
new edition of fox D 302
new yorker of may D 298
new survey of all D 298
new skills is not D 296
new skills as you D 296
net income if they D 296
new jersey as one D 292
net income as and D 292
new version of mac D 290
new supply of raw D 290
new houses in new D 290
new vistas to him D 284
new regime in his D 276
new yorker of his D 274
new status is not D 274
new career or job D 273
new yorker of that D 272
new section on how D 272
net income is being D 272
new regime he was D 268
new novels at all D 268
new feature in her D 266
new charms in her D 266
new career he was D 264
new stanza to that D 262
new office in new D 262
new feature is not D 262
new bishop in his D 262
new series of all D 260
new portion of this D 260
new policy or for D 260
new feature to its D 260
new facets of this D 260
new series is not D 258
new portion of our D 258
new policy to its D 258
new jersey to use D 258
new nations is that D 257
new charge of gas D 256
new skills in real D 255
new values in art D 254
new palace of his D 254
new colony in new D 253
new bottle of gin D 252
new houses or new D 250
new houses in this D 250
net income is set D 250
net income in all D 250
new yorker or new D 248
new tension in his D 248
new status in this D 248
new skills so they D 248
new section is not D 248
new scenes of art D 248
new places as they D 248
new palace he had D 248
new windings of its D 246
new policy or new D 246
new pieces of art D 246
new jersey to her D 246
new jersey on this D 246
new jersey in one D 246
new jersey at its D 246
net income to her D 244
new station in that D 242
new player in this D 242
new office he had D 242
new yorker in new D 240
new places in our D 240
new yorker in may D 238
new nations of this D 238
net income to get D 238
net estate of any D 238
new series of long D 236
new nations do not D 236
net income or any D 236
new yorker in her D 234
new terror in her D 234
new slants on old D 234
new jersey to bring D 234
new career in real D 234
new jersey as its D 232
neat diddle is this D 232
new lyrics to old D 228
net income is now D 228
new section in its D 226
new jersey by his D 226
new device is this D 226
new spending or tax D 225
new sphere of its D 224
net income to all D 224
neat answer to this D 224
new spouse is not D 222
new findings do not D 222
new findings as they D 222
new section is being D 220
new nations as they D 220
new houses of this D 220
new facets of our D 220
new career to him D 220
net income of six D 220
net income is thus D 220
net income in both D 220
new yorker on his D 218
new lodges at any D 218
new vistas in his D 216
new office is not D 216
new methods of sex D 216
new leaders of our D 214
new skills in new D 212
new fields of art D 212
new yorker he had D 210
new theology in our D 210
new bounce in his D 210
net income by using D 210
near frozen to death D 209
new titles to old D 208
new jersey to try D 208
new feature to his D 208
net income of real D 208
net income is too D 208
new weapons in its D 206
net income is low D 206
new series of two D 205
new layers of ice D 205
new shoots do not D 204
new ribbon in her D 204
new status in his D 202
new riders if you D 202
new policy to his D 202
new layers of mud D 202
new flower in her D 202
new career in new D 202
new section in his D 200
new realism in art D 200
new places or new D 200
new jersey is being D 200
new fashion in art D 200
new colony or two D 200
new bruise on his D 200
net income is one D 200
new medium of art D 199
new yorker the new D 198
new policy at all D 198
new person he met D 198
new jersey at all D 198
new series of low D 197
new yorker to get D 196
new yorker he was D 196
new titles to his D 196
new terror to his D 196
new station is being D 196
new jersey to run D 196
new series of war D 195
new weapons to use D 194
new troops as they D 194
new series of one D 194
new section to its D 194
new section of its D 194
new luster to its D 194
new jersey to put D 194
new device of his D 194
new bishop on his D 194
net export of long D 194
new yorker to his D 192
new wheels to our D 192
new traits of his D 192
new temple of art D 192
new series of things D 192
new menace to his D 192
new houses on that D 192
new balsam to his D 192
new findings is that D 191
new vistas to our D 190
new skills to get D 190
new jersey if you D 190
new jersey at one D 190
net income in his D 190
new fields of oil D 189
new sphere of his D 188
new houses to let D 188
new colony in that D 188
new bishop of that D 187
new jersey so far D 186
new device is being D 186
new yorker as one D 184
new regime to bring D 184
new regime in this D 184
new plateau in his D 184
new levels of both D 184
new comers as they D 184
new career in his D 184
new yorker at that D 182
new skills he had D 182
new feature of its D 182
new fashion of art D 182
new device in his D 182
net income on his D 182
net income of ten D 182
new skills do you D 180
new series of air D 180
new series is that D 180
new series he was D 180
new jersey is going D 180
new houses in all D 180
new tracts of earth D 178
new sparks of old D 178
new luxury to him D 178
new yorker is one D 177
new status of this D 176
new player at his D 176
new jersey to set D 176
new comers to this D 176
new career at age D 176
net inflow of aid D 176
net income by its D 176
new school in art D 175
new tattoo on his D 174
new series is being D 174
new regime is going D 174
new jersey to sir D 174
new career he had D 174
new nations is not D 172
new livery to see D 172
new feature at this D 172
new bridge is now D 172
new policy is going D 170
new jersey on one D 170
new jersey in her D 170
new theaters of war D 168
new spelling of his D 168
near doubling of its D 168
new policy of this D 166
new height in his D 166
new device of head D 166
new career in this D 166
new budget is not D 166
net income on net D 166
new jersey the day D 165
new ribbon on her D 164
new realism is not D 164
new policy is put D 164
new leaders in both D 164
new jersey to any D 164
new gloves in his D 164
new charms to his D 164
new career in law D 164
new aspect of art D 164
net income be not D 164
near choked to death D 164
new vistas to them D 162
new tension in her D 162
new survey of this D 162
new status in her D 162
new skills do not D 162
new mosque in new D 162
new jersey of its D 162
new fashion of using D 162
new comers to our D 162
new weapons as they D 160
new vistas to his D 160
new status as head D 160
new spirit of zeal D 160
new series of its D 160
new series of art D 160
new section on using D 160
new leaders in this D 160
new jersey at new D 160
new bottle of rum D 160
net income to him D 160
net income on this D 160
new decree of our D 158
new bounce in her D 158
net inflow of air D 158
new variant of that D 156
new policy as one D 156
new palace he was D 156
new opinion as one D 156
new notions of his D 156
new lodges we are D 156
new leaders of this D 156
new jersey of all D 156
new folder in this D 156
new findings of this D 156
new courts of his D 156
new therapy is not D 154
new tender of his D 154
new station in new D 154
new spirit of art D 154
new series of kings D 154
new policy on this D 154
new museum of new D 154
new jersey my dear D 154
new jersey in mid D 154
new device to beat D 154
new charms to age D 154
new career of his D 154
new regime in that D 153
new shoots in its D 152
new series of ten D 152
new realism in its D 152
new policy he had D 152
new museum is being D 152
new jersey tea and D 152
new facets of its D 152
new edition of tom D 152
new colony of his D 152
new chapel in may D 152
new budget is being D 152
new bridge on that D 152
net income is net D 152
neat edition of this D 152
new yorker on may D 150
new vistas to her D 150
new styles as they D 150
new skills in using D 150
new policy on his D 150
new novels by top D 150
new nations of our D 150
new jersey to ask D 150
new feature in each D 150
new regions of this D 148
new policy is now D 148
new legate to act D 148
new jersey to act D 148
new genres of art D 148
new brands or new D 148
net savers to net D 147
new policy of aid D 146
new patent is not D 146
new opinion of him D 146
new levies of this D 146
new jersey at age D 146
new feature to her D 146
new bundle of all D 146
new folder so that D 145
new yorker in this D 144
new snares of death D 144
new policy is one D 144
new policy in that D 144
new houses is not D 144
new growths in this D 144
new fields in art D 144
new feature of her D 144
net buyers or net D 144
new worlds of art D 142
new regime is being D 142
new planet in our D 142
new outfit or two D 142
new notions of how D 142
new flower it has D 142
new feature in mac D 142
new drafts of men D 142
net income the net D 141
new twists to this D 140
new titles or new D 140
new portion of its D 140
new policy he was D 140
new levels of fear D 140
new bridge is not D 140
new series of new D 139
new volume of gas D 138
new version of asp D 138
new tariff or non D 138
new regime if they D 138
new regime he had D 138
new jersey to say D 138
new jersey in two D 138
new houses in that D 138
new bishop to his D 138
new allies in his D 138
net number of ions D 138
net income of our D 138
net income of her D 138
neat greeting the new D 138
new yorker is that D 137
new estate in fee D 137
new edition of bis D 137
new station is not D 136
new shoots of this D 136
new section on this D 136
new methods of tax D 136
new frolic is this D 136
new dialect of new D 136
new device is that D 136
new device in this D 136
new courts to deal D 136
new yorker to see D 134
new weapons do not D 134
new skills at all D 134
new series by new D 134
new levels of joy D 134
new jersey of his D 134
new height in this D 134
new fisher of men D 134
new empire in that D 134
new comers do not D 134
new canons of art D 134
net amount of gas D 134
new styles of singing D 133
new status is that D 132
new skills in his D 132
new novels as they D 132
new levies as they D 132
new jersey to hear D 132
new jersey the year D 132
new jersey in all D 132
new issues of tax D 132
new colony he was D 132
new bishop in with D 132
net section of any D 132
new diocese of new D 131
near allied to earth D 131
new sparks by day D 130
new settings do not D 130
new jersey to end D 130
new jersey is but D 130
new feature on this D 130
new comers in this D 130
new colony to men D 130
new chapel in that D 130
net income is due D 130
net amount of oil D 130
neat edition of them D 130
new source of ore D 129
new weapons is not D 128
new weapons in our D 128
new vicars of any D 128
new jersey is due D 128
new inmate of his D 128
new flower in his D 128
new findings or new D 128
new colony in this D 128
new charms to her D 128
new bridge at this D 128
neat chapel of ease D 128
near enough to fling D 128
new weapons of this D 126
new regime in new D 126
new places to buy D 126
new leaders as they D 126
new jersey or that D 126
new insult to her D 126
new impost to put D 126
new fashion of being D 126
new edition of art D 126
net income as that D 126
new yorker at all D 125
new methods of gas D 125
new yorker of new D 124
new troops he was D 124
new status of his D 124
new series of that D 124
new scenes or new D 124
new palace of art D 124
new folder is now D 124
new feature of all D 124
new dressing up this D 124
new colony is not D 124
net section is not D 124
net income as its D 124
neat feature is that D 124
new system of gas D 123
new charge of ore D 123
new vistas of his D 122
new series of non D 122
new scenes of being D 122
new rights to sue D 122
new regime to deal D 122
new portion of that D 122
new methods of oil D 122
new kindle the war D 122
new influx of men D 122
new ground in art D 122
new elites in old D 122
new campus is being D 122
net amount of vat D 122
new office of bear D 121
new yorker to read D 120
new temper is not D 120
new skills he has D 120
new section of that D 120
new section in our D 120
new section at end D 120
new organs or new D 120
new office in his D 120
new jersey as long D 120
new insult by any D 120
new houses as they D 120
new feature of that D 120
new career at this D 120
new skills in all D 118
new policy or law D 118
new menace to our D 118
new jersey to one D 118
new jersey on her D 118
new jersey in any D 118
new jersey by its D 118
new graces on her D 118
new empire of his D 118
new dealers in his D 118
net inflow of real D 118
net income to this D 118
net income in two D 118
net around the bed D 117
new skills to his D 116
new review of east D 116
new regime as one D 116
new policy in may D 116
new office is one D 116
new jersey he met D 116
new houses in our D 116
new folder if you D 116
new comedy of his D 116
net outlay of near D 116
net income by that D 116
net income as you D 116
neat feature of this D 116
new nations of east D 115
new weapons of death D 114
new status as you D 114
new settings in new D 114
new series of tax D 114
new section to deal D 114
new ribbon on his D 114
new regime the old D 114
new regime of old D 114
new policy to all D 114
new pinions to her D 114
new object of art D 114
new manner of art D 114
new labels on them D 114
new jersey to bid D 114
new glints of his D 114
new allies to his D 114
net income at that D 114
new castes or sub D 113
new yorker as his D 112
new titles to its D 112
new tenant the rod D 112
new stones in its D 112
new section is now D 112
new policy of our D 112
new places he had D 112
new motive to his D 112
new jersey is for D 112
new jersey if they D 112
new growths of all D 112
new feature is being D 112
new facets to his D 112
new device to get D 112
new device or new D 112
new career as one D 112
net torque is not D 112
net income to that D 112
new states of sub D 110
new spouse do not D 110
new policy in our D 110
new places to get D 110
new nations in this D 110
new motive by him D 110
new lyrics to fit D 110
new leaders of both D 110
new grouping of old D 110
new feature is its D 110
new empire on its D 110
new demand is met D 110
new carpet in his D 110
new bruise on her D 110
new tribes of men D 108
new survey of his D 108
new status as god D 108
new skills to add D 108
new series is now D 108
new section to this D 108
new regime on its D 108
new policy to get D 108
new policy at that D 108
new planet to our D 108
new office of dean D 108
new office is being D 108
new career is not D 108
new allies in its D 108
net debtor to net D 108
near enough to fee D 108
new feature in all D 107
near wearied me with D 107
new vistas of our D 106
new styles of being D 106
new source of gas D 106
new patent in this D 106
new nations is one D 106
new jersey no yes D 106
new jersey it may D 106
new holder of that D 106
new graces to her D 106
new county to one D 106
net profit of per D 106
new yorker by his D 104
new weapons he had D 104
new uprising is not D 104
new survey of them D 104
new styles or new D 104
new skills or for D 104
new skills in both D 104
new series of them D 104
new regions of our D 104
new regime is now D 104
new outfit of men D 104
new office of his D 104
new growths of this D 104
new comers to her D 104
new comedy is not D 104
new colony at new D 104
new centre of art D 104
net income as are D 104
new regime in all D 103
new houses so that D 103
new troops he had D 102
new survey of any D 102
new skills in her D 102
new sinews of war D 102
new section of her D 102
new section is that D 102
new portion of her D 102
new leaders or new D 102
new houses in and D 102
new hotbed of war D 102
new findings on how D 102
new facets of old D 102
new facets of each D 102
new design of car D 102
net income on all D 102
neat circle of red D 102
new yorker it was D 100
new troops in that D 100
new traits in his D 100
new styles do not D 100
new statue of our D 100
new recipe to try D 100
new reality of art D 100
new places in his D 100
new places do not D 100
new phases of art D 100
new office to deal D 100
new luster to her D 100
new laurel to his D 100
new french king was D 100
new fashion of her D 100
new facets to our D 100
new emblem of his D 100
new decree is not D 100
new career to his D 100
net influx of ions D 100
net effect on tax D 100
new system of oil D 99
new policy so that D 99
new weapons in his D 98
new trades or for D 98
new titles to add D 98
new sloops to get D 98
new shouts of joy D 98
new pilots to fly D 98
new painting in his D 98
new jersey to deal D 98
new jersey to aid D 98
new hordes of men D 98
new bridge of one D 98
new ballet he was D 98
net upshot is that D 97
net section at pin D 97
new titles in his D 96
new theology is that D 96
new scenes of each D 96
new realism in his D 96
new office so that D 96
new models of car D 96
new methods in art D 96
new jersey as being D 96
new houses in his D 96
new fashion is not D 96
new colony on its D 96
net income on each D 96
new skills to real D 95
new yorker in ten D 94
new weapons so that D 94
new titles to our D 94
new status of its D 94
new status in our D 94
new scenes to his D 94
new policy of being D 94
new policy of any D 94
new plateau in our D 94
new menace to its D 94
new leaders of that D 94
new jersey to and D 94
new jersey an act D 94
new hotels in new D 94
new growths do not D 94
new device or idea D 94
new chapel he was D 94
new bridge at that D 94
net inflow or net D 94
new jersey the two D 93
new yorker at this D 92
new variant of his D 92
new troops of all D 92
new terror of death D 92
new tariff is not D 92
new status of our D 92
new status he was D 92
new source of fun D 92
new skills to fit D 92
new regime is one D 92
new policy as being D 92
new parish in that D 92
new nations in our D 92
new luster to our D 92
new lesions do not D 92
new leaders to deal D 92
new jersey of two D 92
new houses of all D 92
new fashion in this D 92
new edition of dean D 92
new device is now D 92
new creation in art D 92
new comedy in its D 92
new chorus of our D 92
new chapel is being D 92
new chapel he had D 92
new yorker do not D 90
new terror to her D 90
new survey of our D 90
new station is now D 90
new ribbon to his D 90
new policy to bring D 90
new policy at this D 90
new places to try D 90
new parish of our D 90
new jersey to win D 90
new jersey the tax D 90
new grouping of men D 90
new fashion of going D 90
new empire he had D 90
new driver is not D 90
new colony of one D 90
new colony it was D 90
new charms in his D 90
new chapel in his D 90
near across the heath D 90
new yorker to say D 88
new yorker to buy D 88
new styles of head D 88
new sluice to let D 88
new skills is one D 88
new sights in earth D 88
new shrine of our D 88
new series of our D 88
new series of being D 88
new quilts is not D 88
new legions go out D 88
new leaders of his D 88
new jersey is doing D 88
new houses on both D 88
new fashion of his D 88
new edition of jean D 88
new device he had D 88
new chapel of our D 88
new bridge in its D 88
new allies in this D 88
new tattoo on her D 86
new styles in his D 86
new skills or use D 86
new section to his D 86
new regime or not D 86
new regime of dun D 86
new realism of his D 86
new palace to that D 86
new minted an old D 86
new jersey of any D 86
new jersey by this D 86
new fillip to his D 86
new feature of being D 86
new colony as they D 86
new charms to that D 86
new alloys or new D 86
new yorker or any D 84
new washer is not D 84
new vistas to all D 84
new usages of old D 84
new supply of ice D 84
new strand is not D 84
new status he had D 84
new skills to earn D 84
new satire of his D 84
new regime in any D 84
new porter go for D 84
new palace in his D 84
new growths is not D 84
new gaiety of her D 84
new facets of that D 84
new epochs is yet D 84
new debtor in his D 84
new colony of this D 84
new ballad of his D 84
net income or not D 84
net income it can D 84
near menace as his D 84
new feature of war D 83
new yorker is meat D 82
new yorker at its D 82
new vistas to you D 82
new twists to his D 82
new station he was D 82
new skills in our D 82
new pinions to joy D 82
new pastor in his D 82
new palace is being D 82
new openings to them D 82
new office in this D 82
new museum is not D 82
new levies to all D 82
new labels to old D 82
new jersey at any D 82
new inmate of her D 82
new heresy in art D 82
new genera of this D 82
new findings of his D 82
new feature or two D 82
new empire to his D 82
new device to bring D 82
net income it was D 82
near enough to lean D 82
near allies in any D 82
new series do not D 80
new regions of art D 80
new regime in may D 80
new policy of its D 80
new policy in any D 80
new office at this D 80
new motive is thus D 80
new levies of raw D 80
new levels in this D 80
new jersey it had D 80
new jersey at his D 80
new houses or for D 80
new findings on this D 80
new embryo is not D 80
new colony in its D 80
new bounce to her D 80
new bishop is not D 80
new apples of that D 80
net section of each D 80
net income at any D 80
net income as may D 80
new methods of ore D 62
new shoots so that D 61
new powers to tax D 57
new policy of all D 54
new dealers do not D 53
net income be for D 51
new folder to add D 50
new regime so that D 49
new places so that D 49
new yorker in that D 48
net income to tax D 46
new policy of one D 44
new jersey on new D 42
new series of law D 41
new status of non D 40
new skills is that D 40
near enough to ram D 40
near choked on his D 40
