next two or three M 140445
need not go into M 75186
need not be made M 74312
need all the help M 59243
need not be told M 52008
next day we were M 48591
need not be said M 46146
need say no more M 45644
next day he went M 41147
need not be very M 39831
need not be used M 39688
next day we went M 37303
need not be more M 36852
need you to help M 30696
need not be true M 29272
next and the next M 28836
need not be done M 26320
next day he came M 24437
next two to three M 23100
need not be seen M 23092
need you to tell M 21629
next day he sent M 20711
need not be here M 20524
need you to come M 18565
next day the same M 15810
need not go back M 15737
need not be much M 14258
need not be kept M 13946
need you to take M 12824
need not be held M 12308
need for the kind M 11566
next day he told M 10605
need two or three M 10364
need for the other M 9993
next year it will M 9798
next day we left M 9730
next meal is coming M 9590
need not be gone M 9564
need for the next M 9454
next day at dawn M 9335
need not be lost M 9332
next day to find M 9220
next day he left M 9157
next year we will M 9113
need not be great M 9082
next day the wind M 9033
next day he made M 8944
next day he said M 8895
next year he went M 8390
need not be sent M 8072
next day we came M 7958
need not be over M 7856
need not be tied M 7770
need you so much M 7723
next day we made M 7686
need not be able M 7470
need you to stay M 7448
need you to make M 7423
next day to make M 7378
need not be dealt M 7214
need not be such M 7140
need for so many M 7078
need one or more M 7029
need not be only M 6973
need for the same M 6922
next day to take M 6900
need not be left M 6818
need for an early M 6801
next day he gave M 6558
need them the most M 6400
next year he will M 6361
need not so much M 6304
need not do more M 6293
need for the most M 6280
need for the more M 6269
need not go over M 6213
need for the work M 6172
next day at work M 6144
need not be part M 6106
next day the young M 6037
next year the same M 6034
need you to keep M 5834
need not be high M 5780
next day the army M 5774
need one of these M 5700
need was so great M 5495
need one of those M 5346
need for the user M 5222
need all of these M 5202
need not be less M 5170
need not to have M 5164
need you to find M 5098
need you to sign M 5084
need you to know M 5013
need you to give M 5010
next year he made M 5005
next day the three M 4970
need for an open M 4968
need for so much M 4953
need not be like M 4807
next day to tell M 4800
need not be zero M 4772
need for the rest M 4702
next year we find M 4600
need not be dull M 4544
next day to have M 4508
need not be just M 4450
need you to look M 4386
need you to hold M 4384
need for the type M 4310
need all the time M 4238
next day we heard M 4174
next day to meet M 4086
next day he died M 4058
next leg of their M 3962
need not be there M 3918
need two or more M 3775
need for the full M 3772
need for the trip M 3750
next man in line M 3744
need any of these M 3737
next day as well M 3711
next day the ship M 3678
next day he will M 3650
need mean no more M 3528
need not be laid M 3495
next one in line M 3457
need not be self M 3412
next day he felt M 3343
next two to five M 3282
next day to give M 3274
need you to call M 3224
need not be from M 3223
need for an army M 3202
need you to talk M 3168
next year as well M 3083
next day at three M 3056
next day the other M 3028
need not go away M 3028
next year he came M 3018
need for the best M 3002
next day the city M 2994
need not go very M 2992
next two to four M 2983
need not in fact M 2975
need you to work M 2968
need for the rule M 2876
next day the body M 2810
need not be those M 2782
next day the boys M 2776
need them to help M 2774
next day the girl M 2749
next day he heard M 2740
need not be what M 2736
next year he died M 2722
next day it will M 2716
need him to help M 2716
need for an even M 2713
need not be even M 2682
next year he sent M 2664
need you as much M 2634
need for the time M 2580
need fear no evil M 2579
next set of data M 2572
need for the data M 2568
need him to tell M 2564
next day to look M 2562
need all of your M 2554
next day at four M 2546
need you to show M 2534
next day the town M 2531
need not be good M 2482
need all the rest M 2473
next day to come M 2462
need for an ongoing M 2453
need was to find M 2411
need all the luck M 2385
need fear no fall M 2358
need not be open M 2346
need for the test M 2333
need for the help M 2330
need for the union M 2319
next day the rain M 2310
need for the word M 2280
next day to pick M 2276
need not be angry M 2273
need for the good M 2251
need them as much M 2242
next year we hope M 2235
next day the great M 2231
need that we have M 2228
next day the lord M 2224
need for an ever M 2201
need for the sort M 2190
need for the great M 2169
next day to talk M 2166
need you to fill M 2154
need add no more M 2154
next one to three M 2149
next year to make M 2144
need not be full M 2139
need not be well M 2137
need not be your M 2126
need them to make M 2124
need for the bank M 2105
need for the third M 2086
next day or next M 2074
need not be rich M 2056
need for the very M 2030
need for the young M 2028
need for the high M 2003
next day or even M 2000
next and the last M 1990
need for the coming M 1968
need you to stop M 1962
need for the army M 1949
next year he gave M 1948
need now be said M 1942
need not be worn M 1941
need not go down M 1925
need now is some M 1922
need any of your M 1921
need him so much M 1918
need all the good M 1917
need for as much M 1914
need all the more M 1912
need for the book M 1910
next year or more M 1902
next day to join M 1896
need and the means M 1896
next day to help M 1890
need not be felt M 1889
need for the early M 1885
need for as many M 1883
need not be heavy M 1874
need you to pick M 1865
need any of those M 1856
next year or next M 1840
need now to look M 1836
need two to three M 1829
need for the term M 1824
need you the most M 1822
need for the body M 1796
next one to come M 1790
next let us look M 1780
need for the three M 1767
next day in their M 1762
next year to take M 1742
next let us take M 1737
need for the self M 1734
need not go there M 1731
need for the city M 1726
need not to know M 1722
next day in time M 1720
need not be pure M 1711
need one of your M 1710
next day the four M 1703
next year or even M 1695
need for an anti M 1686
need not be cast M 1675
next day at five M 1671
next day at nine M 1669
next day we will M 1652
next day as soon M 1652
need not be idle M 1646
next day the rest M 1642
next day it came M 1634
next year to have M 1628
need for the land M 1623
need for the free M 1620
need not be free M 1616
next year we have M 1612
need you to teach M 1610
next day or week M 1604
need not be boring M 1590
need you to send M 1576
need for the love M 1575
need him the most M 1558
need her to help M 1558
next year the town M 1557
need you to love M 1546
need not be time M 1538
need not be heard M 1529
need them to keep M 1517
next year we were M 1506
need not be born M 1506
need for it will M 1503
next year he left M 1500
need for an ideal M 1496
next six to nine M 1480
need for the item M 1450
need not be many M 1445
need for an heir M 1444
need fear no more M 1440
next day the last M 1436
next let us turn M 1434
need you to meet M 1434
need you to think M 1420
need you to have M 1416
need and no more M 1409
next day we sent M 1406
next day the work M 1406
need not be deep M 1398
need not go here M 1395
need for the last M 1390
need both of these M 1389
need you to play M 1380
need for the care M 1378
need not be poor M 1376
need them so much M 1374
next day the pain M 1371
next day the main M 1370
next day the lady M 1364
next day he says M 1360
need all of those M 1360
need you to leave M 1357
need for an over M 1355
next day to call M 1354
need not be hard M 1353
next day he fell M 1346
need him as much M 1336
next day the poor M 1323
next day the union M 1321
need for the west M 1308
need her to tell M 1307
next set to work M 1306
next day he held M 1296
next day we find M 1294
next day on their M 1294
need for the lord M 1293
need not be their M 1290
need pay no more M 1289
need was to make M 1272
next day to their M 1256
need for the many M 1256
need her so much M 1248
need not go home M 1244
next day to thank M 1242
need all of their M 1236
next day to show M 1234
next day the snow M 1219
next day to work M 1208
need and the need M 1206
next day to learn M 1200
next year the city M 1191
need them to work M 1190
need you at home M 1186
next with the same M 1177
nest with the young M 1172
need them to tell M 1170
need for the truth M 1152
next one as well M 1129
need not be shut M 1128
need you up here M 1122
next day he woke M 1120
need was to have M 1120
need for the health M 1119
need for the holy M 1106
need her as much M 1102
next day at their M 1098
need now to turn M 1098
need and to make M 1096
need them no more M 1091
next day to reach M 1090
need you to open M 1087
need not go hand M 1087
nest for the young M 1084
need for the baby M 1082
need for the home M 1076
next day we have M 1074
need for the plan M 1074
need you to speak M 1064
need for my work M 1064
need not be single M 1063
next day to leave M 1060
need you to move M 1060
need him to take M 1058
next year the young M 1052
need you to pull M 1052
next day he must M 1048
need not be ugly M 1042
need now to make M 1038
need ask no more M 1036
need say the less M 1027
next year is worth M 1024
need for the poor M 1024
next day to send M 1022
need him to come M 1018
next set of three M 1009
need fear no harm M 1008
next year we must M 1004
nest and the young M 1002
next day he kept M 1000
need but to look M 984
next leg of your M 972
need for the male M 972
next day by some M 970
need not be some M 970
need not be five M 969
need and the other M 968
need not be wrong M 960
next day at half M 952
need can be seen M 948
need all the love M 934
need not be clear M 933
need for the food M 931
next day the bank M 930
need not to speak M 926
need not do much M 926
nest and the male M 922
next day the road M 920
need for it when M 920
need that is felt M 919
need god to help M 914
need them in their M 910
need not at once M 908
next one to five M 905
next year the great M 902
next bit of code M 900
need them in your M 900
need him to make M 900
need was to keep M 877
next year to help M 874
need not to make M 874
need was as great M 870
need for the life M 870
need for the role M 866
need for the road M 862
next year he lost M 860
need for the south M 860
next and the most M 854
need not be cold M 851
need you in here M 848
next day to lord M 838
need for an item M 838
need all the room M 836
need and the more M 834
need all my wits M 833
next day at home M 831
need and to help M 828
next year to give M 826
need you to pray M 824
need can be made M 820
next for the same M 818
need not be anti M 818
need and the cost M 812
next day the gale M 806
need for the theory M 805
next day the post M 804
next year we went M 802
need you to step M 802
need you or your M 802
need for an ally M 799
need you to turn M 798
next day to keep M 796
need for the heavy M 795
next day in great M 794
need you to save M 794
next set of four M 790
need you to walk M 784
need for the means M 784
need and the time M 777
need her to come M 776
next year to meet M 774
next year it fell M 774
need you no more M 769
next day to sign M 766
need them to know M 765
need for the week M 765
need for the trial M 761
need them to take M 760
need not to lose M 756
need and be able M 752
need not be three M 749
need not go till M 747
next day the good M 746
need for the mass M 743
need you to back M 742
need not to take M 742
need and the most M 742
need not go much M 741
need all the food M 740
next day we gave M 732
need not on these M 732
need may be more M 730
need two to four M 727
need him to keep M 726
need you be told M 719
need then is there M 719
need for it also M 719
need them to give M 712
next day the baby M 710
need and we will M 708
need now is more M 705
next day the fire M 704
need not go from M 701
need and the will M 700
next that we have M 696
need all the data M 693
need and in what M 683
next year or five M 675
need and the duty M 673
need now to take M 670
need for me here M 670
need for the mind M 666
need fear no such M 665
need you to wait M 660
need not be other M 660
next year the work M 658
need not to give M 658
need not to think M 656
need not be among M 656
next man to come M 652
need them at home M 652
need air to live M 651
need for the vast M 650
need and the best M 643
next day to speak M 642
next day to teach M 640
need two of these M 640
need not be away M 640
next day in some M 638
need pay no heed M 638
need them to live M 635
next way to draw M 634
next day the case M 634
need not go more M 623
need and to give M 622
need not to tell M 621
next was the most M 619
need for the past M 618
next year he said M 616
need him in some M 616
need for the line M 616
need not to look M 614
need for the healing M 614
next day to play M 610
need not go along M 609
need them to stay M 608
next day to some M 606
need for an other M 606
next year we plan M 602
need bear in mind M 597
next day to break M 596
need not be living M 595
need not be evil M 594
need her at home M 594
next day the third M 592
next day the five M 592
need all the other M 590
next was to come M 589
next try to find M 589
next two or more M 586
need him at home M 583
next day to seek M 580
next day to move M 580
nest and the other M 578
need for the main M 577
next day we held M 576
need you to calm M 576
need and to have M 574
need not be wide M 572
need may be felt M 572
next can be used M 570
next year the last M 568
need and the fact M 567
next day we said M 566
need them to have M 566
need and the lack M 565
next year the name M 564
next day he sees M 564
need then to look M 562
need not be eaten M 560
next day we kept M 558
need not be back M 558
next day the high M 556
need but to take M 556
need and it will M 556
need for the living M 555
need now to speak M 554
need not do what M 554
need for the left M 553
next day to view M 552
next day it went M 552
need for the form M 552
need and we have M 552
need for the exam M 551
next day by their M 548
need for the unit M 548
need for the case M 548
need not to feel M 546
nest and the food M 545
need all we have M 545
next day the most M 542
need for it must M 541
next day the word M 540
need for the post M 540
next was to make M 536
next day in case M 534
need not be slow M 534
need did he have M 534
next day he knew M 532
need for the girl M 531
nest may be used M 530
need for the prior M 528
need you to join M 526
need for the game M 526
need for the four M 526
need for us here M 524
need you to wake M 522
need for the gift M 522
next year to keep M 520
need not be sick M 520
next ten or more M 519
next year to find M 518
need for it here M 517
next year to work M 514
next and the more M 511
next day he laid M 510
need you to live M 507
need not be torn M 507
need not be loud M 507
need not be upon M 500
need her to make M 500
need for the leave M 500
need for the true M 499
next year the rate M 498
next year to come M 496
next day to stay M 496
need for the open M 496
next and so forth M 494
need and no room M 493
need not be hurt M 492
next day he gets M 490
need for no more M 490
need for the wide M 489
next was in these M 486
need see no more M 485
next day he brings M 484
need any thing more M 483
next day the bird M 482
need them to come M 482
need for the play M 480
need not be ours M 479
need not be dark M 479
next day to pass M 478
next day he lost M 478
need now is your M 478
need her to take M 478
next end if next M 477
need not be making M 477
need you to care M 475
need for the huge M 475
next year as part M 474
next way to make M 474
need you to feel M 474
next day the leading M 471
need not be half M 469
need for the hard M 469
next day to know M 468
need that to make M 468
need for the well M 466
need not be fair M 465
need for the making M 465
next day the said M 464
need this as much M 464
need and the type M 464
next day we woke M 462
need them as well M 461
need for the text M 461
next day he also M 460
need him to give M 460
need was to learn M 459
need and he will M 459
next year the army M 458
next year is very M 458
next day of their M 458
next day the trial M 456
next day the full M 456
need not be prior M 455
next one we will M 454
need you to push M 454
need that he felt M 454
next man to take M 452
nest two or three M 452
need you to drop M 452
next year it went M 450
next year he told M 450
next day we fell M 448
next day the youth M 446
need not be face M 446
need them on your M 444
next day we must M 442
need you to clear M 442
need him to know M 442
next day at early M 440
need not be acting M 440
need for the heart M 439
next year he also M 438
next day to fill M 438
need you so very M 438
need was to know M 438
need you to just M 437
nest all the time M 436
need was to give M 436
need fear no other M 436
need all my time M 436
need men to help M 435
need them to find M 434
need not be rare M 434
need for the single M 433
next one on your M 432
need you to clean M 432
need than the other M 432
next year if there M 430
next year the union M 428
nest and the bird M 428
need and to take M 428
need and the ways M 428
next day to open M 427
next day or hour M 427
need for it were M 425
need for the ideal M 424
next day the line M 422
need you to draw M 422
next day we told M 420
need read no more M 420
next day we knew M 418
next day to rest M 418
need them at some M 418
need are the same M 418
need was the same M 417
next year to some M 416
next one is coming M 416
next day my lord M 416
need you up there M 415
next was the same M 414
next day in good M 414
need all the land M 413
next and the other M 412
need for the north M 411
next day it fell M 410
next day if there M 410
need and the kind M 410
next let me know M 409
need not be fast M 407
next one to speak M 406
next day in full M 406
need was the most M 405
need for the less M 405
next day the next M 404
need now to move M 404
need out of life M 403
need for the host M 403
next year the other M 402
need not be life M 402
need for the move M 402
need for the rich M 401
need now to find M 400
need air as well M 400
next one to take M 398
next day to hunt M 398
need not be fire M 396
next day to clear M 395
need out of your M 395
need now be made M 394
need for the name M 393
next day by saying M 390
need now to know M 390
need now to have M 390
next year he fell M 388
need them as soon M 388
need that in your M 388
need may be most M 388
need him to stay M 388
need for the site M 388
need all the care M 387
need her to stay M 386
need for the fire M 386
next day of work M 384
need and the great M 383
next set of five M 382
need him to work M 382
need you in there M 381
need hear no more M 381
next year it came M 380
next day to clean M 380
next day an hour M 380
need each of these M 380
need and the same M 380
next year the land M 378
need use no other M 378
need not be work M 378
need for the hero M 378
need for the code M 378
need not be ideal M 377
need not be huge M 377
next one or more M 376
need not be ready M 375
need for the mask M 374
need for my help M 374
next year to reach M 372
next one of these M 372
next day the door M 372
next day he used M 372
need not be male M 372
need not in such M 370
next day the only M 369
next year to teach M 368
need one thing more M 368
need for the ongoing M 368
next day to think M 366
next day to sell M 366
next day or some M 366
need not to come M 366
need him to hold M 366
need for an exit M 366
next one is from M 364
next day to wait M 364
need was to take M 364
next year at home M 362
nest for the next M 362
need for the youth M 361
need was the more M 360
need can be used M 360
next two as well M 358
next nor the next M 358
nest may be made M 358
need may be less M 357
next year the three M 356
next year or some M 356
next year in their M 356
need her the most M 356
need and the hope M 356
need not be best M 355
next with my life M 354
need you to kill M 354
need was the need M 354
need them or want M 354
need for the cell M 354
next and the third M 353
next year of your M 352
next day to face M 352
next boy in line M 352
need now to think M 352
need does he have M 352
next year he must M 348
need him to find M 348
need both to make M 348
next year to send M 346
need them to hold M 346
need one of their M 346
need not be young M 345
need for the call M 345
next day the sick M 344
next day the band M 344
need for the ship M 344
need for the jobs M 344
next job is coming M 342
need for the base M 341
next two in line M 340
need out of their M 340
need not go many M 339
need not be same M 339
need for it from M 339
next year to look M 338
need wit to know M 338
next one as soon M 336
next day in arms M 336
next day at high M 336
need him to show M 336
need her to keep M 336
need for an ether M 336
need for the part M 335
next day we take M 334
need run no risk M 334
need for the slow M 334
need and we must M 334
next year to join M 332
next day we felt M 332
next day to walk M 332
next day the vice M 332
need with the help M 332
need was to break M 332
need that is most M 332
need not be along M 332
need and the role M 332
need this to make M 331
next year he held M 330
next was to take M 330
next day the pair M 330
need for the boys M 330
need and to find M 330
next day by three M 329
next was to give M 328
need for the clear M 327
next day the cold M 326
need are the ones M 326
need for the faith M 324
next one to have M 322
next day to bury M 322
need not be bent M 321
need for the show M 321
next how to hire M 320
next day the plan M 320
need them to show M 320
need her to work M 320
need for the wise M 320
need for the peace M 319
need for an able M 319
next day in making M 318
need now to give M 318
need all the same M 318
need not go just M 317
need not be trying M 317
need not be ones M 317
next one to fall M 316
need was to gain M 316
need them at last M 316
need now is rest M 316
need them to look M 314
next day to turn M 312
need and in their M 312
need for the anti M 311
next year the line M 310
need you to pass M 310
need him to look M 310
need but to turn M 309
next day he adds M 308
nest with the same M 308
need for it among M 308
need for an arms M 308
next year of life M 306
next one is born M 306
need than the need M 306
need one to three M 306
need and the wish M 306
need not be shed M 305
need may be seen M 305
next day the south M 304
next day is also M 304
next day as part M 304
need may be very M 304
next let us note M 303
next one to make M 302
next are the same M 302
need for the five M 302
next day in town M 301
next day to hold M 300
need him to have M 300
need for it during M 299
next year is only M 298
next day to draw M 298
nest and the nest M 298
need you to break M 298
next day on what M 296
need not be wise M 296
need for the safe M 296
need for the flow M 295
need for it there M 295
need all the self M 295
next two or four M 294
next day the name M 294
next day the holy M 294
next cut is made M 294
need you to need M 294
need now is time M 294
next may be more M 293
need for the deep M 293
next with the other M 292
next one is also M 292
need them to think M 292
need for the cost M 292
need and the only M 292
need that the book M 291
need not be vain M 291
need for as well M 291
next man to speak M 290
need them to feel M 290
need and in deed M 290
next was the great M 289
need not be union M 289
next year or years M 288
next six or nine M 288
next day the hall M 288
next day of what M 288
nest and the laying M 288
need you to kiss M 288
need not be also M 288
need him no more M 287
next try to show M 286
next day by means M 286
next day as many M 286
need them at once M 286
need for the fast M 286
need for the birth M 286
next year in your M 284
next was to find M 284
need not be saying M 284
need not be bleak M 284
need and to keep M 284
need that no other M 283
next was to send M 282
next let us find M 282
next day we lost M 282
next day the very M 282
next day at some M 282
next are the three M 281
need not be sure M 281
next day an even M 280
need not be home M 280
need men to work M 279
next that he will M 278
next did the same M 278
next day at your M 278
next can be seen M 278
nest may be seen M 278
next day in what M 277
need this to keep M 277
need men of your M 277
next year to sell M 276
next was at work M 276
next can be made M 276
need her to know M 276
need for the leading M 276
need and the size M 276
need nor the time M 275
need and the urge M 275
next year the bank M 274
next with the help M 274
next bit of work M 274
nest can be made M 274
need not be four M 274
need for the size M 273
next year the plan M 272
next day the north M 272
next day of seeing M 272
nest for the bird M 272
need this in your M 272
need not to talk M 272
need not be when M 272
need him to talk M 272
need for the hand M 272
need for it ever M 272
need and the work M 272
need god to give M 271
need for the saving M 271
next set of ideas M 270
need and to seek M 270
need you to baby M 269
need with the same M 269
need one to make M 269
need not as such M 269
need and the love M 269
next year he laid M 268
next day the kids M 268
next day in fact M 268
next day in cold M 268
need you as well M 268
need them to fill M 268
need for the sign M 268
need all the faith M 266
need was the only M 265
need was so much M 265
need two or even M 264
need and in fact M 264
need and the longing M 263
need him in your M 262
need both to give M 262
next day by those M 260
next day at mass M 260
nest can be seen M 260
need that the play M 260
need for the will M 260
need for the town M 259
next was the last M 258
next job in line M 258
next day or days M 258
need but to have M 258
next year the third M 257
need and of what M 257
next was the turn M 256
next one is more M 256
next day as early M 256
need not to seek M 256
next had to face M 255
need for the pain M 255
need for the much M 255
need for it even M 255
need and the call M 255
next year the most M 254
next day he wore M 254
next bit of text M 254
need you in their M 254
need them to talk M 254
need not to care M 254
next year we made M 252
next one to leave M 252
next one is ready M 252
next day the tree M 252
next day he wept M 252
need one to help M 252
need not be nice M 252
need for the file M 252
next day or else M 251
need not be moving M 251
need for it more M 251
next year of their M 250
next read to your M 250
next day or when M 250
next day in high M 250
next day he asks M 250
need them in case M 249
next day to kill M 248
need you to feed M 248
need was to hold M 248
need was to help M 248
need not be mine M 248
need god to tell M 248
next day the sixth M 247
need both of those M 247
next year we want M 246
next year on their M 246
next way to their M 246
need was no less M 246
need that as well M 246
next one to four M 244
nest for an hour M 244
need you to want M 244
need not the help M 244
need not be wary M 243
need not be meant M 243
need air to grow M 243
next year in high M 242
next has no date M 242
next day he hears M 242
next bit of data M 242
need you at your M 242
need that the work M 242
need for the room M 242
need any of their M 242
next year an even M 241
next day of trial M 240
next day he sets M 240
next day by four M 239
need and as such M 239
next put on their M 238
next day or soon M 238
need all at once M 238
need then be made M 237
need that we feel M 237
next for the term M 236
next day we leave M 236
need then to make M 236
need them to grow M 236
need for the link M 236
need both of your M 236
need was to come M 235
need him in their M 235
need for the taking M 235
next year in some M 234
next one is just M 234
next day or month M 234
next day it grew M 234
need them to play M 234
need him to play M 234
need god in their M 234
next year as soon M 232
next year an army M 232
next was to have M 232
next big thing will M 232
nest for the last M 232
need them on their M 232
need one to take M 232
next are the four M 231
next way to turn M 230
next day to pray M 230
next day on page M 230
next day he just M 230
nest for my young M 230
need you to lend M 230
next day to town M 229
need may be used M 229
next year to play M 228
next one is made M 228
need you to learn M 228
need ask no other M 228
need not be fine M 227
next man to whom M 226
next day we come M 226
next day to those M 226
next day in your M 226
need not be into M 226
need both to keep M 226
next day the half M 225
need with my good M 225
need not do away M 225
need and the goal M 225
next that we were M 224
next day at such M 224
next day as having M 224
need can be more M 223
next ten or even M 222
next set of code M 222
next day the food M 222
next day the book M 222
need them to learn M 222
need for the fifth M 222
next are the most M 221
next year to show M 220
next year he says M 220
next one is very M 220
next day no less M 220
need you to swear M 220
need them to move M 220
need not be late M 220
need for the fine M 220
need both to have M 220
need and to show M 220
next may be very M 219
need that the other M 219
need now to learn M 219
need not be asking M 219
need for the step M 219
next year in time M 218
next way to give M 218
next day we laid M 218
need you to slow M 218
need then be said M 218
need for the gods M 218
next all the more M 217
need for the down M 217
need does it fill M 217
need and to meet M 217
next year is also M 216
next year he used M 216
next one in your M 216
next day in taking M 216
need not be clean M 216
need god in your M 216
need for the said M 216
need that is more M 215
need not go even M 215
need and to whom M 215
next year to form M 214
next year the main M 214
next for the case M 214
next day to live M 214
next day on some M 214
next day at port M 214
next and the same M 214
need not to seem M 214
need can be very M 214
need and to what M 214
need not at length M 213
next year the cost M 212
next day the list M 212
next can be done M 212
need this so much M 212
need them to feed M 212
need that to keep M 212
need her to look M 212
need for the sick M 212
next year by three M 211
need and be sure M 211
next man to make M 210
next day to your M 210
next day to what M 210
next day the test M 210
next day the left M 210
next day he come M 210
nest with the other M 210
need you to wash M 210
need you to reach M 210
need them to teach M 210
need him to sign M 210
need you to sell M 209
need not to deny M 209
need for my life M 209
need and the plan M 209
next year by some M 208
need for the core M 208
need and to work M 208
next had to find M 207
next year in case M 206
next meal to come M 206
next day an army M 206
need and of their M 206
need that we find M 205
need six or more M 205
need for the length M 205
next one to open M 204
next let me tell M 204
next day the monk M 204
next day he puts M 204
need you to like M 204
need for the rise M 204
next was the fact M 203
next day the heavy M 203
need was to stop M 203
need this to help M 203
need for the risk M 203
need fear no loss M 203
next day the mail M 202
next day the game M 202
next day the bell M 202
next day by making M 202
next day by lord M 202
need was to save M 202
need was to move M 202
need not to show M 202
need not go forth M 202
need for the reading M 202
need for the face M 202
need for so great M 202
need for my trip M 202
need for it grew M 202
need one to know M 201
need for the meaning M 201
need and so forth M 201
need and in some M 201
next year to move M 200
next year he kept M 200
next that is heard M 200
next one is even M 200
next day the land M 200
next day in such M 200
need this be done M 200
need not to stop M 200
need for the list M 200
need may be even M 199
need for the hearing M 199
next year the case M 198
next was to step M 198
next day by having M 198
next and the rest M 198
need one to keep M 198
need for it came M 198
next year the road M 197
need god to make M 197
need for the range M 197
need for no other M 197
next year to open M 196
next year the tree M 196
next son in line M 196
next one by means M 196
next may be used M 196
next does the same M 196
next day to port M 196
next day the call M 196
next day of some M 196
need things to make M 196
need then is some M 196
need and as much M 196
need not be kind M 195
need and the worth M 195
next year by more M 194
next man we meet M 194
next day the more M 194
next day by taking M 194
next day by giving M 194
next and he said M 194
nest was the only M 194
need you to type M 194
need not be meek M 194
need nor the means M 194
need her to talk M 194
need for it have M 194
need this as well M 193
need that we must M 193
need now to keep M 193
need and be ready M 193
next year no less M 192
next for the other M 192
next day to lady M 192
next day the dogs M 192
next day it died M 192
need them to save M 192
need men in their M 192
next day the host M 190
next boy or girl M 190
next and the three M 190
nest one or more M 190
need that is very M 190
need one as well M 190
need her to sign M 190
next and in what M 189
need not to work M 189
need god the most M 189
next day to push M 188
next day the talk M 188
next day the moon M 188
next and in some M 188
need you to shut M 188
need you to hand M 188
need two of those M 188
need them or their M 188
need that as much M 188
need not be keen M 188
need him to teach M 188
need for the kids M 188
next one is mine M 187
need for the rate M 187
next year the north M 186
next year on your M 186
next year as there M 186
next day the unit M 186
next day the play M 186
next day the heads M 186
next and the only M 186
next and it will M 186
need not in these M 186
need not in most M 186
need not be taking M 186
need her to have M 186
need and at risk M 186
nest was so well M 185
need and no time M 185
next that he must M 184
next set of songs M 184
next day to dawn M 184
next day the room M 184
next day the note M 184
next day he fled M 184
next day an evil M 184
need one as much M 184
need not in their M 184
need him to call M 184
need for the lost M 184
next day the rash M 183
need not be worth M 183
need all the ideas M 183
next year the peace M 182
next year or when M 182
next day the maid M 182
need out of here M 182
need now be done M 182
need men to take M 182
need for the back M 182
need but to think M 182
next was so fast M 181
need not be down M 181
need fear to hold M 181
next one of those M 180
next day we meet M 180
next act we find M 180
nest with as much M 180
need ten or more M 180
need not be next M 180
need for the rare M 180
need and at what M 180
next day to plan M 179
next year at their M 178
next day to drop M 178
next day the fish M 178
need you to lift M 178
need that to know M 178
need for it just M 178
need for id will M 178
need fear no lack M 178
need for the warm M 177
need both to take M 177
next year it made M 176
next year be able M 176
next year as much M 176
next that the same M 176
next day as saying M 176
need you or want M 176
need for the axiom M 176
next day by post M 175
need that we know M 175
need for the seed M 175
need for the dream M 175
need for an ending M 175
need but to know M 175
need and to those M 175
next year to learn M 174
next year he felt M 174
next may be made M 174
next day to save M 174
next day in view M 174
need them in some M 174
need them at high M 174
need nor the wish M 174
need for the cold M 174
next day the flag M 173
need was to talk M 173
need one thing from M 173
need not be vast M 173
need for the ideas M 173
next year the best M 172
next one in turn M 172
next day he buys M 172
need them to meet M 172
need not to wait M 172
need not to leave M 172
need not be truth M 172
need not be holy M 172
need can be said M 172
need and the rest M 172
next let us pass M 171
next going to take M 171
need may be made M 171
next war it will M 170
next two we will M 170
next one the same M 170
need was to reach M 170
need put up only M 170
need are the kind M 170
next year in book M 169
need not do such M 169
next year to seek M 168
next set on fire M 168
next day to form M 168
next day my lady M 168
next day by nine M 168
next are the only M 168
nest that the bird M 168
need may be great M 168
need him to love M 168
need for the spring M 168
need all the edge M 168
need two of your M 167
need her no more M 167
need for the ever M 167
need and we know M 167
need and if there M 167
next year to their M 166
next year is more M 166
next day we cast M 166
next day the rich M 166
need you in your M 166
need him to speak M 166
need for the pure M 166
need for it only M 166
need all the work M 166
need all the hope M 166
next day the show M 165
need not be love M 165
need for the goal M 165
next year the book M 164
next set of moving M 164
next day to warn M 164
next day to stop M 164
next day he quit M 164
next day as there M 164
need men to make M 164
need him or want M 164
need her to show M 164
need both of their M 164
next day by more M 163
next war we have M 162
next set of test M 162
next day the truth M 162
next day the nest M 162
next day it left M 162
next day at what M 162
next age it will M 162
nest for the baby M 162
need was to work M 162
need her to give M 162
need fear the loss M 162
next see in what M 161
need for the years M 161
need for the arms M 161
next year to three M 160
next year to live M 160
next day to sort M 160
next day he grew M 160
next day by five M 160
need you at once M 160
need was to meet M 160
need then to have M 160
need them to stop M 160
next odd or even M 159
next can be very M 159
need was to feel M 159
need for the hour M 159
need for the fair M 159
need can be your M 159
need but no more M 159
need all my self M 159
next was the only M 158
next day so many M 158
next day in open M 158
need one so much M 158
need men as much M 158
need him as well M 158
need for the wild M 158
next saw the dark M 157
need use no more M 157
need now be told M 157
need not go deep M 157
need not be soft M 157
need for the threat M 157
next year to hold M 156
next year in view M 156
next year as like M 156
next that it will M 156
next set my mind M 156
next kid in line M 156
next day we learn M 156
next day the mate M 156
next day the hunt M 156
next day he even M 156
next day at city M 156
need that the lord M 156
need for the ether M 156
need and the good M 156
need all the aids M 156
need not be ever M 155
next year the rest M 154
next year or ever M 154
next one we have M 154
next day it must M 154
nest for the rest M 154
need you to hide M 154
need them to walk M 154
need for the wood M 154
need for the only M 154
need for the dark M 154
need fear to face M 154
need bring no more M 154
next year is less M 153
need then to know M 153
need not to fall M 153
need and in part M 153
need all the warm M 153
next one to talk M 152
next day we three M 152
next day my face M 152
need them so soon M 152
need that so many M 152
need him to gain M 152
need fear to lose M 152
need are the most M 152
need any thing else M 152
next for the less M 151
next day the free M 151
need yet to learn M 151
need and the form M 151
need all the anti M 151
next year to fill M 150
next year it gave M 150
next see the duty M 150
next meal is eaten M 150
next day on your M 150
next day it said M 150
need was to show M 150
need not be warm M 150
need him to stop M 150
need for the note M 150
need for or lack M 150
next try to make M 149
need for the fact M 149
need for an ocean M 149
next year to pass M 148
next man to fall M 148
next for the next M 148
next day to gain M 148
next day the sons M 148
need may be said M 148
need may be just M 148
need him to feel M 148
need her to love M 148
need for the beach M 148
need for me even M 148
next year the south M 147
need and so much M 147
next year to stay M 146
next year he heard M 146
next one by seeing M 146
next day to plead M 146
need you to blow M 146
need them as part M 146
need not so have M 146
need not in theory M 146
need for the loss M 146
next day as much M 145
need was to clear M 145
need for an acid M 145
need are in your M 145
next year or three M 144
next year as many M 144
next day to test M 144
next day to hand M 144
next day by asking M 144
nest with the bird M 144
need you to sort M 144
need not be early M 144
need for the port M 144
need for the month M 144
need for the clean M 144
need and to their M 144
need not be busy M 143
need but to cast M 143
need both to know M 143
need and do what M 143
next try the same M 142
next that we heard M 142
next one to move M 142
next one is sent M 142
next day we make M 142
next day we just M 142
next day to miss M 142
next day it made M 142
next day is just M 142
next day in tears M 142
next day he shut M 142
next day an angry M 142
nest and the rest M 142
need not do these M 142
need her to hold M 142
need god to show M 142
need for as great M 142
need but be said M 141
next one to pass M 140
next for the chop M 140
next day we only M 140
next day we also M 140
next day to fall M 140
next day my host M 140
next day in jail M 140
need then to take M 140
need them to love M 140
need than to love M 140
need than in other M 140
next year the ship M 138
next year it sent M 138
next year is good M 138
next year by taking M 138
next war to come M 138
next day we move M 138
next day he reads M 138
next and my last M 138
nest was so deep M 138
need this to work M 138
need not be aged M 138
need him to pick M 138
need and the ideal M 138
need two to five M 137
need them to open M 137
need than the very M 137
need not to learn M 137
need and the deed M 137
next year to push M 136
next was the mass M 136
nest that is made M 136
nest and the tree M 136
need them to reach M 136
need him to move M 136
need and the help M 136
need now to tell M 135
need now to show M 135
need not to fail M 135
need for the late M 135
need for the break M 135
need for or even M 135
need all or some M 135
next way to break M 134
next let us make M 134
next kin to nothing M 134
next day to file M 134
next day the weary M 134
next day the seed M 134
next day on those M 134
need you my help M 134
need you as soon M 134
need with the most M 134
need was to seek M 134
need this to give M 134
need him to pull M 134
need god to keep M 134
need for the need M 134
next day the fifth M 133
nest for the word M 133
need for the giving M 133
next year by four M 132
next war as well M 132
next for the last M 132
next day an open M 132
next act of their M 132
need you to warm M 132
need you on your M 132
need was in part M 132
need and no other M 132
need and in many M 132
next and the time M 131
need one to tell M 131
need now to seek M 131
need not be most M 131
need not be bare M 131
need for the hunt M 131
next that we wish M 130
next set of poems M 130
next for the rest M 130
next day to reading M 130
next day is very M 130
next day as their M 130
need them the next M 130
need that he must M 130
need not to rely M 130
need for the tree M 130
need and the want M 130
next day the west M 129
need and the high M 129
next year he quit M 128
next day to pull M 128
next day to other M 128
next day to feed M 128
next day the dream M 128
next day my poor M 128
next day my name M 128
next day he meant M 128
next bit of good M 128
next and to make M 128
nest near the edge M 128
need you to treat M 128
need you to grab M 128
need was the main M 128
need one of three M 128
need him to save M 128
need him in here M 128
need for the verb M 128
need for my care M 128
need but go back M 128
next had to take M 127
need not be hand M 127
next year the high M 126
next way to work M 126
next two or even M 126
next one to drop M 126
next one is used M 126
need them to call M 126
need now is just M 126
need all the peace M 126
need with so many M 125
need that in turn M 125
need not to break M 125
need not be live M 125
need for an aids M 125
need and the hour M 125
next year is much M 124
next set of runs M 124
next day or what M 124
next day is more M 124
next day in most M 124
next and we will M 124
nest can be used M 124
nest and the care M 124
need use the same M 124
need that is only M 124
need one or other M 124
need now to work M 124
need not to pray M 124
need him up here M 124
need her to find M 124
need god to open M 124
need for the ready M 124
need for as high M 124
need for an axiom M 124
need but the need M 124
next year the time M 123
next saw we dread M 123
need than the rest M 123
need god to come M 123
need but it also M 123
next year the lord M 122
next year or less M 122
next war we will M 122
next one to give M 122
next day to five M 122
next day to burn M 122
next day the male M 122
next day the huge M 122
next day by reading M 122
next area to look M 122
next act we have M 122
need was as much M 122
need not go wrong M 122
need not be these M 122
need for the over M 122
need for my book M 122
need fear to come M 122
need but to call M 122
need all the means M 122
next using the same M 121
need was to open M 121
need that we were M 121
need not be wild M 121
need for the sons M 121
need can be best M 121
need air to burn M 121
next year we lost M 120
next year the list M 120
next year it must M 120
next year is over M 120
next year by adding M 120
next for so much M 120
next day we tied M 120
next day to lake M 120
next day the sign M 120
next day the move M 120
next day the best M 120
next day in many M 120
need was at hand M 120
need them to like M 120
need six of these M 120
need one at your M 120
need not to move M 120
need not so many M 120
need not be coming M 120
need may be much M 120
need him to fill M 120
nest two or more M 119
need then to think M 119
need for the laying M 119
need for the cure M 119
need for the bare M 119
need fear to meet M 119
need and the meaning M 119
next year we came M 118
next year to four M 118
next year if your M 118
next year by what M 118
next led to think M 118
next day the time M 118
next day in trying M 118
next day by what M 118
next day by heavy M 118
nest with the food M 118
nest that we have M 118
need things to fire M 118
need them to need M 118
need that so much M 118
need than to have M 118
need not be giving M 118
need her to play M 118
need for the tour M 118
need can be felt M 118
need all the breath M 118
next year the four M 117
next with the left M 117
need for the shop M 117
need for the lady M 117
need for an hour M 117
need and to plan M 117
need and the very M 117
need all the best M 117
next year the poor M 116
next year the odds M 116
next six or more M 116
next set of maps M 116
next one in their M 116
next day the fall M 116
next day the fair M 116
next day is when M 116
need you to jump M 116
need was to turn M 116
need was to feed M 116
need was at last M 116
need them to sign M 116
need them to send M 116
need not to hurt M 116
need not he told M 116
need her as well M 116
need can be done M 116
need and the like M 116
next day or ever M 115
need not be blue M 115
need for the caring M 115
need and it must M 115
next year we learn M 114
next year so many M 114
next year in what M 114
next year by their M 114
next one to show M 114
next day the lake M 114
next day or during M 114
need them to draw M 114
need that the meaning M 114
need not do great M 114
need let me know M 114
need has the same M 114
need for the pair M 114
need for it been M 114
need but to will M 114
need are so great M 114
nearing one of these M 114
next seat to mine M 113
next day the hour M 113
next and at what M 113
need that it will M 113
need not do their M 113
need for the cake M 113
need for my next M 113
need and the risk M 113
need and the lust M 113
need all the eyes M 113
next year the only M 112
next year it grew M 112
next year is just M 112
next year in jail M 112
next was to call M 112
next day we used M 112
next day to wash M 112
next day the home M 112
next day the fine M 112
next day at lord M 112
next and we have M 112
need you to file M 112
need them or when M 112
need one if your M 112
need not be acid M 112
need may be best M 112
need god to save M 112
need for no less M 112
need both of food M 112
need all the young M 112
need with the need M 111
need not the same M 111
need not he made M 111
need not go ahead M 111
need her to live M 111
need for the soft M 111
need for the depth M 111
need and to fill M 111
next year to grow M 110
next year to five M 110
next year the loss M 110
next year or during M 110
next year in such M 110
next year as their M 110
next one is able M 110
next day the site M 110
next day the mine M 110
next day he runs M 110
next ask to what M 110
nest with my hand M 110
nest for the same M 110
nest and the next M 110
need was to teach M 110
need was to draw M 110
need was so dire M 110
need was in fact M 110
need them up here M 110
need them to pick M 110
need them in time M 110
need one in your M 110
need now is good M 110
need not to push M 110
need not or even M 110
need may be only M 110
need has to seek M 110
need for us ever M 110
need but to open M 110
next year the west M 109
next year in north M 109
need not he said M 109
need not be during M 109
need both to live M 109
need all the wits M 109
next year to fall M 108
next year the boys M 108
next year is made M 108
next year if nothing M 108
next year as having M 108
next one is laid M 108
next day my feet M 108
next day is like M 108
next beat it must M 108
next area of your M 108
nest and to feed M 108
need you to warn M 108
need six to nine M 108
need not in many M 108
need him at once M 108
need ask no odds M 108
need and the less M 108
next year be more M 107
next try to draw M 107
need you to book M 107
need for the root M 107
next year he fled M 106
next two in size M 106
next set of bits M 106
next one to find M 106
next day to urge M 106
next day to treat M 106
next day in peace M 106
next and to have M 106
nest near at hand M 106
need was to form M 106
need them to form M 106
need that is also M 106
need now is less M 106
need both to feel M 106
need both be wary M 106
next was to turn M 105
next day in three M 105
need that the body M 105
need not be text M 105
need fear no threat M 105
need are at your M 105
need and to some M 105
need and in turn M 105
need and by their M 105
next year to save M 104
next one to look M 104
next one at home M 104
next day to blow M 104
next day the hearing M 104
next day my eyes M 104
need you to lock M 104
need then be used M 104
need one or even M 104
need for it having M 104
need and the ruin M 104
need and the ones M 104
next day the mass M 103
next day the anti M 103
next day my mind M 103
need with the best M 103
need now to send M 103
need not do even M 103
need not be data M 103
need him to live M 103
need for me there M 103
need and we need M 103
need and the pain M 103
need and is able M 103
next year to over M 102
next year the good M 102
next year or else M 102
next year or early M 102
next with the more M 102
next one in time M 102
next job as soon M 102
next fix is coming M 102
next day the shop M 102
next day by other M 102
next day at great M 102
next and be ready M 102
need this to find M 102
need them to pull M 102
need them to kill M 102
need for the rush M 102
need for the days M 102
need can be most M 102
need buy no more M 102
need but to name M 102
need but is also M 102
need and the range M 102
next day by half M 101
nest with the male M 101
need was at once M 101
need that is just M 101
need one to teach M 101
need not so soon M 101
need and the uses M 101
need and the true M 101
next year the full M 100
next year in good M 100
next meal is more M 100
next man of note M 100
next day to shop M 100
next day the heart M 100
next day the blue M 100
next day the blow M 100
next day or make M 100
next day of your M 100
next day no more M 100
next day he cast M 100
next bit of time M 100
next bear in mind M 100
next and he will M 100
nest with the help M 100
nest out of reach M 100
need you to steal M 100
need them we will M 100
need them in here M 100
need that to tell M 100
need not be poets M 100
need not be once M 100
need fear to take M 100
need fear no want M 100
need and we were M 100
next was as much M 99
need now is food M 99
need for the side M 99
need for my health M 99
next year or month M 98
next year in other M 98
next year in fact M 98
next year by means M 98
next year as last M 98
next was the gift M 98
next war the only M 98
next out of their M 98
next one to call M 98
next may be seen M 98
next man to look M 98
next day to fish M 98
next day the fate M 98
next day in more M 98
next cut up into M 98
next box to mine M 98
nest was the most M 98
need them or have M 98
need not to obey M 98
need not be risk M 98
need not be food M 98
need him to think M 98
need him he will M 98
need her to teach M 98
need her to speak M 98
need did we have M 98
need are the three M 98
need and the rate M 98
next was the need M 97
next for the word M 97
next day the trip M 97
need that we will M 97
need not to mind M 97
need all the three M 97
next year the duty M 96
next year by those M 96
next year by making M 96
next one it will M 96
next day the text M 96
next day the reading M 96
next day the prior M 96
next day or very M 96
next day be able M 96
next day at most M 96
next day as must M 96
need you to plan M 96
need them if your M 96
need now is what M 96
need not be owed M 96
need her or want M 96
need for the cult M 96
need for the band M 96
need for an acting M 96
need and we want M 96
need all the free M 96
need all or most M 96
need was to free M 95
need that the young M 95
need that he will M 95
need than the fact M 95
need one to find M 95
need for my love M 95
next year the pair M 94
next year the band M 94
next was the home M 94
next them the best M 94
next one to join M 94
next man to hold M 94
next job as well M 94
next day we reach M 94
next day to land M 94
next day the fact M 94
next day on time M 94
next day it says M 94
next day in hiding M 94
next day he once M 94
next bit of food M 94
nest with the four M 94
need you to fall M 94
need this in case M 94
need they be told M 94
need them to gain M 94
need than to need M 94
need him to care M 94
need god to take M 94
need for it like M 94
need and the main M 94
need all or part M 94
need not or must M 93
need for an edge M 93
next year to leave M 92
next year the debt M 92
next year the aged M 92
next year or what M 92
next with as much M 92
next things to look M 92
next has an hour M 92
next day the ocean M 92
next day the kind M 92
next day the face M 92
next day the clear M 92
next day my body M 92
next day it just M 92
next day in these M 92
next day in like M 92
next and to whom M 92
next and is used M 92
next and in many M 92
nest and the four M 92
need was to stay M 92
need this on your M 92
need them to speak M 92
need not to call M 92
need not be onto M 92
need him to walk M 92
need for the fish M 92
next each of these M 91
need for the moon M 91
need does it meet M 91
next year we need M 90
next year to talk M 90
next year the seed M 90
next year it held M 90
next year in early M 90
next year by other M 90
next was to form M 90
next saw the bank M 90
next one he came M 90
next meal or their M 90
next job of work M 90
next day to quit M 90
next day to mark M 90
next day so there M 90
next day or three M 90
next day in other M 90
next day he only M 90
next day an early M 90
next and is also M 90
need you in good M 90
need yet to think M 90
need them to pass M 90
need one to hold M 90
need now to note M 90
need not be eager M 90
need for me ever M 90
need both my eyes M 90
next with the most M 89
need that it must M 89
need not be void M 89
need all the wood M 89
next year to speak M 88
next year to sign M 88
next year to break M 88
next year the ratio M 88
next year the play M 88
next year it lost M 88
next year is said M 88
next year is kept M 88
next year by buying M 88
next with no clear M 88
next was to hold M 88
next two or five M 88
next that we lost M 88
next one so hard M 88
next man so when M 88
next day we pass M 88
next day the teams M 88
next day the hair M 88
next day is ready M 88
next day is even M 88
next day if their M 88
next day he sits M 88
next area to work M 88
next act of your M 88
nest and as soon M 88
need you to pose M 88
need was to fill M 88
need them to back M 88
need not to treat M 88
need not be cool M 88
need her to save M 88
need fear no great M 88
next year the more M 87
nest with the most M 87
need they be used M 87
need than we have M 87
need not go among M 87
need god to work M 87
next year in full M 86
next one to step M 86
next man to have M 86
next him the host M 86
next day we part M 86
next day on coming M 86
next day my hand M 86
next day if need M 86
next and we were M 86
need you to wrap M 86
need was to look M 86
need this to tell M 86
need them to join M 86
need than to find M 86
need read the book M 86
need one to show M 86
need him to meet M 86
need him on your M 86
need was the best M 85
need not to send M 85
need but be seen M 85
need and be back M 85
next year in south M 84
next year by lord M 84
next that of seeing M 84
next one to work M 84
next one on their M 84
next has the same M 84
next day the means M 84
next day the hero M 84
next day or lose M 84
next day by moving M 84
next bit of road M 84
next bit of land M 84
next all the rest M 84
nest was the same M 84
nest may be from M 84
need you to grow M 84
need you as their M 84
need with the good M 84
need this no more M 84
need not to pull M 84
need not be will M 84
need her to pick M 84
need for as wide M 84
need and to play M 84
need all the able M 84
nest and the three M 83
need was an army M 83
need one to have M 83
need not eat more M 83
need her up there M 83
need air to breath M 83
next year is even M 82
next year he gets M 82
next was to move M 82
next that he knew M 82
next set of case M 82
next one in such M 82
next let the width M 82
next day we swung M 82
next day to feel M 82
next day the tour M 82
next day the beach M 82
next day he dies M 82
next day go back M 82
next day at lake M 82
next all the time M 82
need them in those M 82
need not do wrong M 82
need for the eyes M 82
need did it have M 82
need bring no other M 82
next one is only M 81
next let me take M 81
need this be said M 81
need run the risk M 81
next year to your M 80
next year to turn M 80
next year or over M 80
next year in four M 80
next that we find M 80
next leap of faith M 80
next how to make M 80
next day we wake M 80
next day my life M 80
next day by adding M 80
need you to wipe M 80
need for an angel M 80
need bow to none M 80
need ask no page M 80
need not be cost M 78
next day the well M 76
need now to talk M 72
need not be word M 71
next day in much M 70
need but to make M 70
need with so much M 69
need for the aged M 69
need for my body M 68
need but to keep M 68
need now to call M 67
need and the poor M 66
next put it into M 64
need not be type M 64
need for the video M 62
need then to speak M 61
need that the most M 61
need that the great M 61
need not to live M 61
need and to know M 60
need and to feel M 60
need for in depth M 59
need and in such M 58
next year is like M 57
nest with the down M 57
need with the other M 57
need then be only M 57
need that the same M 57
need due to their M 57
next day so much M 56
need not to keep M 56
need for the page M 56
need for the door M 56
next let us show M 55
need now to come M 55
need but to live M 55
need are at hand M 55
need and to learn M 55
need all my life M 55
next had to make M 54
need for the view M 54
need and the self M 54
need and on what M 54
need than to make M 52
need not do good M 52
need god as much M 52
need but to learn M 52
need and the length M 52
need and the data M 52
need then to find M 51
need not be case M 51
need for an epic M 51
need and the care M 51
need air to stay M 51
next year the holy M 50
need now to draw M 50
need not to grow M 50
need does it have M 50
need and the next M 50
next year to more M 49
need not be unit M 49
need long to think M 49
need both to learn M 49
need and so many M 49
next ask in what M 48
nest for the coming M 48
need then be done M 48
need not to miss M 48
need not be till M 48
need not be base M 48
need for an exam M 48
need and the food M 48
next day to load M 47
next day the wood M 47
nest for the most M 47
need then to seek M 47
need that is best M 47
need not to stay M 47
need not be land M 47
need nor be able M 47
need for the fall M 47
need both to look M 47
need and to want M 47
need and is used M 47
next year in more M 46
next day the port M 46
next day the back M 46
need one to four M 46
need not to turn M 46
need not to draw M 46
need not the less M 46
need may be there M 46
need has to come M 46
need for the zero M 46
need for the turn M 46
need for the half M 46
need and he felt M 46
next was the lord M 45
next let us speak M 45
next day is much M 45
next box to ours M 45
need that to live M 45
need that is less M 45
need not be hell M 45
need for the bird M 45
need fear to have M 45
need fear to give M 45
next led an army M 44
next day to more M 44
next day of hearing M 44
next day in four M 44
need that is part M 44
need that in their M 44
need out of what M 44
need not to find M 44
need may be able M 44
need has no more M 44
need for it once M 44
need both to work M 44
next day to even M 43
next day or face M 43
next day is over M 43
need now to help M 43
need not be goal M 43
need for the moving M 43
need for the drop M 43
need for the areas M 43
need for the acid M 43
need fear the anger M 43
need can he have M 43
need and is more M 43
next day to south M 42
need that the truth M 42
need not to name M 42
need not be post M 42
need for the give M 42
need for the duty M 42
need for the copy M 42
need for the blue M 42
need for my well M 42
next year the post M 41
next that the time M 41
next day at break M 41
need try to make M 41
need try no more M 41
need they be more M 41
need that the word M 41
need not to love M 41
need men as well M 41
need for the teams M 41
need both to find M 41
need and the room M 41
need and the depth M 41
next year as more M 40
next was the main M 40
next one is ours M 40
next day at south M 40
next day at once M 40
need one at home M 40
need but to find M 40
need but it will M 40
need but by what M 40
need and of your M 40
next day at noon D 27240
need not be paid D 19152
next day he took D 18328
need for at least D 16850
neck and the other D 10884
next day we took D 9891
news that we were D 7348
need for the drug D 6100
neck and the back D 5148
next day the news D 5111
next day the duke D 4645
next year he took D 4453
news for the poor D 4132
next day we rode D 4068
neck with the other D 3837
next day he rode D 3732
news all the time D 3415
neck and the body D 3171
news that the great D 3150
news that the duke D 3105
news that we have D 3090
news that the army D 2974
neck all the time D 2863
nets can be used D 2761
next day we flew D 2506
neck and he were D 2258
news was at once D 2198
next day the bill D 2096
news that the ship D 1890
need for the firm D 1876
news for the next D 1860
news that the city D 1842
next day he flew D 1826
need not be sold D 1805
need for the bill D 1777
news for the last D 1716
next day he rose D 1710
next day the camp D 1632
next year at least D 1630
news that the young D 1602
need for the task D 1588
news and the other D 1500
news that the pope D 1478
next day my wife D 1472
news with the same D 1438
neck for the rest D 1433
nets for the poor D 1409
need not be mere D 1340
next day he paid D 1338
neck and the base D 1334
neck are the most D 1306
news and the post D 1290
next day to dine D 1276
news and the news D 1268
news that the lord D 1180
news for the rest D 1172
neck and the face D 1163
news was the only D 1140
news for the past D 1136
next day the boat D 1128
neck and the rest D 1119
need fay no more D 1113
news was the most D 1112
news that the last D 1094
news and the good D 1087
news that he must D 1058
nest and the eggs D 1056
neck with the same D 1055
neck with the edge D 1048
need for the sake D 1038
next year he sold D 1034
neck and the left D 1027
next day the pope D 1025
next day the crew D 1010
news that at last D 994
neck and the tail D 990
neck and the side D 978
neck with the left D 976
news was to come D 970
neck with the back D 965
nets may be used D 959
next day the wife D 950
news was the same D 944
next day it blew D 936
neck can be seen D 936
news that the other D 934
news that he will D 918
need not be flat D 888
neck with the flat D 882
next day by noon D 877
nest with the eggs D 864
neck and he fell D 862
next day the fort D 860
next day he sold D 860
need for the media D 860
neck was the only D 854
next year the duke D 847
neck and the legs D 847
news that the baby D 844
next shoe to drop D 832
need for the fund D 832
next day he drew D 824
need for the loan D 817
neck and he felt D 816
news was so good D 810
news that the town D 806
need for the wife D 794
next day it took D 786
next bit of news D 768
next day at least D 760
next year it rose D 754
need for the soul D 751
neck for the last D 749
news and the wall D 746
news all at once D 741
news that my wife D 732
nest for the eggs D 732
next guy in line D 731
next day the jury D 722
neck with the body D 720
news and the media D 706
news hit me like D 704
neck may be seen D 700
next year the firm D 692
news and the star D 688
next row of data D 686
news that the lady D 686
need for the cash D 686
news that the peace D 683
need for an oral D 675
next year the pope D 668
need for the navy D 668
nets and the size D 666
need for the arts D 665
neck for the sake D 665
news that the body D 664
news and the free D 661
need for an ethic D 661
need not be rude D 659
news that the bank D 658
neck and the neck D 658
neck with the side D 651
neck and the arms D 649
neck with the ends D 636
news may be good D 630
nest for at least D 630
news that the girl D 626
next day he threw D 618
news that the three D 616
news for the media D 616
need for the vote D 616
next row of seats D 612
neck and the soft D 598
neck and the rope D 598
news that an army D 596
news that the road D 592
need them the least D 584
need for the jury D 582
news that the bill D 580
neck and the skin D 580
neck may be used D 576
neck one of these D 572
news that the boat D 566
need all the cash D 566
neck with my left D 566
next car in line D 562
news that at least D 560
next bed to mine D 552
neck can be used D 552
need you to ride D 550
need not be sown D 550
next day we rose D 542
news for at least D 542
next day we paid D 538
news with the other D 538
news was the fact D 538
news that the fire D 537
news that the book D 535
news that the main D 532
next day he shot D 530
need not be thick D 528
need for the laws D 526
next year the crop D 524
neck and the thick D 524
news was the more D 523
news that the union D 520
neck with an iron D 519
news that the most D 518
next year he paid D 504
next him in rank D 504
news that the holy D 500
news that he knew D 500
next day the wolf D 497
neck two or three D 497
need for the film D 492
next day on foot D 488
need for the feast D 483
news with the rest D 482
news was the best D 481
news and the same D 480
news and to make D 478
news was so great D 476
news that the fort D 476
neck with the palm D 474
neck with the thumb D 472
neck for the same D 469
news that the south D 468
neck with the hand D 467
next day at dusk D 466
neck with my bare D 466
news and the next D 454
news that the next D 452
news and to give D 450
next day the guns D 448
neck and he held D 444
news that the north D 442
neck with the tips D 442
neck was as thick D 442
news can be seen D 436
neck and up into D 431
news that my lord D 430
neck was in pain D 428
neck and my face D 428
news that the time D 423
neck with the butt D 420
next day the giant D 414
news was the last D 412
news with as much D 411
next day my aunt D 410
neck and the hair D 410
need for an iron D 406
neck with my hand D 406
news for the young D 404
need for the pope D 404
next lap of their D 402
news and the most D 401
news that the rest D 400
news for the other D 400
need for the ruling D 400
neck near the base D 400
next year by john D 398
news for the same D 398
need for the farm D 398
news that the only D 396
news was no news D 393
news that he heard D 390
next day the boss D 388
news that the land D 388
neck and the tops D 388
nets and the like D 387
news for the city D 384
news and to tell D 384
nets can be made D 384
neck and he died D 384
news that the wind D 381
neck for the next D 381
neck and the chin D 381
neck and the ends D 378
news was no less D 376
news that is worth D 376
news with the good D 375
next day in camp D 374
news two or three D 374
news that we must D 374
news for me from D 374
news that the four D 373
news that he died D 372
news for the sake D 372
need not be cash D 371
next day we bade D 368
neck out to help D 368
news that the third D 367
news and the fact D 366
neck and he went D 365
next for the sake D 364
next day to fort D 362
next car to come D 362
neck was the most D 362
news than the other D 360
news can be made D 358
need for the sale D 357
next day at camp D 356
next day the skin D 354
news that the five D 354
news and the rest D 354
neck and he said D 354
neck and be cast D 354
next set of rows D 352
neck and the feet D 352
news can be used D 342
nets are the most D 342
next day to camp D 340
news for me when D 340
next hop to reach D 336
news that the czar D 336
news for the many D 336
neck and my back D 336
news that the same D 332
neck for the past D 332
neck and he wore D 331
news that so many D 330
nest egg to fall D 330
news that the home D 328
nets and the fish D 328
need for the wall D 327
news hit me hard D 326
neck can be made D 326
need for the mining D 323
neck and the eyes D 323
news for the mass D 322
news and the like D 321
news that the wife D 320
news and the pall D 320
news and he said D 318
nets for the hair D 318
neck and the same D 318
news that the camp D 316
news for the very D 315
neck and the foot D 315
next year the tide D 314
news that is more D 314
need dig no more D 307
news and the more D 306
neck and the mouth D 306
news had to come D 304
need with the least D 304
need not be drab D 304
neck and he will D 302
neck and the dark D 301
nets with the same D 300
neck near the angle D 300
next day the star D 299
news that it will D 296
nets can be seen D 296
need for the least D 296
news was at hand D 294
next year it took D 292
next day the vote D 292
next day to ride D 290
next day he bade D 290
news that the wall D 290
news and we were D 290
neck with the heel D 290
neck and the loop D 290
next year the bill D 288
need not be grim D 288
need for the iron D 287
news with so much D 286
news that is good D 286
neck and the edge D 286
news that we heard D 284
neck has the same D 282
news and to keep D 280
neck with as much D 280
neck and the fine D 280
news with the most D 279
news that we need D 278
need for the boat D 278
neck and the line D 278
neck and he cast D 278
next day the cook D 276
news that the work D 276
neck for the blow D 276
news for the week D 275
news was no more D 274
nevi and the risk D 272
need you to pack D 270
news and the best D 268
neck and it will D 268
next day it rose D 266
next day by rail D 266
news that the jury D 266
news for the south D 265
next day at fort D 264
news was at least D 262
news that the navy D 262
need not be vile D 262
news that the media D 260
news that the high D 260
need for the news D 260
need for the crew D 260
neck with my arms D 260
neck may be more D 259
next day to throw D 258
news was at last D 258
news may be more D 254
news and we will D 254
news that the line D 252
news can be heard D 252
neck and the next D 252
next day the tide D 250
need thee no more D 250
neck was the same D 248
neck and the fore D 248
news and at once D 246
need not be sole D 245
next day the media D 244
nets for the most D 244
neck and in your D 244
neck rot of onion D 243
news for the most D 242
news for the boys D 242
news all the same D 242
neck was so thick D 242
next day the navy D 240
news that we will D 240
news that he gave D 240
neck and my arms D 240
news was as good D 238
news and to have D 238
nets for the next D 238
need for ex ante D 238
neck with the knot D 238
neck are the same D 238
neck and the root D 238
need for the radio D 237
need for the coal D 237
news that the west D 236
news can be good D 236
need not be oral D 236
news had at last D 234
news for the home D 234
need for the tool D 234
neck was an iron D 234
news that the good D 232
need for ex post D 232
neck and the wide D 232
neck and the pain D 232
neck and he knew D 232
neck and the heavy D 231
news that the plan D 230
news for an hour D 230
news can be sent D 230
need for the bond D 229
nest for thy love D 228
need for the dual D 228
news that the said D 226
news that the case D 226
news that the boys D 226
news can be told D 226
neck with the rest D 226
neck and the hand D 226
neck and the great D 226
need not be sunk D 225
next day the task D 224
news that as soon D 224
news and we have D 224
news and to take D 224
need not be awed D 224
neck may be made D 224
neck and my heart D 224
next day the firing D 223
news that is most D 223
news can be more D 223
next day we shot D 222
news for the time D 222
neck may be very D 222
neck can be felt D 222
next day the roof D 221
news all the more D 221
next year at fort D 220
next row of moving D 220
news that the tide D 220
news that is coming D 220
news and the need D 220
nest egg to help D 220
next was the wife D 218
news that he felt D 218
news and to learn D 218
need not at least D 218
news that the firm D 217
need not be tall D 217
neck and the wind D 217
news that in some D 216
news and so forth D 216
nets and the other D 216
need not be gold D 216
neck and the deep D 216
news are so very D 214
next day the throng D 212
neck with the fall D 212
neck may be held D 212
neck and the third D 212
neck and the rump D 212
neck for an hour D 211
news and to hold D 210
neck with the hair D 210
neck and so forth D 210
neck and the angle D 209
next year we took D 208
neck are the only D 207
next was the news D 206
need was at least D 206
news for the west D 203
neck for at least D 203
next day the radio D 202
next bus to come D 202
news was as much D 202
news that the shah D 202
news and it will D 202
news and in their D 202
nets are the same D 202
neck and the gold D 202
need for the guns D 201
news that the crew D 200
news that he came D 200
news and the truth D 198
need for the oral D 198
neck for the yoke D 198
next shoe to fall D 196
next day the mood D 196
next day the cops D 196
next day by boat D 196
news for us from D 196
next day to sail D 194
news that is news D 194
need for the park D 194
need for the gold D 193
news with the least D 192
news that the poor D 192
news that the heir D 192
nest for the sake D 192
need all the tact D 192
neck with the great D 192
neck out of love D 192
neck and be done D 192
news that the very D 190
news that the flag D 190
neck with the chin D 190
neck and my mouth D 190
news that he went D 188
news for the union D 188
news are the same D 188
neck for the lady D 188
neck and the main D 188
neck and my left D 188
next day the ball D 187
news that the film D 186
news and to warn D 186
nets and so forth D 186
need for the pony D 186
need for the hush D 186
need for the guru D 186
neck can be done D 186
neck and on your D 186
next day to vote D 184
need for the tape D 184
neck with the string D 184
neck and to keep D 184
neck and the tips D 184
neck and my legs D 184
next car to pass D 182
next cab in line D 182
news and the late D 182
neck and the part D 182
neck all my life D 182
need for the bomb D 181
neck with the finger D 181
news was so much D 180
news and the role D 180
nevi are the most D 180
neck and the more D 179
next guy to come D 178
news that is very D 178
need you to throw D 178
need for the tank D 178
news for the three D 177
nest egg of over D 177
need and at least D 177
neck out to make D 177
next year it sold D 176
news may be true D 176
neck and the length D 176
neck and he took D 176
neck and he drew D 176
next day the abbe D 175
news for the health D 175
need for the diet D 175
next year the club D 174
news that the leading D 174
news that the best D 174
news for the town D 174
nest egg in case D 174
need you to bail D 174
news was in fact D 172
news that the play D 172
news that the boom D 172
neck and an oval D 172
need not be sued D 171
need not be shot D 171
need fat in their D 171
neck with an open D 171
neck and the high D 171
next day to beard D 170
news was of such D 170
news that the pass D 170
news that the name D 170
news for the news D 170
news can be very D 170
need pay no rent D 170
need all the guns D 170
news for my lord D 169
nets for the same D 169
need not be cheap D 169
need for my wife D 169
need all the fuel D 169
news for the rich D 168
news are the most D 168
neck can be very D 168
news yet to come D 166
news was of great D 166
news that the plot D 166
news may be used D 166
news for the firm D 166
need not be fond D 166
need for an apex D 166
neck with the rope D 166
neck with my lips D 166
next day the czar D 165
news that the mail D 165
neck than the left D 165
news had no other D 164
news for the good D 164
news and the salt D 164
nets for the taking D 163
news that he brings D 162
news for the bond D 162
news for so many D 162
next row of cars D 160
news that the late D 160
news than the last D 160
nest was at least D 160
need not be stingy D 160
neck with the name D 160
need for the race D 158
neck for the rope D 158
neck and it felt D 158
news off the wire D 157
need for the bulk D 157
next day the feast D 156
news and the means D 156
nets for the fish D 156
need you to wire D 156
need for the club D 156
neck with the help D 156
neck and the trap D 156
neck and the tank D 156
neck and the fact D 156
neck and an open D 156
need for the fuel D 155
neck and the size D 155
next day the race D 154
news that we live D 154
news that the coup D 154
need for the filing D 154
neck was on fire D 154
neck are of great D 154
need for the rope D 153
neck and the nape D 153
news that the gods D 152
news that the band D 152
neck and the hind D 152
neck and the heart D 152
neck and my eyes D 152
news that he took D 150
nets near the mouth D 150
need for the levy D 150
neck out to save D 150
neck and the knot D 150
news that no more D 149
neck and the warm D 149
neck and the hard D 149
next year he drew D 148
news that the tomb D 148
news that the show D 148
news that is sent D 148
news that at such D 148
nest egg of cash D 148
need all the milk D 148
neck may be felt D 148
neck and the last D 148
neck and the most D 147
next year to vote D 146
next day to pack D 146
next day on bail D 146
nets out to zero D 146
nets for the other D 146
neck and the tiny D 146
next set on foot D 145
next day to york D 145
next day the diary D 145
next day the shah D 144
next day the milk D 144
news hit us like D 144
need not thy help D 144
neck are at risk D 144
neck and we were D 144
neck and in other D 144
need for the card D 143
news that it must D 142
news and to talk D 142
news and the radio D 142
neck being the most D 142
neck and the full D 142
neck and the depth D 142
neck and no legs D 142
news was of more D 141
news for the north D 141
neck and up over D 141
neck and the cold D 141
next day the club D 140
next day my boss D 140
news was we were D 140
news that the miss D 140
news may be seen D 140
nest egg to tide D 140
need you to cook D 140
need that at least D 140
neck and wing tips D 140
need for the whip D 139
need for the soil D 139
need for the fort D 139
next day we sold D 138
news with my wife D 138
news that the date D 138
news that the bomb D 138
news for the radio D 138
news for the bush D 138
news and to find D 138
news and the talk D 138
news and the arts D 138
need that the wife D 138
neck than the other D 138
neck and the wall D 138
news than to tell D 136
news for the crew D 136
news and to help D 136
need you at least D 136
need for the singer D 136
need for the cheap D 136
neck with the word D 136
neck and the young D 136
news that the post D 135
news that so much D 135
next year to john D 134
next year the news D 134
next year he rose D 134
news with the help D 134
news that the khan D 134
news and the time D 134
nest egg of more D 134
need you to roll D 134
need sex as much D 134
need for the loving D 134
neck and to make D 134
news for the more D 133
need for the thick D 133
neck and the four D 133
news was to have D 132
nets for the last D 132
neck and the blue D 132
neck with the most D 131
neck than in other D 131
next year the navy D 130
next day we drew D 130
next day he sank D 130
news that the dumb D 130
news beat the flying D 130
news and to show D 130
news and of ideas D 130
need for the milk D 130
need for an audio D 130
neck and the hips D 130
neck and my hair D 130
neck and in some D 130
neck and at least D 130
next with the least D 128
news that the guns D 128
news out of their D 128
neck and he heard D 128
need for the tube D 127
need for an aerial D 127
news that the trial D 126
news that the radio D 126
news that he said D 126
news has the same D 126
news for the month D 126
news and so many D 126
need and the least D 126
neck with my tears D 126
neck with my finger D 126
neck and the knee D 126
neck and the apex D 126
neck and he bent D 126
next day the firm D 125
need one at least D 125
need not be null D 125
need for the mere D 125
next set of eggs D 124
next row of beads D 124
next lot of milk D 124
next day to john D 124
news that the sick D 124
nest egg to take D 124
neck out by saying D 124
neck area as well D 124
neck and the belt D 124
news that the port D 123
neck and the sweat D 123
neck and the flat D 123
next set of bars D 122
next day the foot D 122
need for the suit D 122
need for an arts D 122
neck and the nose D 122
neck and is very D 122
need for the crop D 121
need for the bread D 121
next day the thief D 120
next day the bulk D 120
news was no great D 120
news and to send D 120
news and no news D 120
news and in other D 120
news and he told D 120
need them at least D 120
need for the pump D 120
need for the gene D 120
neck was the size D 120
neck was the neck D 120
neck was so sore D 120
need for the visa D 119
neck and he kept D 119
next may he took D 118
news that the rich D 118
news had to wait D 118
nest egg to live D 118
nest egg in your D 118
neck and is held D 118
need sex to feel D 117
need all the grit D 117
next day we swam D 116
next day the guys D 116
news was to reach D 116
news for the wrong D 116
news and to know D 116
nets with the help D 116
nets may be seen D 116
need are the least D 116
neck and we bend D 116
neck and the tuck D 116
neck and it fell D 116
next day the brig D 115
news was the news D 115
news that the coming D 115
nets are the only D 115
next year the wife D 114
next row of dots D 114
news was of some D 114
news that the hero D 114
news that he made D 114
news and the fort D 114
need not be voting D 114
need for the camp D 114
need for an imam D 114
neck with the soft D 114
neck with the best D 114
news that the snow D 113
neck with the last D 113
next year the sale D 112
next day the wall D 112
next day by news D 112
news that the emir D 112
news may be sent D 112
news hit the media D 112
news for the user D 112
news for the great D 112
news and the last D 112
news and in bits D 112
nest egg to draw D 112
need not be sewn D 112
need fat in your D 112
neck with my teeth D 112
neck and is also D 112
need not be smug D 111
news was to hand D 110
news was the main D 110
news that he meant D 110
news that he fell D 110
news not so much D 110
news hit the wire D 110
news and the only D 110
nets for the third D 110
nest egg of some D 110
neck are of such D 110
nevi may be seen D 109
next dean to have D 108
next day the reds D 108
next day the john D 108
next day the film D 108
next day the bull D 108
news was on when D 108
news that the rising D 108
news than we have D 108
news may be waning D 108
news may be made D 108
nets may be made D 108
need for the wire D 108
need and the timing D 108
neck with the rein D 108
neck with the cord D 108
neck for the cure D 108
neck are the best D 108
neck and to have D 108
neck and the ball D 108
neck and no other D 108
neck and my feet D 108
news that the much D 107
neck with the whip D 107
neck may be bent D 107
next year my wife D 106
next pup is born D 106
next day the bees D 106
news that the hour D 106
news that my name D 106
news that he sent D 106
news are as good D 106
nets and we were D 106
need you to loan D 106
need thee at home D 106
need not be bald D 106
need for an auto D 106
neck and the stem D 106
need not be firm D 105
news was so slow D 104
news than to good D 104
news for the years D 104
nets for the stag D 104
need for the boss D 104
neck with the skin D 104
neck and the teeth D 104
neck and he gave D 104
news that no less D 103
need for the giant D 103
next day the pigs D 102
next day my neck D 102
news was to make D 102
news that we want D 102
news that the rate D 102
news had he heard D 102
nest and the bees D 102
need not be dyed D 102
neck are the areas D 102
neck and the axis D 102
neck and is used D 102
next day at roll D 101
need all the gold D 101
neck and the bird D 101
next eye to gaze D 100
next day the lamb D 100
next day in rank D 100
news with at least D 100
news was to send D 100
news may be told D 100
news for us when D 100
news and the lack D 100
news and the full D 100
news and as such D 100
nets are the main D 100
nest egg to grow D 100
need for the rent D 100
neck with my free D 100
neck out to take D 100
neck for an inch D 100
neck and the cord D 100
neck and it made D 100
news that the brig D 99
news and at least D 99
neck with the gold D 99
next day the herd D 98
news that the sale D 98
news that the earls D 98
news may be very D 98
news but the base D 98
news and we want D 98
news and the work D 98
news and the great D 98
news and in making D 98
nest near the spot D 98
need you to tend D 98
neck with the cold D 98
neck had the same D 98
neck being the only D 98
next man in rank D 97
news and the hope D 97
need not be spun D 97
neck and the three D 97
next day we threw D 96
next day the sale D 96
next day the friar D 96
next day the diet D 96
news was of much D 96
news that the arms D 96
news for the vast D 96
news and to thank D 96
news and the main D 96
news and is well D 96
nest for the ovum D 96
neck was as wide D 96
neck was as fair D 96
neck and the lobe D 96
neck and the girl D 96
neck and no body D 96
next row of three D 95
news that the will D 95
news that the test D 95
need for the hike D 95
neck was the gold D 95
next day the steam D 94
next day the rats D 94
next day the calf D 94
next day my legs D 94
news with the wild D 94
news was the talk D 94
news that the youth D 94
news that the bush D 94
news that he left D 94
nets can be very D 94
nets and the rest D 94
nest for an eagle D 94
need for the veto D 94
need for the veil D 94
need for the lamp D 94
neck and the ribs D 94
neck and the coat D 94
neck and the baby D 94
neck and it came D 94
neck and at once D 94
news not so good D 93
need not be rote D 93
neck for the third D 93
neck and the jaws D 93
neck and is more D 93
next day the khan D 92
next day he blew D 92
news that my lady D 92
news for the body D 92
news for the army D 92
news did he have D 92
news and the rise D 92
news and the doings D 92
news and the city D 92
nets and the boat D 92
nets and by hook D 92
need for the coup D 92
neck for the want D 92
neck and the whip D 92
neck and the hump D 92
neck and my lips D 92
neck and at last D 92
nets all the time D 91
need for the duke D 91
need all the loving D 91
news that the days D 90
news can be true D 90
news and in turn D 90
nest with at least D 90
nest for the wife D 90
need not to aver D 90
need for the semi D 90
neck with the tail D 90
neck was no more D 90
neck for the best D 90
neck can be held D 90
neck and the thumb D 90
news that the food D 89
news for the heart D 89
nets may be more D 89
need not be laws D 89
next day to haul D 88
next day the eggs D 88
next day the dose D 88
next day on leaving D 88
news that the early D 88
news both at home D 88
news and be able D 88
need not ax leave D 88
neck with my other D 88
neck may be done D 88
neck and the pale D 88
neck and the mane D 88
neck and the kiss D 88
need for the steam D 87
neck with so much D 87
neck and as much D 87
next lot of eggs D 86
next day the canoe D 86
next day on deck D 86
next day by john D 86
news with the news D 86
news was so very D 86
news that the loan D 86
news that no other D 86
news that he bore D 86
need them to ride D 86
need all the corn D 86
neck out by giving D 86
neck are the sole D 86
neck are the main D 86
neck and we went D 86
neck and the cart D 86
neck and my body D 86
news and he will D 85
need all the coal D 85
neck and the cast D 85
next day the yawl D 84
next day the wire D 84
news was as great D 84
news that my good D 84
news did the same D 84
news and to pass D 84
nets and my toil D 84
need you on deck D 84
need for the rank D 84
need for en bloc D 84
neck with the main D 84
neck and the bone D 84
neck and he just D 84
nets with the most D 83
need fear the wrath D 83
next with an iron D 82
next day the mill D 82
next cup of wine D 82
news was in some D 82
news was at length D 82
news that my heart D 82
news out of your D 82
news for my wife D 82
news and the ways D 82
news and the mail D 82
news and he knew D 82
neck had no other D 82
neck are the ones D 82
neck and the thigh D 82
news was so well D 81
next pew to mine D 80
next day the tent D 80
next day the shoes D 80
next day the earls D 80
next day the cars D 80
news was to take D 80
news was on page D 80
news that the true D 80
news that the tail D 80
news that as many D 80
news and the kind D 80
news and the book D 80
news and he went D 80
need two to tango D 80
neck with the arms D 80
neck was at least D 80
nets for the wind D 74
news that the lost D 73
need for the bringing D 73
news that the fifth D 65
need for the shot D 65
neck and the very D 55
news that the well D 54
news that the gold D 53
news that is less D 53
need for the roof D 53
need for the ball D 53
neck and the fire D 52
nets set in deep D 51
need not be pious D 51
next day the iron D 49
news may be less D 49
need for the shah D 49
neck and on down D 49
news that the vice D 48
news and the south D 48
need for the twin D 47
need for the pool D 47
nest egg to last D 46
need for the salt D 46
need for the wage D 45
need for the rite D 45
nets that we have D 44
need that the soul D 44
need and the task D 44
next was the dining D 43
news with the calm D 43
news that the mine D 43
need not be dumb D 43
need for the mill D 43
neck may be less D 43
neck all at once D 43
news that the mass D 42
nets for the coming D 42
need for the pipe D 42
neck one or more D 42
news that the sixth D 41
news that the half D 41
news and the leading D 41
need for an oven D 41
neck for the most D 41
neck and an even D 41
next day the gold D 40
next day the eagle D 40
newt and the frog D 40
news that the star D 40
need for the menu D 40
need for the hiring D 40
neck with the spring D 40
neck and no more D 40
