need concern us . M 2336
need attending to . M 775
next question is . M 582
need answers to . M 485
need insisting on . M 408
next preceding it . M 396
next closest thing . M 306
need trouble us . M 218
need require it . M 206
need demands it . M 198
next brought me . M 186
next concern us . M 147
need following up . M 138
need attempt it . M 134
need concern me . M 130
next logical thing . M 124
next applied to . M 118
next appealed to . M 118
need disturb us . M 110
next question be ? M 106
next alluded to . M 80
next outside it . M 49
next following it . M 47
