king and lord . M 4396
king for ever . M 4018
king was there . M 2668
king had said . M 2662
king for life . M 2422
king for help . M 2240
king had died . M 1784
king had done . M 1666
king was gone . M 1516
king our lord . M 1452
king had been . M 1344
king was born . M 1226
king had fled . M 1208
king was coming . M 1140
king was angry . M 928
king had gone . M 766
king and realm . M 764
king and lord ! M 702
king had made . M 674
king any more . M 644
king had come . M 636
king was saying . M 624
king had left . M 618
king for ever ! M 562
king was away . M 522
king and army . M 512
king has died . M 494
king his life . M 482
king was wrong . M 438
king and lord ? M 434
king has come . M 400
king has said . M 398
king did nothing . M 398
king too much . M 396
king was sick . M 360
king sat down . M 358
king can give . M 342
king had sent . M 316
king and hero . M 312
king was safe . M 304
king has come ! M 302
king has done . M 294
king for peace . M 282
king hath said . M 276
king was here . M 260
king and sons . M 260
king was living . M 258
king was lost . M 242
king was well . M 240
king for years . M 234
king his lord . M 222
king his heir . M 222
king was over . M 212
king has gone . M 212
king was ready . M 210
king was made . M 210
king for nothing . M 208
king may take . M 192
king than ever . M 182
king too well . M 172
king was come . M 166
king for trial . M 156
king and army ? M 154
king his dream . M 150
king had wept . M 148
king and gods . M 144
king had none . M 134
king and live ! M 132
king and land . M 126
king got well . M 122
king and city . M 120
king was laid . M 116
king was held . M 116
king and realm ? M 116
king was here ! M 110
king this time . M 110
king her lord . M 110
king had heard . M 110
king was free . M 106
king now speak . M 104
king and left . M 104
king had seen . M 100
king was like . M 98
king was glad . M 92
king can need . M 92
king had used . M 90
king and sage . M 90
king was reading . M 86
king nor city ! M 86
king for good . M 84
king was told . M 82
