kings as well as M 12410
kin as well as M 3843
kings go forth to M 1760
kings as much as M 1556
kid he used to M 1348
kid to grow up M 1146
kid we used to M 1102
kings to those of M 1014
kings to come to M 900
kin to those of M 828
kings to whom the M 726
kings is said to M 676
kings of whom we M 606
kid is trying to M 588
kin in case of M 498
kid as well as M 483
kings as part of M 477
kid of mine is M 468
kings of whom the M 464
kings as early as M 444
kings to rule the M 424
kin to whom the M 418
kings as great as M 416
kings by means of M 410
kings to whom he M 394
kings of arms in M 394
kin to some of M 377
kings to rule in M 376
kings to keep the M 356
kings to make the M 354
kings to take the M 352
kid to shut up M 352
kid as much as M 348
kin as part of M 334
kings in time of M 310
kings the name of M 308
kings to rule as M 295
kid as soon as M 288
kid to have to M 286
kings we lose the M 278
kings we have the M 262
kin as soon as M 260
kings or heads of M 250
kid is ready to M 248
kings as soon as M 246
kings to have the M 242
kings in days of M 240
kings as late as M 238
kings of arms to M 234
kid in need of M 232
kin go back to M 229
kings as those of M 228
kid to pick up M 226
kings is like the M 222
kin to whom he M 222
kid to look at M 218
kings is full of M 214
kid to come to M 212
kin to have the M 209
kings to whom it M 202
kid as young as M 202
kin to half the M 201
kid to come in M 197
kings to look at M 196
kid to talk to M 196
kings be born of M 192
kings we find the M 190
kin to most of M 189
kin as much as M 186
kid to take the M 186
kid in town is M 186
kings to make to M 184
kin to turn to M 183
kid to tell me M 178
kings to rule by M 176
kid is able to M 174
kings in what is M 172
kings of whom he M 170
kin by means of M 170
kings or sons of M 166
kid to make it M 164
kid the rest of M 163
kin to take the M 159
kings of some of M 158
kings so much as M 156
kin to make the M 152
kin to leave it M 152
kin to come to M 152
kid to have the M 152
kings to live in M 150
kid of five or M 150
kid in town to M 146
kings in mind of M 142
kin to what is M 141
kings to take on M 140
kings to such an M 140
kin of mine at M 140
kings in some of M 134
kid to come up M 134
kin in time of M 133
kings to give up M 132
kings the most at M 132
kid to want to M 132
kid to stay in M 131
kings by whom the M 130
kid to think of M 130
kid to show up M 130
kings to think of M 126
kings to break the M 126
kid to help me M 126
kings sing songs of M 124
kid is said to M 124
kid to make the M 123
kings to leave the M 122
kin to take up M 122
kings of what is M 120
kings as heads of M 120
kin or from the M 120
kid up from the M 119
kid to learn to M 118
kings to draw up M 116
kid to play the M 114
kin to live in M 111
kings to seek the M 108
kings to join the M 108
kings the sons of M 108
kings in case of M 108
kings to hold the M 106
kid of four or M 106
kid to give up M 104
kid of mine to M 104
kings of arms of M 102
kings to turn the M 100
kings to take up M 98
kings to rely on M 98
kings or even of M 98
kin on whom to M 98
kid is full of M 96
kings to whom we M 94
kings to keep on M 94
kings of whom it M 94
kings is also the M 94
kings in need of M 94
kin of some of M 94
kin to what we M 92
kin to speak of M 92
kin to leave the M 92
kid the size of M 92
kid in there is M 92
kings or even the M 88
kings be just or M 86
kid to keep the M 86
kings on whom the M 84
kid of three or M 84
kings to rule is M 82
kings to rise in M 82
kings the means of M 82
kid to tell the M 82
kid is kind of M 82
kings we have no M 80
kings we have an M 80
kings or even to M 80
kin to many of M 77
kings to fill the M 57
kin to those in M 51
kid is just as M 51
kin to rely on M 46
kid to work on M 45
kid to play in M 40
kit as well as D 950
kit is used to D 534
kit in case of D 414
kit to make the D 268
kid to glut my D 268
kit as soon as D 260
kit is made up D 205
kid or lamb is D 172
kit as part of D 168
kid of beef in D 144
kit to keep in D 128
kit to make it D 127
kit he kept in D 126
kit to have on D 124
kit in case the D 122
kit is used by D 119
kit to clean the D 114
kit on hand at D 112
kit is sent to D 112
kit to test the D 108
kit is used in D 102
kings he took to D 102
kit the size of D 101
kit is part of D 97
kings go riding by D 94
kit is kept in D 86
kid of hers is D 84
kit to keep the D 80
