killed or wounded . M 143618
killed or injured . M 17462
killed by lightning . M 8260
killed or drowned . M 3832
killed the patient . M 2796
killer to justice . M 2334
killed by mistake . M 2074
killed my parents . M 1920
killed the project . M 1766
killed the deceased . M 1588
killed the monster . M 1398
killed the officer . M 1056
killed the animals . M 1024
killed or wounded ? M 886
killed the captain . M 882
killed the emperor . M 728
killed by anybody . M 702
killed in service . M 680
killed the soldier . M 612
killed or wounded ! M 610
killed by violence . M 582
killed my brothers . M 548
killed or injured ? M 542
killed the program . M 480
killed the general . M 464
killed by enemies . M 462
killed my friends . M 446
killed an officer . M 446
killed the creature . M 432
killed or removed . M 422
killed my partner . M 402
killed the victims . M 394
killed on arrival . M 368
killed by himself . M 368
kingdoms to conquer . M 348
killed it himself . M 310
killed on purpose . M 302
killed the priests . M 300
killed in crashes . M 296
kicked on occasion . M 294
killed by abortion . M 292
killed my parents ? M 280
killed in january . M 270
killed by traffic . M 268
killed at leisure . M 248
killed or damaged . M 244
killed the company . M 242
killed my parents ! M 238
killed or trapped . M 236
killed by lightning ? M 228
killed is unknown . M 226
killer of enemies . M 222
killer in history . M 216
killed by insects . M 206
killed in numbers . M 204
killed by animals . M 204
killed by neglect . M 202
killed in traffic . M 200
killed in congress . M 192
killed the wounded . M 190
kisses me goodbye . M 186
killed in infancy . M 186
killed by silence . M 186
killed the picture . M 178
killed the insects . M 168
killed no animals . M 162
killed by congress . M 160
kicked the machine . M 160
killed to survive . M 156
killed by poverty . M 156
killed the stranger . M 142
killed so quickly . M 142
killed or deposed . M 136
killed my captain . M 134
kindly to explain . M 132
killed the monster ! M 122
killed or released . M 122
killer of animals . M 120
killed or exposed . M 116
killed on contact . M 114
killed my brothers ! M 110
kindly by history . M 108
killed the engineer . M 108
kindly as himself . M 106
killed the country . M 106
killer to justice ? M 104
killed the patient ? M 102
killed as martyrs . M 102
kisses of welcome . M 101
killed or defeated . M 100
killed the student . M 98
killed in seconds . M 98
kicked in protest . M 98
killed or blinded . M 96
killed to wounded . M 92
kicked it forward . M 92
killed the subject . M 90
killed the prophet . M 90
kisses me lightly . M 86
killed by mistake ? M 86
killed at pleasure . M 86
killed by parents . M 84
killer is revealed . M 82
killed on service . M 82
killed it forever . M 82
kingdoms to conquer ? M 80
killed it quickly . M 80
