via one of the M 17386
via any of the M 3216
via use of the M 1758
via each of the M 944
via all of the M 434
via that of the M 332
via use of an M 282
via two of the M 254
via one or the M 240
via them to the M 168
via one of my M 154
via this to the M 118
via air to the M 96
via him to the M 94
via both of the M 92
via fax to the D 148
via bus to the D 92
via fax or the D 82
