visit a few of M 3599
vision i had of M 1834
visit a lot of M 1566
visit i had the M 1213
vision i saw the M 916
visit i had to M 840
visit a man in M 836
visit a day or M 680
vision i had in M 526
views i had of M 466
visit i had an M 422
visit a set of M 409
visit a year or M 383
visit a son of M 375
visit i was to M 352
visit i saw the M 303
views a set of M 300
visit a man of M 291
visit a year to M 269
vivid a way as M 264
visit i had no M 239
visit i was in M 230
vision i see the M 222
vision i hear or M 212
vision i saw in M 202
visit i had of M 196
visit a man at M 184
vision a man of M 184
visit a son in M 178
vision i had at M 172
visit i had in M 170
visit a bar or M 168
vision i had the M 164
visit i was the M 157
vision i was in M 140
views i had in M 137
visit i was so M 132
visit a dog at M 128
vision i had as M 128
visit i saw no M 107
visit i was at M 106
vision i saw my M 106
visit a day to M 102
visit i was on M 98
visit i had at M 98
vital a man to M 94
visit a few to M 94
vision i had on M 94
visit i got to M 93
views i had to M 92
visit i had my M 87
visit a son or M 86
visit i got the M 85
vivid a red as M 84
visit i pay to M 84
vision i see of M 82
views i had the M 80
visit i try to M 52
visit a boy of M 46
viewing a set of D 644
visit a zoo or D 492
visit a zoo to D 216
visit i met an D 207
viewing a lot of D 192
visas a year to D 183
viewing a map of D 172
viewing a man in D 172
visit i met the D 159
viewing a row of D 106
viewing a few of D 104
visit a spa in D 94
visit a pub in D 88
