two men and a M 78160
two men had a M 15296
two men with a M 13942
two things that i M 13496
two men for a M 4672
two men was a M 3808
two wings and a M 3546
two had had a M 2198
two men that i M 2086
two things that a M 1954
two and then i M 1932
two men and i M 1792
two kings and a M 1500
two rings and a M 1486
two was not a M 1377
two and had a M 1368
two and then a M 1196
two and has a M 1100
two who had a M 1022
two ago that i M 954
two out and a M 862
two men saw a M 832
two things with a M 818
two things for a M 652
two and with a M 646
two does and a M 628
two wings with a M 590
two sat for a M 590
two and six a M 574
two are not a M 570
two men using a M 542
two things are a M 526
two men who i M 512
two and not a M 512
two things and a M 470
two men are a M 459
two things and i M 456
two and that i M 430
two ago and i M 404
two she had a M 396
two and get a M 388
two she was a M 386
two and was a M 384
two and for a M 370
two and that a M 358
two long and a M 352
two that had a M 346
two ago with a M 344
two and two a M 336
two men did a M 322
two now and i M 306
two rings with a M 304
two are all i M 294
two men has a M 284
two and see a M 284
two ago that a M 282
two old men i M 268
two men got a M 268
two dead and a M 262
two but for a M 260
two men see a M 258
two but with a M 258
two and put a M 250
two men but a M 244
two men ran a M 240
two are but a M 240
two kings had a M 238
two ago was a M 236
two men that a M 232
two and add a M 232
two are for a M 226
two are doing a M 222
two and and a M 222
two men led a M 218
two out for a M 216
two each with a M 212
two one was a M 208
two each had a M 206
two wings was a M 204
two has had a M 204
two that are a M 195
two and say a M 188
two who was a M 186
two was that i M 184
two men set a M 184
two year and a M 182
two things had a M 180
two being that a M 178
two one and a M 174
two and now i M 174
two man and a M 172
two they had a M 170
two deal with a M 170
two men who a M 168
two men put a M 168
two had led a M 166
two and got a M 166
two things does a M 164
two but not a M 160
two boy and a M 160
two was for a M 158
two had not a M 158
two had each a M 156
two men cut a M 154
two rings for a M 150
two ago for a M 148
two men run a M 144
two men near a M 140
two men than a M 138
two was that a M 136
two that has a M 136
two all that i M 136
two men bring a M 134
two was but a M 132
two then had a M 132
two men doing a M 132
two men one a M 130
two who has a M 128
two you and i M 126
two for all i M 126
two wings for a M 120
two can get a M 120
two kings with a M 118
two was all i M 114
two off for a M 114
two men ate a M 114
two you get a M 110
two that was a M 108
two each for a M 108
two men lay a M 106
two going for a M 106
two out with a M 104
two and use a M 102
two who are a M 98
two end with a M 97
two men sat a M 94
two this was a M 92
two that bear a M 92
two let out a M 92
two old men a M 90
two men than i M 90
two men but i M 90
two men bear a M 90
two and did a M 90
two two and a M 88
two had for a M 88
two but has a M 88
two men beat a M 86
two things can a M 82
two red and a M 82
two are now a M 82
two and two i M 82
two kings for a M 80
two year old i M 43
two ears and a D 1392
two men met a D 480
two met with a D 422
two met for a D 356
two had met a D 238
two ears for a D 206
two bob and a D 199
two ears with a D 196
two teas and a D 190
two toes and a D 144
two hoes and a D 142
two ads for a D 130
two seas and a D 128
two men dug a D 120
two men rob a D 118
two ions with a D 112
two ups and a D 106
two bob for a D 94
two ton and a D 91
two ions and a D 82
