two will do . M 1772
two from it . M 1240
two from me . M 834
two went on . M 812
two years on . M 746
two went by . M 712
two upon it . M 616
two came up . M 582
two will be . M 384
two spring up . M 374
two shut up ? M 362
two must go . M 286
two from us . M 272
two stop it ? M 264
two break up ? M 262
two eyes on . M 254
two into it . M 240
two made it . M 236
two feet up . M 218
two over it . M 206
two coming up . M 206
two years of . M 204
two join us ? M 198
two stop it ! M 196
two sets of . M 188
two went up . M 178
two like it . M 178
two among us . M 172
two will go . M 154
two less so . M 148
two said no . M 144
two shut up ! M 138
two made up . M 132
two will do ? M 130
two like me . M 130
two know it . M 130
two show up . M 127
two years at . M 124
two must be . M 124
two boys be . M 122
two pair up . M 110
two make up ? M 110
two grow up . M 110
two coming in ? M 104
two sons of . M 98
two make up . M 98
two knew it . M 98
two left us . M 96
two from me ? M 96
two stop it . M 94
two grew up . M 94
two shut up . M 92
two made up ? M 92
two days on . M 86
two come in ? M 84
two upon me . M 80
