slow a rate of M 1574
slow a rate to M 703
slow a rate as M 476
slow i walk in M 460
slow a means of M 249
slow a mode of M 149
slow a girl to M 90
slid a hand up D 1065
slid a look at D 1034
slip a pair of D 802
slid a pair of D 780
slip a note to D 656
slip a word of D 640
slam a door in D 604
slid a hand to D 548
slung a pair of D 498
slip a length of D 481
slow a pace to D 454
slid a copy of D 420
slip a word in D 390
slow a pace as D 386
slit a hole in D 350
slap a coat of D 338
slam a door on D 314
slip a copy of D 298
slap a lien on D 282
slip a word or D 244
slap a fine on D 237
slip a word to D 234
slid a tray of D 234
slip a hint of D 228
slid a bowl of D 226
slid a pack of D 216
slap a pair of D 214
slam a door or D 214
slip a warm or D 208
slid a hand in D 204
slung a belt of D 200
slid a pile of D 198
slip a note in D 192
slip a hand in D 184
slew a hart or D 172
slap a baby in D 166
slid a foot or D 154
slip a loop of D 153
slid a sheaf of D 152
slid a finger in D 152
slow a pace of D 148
slap a hand on D 143
slew a part of D 138
slew a host of D 138
slid a yard or D 134
slap a hand to D 127
slid a slip of D 124
slip a roll of D 120
slip a finger in D 118
slung a sack of D 112
slung a coil of D 110
slip a drop of D 109
slip a hand up D 107
slid a look in D 106
slip a dose of D 104
slap a suit on D 102
slap a writ on D 100
slot a slot on D 92
slit s into the D 92
slow a pace in D 91
slip a clue to D 88
slid a roll of D 86
slit a foot or D 83
slid a finger up D 81
slid a look to D 80
slip a slip of D 43
