worship of god . M 112768
worried to death . M 7109
worship to god . M 6157
wounded or dead . M 5243
wounded to death . M 5084
worship of him . M 5082
worried at all . M 5006
worship at all . M 4806
worship the sun . M 4462
worship of god ? M 4448
wounded in war . M 3461
workers at all . M 2648
wonders of god . M 2481
wounded by them . M 2407
worship to him . M 2365
worship of them . M 2240
worries at all . M 1690
wonders of old . M 1668
workers do not . M 1626
worried by them . M 1256
workers in them . M 1244
wounded at all . M 1224
wounded or not . M 1186
worship of man . M 1126
worried by this . M 1120
worship in them . M 1104
worried he was . M 1100
worship of god ! M 1044
wounded to die . M 1018
worship of her . M 950
worship of men . M 930
worship is due . M 922
workers in all . M 918
worship to them . M 861
wounded or dying . M 851
workers or not . M 838
wounded by him . M 830
worried by now . M 802
worship as god . M 780
worship the god . M 719
workers is low . M 652
wounded or ill . M 641
workers to them . M 634
worried to death ! M 632
worried at all ? M 595
worship on earth . M 580
worship of death . M 544
worship or not . M 542
worship the dead . M 536
workers to use . M 534
worries me too . M 533
wondering at her . M 520
wounded by sin . M 510
worries to him . M 474
workers in each . M 464
worship of all . M 458
worship of you . M 428
worried by that . M 424
wounded the man . M 418
worship at all ? M 408
wondering at them . M 404
workers in lead . M 396
worship to all . M 374
worried or not . M 355
worried me too . M 348
workers to death . M 344
worship the sun ? M 339
worries me now . M 336
workers at that . M 326
worship to you . M 323
worthier of you . M 308
worship at them . M 302
wondering at him . M 296
wounded in them . M 294
workers or both . M 294
wounded in leg . M 291
workers of them . M 290
wonders of god ! M 287
worries to god . M 284
wondering at all . M 280
workers to see . M 272
worthier of her . M 270
worship in song . M 268
wonders of man . M 256
wounded by this . M 252
worship of things . M 252
worries to her . M 252
worship to god ? M 250
wondering at this . M 250
wonders to hear . M 249
worried the cat . M 246
worship no man . M 242
workers on them . M 236
worthily of god . M 234
wonders at him . M 231
wounded no one . M 230
worried no one . M 230
wounded in all . M 228
wonders he saw . M 222
worried us all . M 218
workers of all . M 218
worship my god . M 212
wonders to him . M 209
worship of him ? M 206
worship is not . M 202
worthily of him . M 200
wounded he was . M 198
worship the earth . M 196
worthily of her . M 194
worship the son . M 191
workers to read . M 190
worried or sad . M 189
wonders at this . M 180
worship as this . M 176
worried to death ? M 176
wonders on earth . M 175
workers as men . M 174
wonders at all . M 173
workers or not ? M 172
workers by age . M 172
wonders of god ? M 172
workers of god . M 170
worship is god . M 168
workers to him . M 168
worship is one . M 164
wounded the bear . M 162
worship of old . M 162
worship of fear . M 162
workers on earth . M 162
wounded by war . M 161
worship the man . M 161
wounded to death ? M 158
wounded or dead ? M 157
wounded or weak . M 154
wounded in arm . M 148
workers is not . M 148
worried by him . M 147
wonders to see . M 147
worried as she . M 145
worship of both . M 144
workers to act . M 142
wonders on her . M 142
wonders at them . M 141
worries of war . M 140
worship to her . M 139
wonders in them . M 138
worries us all . M 136
worried the men . M 134
workers so far . M 134
workers of old . M 134
wonders of him . M 134
worried by you . M 132
workers to pay . M 130
workers to buy . M 130
wonders in him . M 130
worship of them ! M 128
worried at him . M 128
workers by law . M 128
worthier of him . M 126
worried to you ? M 126
worship my god ? M 124
worried at this . M 122
wounded by her . M 120
worship of each . M 120
worried us both . M 117
wondering at that . M 114
worldly of men . M 112
workers at all ? M 110
worries to you . M 108
wonders to you . M 108
wonders on him . M 108
wounded at that . M 106
workers to win . M 106
worried we are . M 104
worship or not ? M 103
worship by them . M 103
wounded the boy . M 102
worthier of them . M 100
worship is dead . M 100
worried at that . M 100
worried as you . M 100
workers in may . M 100
wonders to them . M 100
wounded by you . M 98
worship to him ? M 98
workers of this . M 98
worship of kings . M 96
wounded at all ? M 94
workers to bear . M 94
wonders in her . M 94
wounded or not ? M 92
worries on him . M 92
worried of all . M 91
wounded of them . M 90
wounded by air . M 90
worship of war . M 90
workers to lead . M 90
wounded on them . M 88
worries he had . M 88
worried by then . M 88
wonders of her . M 88
wounded so far . M 86
wounded or die . M 86
worship of earth . M 86
wonders of earth . M 86
worship of her ? M 84
worship by law . M 84
worries on you . M 84
workers is bad . M 84
wondering at you . M 84
wounded in her . M 82
wounded by that . M 82
worship is going . M 82
worried the boy . M 82
worried at all ! M 82
wonders we saw . M 82
worship to ask . M 80
workers is weak . M 80
worldly at all . M 56
worship at all ! M 55
worship the bear . M 42
wonders at you . M 41
