room for the new M 51400
road all the way M 22438
room for the two M 12608
room and it was M 12528
room for the use M 11088
room and he was M 8752
room that he had M 8122
room with an air M 8036
room for us all M 7309
room for the idea M 6954
room for the men M 6034
room and the two M 5893
room and do not M 5814
room for me and M 5754
room with the two M 5674
room that is not M 5432
road and it was M 5427
room that he was M 4822
role that is not M 4726
role that he had M 4616
room for the old M 4574
road that he had M 4479
room with me and M 4310
room and he had M 4126
room with the air M 3972
road was so bad M 3812
role that it has M 3746
room and no one M 3629
root out of dry M 3584
room that it was M 3496
room with an old M 3424
room one by one M 3226
role that he was M 3224
room was the one M 3206
role was to act M 3192
room for the man M 3191
role than it does M 3146
role for the new M 3138
room and the men M 3082
road that we had M 3045
room was an old M 3010
room for the day M 2989
road and the old M 2982
room and the one M 2857
room that is too M 2776
room with the big M 2738
room for us both M 2598
room but it was M 2476
room that no one M 2475
road and the new M 2464
road than the one M 2455
road and he was M 2455
room and we had M 2448
role that he has M 2438
room for it and M 2334
room and the old M 2306
room for us and M 2304
room with the old M 2300
room for as long M 2298
room for the one M 2182
room arm in arm M 2181
road that is not M 2162
room set up for M 2114
room than the one M 2091
role that it had M 2084
road that he was M 2083
role for the use M 2073
room with no one M 2023
road and do not M 2007
room for the head M 1987
role than it did M 1978
room with the man M 1960
room for the air M 1937
room and the man M 1899
road that it was M 1883
role than it had M 1846
room and in his M 1810
role than it has M 1792
room and we all M 1748
room for my own M 1728
room for the big M 1688
road for the use M 1676
road was the one M 1656
road was to run M 1636
role that it was M 1626
room with the dead M 1618
role than the one M 1617
room that we had M 1608
role that it can M 1606
room and the air M 1570
role and do not M 1570
room with me for M 1558
role was to bring M 1548
road map of how M 1524
room for the long M 1514
room all the way M 1508
role and is not M 1504
role for the law M 1487
room with the aid M 1470
room for so long M 1450
room all in one M 1449
room had an air M 1446
role that it does M 1446
road and he had M 1444
road out of this M 1437
role and the way M 1406
room with the men M 1404
road that we are M 1402
road and the two M 1398
room with the red M 1395
room with the new M 1394
room and we sat M 1394
room for the things M 1392
room for it all M 1385
room for the real M 1380
room and go out M 1376
role that is being M 1374
road that is now M 1372
root out the old M 1330
room you do not M 1320
room and he did M 1318
room and the bar M 1316
room and he saw M 1312
road and the low M 1310
role that the new M 1284
role and it was M 1280
room with the long M 1272
room and we can M 1270
road and we had M 1265
room for the dead M 1262
room and to his M 1260
room and the way M 1248
role may be that M 1239
room off to one M 1230
room was in its M 1204
role than in any M 1204
room for an old M 1176
room and the use M 1168
room and on his M 1162
room for no one M 1160
room lit up with M 1142
room and the new M 1136
room for the boy M 1132
room with us and M 1116
room was in use M 1113
road for the new M 1107
room for tea and M 1096
room and is not M 1094
room and to her M 1086
room and in her M 1060
room and as she M 1054
road but it was M 1054
road and the one M 1048
road near the old M 1047
room who is not M 1044
root idea is that M 1042
room and in this M 1034
road map to get M 1034
root out of our M 1028
room near the top M 1015
role that it did M 1008
role was to lead M 1004
room and the big M 1002
root out of his M 996
road was an old M 996
room that he has M 990
room for in his M 982
room with the one M 978
room and it had M 978
room with the dog M 973
role due to its M 970
role than he had M 964
room that he and M 952
room but he was M 950
room set up with M 942
room and he sat M 938
room near the end M 936
room and my own M 936
road near the top M 936
role for the poet M 926
role for the two M 914
room for the few M 904
road and the men M 903
road and no one M 902
role for the non M 900
room with my head M 898
role and the new M 892
road that he has M 888
room with the sun M 885
room with the boy M 876
room with my own M 856
role out of all M 856
role that the law M 854
role that we are M 844
room for the son M 842
room and in that M 832
room that he did M 830
role was to get M 822
room and he and M 818
road for so long M 818
room for in this M 814
room for the non M 810
road that no one M 805
road you do not M 800
room got up and M 794
room and if you M 792
room and the sun M 790
room with it and M 784
road and the path M 781
room for the dog M 778
road was in bad M 778
room that is now M 774
room can be set M 774
room and in one M 774
room and we are M 768
room and the long M 768
role that is both M 768
room can be had M 766
road and the end M 765
road was the old M 758
room was so big M 756
role that we can M 754
room but no one M 753
role each of them M 748
room with the head M 738
room but he did M 736
room than he had M 734
role that he and M 734
role may or may M 734
room but do not M 732
role that the idea M 732
room may be too M 728
road and is now M 722
road that is being M 716
room than in any M 714
role for so long M 712
room one or two M 708
role and the use M 704
road that we can M 703
role was to set M 700
room with the box M 699
room may be set M 692
room was the old M 688
road goes up and M 676
room was in one M 674
road out of his M 672
room was on one M 671
role for the man M 671
room off the bar M 670
room for the law M 669
room was as big M 666
room and the heat M 661
room with an easy M 654
room and the boy M 654
road and the long M 652
role may be one M 651
room that we are M 650
road map on how M 643
room was at one M 640
road and the way M 639
room sat an old M 638
room with the key M 636
root end of each M 635
room for the sun M 633
road and we are M 632
road and the area M 630
road may be long M 626
role was to see M 624
road was in use M 623
root that is not M 622
room with the low M 620
road and the man M 620
road and the east M 618
role that the two M 617
room than we can M 616
role that no one M 616
room with the bar M 614
room out of his M 614
room and an old M 614
room lit by one M 610
road and the sky M 609
room for the fear M 607
role that he did M 606
room and the red M 603
room for it now M 602
role and of his M 600
root out the bad M 590
room was on his M 590
room that is being M 588
room was on him M 586
room for the six M 585
room and the things M 584
room and at his M 584
role was to try M 584
role for the air M 584
room with no air M 582
road with no end M 581
road for the year M 580
role and of its M 576
room with the idea M 572
room and as they M 572
root for the team M 570
room than he was M 570
room key in his M 563
room and is now M 562
room and up and M 560
role they do not M 560
room one of them M 558
room for the weak M 558
room and to get M 556
root and in its M 550
role that it may M 548
role and it has M 546
road goes on and M 546
room for me for M 542
room and to see M 540
role that he can M 540
role but is not M 538
role and he was M 538
room that we can M 536
role and in his M 536
room who do not M 534
role was in this M 534
room had an old M 530
road with the old M 529
road and the air M 529
road with the team M 527
road and is not M 527
room may be had M 526
room for the red M 526
road with no one M 526
road and he saw M 525
room was on her M 520
room and he has M 518
road with the new M 518
room but my dear M 514
road that it has M 514
role was to bear M 510
role was the one M 510
room with me now M 504
road for as long M 503
room and he got M 502
role that is now M 502
role for the old M 502
room with the bow M 500
room and the day M 498
role with the team M 498
road and the sun M 498
role and the man M 495
road with the two M 494
room that is set M 492
room for me with M 492
room for the top M 488
room and we both M 488
role was to put M 482
room for the god M 481
room with an area M 480
room and at that M 480
road and as far M 478
room for the both M 476
room was so far M 474
role with the new M 473
root idea of this M 472
room was at its M 472
road that he and M 470
road and he did M 470
role but do not M 468
road was as bad M 466
room was as she M 462
room and we did M 462
role and in this M 462
root and the top M 461
room with my two M 461
road with the sun M 459
room for the poet M 458
room was so low M 456
room and on her M 456
role for the head M 456
role for as long M 455
room and the rear M 453
road and it had M 453
role for an old M 452
room with my son M 451
root and the two M 450
road had to run M 450
road and we can M 450
room and in all M 448
room with tea and M 446
room and the area M 445
room was so dim M 444
room was at that M 444
room than it was M 444
room are the two M 443
road and if you M 441
road and an old M 441
root that it was M 437
road map of his M 435
room they do not M 432
room had the air M 432
road they do not M 432
room was the man M 428
room for the box M 428
role and in its M 428
room was the big M 426
room lit by two M 426
room with the use M 424
road that he did M 424
role was to sit M 422
role was to deal M 422
role but it was M 422
room with me all M 420
room than it had M 420
room and in our M 420
road with an old M 420
road and by air M 420
road with me and M 418
room with an earth M 417
room for the meal M 416
room was to her M 414
room but the two M 412
road was in its M 412
room for in our M 408
road and in his M 408
road was at that M 406
role and the one M 405
room has an air M 403
room for the ten M 403
room was on that M 402
room with no heat M 401
room and he can M 400
room and at her M 400
room key in her M 399
role has so far M 396
road map is not M 395
room may or may M 394
road near the end M 393
room than it did M 392
room for an idea M 392
road and the top M 391
room with an oak M 389
room and he put M 388
room that he can M 386
room for the team M 386
room with no way M 384
room with me was M 384
room and it has M 384
room and if they M 384
room and at this M 382
room with the dying M 380
room that he saw M 380
role that is far M 379
road and as they M 378
room and as far M 376
room that the two M 375
room out of her M 374
room has an area M 372
room and we got M 372
room for the dying M 370
room with the cat M 368
room near the head M 368
room and to use M 366
room and so did M 366
road going to and M 366
road all on this M 366
room but he had M 364
role was to use M 364
road was the way M 364
room for my son M 362
role all the way M 362
root out the ego M 360
room for my new M 360
room and at one M 360
role for the long M 360
road law of this M 360
room than we had M 358
road that it had M 358
road out of its M 358
room for the end M 357
road and the red M 356
room and on that M 355
room with me that M 354
role for the team M 354
road near the head M 354
room with an eye M 351
room and the key M 351
road for as far M 350
room for me too M 348
root and do not M 346
room near by and M 346
room and in each M 342
room and to sit M 340
room and as you M 340
role was to aid M 340
room was the bar M 338
room than he did M 338
room near the old M 338
room and he does M 338
road was at its M 338
room and the dog M 337
room and it did M 336
room and go and M 336
room had no heat M 334
room for the key M 334
room near the bar M 332
role than at any M 332
road map of this M 332
root that he had M 330
room for the easy M 330
room for the bad M 330
room and the few M 330
role and the real M 330
root may be cut M 328
room was in this M 328
room than the old M 328
room and of his M 328
role that he does M 328
road with the aid M 328
road out of our M 327
root and is not M 326
room with my new M 326
room for us with M 326
room and of her M 326
road for the two M 326
road map of new M 325
root out of this M 324
room than my old M 324
room set up and M 324
room all my own M 324
root for the new M 323
room for the year M 323
room and the east M 323
road map of our M 323
room was to him M 322
room was in that M 322
room that it had M 322
room was in his M 320
room but the old M 320
role than he does M 320
road and the big M 320
road and of its M 320
road than he had M 318
road and we got M 318
room for it was M 316
room and the head M 316
road was to bring M 316
road and it has M 316
room that he may M 312
room and on this M 312
room and of all M 312
room and by his M 310
road and we all M 310
road with the one M 309
room than it does M 308
road than it was M 308
road and the few M 308
root out the new M 307
road and in this M 307
room was by now M 306
room that is both M 306
room and if she M 306
root them up and M 305
room for an all M 305
room that the man M 302
room for the cat M 302
room all the day M 302
role that is too M 302
road than he was M 299
role was in all M 298
role and to use M 298
room for the joy M 296
road near the new M 296
room with an odd M 294
road was up and M 294
road and we did M 294
role for the day M 293
room with the bag M 292
room and be with M 292
role both in his M 292
road for me and M 292
road but the one M 291
root out the idea M 290
room than in his M 290
room for the all M 290
room one of his M 288
room had the odd M 288
room and the low M 288
room was so long M 287
room for the rear M 287
root that he was M 286
room and at each M 286
role and is now M 286
road led us for M 286
room was by far M 284
room than in one M 284
role for me and M 284
road and on both M 284
room for in her M 282
road than we had M 282
road map so that M 282
room for the plea M 280
road was in that M 280
road lay in that M 280
room and the box M 279
room with the team M 278
room that the old M 278
room and the dim M 278
room and it may M 278
room and in its M 278
road and the use M 278
road and we saw M 277
road and to his M 277
room and is then M 276
role and to act M 276
room air is not M 275
room was in near M 274
room was as they M 274
role for the idea M 274
root out of men M 273
room was on its M 272
room for the ego M 272
role than it now M 272
road and in our M 271
road was so far M 270
room with us for M 268
road led up and M 268
room off the big M 266
role than it was M 266
road arm in arm M 266
room was to let M 264
room and go with M 264
room and do his M 264
role than he did M 264
road with the big M 264
road but do not M 264
room with the set M 263
room was as yet M 262
road out of that M 262
road map if you M 262
road are the two M 262
root and it was M 260
room with the easy M 260
room was the long M 260
room and of its M 260
role was to ask M 260
role both in its M 260
road than the old M 260
road and the day M 259
room with the ease M 258
road map to war M 258
room for the due M 256
room and we saw M 256
road and he has M 256
room and the dead M 255
role and in that M 255
room has an old M 254
road had by this M 254
road but he was M 254
room and the end M 253
room for the bar M 252
role may be due M 252
road was to lead M 252
road that is both M 252
road map to this M 252
road and on his M 252
root all the way M 251
role for the real M 251
role and we can M 250
role can be one M 249
root that it has M 248
root out of her M 248
road and at his M 248
root out the sin M 246
root idea of all M 246
room with an arm M 246
room that we may M 246
room and he read M 246
role and it can M 246
room out of two M 245
road with an air M 245
room for the bow M 244
role that the use M 244
road with the idea M 244
road for the long M 244
road and at that M 244
room with us now M 242
room but it had M 242
room and to put M 242
role each of you M 242
role and to see M 242
road has an end M 242
road was so long M 241
road and the rear M 241
room was an odd M 240
room that is his M 240
road with the end M 240
road out of her M 240
road map to see M 240
room with me but M 238
room was in her M 238
role than he has M 238
room for the odd M 236
room and do her M 236
road led to his M 236
road map in his M 235
role for the men M 234
room and to one M 233
room with the son M 232
room that we did M 232
room may be all M 232
room for the far M 232
room for the eye M 232
room for my use M 232
room for my things M 232
room and do all M 232
road map on his M 232
room that it has M 230
role and it may M 230
road that the two M 230
room with the heat M 229
room that is all M 229
road with us and M 229
road has no end M 229
room with no idea M 228
room for me but M 228
room and the cat M 228
room and in and M 228
room and go for M 228
role that the man M 228
road with me for M 228
road may be had M 228
room not at all M 226
room may be put M 226
room but is not M 226
role you do not M 226
role can be both M 226
road with an easy M 226
room that do not M 224
room than the head M 224
room lit up and M 224
room for the saw M 224
road for the day M 224
room and on one M 222
road one by one M 222
road near by that M 222
road goes on for M 222
room but the one M 221
room and the meal M 220
road and in its M 220
root for the web M 219
root idea is not M 218
room with my old M 218
room that we all M 218
room and we see M 218
room and so was M 218
road ran up and M 218
room than the two M 217
room was the way M 216
room was by this M 216
room was at his M 216
room that is going M 216
room for the path M 216
road one of them M 216
room that he now M 214
room had it not M 212
room for us near M 212
room for us for M 212
room for the way M 212
role that he may M 212
role for the ego M 212
road than we are M 212
road and on its M 212
road and in her M 212
room and it does M 210
road but no one M 209
root and the new M 208
room with the cry M 208
room was at this M 208
room for it with M 208
road map of all M 208
road for the old M 208
road and of his M 208
room with the map M 206
room that the men M 206
room not in use M 206
room for me near M 206
room and the top M 206
room and he lay M 206
role that he saw M 206
role owing to its M 206
role for the area M 206
role and is thus M 206
road that we did M 206
road can be had M 206
room for the heat M 205
root that we can M 204
room out of fear M 204
role that we now M 204
road with the boy M 204
road and to use M 204
room for the arm M 202
room and to hear M 202
role but he was M 202
road map to that M 202
road goes as far M 202
road and to our M 202
room for an air M 201
road and go east M 201
root out the use M 200
root and is now M 200
room was on this M 200
room off the rear M 200
role and we are M 200
role and so did M 200
room was so bad M 198
role that the non M 198
role and to his M 198
role and the idea M 198
road than he did M 198
road map to lead M 198
road and he and M 198
room for me that M 197
road map to his M 197
room out of this M 196
room near the rear M 196
room may be one M 196
room leap the long M 196
room but it did M 196
role was to run M 196
role that we had M 196
road map to our M 196
root rot is not M 194
room and in any M 194
role for the low M 194
role can be that M 194
root idea of that M 193
role and the two M 193
road then in use M 193
root may or may M 192
room for the wings M 192
room and we ate M 192
room and to that M 192
role for it was M 192
role due to his M 192
role both in our M 192
role and the job M 192
road who do not M 192
road was at this M 192
road now in use M 192
road and the heat M 192
room for the meat M 191
road map to all M 191
room for me now M 190
room day in and M 190
room and to let M 190
room and on its M 190
road was in his M 190
road had to pay M 190
room was the red M 189
room had no air M 189
room than if they M 188
room can be put M 188
room and the death M 188
road with my head M 188
room with as few M 186
room was to our M 186
room may be due M 186
room day by day M 186
room and to ask M 186
role than in that M 186
role than he was M 186
role but it does M 186
road going up and M 186
room with the eye M 184
room was at all M 184
room and so she M 184
road out of all M 184
road and on each M 184
room and go off M 183
room with the real M 182
room two by two M 182
room for an easy M 182
room and we sit M 182
room and on each M 182
role and to bring M 182
road and to see M 182
root idea of his M 180
room was to his M 180
room was as far M 180
room for the earth M 180
room and to our M 180
room and on top M 180
room and it can M 180
road map as you M 180
road lying on his M 180
road but he did M 180
road all the day M 180
road with the dog M 179
root out the real M 178
room with the six M 178
room was the top M 178
room for an act M 178
room and to bring M 178
role his or her M 178
road that do not M 178
room with us was M 176
room has the air M 176
room for on this M 176
role than in his M 176
role led to his M 176
role and he had M 176
road with the men M 176
road was at all M 176
role for the east M 175
root for the red M 174
room with an idea M 174
role that the poet M 174
role than it can M 174
room with the fly M 173
room was an area M 172
room for us two M 172
room for the lot M 172
room but me and M 172
room and to this M 172
role and of her M 172
role and in her M 172
road that he can M 172
room had an odd M 170
room and my head M 170
role than we are M 170
role does the law M 170
road with us for M 170
road led to this M 170
road for us and M 170
road with the man M 169
role that we may M 168
role due to her M 168
road map of her M 168
road and the boy M 168
road and in all M 168
road and he got M 168
role was the lead M 167
room with the kid M 166
room was on them M 166
room that is lit M 166
room lying on his M 166
role for me was M 166
road that is long M 166
road for to try M 166
road and up and M 166
room with us that M 164
room near the one M 164
role that the old M 164
root rot of red M 163
room now if you M 162
room for the bag M 162
room and to read M 162
room and eat and M 162
role and to put M 162
road ran on and M 162
road can be put M 162
road and it did M 162
room for the sky M 161
road and to get M 161
room was to get M 160
room but it does M 160
room and of that M 160
room and at its M 160
road was an easy M 160
road one or two M 160
road may or may M 160
role that the real M 159
road for the man M 159
road and is one M 159
room with the cup M 158
room was the low M 158
room for the pre M 158
room and on out M 158
role than is now M 158
role out of fear M 158
road with the top M 158
road that it may M 158
root but is not M 157
road and in that M 157
room with the things M 156
room was to put M 156
room was the real M 156
room was my own M 156
room had no idea M 156
room for my head M 156
room for me was M 156
room and an area M 156
role was in any M 156
road with the long M 156
road with my own M 156
road that at one M 156
road and to its M 156
room with an all M 155
room for an arm M 155
road was so cut M 154
root and the bud M 153
room for the low M 153
road and in one M 153
room off to his M 152
room and he ran M 152
room all the year M 152
role was to win M 152
role was to say M 152
role was to lay M 152
role was to cut M 152
role than in our M 152
room out of one M 151
road for the men M 151
room with me had M 150
room had at one M 150
room for no new M 150
room but an old M 150
role now is that M 150
role not as that M 150
role for the boy M 150
role both in this M 150
role and no one M 150
role and he did M 150
road near the east M 150
road may be cut M 150
road and the going M 150
road and he ran M 150
root out the fear M 149
room with the oak M 149
room with the sad M 148
room that we two M 148
room out of that M 148
room for the set M 148
room for the death M 148
role was to add M 148
role near the end M 148
road was by way M 148
road out of new M 148
road may be one M 148
road and if they M 148
room and the real M 147
room off the long M 146
room for the ill M 146
room and we hear M 146
room and to try M 146
room and to say M 146
role that we see M 146
role that it now M 146
role out of his M 146
role and he has M 146
road with no idea M 146
road was to pay M 146
road than on one M 146
road and at one M 146
room with the top M 145
room and at all M 145
road but he had M 145
room that we see M 144
room that it may M 144
role that he now M 144
road for an old M 144
road can be cut M 144
room and the six M 143
room and the set M 143
role for the lay M 143
root can be cut M 142
room with the sky M 142
room that the boy M 142
room one of her M 142
room off the end M 142
room near the big M 142
room cut in two M 142
role was to pay M 142
role was the key M 142
role for the way M 142
road that the old M 142
road near an old M 142
road map in this M 142
road and in new M 142
room and the son M 141
room and the sky M 141
room with the bad M 140
room with it for M 140
room for the now M 140
room and the dying M 140
room and in two M 140
role with the aim M 140
role that the head M 140
role has as yet M 140
road with it and M 140
road was as yet M 140
road are in any M 140
root him up who M 139
room and an air M 139
root that we are M 138
root out of its M 138
root idea of our M 138
room with the poet M 138
room that at one M 138
room put an end M 138
room for the east M 138
room for my two M 138
room and to its M 138
room and the fear M 138
room and on our M 138
role was to read M 138
role that is new M 138
role may be too M 138
road that he does M 138
road map he had M 138
road had it not M 138
road and he can M 138
role for the red M 137
room with us all M 136
room than in her M 136
room sat the two M 136
room are in one M 136
role was to buy M 136
role both in and M 136
road with the head M 136
road with the dead M 136
road and of all M 136
room with the day M 135
room with my dear M 135
role for the one M 135
road that the sun M 135
room this is not M 134
room and to set M 134
room and on all M 134
role with the use M 134
role and to its M 134
role that the war M 133
room with the few M 132
room with no real M 132
room was an oak M 132
room but it has M 132
room and the team M 132
room and ring for M 132
room and eat with M 132
role has as its M 132
role and to that M 132
role and in doing M 132
road was at one M 132
road and so did M 132
room and so that M 131
road that we may M 131
road that is all M 131
root and of its M 130
root and in this M 130
room with the wet M 130
room was on and M 130
room for on one M 130
room and so had M 130
role and my own M 130
road who is not M 130
road has as yet M 130
road and so run M 130
root but do not M 129
room and as long M 129
room than as they M 128
room for the poem M 128
room can be got M 128
room and to add M 128
role than we had M 128
role does the idea M 128
role and so does M 128
road was to get M 128
road and it may M 128
room for the war M 127
room that the new M 126
room for the kid M 126
room being on that M 126
room and the kid M 126
role was to let M 126
role was in his M 126
role that in our M 126
role nor do they M 126
role may be for M 126
road than on any M 126
road one of his M 126
road may be put M 126
road led the way M 126
road for the path M 126
road and to pay M 126
road and go off M 126
road and at its M 126
room that is off M 125
role that is out M 125
root that it can M 124
root out the one M 124
room with an oath M 124
room that it can M 124
room off the old M 124
room for us too M 124
room for it but M 124
room but if you M 124
room but as she M 124
room and tea was M 124
room and my son M 124
room and at low M 124
room for an area M 123
root out of him M 122
room out of our M 122
room and it all M 122
role than to his M 122
role not as one M 122
role for the top M 122
role and of that M 122
role and it does M 122
road that we all M 122
road that is going M 122
road map so you M 122
road and the dry M 122
road and at this M 122
room was to see M 120
room than to any M 120
room for the sum M 120
room for my old M 120
room for he had M 120
room can be one M 120
room and the idea M 120
room and at any M 120
room and as his M 120
role that we all M 120
role but it has M 120
role and is being M 120
road than it does M 120
road and the far M 120
road and as you M 120
road than in any M 119
root may be due M 118
room with my bag M 118
room had he not M 118
room had by this M 118
room for it than M 118
room for in that M 118
room for he was M 118
room and to buy M 118
room and to all M 118
room and by her M 118
role was as yet M 118
role that the men M 118
role than in its M 118
role not at all M 118
road was in this M 118
road than we did M 118
road but is not M 118
root and it has M 117
room that the sun M 117
road and on top M 117
road and as she M 117
room with my arm M 116
room was the end M 116
room that is easy M 116
room out of its M 116
room let up and M 116
room for on his M 116
room but is now M 116
room both of them M 116
role for it and M 116
role can be set M 116
role and to try M 116
road was the key M 115
road and the head M 115
root and the end M 114
room that is red M 114
room than if you M 114
room near my own M 114
room for the then M 114
room and the wet M 114
room and in due M 114
room air so that M 114
role that it and M 114
role she is not M 114
role had it not M 114
role for the big M 114
role and the team M 114
road with no way M 114
road than it did M 114
road being so bad M 114
road and so was M 114
road and it led M 114
road but it did M 113
room was the new M 112
room was the head M 112
room was so near M 112
room was as dim M 112
room that we use M 112
room out of all M 112
room for it any M 112
room for in its M 112
room fit to sit M 112
room can be both M 112
room and he let M 112
role was in that M 112
role that my own M 112
role that is all M 112
road was in any M 112
road for the sun M 112
road and it can M 112
road and an area M 112
room was up two M 110
room was of oak M 110
room that he does M 110
room not so long M 110
room but we did M 110
room and the easy M 110
room and eat them M 110
room all of you M 110
role than the men M 110
role and by his M 110
road was by far M 110
road that it can M 110
road that is too M 110
road had to lead M 110
road but it may M 110
role and is one M 109
road that is one M 109
road than it had M 109
root and he was M 108
room was to say M 108
room that the air M 108
room than he does M 108
room and to each M 108
role with the one M 108
role that the team M 108
role but it can M 108
role and if they M 108
road and the bad M 108
road and he does M 108
root and is thus M 107
room that is out M 107
room that is far M 107
road with the air M 107
road for it was M 107
room with the toy M 106
room with the joy M 106
room was in any M 106
room for the leg M 106
room each of them M 106
room and we put M 106
room and the bad M 106
room and by its M 106
role with the aid M 106
road got so bad M 106
road for the east M 106
road all the year M 106
role may be far M 105
room that the poet M 104
room that it did M 104
room she is not M 104
room had as yet M 104
room for the job M 104
room for the dear M 104
room for it had M 104
room does it all M 104
room and so far M 104
room and me and M 104
role than the old M 104
role both on and M 104
role and the old M 104
role and the key M 104
road map to her M 104
road and to cut M 104
road and to bring M 104
root out of all M 103
role was as one M 103
road for the dead M 103
root out the few M 102
room with the too M 102
room was as long M 102
room may be for M 102
room lying on her M 102
room and no use M 102
room and he goes M 102
room air is being M 102
role for it has M 102
role can be and M 102
role and of being M 102
road ran in one M 102
road had no end M 102
road and we both M 102
road and on one M 102
room that is one M 101
root was on his M 100
root out in our M 100
room with the dim M 100
room that the real M 100
room for the run M 100
room but in one M 100
room but in his M 100
room and my old M 100
room and do this M 100
room all the men M 100
role was to him M 100
role and of how M 100
road was the path M 100
road that no man M 100
road led to death M 100
road and to all M 100
road and on our M 100
road and on her M 100
road for the ten M 99
root them up out M 98
root for the old M 98
room was so old M 98
room that we saw M 98
room that is big M 98
room but he and M 98
room and to pay M 98
room and the job M 98
room and the eye M 98
room and so they M 98
role was to earn M 98
role that the ego M 98
role than the man M 98
role and to set M 98
road map to how M 98
road had so far M 98
road and to run M 98
road and on all M 98
road and go out M 98
road and an easy M 98
root for the two M 97
root that is being M 96
room with me are M 96
room nor in any M 96
room but we had M 96
room but the man M 96
room but he does M 96
room and we set M 96
room and we say M 96
room and the odd M 96
room and of how M 96
room and of any M 96
room and in doing M 96
role was at that M 96
role that is his M 96
role new to her M 96
role and the long M 96
role and on his M 96
road was to lie M 96
road then as now M 96
road that the men M 96
road that the man M 96
road than if they M 96
road one of our M 96
road led by way M 96
road for the big M 96
road east of that M 96
road and so far M 96
road and it does M 96
road that he may M 95
road near to that M 95
room with my dog M 94
room with me who M 94
room off to her M 94
room has as its M 94
room and on both M 94
room and do that M 94
room air or with M 94
role that the pre M 94
role one of his M 94
road that we saw M 94
road led on and M 94
road and the dead M 94
road and in doing M 94
road and go for M 94
room with me then M 92
room with an ease M 92
room was in all M 92
room that is dry M 92
room one is not M 92
room had by now M 92
room for me any M 92
room but it can M 92
room and in ten M 92
role with the men M 92
role she is going M 92
role and the fear M 92
role and at one M 92
road that we too M 92
road than by that M 92
road out to that M 92
road may be too M 92
road led to one M 92
road and go and M 92
road and be run M 92
road and we sat M 91
root out an old M 90
room with an ill M 90
room that he sat M 90
room than in that M 90
room sat the old M 90
room not to see M 90
room for my men M 90
room for my bag M 90
room due to his M 90
room and it got M 90
role with an eye M 90
role for the end M 90
role both in her M 90
role and to get M 90
role and in any M 90
road with my son M 90
road that is cut M 90
road not at all M 90
road lay in its M 90
road for the few M 90
road for no one M 90
road are the old M 90
road and on this M 90
road and on that M 90
road and he put M 90
road and at each M 90
road led to new M 89
road for us all M 89
road and the dog M 89
root and to one M 88
room with an end M 88
room for the bear M 88
room for so doing M 88
room for me this M 88
room and the law M 88
room and is too M 88
room and do our M 88
room and by way M 88
role was by far M 88
role now is not M 88
role lay in his M 88
road that he saw M 88
road going in that M 88
road goes by way M 88
road can be got M 88
road and the log M 88
room and by that M 87
root idea in this M 86
root and is one M 86
room was to bring M 86
room was the dim M 86
room was of that M 86
room that is her M 86
room but he can M 86
room and sing and M 86
role than in this M 86
role she is now M 86
role may be not M 86
role has by now M 86
role being to act M 86
role and it did M 86
road was to end M 86
road was no easy M 86
road led to its M 86
road had by now M 86
road but is now M 86
road and to lay M 86
room was on top M 85
road and in any M 85
root with the new M 84
root and we are M 84
room was as bad M 84
room than we did M 84
room than it has M 84
room near to that M 84
room how he had M 84
room had so far M 84
room for the myth M 84
room for me had M 84
room but my own M 84
room but at him M 84
room and the poet M 84
room and of being M 84
room and as each M 84
role was to lie M 84
role was to fly M 84
role not of his M 84
role for the few M 84
role and the men M 84
road was the new M 84
road that is easy M 84
road but it has M 84
room with the end M 83
room due to its M 83
room and so out M 83
room year in and M 82
room with it one M 82
room with an east M 82
room was an act M 82
room that if you M 82
room than he that M 82
room put at his M 82
room near the east M 82
room for us but M 82
room for the act M 82
room but we can M 82
room and an easy M 82
role was in her M 82
road with no real M 82
road was in our M 82
road ran by way M 82
road near the big M 82
road map to its M 82
road has to run M 82
room with my big M 80
room was the men M 80
room that is our M 80
room than my own M 80
room hung on his M 80
room for us who M 80
room for the gear M 80
room for the area M 80
room for in any M 80
room and we may M 80
room and the wings M 80
room and he may M 80
room and he ate M 80
room and do you M 80
role was in its M 80
role lay in its M 80
role for the job M 80
road was up for M 80
road that it did M 80
road but we had M 80
road and to this M 80
road and in and M 80
room with the arm M 71
role for the heat M 68
room for the not M 59
root for the bad M 58
road with the rear M 57
room for the lead M 54
root out of them M 53
role for me that M 53
room with the now M 52
room for the lay M 50
room was the two M 49
road and so out M 49
road map in that M 48
root and the real M 47
room for the out M 47
role that the east M 47
role for the aging M 47
road for the one M 47
road and the earth M 47
root than the one M 46
room and the now M 46
role for the pre M 46
road and in rear M 46
room that is near M 45
role for the age M 45
road that the boy M 45
room with the ten M 44
room and the earth M 44
room and the far M 43
role that the red M 43
role for the pro M 43
root for me and M 42
room was the key M 42
room and my dear M 42
room and is one M 42
role that the dead M 42
root out the long M 41
room with the dear M 41
room now so that M 41
room for the being M 41
room for it that M 41
root them up with M 40
role with the two M 40
role that the age M 40
rode all the way D 12847
rose with the sun D 11607
rose out of his D 11350
robs him of his D 11320
roll out of bed D 9667
rode out to see D 6248
roll out the red D 5998
roll all the way D 5185
rose out of her D 5106
road and the car D 4810
root hog or die D 4200
roll for the year D 3930
rode off on his D 3898
rows that do not D 3268
roll out of his D 3158
room and the bed D 3086
roll them up and D 2972
rose out of its D 2780
rose and the red D 2772
rode off to his D 2734
rode low on his D 2622
room and to bed D 2619
robs her of her D 2566
rose one by one D 2435
rock all the way D 2433
robe and on his D 2324
rode out to his D 2246
roof was so low D 2216
rose with an air D 2211
rose out of this D 2098
rope out of his D 2038
robs man of his D 2010
robs them of all D 2006
rode out on his D 1982
rose all the way D 1848
roll off the bed D 1818
robs him of all D 1806
rose year by year D 1782
rode off in all D 1744
robs god of his D 1690
rode off to see D 1682
roof and the top D 1608
rode out of his D 1608
rose out of bed D 1594
rose for the day D 1591
rock that is not D 1563
rope that he had D 1458
room for the car D 1414
room was so hot D 1370
rock near the top D 1370
rose out of that D 1334
rock that he had D 1318
rose out of them D 1292
room for the toes D 1290
rose that he had D 1284
robs death of its D 1283
rock and it was D 1278
root rot of peas D 1257
rose and the two D 1256
rose and it was D 1232
roll out of her D 1224
rose and so did D 1184
room with the bed D 1175
rode one of his D 1138
roof and it was D 1070
rose and the sun D 1058
rode out in his D 1048
rock out of his D 1046
rode off to war D 1018
rose was in her D 973
rose out of all D 968
robs them of any D 964
rose and the yew D 923
rose and the key D 922
room was as neat D 912
rope off the area D 895
roll off the top D 888
rope all the way D 874
rose that he was D 862
rose got up and D 862
rose off the bed D 824
rose and he was D 821
rose day by day D 811
roof but the sky D 809
roll out the top D 807
rode low on her D 800
roll out the new D 782
robe that he had D 767
rods end to end D 766
room was the bed D 761
roll him on his D 745
roof and the two D 741
roar out of him D 718
rode with the men D 716
rode with us for D 714
room for the bed D 708
rods with an axe D 707
room and my bed D 703
rock and he was D 665
room and in bed D 664
roof all the way D 650
robs him of that D 648
road and the bus D 647
rode off on her D 642
roof was on and D 622
room and the bath D 620
room with the bay D 615
rose with the air D 614
rope out of her D 612
rose and the air D 608
rose that it was D 604
room and the den D 599
rode out of that D 596
rode with me and D 584
rode with me for D 576
rope and he was D 566
rock and the two D 566
roll out of its D 564
rose and in his D 560
rows all the way D 558
rose with it and D 548
rode one of them D 548
roof and the sky D 537
roll off the end D 532
roll his or her D 531
roll out the pie D 528
rode off to get D 528
robs you of all D 524
rock that is being D 522
root rot of bean D 519
room was as hot D 518
root and the leaf D 513
room with the gun D 510
rode out to them D 504
rode off in his D 504
roof and the earth D 496
rock art of this D 495
rose and the day D 492
root and the tip D 492
roll out to fit D 492
rock art in new D 489
rose out of and D 488
rods that do not D 486
road with the car D 485
roof that is not D 484
rope and the two D 480
rock him in her D 480
rode off to one D 478
rose had no idea D 476
rose with the day D 473
rock that is too D 472
rose was the one D 470
rock that it was D 470
rock that he was D 470
rock art is not D 469
rope and it was D 468
rock art in this D 466
room with the hot D 463
rosy hue of her D 460
room for the oil D 458
room for the art D 458
rock and the earth D 456
role for the yen D 450
rose and the sky D 449
roll out as thin D 448
rock with the rod D 446
rope and an axe D 444
room for the ice D 444
rode him up and D 442
rows and the two D 440
role for the ecu D 440
robs him of any D 440
rose and the new D 436
room with my hat D 436
rock and do not D 436
rode with the two D 432
robs them of that D 429
rose was on her D 428
rose and the men D 426
room with the bath D 426
road for the bus D 426
rows one by one D 422
rope with an eye D 419
room with the gas D 418
rock and is not D 417
roll him or her D 413
rock and the ore D 412
rosy tip of her D 410
rode two by two D 406
room for the gas D 401
rope that is not D 400
rode out to get D 400
roof and up and D 398
rock and the old D 391
rock that we had D 384
robs her of all D 384
roll and it was D 383
roof and he was D 382
rowing all the way D 378
rode out as far D 378
rose and he had D 376
room for the hot D 376
rode out to our D 374
rock out of her D 374
rope and the net D 370
roll with it and D 370
rock and the ice D 367
rose out of him D 366
rode off in that D 366
roll them up with D 365
roof that it was D 362
roof with the man D 361
roping off the area D 360
room with an ice D 359
rock with the aid D 358
rock that it has D 356
rose led the way D 354
rock and sea and D 352
room with the ice D 349
roof was the sky D 348
rock and the man D 347
room for my bed D 344
roof and in one D 344
rope for my own D 342
roll out of our D 341
rock and the new D 341
rose one or two D 340
rode out in her D 340
rope with an axe D 339
rose got to her D 336
room and the hot D 336
rock her in his D 336
roll one of them D 329
roof and the old D 328
rock that is now D 326
rock and the air D 326
rope that he was D 324
rode with us all D 324
rode out to war D 324
rode out of this D 322
rose and he saw D 318
room for the seal D 318
rode out to one D 314
robe and he was D 313
rose and the heat D 311
robs one of all D 311
rope was in his D 310
roll out the ink D 310
rode with us and D 310
rock and the wee D 310
roll out of this D 308
rope and the cat D 306
rode near the head D 306
rode with me all D 304
roof can be put D 302
rode out to him D 302
roll and do not D 301
rose out of one D 299
rock and the sun D 297
rose with an easy D 296
rode with the ease D 296
rock and the sky D 295
rose with an oath D 292
rode out of our D 292
romeo out of his D 290
robs them of one D 290
rose with the red D 289
rose with the heat D 288
roof that he had D 288
rode out to her D 288
rode near to him D 288
robs one of one D 288
rose that is not D 286
room and the car D 286
rode out of her D 284
robe that he was D 281
rose with the new D 280
roll that he had D 280
robs one of his D 280
room with an oil D 278
roof and the low D 278
rode out on her D 276
rode off in hot D 276
rock and the red D 275
rode out to bring D 274
roof and the air D 273
rose and the old D 272
room and the gas D 270
rose sat in her D 268
room for the hag D 268
roof and at his D 268
rock her to and D 268
rock and he had D 268
rode off at top D 267
rosy with the heat D 266
rose out of our D 266
rose and we all D 266
rope that is being D 266
room for the bath D 266
room but the bed D 265
rose and the ice D 264
rope and the gun D 264
rope and do not D 264
rope and an old D 264
rose with the aid D 262
roof and the long D 262
rock out of its D 262
road for the car D 262
rode off to bring D 260
rock and the way D 260
rods are of two D 259
rods all the way D 258
room with my dad D 257
roll off of her D 257
rows and do not D 256
rods and an axe D 253
rock that no one D 253
robe with the red D 253
rock and the one D 252
robs him of this D 252
rods one by one D 251
rock that it can D 248
roof and the sun D 246
roll out the big D 246
roll and he was D 246
robe for to goo D 246
room with my mom D 244
rode out to try D 244
rose was in his D 242
rock and of its D 242
room for the ass D 240
roof was in bad D 240
roof and the new D 240
rods and the rod D 240
rose with an ill D 238
rose not at all D 238
rose sat up and D 236
rose put on her D 236
rope and the man D 235
roof for the ark D 235
rode day by day D 234
room and the art D 232
rock with the old D 232
roof off the old D 230
room with the guy D 228
rock but it was D 227
robs age of its D 227
roll them up for D 226
roll off of him D 226
room near the bed D 225
role for the gut D 225
rose with the dew D 224
room for the gun D 224
rock and in this D 223
roof and in his D 222
rode out on one D 222
room and the gym D 220
rock was so hot D 220
rock near by and D 220
robs her of any D 220
room for an art D 219
rose than to put D 218
room for the swing D 218
roof for as long D 218
roof and on that D 218
rock and in its D 217
rope that we had D 216
room and the gun D 216
roof for the new D 216
roof for so long D 216
roll off of his D 216
robe and the red D 216
rose and the fog D 214
roof and he had D 214
roll her on her D 214
rock and the top D 214
road and the bay D 214
rock and on this D 213
rose and the man D 212
roof and we had D 212
rock near the earth D 212
roar and ring with D 212
rosy lip at this D 210
room was an oil D 210
roof and do not D 210
rode out of one D 210
rock may be cut D 210
roll out of him D 209
rows for the two D 208
rope and the axe D 208
rode out to pay D 208
room and the guy D 206
roof and the man D 206
rock can be cut D 206
roar and it was D 206
rope and the few D 204
room for the cow D 204
room for the bus D 204
romp with the dog D 204
rods can be cut D 204
rode off on our D 204
rose had by this D 202
room for my hat D 202
roof that he was D 202
roof off the car D 202
roll one of his D 202
rode with the top D 202
rode out to this D 202
roof and the end D 201
road and the inn D 201
rows one on top D 200
roof than the sky D 200
rode off to try D 200
room lit by gas D 199
rose with the cry D 198
roof with me and D 198
rode off on one D 198
rock him to and D 198
rope with the end D 196
roof but it was D 196
rode with the man D 196
rode out he was D 196
rock with the sun D 196
robs you of any D 196
roar out of his D 196
rock may be due D 195
rose with the age D 194
room was so neat D 194
roof and the use D 194
rose man of war D 192
rose and in one D 192
rope and the men D 192
room for the hat D 192
room and my mom D 192
roof with the two D 192
rode out of new D 192
robs him of her D 192
roof and the rear D 191
rods are in use D 191
rosy red as she D 190
room for my car D 190
roof and the red D 190
rode out the war D 190
roof and it had D 188
rode with an easy D 188
rock art is that D 188
road near the bus D 188
rope with the aid D 186
rock that it may D 186
rock near the head D 186
rock may or may D 186
rock for the use D 186
rock and the pop D 186
rock for the oil D 185
rope him in with D 184
room and the ice D 184
roll him to his D 184
rode one on each D 184
rode him to death D 184
rock art is one D 184
rock and the oil D 184
robe all the way D 184
rowing with the oar D 183
room and an art D 183
robs man of all D 183
rope and the end D 182
room with the fan D 182
rock him in his D 181
robe out of her D 181
rose with the idea D 180
room and my dad D 180
roof and in its D 180
rode with my head D 180
rode out in all D 180
robs not at all D 180
robs him or her D 180
roar that it was D 180
rows for the new D 178
rose was the son D 178
rose was at her D 178
rose and we had D 178
room with an axe D 178
roof and the big D 178
rods may be cut D 178
road tax on all D 178
rope off an area D 176
rode off to new D 176
rode all the day D 176
robe and it was D 176
room with the oil D 175
rose with me and D 174
rode off to her D 174
rock and the long D 174
robe for the use D 174
roar and the earth D 174
rose and in her D 172
roof was of red D 172
robs them of this D 172
roof with the sun D 171
rope that is too D 170
roof for it and D 170
roll out to one D 170
roll and the bed D 170
rope and an ice D 169
rope out of them D 168
roof with an air D 168
roof rung to his D 168
roof and is not D 168
rock that it had D 167
rose that he did D 166
rope near the end D 166
roof with the aid D 166
roof that we had D 166
roof and the heat D 166
rods and do not D 166
rock that we can D 166
room for the fat D 165
rode off in one D 165
rose and the seas D 164
roll and the two D 164
rode off to our D 164
rock art of new D 164
road and he met D 164
rock and it has D 163
robe and the big D 163
rose now to his D 162
rose lay on her D 162
roof and an old D 162
rode with the sun D 162
rode him as far D 162
rock was in its D 162
rock her in her D 161
rosy hue of his D 160
rose that is red D 160
rope can be cut D 160
roof and the mud D 160
rode him in his D 160
roll and the new D 159
rock near the old D 159
rope with my own D 158
roof and no one D 158
roll off the tip D 158
rods and the two D 158
roll for the new D 157
rows you do not D 156
rose did as she D 156
rope but it was D 156
roll out of one D 156
rode with the gang D 156
rode with the boy D 156
roar that no man D 156
rows sum to one D 154
rows each of six D 154
rods east of this D 154
rock was an idea D 154
roll out of them D 153
robe and the long D 153
rosy peak of her D 152
rosy hue of its D 152
rose with the old D 152
rose out of mud D 152
roping off an area D 152
rope for the job D 152
rods can be put D 152
rode out to that D 152
room lit by oil D 151
roll all the real D 151
robe and the two D 151
rose bit by bit D 150
rose and the boy D 150
roof for my head D 150
rods are by far D 150
rock was at one D 150
rose and the earth D 149
rosy red the sun D 148
room for the beam D 148
role for the art D 148
rock near the path D 148
rock has the beat D 148
robe and in his D 148
rods near the top D 147
rows run up and D 146
rows and the sum D 146
rose not to say D 146
rose for the long D 146
roof and the way D 146
road and the hot D 146
roof with the old D 144
roll them in egg D 144
rods long by ten D 144
rode one of our D 144
rock for so long D 144
roll can be cut D 143
role for the fed D 143
rock and the men D 143
robs art of its D 143
robe and ring and D 143
rose and the song D 142
rope out of one D 142
room with the pot D 142
room off the gym D 142
room for the pie D 142
room for an ice D 142
rods that he had D 142
rock may be too D 142
rock him or her D 142
roar all the way D 142
road and my car D 142
rock and on its D 141
rows can be read D 140
rows are in each D 140
rout than we had D 140
rose that we see D 140
roof and in this D 140
roll that is not D 140
roll out of that D 140
rock near the end D 140
road that the car D 140
roof and at one D 139
rock lying on top D 139
rock for the ore D 139
rose and as she D 138
rope was so long D 138
room and the oil D 138
roll out of new D 138
robs god of that D 138
robe and on her D 138
roar and the din D 138
rosy tinge on her D 136
rose had to say D 136
rope you in and D 136
rope and he had D 136
room was to rob D 136
roof may or may D 136
roll one by one D 136
rock with the tip D 136
rock that do not D 136
rock and the heat D 136
root tip is not D 135
rock and it had D 135
robe out of his D 135
rose for the dead D 134
rope with me and D 134
rope him in and D 134
root tip is cut D 134
room with the tub D 134
rods can be set D 134
rode with the old D 134
rode off the way D 134
rock and to each D 134
robs you of that D 134
robs him of one D 134
roar and the car D 134
road near the car D 134
rose near the top D 133
rock that we see D 133
rock and the low D 133
rows can be set D 132
rose had an idea D 132
rose and as they D 132
roof with an old D 132
roll out the old D 132
roll off to one D 132
rods may or may D 132
rock with it and D 132
rock for the new D 132
rock and no one D 132
road and the mud D 131
rose was at this D 130
rose near the end D 130
rose and he put D 130
rope that is long D 130
room with the beam D 130
room off the bath D 130
rock and the area D 130
rock art in its D 129
roar and the sky D 129
rose hot in her D 128
rose and the real D 128
rose and the area D 128
rope them in and D 128
rope for me and D 128
rope can be run D 128
room with no bath D 128
roof than the ivy D 128
roof and an air D 128
roll him up and D 128
rode with the van D 128
rode out on our D 128
rode out on him D 128
robs death of all D 128
rock and the big D 127
rope one of them D 126
room may be hot D 126
room had to wear D 126
roof near the top D 126
roof and the men D 126
rock but do not D 126
robs men of all D 126
roar was in his D 126
rose with the odd D 124
rose was an old D 124
rose sat at her D 124
rose all the year D 124
rope that it was D 124
rope him in for D 124
room and the tap D 124
room and my ears D 124
roof for the old D 124
rode with the easy D 124
rock off the top D 123
rosy and me are D 122
rope you in for D 122
rope out to him D 122
rope one of his D 122
rope and the boy D 122
room was so thin D 122
room had no bed D 122
room for the row D 122
roof put on and D 122
roll them in his D 122
rock with my head D 122
rock that no man D 122
roar and he was D 122
road tax of two D 122
rose out of two D 121
roll may be cut D 121
rock and the dry D 121
rose was in its D 120
rose bud in his D 120
room was the hum D 120
rock with the two D 120
rock that at one D 120
rock and the use D 120
rock and the car D 120
rock and sea are D 120
rods out of his D 119
rock for the dam D 119
rows that he had D 118
rows and the earth D 118
rose was on his D 118
rope with the two D 118
root cap is not D 118
room was the hub D 118
roll and the web D 118
rods and the axe D 118
rode out the day D 118
rode out on this D 118
rock was as hot D 118
rock that he can D 118
robs one to pay D 118
roar with me and D 118
room for the pin D 117
rosy goes to bed D 116
rose hip tea and D 116
rose and the bear D 116
rope out of our D 116
roof and so let D 116
role for the sex D 116
rode with me that D 116
rock may be put D 116
roll out in all D 115
roll off the leaf D 115
roll and is not D 115
rows may be two D 114
rose with the death D 114
rose that if she D 114
rose and is now D 114
rope can be put D 114
root and the gum D 114
room for the nut D 114
room for the lad D 114
roof that the cow D 114
roof than it had D 114
roll for the area D 114
rock that is cut D 114
rock and no for D 114
road tax of not D 114
rowing with an oar D 113
room for the inn D 113
rock with an egg D 113
rose sat on her D 112
rope out of this D 112
room with the tin D 112
room for the egg D 112
roof was by far D 112
rode two of them D 112
rode out on that D 112
rode off in her D 112
rode her on his D 112
rock was at its D 112
rock them to and D 112
road and the van D 112
road and is hit D 112
rope near the top D 111
room with ping pong D 111
roll each of them D 111
robe put on him D 111
rows and it was D 110
rose was in bed D 110
rose out of death D 110
rose and the death D 110
rose and at that D 110
root near the tip D 110
room for the cot D 110
room for an oil D 110
roof for the use D 110
roof and in her D 110
roll one or two D 110
rock art in far D 110
rock and an old D 110
robe and the wings D 110
roof and the one D 109
roof and on one D 109
rose ran to her D 108
rope and the old D 108
room with the mat D 108
room for the earl D 108
roof off my head D 108
rock you do not D 108
rock that is both D 108
rock and we had D 108
robs you of joy D 107
rose has to say D 106
rose and no one D 106
room with the hat D 106
room with the cot D 106
room and the rug D 106
room and the lab D 106
roof with an axe D 106
roof was of oak D 106
rode one of her D 106
rode off at his D 106
rock was so far D 106
rock thee to and D 106
rock and the path D 106
rock and the head D 106
rock and by its D 106
room for the rue D 105
rosy hue to her D 104
rose had in her D 104
rose but so did D 104
rope that he has D 104
rope may be but D 104
rope and the beam D 104
room for the thin D 104
room and the thin D 104
roof beam of his D 104
roof and on top D 104
role that the art D 104
rode near the rear D 104
rode him to his D 104
rock with thy rod D 104
rock with the ore D 104
rock that he has D 104
rock off to one D 104
rock and the age D 104
roar that he had D 104
road with the gun D 104
road and the bed D 104
rosy with the sun D 103
rose and in its D 103
roll off of you D 103
rope may be put D 102
room for the lion D 102
roof year in and D 102
roof was of tin D 102
roof and the east D 102
roll with the ups D 102
roll off the low D 102
role that the tax D 102
rode them up and D 102
rode her up and D 102
rock one by one D 102
rock and it hit D 102
robe that is not D 102
robe out of one D 102
rose put up her D 100
rope may be led D 100
room with an icy D 100
roof and we can D 100
roll her to her D 100
roll for the day D 100
rock was an old D 100
rock due to its D 100
rock art at this D 100
road near the inn D 100
roof was the one D 99
roll off the seat D 99
rock with the red D 99
rows per ear and D 98
rows near the top D 98
rows and the row D 98
rout and it was D 98
rose was up and D 98
rose was at his D 98
rose tinge in her D 98
rope may be run D 98
room with the mud D 98
room with no bed D 98
room lying in bed D 98
room for the seam D 98
roof and the bed D 98
roof and on all D 98
rode with us that D 98
rode out to lead D 98
rode out in that D 98
rode off to pay D 98
room and the inn D 97
rows and in each D 96
rote and do not D 96
rose that he has D 96
rose and the long D 96
rope off of him D 96
room for the wax D 96
room and the hum D 96
roof was so bad D 96
rode off on that D 96
rock was the one D 96
rock that we are D 96
rock can be read D 96
rock and is now D 96
road and sea and D 96
rock with an old D 95
rock and the boy D 95
robe off of her D 95
rows with the new D 94
rows can be cut D 94
rose put an arm D 94
rose out to her D 94
rose off the earth D 94
rose now on this D 94
rose for the year D 94
rope and the long D 94
rope and he and D 94
root and be thou D 94
room that is hot D 94
roof and it has D 94
roof and at each D 94
roll that it was D 94
roll that he was D 94
rode out to cut D 94
rode off to lead D 94
rock with the eye D 94
rock and at its D 94
robs one of that D 94
robe was so long D 94
robe was of red D 94
robe for the new D 94
road was the bed D 94
roof with an area D 93
rock for as long D 93
rock bit by bit D 93
rows may be set D 92
rope out of its D 92
room for the rod D 92
room for the hut D 92
roof was up and D 92
roof put up his D 92
roof put on his D 92
roof and the car D 92
rode with the new D 92
rode off to set D 92
robe and the man D 92
robe and he had D 92
robe and an old D 92
roar out of her D 92
role for the tax D 91
rows with the top D 90
rose that the bee D 90
rose out of each D 90
rose now to her D 90
rose and me and D 90
rope with an old D 90
room with the rug D 90
room with the jar D 90
room for the pig D 90
room for the guy D 90
roof with us for D 90
roof with the head D 90
roof off the hut D 90
roof has an area D 90
roof and to his D 90
roof and if you D 90
roll them so that D 90
roll off the car D 90
roll her to and D 90
rods east of his D 90
rock than it does D 90
rock and it may D 90
robs god of all D 90
roar and the air D 90
road with an axe D 90
rows one or two D 88
rose with the two D 88
rose then as now D 88
rope off the cow D 88
rope may be cut D 88
root and the sap D 88
room with my gun D 88
roll out the mat D 88
roll him to one D 88
rods for the two D 88
rode them to death D 88
robs him of both D 88
road with the tip D 88
roof and is one D 87
rout all the way D 86
rose hue of her D 86
rose for us and D 86
rope that is hung D 86
rope one by one D 86
rope may be not D 86
room and the pub D 86
roof may be too D 86
roll off it and D 86
roll and the die D 86
rods with the aid D 86
rods can be read D 86
rode out to ask D 86
rock was at his D 86
rock that he and D 86
rock than in any D 86
rock near the east D 86
rock him on his D 86
rock and is thus D 86
robs them of both D 86
robe that is our D 86
road was the car D 86
rowing out to them D 84
rose was at its D 84
rose off the pad D 84
rose hot in his D 84
room off the lab D 84
roof with me for D 84
roof bit by bit D 84
roof and to put D 84
roof and is now D 84
rods for the use D 84
rode out to say D 84
rode him on his D 84
rock was on its D 84
roar that he was D 84
roof was of lead D 83
roll for the men D 83
rosy had eat and D 82
rose sat on his D 82
rose had to get D 82
rose and we saw D 82
rose and the dry D 82
rope and we got D 82
root may be dug D 82
room for the sap D 82
room and we met D 82
roof but do not D 82
rods lie so long D 82
rods now in use D 81
rock and to its D 81
robe and go out D 81
rows may or may D 80
rows may be put D 80
rows end to end D 80
rows and the use D 80
rout out the old D 80
rose had the joy D 80
rope and the big D 80
room for the van D 80
roof and the hip D 80
roof and the bath D 80
roll him in his D 80
rode out of its D 80
rock him on her D 80
rock can be dug D 80
rock being on its D 80
rock and he sat D 80
robs him of its D 80
robe for the man D 80
roof for the top D 74
roll due to yaw D 67
rock set on end D 65
rock with the ease D 63
roll and the top D 61
robe off the bed D 59
rose may be red D 58
roof with the top D 58
roll out or pat D 56
roll out the icing D 55
robe with the fur D 55
rose that no one D 54
roll off the rim D 54
roll with the new D 53
rose for the top D 50
rope and the top D 50
rose has no why D 49
room was my bed D 48
rode with the red D 47
rock and we can D 47
roll for the two D 45
role for the oil D 45
rope and the one D 44
room with the ink D 44
rose and the may D 43
room for the tax D 43
room for the raw D 43
romeo that he had D 42
roll out as you D 42
roll and the head D 42
roll and no one D 42
roll and he had D 42
rock and the dam D 42
rope and the ice D 41
root for the guy D 41
rock song of all D 41
rock and he saw D 41
rose with the one D 40
room and the aft D 40
rode with the rear D 40
rock that is near D 40
rock for the two D 40
rock and as they D 40
