routes are used . M 748
rooted than ever . M 426
routes are open . M 304
rotten bad luck . M 164
routes are there ? M 152
rotten they were . M 138
routes they take . M 134
routes and paths . M 112
rounding her eyes . M 112
rotten and gone . M 108
routes and areas . M 104
rotating too fast . M 102
rotten and soft . M 98
rotate with time . M 98
rotten and wrong . M 90
routes and maps . M 86
routes they used . M 80
rotate his body . M 80
rotten all over . M 50
rooted and grew . M 48
