jig to hold the D 990
jig is used to D 826
jig is made of D 300
jig to make the D 215
jig by means of D 206
jib as well as D 177
jig as well as D 167
jig to warm my D 164
jig to keep the D 163
jig is used in D 160
jig is made to D 134
jib by means of D 100
jig to hold it D 86
