jimmy was going to D 1766
jimmy was one of D 1154
jimmy was not the D 550
jihad can not be D 533
jimmy was not in D 418
jimmy was out of D 404
jimmy got out of D 404
jimmy lee did it D 358
jimmy did not do D 312
jimmy did not go D 284
jimmy and all the D 268
jimmy was not so D 240
jimmy was not at D 206
jimmy was not to D 182
jimmy was lying on D 180
jibes with that of D 171
jimmy was that he D 170
jimmy was with me D 166
jimmy any day if D 158
jimmy had had to D 152
jimmy set out to D 146
jimmy saw that the D 136
jimmy saw that he D 134
jimmy and one of D 130
jimmy can not be D 118
jibed with that of D 115
jimmy are going to D 110
jimmy with him to D 100
jimmy had set up D 96
jimmy got off the D 94
jimmy was not an D 92
jimmy and two of D 90
jimmy had had the D 88
jimmy had got to D 88
jimmy and all of D 82
