high and the low M 63680
hint that he was M 20092
high that it was M 17293
hint that it was M 13866
hint that he had M 11368
high idea of his M 7634
high than at low M 7500
high and it was M 7148
high that it can M 6806
hill all the way M 6484
high that no one M 5174
high that he was M 4564
high end of this M 3772
high that we can M 3428
hide his or her M 3418
high and he was M 3064
high that it has M 2852
high and do not M 2846
high and the air M 2782
high and of low M 2738
high that he can M 2712
hire him or her M 2564
high and as far M 2410
high and at low M 2382
hire one or two M 2331
high that he had M 2234
high than in low M 2225
high for the year M 2222
hint that we are M 2172
high that it may M 2169
hill and it was M 2116
hint that he has M 2114
hill that he had M 1946
high and is not M 1936
hide them in his M 1716
hint that he may M 1712
hire you if you M 1664
high for the day M 1653
hint that he did M 1598
high and it has M 1578
high and so far M 1519
hill and the old M 1479
high that it does M 1460
hint that it may M 1454
high that it had M 1446
hire one of them M 1431
high all the way M 1422
high idea of its M 1404
high that we had M 1384
high and he had M 1372
high and the heat M 1371
hint that it had M 1362
hill that he was M 1323
high that we are M 1268
high for so long M 1243
hiding them in his M 1238
hiding out in his M 1234
high idea of her M 1166
high that the sun M 1140
high and as long M 1135
high end of its M 1108
high but it was M 1096
high end of that M 1085
hill and he was M 1079
hide them in her M 1052
high for the low M 1051
high and no one M 1039
hill and the two M 1028
high and it can M 970
high and the top M 964
high and it may M 960
hide that he was M 959
high and in low M 954
hill that we had M 941
hint that the two M 940
hint that the new M 934
high and the sky M 930
high than of low M 920
high and we are M 894
hiding his or her M 892
hill near the old M 890
high due to its M 882
hiding out in her M 876
high and the day M 844
high and so are M 842
hill that it was M 832
high with the low M 826
hiding for so long M 814
hill with the two M 803
high and we had M 802
hire one of his M 800
high and the sun M 790
hire for the use M 758
hiding them in her M 752
high and as low M 744
hiding out in this M 743
high and the two M 741
hill and the big M 739
hill was an old M 726
high and the men M 726
high that he did M 724
high for the new M 721
hill and the new M 716
high that the air M 706
high for the two M 702
hill was the key M 693
high that the men M 688
high that the top M 684
high seat of his M 680
hire his or her M 678
high out of his M 678
high for as long M 676
high that the two M 674
hire them if they M 668
hits one of them M 665
high for the use M 664
high and we can M 656
high that we may M 652
high and so was M 638
high that he has M 630
high and the use M 628
hint that it has M 624
hint that the man M 622
high that the earth M 619
hill and the long M 618
high nor the low M 614
hide out in his M 614
hits his or her M 611
high and the head M 608
high that if you M 606
hint that we may M 604
high and it had M 602
high all the year M 602
high that it did M 598
high one at that M 598
high for the area M 592
high that the new M 590
hint that the old M 586
high and the area M 584
hint that we had M 576
high for the man M 566
high due to low M 562
high and the earth M 558
hint that if they M 556
hill and he had M 552
high things of god M 550
hiding out in that M 543
hill near the end M 534
high than the low M 534
high and the death M 532
high that the eye M 530
high for the men M 530
high and the long M 528
hire for the job M 526
hire any of them M 526
hint this to him M 526
high end of each M 520
hide him in his M 518
high heat so that M 517
high and is one M 517
hill with the sun M 514
high now as they M 514
hide her in his M 514
hill and the sky M 512
high nor so low M 510
hide them so that M 504
hide who we are M 501
hill and the area M 500
hide him in her M 500
hint that he can M 496
hill and the one M 496
hiding out in one M 495
high idea of our M 494
high end of our M 494
hide and do not M 493
hint that the poet M 482
high but do not M 482
high and he has M 478
high and the mean M 476
high and in this M 468
high son of god M 465
hide for the day M 463
hide out in her M 462
hire for the day M 460
hill with the old M 460
hill near by and M 460
high and to one M 456
high and the new M 456
high and to low M 454
hill and is now M 449
high and no low M 449
hint that he and M 448
hill that is now M 448
hill near the top M 443
high that no man M 443
hide them in our M 442
high for the age M 440
high that the man M 438
high that we did M 436
high and is now M 432
hide any of his M 428
high for me and M 426
hits one of his M 425
high they do not M 425
hill was the son M 423
hits you as you M 422
high and he did M 420
high idea of him M 414
hill and the men M 413
hide them or set M 408
hide that he had M 406
hint that the real M 400
hint that in his M 396
hill that is not M 392
high that he may M 392
high idea of god M 392
high god is not M 392
high that the sky M 388
high may be its M 388
hiding him in her M 386
hint that he saw M 383
hill and on its M 376
high with the top M 376
high and if they M 376
hide for so long M 376
high end of his M 374
hiding out of fear M 373
high that at one M 370
hire him as his M 366
hint that the end M 366
hire you if they M 364
high and so long M 364
high and the net M 362
high and it does M 362
hide out in this M 362
hiding out in new M 358
high idea of this M 356
high for the long M 356
hill was the one M 354
high that the head M 352
hits out of ten M 351
hide who he was M 348
high for the one M 347
hiding out at his M 346
hill was on his M 344
hill and we had M 344
high with the dead M 340
high that the use M 340
hill was at one M 338
high aim of his M 338
hire all the men M 332
hint that the idea M 332
hide you in his M 332
hill and do not M 331
hits you on one M 328
hint that in this M 328
hire you to get M 326
hill and the sun M 325
high with the wings M 324
high near the top M 324
high idea he has M 324
hide one of them M 323
high but it may M 322
high and the real M 322
hill and at its M 318
high that the heat M 316
hiding him in his M 314
hide and no one M 314
hill with an old M 310
high that the old M 310
high bit is set M 310
high and in one M 309
high and so low M 308
high and the old M 302
high and as big M 302
high and if you M 300
hill was in his M 298
hire one of our M 297
high you do not M 297
high out of her M 296
high but it has M 292
high but is not M 292
high than to low M 290
hide out in one M 290
hill but it was M 289
hill for the use M 288
hint that it does M 286
hide out in that M 286
hire them at all M 284
hill and the death M 284
hill was the old M 282
hint that we can M 280
hill and he saw M 280
hint that he does M 275
hint that if you M 274
high men of this M 274
high for my low M 274
high and the rear M 272
hide that it was M 272
hide all of this M 272
hill and to his M 271
high may be his M 270
hire you or not M 266
high but it does M 264
high and so near M 264
hiding out in our M 264
hide that he has M 263
hint that the men M 262
hint and be off M 262
hide them in one M 262
high and in all M 260
hill and the end M 258
high but so are M 258
high and so they M 258
hide and no way M 258
hint that the war M 256
hint that if she M 256
hill and the east M 256
high seat in one M 256
hire her as his M 254
high heat on both M 254
high and it did M 254
hide all of his M 254
high and the end M 253
high that the net M 252
high and we did M 252
high and the path M 252
hide them as they M 250
hire men to cut M 248
hint that the death M 248
high and to his M 248
high but he was M 246
high and the man M 245
hire one of her M 244
hill near the head M 244
high and in any M 244
hill and as far M 243
hire him to run M 242
hill for the dead M 242
high out of all M 242
high gear to get M 242
hide them if they M 242
hill with me and M 239
high and on top M 239
high that the mean M 238
hide any of her M 238
high and on earth M 237
hill with the aid M 236
high for the few M 236
high act of his M 236
hill was in our M 234
hide out in our M 234
hide off of you M 233
hire her if she M 232
hill arm in arm M 232
high key or low M 232
hire all of them M 228
high but it can M 228
high and he can M 228
hill and in that M 226
hint that it can M 224
hill and we are M 224
high his or her M 224
high and in its M 224
hill and the low M 223
hiding for the day M 223
hiding out by day M 222
hide and the meat M 221
hill was at this M 220
high and the job M 220
hint that he too M 218
hill was the man M 218
high and the way M 218
high and is due M 218
hide any of them M 218
high and at one M 217
high and we all M 216
high idea of them M 214
high heat is not M 212
high for the old M 212
high for it and M 212
high and of earth M 212
high for the non M 211
hill and the red M 210
hill with the idea M 208
hill that we are M 208
high but the death M 208
hide all of her M 208
high pay to all M 206
high than if they M 204
hill for the new M 203
hide all the things M 203
high and the one M 202
hide and it was M 202
hide all of them M 202
hits him on his M 201
hill with the big M 200
high gear as she M 200
high for us and M 200
high that he does M 198
high for the way M 198
high and the eye M 198
hiding her in his M 198
hide was so old M 198
high that if they M 196
hide one of his M 196
hide and the head M 196
hits him in his M 192
hire both of them M 192
hill out of his M 192
high out of our M 192
high near the end M 192
high for the eye M 192
high and at its M 192
hide one or two M 192
hide any of this M 192
hire out to you M 190
high with an air M 190
high for the real M 190
high end or low M 190
high end of both M 190
high and is set M 190
hire out to him M 188
hill near by was M 188
high with the two M 188
high than on low M 188
high idea of that M 188
hill and the air M 186
high for the job M 186
high and the age M 186
high that is not M 185
high with the new M 184
high use of this M 184
high that he saw M 184
hire two of them M 182
hill was at that M 182
hill and he did M 182
high end of all M 181
hint that the day M 180
hill and as they M 180
high one it has M 180
high that the war M 178
hits out of six M 176
hint that it did M 176
hill was at its M 176
hide for as long M 176
hint this to you M 175
hill and the top M 175
high arc so that M 175
hire you to run M 174
hire for the year M 174
high was the dead M 174
high idea he had M 174
high fear of death M 174
high and the gap M 174
hide out at his M 174
high year to year M 173
hits one of our M 172
high and in his M 172
hide you in her M 172
hide her in one M 172
hire out as day M 171
hint that the way M 171
hire him or not M 170
high then as they M 170
high than it did M 170
high and the pay M 170
high and in that M 169
hits you up for M 168
hill for as long M 168
high heat to bring M 168
high heat on top M 168
hill with the man M 167
hill for the day M 166
high then as now M 166
high that the idea M 166
high and the red M 166
hide out of fear M 165
hide off of him M 165
hide him so that M 165
hill that he has M 164
hill and it had M 164
high due to his M 164
hire him as her M 162
hill area of new M 162
high that it hid M 162
high one to pay M 162
hiding one of his M 162
hire out to any M 160
hill going to and M 160
hill and the path M 160
hill and on top M 160
high that the area M 160
high and we may M 160
high and by low M 160
high than it was M 158
high owing to its M 158
high heat on all M 158
high gear in its M 158
high end of one M 158
high end in its M 158
hits that do not M 157
hill than at its M 156
high with the use M 156
high that it not M 156
high and so did M 156
hide them in that M 156
hide out at her M 156
high day of his M 154
hiding who we are M 153
high one of his M 152
hiding out at her M 152
high with the day M 150
high and on its M 150
hits out at him M 149
hint that the boy M 149
hiding and no one M 149
high was it that M 148
high and go for M 148
high and do too M 148
hide them as you M 148
hire that is not M 147
hits him or her M 146
hill and we can M 146
high then it may M 146
high that my head M 146
high seat in this M 146
hint that the one M 145
hire them to sit M 144
hire out to them M 144
high with the aid M 144
high that the law M 144
high than by low M 144
high god of all M 144
high due to this M 144
high are we now M 144
hiding and it was M 143
high with an area M 142
high that he and M 142
high sat or act M 142
high end of her M 142
high and on this M 142
hide them in this M 142
high and on low M 141
hill was the seat M 140
hill and in its M 140
hide them so they M 140
hide and he was M 140
hint that the use M 139
hint that the poem M 139
hiding that he had M 139
high with the head M 138
high was the death M 138
high that if this M 138
high and the law M 138
high and the big M 138
high and of long M 138
high and at that M 138
hint that the law M 136
hill out of our M 136
hill and we got M 136
high that the long M 136
hill with the new M 135
hint that no one M 134
hill than the one M 134
hill near the east M 134
high for the boy M 134
high and on one M 134
hint that the earth M 133
hill and an old M 133
hire and the two M 132
hill than it had M 132
high that in one M 132
high nor as low M 132
high but it did M 132
high and to buy M 132
high and is being M 132
hire one of its M 131
hiding for as long M 131
hill had to say M 130
hill and is not M 130
high that we saw M 130
high that in our M 130
high sin of his M 130
high but it had M 130
high and the few M 130
hill with the dog M 129
hint that we get M 128
hill and the way M 128
high gear at this M 128
hiding and in fear M 128
hide all the way M 128
hill and we saw M 127
high may be due M 127
high and in two M 127
hiding them so that M 127
hire one if you M 126
hire him as its M 126
hire all the way M 126
high and he ran M 126
high aim of our M 126
hiding that he was M 126
hide you so that M 126
hide them in any M 126
hide him in one M 126
hide any of its M 126
hire that he was M 125
high god in all M 125
high for the war M 125
high for the heat M 125
hide that is not M 125
hill put it out M 124
hill and we both M 124
hide them by day M 124
hint that he let M 122
hill with the men M 122
hill off to one M 122
hill and in his M 122
high that we all M 122
high that it led M 122
high for an area M 122
high for the top M 121
hire two of his M 120
hire him at all M 120
high than it does M 120
high out of its M 120
high and he may M 120
hiding any of her M 120
high for the end M 119
hiding and do not M 119
hire than to buy M 118
hire out the job M 118
hire him to get M 118
hill one or two M 118
hill and of his M 118
high that the low M 118
high for an old M 118
high end of any M 118
hide them if you M 118
hide any or all M 118
hint that at any M 117
hits for the day M 116
hint that if his M 116
hill was at his M 116
hill had by this M 116
high things of this M 116
high out of earth M 116
high for the dog M 116
high and the kings M 116
high and the going M 116
hint that the sun M 115
hire you as his M 114
hint that by and M 114
hill east of our M 114
high this is not M 114
high that if one M 114
high and to use M 114
high and as yet M 114
hide out in new M 114
hint for the use M 113
hide one of her M 113
hits out at her M 112
hire you as our M 112
hill with the red M 112
hill and we all M 112
high than the one M 112
high and in her M 112
hide that he did M 112
high that the one M 111
high but no one M 111
hire them or not M 110
hill who do not M 110
hill that he did M 110
high that the end M 110
high that he got M 110
high idea of man M 110
high bit of each M 110
high and is too M 110
hiding near by and M 110
hint that at this M 109
hire and the net M 108
high use of non M 108
high end is not M 108
high due to long M 108
high but so was M 108
high but he did M 108
hiding them in our M 108
hits one of its M 107
hire for as long M 107
hint that he who M 107
high and he low M 107
hiding and he was M 107
hill that is too M 106
hill and the boy M 106
hill and no one M 106
high that the boy M 106
high that it cut M 106
high for the big M 106
high but he had M 106
high and is low M 106
hide but it was M 106
hits one or two M 105
hint and do not M 105
hill that he and M 104
hill led the way M 104
high gear so that M 104
high for the nun M 104
high for an easy M 104
hiding all of his M 104
hide you in this M 104
hide things in them M 104
hide that we are M 104
hide with the head M 103
hire any of our M 102
hire any of his M 102
hill that it had M 102
high with the joy M 102
high off the seat M 102
high nor so long M 102
high and he saw M 102
hiding one or two M 102
hiding all the way M 102
hits for the year M 101
high and the non M 101
hiding who he was M 101
hire them to get M 100
hire him as our M 100
hill that is east M 100
hill that he may M 100
hill and he has M 100
high pay is not M 100
high head of her M 100
high and is thus M 100
hiding out on this M 100
hits out at his M 99
hill for the year M 99
hill and the man M 99
high off the earth M 99
hits did he get M 98
hint than he had M 98
hill with an easy M 98
hill and on all M 98
high seat of her M 98
high for us not M 98
high and is cut M 98
hide her as she M 98
hide but do not M 98
hire and to pay M 97
hide her so that M 97
hits and it was M 96
hire and is not M 96
hill with an air M 96
hill than it does M 96
hill has to say M 96
hill had in his M 96
high that the path M 96
high that the dog M 96
high that it put M 96
high gear as they M 96
high are we going M 96
high and the team M 96
high and of any M 96
high and by way M 96
high and as they M 96
hide them as she M 96
hide any of our M 96
high and so that M 95
hide all of that M 95
hire you to act M 94
hire you at this M 94
hire one of two M 94
hint how to act M 94
hill that the old M 94
high with the old M 94
high with the long M 94
high that in his M 94
high does the air M 94
high did the ill M 94
high but we can M 94
high and on each M 94
high and if this M 94
high and as old M 94
high and an air M 94
high aim is this M 94
hill than it was M 93
high for the law M 93
hits them as they M 92
hire them he was M 92
hire out to his M 92
hire him he had M 92
hill with us and M 92
hill than he had M 92
hill near an old M 92
hill and up its M 92
hill and up and M 92
high things of that M 92
high that the sum M 92
high that it ran M 92
high seat in that M 92
high due to both M 92
high and the war M 92
high and so does M 92
high aim of all M 92
hiding out on his M 92
hiding all of her M 92
high for the sun M 91
hill with the dead M 90
hill that we can M 90
hill and if you M 90
high that in this M 90
high seat of one M 90
high and the dry M 90
hiding one of her M 90
hits you if you M 89
hire both of you M 89
hill was by far M 89
high and go far M 89
hire out to one M 88
hill with the long M 88
hill for so long M 88
hill and it has M 88
high that the real M 88
high that the few M 88
high that on one M 88
high that it goes M 88
high that do not M 88
high one in his M 88
high and the boy M 88
high and he does M 88
high and by his M 88
hiding them in this M 88
hint this to her M 87
hire with an eye M 86
hire them at any M 86
hire her to sit M 86
hill with no one M 86
hill was so big M 86
high use of both M 86
high top of that M 86
high that in all M 86
high and the bar M 86
hiding any of its M 86
hide out to dry M 85
hits and he was M 84
hire men of war M 84
hire him if you M 84
hill that the men M 84
hill than we had M 84
high one as his M 84
high may be our M 84
high gear as you M 84
high and the fear M 84
high and the cut M 84
high and the aim M 84
high and so too M 84
high and so can M 84
hide her or his M 84
hill and the day M 83
hill was an area M 82
hill that no one M 82
hill had no idea M 82
hill and he sat M 82
hill all the year M 82
high with the men M 82
high out of that M 82
high and so has M 82
high and no man M 82
high and at this M 82
hide him in our M 82
high and the east M 81
hits one of her M 80
hire them as they M 80
high that it now M 80
high seat in his M 80
high and in our M 80
high air is too M 80
hiding that it was M 80
hiding any of his M 80
hide and the red M 80
hint that the dead M 70
hire and do not M 68
hill with the top M 65
high god in his M 64
hide out of his M 62
hint that the big M 61
hint that the son M 59
high and the lead M 50
hint that the long M 49
high idea of one M 48
hide you do not M 48
high for the mean M 46
hint that the act M 45
hint that at one M 45
hits for the two M 44
hint and it was M 44
high had it not M 44
hits all the way M 43
hint that if this M 43
hint but do not M 43
hire for the new M 42
hint that is not M 42
hill and the head M 42
high god in this M 42
high for the air M 42
hint that the key M 41
hint that the area M 41
hill one by one M 41
high one in that M 41
hire and my own M 40
hint that to him M 40
hide and the man M 40
high seas to bear D 5592
high off the hog D 4129
hike all the way D 2296
high seas is not D 2190
high seas in that D 1461
hips off the bed D 1330
hiss for the fly D 1035
hiring him or her D 980
high seas to its D 946
hill with the rod D 906
hind leg of one D 752
high seas as may D 716
hiking all the way D 623
hiring one or two D 600
high seas do not D 546
hips all the way D 486
hips and he was D 456
high art is not D 452
hind leg of each D 442
hips and the long D 438
hiss out of her D 418
hind end of its D 418
high that the gas D 412
high seas by any D 400
high seas or any D 388
high seas on his D 386
hive and the sun D 373
high peak of his D 352
hide with the fur D 351
hips and the way D 346
high seas is that D 346
high seas it was D 340
high off the bed D 336
hive and the ant D 329
hiring one of them D 322
high hat on his D 316
high and the gas D 315
hill and sea and D 314
hied him to his D 314
hies him to his D 308
high seas in his D 304
hind wings is not D 303
high that the lid D 300
hiring them in this D 290
high and the tax D 286
hips and the head D 282
high seas to bring D 266
high art in this D 266
high seas in this D 264
high heat to seal D 264
hiring men to dig D 262
hill and the car D 260
hind leg in his D 258
high and the oil D 255
hill and the bay D 252
high seas as they D 250
high dry or oil D 250
high seas in all D 249
high that the tin D 244
high seas or that D 240
hind end of his D 230
hips off the mat D 228
high and the bed D 225
hiring his or her D 224
high art in its D 224
high heat in oil D 221
high hat in his D 220
hind leg of his D 218
high seas of any D 218
high top to ken D 214
high seas by his D 214
hind end of this D 210
high tax on all D 210
high seas at all D 210
hind leg of that D 205
high that the oil D 201
hiring one of his D 198
hive that is being D 196
high seas by one D 196
hips and it was D 194
high seas or not D 190
high seas is now D 190
high seas is one D 188
hiking for the day D 180
high seas so that D 178
hind wings of both D 174
hinged that it can D 172
hind wings in both D 172
high seas in its D 172
high art in his D 172
hind leg on that D 171
high seas at this D 166
hips off the seat D 164
high seas in any D 164
hire him to dig D 162
hind wings do not D 156
high and the seas D 154
high tax on them D 152
high off the rim D 152
high art of his D 150
high and the ice D 150
high seas of this D 148
high seas if they D 148
high seas by our D 148
high and the per D 148
hind leg so that D 146
high seas at that D 144
high peak in this D 144
high cap on his D 144
high beam to low D 144
hiring all the cut D 142
high seas or are D 142
high art in any D 140
high that the tax D 139
hive and do not D 138
hinged and it was D 138
high seas as she D 138
high art or low D 138
hiring out of his D 136
high seas he had D 136
high art of our D 136
hiring you if you D 134
hind end of each D 134
high seas on its D 134
high seas as far D 134
high peak of its D 134
high heat to sear D 134
hiring for the job D 132
high seas by all D 132
high and the ears D 132
high and the car D 132
high and the dew D 131
hiring any of them D 130
high seas he was D 128
high seas by oil D 128
hind leg of any D 127
high for the gas D 127
high seas on her D 126
high art in our D 126
high and the peak D 125
hiring her as his D 124
hind leg of dog D 124
hive with the old D 122
hiring out as day D 122
hinged lid at one D 122
hind wings of this D 122
hide thee in his D 122
hill and the earl D 120
high tax to low D 120
high seas or for D 120
hinged near the top D 119
high seas or out D 119
high off the ice D 119
hind leg of all D 118
hilt that it was D 118
hill with the pig D 116
high and the fed D 116
high that the ions D 114
high and the toes D 114
hire men to dig D 113
hies him in all D 113
high seas as being D 112
high seas an area D 112
high fit of zeal D 112
high fat or low D 112
hind leg on one D 111
hips and the top D 110
hike out of this D 110
high art to low D 110
high and the fat D 109
high and the fun D 108
hiring out of one D 106
hips with the head D 106
hips and the two D 106
hinged lid on top D 106
high peak or two D 106
high peak of this D 106
hiving off of new D 104
hiring all the men D 104
hips and do not D 104
hinges that do not D 104
hips and up her D 103
hind leg of this D 103
high fin on its D 102
high fat or oil D 101
hiring him to run D 100
hinges and the old D 100
hill goes the car D 100
high seas by now D 100
high for the gun D 100
hike and do not D 99
hips and he had D 98
high art of this D 98
high and the beam D 98
hide them by art D 98
hind leg is not D 96
hiring for the new D 95
high off the mat D 95
hiring day is near D 94
hill with the gun D 94
high peak in his D 94
hiring and the use D 92
hinges for the lid D 92
high that the car D 92
high seas the law D 92
high and the hot D 92
hips and to her D 90
high seas in her D 90
high and the bus D 90
high for the car D 88
high and so hot D 88
hips that do not D 86
hips and the men D 86
hilt hung at his D 86
high oil or fat D 86
high cap on her D 86
high and so thin D 86
high seas by this D 84
high idea of art D 84
high and the mud D 84
hinged one on each D 83
hiring him as his D 82
high that the ice D 82
high seas to get D 82
high seas or with D 82
hind leg on each D 81
hind leg in its D 81
hiring them of our D 80
hiring men to fit D 80
hind all of one D 80
hill with the car D 80
high seas to all D 80
high seas of all D 80
high peak in its D 80
high art of her D 80
high dam is being D 56
hind leg in each D 52
hike for the day D 51
hiss that he had D 50
hill and the bee D 48
high art in that D 47
high that the fat D 44
high dam is one D 43
hiss out of him D 42
hind end up and D 42
high leap the ice D 40
