hide from him . M 9738
hide from them . M 6389
hide from you . M 3972
hide from god . M 3961
hide from her . M 3643
hiding from him . M 3595
high among them . M 3076
hiding from them . M 2558
hiding from her . M 1996
high over all . M 1868
hiding from you . M 1244
high time too . M 1198
high over head . M 1092
high blue sky . M 1044
hide from him ? M 894
hiding from him ? M 809
hide from you ? M 744
hiding from god . M 722
high risk area . M 714
hide from god ? M 714
hire more men . M 663
hiding from her ? M 606
hide their fear . M 592
high paying job . M 574
high over them . M 534
hide among them . M 533
hide from them ? M 520
high holy day . M 511
hiding among them . M 450
high last year . M 443
hint from him . M 437
high like that . M 430
high time too ! M 414
hill made low . M 388
hide from her ? M 384
high hard one . M 374
hiding from you ? M 374
hire their own . M 372
high risk men . M 372
high next year . M 363
hiding from them ? M 354
high risk for . M 348
hide your head . M 340
hide these things . M 336
high just now . M 324
hint from you . M 320
high among men . M 286
hide from death . M 266
hill like that . M 264
hint from this . M 256
hide there too . M 248
hide from this . M 244
high from low . M 236
high cost area . M 232
high road for . M 230
hide their joy . M 222
high like this . M 220
hide from that . M 220
high upon them . M 212
high over him . M 212
hide their own . M 208
high know all ? M 206
hill past him . M 198
hint from them . M 194
hill like this . M 186
hiding their own . M 186
hide their age . M 174
high jump bar . M 170
hill next day . M 166
hill just now . M 164
hire your own . M 160
high were they ? M 160
hire union men . M 156
hide from men . M 156
hill told him . M 154
hide from him ! M 152
hint from god . M 147
hill like that ? M 146
high into air . M 146
hide their sin . M 146
hint from her . M 144
hide such things . M 142
high over head ! M 140
hide from man . M 140
hide your fear . M 138
hiding like this . M 137
high just now ? M 136
hide from you ! M 136
hide like that ? M 135
high wore off . M 133
hill from them . M 132
hide your head ? M 132
hill from you . M 124
hide from them ! M 124
hill upon them . M 122
hiding like this ? M 122
hide from her ! M 120
hide like that . M 119
hits your eye . M 118
hide your own . M 118
hill last year . M 116
hill from him . M 116
hide many things . M 116
hiding from death . M 115
hire some men . M 114
hiding from god ? M 114
hiding like that . M 112
high high mod . M 110
hide from god ! M 110
hire good men . M 108
high time now . M 108
high clear air . M 106
hide like this . M 105
high clear sky . M 102
hill among them . M 100
high risk one . M 100
high just then . M 100
high back then . M 100
high ever had . M 99
hide some things . M 98
hire only men . M 96
hill from her . M 94
hill book com . M 94
high even then . M 94
hiding these things . M 94
hide these things ? M 92
hide those things . M 90
high seed set . M 88
high jump pit . M 88
hide their head . M 88
hill years ago . M 86
hint from that . M 84
high cost one . M 84
hide like this ! M 83
high like that ? M 82
hiding there now . M 82
hiding from you ! M 81
high even now . M 80
hiding there for ? M 80
hill like this ? M 50
hint like that . M 45
