poem can not be M 11322
poet and man of M 10564
poet can not be M 6348
poet and one of M 4548
poem was one of M 2674
poet and that of M 2638
poem that can be M 2412
poet who was to M 2398
poet was one of M 2164
poem and read it M 1980
poet who was the M 1902
poem was read by M 1828
poem that was to M 1744
poem may not be M 1732
poet who had the M 1538
poet who was in M 1378
poet who has the M 1346
poem was set to M 1342
poem with that of M 1270
poet and not the M 1226
poet who was so M 1213
poet who can be M 1204
poem and that of M 1204
poet with that of M 1146
poet who sings of M 1128
poem has all the M 1102
poet may not be M 1066
poem and one of M 1058
poet who won the M 1038
poet and that he M 1030
poet who had so M 1026
poet was not to M 1024
poet has put it M 1018
poet than any of M 1004
poem and not in M 1004
poem that may be M 982
poet was not the M 926
poet was not so M 923
poet who was at M 916
poet and not as M 912
poem and that the M 882
poet and for the M 876
poem was not the M 874
poet who has no M 832
poet then goes on M 795
poet who had no M 770
poem and for the M 768
poet has had to M 746
poet was not in M 734
poet can not do M 704
poem and not the M 702
poem with all the M 698
poet who was an M 682
poet who had to M 680
poet and that the M 666
poem was read at M 656
poet who may be M 652
poet who has to M 646
poet has had the M 630
poem then goes on M 630
poem was read to M 620
poem and try to M 610
poet with all the M 598
poet has not in M 592
poet who has so M 591
poet and his or M 590
poem was not to M 582
poem that has the M 582
poet was that of M 562
poem was going to M 560
poet who saw the M 552
poem was read in M 516
poet and son of M 512
poet than that of M 510
poem and with the M 510
poet set out to M 504
poet was that he M 500
poem with one of M 498
poem was that it M 484
poem was that of M 476
poem and that he M 476
poet was going to M 466
poem does not so M 466
poem and put it M 464
poem for one of M 462
poet who sings the M 460
poet led him to M 444
poet was not at M 430
poet does not go M 424
poem than any of M 416
poet can use it M 414
poem for each of M 408
poem and that it M 408
poet goes out of M 398
poem and then to M 398
poet than for the M 394
poet has not the M 394
poet does not do M 390
poet who has an M 388
poem was not in M 388
poem has not the M 386
poem can thus be M 386
poem and how it M 386
poem and all the M 386
poet and not of M 384
poet was not an M 382
poet who led the M 378
poet are that he M 378
poem are not the M 374
poem and see if M 370
poet and not an M 364
poet does not so M 361
poet was then in M 358
poem that has no M 354
poem that had so M 348
poem was not so M 342
poet who can do M 338
poet who was as M 334
poet and with the M 334
poet say that the M 328
poem does not in M 320
poem and not as M 319
poet had not the M 318
poem that was the M 316
poem and not to M 312
poet who had in M 308
poet can use the M 308
poet and not to M 306
poet and wit of M 304
poem than that of M 298
poem was not an M 294
poet than with the M 292
poem for you to M 292
poem does not do M 292
poet may use the M 288
poem does not go M 286
poet and all the M 284
poet was led to M 282
poem and set it M 282
poem that has to M 280
poet who was no M 278
poem and that in M 276
poet has put in M 272
poet has put the M 270
poet that she is M 268
poem that was in M 268
poet that was in M 266
poem are not to M 266
poet does not in M 264
poet are not to M 264
poem and then the M 260
poet had read the M 256
poet with one of M 250
poem and can be M 248
poet may now go M 246
poem and may be M 246
poet but for the M 240
poem end with the M 236
poet can see no M 234
poet can not go M 232
poet are not the M 232
poet has yet to M 230
poem that one of M 230
poem and that is M 230
poem for him to M 228
poem are not so M 228
poem and had it M 226
poet was due to M 224
poet saw fit to M 224
poem and how the M 222
poet who had an M 218
poem with that in M 218
poet and head of M 216
poet who had at M 212
poet was not of M 212
poem that was so M 212
poem but not the M 212
poet has set the M 210
poet than all the M 208
poet can see the M 208
poem was set in M 208
poem that won the M 208
poem than with the M 208
poet who goes to M 206
poem was that the M 204
poem for her in M 204
poet sings how the M 202
poet has got to M 202
poem than one of M 202
poem led him to M 202
poet and then as M 200
poem that has an M 200
poet and that it M 198
poem may thus be M 198
poet and was the M 196
poem with him is M 196
poem that she is M 196
poet that can be M 194
poet has for the M 194
poem that this is M 194
poet was now in M 192
poet did not go M 192
poet and this is M 192
poet can not sing M 190
poet and then the M 190
poet was with the M 188
poet that was to M 188
poem was that he M 188
poet had for the M 186
poem than for the M 186
poem deal with the M 186
poem and this is M 186
poet has had so M 184
poem are set in M 184
poet who can sing M 182
poet does not sing M 182
poem for her to M 182
poem but for the M 182
poem are not in M 182
poem one has to M 180
poem can then be M 180
poem are all of M 180
poet may try to M 178
poem may now be M 178
poem can now be M 178
poem and ask the M 176
poet was not as M 175
poet and that is M 174
poet and has no M 174
poem was due to M 174
poem and read the M 174
poem and not an M 174
poet who was my M 172
poet has all the M 172
poem but not in M 172
poet was using the M 170
poem was not as M 170
poet was out of M 168
poem than all the M 168
poet who has in M 166
poet but with the M 166
poem that had to M 166
poem does not at M 166
poem are due to M 166
poem and bring it M 166
poet who sings to M 164
poet who saw in M 164
poet but that he M 164
poet and say to M 164
poet was put to M 162
poet was now to M 160
poet was led by M 156
poem that won an M 156
poet than that he M 154
poet does with the M 154
poem that set the M 154
poet who for the M 152
poet but one of M 152
poem but one in M 152
poem and let the M 152
poet was dying of M 150
poem you read me M 150
poet did not in M 148
poet did not at M 148
poet and who is M 148
poem was put to M 148
poem and one or M 148
poem and all of M 148
poem was for the M 146
poet was apt to M 144
poet had had to M 144
poet for that of M 144
poem was read as M 144
poem too long to M 144
poem may then be M 144
poem and use it M 144
poem was set by M 142
poem for you in M 142
poem was not at M 140
poet had all the M 138
poet and man he M 138
poem for all the M 138
poet was that the M 136
poem has not at M 136
poem but one of M 136
poet may hear the M 134
poet and had the M 134
poem that you do M 134
poem that has so M 134
poem and out of M 134
poet and you do M 132
poet and then to M 132
poem was out of M 132
poet who sings it M 130
poet who does so M 130
poet led them to M 130
poet had not to M 130
poet got him the M 130
poet and that in M 130
poem this poem is M 130
poem can not do M 130
poem all that the M 130
poet who can by M 128
poet was lying on M 128
poet does this by M 128
poem that one is M 128
poet who did so M 126
poet has set up M 126
poet goes out to M 126
poet does not at M 126
poet can bring to M 126
poem was not of M 126
poem but with the M 126
poem and let it M 126
poet has with so M 124
poet and not in M 124
poem was not by M 124
poem that had the M 124
poem set out to M 124
poem are set to M 124
poem are apt to M 124
poet and how he M 122
poet than does the M 120
poet say that he M 120
poet for him to M 120
poet can bring the M 120
poet and poem in M 120
poem has led to M 120
poem has got to M 120
poem for them to M 120
poem for him in M 120
poem and thus to M 120
poet who put the M 118
poet did not do M 118
poet but not as M 118
poem that goes on M 117
poet was lying in M 116
poet was for the M 116
poet than one of M 116
poet had put it M 116
poet was all the M 114
poet has this to M 114
poet has had in M 114
poet had had the M 114
poem has yet to M 114
poem can lead to M 114
poet saw that the M 112
poet does for us M 112
poem may lie in M 112
poem has one of M 112
poem has had the M 112
poet who was on M 110
poet who can no M 110
poet has had an M 110
poem that had no M 110
poem than any he M 110
poet may yet be M 108
poet has not to M 108
poet had read in M 108
poem that led to M 108
poem that has as M 108
poem she read at M 108
poem for her on M 108
poem can not in M 108
poem and say it M 108
poet who was of M 106
poet who has at M 106
poet who has as M 106
poet but not the M 106
poem was set up M 106
poem that was an M 106
poem that sings of M 106
poem but that it M 106
poet did for the M 104
poem was read on M 104
poem for all of M 104
poem all that is M 104
poet who sings in M 102
poet can try to M 102
poem lead you to M 102
poet who saw it M 100
poet who can so M 100
poet for all the M 100
poet does for the M 100
poet and poem is M 100
poet and not by M 100
poem with him to M 100
poem using one of M 100
poem they are the M 100
poem that has in M 100
poem may lead to M 100
poem and how to M 100
poet has got the M 98
poet had won the M 98
poet can thus be M 98
poet can say to M 98
poet can hear the M 98
poet but who is M 98
poet and had to M 98
poem with one by M 98
poem was but the M 98
poem she was to M 98
poem for him is M 98
poem did not go M 98
poet with him to M 96
poet had had no M 96
poet being then in M 96
poet and poem to M 96
poem goes out to M 96
poem and thus the M 96
poem and that we M 96
poem and see the M 96
poet has but to M 94
poet had not so M 94
poem and with it M 94
poet thus sings of M 92
poet may say or M 92
poet and had no M 92
poem that was on M 92
poem but not to M 92
poem and one in M 92
poet who read the M 90
poet has with the M 90
poet can use to M 90
poet and was an M 90
poet and how it M 90
poem and poet to M 90
poem and had to M 90
poet who set the M 88
poet had not as M 88
poet for one of M 88
poet did was to M 88
poet and now he M 88
poem than does the M 88
poem has for the M 88
poet who can in M 86
poet has led us M 86
poet had this in M 86
poet for singing the M 84
poet can not in M 84
poem you read to M 84
poem that all the M 84
poem has set me M 84
poem has led us M 84
poem for fear of M 84
poem and then in M 84
poem and not be M 84
poem and had no M 84
poet who was by M 83
poet who did the M 82
poet and try to M 82
poet and can be M 82
poem rings with the M 82
poem for use in M 82
poem but that he M 82
poet you may be M 80
poet who had by M 80
poet than she is M 80
poet can now be M 80
poet can not so M 80
poem was all the M 80
poem this way or M 80
poem and set to M 80
poet can this be M 42
poet who goes on M 40
poem was put in M 40
pot and bring to D 8450
pot and add the D 4818
pol pot and the D 4012
pot and set it D 2868
pot and put it D 2758
pop art and the D 2439
pot and let it D 1804
pot can not be D 1496
poet who sang of D 1436
pot and let the D 1136
poet who sang the D 1004
pot and bring the D 982
pot and bring it D 970
pot and put the D 920
poet has sung of D 834
pot and pan in D 776
poet and dean of D 700
pot that can be D 638
pop his head up D 631
pot and all the D 598
pot and put in D 590
pot and set the D 576
pot was put on D 554
pot with all the D 516
pot that sat on D 499
pop them out of D 490
pop his head in D 474
pot may not be D 418
pol pot was the D 388
pop art was the D 372
pop and rap in D 372
pot was set on D 369
pox can not be D 368
pot for all the D 368
pot was one of D 366
pot and heat it D 362
pot and heat to D 344
pop was going to D 343
pot and set on D 338
pop out with the D 328
poet who sang in D 324
pop out and the D 323
pot and then the D 314
pot and put on D 307
pot and one of D 288
pot and can be D 288
pot can then be D 262
pot and that the D 255
pot and hung it D 248
pop pop pop of D 248
pop her head in D 248
pot that was the D 236
poem was sung by D 236
poet has sung the D 234
pot and all in D 220
pot may then be D 214
pot with one of D 212
poet has sung in D 210
poet had sung of D 208
pot that hung on D 206
pop was one of D 206
pot that was on D 204
pot that had the D 202
pot for each of D 199
pot and that of D 196
pop them off the D 196
pot and fry the D 194
pol pot was an D 190
pot and see if D 188
pot and out of D 188
pot was not the D 186
pot and ran to D 184
pot and ate it D 184
pox was one of D 181
pot and that it D 176
poem was sung to D 174
poem and sang it D 172
pot and set in D 169
pot and heat on D 168
pot and use it D 166
pol pot was in D 165
pot and try to D 160
pop him out of D 158
poet who sang to D 158
pot was set to D 156
pot for use in D 155
pot and with the D 152
pot and then to D 151
pot was going to D 150
pot and add to D 149
poet and sang of D 148
pot was put in D 147
poem was sung in D 146
pot and not in D 145
pot was set in D 144
pot them off in D 143
pot for him to D 142
poet and liar in D 142
pox and had to D 138
poet who sang so D 138
pot for two or D 136
pot and not the D 136
pop its head up D 136
pot and heat the D 134
poem was sung at D 130
pot and all of D 127
pop was not the D 126
pot that hung in D 124
pot and saw the D 124
pop out and be D 124
pot and had to D 123
pot that sat in D 120
pop song and the D 120
pot with them at D 118
pot and use the D 118
pot and this is D 118
pot and one or D 118
pot and may be D 118
pot and for the D 118
pop hit for the D 118
pol pot for the D 117
pot with one or D 116
pot for you to D 116
pot and hid it D 116
poet had sung the D 116
pot was that it D 114
pot that was in D 114
pot lid off the D 114
pop off and the D 114
pop him one in D 114
pot was not so D 112
pop him with the D 112
pop can not be D 111
pot with that of D 110
pot and goes to D 106
pot with earth be D 104
pot was set up D 104
pot had one of D 104
pop you out of D 104
pop was out of D 104
poet qua poet is D 104
poem met with the D 104
pot and put an D 102
pot and kid of D 100
pot and cut the D 100
pop and then the D 100
poet has sung or D 100
pot for all of D 98
pot and run to D 98
pot and hang it D 98
pox and for the D 97
pot was put to D 96
pot and how to D 95
pol pot was to D 95
pot that has the D 94
pot has had an D 94
pot for them to D 94
pot but not the D 94
pot and sat on D 94
pot and mix in D 94
pol was one of D 94
pop hit with the D 93
pot nor pan to D 92
pot and lay it D 92
pot and get the D 90
pop out and he D 89
pot for fear of D 88
poet who sung the D 88
pot and then he D 87
pot and cut it D 86
pot and not to D 84
pot and mix it D 84
poet sang for the D 84
poem qua poem is D 84
pot was hung on D 83
pot that has no D 82
pot and lit the D 82
pot and get it D 82
pop him off in D 82
pot with two or D 80
pot and pan to D 80
pop out one of D 80
poet who sung of D 80
pox and that of D 59
pop and all the D 56
pop art was an D 54
pop art can be D 53
pop song with the D 46
pop her head up D 46
pot and with it D 42
pox and that he D 40
pot and that is D 40
