power within you . M 2734
power within him . M 2732
power within them . M 2136
point right now . M 1768
point after all . M 1664
power every day . M 1316
power about him . M 1000
poetry about them . M 972
point about them . M 912
power after all . M 856
power above them . M 828
power right now . M 716
point either way . M 709
power within her . M 662
power since then . M 600
power above him . M 584
point about him . M 542
point every day . M 538
power after death . M 520
poetry about him . M 500
poetry about her . M 462
power every year . M 452
point about that . M 430
point about this . M 420
power given him . M 390
point after that . M 364
poetry after all . M 356
point dialog box . M 348
poetry every day . M 340
point about her . M 333
power really lay . M 324
power about them . M 322
power given them . M 298
point every year . M 294
power really was . M 282
power above all . M 274
posts under him . M 262
power under him . M 248
power plant use . M 232
point above them . M 226
power await him . M 210
poetry within him . M 204
point stand out . M 202
power beneath him . M 192
posts under them . M 184
power gives them . M 180
point after all ? M 174
power after him . M 166
power until now . M 164
power could not . M 164
poetry about him ? M 162
point until now . M 158
power until death . M 156
power above man . M 152
point aimed for . M 152
power under god . M 148
power chain saw . M 148
power about her . M 144
point above him . M 142
power given out . M 132
point broke off . M 132
poetic about them . M 132
point running mean . M 129
poetry about that . M 124
power might mean . M 122
power could bring . M 122
poetry within them . M 122
power really are . M 120
point within them . M 120
power until then . M 118
power shuts off . M 118
power within man . M 116
power about you . M 116
point about you . M 114
power after that . M 112
poetry really was . M 112
power could buy . M 106
power broke out . M 106
power after all ? M 104
poetry right now . M 104
power under them . M 102
poetry above all . M 102
power holds out . M 100
point below them . M 100
poetry after him . M 100
power really lie ? M 98
posts every day . M 96
point since then . M 96
poetic about him . M 96
power plant area . M 94
power given her . M 94
point right then . M 94
point above all . M 94
poetic about her . M 94
power comes out . M 92
pouring after them . M 90
poetry since then . M 90
point really was . M 86
power under law . M 84
poetry about you . M 84
power fails him . M 82
power drops off . M 80
point within him . M 51
