let him go . M 334856
let her go . M 248908
let them go . M 142851
let you go . M 121788
let him go ! M 28303
let him be . M 26274
let him go ? M 24008
let her go ! M 22977
let them be . M 19550
let you go ? M 17524
let her go ? M 17054
let her be . M 16494
let that go . M 12831
let them go ! M 10556
let you go ! M 10386
let him in ? M 10328
let you in ? M 9266
let them go ? M 9164
led him on . M 8032
let this go . M 6106
led them on . M 5985
lead him on . M 5693
let things go . M 5461
let things be . M 5444
let him in ! M 5096
let that be . M 4983
let him eat . M 4720
let them in ? M 4654
let him up . M 4428
lead them on . M 3760
let him do . M 3526
let her in ? M 3426
let him be ! M 3424
let you be . M 2912
led her on . M 2874
lead you on . M 2752
let them in ! M 2636
let them do . M 2234
let her be ! M 2230
let them be ! M 2110
lead her on . M 1920
led him to . M 1912
let you in ! M 1884
let you do . M 1846
let him by . M 1800
lead him to . M 1782
let them by . M 1756
let her up . M 1648
let her in ! M 1602
lead them to . M 1594
let this go ? M 1282
led them to . M 1278
led you on . M 1256
let her do . M 1194
let her by . M 1194
let them eat . M 1164
let you up . M 1098
lead you to . M 1094
let him be ? M 1058
let one go . M 1046
leg with it . M 1026
let this be . M 978
lead him on ? M 948
let him sing . M 944
let that go ? M 796
let that be ! M 786
lead with it . M 737
let her be ? M 684
let him up ! M 680
lead you to ? M 673
led her to . M 652
let them be ? M 632
let things be ? M 630
let him on . M 628
let them sing . M 612
led off it . M 604
led him on ? M 552
let them up . M 548
let you by . M 536
let her eat . M 514
let you do ? M 510
let her sing . M 506
leap for it . M 490
leg for it . M 476
leap for me . M 468
let that go ! M 452
led her on ! M 424
let you eat . M 406
let things go ? M 394
let him do ? M 388
leg for me . M 380
leap and sing . M 358
leg and wing . M 336
lead her to . M 336
let you on . M 316
led you to . M 310
lead one to . M 307
led them up . M 302
let you be ? M 300
let them ring . M 290
let man be . M 278
lead off it . M 272
let them sing ! M 270
let them on . M 268
let him sing ! M 246
let all go . M 240
led him up . M 238
lead for us . M 237
let god go . M 232
lead all to . M 230
let you up ? M 220
let you be ! M 218
let this be ? M 216
lead men on . M 214
lead you on ! M 212
lead you on ? M 210
let her on . M 208
lead him to ? M 203
let them eat ! M 202
led with it . M 200
lead them up . M 200
lead them to ? M 200
lead them on ! M 192
let this go ! M 186
let him up ? M 180
led him on ! M 178
let this be ! M 172
lead you up . M 170
lead for me . M 168
let ego be . M 160
led you on ? M 160
lead them on ? M 158
led you on ! M 156
lead him on ! M 152
lead her on ? M 152
let you do ! M 148
let his go . M 148
lead out of . M 145
led them on ? M 140
let you no . M 138
lead may be . M 136
leg does it ? M 132
lead him by . M 132
let you sing . M 130
led men on . M 130
let any go . M 126
led her up . M 126
let her do ? M 122
let things be ! M 120
let him eat ! M 120
leg this is ! M 120
led you to ? M 120
let things go ! M 110
let them do ! M 110
leap for us . M 110
let him do ! M 108
led her on ? M 108
let one go ! M 104
let them do ? M 102
let that be ? M 102
let men go . M 102
let her up ! M 98
let fly at . M 98
let him oh ! M 94
lead him up . M 94
let him eat ? M 90
leg doing it . M 90
let her sing ! M 88
let any in ! M 88
let max go . M 86
lead and tea . M 85
let both go . M 84
let who go ? M 80
let earth go ? M 80
lead with me . M 64
lead for it . M 60
leap with it . M 49
lead one on . M 43
let one go ? M 42
