learning how to do M 42068
learning how to be M 41700
learns that he is M 22928
learns that it is M 18214
leaves out of the M 13242
learning and of the M 12237
legal aid to the M 11016
learning that it is M 10000
learning and in the M 9535
leaves them in the M 7780
learning one of the M 7719
leaves and in the M 7592
learning and to the M 7452
leader has to be M 6732
learnt that it is M 6600
legal aid in the M 6272
leaves him in the M 6185
learning has to be M 5928
leaves are up to M 5182
leaves and on the M 5043
learns how to be M 4882
learns how to do M 4822
learning was to be M 4782
leaves are to be M 4697
learning that he is M 4548
leader had to be M 4448
leaves them to the M 4357
legal use of the M 4208
leaves are on the M 4109
learning not to be M 4070
legal head of the M 4054
legal arm of the M 3996
leader was to be M 3968
learning and on the M 3914
learnt that the king M 3861
learnt that in the M 3857
learning are to be M 3800
leaves them to be M 3737
leaves and of the M 3555
leaves one in no M 3500
leaves you in the M 3380
learnt how to do M 3269
leaves that to the M 3194
learning that the king M 3160
letting him go to M 3120
learns that if he M 3024
leaves her in the M 3018
leader and of the M 2960
leaves one of the M 2930
letting them go to M 2920
learns that he or M 2908
lengths are in the M 2904
leaves him at the M 2903
learning all of the M 2874
letting him do it M 2838
leaves them at the M 2795
letting you in on M 2787
leader and to the M 2774
letting out of the M 2768
letting her go to M 2752
letting one of the M 2724
leaves them on the M 2694
learning had to be M 2585
legal bar to the M 2552
leaves are in the M 2517
leader out of the M 2502
leaves had to be M 2493
leaves him to the M 2461
learning and it is M 2422
letting them go in M 2412
letting them in on M 2409
leaves are of the M 2344
lending aid to the M 2332
lengths are to be M 2316
learning and at the M 2298
leader and in the M 2280
learning has to do M 2272
leader was in the M 2270
leaves lying on the M 2230
letting any of the M 2200
letting him in on M 2179
leaves than in the M 2156
learning may be the M 2120
letting them do it M 2024
legal act of the M 2000
learnt not to be M 1998
learning how to go M 1996
learning how to eat M 1961
leader who is the M 1934
letting him go on M 1928
learning out of the M 1872
leader may be the M 1856
leaves and by the M 1841
leader who is in M 1813
learns not to be M 1801
learning that is the M 1786
letting them go on M 1770
learnt that on the M 1750
learnt how to be M 1746
learns that in the M 1742
learning was in the M 1742
learning that in the M 1736
leaves are at the M 1708
learning and by the M 1677
learning how to sing M 1646
leader one of the M 1625
leaves and at the M 1605
leaves and to the M 1600
leaves lay on the M 1596
leaves out is the M 1594
leaves him on the M 1584
legal ban on the M 1578
leaves this to the M 1563
leaves you at the M 1557
leaves all of the M 1544
letting you go to M 1512
letting her do it M 1510
legal end of the M 1504
learning and to be M 1468
leaves and so on M 1459
learning and so on M 1459
learns who he is M 1456
learning can be an M 1442
leader and by the M 1438
learning due to the M 1424
learning goes on in M 1415
legal for me to M 1400
leader that he is M 1388
letting her go on M 1376
learning any of the M 1358
letting her in on M 1356
letting him do the M 1352
leader and at the M 1326
letting you do it M 1324
leader was on the M 1312
leader and as the M 1308
learning than in the M 1288
leaves her at the M 1267
learnt that he is M 1264
learning that is to M 1250
lending them to the M 1243
learning going on in M 1226
letting them do the M 1174
lengths are of the M 1174
leaves off at the M 1164
leaves are to the M 1141
learns that the king M 1138
leaves and it is M 1106
leader and as an M 1098
leader can do to M 1094
leaves one in the M 1080
legal way to do M 1076
leader who in the M 1076
leader has to do M 1060
leaves off in the M 1012
leaves you in no M 1004
learning led to the M 1001
leader who is to M 1000
leaves each of the M 998
legal men of the M 992
learning was of the M 984
leaves due to the M 970
leaves her to go M 960
learning that he or M 958
leader who is an M 958
leaves him to go M 950
learnt that at the M 937
leader and it is M 918
legal aid to be M 914
letting all of the M 912
leaves her on the M 906
learning but it is M 902
leader was at the M 900
learning how it is M 892
learnt out of the M 887
letting things go on M 884
learns that to be M 882
leader can do is M 882
leader and king of M 882
leaves out of my M 874
learning was by no M 872
leaves her to the M 863
learning not to do M 862
leader and on the M 854
letting you go on M 852
letting him be the M 840
leaves are of an M 838
learning may be of M 834
leaves that it is M 828
lends wings to the M 812
leaves out in the M 810
lending arm of the M 791
lengths due to the M 788
learning may be an M 784
learning than it is M 780
learning that is in M 766
learning both in the M 764
leaves him to be M 762
learning each of the M 762
letting fly at the M 756
lengths and in the M 748
leaves that in the M 745
learning are in the M 736
leaves him in an M 731
legal for us to M 728
letting them do so M 726
learning than to the M 714
learning than is the M 714
leaves lie on the M 713
learnt one of the M 710
leaves him in no M 699
learning are at the M 692
learning and is the M 692
letting them go by M 688
learning who he is M 687
learns one of the M 682
legal and in the M 680
legal aid by the M 680
legal aid on the M 674
learning but in the M 674
letting him do as M 667
learning that is so M 658
learning can be the M 656
leaves was in the M 654
learning was at the M 647
leaves them in an M 634
learning and as an M 632
lengths and of the M 630
leader and to be M 628
letting each of the M 624
letting her do the M 622
leaves any of the M 622
leader goes to the M 622
leader both in the M 616
leaves this to be M 610
leader and so on M 608
lending them to me M 604
legal aid of the M 604
leader who is at M 604
lengths had to be M 600
leaves all to the M 599
legal idea of the M 598
letting him go in M 597
learning that we do M 596
learning can go on M 594
legal aid at the M 593
learning can be of M 588
leaves them to go M 580
leader and he is M 580
leader was of the M 576
letting him do so M 569
leader may be in M 565
leaves each of us M 564
leaves may be as M 560
leader may be an M 560
lethal aid to the M 554
lengths than in the M 554
leaves may be the M 553
leaves you to be M 552
learns all of the M 552
learning was of no M 551
leader not to be M 546
letting him in the M 544
legal age to be M 544
leaves one at the M 544
learning and as the M 537
lending and in the M 535
leaves that up to M 530
learns not to do M 526
leaves all of us M 525
letting you go in M 524
learning them in the M 518
letting them do as M 517
leaves you on the M 517
learning can be as M 517
letting off of the M 516
leaves cling to the M 516
leader both of the M 514
legal team in the M 510
letting them go at M 506
letting him go as M 506
leaves them in no M 500
learning that at the M 498
lengths are on the M 488
letting her do as M 482
leaves that to be M 481
leaves than on the M 475
letting any of it M 470
learning that is at M 469
letting things go as M 468
leader was in no M 468
learning may be in M 467
leader lay in the M 464
legal aid or the M 462
letting them go as M 460
letting them be the M 460
learning that if he M 458
leaves hung in the M 457
lengths not to be M 456
leader than to the M 456
legal one in the M 454
letting this go on M 449
leaves off of the M 447
lends aid to the M 445
legal aid is to M 442
legal age at the M 442
leaves for us to M 442
legal end to the M 440
learning that to be M 440
learning this is the M 439
leader saw to it M 438
learnt that if he M 437
learns that on the M 436
learning that is of M 436
lends them to the M 430
leaves them to do M 430
letting her be the M 426
lengths and so on M 425
letting her go as M 424
legal aid to an M 422
letting him go at M 420
leader but as the M 416
letting things be as M 413
leader can be the M 412
leaves him as he M 411
leaves out of it M 410
learning was on the M 410
letting them in the M 408
letting any of us M 408
leaves lie in the M 408
lengths and it is M 406
legal age in the M 406
lengthy due to the M 404
leader can be an M 404
leader who is so M 400
leaves hung on the M 397
learning may be so M 396
learning than we do M 390
learning lay in the M 389
leaves her to be M 388
leaves that of the M 385
learnt any of the M 380
learns that at the M 380
leaves with us is M 379
leaves add to the M 379
letting them to the M 378
leaves out on the M 378
leaves and is the M 378
learning that on the M 377
letting you do the M 376
legal age of the M 376
leaves lying in the M 375
legal act in the M 374
leaves may be of M 370
leaves him to do M 370
learning may be as M 369
letting things go to M 366
lengthy and it is M 364
lengthy poem on the M 362
legal end of it M 362
legal and it is M 362
learns how to go M 361
learning that go on M 361
leaves has to be M 360
legal death of the M 358
learning than by the M 358
leaves can be up M 355
leaves may be up M 354
learning and is an M 354
leader sat in the M 354
leader but as an M 352
letting her go in M 350
lengths they go to M 350
legal act on the M 350
learns that if it M 348
learning than on the M 346
leaves you to the M 344
leader who at the M 344
leader was the king M 342
leader that it is M 342
leader that if he M 342
learnt them in the M 339
leader put it in M 338
lengthy that it is M 336
learns she is to M 334
learning but to the M 334
letting you be the M 330
leaves can be as M 329
lengths that it is M 328
learning and to an M 328
learnt that to be M 327
learnt that if the M 327
legal age to do M 326
leaves for me to M 326
leader and the king M 326
letting them in to M 324
legal act by the M 324
learnt that if we M 324
learning any thing of M 324
letting her go so M 323
learns that if the M 322
learning one thing at M 322
leader but in the M 322
leaves them to it M 320
leaves for up to M 316
leader that he or M 316
leader may be of M 316
leaves you to do M 315
learning than do the M 314
learnt that by the M 313
leaves with us the M 312
leaves two of the M 310
legal say in the M 308
letting out at the M 306
lengths out of the M 306
leaves you as the M 306
learning that of the M 306
learning that is an M 304
learning that if we M 304
leader than in the M 304
letting all of us M 302
leaves got up in M 302
leaves but in the M 301
letting out on the M 300
legal but in the M 298
leaves led to the M 298
learning and to do M 298
lending was to be M 296
lending was in the M 296
leader are to be M 296
learning are by no M 292
legal use in the M 288
leader and is the M 288
leader put it to M 286
learning may be to M 284
leader had to do M 284
leaves hang on the M 281
letting him go by M 280
letting god do the M 280
lethal area of the M 280
leaves man in the M 279
learning set in the M 278
learning but at the M 278
letting him go so M 277
leaves out to the M 277
learnt that of the M 277
letting her go at M 276
lengths and to the M 276
legal but it is M 276
leaves may be so M 276
leaves and up to M 276
learning can be so M 276
learning but on the M 276
leader than it is M 276
learns how to eat M 274
learning are of the M 273
legal area of the M 272
leaves may be in M 272
leader goes on to M 272
legal aid is the M 270
legal act in an M 270
leaves things to the M 270
leaves her in no M 269
letting them be in M 268
legal seat of the M 268
learnt this in the M 268
leader can be of M 268
leader but on the M 268
lengths lie in the M 264
leaves with up to M 264
letting you go is M 262
lethal due to the M 262
leaves lay in the M 261
leaves men in the M 260
leaves may be an M 260
leaves this up to M 258
letting her do so M 257
leaves cut in the M 257
letting him in to M 256
lending out of the M 256
learning was in no M 256
leader but it is M 256
lengths you go to M 254
legal than of the M 254
learns that of the M 254
learns how he is M 253
leaves and eat the M 251
lending act is to M 250
legal and so on M 250
learnt not to do M 250
legal team of the M 248
legal and at the M 248
learning may be at M 248
learning lead to the M 248
leader who is on M 248
letting this thing go M 246
legal use of it M 246
legal son of the M 246
leaves and as the M 245
legal team at the M 244
legal aid if he M 244
leader but to the M 244
learning had to do M 241
learns how it is M 240
lengths are as the M 238
leaves them as he M 236
leaves die in the M 236
leader was by no M 236
learning that if the M 235
letting things go by M 234
lending had to be M 234
learnt how to sing M 234
leader sat at the M 234
leader has in the M 234
letting god do it M 232
lending has to be M 232
leader than by the M 232
leader but of the M 232
letting her go by M 230
letting god be in M 230
leaves his in the M 230
letting things go so M 229
letting her in the M 228
leaves but it is M 228
learning things in the M 228
leaves and to be M 227
letting god be the M 226
leaves you in as M 226
leaves that on the M 226
learning can be in M 226
leader may be so M 226
lending and of the M 225
letting one of my M 224
leaves you in an M 224
leaves one on the M 222
learnt that to the M 221
letting him be in M 220
lengthy for us to M 220
leaves them by the M 220
leaves few or no M 220
learning goes on at M 220
letting you in the M 218
letting you go at M 218
learning why it is M 218
learning and he is M 218
learning was to the M 217
learning going on at M 216
learning and of an M 215
lengths and at the M 214
legal for it to M 214
learning that is as M 213
lengths but of the M 212
learning are of no M 211
letting them go is M 210
legal aid if the M 210
leaves are of it M 210
learning now in the M 210
learning has on the M 210
learning and if the M 210
leader may be to M 210
leader has on the M 210
leaves all in the M 209
lending them in the M 208
leader led to the M 208
leaves are of no M 207
letting out to the M 206
lends them to us M 206
legal aid is an M 206
learning but of the M 206
leader due to the M 206
leader but by the M 206
leaves this in the M 205
leaves off to the M 205
lengths and up to M 204
legal map of the M 204
legal and of the M 204
learning but by the M 204
leader now is as M 204
legal one of the M 202
legal act to be M 202
leaves than do the M 202
leaves him to it M 202
learning than of the M 202
letting you go so M 200
letting you go by M 200
letting him on the M 200
leaves them as the M 200
leader sat on the M 200
leaves things in the M 198
learning both of the M 198
leader does is to M 198
leaves but on the M 196
leaves her in an M 195
legal and to be M 194
leaves owing to the M 194
leader who is no M 194
leaves them as it M 192
leaves both in the M 192
leaves and is of M 190
letting them eat the M 188
leaves them up to M 188
leaves both of us M 188
learns why it is M 188
leader and if the M 188
letting you do so M 187
letting out in the M 186
learns who it is M 185
learning that by the M 185
letting all of it M 184
lengths are up to M 184
lending due to the M 184
legal and on the M 184
learnt but at an M 184
learning not as the M 184
lending was to the M 183
letting any of my M 182
leader had to go M 182
letting them go so M 180
letting one of us M 180
legal one to be M 180
legal men in the M 180
leaves was to be M 180
learning than to be M 180
leader but at the M 180
leader and if he M 180
lengths and on the M 178
leaves you to go M 178
leaves one of an M 178
learns them in the M 178
learnt how to eat M 177
letting two of the M 176
letting them go up M 176
lethal than in the M 176
learning and of no M 176
leader lying in the M 176
leader but he is M 176
leaves out of an M 175
letting that be the M 174
legal job in the M 174
leaves and he is M 174
leaves near to the M 173
learnt one thing in M 173
legal one by the M 172
learns this in the M 172
leader that is the M 172
leader than to be M 172
leader than is the M 172
leaves that to me M 171
learning yet to be M 171
letting you go up M 170
letting him go up M 170
leaves out as by M 170
learning them to be M 170
leader can do in M 170
leaves then at the M 169
learns how to sing M 168
learning was the thing M 168
lending and on the M 167
learnt that as the M 167
learning may go on M 167
lengths lying in the M 166
legal way to the M 166
lending and to the M 165
letting her go is M 164
learning set up in M 164
learning and in so M 164
learning lie at the M 163
legal had to be M 162
leaves that to us M 162
leaves one in an M 161
lethal end of the M 160
lengthy use of the M 160
leaves being of the M 160
leaves are by no M 160
learning not as an M 160
leader than on the M 160
leader can be in M 160
learning led us to M 159
learning led me to M 159
leaves was on the M 158
leader was to the M 158
leaves him as the M 157
leaves and is an M 157
letting each of us M 156
lengths add up to M 156
learning led to an M 156
learning got to do M 156
leader who by the M 156
leaves him he is M 155
leaves both of the M 155
learnt and to be M 155
letting her in to M 154
letting her be in M 154
lending wings to the M 154
legal and if the M 154
learnt one thing at M 153
learnt and it is M 153
legal bar on the M 152
learnt any thing of M 152
leaves this as an M 151
learning for me is M 151
learning and so to M 151
leaves than it is M 150
learning goes to the M 150
leader than as an M 150
leader all of the M 150
letting her go up M 149
lending and by the M 149
learnt things in my M 149
learning set by the M 149
learning area in the M 149
learning and by no M 149
letting them eat it M 148
leaves man at the M 148
learning lie in the M 148
letting was to be M 146
lengths may be as M 146
legal team on the M 146
legal gap in the M 146
legal day to be M 146
leader can do it M 146
lengths can be as M 145
legal than in the M 144
legal bar in the M 144
learning owing to the M 144
leader was at an M 144
leader that if the M 144
leader not of the M 144
lending than in the M 143
letting things go at M 142
lengthy for me to M 142
legal aid or to M 142
legal aid if it M 142
leaves off to be M 142
learning both at the M 142
lending aid in the M 141
leaves lit up the M 141
learning was by the M 141
lends them to me M 140
leader now in the M 140
lengths that in the M 139
learnt that in my M 139
lengths than do the M 138
leaves than to the M 138
learns one thing at M 138
learning set is the M 137
learning and so the M 136
leader who is as M 136
leader was in an M 136
learnt that the so M 135
learning are on the M 135
letting them go or M 134
lengthy but it is M 134
legal day of the M 134
legal aid as an M 134
leaves die at the M 134
leaves and so the M 134
learnt how it is M 134
learns she is the M 134
learning for it to M 134
leader who is of M 134
leader may be as M 134
lending one of the M 133
leaves cut by the M 133
letting them in at M 132
lending goes to the M 132
learning this is to M 132
learning can be no M 132
lending and at the M 131
leaves few of the M 131
letting them up to M 130
letting both of us M 130
lengths and by the M 130
legal seat in the M 130
legal act is the M 130
leaves and go to M 130
learning them is to M 130
leader was up to M 130
lengths has to be M 128
legal age to go M 128
learning was at an M 128
learning this in the M 128
learning may do the M 128
learning and is in M 128
leader and he or M 128
lending and so on M 127
leaves this on the M 127
learning how do we M 127
letting him in at M 126
letting him be so M 126
lengthy one in the M 126
lengths with me as M 126
legal aid in an M 126
leaves him as it M 126
leaves her to it M 126
learning had to go M 126
learning bear to the M 126
leader had in the M 126
letting her go he M 124
leaves one or the M 124
learnt you to do M 124
learning them at the M 124
learning now to be M 124
learning end of the M 124
leader that in the M 124
leader got on the M 124
lengths may be the M 122
learning one or the M 122
learning how he or M 122
leader now of the M 122
leader lying on the M 122
leader does in the M 122
letting this go to M 120
letting them to be M 120
lengths are at the M 120
leader was to go M 120
leader has to go M 120
leader got up to M 120
learnt all of the M 119
letting you in to M 118
legal path to the M 118
legal due of the M 118
leaves with me the M 118
learns not to go M 118
learning them by the M 118
leader being in the M 118
leaves any thing to M 117
leaves and if the M 117
learning set up by M 117
learning fit to be M 117
letting you in my M 116
letting off on the M 116
lengths are to the M 116
legal idea of an M 116
legal due to the M 116
learning than at the M 116
leader was by the M 116
leader can do no M 116
leader and is an M 116
leaves now in the M 115
letting them be as M 114
lengths with me in M 114
lengths may be up M 114
lending led to the M 114
legal bar to an M 114
leaves all at the M 114
learnt that we do M 114
learns who is the M 114
learning them on the M 114
learning out in the M 114
leader saw in the M 114
leader has is to M 114
leader had at the M 114
leaves with us an M 113
learnt how to go M 113
letting one or the M 112
letting him go is M 112
lethal use of the M 112
lending him to me M 112
legal way by the M 112
legal man in the M 112
learning that if it M 112
leader than as the M 112
leader and to do M 112
leaves men to the M 111
learning has to go M 111
letting things go the M 110
letting them on the M 110
legal than to the M 110
leaves him by the M 110
leader than of the M 110
leader than he is M 110
leader had on the M 110
leader did to the M 110
leaves all to me M 109
letting them in by M 108
letting him do to M 108
letting die in the M 108
lengthy than in the M 108
lengths can be up M 108
lending you to me M 108
lending are to be M 108
legal aid is in M 108
leaves her as the M 108
leaves for it to M 108
leaves are in an M 108
learning aid in the M 107
lengthy and by no M 106
legal way in the M 106
legal and to the M 106
leaves man to the M 106
leaves being in the M 106
learning lead us to M 106
leader was of an M 106
leaves than by the M 105
leaves far in the M 105
learning than he is M 105
lengths being in the M 104
leaves yet on the M 104
leaves out is as M 104
leaves but to the M 104
leaves and on to M 104
learns that by the M 104
learns each of the M 104
leaves cut up by M 103
letting him go if M 102
lengthy poem in the M 102
lengths than it is M 102
legal aid as the M 102
leaves yet to be M 102
learnt that in an M 102
learns that the thing M 102
learns that as he M 102
learning path of the M 102
learning not in the M 102
leader let it be M 102
leader can do so M 102
leader and so he M 102
learning not to go M 100
leader then of the M 100
leader and in an M 100
leaves with us in M 99
leaves her by the M 99
leaves with us as M 98
learnt this at the M 98
learning who it is M 98
learning things at the M 98
learning any thing as M 98
learning and to go M 98
leader out in the M 98
leader has of the M 98
leader going to the M 98
leader east of the M 98
lengths owing to the M 97
lending out to the M 97
leaves set on the M 97
learnt has to be M 97
learning and so it M 97
leader can be as M 97
letting this be the M 96
letting her go if M 96
lending you to the M 96
legal and is the M 96
leaves one to the M 96
leaves and up the M 96
leaves one of us M 95
lends wings to my M 94
lending her to me M 94
legal but of the M 94
leaves not in the M 94
learns why he is M 94
learning not to eat M 94
learning and the so M 94
letting and so on M 93
letting him eat the M 92
letting her be at M 92
lengthy run in the M 92
lengthy and on the M 92
lending them to be M 92
legal for the king M 92
leaves you as it M 92
leaves them at an M 92
leaves that is to M 92
leaves that do so M 92
leaves her as he M 92
leaves and the ring M 92
learning yet to do M 92
learning for me to M 92
learning apt to be M 92
leader who on the M 92
leader out of me M 92
leader dead on the M 92
leader can do the M 92
leader and is in M 92
leader and go to M 92
letting air in or M 90
lengthy run at the M 90
lengthy gap in the M 90
lengths may be in M 90
legal way of the M 90
leaves this in no M 90
leaves that be the M 90
leaves hang in the M 90
leaves fly up of M 90
leaves can be the M 90
leaves act as an M 90
learnt this in my M 90
learnt him to be M 90
learns any of the M 90
leader put it at M 90
leader lay on the M 90
leader got to the M 90
leader are of the M 90
learnt but in the M 89
lengthy plea to the M 88
lending him to the M 88
legal aid is so M 88
legal act is to M 88
leaves things up to M 88
leaves things to be M 88
leaves that as he M 88
leaves her to do M 88
leaves dry on the M 88
leaves any of us M 88
leaves and go on M 88
learning and so of M 88
learning all at the M 88
leaves her it is M 87
leaves and is in M 87
letting things be in M 86
letting off at the M 86
letting him go he M 86
lengthy war in the M 86
learnt that up to M 86
learns that the so M 86
learns she is an M 86
learning they do in M 86
learning math in the M 86
learning has in the M 86
learning any of it M 86
leader and of an M 86
letting things go in M 84
letting them be on M 84
letting may be of M 84
letting him be my M 84
lengthy owing to the M 84
lending them to us M 84
lending can be an M 84
legal way is to M 84
leaves man as the M 84
leaves him so to M 84
leaves bear to the M 84
learnt with us in M 84
learning was of an M 84
leader that he be M 84
leader out on the M 84
leader may be at M 84
leader are in the M 84
leaves off on the M 83
letting you be so M 82
lengthy but by no M 82
lengths did he go M 82
lending any of the M 82
leaves get to be M 82
leaves can be an M 82
leaves and if it M 82
learning how is the M 82
learning had on the M 82
learning all of it M 82
leader that is in M 82
leader not on the M 82
leader fit to be M 82
lending may be the M 81
letting you go if M 80
letting him go the M 80
lengthy and in the M 80
legal plea of the M 80
leaves you at an M 80
leaves them to an M 80
leaves lead to the M 80
leaves all to be M 80
leader are on the M 80
leader and so the M 80
learnt was to be M 77
learning area of the M 67
learning than if the M 65
learning goes on as M 61
lending wings to my M 60
learning than if he M 59
learning can be at M 59
learning but as an M 59
learning and as to M 59
learning set of the M 56
learning and is to M 56
learning and if we M 56
learning can do to M 55
letting you go as M 54
leaves set in the M 51
leaves goes to the M 51
learning and so is M 51
leaves dying on the M 50
leader can go on M 50
learning out of it M 48
learning nor in the M 48
learning for me as M 48
learning and in an M 48
lengths they go in M 47
learning and by an M 47
leaves lit by the M 46
learning for me in M 46
leaves put in the M 45
learning that is no M 45
learning may be on M 45
learning for it is M 45
learning does go on M 45
leaves for the tea M 44
leaves all on the M 44
learning then in the M 44
leaves put on the M 43
leaves cut to the M 43
learns that he no M 43
learning but as the M 43
leaves that is the M 42
learning can do is M 42
lengths bear to the M 41
leaves let go of M 41
leaves this as the M 40
leaves die on the M 40
leaves both on the M 40
learning and is at M 40
learning and if it M 40
leaped out of the D 59856
leaned out of the D 58846
level and at the D 51653
level and in the D 39247
level than at the D 21170
level due to the D 19190
level than in the D 18101
level and on the D 18034
lever arm of the D 13900
leaked out of the D 12324
level has to be D 12048
level with the sea D 10506
level set by the D 9853
level and to the D 9772
level and it is D 8954
league and of the D 8738
leaked out to the D 8428
level and of the D 8182
level that it is D 7318
level had to be D 6440
league was to be D 6414
leaching out of the D 5904
level but at the D 5819
level one of the D 5519
level and by the D 5448
league with the king D 5135
level are to be D 5064
level than on the D 5024
level was to be D 4766
level off in the D 4636
level than it is D 4526
level may be the D 4426
leased out to the D 4196
level and so on D 4157
league and to the D 4042
leased out by the D 3922
league and in the D 3790
lesion was in the D 3523
leaped out of my D 3520
level and is the D 3490
leaked out in the D 3444
leaped out at me D 3292
level was in the D 3260
level this is the D 2975
level that is the D 2950
level top of the D 2592
leather seat of the D 2564
lesion may be the D 2541
level owing to the D 2530
level but on the D 2523
level off at the D 2419
league out of the D 2400
level and to be D 2324
level than is the D 2213
lesion may be in D 2183
level but it is D 2143
level has to do D 2060
level but in the D 2049
level out of the D 2011
level was at the D 2008
level tax on the D 2000
level may be as D 1904
level led to the D 1886
level are in the D 1832
leases are to be D 1812
leather bag on the D 1808
leased them to the D 1782
level and if the D 1759
leaped out at the D 1756
level and up to D 1754
league and by the D 1723
league was in the D 1712
leaped out on the D 1704
level may be an D 1666
lesion and in the D 1659
level area of the D 1644
level job in the D 1638
league team in the D 1632
league had to be D 1632
level may be of D 1612
level off as the D 1601
level and at an D 1571
level set in the D 1512
level set of the D 1502
legion and of the D 1484
legal pad on the D 1422
level both in the D 1414
level both of the D 1326
lesion and on the D 1316
leaped out of it D 1286
league and at the D 1285
leaned out of my D 1282
level than to the D 1274
level than do the D 1245
lesion and of the D 1240
level that is in D 1237
level that is at D 1222
level all of the D 1208
lesion may be so D 1198
lesion has to be D 1196
levying war on the D 1194
legion was to be D 1194
level that he is D 1182
level and in an D 1179
lever arm is the D 1152
level and on an D 1140
level this is an D 1137
level rim of the D 1124
level area on the D 1112
level can be as D 1110
level with the ear D 1107
level two of the D 1104
level for up to D 1094
level may be in D 1078
lesion may be an D 1068
lever arm to the D 1067
lesion may be of D 1058
level with the king D 1055
league and on the D 1029
lever out of the D 998
level may be so D 998
level out in the D 973
level and as the D 968
league was on the D 954
level and is in D 953
level area at the D 950
level that is to D 948
levee and in the D 948
level are of the D 945
level can be the D 940
lending his ear to D 938
level that he or D 936
lesion due to the D 933
level was on the D 928
level and so the D 919
leaden hue of the D 918
lesion was on the D 916
league was at the D 906
lever had to be D 896
lends his ear to D 892
level one is the D 871
lever has to be D 861
leased one of the D 858
level due to an D 849
leaked out at the D 836
level was up to D 802
leather out of the D 790
league are to be D 790
level can be an D 788
leaned out of it D 786
leaned out of an D 786
league and the king D 779
legion was in the D 756
level them to the D 747
lever arm on the D 744
leather bag in the D 744
level not to be D 742
level area in the D 742
leaven hid in the D 737
level that is of D 736
leases had to be D 735
league one of the D 730
level may be at D 717
level than if the D 715
level each of the D 711
leaven was to be D 687
leaked out on the D 686
level for it to D 679
lesion and to the D 672
leather had to be D 668
level are at the D 667
level and as an D 667
leather top of the D 664
level that is as D 657
lesion being in the D 654
level that is no D 653
level use of the D 652
leaned out on the D 650
ledge cut in the D 645
level and if it D 636
level nor at the D 633
league was in no D 629
level that is so D 622
leather and in the D 620
level and is an D 618
level that in the D 589
leases them to the D 587
leaked out of my D 584
level was of the D 580
level but to the D 579
level set on the D 572
leaned far to the D 560
level than the sea D 556
level map of the D 556
level can be of D 552
leaked out as to D 552
level bed of the D 545
league out to sea D 544
level off to the D 541
leased out in the D 540
legion was on the D 538
leaned out to the D 538
leather thong at the D 536
leaked them to the D 532
level off at an D 530
level set at the D 529
lesion and it is D 525
level but by the D 523
lever and of the D 519
level and is of D 517
lever was in the D 514
leased all of the D 512
league was by no D 510
level off by the D 499
level was at an D 488
leather seat in the D 486
level that we do D 483
league off in the D 482
league out at sea D 480
level that of the D 477
level out at the D 475
level and so is D 473
levying war in the D 460
level job at the D 460
lesion may be at D 457
legion and in the D 456
level with us in D 454
level east of the D 453
leaked out of me D 450
league and to be D 449
leaked out of it D 442
league led by the D 442
lever that in the D 440
legion out of the D 440
leaven that is in D 433
leather has to be D 432
level then it is D 429
level near to the D 427
level and he is D 427
level lead to the D 426
league led to the D 426
lever arm in the D 425
level led to an D 422
level out to the D 414
leaned his ear to D 404
level has on the D 402
level than by the D 399
ledge out of the D 397
league east of the D 397
leaching due to the D 397
level and to do D 396
level and in so D 394
leather arm of the D 394
leaned out in the D 392
leaned low in the D 392
level two is the D 389
leaped out to the D 388
level being in the D 385
leper was to be D 384
level head in the D 381
legion had to be D 380
lesion and by the D 377
level may be to D 376
lesion that is the D 373
lever arm at the D 372
leaven that is to D 372
leather thong of the D 372
leather thong to the D 370
league lay in the D 370
level are on the D 369
lever end of the D 368
level one in the D 366
level out as the D 364
level than if it D 360
leather was to be D 360
leather and so on D 360
leaped out on to D 360
level and so it D 356
level and on to D 353
leaped off of the D 352
level than he is D 348
level and the sea D 346
lesion than in the D 344
leaped out at us D 344
leader for the ma D 344
lemon out of the D 342
lesion had to be D 340
legal pad as he D 340
leases and in the D 340
level for us to D 339
level and so to D 337
lesion than on the D 336
level goes up by D 334
legion and it is D 333
lesion was of the D 332
leather and of the D 330
leaped out in the D 330
leaned out at the D 326
level and to an D 324
leaked out by the D 324
level not of the D 322
level end of the D 322
level nor on the D 321
leather thong on the D 317
league met at the D 316
leather bag to the D 313
league and it is D 311
legal pad in the D 306
ledge and on the D 306
level than we do D 305
leather bag at the D 304
level can be so D 302
leases for up to D 302
league set up in D 301
lesion was at the D 300
level with it in D 299
leering out of the D 299
level was by no D 298
league than in the D 295
lever and at the D 294
league that it is D 290
level that is an D 288
levying tax on the D 286
lesion and at the D 286
legal tie to the D 284
legal fee in the D 284
level off as it D 282
level but on an D 282
level with the ring D 281
level than on an D 279
lever that is to D 278
lever was on the D 276
level can it be D 276
lethal gas in the D 276
level all of us D 274
leased for up to D 272
leather box on the D 271
level you to the D 268
level with it or D 266
league met in the D 266
level low in the D 264
lesion lay in the D 262
league than to the D 258
level and is at D 257
legion and to the D 255
ledge and in the D 254
leaner than in the D 254
level goes up to D 252
level and as it D 252
level lying in the D 248
league team of the D 248
league and the fa D 248
leaden seal of the D 246
league now is the D 244
legal fee of the D 242
league team to the D 242
level with the so D 241
level than at an D 239
level being at the D 239
level and go to D 239
level and if so D 238
league and so on D 238
level with us on D 237
lever and to the D 236
level goes to the D 236
lesion but it is D 236
leased out to an D 236
level are by no D 235
leather and it is D 233
level ice of the D 231
level and of an D 231
level can be at D 230
leaned them on the D 230
level lay in the D 228
lesion and is the D 228
leader was an ex D 228
level and is to D 226
level and in no D 226
league has to be D 226
level can be in D 225
leather bag of the D 225
league set up the D 225
level and go on D 224
level was at or D 222
level and we do D 222
level and up the D 222
leather pad on the D 220
level add to the D 219
level for me to D 218
leaden sky of the D 218
lever set in the D 217
level than if he D 217
level lie in the D 217
legal fee to the D 216
leases was to be D 216
level than in an D 215
levying war on us D 214
level than of the D 214
level him to the D 214
level and so we D 214
level and if we D 214
leper has to eat D 214
leaven and of the D 214
leases and so on D 214
leaped out of in D 214
leaked this to the D 214
league and as the D 214
leather and on the D 213
lever was to be D 212
level for it is D 212
leather seat as the D 212
level and by an D 211
leaven had to be D 211
level yet to be D 210
levee was to be D 210
level one on the D 209
lever may be in D 208
level has in the D 208
level each of us D 208
leaked out to be D 208
level not at the D 207
league team at the D 207
level out on the D 206
leaped out as the D 206
level that is on D 205
leaned out as if D 204
level with the wing D 203
level both at the D 203
league but to the D 203
lesion may be on D 202
leases and of the D 202
lesion may be as D 201
level that at the D 200
level fed to the D 200
legal pad on my D 200
leeks out of the D 200
league for the king D 200
level bed of an D 198
leather thong in the D 198
leases may be in D 198
league was of the D 198
level area to the D 197
level and do the D 197
leavings out of the D 196
leases are in no D 196
leaned one of the D 196
league set up an D 195
leafed out in the D 194
level and is no D 193
level going to the D 192
level but of the D 192
level both on the D 192
leases are in the D 192
leased out at the D 192
lesion are to be D 190
level had to do D 188
league are in the D 188
leaven out of the D 187
leather shoe on the D 187
level with it on D 186
lemon ice king of D 186
leaped out of an D 186
league but by the D 186
lemon oil on the D 184
ledge and to the D 184
lever arm to be D 183
level and as to D 183
level can be no D 182
level are of no D 182
leaves for the sea D 182
level path to the D 180
level with me in D 179
level two in the D 179
level near the sea D 179
lesion was to be D 178
lesion that is to D 178
leech out of the D 178
league had to do D 178
level and go up D 177
league had to go D 176
level that if the D 175
level nor in the D 174
level goes up or D 174
league was at an D 174
level set as the D 173
level may be no D 173
level and if he D 173
leases and to the D 172
level but as the D 170
legal ohm is the D 170
leather are to be D 170
level with it at D 169
level tax on an D 169
level may go up D 168
level beam of the D 168
lemur doing in my D 168
league had in the D 168
level with my ear D 167
level with me on D 167
leaves with the toe D 167
learning how to re D 167
level off on the D 166
level but at an D 165
lever arm as the D 164
level not in the D 164
level can do the D 164
levee had to be D 164
legal pad to the D 164
league set up by D 164
level with it is D 163
level set to the D 163
level that it no D 162
level can do so D 162
lesion lying in the D 162
leather sling on the D 162
lever and so on D 161
level and is on D 161
learns that the cs D 160
level this is to D 159
level this is no D 159
leased out on the D 158
level ray of the D 157
leather box in the D 157
level than he or D 156
level set up by D 156
levee and on the D 156
leather bag in my D 155
level with the the D 154
lesion being on the D 154
legal pad at the D 154
leather that is to D 154
leather cap on the D 154
leather and at the D 154
leaned out as the D 154
level and so do D 153
level with it as D 152
level and is so D 152
lesion owing to the D 152
legal seal of the D 152
leaned her ear to D 152
level set up at D 150
level off or to D 150
level job as an D 150
lesion was to the D 150
legal pad in my D 150
lever arm is in D 149
lesion can be the D 148
lends its ear to D 148
ledge and up the D 148
leaves and the sea D 148
leather seat as he D 148
leaped out as if D 148
league owing to the D 148
level with it the D 147
level goes up as D 147
ledge had to be D 146
leader and an ex D 146
lever due to the D 144
leering out at us D 144
level and is as D 143
lever and on the D 142
level she is the D 142
leases and at the D 142
level jet in the D 141
level area is the D 141
lesion that it is D 141
leather seat to the D 141
leather and to the D 141
level off to an D 140
level and at no D 140
lesion that is in D 140
lemon oil in the D 140
leaned far in the D 140
level her to the D 139
lensing out of the D 139
level this is so D 138
level that by the D 138
level rod on the D 138
level goes up in D 138
level any of the D 138
lesion area in the D 138
lemon for the tea D 137
level and the re D 136
league due to the D 136
lever and in the D 134
level had to go D 134
lesion and is of D 134
leper and of the D 134
level set up in D 133
level set is the D 133
level add up to D 133
lever are in the D 132
lesion due to an D 132
leaked out of an D 132
league met on the D 132
lever set at the D 130
level set of an D 130
level may be on D 130
level job in an D 130
level both by the D 130
leper out of the D 130
lends her ear to D 130
leases out of the D 130
leases are of the D 130
leased out at an D 130
leaped off to the D 130
leaned low to the D 130
level with the ox D 128
level was to the D 128
leers and on the D 128
lever and it is D 126
level this is of D 126
leaped off in the D 126
league was to the D 126
leaden top to it D 126
level and on up D 125
level can go up D 124
lemon oil to the D 124
league was to do D 124
level them by the D 122
level that on the D 122
level can be up D 122
level and in my D 122
legion and by the D 122
leased two of the D 122
leaped out of me D 122
level tax in the D 121
leases all of the D 121
letting out an ear D 120
lemon pie in the D 120
leaped off at the D 120
leaden bias to the D 120
level she or he D 119
leather cap of the D 119
learning that the cs D 119
lever put in the D 118
lever and by the D 118
level lead to an D 118
level but in an D 118
legal fee to be D 118
leather bar in the D 117
level set up on D 116
level head of the D 116
level are we to D 116
lethal hit to the D 116
legal tie or no D 116
leaves fed to the D 116
leased and to the D 116
level with the on D 115
level with or in D 115
level men in the D 115
leather seat at the D 115
level than if we D 114
lending one ear to D 114
leather bag on to D 114
leased area of the D 114
league with the so D 114
league out of my D 114
level bit of the D 113
level may in the D 112
levee and at the D 112
leased them to an D 112
leanings are to be D 112
leaked out as the D 112
league that in the D 112
league but of the D 112
league and as an D 112
leafed pear of the D 112
lever arm or the D 111
level with me at D 111
level then at the D 111
level cut on the D 111
level that if we D 110
lesion and if the D 110
leaned low on the D 110
leaked out to an D 110
league has in the D 110
level that the sea D 109
level than to be D 109
level one is at D 109
leather cut to the D 109
leather bag on my D 109
leases not to be D 109
lever arm by the D 108
level who is in D 108
level them in the D 108
level that if he D 108
level job on the D 108
level and the so D 108
level and be in D 108
legal pad as if D 108
leaped one of the D 108
lever being in the D 107
level are the so D 107
level but in no D 106
level are in no D 106
legion was at the D 106
leaves thee to the D 106
leather lying on the D 106
leaned out as he D 106
league may be the D 106
leaden death is at D 106
level with us as D 105
leases and by the D 105
levying war is an D 104
level them up to D 104
level them at the D 104
lesion one of the D 104
leaching out in the D 104
level nor is it D 103
level with us at D 102
level nor to the D 102
level but to be D 102
level and so in D 102
lesion can be in D 102
lending her ear to D 102
leanings are to the D 102
leaned near to me D 102
league than by the D 102
leaden hue or of D 102
level with the up D 101
level may do so D 101
level one to the D 100
level led us to D 100
level and be of D 100
lesion that is of D 100
leased and on the D 100
league with the foe D 100
league run by the D 100
league not to be D 100
league both in the D 100
league and if the D 100
leaden sky on the D 100
leaden eye of the D 100
leaded gas is the D 100
level and do it D 99
lesion than is the D 98
legal zeal of the D 98
leased out as the D 98
learning and the re D 97
level too it is D 96
leased was to be D 96
leaked out via the D 96
league out in the D 96
leaching has to be D 96
ledge near the sea D 95
ledge east of the D 95
level was of no D 94
level path on my D 94
lesion than it is D 94
lemon was in the D 94
ledge and of the D 94
leases let at the D 94
leases and on the D 94
league than of the D 94
leaden hue of an D 94
lever are to be D 92
lesion and to be D 92
ledge was on the D 92
leather hung in the D 92
league are of the D 92
league and is the D 92
leaden sky in the D 92
leaden heat of the D 92
level had on the D 90
level and be the D 90
legal seal on the D 90
leaven and as the D 90
leather bag by the D 90
leased out of the D 90
leased area in the D 90
leaked out as it D 90
level net of the D 89
level and as he D 89
level this is in D 88
level path of the D 88
level path at the D 88
level and to go D 88
letting rip on the D 88
legion and on the D 88
leather thong as he D 88
leases one of the D 88
leaned now on the D 88
leaked out in an D 88
league has to do D 88
level not on the D 87
level was in no D 86
level can go to D 86
level all to the D 86
lesion that is at D 86
lesion can be an D 86
lemma has to be D 86
league not to go D 86
leaden sky to the D 86
leaden air of the D 86
level and via the D 85
level and so he D 85
level with up to D 84
level rod at the D 84
level has to go D 84
level all at the D 84
leper had to be D 84
leather due to the D 84
leaked out to us D 84
level area of an D 83
level owing to an D 82
leaped out on me D 82
leaned each of us D 82
league saw to it D 82
level but he is D 81
ledge that it is D 81
ledge led to the D 81
level with the tea D 80
level out by the D 80
lesion that is so D 80
lesion than to the D 80
lesion can be of D 80
lemma and on the D 80
leering out at the D 80
leases and it is D 80
league but in the D 71
level cut of the D 68
level with me as D 65
level tax to the D 63
level tax if the D 63
level six of the D 60
leather seat on the D 59
level may be up D 58
leather shoe in the D 56
level two on the D 54
level far to the D 53
league but it is D 53
level idea of the D 51
level gap in the D 51
leaching and to the D 51
leaching and in the D 51
level and the in D 50
level air in the D 50
leaching and on the D 50
level with me or D 49
lesion may be no D 47
leather seat of my D 47
level with the toe D 46
level cut at the D 45
level way to the D 44
leather cut in the D 44
league but at the D 44
ledge that he is D 43
league nor to the D 43
league and the so D 43
level off as we D 42
leaves tap at the D 42
level both to the D 41
level being of the D 41
level all in the D 41
lesion may be by D 41
leather thong to be D 41
leather shoe of the D 41
legion and so on D 40
leather out of my D 40
leather gear of the D 40
