not you think ? M 501846
not far away . M 191450
not you know ? M 175800
not yet come . M 130329
not end there . M 126068
not yet clear . M 106716
not this time . M 106466
not any more . M 97564
not too late . M 90725
not too much . M 84538
not yet over . M 76170
not end here . M 71944
not run away . M 71188
not get away . M 67324
not say much . M 51966
not going well . M 48526
not get along . M 47254
not being used . M 46820
not yet know . M 44198
not you know . M 42880
not too great . M 41754
not too high . M 40986
not that true ? M 36726
not get lost . M 34946
not you heard ? M 33460
now you know . M 32060
not sit down . M 31549
not yet born . M 31024
not too good . M 30960
not get hurt . M 30780
not yet seen . M 30066
not far wrong . M 29782
not mean much . M 28870
not yet done . M 27964
not doing well . M 27942
not that good . M 26044
not yet ready . M 25856
now than ever . M 23936
now too late . M 22920
not you come ? M 22574
not going away . M 22212
not one word . M 21022
not going back . M 20806
not say more . M 20694
not get angry . M 19558
not get done . M 19372
not any good . M 19280
not too hard . M 19188
not that much . M 18926
not get there . M 18916
not you dare ! M 17960
not say nothing . M 17272
not that nice ? M 16722
not too many . M 16586
not that great ? M 16256
not that great . M 16112
not you tell ? M 15966
not you speak ? M 15668
not being there . M 13864
not get sick . M 13800
not get back . M 13664
not that kind . M 13660
not too cold . M 13136
not too heavy . M 13122
not lie down . M 13058
not yet lost . M 12526
not being done . M 12274
not for ever . M 12244
not that hard . M 12148
now being used . M 12120
not too well . M 11858
now being made . M 11630
not his name . M 11628
not too fast . M 11542
not get well . M 11296
not you coming ? M 10992
not going home . M 10746
now and ever . M 10696
not see much . M 10572
now and here . M 10562
not had time . M 10486
not for years . M 10458
not you care ? M 10388
not say what . M 9840
not you dare . M 9632
not all there . M 9522
not yet made . M 9506
not too sure . M 9490
not get over . M 9318
not going there . M 9032
not too busy . M 8990
not too soon . M 8966
not yet full . M 8964
not too deep . M 8924
not for love . M 8802
not far ahead . M 8776
not being fair . M 8740
not too late ! M 8651
not for nothing . M 8584
now she knew . M 8352
not yet there . M 8278
not you glad ? M 8262
not fly away . M 8206
not you stay ? M 8088
not too clear . M 7986
not our ways . M 7980
not his type . M 7760
not see well . M 7518
not each other . M 7462
now being done . M 7396
not that sort . M 7348
not mean nothing . M 7274
not for sure . M 7234
not being made . M 7054
not get down . M 6980
nor too cold . M 6816
not out there . M 6700
not you call ? M 6696
not yet open . M 6664
not yet here . M 6578
not being heard . M 6540
not yet gone . M 6502
not his life . M 6456
not you well ? M 6446
not for good . M 6402
not yet heard . M 6368
not that many . M 6360
not yet have . M 6342
not you know ! M 6338
not you wait ? M 6334
not say when . M 6308
not for mine . M 6286
not got time . M 6278
not you cold ? M 6260
not you leave ? M 6194
not get home . M 6176
not you like ? M 6166
not get work . M 6132
not for life . M 6102
not mix well . M 6080
not you talk ? M 6012
not all good . M 5994
not own land . M 5992
not get free . M 5934
not too early . M 5920
not this case . M 5894
not that good ? M 5744
not get warm . M 5712
not real life . M 5664
not this great ? M 5456
not her type . M 5286
not bring peace . M 5278
not run away ! M 5232
not yet free . M 5226
not see nothing . M 5120
not this true ? M 5110
not for food . M 5076
not get cold . M 5070
not put down . M 5054
not his heart . M 5054
not that nice . M 5034
not too warm . M 4860
not this time ! M 4828
not any other . M 4740
not out loud . M 4720
not lie there . M 4688
not yet time . M 4686
not too loud . M 4662
not too young . M 4650
not sit well . M 4638
not being here . M 4616
not they come ? M 4612
not she come ? M 4602
not get much . M 4588
not for show . M 4572
nor any other . M 4572
not his work . M 4562
not any more ! M 4516
not end well . M 4500
not being said . M 4474
not you stop ? M 4344
not get here . M 4332
not her name . M 4326
not she here ? M 4320
not read much . M 4292
not too late ? M 4274
now long gone . M 4268
not too soft . M 4240
not you think . M 4234
not fit well . M 4224
not yet used . M 4218
not too wide . M 4210
not his body . M 4208
not being seen . M 4184
not get help . M 4146
not pay much . M 4140
not all work . M 4074
not that high . M 4046
not get away ! M 4036
now you know ! M 4027
not you there ? M 3916
not read well . M 3916
not too slow . M 3858
not get along ? M 3850
not hear well . M 3838
not his face . M 3828
now sit down . M 3822
not got none . M 3806
not out here . M 3748
not that clear . M 3684
not yet died . M 3682
not her heart . M 3682
not get jobs . M 3658
not all over . M 3602
not this week . M 3592
not this nice ? M 3592
not that fine ? M 3592
not she know ? M 3582
not our home . M 3566
not our case . M 3560
not too much ! M 3556
not sit there . M 3532
not lie here . M 3530
not yet been . M 3514
not his mind . M 3498
not you find ? M 3478
not die down . M 3464
not easy reading . M 3390
not they know ? M 3384
now but wait . M 3348
not yet past . M 3346
not run away ? M 3330
not yet tell . M 3320
not pay well . M 3286
not get ahead . M 3282
not you here ? M 3276
not sit down ? M 3276
not all three . M 3274
not that type . M 3258
not its meaning . M 3242
not that time . M 3224
not get into . M 3192
not yet sure . M 3188
not easy work . M 3178
nor too slow . M 3160
not yet told . M 3158
not for evil . M 3150
not doing more . M 3124
nor too late . M 3084
not you rich ? M 3078
not too bold . M 3076
not his home . M 3018
not that late . M 3000
not you help ? M 2994
not doing much . M 2990
not doing nothing . M 2972
not you mind ? M 2966
not one word ! M 2944
not you quit ? M 2934
not his will . M 2914
not one left . M 2908
not that nice ! M 2888
now far away . M 2868
not too dark . M 2856
not his eyes . M 2836
not going down . M 2818
not all wrong . M 2812
not how much . M 2768
not that cold . M 2764
not now used . M 2760
not that young . M 2740
not you move ? M 2732
not get more . M 2722
not get past . M 2704
not being ready . M 2698
not that great ! M 2678
not its goal . M 2672
now run along . M 2652
now doing well . M 2648
now long past . M 2638
now set forth . M 2630
not any time . M 2620
not its name . M 2618
not get sore . M 2618
not sit idle . M 2612
not got nothing . M 2586
not all gone . M 2570
now all gone . M 2556
not that cool ? M 2540
not all zero . M 2534
not its form . M 2528
not any left . M 2510
not fit here . M 2498
not all true . M 2498
not too clean . M 2494
not our goal . M 2488
not yet speak . M 2476
not all here . M 2474
now you have . M 2468
not set forth . M 2462
not being told . M 2460
not his last . M 2434
not for boys . M 2424
nor too much . M 2394
now for years . M 2384
not yet dark . M 2382
not real ones . M 2382
not going well ? M 2382
not now have . M 2380
not her body . M 2378
not hear nothing . M 2356
not sit here . M 2352
not being true . M 2348
not this soon . M 2346
not get rich . M 2346
not too much ? M 2344
now for sure . M 2342
not yet home . M 2342
not run fast . M 2338
not his best . M 2332
not that fast . M 2330
not you work ? M 2304
not any help . M 2304
not bear arms . M 2298
not yet cold . M 2296
not too fine . M 2284
not then know . M 2284
not her life . M 2270
not die here . M 2264
not now know . M 2252
not easy ones . M 2250
not too rich . M 2248
not yet left . M 2246
not her face . M 2214
not hang back . M 2200
not ask more . M 2190
not for what . M 2158
not see what . M 2156
not our kind . M 2142
not see life . M 2140
not for hire . M 2138
not long coming . M 2126
not for ours . M 2126
not set down . M 2120
not yet well . M 2100
not one only . M 2092
not yet come ? M 2066
not you sure ? M 2044
not but fail . M 2036
not that fair ? M 2024
not his goal . M 2020
not set free . M 2006
not now speak . M 2006
now was wait . M 1990
not her home . M 1988
not ask much . M 1984
not being well . M 1970
not let down . M 1966
not let pass . M 1964
not all clean . M 1948
not pay more . M 1946
not this wait ? M 1942
not they here ? M 1940
not get away ? M 1938
not yet safe . M 1930
now his home . M 1910
now and rest . M 1894
not they care ? M 1886
not run down . M 1874
not you move . M 1864
not hear much . M 1860
not yet come ! M 1858
not both zero . M 1858
not how many . M 1856
nor too soft . M 1852
not with love . M 1850
not for free . M 1842
not going back ! M 1838
not too cool . M 1836
not being worn . M 1836
not get lost ! M 1832
not for gain . M 1830
not put there . M 1826
not going away ? M 1826
not get made . M 1822
not yet felt . M 1814
not you ready ? M 1810
not eating well . M 1810
not real love . M 1808
not too full . M 1806
not see coming . M 1804
now for ever . M 1798
not now tell . M 1792
not you look ? M 1786
not die there . M 1782
not cut down . M 1778
not new ones . M 1770
not you fire ? M 1768
not that well . M 1766
not she leave ? M 1762
not any more ? M 1758
not they great ? M 1746
not yet back . M 1740
not its size . M 1736
not earn much . M 1728
now they know . M 1722
not all loss . M 1714
not one more . M 1708
not yet dawn . M 1704
not being used ? M 1704
not that deep . M 1702
not get used . M 1684
not but feel . M 1670
not run well . M 1668
not his line . M 1646
not pay back . M 1640
not that hurt ? M 1636
not going back ? M 1636
now being felt . M 1634
not his meaning . M 1630
not that sick . M 1620
not that work ? M 1616
not this trip . M 1610
not for ages . M 1600
not that heavy . M 1592
not put away . M 1592
not get nothing . M 1590
not her mind . M 1578
nor too high . M 1578
not die away . M 1574
not being held . M 1568
not too fast ! M 1566
not yet eaten . M 1554
not all lost . M 1550
not being clear . M 1548
not that good ! M 1540
not sit down ! M 1538
not she great ? M 1536
not add much . M 1536
not end soon . M 1532
not this time ? M 1530
not for peace . M 1518
not that fine ! M 1512
not his plan . M 1510
not yet laid . M 1506
not her eyes . M 1506
not being kept . M 1506
not this kind . M 1504
not die young . M 1502
now all over . M 1500
not but obey . M 1492
not lay down . M 1488
not run over . M 1486
now see here . M 1484
not you pray ? M 1484
not lying down . M 1484
not age well . M 1480
not got much . M 1470
not you play ? M 1466
now they knew . M 1458
now see here ! M 1458
now set free . M 1456
not his duty . M 1452
not shy away . M 1440
not for days . M 1438
not any need . M 1438
not yet said . M 1426
not new ideas . M 1408
not set well . M 1406
not far away ! M 1398
not that clear ? M 1396
not for self . M 1396
not his game . M 1394
now her home . M 1390
not our rest . M 1386
not being free . M 1386
not that busy . M 1384
not his love . M 1380
not for work . M 1378
not his kind . M 1376
not all mine . M 1374
now was gone . M 1368
not see ahead . M 1366
now being held . M 1364
not you angry ? M 1354
not you have ? M 1350
not eating much . M 1350
not all gain . M 1350
not real sure . M 1346
not get hurt ! M 1346
not win wars . M 1342
not god good ? M 1342
not get hurt ? M 1340
not his hand . M 1332
not buy much . M 1330
not doing well ? M 1328
not being good . M 1328
not bad ones . M 1322
not get food . M 1318
not get back ? M 1306
not deal here . M 1306
not you feel ? M 1298
not see mine . M 1298
not going along . M 1290
not going home ? M 1288
not lie idle . M 1286
not all play . M 1286
now dry land . M 1284
not get laid . M 1282
now any more . M 1280
not our time . M 1278
not his time . M 1276
not bow down . M 1268
not let fall . M 1262
not you walk ? M 1256
not she care ? M 1256
not all evil . M 1254
nor lie down . M 1252
not you rest ? M 1248
not hear what . M 1248
nor too hard . M 1248
not that wild ? M 1240
not but hate . M 1240
not get aids . M 1236
not get moving . M 1234
not going away ! M 1232
not they nice ? M 1224
now get moving . M 1220
not being sick . M 1218
not get angry ! M 1216
not they come ! M 1214
not she speak ? M 1212
not all dark . M 1212
nor each other . M 1206
not any room . M 1204
not buy love . M 1188
not bring forth . M 1182
not but know . M 1176
not get high . M 1174
not being born . M 1170
not add more . M 1170
not run deep . M 1168
not for ever ! M 1168
now lay open . M 1166
not say less . M 1166
not his ways . M 1160
not for kids . M 1158
not any wind . M 1158
not get lost ? M 1156
now too late ! M 1154
not with cold . M 1150
not being home . M 1150
not yet born ? M 1148
not say what ? M 1148
now for good . M 1142
not won over . M 1140
not too nice . M 1140
not her dream . M 1138
not cut back . M 1138
not they work ? M 1134
not all bleak . M 1134
not for more . M 1128
not all clear . M 1118
now they have . M 1116
not then born . M 1116
not any good ? M 1114
not you move ! M 1110
not heal well . M 1106
not with anger . M 1104
not being nice . M 1096
not yet true . M 1092
not this much . M 1090
now going home . M 1086
not that rich . M 1082
not you learn ? M 1076
not any hope . M 1074
now get lost . M 1066
not now clear . M 1066
not long past . M 1064
not being done ? M 1064
not act well . M 1064
not for mine ! M 1058
now being born . M 1056
not cry much . M 1050
not you think ! M 1048
not that only . M 1048
not she there ? M 1046
not one died . M 1046
not one drop . M 1042
not yet know ? M 1034
not sat down . M 1030
not act upon . M 1030
not this great ! M 1024
not all were . M 1020
not yet five . M 1018
not that rare . M 1016
not get hard . M 1016
not being able . M 1016
not how soon . M 1014
not this early . M 1012
nor run away . M 1010
not that kind ! M 1008
not bring much . M 1006
not one time . M 1002
not her love . M 1000
not being hurt . M 1000
not buy food . M 998
not see land . M 996
not real work . M 996
not for truth . M 996
not that much ! M 994
not our work . M 994
not you swim ? M 992
not this work ? M 992
not yet cast . M 990
not they stop ? M 986
not doing wrong . M 980
not its length . M 978
not going ahead . M 978
now they were . M 976
not too keen . M 972
not that help ? M 970
not yet down . M 964
not his turn . M 964
not being fair ! M 964
not you tell . M 960
not being sure . M 958
not then come . M 956
not any here . M 954
not they leave ? M 950
now get ready . M 948
not this body . M 946
not mean peace . M 946
not yet three . M 942
not any there . M 942
not for reading . M 938
not too busy ? M 934
not you weep . M 924
not they help ? M 920
not for these . M 918
not sit there ! M 916
not far away ? M 914
nor was there . M 912
not real good . M 910
not get there ! M 910
not with pain . M 908
not any jobs . M 908
not too soon ! M 906
not they wait ? M 906
not this girl . M 904
not see into . M 904
not that part . M 900
not run wild . M 900
not you gone ? M 898
not set seed . M 898
now are gone . M 894
not yet four . M 894
not fear harm . M 894
not being there ? M 894
not his view . M 892
not yet sent . M 888
not yet nine . M 886
not with truth . M 886
not you glad ! M 882
not with tears . M 880
not that sure . M 878
not yet lost ! M 872
not too heavy ? M 872
not that rich ? M 872
not that early . M 870
not say here . M 870
not get angry ? M 870
not for nothing ! M 870
not too safe . M 862
not his baby . M 860
nor too heavy . M 858
not all here ! M 856
not its truth . M 850
not with mine . M 848
not doing good . M 848
not get there ? M 846
nor too fast . M 846
not get none . M 844
nor too dark . M 844
now his turn . M 842
not too acid . M 842
not this fine ? M 842
not get clean . M 840
not his face ? M 834
not get leave . M 832
not too rare . M 830
not ask what . M 830
not any work . M 828
not for some . M 826
not but speak . M 824
not cut away . M 822
not you quit . M 818
not you mind . M 818
now lie down . M 816
not get well ? M 816
not get back ! M 814
not bring rain . M 814
now being laid . M 812
not our life . M 812
not yet worn . M 810
not too poor . M 810
not put back . M 810
not this good . M 808
not long gone . M 806
not yet ours . M 804
not that poor . M 802
not she said . M 800
not his deed . M 800
not his word . M 798
not being kind . M 798
now sit down ! M 794
now lay ahead . M 794
not with pity . M 794
not mix much . M 792
not going there ! M 792
not get time . M 790
not you home ? M 786
not she nice ? M 786
not you jump ? M 782
not use these . M 782
not fit there . M 782
not this book . M 778
nor you mine . M 776
not his name ? M 774
not his case . M 774
not big ones . M 774
not they good ? M 772
not that love ? M 768
not this good ? M 766
not end there ! M 766
not our view . M 762
not all talk . M 762
not she talk ? M 758
not run true . M 758
not going fast . M 756
not yet great . M 754
not for play . M 754
not any food . M 754
not going home ! M 752
now too high . M 750
now her turn . M 750
now being heard . M 748
not his role . M 742
not she call ? M 740
not yet seen ? M 738
not bad here . M 736
not being wrong . M 734
not you mark ? M 732
not being eaten . M 730
not get many . M 728
not dry well . M 728
not yet over ! M 724
not this late . M 724
not our duty . M 722
not now living . M 718
not all will . M 718
not this month . M 716
not fit into . M 716
not yet done ? M 714
not sit back . M 714
not buy land . M 710
not that dark . M 708
not you seen ? M 706
not his ideas . M 706
not this nice ! M 704
not get down ! M 704
not for most . M 704
not one left ! M 700
not long term . M 700
now and here ? M 698
not real time . M 698
not get what ? M 698
not bad luck . M 698
not one more ? M 696
not that girl . M 694
not far from . M 692
not you join ? M 690
not not know . M 690
not one here . M 688
now too late ? M 686
not she coming ? M 684
not get eaten . M 684
not you come . M 682
not too eager . M 682
not they talk ? M 682
not they like ? M 682
not one step . M 682
not that book . M 680
not one less . M 680
not use much . M 678
not his name ! M 676
now you will . M 674
now being lost . M 674
not too wise . M 674
not our sort . M 674
not mean well . M 674
not leap years . M 674
not buy more . M 674
not you wish . M 672
not with ideas . M 672
not die soon . M 672
not any pain . M 672
not his fate . M 670
not both true . M 668
not then made . M 666
now get busy . M 664
not you ever ? M 664
not her last . M 664
not any feet . M 662
not that soon . M 660
not our last . M 660
not got here . M 660
not get sick ! M 660
nor yet nothing . M 660
not try hard . M 658
not get even . M 658
nor too warm . M 658
not get clear . M 656
not this done ? M 654
not that cool . M 652
not they move ? M 650
not his sons . M 650
not they work . M 648
not see what ? M 648
now lying idle . M 644
not yet talk . M 644
not lie well . M 642
nor too poor . M 642
not fly well . M 640
not but love . M 640
now and ever ! M 638
not that wrong ? M 638
not but think . M 638
not that wide . M 636
now put forth . M 634
not hear more . M 634
not get sick ? M 634
now too great . M 632
not see here . M 628
not one word ? M 628
not one there . M 628
now our home . M 626
not going over . M 624
not dead ones . M 622
not get done ? M 620
not too good ! M 618
not get weary . M 618
not get ideas . M 618
not being lost . M 618
not his faith . M 614
not all four . M 614
not then seen . M 612
not got away . M 612
not two years . M 610
not her baby . M 610
not being sent . M 610
not you care . M 608
not then used . M 608
not see many . M 608
not see good . M 608
not they fire ? M 606
not her work . M 604
not yet walk . M 602
not too many ! M 602
not too cold ? M 602
not get heard . M 602
not cut well . M 602
not being rich . M 600
not her kind . M 596
now sat down . M 594
not they have ? M 594
not that word . M 594
not his feet . M 594
not going there ? M 594
not being safe . M 594
not act soon . M 592
not you want ? M 588
not get ready . M 588
not but fall . M 588
now you know ? M 586
not run there . M 586
not too early ? M 584
not she move ? M 584
not see more . M 584
not die rich . M 584
not his ideal . M 582
not they there ? M 578
not she mind ? M 578
not for dogs . M 578
now our turn . M 576
not yet name . M 576
not too high ? M 576
not too bold ! M 576
not she stay ? M 576
not then ready . M 574
not that loud . M 574
not got time ! M 574
not get mine . M 574
not with envy . M 572
not her goal . M 572
not being angry . M 572
nor too many . M 572
not fly away ! M 568
not with life . M 566
not she good ? M 564
not our land . M 564
not this fast . M 562
not its cure . M 562
not for rest . M 562
not too wild . M 560
not too boring . M 558
not that warm . M 558
not that mine ? M 558
not mean harm . M 558
not long last . M 558
now for days . M 556
not old ones . M 556
now dying away . M 554
not you done ? M 554
not with ours . M 552
not see there . M 552
not get work ? M 552
now was over . M 550
not yet reach . M 550
not too sick . M 550
not mean here . M 550
not its sign . M 550
not yet have ? M 548
not her hand . M 548
not for ever ? M 548
not any other ? M 548
not ten years . M 546
not bad kids . M 546
not yet mine . M 544
not that kind ? M 544
not that fine . M 544
not fly away ? M 544
not yet weary . M 542
not yet find . M 542
not with these . M 542
not that slow . M 540
not his sort . M 540
not yet done ! M 538
not yet cool . M 538
not pay heed . M 538
not our plan . M 538
not for love ? M 538
not too good ? M 536
not being clean . M 536
not any form . M 534
now set down . M 532
not its core . M 532
not got there . M 532
not act fast . M 532
not see none . M 530
not ill done . M 530
not bring back . M 530
now you come . M 528
not too soon ? M 528
not out there ? M 528
not mean what ? M 528
not for time . M 528
now two years . M 526
not yet learn . M 526
not that wait ? M 526
not got back . M 524
not bear much . M 522
not they mind ? M 520
not our role . M 520
not his dream . M 520
not any snow . M 520
not his heir . M 518
now being used ? M 516
not get lazy . M 516
now they will . M 514
not too lazy . M 514
not now here . M 514
not any name . M 514
now can tell . M 510
not yet good . M 510
not all pain . M 510
not that case . M 506
not her time . M 506
not get boring . M 506
not for three . M 506
not all there ? M 506
now get moving ! M 504
not too hard ! M 504
not she tell ? M 504
not bear pain . M 504
not yet over ? M 502
not they stay ? M 502
not his wish . M 502
not for less . M 500
not far back . M 498
not long idle . M 496
not bad faith . M 496
not she stop ? M 494
not see these . M 494
not his size . M 494
nor his love . M 494
not yet ideal . M 492
not see over . M 490
not say nothing ! M 490
not her best . M 490
not get along ! M 490
not for living . M 490
not they just ? M 488
not that said ? M 488
not being poor . M 488
nor too great . M 488
not too ugly . M 486
not this cool ? M 486
not you crying ? M 484
not use mine . M 484
not mean love . M 484
not yet born ! M 482
not mean wrong . M 482
not for talk . M 482
now are lost . M 480
not with time . M 480
not for good ? M 480
not bear well . M 480
not then living . M 478
not run high . M 478
nor too cool . M 478
not its cost . M 476
not being here ? M 476
not you wish ? M 474
not this nice . M 474
nor too wide . M 474
not see nothing ! M 472
not read maps . M 472
not she well ? M 470
not our wish . M 470
not get said . M 470
now being seen . M 468
not they coming ? M 468
not she home ? M 468
not all come . M 468
not any home . M 466
not his land . M 464
not being great . M 464
not all luck . M 464
now has none . M 462
not his back . M 462
not all lies . M 462
now with tears . M 460
not get aids ? M 460
not all told . M 460
now this book . M 458
not that hard ! M 458
not real well . M 458
not long away . M 458
not get born . M 458
not for many . M 458
not for much . M 456
not with arms . M 454
not get forth . M 454
now going down . M 452
not yet work . M 452
not for tears . M 452
not easy here . M 452
not any good ! M 452
not say whom . M 450
not mean nothing ! M 450
not long back . M 450
not get peace . M 450
not now hold . M 448
not she think ? M 446
not our faith . M 446
not any less . M 446
now with anger . M 444
not read fast . M 444
not our fate . M 444
not hear back . M 444
not get here ? M 444
not any fire . M 444
nor his heart . M 444
not yet pure . M 442
not too trying . M 442
now had none . M 440
not yet feel . M 440
not real snow . M 440
not her room . M 440
now try these . M 438
not yet faith ? M 438
not win here . M 438
not put down ? M 438
not his gift . M 438
not her will . M 438
now too much . M 436
not this love ? M 436
not that hell ? M 436
not own much . M 436
now for mine . M 434
not you love ? M 434
not this part . M 434
now being told . M 432
not read ahead . M 432
now nor ever . M 430
not one line . M 430
not get told . M 430
nor too young . M 430
now run away . M 428
now lay down . M 428
now and leave . M 428
not that hard ? M 428
not lie deep . M 428
not you been ? M 426
not our name . M 426
not its past . M 426
not for wealth . M 426
not all well . M 426
now going away . M 424
not yet high . M 424
not this wrong ? M 424
not that name . M 424
not now come . M 424
not get busy . M 424
not bear more . M 424
nor with whom . M 424
nor his life . M 424
not our game . M 422
not you eaten ? M 420
not bring home . M 420
not man made . M 418
now for home . M 416
not you wish ! M 416
not real wealth ? M 416
not real beings . M 416
now and here ! M 414
not you hurt ? M 414
not you fall ? M 414
not with fire . M 414
not had much . M 414
not all true ? M 414
not all there ! M 414
not too kind . M 412
not read more . M 412
not put forth . M 412
not its heart . M 412
not its best . M 412
not get soft . M 412
not being open . M 412
not being lazy . M 412
not for health . M 410
not doing work . M 410
not bad odds . M 410
not mix there . M 408
nor for what . M 408
not his book . M 404
not for whom . M 404
not this lady . M 402
not her game . M 402
not all have . M 402
not you leave . M 400
not that sick ? M 400
not lie down ! M 400
not tag along . M 398
not his room . M 398
not yet love . M 396
not his like . M 396
not his call . M 396
nor his name . M 396
not yet shut . M 394
not being fair ? M 394
nor his work . M 394
not yet ready ? M 392
not they just ! M 392
not far wrong ! M 392
not but come . M 392
not being heard ? M 392
not too angry . M 390
not this life . M 390
not they fine ? M 390
not for pain . M 390
nor can have . M 390
not say more ! M 388
not our will . M 388
not doing harm . M 388
now was there ? M 386
now they come . M 386
not she just ! M 386
not read mine . M 386
not our meaning . M 386
not her turn . M 386
not bring away . M 386
nor too early . M 386
now was clear . M 384
now get along . M 384
now for life . M 384
not she just ? M 384
not her line . M 384
not cry here . M 384
not being young . M 384
not being said ? M 384
not with food . M 382
not they speak ? M 382
nor this only . M 382
not with such . M 380
not our baby . M 380
not his health . M 380
now had nothing . M 378
now and play . M 378
not you left ? M 378
not use those . M 378
not she have ? M 378
not hang down . M 378
not two gods . M 376
not not look . M 376
not his hair . M 376
now are here . M 374
not lie down ? M 374
not his past . M 374
not for such . M 374
now was mine . M 372
now than ever ? M 372
not with meals . M 372
not run back . M 372
not its body . M 372
not any meaning . M 372
not use here . M 370
not too dull . M 370
not that ugly . M 370
not that name ! M 370
not she help ? M 370
not run home . M 370
not ill made . M 370
not far down . M 370
not you tell ! M 368
not they call ? M 368
not say nothing ? M 368
not our body . M 368
not one more ! M 368
not being told ? M 368
not with ends . M 366
not sit here ! M 366
not run from . M 366
not its life . M 366
not his girl . M 366
now being done ? M 362
not she wait ? M 362
not rot away . M 362
not our lord . M 362
not get land . M 362
not get done ! M 362
not all poor . M 362
not you talk . M 360
not that pain . M 360
not mean more . M 360
nor can know . M 360
now you talk . M 358
now was time . M 358
now all lost . M 358
not any fish . M 358
now ran high . M 356
now had three . M 356
not long ones . M 356
not get those . M 356
not get some . M 356
not end here ! M 356
not that sort ! M 354
not die here ! M 354
now for home ! M 352
now far ahead . M 352
not yet moving . M 352
not now there . M 352
not hung over . M 352
not his birth . M 352
now than ever ! M 350
now going back . M 350
not yet warm . M 350
not they tell ? M 350
not see clear . M 350
not run here . M 350
not our type . M 350
not now have ? M 350
not get home ? M 350
not fly here . M 350
not that clean . M 348
not our line . M 348
not long there . M 348
not buy time . M 348
not all know . M 348
not two days . M 346
not too high ! M 346
not fly back . M 346
not earn more . M 346
not you baby ? M 344
not get wise . M 344
not you dare ? M 342
not yet late . M 342
not real truth . M 342
not real food . M 342
not near zero . M 342
not doing evil . M 342
not cry once . M 342
not you just ? M 340
not too open . M 340
not our heads . M 340
not lie ahead . M 340
not his wont . M 340
not any heart . M 340
now ten years . M 338
not you yell ? M 338
not this well ? M 336
not all rich . M 336
nor too soon . M 336
now she knew ! M 334
now one more . M 334
not die well . M 334
not our eyes . M 332
not new here . M 332
not fly there . M 332
not buy life . M 332
not all done . M 332
not yet gone ? M 330
not this great . M 330
not that wrong . M 330
not that other . M 330
not hear good . M 330
not going south . M 330
not fly high . M 330
not any harm . M 330
nor all good . M 330
now get lost ! M 328
not yet tied . M 328
not his wealth . M 328
not for hate . M 328
not but envy . M 328
now for help . M 326
not her hair . M 326
not bring more . M 326
nor its meaning . M 326
now his life . M 324
now for peace . M 324
now for nothing . M 324
not yet seen ! M 324
not our best . M 324
not its root . M 324
not get left . M 324
now you must . M 322
now are full . M 322
not yet able . M 322
not say love . M 322
not pay nothing . M 322
not you sell ? M 320
not with years . M 320
not she walk ? M 320
not one half . M 320
not get full . M 320
now and wait . M 318
not read these . M 318
not now name . M 318
not going wrong . M 318
not easy years . M 318
not one book . M 316
not you busy ? M 314
not his anger . M 314
not his ally . M 314
not her sons . M 314
not doing fine . M 314
not buy here . M 314
not too worn . M 312
not that life ? M 312
not that free . M 312
not get help ? M 312
not buy health . M 312
not aging well . M 312
now cut down . M 310
now are rare . M 310
now are mine . M 310
not yet move . M 310
not with ruin . M 310
not its home . M 310
not being rare . M 310
not any book . M 310
now put down . M 308
not yet here ? M 308
not they were . M 308
not then clear . M 308
not our ideal . M 308
not for faith . M 308
now you talk ! M 306
now her life . M 306
now hear mine . M 306
not you wait . M 306
not you girl ? M 306
not yet wise . M 306
not yet know ! M 306
not they walk ? M 306
not hear well ? M 306
not for land . M 306
not any rush . M 306
not all used . M 306
not all acting . M 306
nor sit down . M 306
now two days . M 304
not this baby . M 304
not they learn ? M 304
not now deny . M 304
not long over . M 304
not his vice . M 304
not for mine ? M 304
not any risk . M 304
nor too loud . M 304
now going there . M 302
not yet spring . M 302
not too young ! M 302
not real wealth . M 302
not now done . M 302
not its mass . M 302
not its depth . M 302
not all three ? M 302
now than angry . M 300
not you sick ? M 300
not then cold . M 300
not real clear . M 300
not her sort . M 300
not bear what ? M 300
not yet shed . M 298
not our ally . M 298
not one hour . M 298
not her name ? M 298
not being felt . M 298
not you told ? M 296
not use more . M 296
not real faith . M 296
not for life ? M 296
not bring food . M 296
nor too fine . M 296
nor far away . M 296
not that keen . M 294
not going good . M 294
now she said . M 292
not you come ! M 292
not for fish . M 292
not all wise . M 292
now was lost . M 290
not read there . M 290
not let rest . M 290
not hear from . M 290
not god good ! M 290
now lying down . M 288
not you stop . M 288
not you free ? M 288
not yet fled . M 288
not get less . M 288
not for help . M 288
not any ideas . M 288
now you wait . M 286
not you blow ? M 286
not that safe . M 286
not mean good . M 286
not its last . M 286
not for love ! M 286
not that wild . M 284
not run ahead . M 284
not red hair . M 284
not our past . M 284
not not come . M 284
not its type . M 284
now going well . M 282
now for work . M 282
now are living . M 282
now are free . M 282
not yet meet . M 282
not too hard ? M 282
not they moving ? M 282
not they hurt ? M 282
not that angry . M 282
not our life ? M 282
not mean harm ? M 282
not lying there . M 282
not get over ? M 282
not bring forth ? M 282
nor with truth . M 282
not with evil . M 280
not our self . M 280
not one came . M 280
not near home . M 280
not its like . M 280
not his mate . M 280
not for here . M 280
nor one less . M 280
nor how much . M 280
now run wild . M 278
now get away . M 278
not you speak . M 278
not with whom . M 278
not run much . M 278
not one such . M 278
not doing nothing ! M 278
not any plan . M 278
nor too deep . M 278
now had come . M 276
not you will . M 276
not that bold . M 276
not that best ? M 276
not its base . M 276
not ill said . M 276
not his will ? M 276
not had many . M 276
not for what ? M 276
not cut deep . M 276
not you swear ? M 274
not yet living . M 274
not yet hard . M 274
not yet dream . M 274
not yet bearing . M 274
not top down . M 274
not fly open . M 274
not all along . M 274
nor too well . M 274
not you saying ? M 272
not win much . M 272
not this only . M 272
not they think ? M 272
not his form . M 272
not going ahead ? M 272
not bad work . M 272
not all time . M 272
now going ahead . M 270
now for breath ? M 270
not you late ? M 270
not you care ! M 270
not yet deep . M 270
not being late . M 270
not yet show . M 268
not this many . M 268
not his rest . M 268
not being idle . M 268
not being full . M 268
now has been . M 266
not you heard . M 266
not this rule . M 266
not they ever ? M 266
not our ideas . M 266
not now give . M 266
not his self . M 266
not his heart ? M 266
not for acting . M 266
not cut wood . M 266
now cut away . M 264
not too heavy ! M 264
not that luck ? M 264
not its role . M 264
not got many . M 264
not get rest . M 264
not buy there . M 264
not any moon . M 264
not and died . M 264
now for fact . M 262
not you sign ? M 262
not you early ? M 262
not yet time ! M 262
not yet there ? M 262
not with theory . M 262
not that pure . M 262
not see here ? M 262
not long hold . M 262
not with boys . M 260
not six years . M 260
not our call . M 260
not now make . M 260
not her role . M 260
not cut open . M 260
not both ways . M 260
nor his mind . M 260
now was gone ! M 258
not one note . M 258
not all show . M 258
now being said . M 256
not you date ? M 256
not yet made ? M 256
not now made . M 256
not his play . M 256
not fly from . M 256
now was rest . M 254
not with dread . M 254
not real peace . M 254
not for home . M 254
not bear down . M 254
now with snow . M 252
now say more . M 252
not then have . M 252
not she fine ? M 252
not god care ? M 252
not for other . M 252
now with pain . M 250
now dying down . M 250
not you good ? M 250
not yet heard ? M 250
not yet fall . M 250
not that much ? M 250
not say more ? M 250
not his type ? M 250
not got lost . M 250
not get jobs ? M 250
not get dark . M 250
not cut into . M 250
not being busy . M 250
now was peace . M 248
now had done . M 248
not you also ? M 248
not with faith . M 248
not who will ? M 248
not see ours . M 248
not near here . M 248
not her fate . M 248
not got none ! M 248
not for harm . M 248
not any love . M 248
now doing nothing . M 246
not you ever ! M 246
not too great ? M 246
not this just ? M 246
not they ready ? M 246
not that true . M 246
not pay less . M 246
now was free . M 244
now war ends . M 244
now not used . M 244
not read those . M 244
not his loss . M 244
not get down ? M 244
not being such . M 244
now was nothing . M 242
not yet ready ! M 242
not see those . M 242
not say what ! M 242
not our mind . M 242
not her health . M 242
not get over ! M 242
not being cool . M 242
not bad boys . M 242
not all truth . M 242
now out there . M 240
now and cold . M 240
not you stop ! M 240
not our love . M 240
not her feet . M 240
not hear such . M 240
not get seen . M 240
not each other ? M 240
not yet gray . M 238
not this hard . M 238
not she work ? M 238
not its means . M 238
not her duty . M 238
not buy nothing . M 238
not any kids . M 238
nor for ever . M 238
now our land . M 236
not you nice ? M 236
not too free . M 236
not that done ? M 236
not that bleak . M 236
not his kids . M 236
not got home . M 236
not for four . M 236
not for cure . M 236
not bring life . M 236
not any mind . M 236
not all over ! M 236
nor for mine . M 236
not you fall . M 234
not yet live . M 234
not top heavy . M 234
not too young ? M 234
not they will . M 234
not say mass . M 234
not own dogs . M 234
not his arms . M 234
not had time ! M 234
not get open . M 234
not get mail . M 234
not cut much . M 234
not buy these . M 234
not bring down . M 234
not any game . M 234
now has three . M 232
not yet sick . M 232
not try nothing . M 232
not they rich ? M 232
not our turn . M 232
not one tree . M 232
not all died . M 232
now get down . M 230
not you what ? M 230
not you obey ? M 230
not you bathe ? M 230
not yet think . M 230
not yet give . M 230
not yet clear ? M 230
not they heard ? M 230
not that meaning . M 230
not one speak ? M 230
not his left . M 230
not for lust . M 230
not ask leave . M 230
now you speak . M 228
now has come . M 228
now doing fine . M 228
not you stay . M 228
not they quit ? M 228
not that wise . M 228
not that trim ? M 228
not that just ? M 228
not now reach . M 228
not his acts . M 228
not got room . M 228
nor his body . M 228
now not fair . M 226
now but three . M 226
now and save ! M 226
now and pray . M 226
not you speak ! M 226
not out there ! M 226
not get rain . M 226
not for ideas . M 226
not being wise . M 226
not all areas . M 226
nor his duty . M 226
now see there . M 224
now and save . M 224
not you open ? M 224
not you hide ? M 224
not use fire . M 224
not too many ? M 224
not too daring . M 224
not this wild ? M 224
not say much ? M 224
not heal over . M 224
not all here ? M 224
not you wash ? M 222
not you moving ? M 222
not with hope . M 222
not pay duty . M 222
not his theory . M 222
not fly home . M 222
not far north . M 222
not being used ! M 222
not any word . M 222
nor bad luck . M 222
now you rest . M 220
not this high . M 220
not our home ! M 220
not going north . M 220
not get torn . M 220
not being flip . M 220
not any rain . M 220
now has meaning . M 218
not yet holy . M 218
not yet clean . M 218
not win there . M 218
not this girl ! M 218
not this fair ? M 218
not read only . M 218
not her plan . M 218
not get sore ! M 218
not get hold . M 218
not bad hurt . M 218
now was done . M 216
now but pray . M 216
now being made ? M 216
not you mind ! M 216
not win over . M 216
not too wrong . M 216
not this fine ! M 216
not that fast ! M 216
not out here ! M 216
not our ways ! M 216
not long kept . M 216
not her case . M 216
not get here ! M 216
not for youth . M 216
not for pity . M 216
not being more . M 216
not any cure . M 216
not all free . M 216
now say nothing . M 214
not you reading ? M 214
not with more . M 214
not too weary . M 214
not they true ? M 214
not see evil . M 214
not run free . M 214
not his need . M 214
not had none . M 214
not fly much . M 214
nor for evil . M 214
not read list . M 213
not yet dealt . M 212
not with hate . M 212
not its width . M 212
not her size . M 212
not her meaning . M 212
not buy peace . M 212
not all kept . M 212
now being sent . M 210
not yet reading . M 210
not yet hold . M 210
not too sore . M 210
not they cool ? M 210
not that open . M 210
not mean safe . M 210
not lying idle . M 210
not did nothing . M 210
not but weep . M 210
not any dream . M 210
not act sick . M 210
now was heard . M 208
not you talk ! M 208
not with many . M 208
not this type . M 208
not she moving ? M 208
not our word . M 208
not its peace . M 208
not his show . M 208
not her wish . M 208
not her ways . M 208
not easy there . M 208
not each other ! M 208
not aim high . M 208
nor she mine . M 208
not you ever . M 206
not you draw ? M 206
not yet want . M 206
not win love . M 206
not that young ! M 206
not our gods . M 206
not his ruin . M 206
not get these . M 206
not get free ! M 206
not die early . M 206
nor men boys . M 206
nor how many . M 206
nor his eyes . M 206
now long lost . M 204
not too base ? M 204
not this once . M 204
not she angry ? M 204
not mean less . M 204
not lie there ! M 204
not ill will . M 204
not for data . M 204
not both hold . M 204
not you just ! M 202
not yet need . M 202
not put down ! M 202
not now when ? M 202
not now true . M 202
not leap over . M 202
not its ends . M 202
not fear life . M 202
not being zero . M 202
not being male . M 202
now for sure ! M 200
now and dark . M 200
not yet rich . M 200
not yet calm . M 200
not this clear . M 200
not she like ? M 200
not his army . M 200
not get bent . M 200
not for seeing . M 200
not fear evil . M 200
not far south . M 200
not bring healing . M 200
not all life . M 200
now run along ! M 198
now and ready . M 198
now and gone . M 198
not you mine . M 198
not you just . M 198
not you boys ? M 198
not see down . M 198
not say much ! M 198
not his heart ! M 198
not his food . M 198
not get sent . M 198
not ask when . M 198
not all ours . M 198
not yet cease . M 196
not with what . M 196
not she crying ? M 196
not run into . M 196
not going well ! M 196
not get fish . M 196
not being cold . M 196
nor they mine . M 196
nor his ways . M 196
nor any less . M 196
now with rage . M 194
now had hope . M 194
not you fire ! M 194
not yet face . M 194
not then heard . M 194
not our kids . M 194
not long live . M 194
not ill meant . M 194
not his lord . M 194
not going down ! M 194
not get ours . M 194
not but grow . M 194
not you lost ? M 192
not then open . M 192
not sit here ? M 192
not she heard ? M 192
not real gods . M 192
not one body . M 192
not long left . M 192
not his third . M 192
not had more . M 192
not get ugly . M 192
not bear seed . M 192
not any baby . M 192
nor too rich . M 192
nor her name . M 192
now are seen . M 190
not you wait ! M 190
not you heard ! M 190
not this sort . M 190
not own nothing . M 190
not now time . M 190
not got over . M 190
not got jobs . M 190
not for hearing . M 190
not buy into . M 190
not bad food . M 190
not any case . M 190
now all free . M 188
not this work . M 188
not they just . M 188
not see past . M 188
not read here . M 188
not one week . M 188
not one tenth . M 188
not get well ! M 188
not for years ! M 188
not far more . M 188
not bring help . M 188
not any tears . M 188
not all male . M 188
not all gone ? M 188
nor with many . M 188
now how many ? M 186
now his ally . M 186
not yet make . M 186
not yet held . M 186
not then cease . M 186
not long held . M 186
not lead there . M 186
not her anger . M 186
not going down ? M 186
not bad ideas . M 186
not any road . M 186
now lying there . M 184
now for food . M 184
now and dawn . M 184
not yet here ! M 184
not who else . M 184
not too true . M 184
not see well ? M 184
not our show . M 184
not our pain . M 184
not one month . M 184
not her maid . M 184
not going soft . M 184
not bear pity . M 184
not all ready . M 184
not all live . M 184
not add meaning . M 184
now you have ? M 182
now run down . M 182
now lie back . M 182
now get back . M 182
not yet gone ! M 182
not that rich ! M 182
not low ones . M 182
not got here ? M 182
not for need . M 182
not for meaning . M 182
not end life . M 182
not being vain . M 182
not all young . M 182
not all fail . M 182
nor put down . M 182
nor its form . M 182
nor his feet . M 182
now our ally . M 180
not they stop ! M 180
not our food . M 180
not had time ? M 180
not far gone . M 180
not doing more ? M 180
not dead sure . M 180
not being there ! M 180
not being seen ? M 180
not any girl . M 180
not all good ? M 180
now too well . M 178
now she must . M 178
now lay there . M 178
now being kept . M 178
not you send ? M 178
not with form . M 178
not weak ones . M 178
not too early ! M 178
not pay here . M 178
not our wars . M 178
not buy those . M 178
not all ugly . M 178
now old town . M 176
now long over . M 176
now bring back . M 176
not this hard ? M 176
not this clear ? M 176
not our fears . M 176
not one ship . M 176
not not work . M 176
not led away . M 176
not its eyes . M 176
not her ally . M 176
not for flying . M 176
not end there ? M 176
not all theory . M 176
now has nothing . M 174
now get busy ! M 174
now for ever ! M 174
not you pull ? M 174
not you need ? M 174
not too blue . M 174
not this side . M 174
not then tell . M 174
not read good . M 174
not off base . M 174
not now find . M 174
not let into . M 174
not her past . M 174
not fly true . M 174
not doing wrong ? M 174
not any hair . M 174
not and nothing . M 174
now that hurt . M 172
now had left . M 172
now get well . M 172
not she done ? M 172
not real life ! M 172
not our sons . M 172
not our fate ? M 172
not one mind . M 172
not one drop ! M 172
not mean boring . M 172
not lay hold . M 172
not his pain . M 172
not her gift . M 172
not her faith . M 172
not had poets . M 172
not get laid ? M 172
not get cool . M 172
not bring mine . M 172
not being well ? M 172
not any sign . M 172
nor his last . M 172
nor for life . M 172
now lie ahead . M 170
not this faith . M 170
not they used ? M 170
not that soft . M 170
not that sick ! M 170
not that life . M 170
not say well . M 170
not let live . M 170
not his body ? M 170
not get cold ? M 170
not for cost . M 170
not doing great . M 170
not ask much ! M 170
not any body . M 170
nor eye seen . M 170
now his name . M 168
not you mine ? M 168
not too well ! M 168
not this word . M 168
not then died . M 168
not that vain . M 168
not that huge . M 168
not six days . M 168
not she back ? M 168
not not want . M 168
not its rate . M 168
not its lord . M 168
not ill used . M 168
not his plan ? M 168
not his fears . M 168
not her self . M 168
not got more . M 168
not get home ! M 168
not get cast . M 168
not fear pain . M 168
not being made ? M 168
not all five . M 168
nor any food . M 168
now you weep . M 166
now was food . M 166
now for love . M 166
not too well ? M 166
not they ugly ? M 166
not real pain . M 166
not our heart . M 166
not now seen . M 166
not long here . M 166
not his ship . M 166
not for good ! M 166
not dead wood . M 166
not being here ! M 166
not bad there . M 166
not any luck . M 166
not any boys . M 166
now are used . M 164
not yet swim . M 164
not she fine ! M 164
not say stop . M 164
not read over . M 164
not our hope . M 164
not its loss . M 164
not had kids . M 164
not for five . M 164
not die poor . M 164
not any note . M 164
not all ways . M 164
now was pray . M 162
now has four . M 162
not with rage . M 162
not too daring ! M 162
not that high ? M 162
not that body . M 162
not out here ? M 162
not meat here . M 162
not lie open . M 162
not got nothing ! M 162
not got faith . M 162
not get tied . M 162
not fly over . M 162
not fear hell . M 162
not cut hair . M 162
not big time . M 162
not all wrong ? M 162
now too slow . M 160
now our case . M 160
now has aids . M 160
now had lost . M 160
now far away ! M 160
now all past . M 160
not yet zero . M 160
not real data . M 160
not his coat . M 160
not end wars . M 160
nor too open . M 160
nor any pain . M 160
now she will . M 158
now can know . M 158
now and think . M 158
not you eyes ? M 158
not this play . M 158
not that word ! M 158
not she kind ? M 158
not set free ? M 158
not his part . M 158
not her tears . M 158
not her pity . M 158
not her ideal . M 158
not got cold . M 158
not get love . M 158
not being born ? M 158
not beat hell ! M 158
nor too dull . M 158
nor ran away . M 158
now put away . M 156
now far gone . M 156
not you leave ! M 156
not that even . M 156
not read well ? M 156
not his ends . M 156
not his city . M 156
not get wrong . M 156
not get ahead ? M 156
not both live . M 156
not being just . M 156
not ask mine . M 156
not all stay . M 156
nor they ours . M 156
nor his sons . M 156
nor his health . M 156
now doing time . M 154
now and look . M 154
not you take ? M 154
not you ours . M 154
not they great ! M 154
not that boring . M 154
not run full . M 154
not mean those . M 154
not mean rain . M 154
not his hour . M 154
not head home . M 154
not got hurt . M 154
not for poets . M 154
not for nothing ? M 154
not for healing . M 154
not any door . M 154
nor too full . M 154
now this girl . M 152
now had meaning . M 152
now are there . M 152
not this gift . M 152
not that wise ? M 152
not red ones . M 152
not off duty . M 152
not mean life . M 152
not mean cure . M 152
not lay bare . M 152
not hang back ! M 152
not got sick . M 152
not for mark . M 152
not buy back . M 152
not both even . M 152
not beat down . M 152
not bear life . M 152
not any left ! M 152
not all well ? M 152
not all great . M 152
now with love . M 150
now read zero . M 150
not you teach ? M 150
not you nice . M 150
not you nice ! M 150
not you hunt ? M 150
not yet full ? M 150
not with meaning . M 150
not this kind ? M 150
not then over . M 150
not then free ? M 150
not that full . M 150
not sad ones . M 150
not one step ! M 150
not off hand . M 150
not near done . M 150
not its hero . M 150
not his means . M 150
not his date . M 150
not her mate . M 150
not get wind . M 150
not get more ? M 150
not for union . M 150
not eating food . M 150
not dry clean . M 150
not but like . M 150
not bear young . M 150
not all gray . M 150
nor how soon . M 150
nor any time . M 150
now our life . M 148
now has gone . M 148
now for more . M 148
not you quit ! M 148
not you give ? M 148
not yet leave . M 148
not this room . M 148
not then lost . M 148
not that well ? M 148
not that hurt . M 148
not mean much ! M 148
not low cost . M 148
not its fate . M 148
not got over ? M 148
not got mine . M 148
not get rich ? M 148
not get blue . M 148
not for giving . M 148
not for anger . M 148
not buy time ? M 148
not bring pain . M 148
not any such . M 148
not any face . M 148
now they rest . M 146
not you rise ? M 146
not you part . M 146
not you fail . M 146
not with health . M 146
not two feet . M 146
not too vast . M 146
not this other . M 146
not she know ! M 146
not she great ! M 146
not set hard . M 146
not see truth . M 146
not see love . M 146
not our ship . M 146
not one unit . M 146
not one clue . M 146
not now open . M 146
not now held . M 146
not long linger . M 146
not its food . M 146
not his talk . M 146
not her call . M 146
not her back . M 146
not hang there . M 146
not get dull . M 146
not eating more . M 146
not dying down . M 146
not cut mine . M 146
not but help . M 146
not being mine . M 146
nor too bold . M 146
nor her body . M 146
now his last . M 144
now can have . M 144
now and spring . M 144
not you weep ? M 144
not you here ! M 144
not yet back ? M 144
not thus high . M 144
not they done ? M 144
not they been ? M 144
not that boring ? M 144
not six feet . M 144
not let burn . M 144
not his lady . M 144
not his feet ? M 144
not her word . M 144
not her type ? M 144
not god know ? M 144
not get wild . M 144
not get into ? M 144
not eating here . M 144
not die there ? M 144
not act angry . M 144
now say much . M 142
now off duty . M 142
now can have ? M 142
not yet time ? M 142
not two gods ? M 142
not too bleak . M 142
not this hell ? M 142
not they good ! M 142
not put upon . M 142
not our help . M 142
not mean loss . M 142
not its wealth . M 142
not how soon ! M 142
not his luck . M 142
not for peace ? M 142
not for meals . M 142
not far along . M 142
not but lose . M 142
not all over ? M 142
not all leave . M 142
not all boys . M 142
now that what ? M 140
now six years . M 140
now not clear . M 140
now got ready . M 140
now for what ? M 140
now all mine . M 140
not yet rule . M 140
not too pure . M 140
not they look ? M 140
not then mind ? M 140
not that true ! M 140
not that girl ! M 140
not that gift . M 140
not ten days . M 140
not she what ? M 140
not set back . M 140
not see hell . M 140
not say most ? M 140
not run ahead ! M 140
not mean fast . M 140
not his face ! M 140
not her name ! M 140
not hear mine . M 140
not god great ? M 140
not day care . M 140
not all these . M 140
nor his faith . M 140
nor her heart . M 140
nor for food . M 140
now was also . M 138
now our epic . M 138
now may seem . M 138
now for talk . M 138
now for ages . M 138
now due west . M 138
not you warm ? M 138
not with work . M 138
not war hell ? M 138
not too mild . M 138
not new work . M 138
not its will . M 138
not his lust . M 138
not his coming . M 138
not his bent . M 138
not eating fish . M 138
not bear cold . M 138
not ask none . M 138
now you look . M 136
now this time . M 136
now has done . M 136
not two ideas . M 136
not this town . M 136
not this spring . M 136
not one kiss ? M 136
not now fail . M 136
not lay well . M 136
not its worth . M 136
not its time . M 136
not his type ! M 136
not had mine . M 136
not got time ? M 136
not end here ? M 136
not but rise . M 136
not bear sons . M 136
nor bad there . M 136
non for peace . M 135
now was left . M 134
now lie idle . M 134
not this meaning . M 134
not this cold . M 134
not they free ? M 134
not that evil . M 134
not she said ? M 134
not own land ? M 134
not one case . M 134
not his mark . M 134
not get life . M 134
not get breath . M 134
not get ahead ! M 134
not being evil . M 134
not bad duty . M 134
not all past . M 134
not all days . M 134
nor lying down . M 134
nor her eyes . M 134
now too soon ? M 132
now ten days . M 132
now mean nothing . M 132
now his heart . M 132
not you save ? M 132
not you live ? M 132
not you dream ? M 132
not yet poor . M 132
not yet life . M 132
not yet angry . M 132
not this well . M 132
not this week ? M 132
not one less ! M 132
not dead here . M 132
not dead ends . M 132
not cut clean . M 132
not any dogs . M 132
not all come ? M 132
nor for work . M 132
nor any city . M 132
now with cold . M 130
now who else ? M 130
now was wrong . M 130
now see nothing . M 130
now has fled . M 130
now and work . M 130
now and fast . M 130
not you only . M 130
not too cold ! M 130
not that dull . M 130
not real tears . M 130
not our land ? M 130
not one fell . M 130
not mean lies . M 130
not lead well . M 130
not his town . M 130
not her fears . M 130
not for those . M 130
not for duty . M 130
not fly free . M 130
not but tell . M 130
not but once . M 130
not but hope . M 130
not bring luck . M 130
not act wrong . M 130
nor not true . M 130
nor his face . M 130
nor for peace . M 130
nor for love . M 130
nor any hope . M 130
now was past . M 128
now too many . M 128
now long time . M 128
now her name . M 128
not you react ? M 128
not you look . M 128
not yet quit . M 128
not then speak . M 128
not real hard . M 128
not out much . M 128
not mean much ? M 128
not its love . M 128
not his reading . M 128
not his beach . M 128
not her like . M 128
not her book . M 128
not hang heavy . M 128
not hang fire . M 128
not for theory . M 128
not bring along . M 128
not any eyes . M 128
now was good . M 126
now pay less . M 126
now his goal . M 126
now are made ? M 126
not you turn ? M 126
not yet truth . M 126
not yet peace . M 126
not this term . M 126
not this good ! M 126
not this fall . M 126
not she show ? M 126
not real boys . M 126
not put here . M 126
not one other . M 126
not nor rage . M 126
not mean truth . M 126
not its ideas . M 126
not its face . M 126
not its ending . M 126
not his ward . M 126
not get free ? M 126
not fly south . M 126
not being laid . M 126
not any fool . M 126
not all mine ? M 126
not all fake . M 126
nor how poor . M 126
nor her last . M 126
now not many . M 124
now hung back . M 124
now how much . M 124
not with less . M 124
not too busy ! M 124
not this mark . M 124
not they gone ? M 124
not that many ! M 124
not say ever . M 124
not its back . M 124
not his work ? M 124
not his wits . M 124
not hang well . M 124
not got some . M 124
not get cold ! M 124
not few else . M 124
not doing time . M 124
not buy fish . M 124
not beat time . M 124
not any life . M 124
not all years . M 124
not all even . M 124
now dying fire . M 122
now are past . M 122
not you steal ? M 122
not yet find ? M 122
not yet died ? M 122
not with eyes . M 122
not too fair . M 122
not see home . M 122
not our road . M 122
not our boys . M 122
not one lost . M 122
not lie here ! M 122
not its need . M 122
not doing here . M 122
not bring here . M 122
not being true ? M 122
not any mail . M 122
not all sick . M 122
not all love . M 122
not all idle . M 122
nor has been . M 122
nor going back . M 122
nor any other ! M 122
now was ending . M 120
now are done . M 120
not yet coming . M 120
not this fate . M 120
not then learn . M 120
not then felt . M 120
not that love . M 120
not that dire . M 120
not sit idly . M 120
not she quit ? M 120
not she learn ? M 120
not she also . M 120
not run good . M 120
not now live . M 120
not now dealing . M 120
not near ready . M 120
not near dark . M 120
not mean work . M 120
not his rule . M 120
not hear lies . M 120
not but dread . M 120
not all wars . M 120
nor its name . M 120
now then ever . M 118
now sit there . M 118
now due debt . M 118
now dead ahead . M 118
now and more . M 118
now all know . M 118
now act upon . M 118
not you flee ? M 118
not use arms . M 118
not too warm ? M 118
not too true ? M 118
not this trim ? M 118
not they home ? M 118
not they back ? M 118
not run time . M 118
not our hero . M 118
not mean food . M 118
not its uses . M 118
not her part . M 118
not her left . M 118
not her dream ! M 118
not got nothing ? M 118
not due south . M 118
not cry baby . M 118
not but make . M 118
not but have . M 118
not any rest . M 118
not all nice . M 118
not aim well . M 118
nor new ones . M 118
nor all evil . M 118
now you tell . M 116
now had gone . M 116
now got into . M 116
now both gone . M 116
now being over . M 116
now are clear . M 116
not you have . M 116
not with rain . M 116
not this much ? M 116
not they ours . M 116
not they also ? M 116
not that room . M 116
not that high ! M 116
not set forth ? M 116
not see faith . M 116
not run hard . M 116
not now heard . M 116
not mean harm ! M 116
not its work . M 116
not its mind . M 116
not his hope . M 116
not his fall . M 116
not his care . M 116
not got none ? M 116
not dry hard . M 116
not but nine ! M 116
not being torn . M 116
not ask less . M 116
not any time ! M 116
not all tears . M 116
not all such . M 116
not all hard . M 116
not all four ? M 116
nor let pray ? M 116
now who will . M 114
now than here . M 114
now how much ? M 114
now got back . M 114
now are gone ! M 114
not two heads . M 114
not too rash . M 114
not this rich ? M 114
not this mind . M 114
not this life ? M 114
not this home ? M 114
not they weep ? M 114
not they fall ? M 114
not she gone ? M 114
not see when . M 114
not run late . M 114
not one body ? M 114
not lie back . M 114
not his host . M 114
not his hire . M 114
not his duty ? M 114
not her pain . M 114
not her kids . M 114
not hear soon . M 114
not get food ? M 114
not for gods . M 114
not for debt . M 114
not fear much . M 114
not being free ? M 114
not being blue . M 114
now was true . M 112
now had fled . M 112
now had five . M 112
now are these ? M 112
now are cold . M 112
now and lord . M 112
now all gone ! M 112
not you miss ? M 112
not you grow ? M 112
not two only . M 112
not two more . M 112
not this book ! M 112
not they live ? M 112
not she just . M 112
not new life . M 112
not men only . M 112
not mean ruin . M 112
not mean pain . M 112
not lay back . M 112
not ill told . M 112
not his tomb . M 112
not his maid . M 112
not get heavy . M 112
not for life ! M 112
not die here ? M 112
not act here . M 112
nor yet living . M 112
now you stop ! M 110
now you have ! M 110
now was cold . M 110
now too wide . M 110
now too busy . M 110
now are made . M 110
now all well . M 110
not you fish ? M 110
not yet heavy . M 110
not yet dare . M 110
not win free . M 110
not too fast ? M 110
not they land ? M 110
not that evil ? M 110
not that cool ! M 110
not sad tears . M 110
not real love ? M 110
not one hand . M 110
not leap away . M 110
not his life ? M 110
not die back . M 110
not add acid . M 110
nor with time . M 110
nor his wealth . M 110
nor his army . M 110
nor any love . M 110
now too cold . M 108
now got here . M 108
not you weep ! M 108
not yet full ! M 108
not yet fact . M 108
not yet cold ! M 108
not they fine ! M 108
not then done . M 108
not that ship . M 108
not that ideal . M 108
not that daring . M 108
not see back . M 108
not say true ? M 108
not pay there . M 108
not our theory . M 108
not our side . M 108
not our room . M 108
not now dream . M 108
not her heart ! M 108
not get help ! M 108
not fear work . M 108
not doing well ! M 108
not but live . M 108
not being hurt ? M 108
not being boring . M 108
not bear much ! M 108
not ask nothing . M 108
not any gaps . M 108
not any data . M 108
not all pure . M 108
nor his idol . M 108
nor bear arms . M 108
nor any tree . M 108
now with hope . M 106
now with fury . M 106
now was pity . M 106
now they come ! M 106
now ten past . M 106
now see more . M 106
now lying here . M 106
now his game . M 106
now can give . M 106
now but soon . M 106
now any time . M 106
now and next . M 106
now and help . M 106
not yet there ! M 106
not try some ? M 106
not thus used . M 106
not this truth ? M 106
not they cold ? M 106
not then meet . M 106
not say wrong . M 106
not run along . M 106
not lie much . M 106
not let show . M 106
not its theory . M 106
not how fast . M 106
not his making . M 106
not had help . M 106
not going along ? M 106
not god love ? M 106
not for theft . M 106
not far past . M 106
not err much . M 106
not dry land . M 106
not doing nothing ? M 106
not cry there . M 106
not but pray . M 106
not bring rest . M 106
not bring harm . M 106
not being pure . M 106
not being high . M 106
not any show . M 106
not any land . M 106
not any hero . M 106
not any fears . M 106
not all mine ! M 106
not all dogs . M 106
nor her love . M 106
nor any name . M 106
now was calm . M 104
now out here . M 104
now our past . M 104
now not seen . M 104
now let fall . M 104
now his heir . M 104
now her ally . M 104
now has five . M 104
now has died . M 104
now being free . M 104
now are wrong . M 104
not you said . M 104
not you rest . M 104
not you fire . M 104
not yet grey . M 104
not yet aged . M 104
not use dogs . M 104
not they what ? M 104
not then hold . M 104
not set type . M 104
not see mark . M 104
not say when ? M 104
not sat upon . M 104
not one city . M 104
not its date . M 104
not how great . M 104
not his home ? M 104
not his hero . M 104
not got what ? M 104
not got aids . M 104
not get good . M 104
not doing good ? M 104
not cut down ? M 104
not but give . M 104
not any part . M 104
not all week . M 104
nor that other . M 104
nor its goal . M 104
now with life . M 102
now was ready . M 102
now was hope . M 102
now too true . M 102
now too clear . M 102
now may have . M 102
now doing here . M 102
now can tell ? M 102
now are over . M 102
not you miss ! M 102
not you look ! M 102
not yet past ? M 102
not yet form . M 102
not this also ? M 102
not she swim ? M 102
not she cold ? M 102
not see will . M 102
not see much ! M 102
not pay more ? M 102
not our truth . M 102
not not think . M 102
not its test . M 102
not its aims . M 102
not how well . M 102
not going slow . M 102
not for mice . M 102
not but pity . M 102
not but join . M 102
not bring wealth . M 102
not all poets . M 102
not all liars . M 102
not all kids . M 102
not all gone ! M 102
now with lock . M 100
now too heavy . M 100
now they came . M 100
now not ever . M 100
now lie down ! M 100
now had four . M 100
not you pass ? M 100
not this truth . M 100
not this much ! M 100
not this best ? M 100
not they sell ? M 100
not they meet ? M 100
not that cold ? M 100
not see tears . M 100
not say good . M 100
not run clear . M 100
not our third . M 100
not nor weep . M 100
not mean ones . M 100
not its lack . M 100
not his pity . M 100
not god also . M 100
not for these ? M 100
not for moving . M 100
not for evil ? M 100
not being done ! M 100
not bear reading . M 100
not any wood . M 100
not all dream . M 100
not act there . M 100
nor with love . M 100
nor for whom . M 100
nor for good . M 100
now with grey . M 98
now its home . M 98
now has lost . M 98
now for ever ? M 98
now being worn . M 98
now and fall . M 98
not you kill ? M 98
not yet free ! M 98
not yet eased . M 98
not with wealth . M 98
not with those . M 98
not with land . M 98
not with dogs . M 98
not use well . M 98
not thus made . M 98
not this said ? M 98
not this form . M 98
not they nice ! M 98
not they fail . M 98
not that nothing ? M 98
not that here . M 98
not that cold ! M 98
not our good . M 98
not one care . M 98
not now fall . M 98
not not care . M 98
not mean dull . M 98
not man also ? M 98
not long range . M 98
not long keep . M 98
not its text . M 98
not its mate ! M 98
not her wealth . M 98
not got kids . M 98
not get moving ! M 98
not get high ? M 98
not for sons . M 98
not for size . M 98
not for food ? M 98
not doing more ! M 98
not dog food . M 98
not cut thread . M 98
not being clear ? M 98
not ask what ? M 98
not any rule . M 98
not any fire ! M 98
not all fact . M 98
nor too mild . M 98
nor for wealth . M 98
now was back . M 96
now she wept . M 96
now not here ! M 96
now for good ? M 96
now are many . M 96
now and safe . M 96
now and rest ? M 96
not you mate ? M 96
not yet kept . M 96
not too sure ! M 96
not too done . M 96
not they keep ? M 96
not then there . M 96
not that work . M 96
not that week . M 96
not that poor ! M 96
not see wind . M 96
not run over ? M 96
not our health . M 96
not one true . M 96
not one name . M 96
not mean wealth . M 96
not mean none . M 96
not long life . M 96
not its ways . M 96
not how heavy . M 96
not got along . M 96
not for years ? M 96
not for pity ! M 96
not for free ! M 96
not for form . M 96
not fit ours . M 96
not dying young . M 96
not cry loud . M 96
not but move . M 96
not being cast . M 96
not any theory . M 96
not any play . M 96
not all toil . M 96
nor our life . M 96
nor his need . M 96
nor his means . M 96
nor her mind . M 96
nor for land . M 96
now with rain . M 94
now with pity . M 94
now two more . M 94
now had time . M 94
now get away ! M 94
now for tears . M 94
now for ours . M 94
now dead past . M 94
now and there . M 94
not you like . M 94
not you land ? M 94
not you fair ? M 94
not yet rest . M 94
not yet left ! M 94
not use food . M 94
not too hurt . M 94
not thus range ! M 94
not they grow ? M 94
not she seen ? M 94
not real deep . M 94
not read from . M 94
not now grow . M 94
not mean rest . M 94
not his step . M 94
not his hearing . M 94
not his gods . M 94
not her lore . M 94
not hear more ? M 94
not hear mass . M 94
not for hope . M 94
not for buying . M 94
not for beast . M 94
not fear fire . M 94
not end well ! M 94
not die fast . M 94
not buy more ? M 94
not any hole . M 94
not any faith . M 94
not all heart . M 94
nor his time . M 94
nor his home . M 94
nor hear well . M 94
now was rich . M 92
now are good . M 92
now and speak . M 92
now all here . M 92
not you work . M 92
not yet rise . M 92
not yet faith . M 92
not yet died ! M 92
not yet been ! M 92
not with young . M 92
not with three . M 92
not use maps . M 92
not too loud ? M 92
not this tree . M 92
not they moan ? M 92
not they heavy ? M 92
not they have . M 92
not then feel . M 92
not that size . M 92
not that hell ! M 92
not she want ? M 92
not ran away . M 92
not now think . M 92
not now ready . M 92
not now know ? M 92
not mean time . M 92
not mean these . M 92
not mean mine . M 92
not man only . M 92
not let drop . M 92
not its tail . M 92
not its form ? M 92
not her arms . M 92
not hear what ? M 92
not has nothing . M 92
not get into ! M 92
not for once . M 92
not for aids . M 92
not doing duty . M 92
not buy mine . M 92
not but heed . M 92
not but deny . M 92
not bring peace ? M 92
not bring calm . M 92
not big game . M 92
not being nothing . M 92
not being hard . M 92
not bear losing . M 92
not any will . M 92
not any truth . M 92
nor any land . M 92
now with care . M 90
now was love . M 90
now was home . M 90
now this baby . M 90
now they live . M 90
now its name . M 90
now hear youth . M 90
now get ready ! M 90
now get back ! M 90
now for evil . M 90
now but rest . M 90
now all wrong . M 90
now all over ! M 90
not yet trod . M 90
not with reading . M 90
not this love . M 90
not then full . M 90
not that face . M 90
not one ready . M 90
not his tears . M 90
not his note . M 90
not his hate . M 90
not his hand ! M 90
not got rich . M 90
not got peace . M 90
not for such ? M 90
not dead wrong . M 90
not buy many . M 90
not bring health . M 90
not bear tears . M 90
not are lost . M 90
not any threat . M 90
not all seen . M 90
not act upon ? M 90
nor too cold ? M 90
nor lay down . M 90
nor its uses . M 90
nor his best . M 90
now with work . M 88
now was living . M 88
now had been . M 88
now dead also . M 88
now are poor . M 88
not you sore ? M 88
not you lose . M 88
not yet pain . M 88
not yet ours ? M 88
not with kids . M 88
not with gods . M 88
not use these ! M 88
not too loud ! M 88
not too great ! M 88
not thus told . M 88
not this fine . M 88
not they want ? M 88
not they mine ? M 88
not that fair . M 88
not sit home . M 88
not singing well . M 88
not pay back ? M 88
not our tears . M 88
not our rule . M 88
not one third ? M 88
not now sure . M 88
not now linger . M 88
not not true . M 88
not mean living . M 88
not mean free . M 88
not mean evil . M 88
not leap ahead . M 88
not his youth . M 88
not his text . M 88
not his life ! M 88
not his baby ? M 88
not her birth . M 88
not got well . M 88
not going west . M 88
not going great . M 88
not get none ! M 88
not get much ! M 88
not for seed . M 88
not fit mine . M 88
not dying here . M 88
not being good ? M 88
not any keys . M 88
not all miss . M 88
nor his book . M 88
nor act upon . M 88
now too fast . M 86
now too dark . M 86
now they seem . M 86
now set free ! M 86
now own land . M 86
now may turn . M 86
now let drop . M 86
now going fast . M 86
now for rest . M 86
not you will ? M 86
not you kind ? M 86
not you food ? M 86
not yet used ? M 86
not yet free ? M 86
not yet busy . M 86
not with these ? M 86
not use zero . M 86
not use three . M 86
not use ours . M 86
not use bait . M 86
not try much . M 86
not she been ? M 86
not real nice . M 86
not out loud ! M 86
not our making . M 86
not our jobs . M 86
not let down ! M 86
not its seed . M 86
not its mate . M 86
not its duty . M 86
not his rage . M 86
not his only . M 86
not her heart ? M 86
not god there ? M 86
not for trial . M 86
not fly down . M 86
not but cease . M 86
not all left . M 86
nor yet truth ! M 86
nor new ideas . M 86
nor its date . M 86
nor his will . M 86
nor his land . M 86
nor her face . M 86
nor can give . M 86
nor any other ? M 86
now you weep ! M 84
now with aids . M 84
now sat there . M 84
now not here . M 84
now but pity ? M 84
now are young . M 84
now all live . M 84
not yet made ! M 84
not won much . M 84
not with five . M 84
not too ready . M 84
not too deep ! M 84
not too calm . M 84
not they only . M 84
not then think . M 84
not then fall . M 84
not that faith . M 84
not sit there ? M 84
not she rich ? M 84
not she nice ! M 84
not say when ! M 84
not real soon . M 84
not one girl . M 84
not now work . M 84
not now feel . M 84
not not love . M 84
not nor hears . M 84
not its ruin . M 84
not his side . M 84
not got eyes . M 84
not going into . M 84
not for rain . M 84
not for luck . M 84
not for arms . M 84
not being rash . M 84
not any leads . M 84
not any hell . M 84
not any arms . M 84
not and live . M 84
not and left . M 84
not all know ? M 84
not aim high ? M 84
nor how fast . M 84
nor any snow . M 84
nor any pity . M 84
now you love . M 82
now was safe . M 82
now was here . M 82
now was coming . M 82
now set upon . M 82
now lay idle . M 82
now had jobs . M 82
now being cast . M 82
now are mine ? M 82
now all ready . M 82
not you reach ? M 82
not you having ? M 82
not yet soft . M 82
not yet heard ! M 82
not with lies . M 82
not win once . M 82
not too glad . M 82
not that view . M 82
not that eager . M 82
not she also ? M 82
not see nothing ? M 82
not say word . M 82
not say truth . M 82
not say home . M 82
not real here . M 82
not read nothing . M 82
not our feet . M 82
not our city . M 82
not mix here . M 82
not his love ? M 82
not his help . M 82
not her view . M 82
not her land . M 82
not get lazy ! M 82
not for food ! M 82
not die from . M 82
not cry here ! M 82
not buy cake . M 82
not being over . M 82
not being held ? M 82
not bear away . M 82
not any tree . M 82
not any peace . M 82
not any help ? M 82
not all anger . M 82
nor its wealth . M 82
nor his girl . M 82
nor any need . M 82
now won over . M 80
now with peace . M 80
now with none . M 80
now they fade . M 80
now run away ! M 80
now pay more . M 80
now not there . M 80
now hung open . M 80
now for free . M 80
now and live . M 80
not yet even . M 80
not try there ? M 80
not that ugly ? M 80
not that ugly ! M 80
not set there . M 80
not say only . M 80
not read many . M 80
not our ways ? M 80
not our need . M 80
not one line ! M 80
not now stop . M 80
not men also ? M 80
not mean here ? M 80
not lying here . M 80
not its edge . M 80
not his worth . M 80
not him only . M 80
not get fire . M 80
not die trying . M 80
not die case . M 80
not any hope ? M 80
not any angel . M 80
not all true ! M 80
nor our wish . M 80
nor lot here . M 80
nor its depth . M 80
nor his hope . M 80
nor are mine . M 80
nor any good . M 80
