nothing i do is M 3654
note a at the M 2607
nothing i do or M 966
note a in the M 742
nothing i am so M 520
note d at the M 448
note a on the M 419
note a to the M 391
note d in the M 374
note i at the M 333
note a of the M 271
note i to the M 154
note a thing or M 142
nothing i or my M 114
nothing i do in M 112
nothing i do to M 106
note a is the M 99
nothing i or the M 86
note d of the M 65
note d on the M 56
note i of the M 44
node i in the D 2250
node i to the D 1050
node a in the D 952
node i is the D 928
node i of the D 876
node a is the D 872
node a to the D 443
node s to the D 350
node a of the D 275
node t in the D 254
noon i go to D 242
noon i to the D 214
node i is in D 210
node i on the D 207
node s in the D 200
node i is an D 175
node i at the D 164
node i as the D 151
node i to be D 141
nothing a sea of D 126
node a is at D 119
node d in the D 112
node s is the D 103
node t of the D 99
north a sea of D 94
node s of the D 77
node d is the D 67
node a on the D 59
node i is on D 52
node a to be D 51
node a as the D 51
node t is the D 46
node a at the D 45
