nothing if i do M 1276
nothing if i am M 746
nothing as i am M 598
nothing of a thing M 402
nothing of a king M 402
norm of a is M 396
note as i am M 325
nothing to a in M 264
note of a thing M 232
note in a the M 220
note if i am M 196
nothing as i do M 188
nothing am i the M 166
nothing is a thing M 156
noun is a thing M 142
nothing to a thing M 110
noting as i do M 106
nothing in a thing M 100
note to a in M 92
note the s in M 92
note is a thing M 90
nothing of a tea M 88
nothing at a to M 88
none am i so M 86
note as i go M 85
north if i do M 82
north of a is M 49
node of t is D 359
node in a ring D 221
node in t is D 217
note of a sea D 199
nose of a tea D 166
nothing of a sea D 159
note in a ms D 145
none as a sea D 134
node in s is D 132
node on a ring D 114
nose in a ring D 100
nose in a tea D 92
node in s to D 92
noon if i do D 90
node in a is D 86
nosy as i am D 45
north by a sea D 44
