nobody but me . M 5074
normal for me . M 2538
nobody saw me . M 2422
nobody did it . M 1852
nobody saw it . M 1716
nobody does it . M 1104
normal for us . M 1038
nobody saw us . M 924
notice one thing . M 730
nobody but me ! M 726
nobody but us . M 706
notice that the . M 614
nobody had to . M 570
nobody with me . M 520
nobody got it . M 510
notice for it . M 489
nobody read it . M 470
nobody can be . M 456
nobody has it . M 412
nobody has to . M 374
nobody can do . M 370
nobody near me . M 302
nobody got up . M 288
nobody had it . M 284
nobles and king . M 282
nobody with me ! M 278
nobody see it . M 278
nobody with it . M 230
nobody see me . M 230
nobody was by . M 208
nobody for me . M 194
normal for it . M 186
notice one thing ? M 182
nobody hear me ? M 176
nobody near it . M 152
normal with us . M 148
notice but me . M 145
nobody did so . M 144
notice for me . M 142
noises with it . M 141
nobody near us . M 136
notice any thing . M 134
nobody doing it . M 130
normal with me . M 128
notice was up . M 124
nobody got on . M 124
nobody was up . M 122
nobody using it . M 122
nobody but me ? M 118
nobody can go . M 116
nobody does so . M 114
normal men do . M 106
notice him go . M 104
nobody ate it . M 102
normal may be . M 99
nobody saw me ! M 98
nobody near me ! M 98
normal for me ? M 94
noises going on . M 94
nobody see it ? M 90
nobody hear me . M 90
nobody can eat . M 88
nobody goes to . M 80
nobody for it . M 80
nobody can sing . M 80
