pet for a walk M 352
pet has a high M 179
pet and a good M 148
pen and a book D 787
pen with a fine D 737
pen with a sigh D 724
peg and i were D 646
pen for a living D 622
peas with a fork D 590
per head a week D 543
peas are a good D 462
peak with a single D 452
pen with a very D 427
peak with a width D 402
pen and a pair D 360
pen with a hand D 329
pen with a gold D 327
pen for a time D 316
pen and a note D 288
pen with a heavy D 284
peak and a high D 268
pen that i have D 261
pen and a copy D 258
peak has a width D 252
pen and i were D 251
pen and i have D 250
peas are a cool D 249
per head a month D 246
pen was a very D 246
peg and i have D 244
peat with a high D 241
peak and a very D 240
peak with a high D 230
peat has a high D 229
per ton a mile D 222
pen for a week D 220
pen with a view D 214
peak for a single D 209
peak with a mass D 204
pen and a slip D 192
peak and a more D 188
peak with a very D 185
pear and a peach D 183
pen and a clean D 182
pen and i will D 180
pen for a month D 172
per man a week D 171
peg and i will D 166
peak and a single D 163
pen and a very D 160
peak with a half D 159
peak with a full D 159
pen and a card D 155
per man a month D 150
peg and i went D 150
pen with a width D 148
pen and a good D 143
pen and a sheaf D 138
pen with a wire D 134
pen with a thick D 134
pen for a good D 134
peas are a great D 134
pen and i back D 131
pen and a pile D 130
per ton a month D 114
pen was a gift D 114
pen and a roll D 114
pen and a gold D 114
pen and a tiny D 112
pen and i took D 109
pen and a fine D 108
peas off a wall D 108
pen with a tiny D 106
pen with a single D 106
pen with a good D 106
pen was a great D 106
peas are a very D 105
pen and a ready D 104
peg and i took D 104
peak and a much D 104
peg with a band D 101
pen and a single D 100
peak with a view D 100
peak and a slow D 99
pen with a wide D 98
pen with a most D 98
pew with a high D 97
pen and a blue D 95
peg and a hole D 94
pen with a high D 92
pen had a very D 90
pen and a keen D 90
peak with a much D 90
pew with a face D 88
pen with a roof D 87
pen was a ready D 86
peak and a flat D 86
pear off a tree D 85
peak has a very D 85
pen with a firm D 84
pen and a more D 84
peas and a great D 84
peak was a great D 82
peat has a very D 54
pet had a twin D 51
pen and a hand D 42
pen that i hold D 40
peak and a tail D 40
