period to another . M 30742
period of training . M 21038
period of mourning . M 16090
period of crisis . M 15758
people of colour . M 13313
people to follow . M 8226
people to another . M 6918
people it serves . M 6446
people in charge . M 6248
period of notice . M 5574
people in groups . M 5032
people or events . M 5022
period of stress . M 4880
period of reaction . M 4820
people to attend . M 4766
people to accept . M 4738
period of record . M 4644
people or groups . M 4610
people in crisis . M 4582
people in prison . M 4518
people to decide . M 4208
people by another . M 4040
period or periods . M 3828
period of reform . M 3642
people to listen . M 3626
period it covers . M 3052
people in common . M 2834
people to prayer . M 2822
people to church . M 2758
period is reached . M 2572
people at random . M 2530
people to repent . M 2498
people of plenty . M 2488
people in cities . M 2472
people to resist . M 2412
people at school . M 2398
people as equals . M 2294
people to suffer . M 2272
people go through . M 2166
people to safety . M 2014
people of another . M 2014
people to handle . M 1978
people he served . M 1968
people he serves . M 1916
people on relief . M 1888
people in school . M 1834
period is needed . M 1791
people as before . M 1680
people in church . M 1666
people in person . M 1642
period or another . M 1641
people in battle . M 1610
people to govern . M 1608
people to travel . M 1598
period in summer . M 1578
people in public . M 1554
people to escape . M 1540
people to prison . M 1526
people at church . M 1526
period or earlier . M 1500
period of creation . M 1498
people in another . M 1486
people in prayer . M 1458
period of credit . M 1420
people the better . M 1418
people to return . M 1374
period to follow . M 1315
people it served . M 1300
people of prayer . M 1282
period in winter . M 1219
period is passed . M 1182
people he passed . M 1162
period in prison . M 1134
period of strain . M 1102
people to expect . M 1066
period of planning . M 1048
period of building . M 1032
people to arrive . M 1024
period of travel . M 1022
people to retire . M 992
people to manage . M 990
period of sampling . M 980
people we become . M 980
people to behave . M 978
period in detail . M 960
period of relief . M 956
period of prayer . M 954
period is missed . M 954
people to suffer ? M 918
people to notice . M 912
people to choose . M 910
people to endure . M 892
people is needed . M 890
people in future . M 890
people to answer . M 866
people in chains . M 858
period of thought . M 852
period of fighting . M 844
people to perish . M 842
period of origin . M 840
people to pieces . M 838
people in mourning . M 826
period at school . M 806
people to myself . M 806
people or something . M 782
people is obvious . M 776
people by nature . M 776
period is longest . M 772
people as adults . M 768
people of talent . M 762
period of repair . M 752
period of grieving . M 738
people in return . M 730
people to cities . M 728
people in detail . M 724
people to submit . M 718
people so desire . M 712
people to afford . M 710
period is unclear . M 708
period of release . M 706
period of labour . M 698
people of course . M 696
people to forget . M 694
period of winter . M 682
people we admire . M 652
period as before . M 635
people to invite . M 634
people to depart . M 632
people he created . M 630
period of summer . M 616
period is crucial . M 616
people or peoples . M 612
people is another . M 596
period to another ? M 593
period of attack . M 590
people of genius . M 574
period of plenty . M 572
period is common . M 572
period is obvious . M 570
people at prayer . M 566
people to admire . M 562
people to battle . M 560
people he killed . M 556
people is crucial . M 554
people in crowds . M 550
people to remain . M 546
people or another . M 542
people of standing . M 538
period of disease . M 536
people as needed . M 536
period in school . M 518
period on record . M 516
people he wanted . M 508
period of misery . M 506
period of crisis ? M 504
period of combat . M 492
people to comply . M 490
people in misery . M 488
people as masses . M 482
period of standing . M 480
period of effort . M 476
period of arrest . M 472
period the better . M 468
people to borrow . M 460
period of training ? M 454
period of memory . M 448
period in humans . M 444
people in summer . M 442
people in prison ? M 442
period is chosen . M 429
people do something . M 426
people or adults . M 422
people to itself . M 418
people he helped . M 418
people to access . M 416
period of design . M 410
people to meetings . M 396
period of purity . M 388
people to nature . M 386
people we passed . M 378
people in winter . M 378
people he trusts . M 372
period of mourning ? M 368
period of debate . M 368
people to assist . M 368
people on another . M 368
people to reform . M 366
people in charge ? M 362
period of impact . M 356
period in autumn . M 350
people or nature . M 350
period or school . M 348
people to groups . M 348
people as models . M 346
people is unclear . M 342
period of losses . M 340
people is formed . M 340
period of return . M 338
period so remote . M 336
period it belongs . M 336
period of bleeding . M 332
period in another . M 330
people to school . M 330
people is greater . M 328
period or before . M 320
people the gospel . M 320
people in secret . M 320
period is normal . M 318
people to donate . M 316
people is unique . M 314
people do better . M 314
period is closed . M 312
people to obtain . M 312
people to enlist . M 310
people to pursue . M 308
people to adjust . M 308
people to rescue . M 306
period to expire . M 304
people to follow ? M 302
people to virtue . M 300
people of colour ? M 298
people is broken . M 298
people to commit . M 294
people to attack . M 292
period of report . M 290
people he needed . M 290
people at school ? M 290
people to murder . M 286
period to elapse . M 284
period of judges . M 282
people to ignore . M 282
people to attain . M 280
people of virtue . M 280
people or issues . M 278
people in planning . M 276
period of plants . M 274
people it serves ? M 274
people in safety . M 274
period of sorrow . M 272
people to occupy . M 272
period or something ? M 268
people to master . M 268
period of injury . M 266
period is greater . M 266
peril of drowning . M 266
people so deeply . M 266
people it reaches . M 266
people in unison . M 264
people in reality . M 264
people by myself . M 264
people by itself . M 264
people to listen ? M 262
people is common . M 262
people is simple . M 258
period of searching . M 256
people in training . M 256
period of rebirth . M 254
period of breeding . M 254
period as needed . M 254
people as strange . M 252
period of maturing . M 250
people he visits . M 250
people we needed . M 248
people of wisdom . M 248
period of safety . M 246
people so stupid ? M 246
people as absurd . M 246
period by itself . M 244
period is scarce . M 242
period is marked . M 242
people to reality . M 242
period on monday . M 240
period of crises . M 240
people on monday . M 240
people do anyway . M 240
people of nature . M 238
period of trauma . M 236
people to behave ? M 236
people to realize . M 234
people or something ? M 234
people as guests . M 234
people to resign . M 232
people or myself . M 232
people to emerge . M 230
people in nature . M 230
people as agents . M 230
people in meetings . M 228
people we wanted . M 222
people to desist . M 222
people in fiction . M 222
people be helped ? M 222
period of printing . M 220
peril to relate . M 220
period or something . M 218
period in future . M 216
people to arrest . M 216
people or groups ? M 216
people so called . M 214
period is absent . M 212
people to misery . M 212
people of spirit . M 212
people to wonder . M 210
people to absorb . M 210
people or causes . M 208
people in crises . M 208
period of anguish . M 206
people in combat . M 206
people is enough . M 204
period of counting . M 202
period is unique . M 200
people to attend ? M 200
people on trains . M 200
people do behave . M 200
period in itself . M 198
period he covers . M 196
people to rights . M 196
people of honour . M 196
people we served . M 194
people so decide . M 192
people at meetings . M 192
period of supply . M 190
people so choose . M 190
people be killed . M 190
period to mature . M 188
period if needed . M 188
people to become . M 188
people or events ? M 188
people is better . M 188
period of horror . M 186
period is changed . M 186
people on screen . M 186
period of recall . M 184
people on camera . M 184
people go abroad . M 182
period of demand . M 180
people in common ? M 180
period of changes . M 178
people in masses . M 178
people as actors . M 178
period of charge . M 176
period of excess . M 174
period is stated . M 174
people to devour . M 174
people or person . M 174
people is reached . M 174
people in school ? M 174
period in plants . M 172
people by gender . M 172
people to oppose . M 170
people or forces . M 170
people of something . M 170
people of cities . M 170
people is engaged . M 170
people in creation . M 170
period is useful . M 168
peril is obvious . M 168
people to assume . M 168
people go through ? M 168
people as myself . M 168
people as assets . M 168
people to notify . M 166
people of origin . M 166
people is doomed . M 166
people on record . M 164
people is changed . M 164
period of battle . M 162
people of breeding . M 162
people is absurd . M 162
people in spirit . M 162
people in church ? M 162
period is revealing . M 160
people so wished . M 160
people do something ? M 160
people of passion . M 158
people go online . M 158
period is likely . M 156
people is created . M 156
period of favour . M 154
period is slight . M 154
people to invite ! M 154
people it needed . M 154
period of starting . M 152
period of course . M 152
people to shreds . M 152
people he treated . M 152
period of strength . M 150
period of speech . M 150
period of choice . M 150
peril to itself . M 150
people to prison ? M 150
people or actions . M 150
period of events . M 148
period is waived . M 148
people to events . M 148
people to differ . M 148
people in number . M 148
period is varied . M 146
period is finite . M 146
people so engaged . M 146
people of states . M 146
people at tables . M 146
people at church ? M 146
people as devils . M 146
period of another . M 144
people in itself . M 144
people he sought . M 144
people as groups . M 144
period of sunset . M 142
people of praise . M 142
people is raised . M 142
people as unfair . M 142
peril to myself . M 140
people to awaken . M 140
people is higher . M 140
people in cities ? M 140
people in plenty . M 138
people do listen . M 138
people be treated ? M 138
period of school . M 136
period is enough . M 136
period in nature . M 136
people as sacred . M 136
period it occurs . M 134
people or plants . M 134
people or family . M 134
people to travel ? M 132
people to church ? M 132
people of peoples . M 132
period of cleansing . M 130
people do notice . M 130
people to disease . M 128
people in stores . M 128
people he taught . M 128
people he creates . M 128
period as another . M 126
people do suffer . M 126
people as normal . M 126
peril of disease . M 124
people of memory . M 124
people as guides . M 124
period of sanity . M 122
period of genius . M 122
period as editor . M 122
people to finish . M 122
people is sought . M 122
people be spared . M 122
people be killed ? M 122
people to mature . M 120
people to inform . M 120
people to grieve . M 120
people to another ? M 120
people of choice . M 120
people he killed ? M 120
period of drifting . M 118
period of autumn . M 118
peril of battle . M 118
peril of arrest . M 118
people to behold . M 118
people so little . M 118
people in earnest . M 118
period of desire . M 116
period is played . M 116
people to defend . M 116
people is denied . M 116
people is absent . M 116
people as equals ? M 116
period is broken . M 115
period of ascent . M 114
people so afraid ? M 114
people or bodies . M 114
people is futile . M 114
period of stress ? M 112
people to labour . M 112
people to accept ? M 112
people is judged . M 112
period is higher . M 110
people of energy . M 110
people is finite . M 110
people in return ? M 110
period to return . M 108
people to record . M 108
people in preaching . M 108
period or person . M 106
period it lasted . M 106
period in adults . M 106
people of disease . M 106
people of another ? M 106
people is wasted . M 106
people is curious . M 106
peril is greater . M 104
people or cities . M 104
people on notice . M 104
people in crisis ? M 104
people in chains ? M 104
people go without . M 104
people do forget . M 104
people be offering . M 104
people be called ? M 104
people as humans . M 104
people as another . M 104
period is starting . M 103
peril to another . M 103
period of swimming . M 102
people to punish . M 102
people is normal . M 102
people go insane . M 102
period is created . M 100
peril of another . M 100
people to report . M 100
people to repair . M 100
people to mention . M 100
people to coexist . M 100
people to ascend . M 100
people the second . M 100
people in groups ? M 100
people he teaches . M 100
people by adults . M 100
period of trance . M 98
period of escape . M 98
period is another . M 98
people we manage . M 98
people to subdue . M 98
people of labour . M 98
people it covers . M 98
people in sorrow . M 98
people as family . M 98
period to master . M 96
period to arrive . M 96
period is better . M 96
people to repent ? M 96
people to perish ? M 96
people of rights . M 96
people of murder . M 96
people it reached . M 96
people is secure . M 96
people at random ? M 96
people we taught . M 94
people we choose . M 94
people to object . M 94
people to govern ? M 94
people it killed . M 94
people go further . M 94
people as judges . M 94
period to regret . M 92
period or beyond . M 92
period of uptake . M 92
period he served . M 92
people we govern . M 92
people to detect . M 92
people of chance . M 92
people is widening . M 92
people is useful . M 92
people is urgent . M 92
people in virtue . M 92
people in mission . M 92
people be united . M 92
period of ingestion . M 90
period is monthly . M 90
people in trance . M 90
people in anguish . M 90
people as extras . M 90
period is famous . M 88
people to safety ? M 88
people to energy . M 88
people to beware . M 88
people of family . M 88
people is sacred . M 88
people in public ? M 88
people go insane ? M 88
people do matter . M 88
period is larger . M 86
people to relate . M 86
people to direct . M 86
people on credit . M 86
people of someone ? M 86
people of figure . M 86
people it wanted . M 86
people in pieces . M 86
people he belongs . M 86
people as before ? M 86
period or voyage . M 84
period is halved . M 84
period of creation ? M 82
period is curious . M 82
people to excess . M 82
people to belief . M 82
people is marked . M 82
people in trains . M 82
people he passes . M 82
period is remote . M 80
people to refuse . M 80
people by chance . M 80
