your best friend . M 50905
your last letter . M 23686
your eyes closed . M 23636
your kind letter . M 18244
your best friend ? M 15268
your last chance . M 14078
your text editor . M 10512
your best choice . M 8730
your only chance . M 7912
your body weight . M 7728
your holy spirit . M 7184
your main points . M 7026
your good wishes . M 6904
your true nature . M 5920
your ideal weight . M 5640
your next letter . M 5420
your best effort . M 5320
your true feelings . M 5000
your high school . M 4538
your safe return . M 4476
your good nature . M 4362
your time wisely . M 4332
your data source . M 4306
your mind wander . M 4070
your only choice . M 3540
your life better . M 3432
your file system . M 3290
your five senses . M 3256
your life around . M 3060
your eyes closed ? M 2954
your good friend . M 2726
your high school ? M 2666
your best friend ! M 2606
your mail server . M 2600
your good advice . M 2488
your true friend . M 2460
your food intake . M 2274
your life before . M 2254
your core values . M 2214
your work habits . M 2022
your holy temple . M 2014
your heart center . M 2002
your girl friend . M 2000
your girl friend ? M 1956
your lady friend ? M 1950
your only friend . M 1926
your good letter . M 1908
your goal weight . M 1904
your room number ? M 1892
your young friend . M 1862
your lady friend . M 1832
your next speech . M 1802
your good points . M 1782
your name remain . M 1780
your face before . M 1760
your best chance . M 1738
your nice letter . M 1718
your life changes . M 1696
your last resort . M 1696
your last chance ! M 1682
your best clothes . M 1650
your poor brother . M 1570
your poor friend . M 1480
your hard drives . M 1462
your file server . M 1462
your great sorrow . M 1456
your other duties . M 1450
your name anyway ? M 1432
young lord keeper . M 1374
your other senses . M 1362
young male adults . M 1340
your kind wishes . M 1334
your room number . M 1322
your main course . M 1316
your baby brother . M 1304
your ideas clearly . M 1286
your heart broken . M 1278
your time better . M 1266
your next lesson . M 1252
your true colors . M 1224
your ideas across . M 1196
your last friend . M 1188
your home number . M 1146
your baby sister . M 1142
your life before ? M 1096
your arms around . M 1092
your kind before . M 1080
your last letter ? M 1066
your very nature . M 1062
your eyes opened ? M 1034
your video camera . M 1020
your other guests . M 974
your best wishes . M 958
your life better ? M 936
your role models ? M 928
your just reward . M 926
your name before . M 900
your kind advice . M 900
your time already . M 894
your other options . M 894
young lady indeed . M 882
your life energy . M 880
your next number . M 868
your last backup . M 864
your past actions . M 846
your work better . M 844
your form letter . M 840
your love affair . M 830
your half brother . M 824
your best teacher . M 824
your last number . M 818
your angry feelings . M 818
your eyes opened . M 812
your free choice . M 804
your role models . M 800
your full strength . M 792
your only chance ! M 784
your last choice . M 780
your food supply . M 780
your young friend ? M 776
your main points ? M 768
your word choice . M 758
your back garden . M 750
your reading habits . M 744
your heart attack . M 732
your door locked . M 724
your best course . M 712
your good clothes . M 706
your core values ? M 702
your other clothes . M 696
your just rights . M 694
your ideal weight ? M 692
your trip abroad . M 688
your eyes closed ! M 688
youth leave school . M 676
your young ladies . M 676
your mind active . M 676
your back turned . M 670
your hand through ! M 666
your mind freely . M 656
your best advice . M 650
your mind already . M 648
your hand through . M 640
your last answer . M 638
your baby brother ? M 636
your great strength . M 624
your only options . M 622
your last speech . M 616
your third choice . M 614
your face before ? M 612
your life already . M 610
young lady friend . M 604
your life itself . M 596
your best source . M 596
your best effort ? M 596
your page design . M 594
your body changes . M 594
your next edition . M 588
your poor friend ? M 580
your poor sister . M 578
your kind thought . M 572
your best answer . M 572
your cell number . M 568
your data center . M 564
your true feelings ? M 558
your other assets . M 558
your work clothes . M 552
your most affect . M 550
your eyes slowly . M 546
your land safely . M 544
your good friend ? M 542
your only friend ? M 540
your heart broken ? M 540
your health habits . M 536
your half sister . M 534
your plan worked . M 532
young single mothers . M 530
your work habits ? M 524
your last remark . M 524
your young master . M 520
your call center . M 516
your last report . M 514
your true nature ? M 512
your baby sleeps . M 512
your early training . M 510
your last letter ! M 506
your holy church . M 506
your arms folded . M 500
your last favour . M 498
your home market . M 494
your door locked ? M 488
your mind around . M 486
your last lesson . M 486
your help anyway . M 486
your best options . M 486
your home screen . M 482
your reading lesson . M 480
your life anyway . M 476
your gray matter . M 476
your home number ? M 474
your mind already ? M 472
your next mission . M 470
your only reward . M 466
your life changed ? M 466
your hurt feelings . M 464
your book report . M 464
your mind wander ? M 462
your baby sister ? M 462
your work record . M 460
your great wisdom . M 454
your time allows . M 450
your life mission . M 448
your other plants . M 446
your next victim . M 446
your next speech ? M 446
your main object . M 442
your only sister . M 440
your name appears . M 438
your best wisdom . M 438
your best assets . M 438
your only safety . M 430
your faith virtue . M 430
youth were passed . M 426
your mind before . M 426
your four papers . M 422
your true values . M 420
your life around ? M 420
your buying habits . M 420
your home garden . M 410
your other parent . M 408
your eyes gently . M 408
your best guides . M 408
your three kingdoms . M 404
your name server . M 404
your evil genius . M 404
your said letter . M 402
your only brother . M 400
your name clearly . M 400
your heart disease . M 400
your good family . M 400
your food habits . M 400
your eyes wander . M 400
your young family . M 398
your sage advice . M 398
your time online . M 396
your fine letter . M 396
your other papers . M 394
your fine clothes . M 392
your data points . M 392
your host system . M 390
your poor brother ! M 388
your eyes before . M 388
young once myself . M 388
your other friend . M 384
your great talent . M 384
your next choice . M 382
your just wishes . M 382
your past record . M 380
your other friend ? M 380
your body around . M 378
your name before ? M 374
your great cities . M 374
your evil spirit . M 372
young hero sleeps . M 372
your good favour . M 370
your next thought . M 366
your call through . M 366
your body better . M 366
your video system . M 364
your home ground . M 364
your hair combed . M 364
your home church . M 362
your type before . M 360
your heart attack ? M 360
your full weight . M 360
your body weight ? M 360
your stay abroad . M 358
your mind anyway . M 356
your kind notice . M 356
your five senses ? M 356
your work begins . M 352
your video screen . M 352
your meaning clearer . M 352
your late brother . M 352
your last answer ? M 352
your home system . M 352
your face fallen ? M 350
your best virtue . M 350
young lady smiled . M 350
your meaning across . M 348
your only source . M 346
your work undone . M 342
your mind instead . M 342
your face better . M 342
your time anyway . M 340
your trip online . M 338
your other brother ? M 338
your last moment . M 338
your time limits . M 336
young girl smiled . M 336
your sick friend . M 332
your next report . M 332
your mail system . M 332
your eyes adjust . M 332
your main window . M 330
your high priest . M 328
your best colors . M 328
your warm greeting . M 326
your eyes upward . M 324
your other sister ? M 322
your great reward . M 322
your cell phones . M 320
your poor sister ! M 318
your good wishes ? M 318
your good feelings . M 318
your best choice ? M 318
your other guests ? M 316
your good credit . M 316
young lady before . M 316
your body fluids . M 314
your arms locked . M 314
your good actions . M 312
your name around . M 310
your kind offers . M 310
your body energy . M 310
your best points . M 310
your baby sister ! M 310
your wise advice . M 306
your kind favour . M 306
your great spirit . M 306
your body behind . M 306
your work number . M 304
your life changed . M 304
your sort before . M 302
your host family . M 300
your other writings . M 298
your other options ? M 298
your door closed . M 294
your heart always . M 292
your hand inside . M 292
your face clearly . M 292
your home server . M 290
your arms upward . M 290
young single adults . M 290
your young person . M 288
your young brother . M 288
your eyes tested . M 288
your cell number ? M 288
your work permit . M 286
your time wisely ? M 286
your only answer . M 286
your last school ? M 286
your holy dwelling . M 286
your other brother . M 284
your great friend . M 284
young lady should . M 284
your time abroad . M 282
your next effort . M 282
your next client . M 280
your great speech . M 280
your good points ? M 278
your deep sorrow . M 278
your home school . M 276
your feet touching . M 276
your birth family . M 276
your book closed . M 274
your clean clothes . M 272
your face washed . M 270
your true spirit . M 268
your north border . M 268
your kind answer . M 268
your ideal future . M 268
your good report . M 268
your early return . M 268
your book report ? M 268
your name already . M 266
your best anyway . M 266
your time better ? M 264
your site design . M 264
your best weight . M 264
your open window . M 262
your next lesson ? M 262
your hand instead . M 262
your data tables . M 262
your name called . M 260
your last mission . M 260
your life script . M 258
your fair friend ? M 258
your arms folded ? M 258
your other duties ? M 256
your true desire . M 254
your last voyage . M 254
your ideas changed ? M 254
your true strength . M 252
your full reward . M 252
your last wishes . M 250
your kind feelings . M 250
your next choice ? M 248
your ideal client . M 248
your only family . M 246
your next building . M 246
your good points ! M 246
your taking orders . M 244
your safe return ! M 244
your life harder . M 244
young male readers . M 244
your turn signal . M 242
your three wishes . M 242
your third letter . M 242
your life simple . M 242
your full powers . M 242
your other letter . M 240
your eyes already . M 240
your third volume . M 238
your lost friend . M 238
your last chance ? M 238
your next letter ? M 236
your fine family . M 236
your best manner . M 236
your work clearly . M 234
your hand afraid . M 234
your great mission . M 234
your form design . M 234
your food intake ? M 234
your work better ? M 232
your three points . M 232
your perl script . M 232
your fair sister . M 232
your early errors . M 232
your poor sister ? M 230
your best thought . M 230
your evil actions . M 228
your body through . M 228
your young master ? M 226
your last prayer . M 226
young were spared . M 226
young girl should . M 226
your living habits . M 224
your hand anyway . M 224
your good nature ? M 224
your data secure . M 224
your birth family ? M 224
your work values . M 222
your side always . M 222
your mail client . M 222
your love affair ? M 222
your body upward . M 220
your reading habits ? M 218
your other crimes . M 218
your only brother ? M 218
your full pardon . M 218
your face before ! M 218
your body craves . M 218
your half brother ? M 216
your core strength . M 216
your only sister ? M 214
your next course . M 214
your term papers . M 212
your pass phrase . M 212
your other parent ? M 212
your left temple . M 212
your kind letter ! M 212
your other clothes ? M 210
your next voyage . M 210
your next design . M 210
your life through . M 210
your ideas further . M 210
your free papers ? M 210
your young sister . M 208
your great object . M 208
your best client . M 208
your work before . M 206
your test system . M 206
your next gathering . M 206
your life begins . M 206
your food slowly . M 206
your case myself . M 206
your best pieces . M 206
your user manual . M 204
your life instead . M 204
your holy wishes . M 204
your code clearer . M 204
your back window . M 204
your holy blessing . M 202
your great master . M 202
your work online . M 200
your life course . M 200
your home circle . M 200
your healing powers . M 200
your form fields . M 200
your work appears . M 198
your hand signal . M 198
your case number . M 198
your true mission . M 196
your only thought . M 196
your meaning clearly . M 196
your many options . M 196
your hand before . M 196
your data values . M 196
your best clothes ? M 196
your best actions . M 196
your nice clothes . M 194
your life already ? M 194
your good habits . M 194
your arms freely . M 194
your only client . M 192
your http server . M 192
your home course . M 192
your buying habits ? M 192
your other points . M 190
your food better . M 190
your arms raised . M 190
young were raised . M 190
your other sister . M 188
your other pieces . M 188
your next victim ? M 188
your name anyhow ? M 188
your face anyway . M 188
your main system . M 186
your kind greeting . M 186
your host server . M 186
your work itself . M 184
your true course ? M 184
your only answer ? M 184
your many readers . M 184
your living spaces . M 184
your last volume . M 184
your last record . M 184
your deep feelings . M 184
your type anyway . M 182
your spring garden . M 182
your room anyway . M 182
your main topics . M 182
your last report ? M 182
your pain better ? M 180
your good wishes ! M 180
your game design . M 180
your eyes bright . M 180
young lady pupils . M 180
your true course . M 178
your three wishes ? M 178
your site online . M 178
your plan simple . M 178
your next attack . M 178
your great chance . M 178
your fast friend . M 178
your exam online . M 178
your time further . M 176
your main course ? M 176
your hand slowly . M 176
your food cravings . M 176
your body instead . M 176
your home safely . M 174
your heart centre . M 174
your city limits . M 174
your case further . M 174
your case clearly . M 174
your help system . M 172
your body itself . M 172
your true weight . M 170
your true intent . M 170
your time studying . M 170
your poor family . M 170
your last school . M 170
your last effort . M 170
your full report . M 170
your songs endure ? M 168
your only course . M 168
your next volume . M 168
your love letter . M 168
your healing energy . M 168
your good intent . M 168
your free spirit . M 168
your early answer . M 168
your best images . M 168
youth like myself . M 166
your true family . M 166
your main thought . M 166
your left margin . M 166
your last lesson ? M 166
your health issues . M 166
your dream recall . M 166
your best pupils . M 166
your best clothes ! M 166
your angry feelings ? M 166
young girl simply . M 166
your warm friend . M 164
your late papers . M 164
your last battle . M 164
your ideas clearer . M 164
your home itself . M 164
your hair washed . M 164
your face changes . M 164
your body slowly . M 164
your time deciding . M 162
your third choice ? M 162
your next actions . M 162
your last orders . M 162
your heart desire ? M 162
your half sister ? M 162
your free report . M 162
your book belongs . M 162
young wild animal . M 162
young girl friend . M 162
your main duties ? M 160
your like before . M 160
your heart already . M 160
your born brother ! M 160
your trip begins . M 158
your reading public . M 158
your other faults . M 158
your lost brother . M 158
your face changed . M 158
your eyes behold . M 158
your army better . M 158
your young brother ? M 156
your work anyway . M 156
your book covers . M 156
your best feelings . M 156
your text fields . M 154
your shop window . M 154
your late battle . M 154
your hand around . M 154
your good genius . M 154
your exam report . M 154
your data source ? M 154
your code number . M 154
your past behind . M 152
your just claims . M 152
your goal weight ? M 152
your debt already . M 152
your best reward . M 152
young ones stolen . M 152
your work record ? M 150
your video camera ? M 150
your test result . M 150
your test papers . M 150
your name instead . M 150
your great effort . M 150
your data better . M 150
your code window . M 150
your bare bottom . M 150
young male friend . M 150
your other reasons ? M 148
your name spoken . M 148
your luck changes . M 148
your life behind . M 148
your heart instead . M 148
your fine friend ? M 148
your eyes around . M 148
your best advice ? M 148
your single person . M 146
your next rebirth . M 146
your hearing tested . M 146
your good master . M 146
your feet anyway . M 146
your young pupils . M 144
your room myself . M 144
your other feelings . M 144
your lost strength . M 144
your life unfold . M 144
your ideal school . M 144
your heavy burden . M 144
your heart behind . M 144
your best powers . M 144
young lady already . M 144
your west border . M 142
your waking reality . M 142
your very utmost . M 142
your very affect . M 142
your user number . M 142
your test server . M 142
your only object . M 142
your only chance ? M 142
your name anyway . M 142
your many favors . M 142
your last thought . M 142
your eyes tested ? M 142
your best verses . M 142
your young charge . M 140
your very spirit . M 140
your true reality . M 140
your next script . M 140
your heart craves . M 140
your health record . M 140
your great design . M 140
your good brother . M 140
your best market . M 140
your bank offers . M 140
young male animal . M 140
your work papers . M 138
your video source . M 138
your true friend ? M 138
your root cellar . M 138
your poor brother ? M 138
your main server . M 138
your life sleeping . M 138
your last number ? M 138
your file format . M 138
young male voices . M 138
your wealth building . M 136
your past errors . M 136
your mind always . M 136
your home waters . M 136
your grey matter . M 136
your ever affect . M 136
your data changes . M 136
your best tricks . M 136
your best doctor . M 136
your true brother . M 134
your trip planning . M 134
your name cleared . M 134
your last remark ? M 134
your holy temple ? M 134
your holy mission . M 134
your high priest ? M 134
your hair combed ? M 134
your full effort . M 134
your evil habits . M 134
your data gathering . M 134
your body system . M 134
your base amount . M 134
your work behind . M 132
your work around . M 132
your rest periods . M 132
your only reality . M 132
your next column . M 132
your last friend ! M 132
your great duties . M 132
your fine clothes ? M 132
your face gently . M 132
your face around ! M 132
your duty better ? M 132
your door closed ? M 132
your best teacher ? M 132
young girl enters . M 132
your years demand . M 130
your side already . M 130
your reading matter . M 130
your only excuse . M 130
your mind engaged . M 130
your hand upward . M 130
your great future . M 130
your good memory . M 130
your face already . M 130
your edit points . M 130
your debt burden . M 130
young lady myself . M 130
youth work center . M 128
your side anyway . M 128
your name endure . M 128
your mind itself . M 128
your last attack . M 128
your kind family . M 128
your hair washed ? M 128
your good sister . M 128
your dream happen . M 128
your coding system . M 128
your back garden ? M 128
your baby brother ! M 128
your tour guides . M 126
your time wasted . M 126
your test center . M 126
your play clothes . M 126
your page number . M 126
your only master . M 126
your next chance . M 126
your lost ground . M 126
your just reward ! M 126
your great powers . M 126
your good advice ! M 126
your free sample . M 126
your body adjust . M 126
young like myself . M 126
youth have fallen . M 124
your work harder . M 124
your room scheme . M 124
your past losses . M 124
your only parent . M 124
your only friend ! M 124
your ideas across ? M 124
your home church ? M 124
your good clothes ? M 124
your dream images . M 124
your core belief . M 124
your cold better ? M 124
your coding scheme . M 124
your body sleeps . M 124
young male actors . M 124
young lady calmly . M 124
young half brother . M 124
young girl inside . M 124
your work effort . M 122
your true colors ! M 122
your other family . M 122
your mind worked . M 122
your life anyway ? M 122
your health habits ? M 122
your good standing . M 122
your fire escape . M 122
your work output . M 120
your warm clothes . M 120
your other school ? M 120
your only escape . M 120
your mind changes . M 120
your health suffer . M 120
your game better . M 120
young ones behind . M 120
your warm letter . M 118
your warm feelings . M 118
your open letter . M 118
your many crimes . M 118
your lost energy . M 118
your life wisely . M 118
your life wasted . M 118
your life forces . M 118
your life events . M 118
your life before ! M 118
your late master . M 118
your late letter . M 118
your last update . M 118
your great scheme ? M 118
your good family ? M 118
your body intact . M 118
your arms asleep ? M 118
your only remedy . M 116
your lost weight . M 116
your life ruined . M 116
your good advice ? M 116
your young readers . M 114
your work duties . M 114
your true wishes . M 114
your trip abroad ? M 114
your time worrying . M 114
your risk factor . M 114
your past crimes . M 114
your name famous . M 114
your mind wander ! M 114
your kind regard . M 114
your heart anyway . M 114
your great virtue . M 114
your good friend ! M 114
your early release . M 114
your early demise . M 114
your data intact . M 114
young lady guests . M 114
your very center . M 112
your site offers . M 112
your only family ? M 112
your name occurs . M 112
your life enough . M 112
your hair colour . M 112
your girl friend ! M 112
your food habits ? M 112
your even noticing . M 112
young girl already . M 112
your true passion . M 110
your other chores . M 110
your name changed . M 110
your life around ! M 110
your ideal garden . M 110
your hair gently . M 110
your text appears . M 108
your slow trains . M 108
your plan failed . M 108
your life spared . M 108
your great secret . M 108
your free copies . M 108
your trial begins . M 106
your role changes . M 106
your poor friend ! M 106
your only teacher . M 106
your next return . M 106
your next letter ! M 106
your life always . M 106
your last resort ? M 106
your home instead . M 106
your home anyway . M 106
your goal clearly . M 106
your data access . M 106
your call earlier . M 106
your best always . M 106
youth will follow . M 104
your wild garden . M 104
your trip around . M 104
your rich reward . M 104
your other drives . M 104
your note sooner . M 104
your next creation . M 104
your good spirit . M 104
your data fields . M 104
your body follow . M 104
your arms instead . M 104
young poor readers . M 104
your site listed . M 102
your sick friend ? M 102
your show window . M 102
your other colors . M 102
your only brother ! M 102
your next charge . M 102
your naming scheme . M 102
your ideas better . M 102
your home before . M 102
your free pardon . M 102
your faith lifted . M 102
your dream school . M 102
your best memory ? M 102
your back instead . M 102
your arms through . M 102
your three reasons . M 100
your sick brother . M 100
your great strength ? M 100
your good design . M 100
your full letter . M 100
your free choice ? M 100
your fine spirit . M 100
your eyes anyway . M 100
your book appears . M 100
your book anyway . M 100
your best effort ! M 100
your baby clothes . M 100
your other values . M 98
your only guides . M 98
your life happen . M 98
your holy spirit ! M 98
your heads depend . M 98
your fish market . M 98
your beating orders . M 98
your aged parent . M 98
your single strength . M 96
your room instead . M 96
your other senses ? M 96
your other readers . M 96
your other actions . M 96
your most humble . M 96
your line secure ? M 96
your life values . M 96
your late friend . M 96
your heart energy . M 96
your good breeding . M 96
your feet instead . M 96
your face around . M 96
your body allows . M 96
your best chance ! M 96
your work methods . M 94
your word sacred . M 94
your safe return ? M 94
your other layers . M 94
your next orders . M 94
your next battle . M 94
your main screen . M 94
your ideas clearly ? M 94
your high mission . M 94
your hand raised . M 94
your hair purple . M 94
your great family . M 94
your full energy . M 94
your food supply ? M 94
your evil nature . M 94
your dream garden . M 94
your dark secret . M 94
your core issues . M 94
your call gladly . M 94
your book called ? M 94
your body active . M 94
young male teacher . M 94
young lady friend ? M 94
young girl appears . M 94
youth from adults . M 92
your video signal . M 92
your third master ? M 92
your other wishes . M 92
your name inside . M 92
your love beware ! M 92
your high favour ! M 92
your great ladies . M 92
your good record . M 92
your free agency . M 92
your data online . M 92
your call through ? M 92
your body anyway . M 92
your anger better . M 92
your word better . M 90
your very window . M 90
your very person . M 90
your time planning . M 90
your poor family ? M 90
your life greatly . M 90
your life abroad . M 90
your lady fairly . M 90
your kind speech . M 90
your kind around . M 90
your high standing . M 90
your high regard . M 90
your food record . M 90
your best points ? M 90
your only sister ! M 88
your mind before ? M 88
your love object . M 88
your last minute . M 88
your last friend ? M 88
your hanging around . M 88
your hair myself . M 88
your hair better . M 88
your great system ! M 88
your good nature ! M 88
your fair friend . M 88
your eyes instead . M 88
your buying public . M 88
your body broken . M 88
your arms higher . M 88
youth have passed . M 86
your only choice ? M 86
your next remark . M 86
your next record . M 86
your losing weight . M 86
your life better ! M 86
your kind master ? M 86
your kind favors . M 86
your home already . M 86
your high spirit . M 86
your heart decide . M 86
your health better . M 86
your hand before ? M 86
your great merits . M 86
your free papers . M 86
your exit permit . M 86
your early feelings ? M 86
your duty better . M 86
your work clothes ? M 84
your size better . M 84
your plan covers . M 84
your plan better . M 84
your other groups . M 84
your only resort . M 84
your name earlier . M 84
your main clause . M 84
your ideas freely . M 84
your face instead . M 84
your baby anyway . M 84
your anger inward . M 84
young love itself . M 84
young lady readers . M 84
young lady inside . M 84
your young plants . M 82
your very sanity . M 82
your town before ? M 82
your past record ? M 82
your other pupils . M 82
your only relief . M 82
your next object ? M 82
your male friend . M 82
your life further . M 82
your life asleep . M 82
your heart belongs . M 82
your health anyway . M 82
your hand gently . M 82
your hair before . M 82
your great genius . M 82
your great damage . M 82
your good manner . M 82
your best wisdom ? M 82
your back broken . M 82
your true feelings ! M 80
your true center . M 80
your other family ? M 80
your life afresh . M 80
your great secret ? M 80
your fine speech . M 80
your case anyway . M 80
your body stores . M 80
young face serious . M 80
