youth he was a M 11482
youth is not a M 4458
youth he had a M 2780
youth is but a M 1899
young to get a M 1744
young king was a M 1472
young he was a M 1426
your thing and i M 1186
young is not a M 1136
youth it was a M 1012
young he had a M 944
young thing with a M 942
young it was a M 732
young king with a M 674
your king that i M 646
young king and a M 640
youth to age a M 590
young king had a M 588
young to use a M 476
young to own a M 404
young king for a M 402
youth to get a M 400
youth is now a M 370
youth he led a M 342
youth to earn a M 340
young to run a M 338
young to bear a M 310
your tea and i M 294
youth is that i M 278
young we had a M 274
young or old a M 271
young to buy a M 264
young it has a M 260
youth to lead a M 256
young or old i M 244
your tea with a M 230
youth to age i M 222
your king and i M 218
young to earn a M 218
young be not a M 212
youth as being a M 194
youth as with a M 192
young as you i M 192
young to lead a M 190
young to see a M 186
young so that i M 178
youth of being a M 168
young so that a M 168
youth to see a M 162
young thing that i M 162
your it was a M 160
youth is for a M 150
youth he saw a M 146
young to pay a M 142
your wing for a M 138
youth so that i M 130
youth is both a M 128
your foe with a M 126
young to read a M 126
young thing for a M 126
young or has a M 122
your tea and a M 112
young by now i M 110
youth he won a M 102
young to die i M 100
youth as had a M 98
your ring for a M 98
young thing and i M 98
youth is apt i M 96
young to win a M 96
young thing and a M 96
youth to read a M 94
youth so that a M 84
young to say a M 84
youth we had a M 80
young he and a M 80
york is not a D 4410
yoga is not a D 2884
york to see a D 2242
york to get a D 1738
york it was a D 1237
your ear with a D 1172
your ma and i D 1160
york he was a D 1127
your ad for a D 1020
your ear for a D 1004
your pa and i D 918
york he had a D 811
york to buy a D 792
york so that i D 717
your ear that i D 640
your pa was a D 578
york we had a D 494
york is now a D 436
york to earn a D 382
young to wear a D 338
york to pay a D 337
york is but a D 297
your ma was a D 256
your ear and a D 250
york he met a D 246
york to hear a D 238
york is that a D 228
your ear and i D 216
york to run a D 214
yogi is not a D 212
york he saw a D 200
your ad with a D 188
york to lead a D 181
yoke is not a D 164
york the day i D 154
york the way i D 148
york to win a D 146
york to read a D 146
york he got a D 146
yoga is thus a D 146
york so that a D 138
york to head a D 135
your ex has a D 132
york to set a D 129
your ex was a D 128
your ma that i D 126
york to try a D 120
york as being a D 116
yoga is both a D 115
york to put a D 109
york is both a D 109
yoke of being a D 104
your ad has a D 100
york is that i D 92
york to bring a D 85
your pa that i D 84
your ad and i D 84
york to cut a D 84
your toe with a D 82
york to fix a D 82
yolk is not a D 80
