bad for you . M 43876
bad for him . M 26170
bad for them . M 18926
bad for her . M 14848
bad for you ? M 6100
bar his way . M 4406
bag with him . M 4134
bad things are . M 3124
bad they are . M 2902
bad for you ! M 2024
bag for you . M 2009
bag with her . M 2000
bag for him . M 1679
bad this year . M 1610
bar our way . M 1600
bang bang bang . M 1549
bar her way . M 1490
bag with you . M 1468
bag for her . M 1327
bad for him ? M 1202
bar with him . M 1165
bad for them ? M 1147
bag and all . M 1142
bad you are . M 1002
bad she was . M 964
bad that day . M 932
bad with him . M 922
bad for both . M 918
bad old man . M 912
bad for that . M 880
bad for man . M 876
bag with them . M 854
bad are they ? M 774
bar his path . M 760
bang his head . M 700
bad all day . M 696
bad for one . M 676
bad that way . M 674
bad for her ? M 662
ban its use . M 658
bad for him ! M 636
bag for you ? M 614
bad for all . M 614
bad and dear . M 610
bad things got . M 608
bad for men . M 584
bag for them . M 576
bar its way . M 570
bad one too . M 550
bad with you . M 548
bad for them ! M 540
bad and mean . M 530
bag with you ? M 518
bad things get . M 500
bag and ran . M 494
bar with her . M 462
bad that year . M 456
bad things too . M 446
bar for him . M 438
bar for you . M 430
bang bang bang ! M 425
bad with them . M 422
bar with them . M 396
bar them out . M 385
bad with her . M 372
bad are you ? M 334
bag with air . M 322
bad for her ! M 314
bang her head . M 310
bad air out . M 310
bar too low . M 306
bad and all . M 296
bag and run . M 294
bad way too . M 288
bar for her . M 280
bar him out . M 275
bad you are ! M 274
bad and mad . M 270
bar and all . M 262
bad for bad . M 258
bar for them . M 256
bad things are ? M 256
bar all day . M 250
bad way now . M 250
bar our path . M 247
bad day too . M 244
bad bad bad . M 238
bad and sad . M 236
bad that was . M 234
bar but one . M 224
bad this day . M 224
bad things out . M 222
bar that year . M 221
bag with him ? M 220
bad and why . M 220
bar that day . M 208
bad old way . M 208
bag them all . M 201
bad they are ! M 200
bad this was . M 196
bar her path . M 194
bar with you . M 190
bad and weak . M 190
bad are things ? M 186
bar too long . M 184
bad was that ? M 180
bag each day . M 179
bad men are ! M 176
bag that day . M 173
bad with you ? M 172
bad this year ? M 168
bad for bad ! M 168
bad old boy . M 164
bag and box . M 158
bad idea now . M 158
bar its use . M 154
bad old man ! M 154
bar one day . M 150
bar and bar . M 150
bag are red . M 148
bad you are ? M 148
bad one day . M 146
bar does not . M 144
bag for that ? M 144
bad they are ? M 144
bag one day . M 143
bag all day . M 141
bar his way ? M 138
bar them all . M 137
bar this day . M 132
bad for this . M 128
bar its path . M 123
bad one yet . M 122
bad for god . M 122
bar with ease . M 121
bad men bad . M 118
bad men are . M 118
bad with bad . M 114
bad was bad . M 112
bad for long . M 112
bar each year . M 109
bag with ease . M 109
bang with them . M 106
bad new one . M 106
bad man too . M 106
bad long ago . M 106
bad and bad . M 106
bar and rings . M 104
ban them all . M 104
bad one now . M 104
bar for bar . M 103
bar each day . M 102
bar them out ? M 100
bar her out . M 99
bad and low . M 94
bag for this . M 92
bad old one . M 92
bad for one ? M 92
bad was she ? M 90
bad men off . M 90
bad than mad . M 88
bar with you ? M 84
bar for each . M 84
bad way out . M 84
bad this way . M 84
bad off yet . M 84
bag was wet . M 82
bar his path ? M 80
bag with her ? M 80
bad too bad . M 80
bar its way ? M 49
