bar and have a M 5504
bad for such a M 1300
bag and made a M 1186
bad that such a M 1120
bar and made a M 946
bad that when i M 920
bar and take a M 772
bag and take a M 720
bag that held a M 694
bar had been a M 660
bag hung from a M 644
bar and into a M 632
bad man into a M 628
bad that only a M 602
bag and make a M 572
bad for what i M 566
bar has been a M 554
bad that even a M 550
bad day when i M 526
bar and having a M 516
bar him from a M 487
bar and make a M 438
bad way when i M 396
bag and have a M 377
bad idea from a M 364
bar may have a M 350
bad day into a M 346
bad that when a M 336
bar was only a M 326
bad not been a M 324
bar was like a M 310
bar and half a M 296
bar with only a M 287
bar was also a M 268
bar them from a M 237
bag and gave a M 236
bar was just a M 234
bad men have a M 234
bar and when i M 232
bag and felt a M 230
bar and even a M 228
bad long been a M 226
bar and find a M 222
bad but what i M 220
bang and felt a M 218
bag and find a M 216
bag with half a M 212
bad things when i M 210
bar with such a M 206
bar and also a M 204
bad with such a M 204
bar and down a M 202
bag was like a M 202
bag had been a M 198
bad and when i M 198
bad and have a M 198
bar cut from a M 196
bad man when i M 194
bag and taking a M 192
bar has left a M 190
bag and wore a M 190
bag and when i M 190
bar with half a M 188
bar and gave a M 186
bag and into a M 186
bar and sees a M 182
bag and left a M 174
bar and taking a M 170
bar and making a M 166
bad one from a M 164
bad one when i M 162
bad boy into a M 160
bag and grab a M 158
bad and only a M 158
bag and making a M 156
bad that even i M 156
bad job when i M 156
ban has been a M 152
bad you have a M 150
ban had been a M 146
bag and draw a M 142
bad old days a M 140
bar can make a M 136
bag with only a M 136
bad one into a M 136
bar and only a M 133
bad idea into a M 132
bar you have a M 131
bag was only a M 128
bad man from a M 128
bar and from a M 126
bad you need a M 124
bad for even a M 124
bar for half a M 122
bar and give a M 122
bag may have a M 122
bag and tied a M 122
bad things have a M 122
bar with whom i M 120
bad for making a M 120
bad for just a M 120
bar was once a M 118
bar and grab a M 118
bad but when i M 118
bag and half a M 110
bad law into a M 108
bar for only a M 106
bag and laid a M 106
bad may have a M 106
bad has been a M 106
bag with what i M 104
bag and onto a M 104
bar for over a M 102
bad old days i M 102
bad idea when i M 102
bar can have a M 100
bag for half a M 100
bad day when a M 100
bar and held a M 98
bag and said i M 98
bad and even a M 98
bad air from a M 98
bar and reading a M 96
bar and heard a M 96
bag wet once a M 96
bad boy when i M 94
bad was when i M 92
bad for half a M 92
bad men from a M 90
bar you from a M 89
bag has been a M 88
bag and also a M 88
bad one when a M 88
bad lot when i M 88
bad for having a M 88
bar for such a M 86
ban was only a M 86
ban any less a M 86
bad cut from a M 86
bag with just a M 84
bag and give a M 84
bar and pick a M 82
bad god made a M 82
bar and said a M 80
bag was also a M 80
bag for such a M 80
bad for only a M 80
bar her from a M 41
bar and took a D 2790
bag and took a D 2538
bay had been a D 938
bay was like a D 806
bay was once a D 778
bath and have a D 692
bay has been a D 686
bay and made a D 628
bag she took a D 512
bag and wearing a D 494
bath had been a D 466
bay for over a D 452
bay was only a D 436
bay for half a D 316
bay and took a D 290
bath has been a D 284
bath and took a D 284
bay and have a D 276
bay was also a D 270
bay and sent a D 270
bath with only a D 262
bat and took a D 261
bay with only a D 253
bath and take a D 250
bay and take a D 238
bay leaf into a D 224
bag and threw a D 204
bath may have a D 194
bath and into a D 188
bath and make a D 184
bath for half a D 180
bath and when i D 178
bay for just a D 160
bar and drew a D 154
bath for only a D 144
bath was also a D 142
bath and wearing a D 142
bad egg from a D 142
bay area into a D 140
bay leaf from a D 138
bay lay like a D 138
bath and made a D 136
bay and make a D 132
bag and drew a D 132
bag she drew a D 128
bath for over a D 126
bad guy from a D 120
bay was made a D 118
bag and pipe a D 118
bay was just a D 114
bat and wearing a D 114
bad guy into a D 114
bag and pack a D 112
bath with half a D 106
bath and even a D 106
bay and into a D 102
bat and made a D 99
bay and only a D 98
bath and only a D 98
bat and take a D 98
bay for such a D 96
bath and open a D 96
bay was such a D 92
bay and over a D 90
bay and find a D 88
bath was like a D 88
bath can have a D 88
bay are only a D 86
bath was only a D 86
bath and having a D 86
bad guy when i D 86
bath and also a D 84
bay with such a D 82
bay for only a D 82
bar and threw a D 82
bath but once a D 80
