bad as all that M 35610
bad as they are M 21855
bad we can not M 12518
bad he did not M 9704
bad as they had M 7960
bad we did not M 6756
bad as you say M 5614
bar at one end M 5538
bad as she had M 5228
bad as they can M 4680
bad as they say M 4624
bad as you are M 4623
bad it was not M 4322
bad as bad can M 3597
bad he can not M 3486
bar of his own M 3476
bad he was not M 3416
bad he had not M 3246
bad it did not M 3128
bad it was for M 2662
bad as things are M 2649
bag on his head M 2638
bad as she was M 2632
bad as they may M 2456
bad thing for him M 2420
bad thing was that M 2386
bad as you can M 2372
bad thing for you M 2338
bad at all for M 2286
bad as all this M 2207
bad as this one M 2203
bad as this was M 2174
bag on her arm M 2148
bar the way for M 2072
bad if you can M 1940
bad if they are M 1932
bad thing for her M 1914
bad thing for them M 1828
bad as that was M 1810
bad he does not M 1806
bad it can not M 1690
bad it does not M 1658
bar in that year M 1623
bad if you are M 1596
bad in law and M 1442
bad it was going M 1440
bad in its way M 1430
ban on its use M 1322
bad if you did M 1314
bad if they had M 1296
bad in any way M 1286
bad thing and that M 1268
bag on her head M 1234
bar so that you M 1209
bar on his way M 1179
bar at each end M 1161
bad as you may M 1127
bag of meal and M 1116
bad as they did M 1104
bar to bar and M 1100
bar to his being M 1098
bad if they did M 1066
bad it was and M 1062
bad in its own M 1048
bad as his own M 1042
bad as you fear M 1033
bad thing for any M 1018
bad if she had M 1000
bar so you can M 992
bar to its being M 973
bag of his own M 966
bar the way and M 961
bad if you had M 958
bad in his own M 950
bar of that day M 916
bad it can get M 900
bar to its use M 898
bag on his arm M 892
bag so that you M 887
bad as that with M 876
bad at all and M 866
bad as she did M 860
bag or box and M 848
bad as any that M 848
bag so you can M 822
bad as any one M 814
bag to put them M 812
bad to deal with M 804
ban on all new M 792
bar to pay for M 791
bad thing that they M 784
bad thing for our M 780
bad as too few M 780
bad we are not M 766
bar so that they M 764
bar of god and M 740
bag so that they M 707
bar of god for M 702
bad thing that had M 702
bar the way with M 697
bad thing for this M 688
bad as our own M 658
bar in his own M 656
bad if she did M 656
bad as that yet M 649
bad the old man M 648
bad in that they M 648
bad thing for his M 630
bad thing that you M 626
bar to his own M 622
bad thing that has M 610
bag of meal with M 604
bad as they who M 594
bar of its own M 592
bad to see him M 574
bad as not being M 572
bad in one way M 562
bad as this may M 561
bad is that they M 544
bad in this way M 534
bar of our own M 532
bad to say that M 532
bar to see how M 529
bad if you get M 528
bad as one that M 527
bag he had with M 526
bar on and off M 504
bad at his job M 502
bag so that she M 501
bad on its own M 500
bag at one end M 490
bad as that for M 484
bad it was that M 482
bag to get out M 478
ban on all but M 476
bad if she was M 476
bad or that they M 470
bad in that way M 470
bad to see you M 466
ban on eating meat M 464
bad as you had M 462
bad as that may M 460
bad thing for one M 455
bag to his own M 448
bad as being too M 444
bag in one arm M 442
bad thing that can M 430
bad of you not M 428
bad in our own M 428
bad as things may M 428
bar to see all M 426
bar or two and M 426
bad as that one M 425
bad if you say M 420
bar to see that M 418
bad in this area M 418
bad thing that was M 416
bag of her own M 412
bad it had not M 402
bar in his way M 398
bar to all our M 396
bad as you and M 396
bar to get his M 394
bar of god with M 394
bag in each arm M 394
bad in his way M 394
bad as you did M 392
bar to bar with M 391
bad thing you did M 390
bad or weak men M 386
bad as was his M 386
bad he has not M 382
bad as things had M 382
bad we had not M 380
bad thing for all M 378
bad as his long M 378
bar to see who M 374
bad to see her M 368
bad it was all M 368
bad thing that she M 366
bad if they can M 362
bad as one who M 362
bad as she has M 360
ban on any new M 358
bad to let them M 356
bag to him and M 350
bad as was this M 350
bar on his own M 348
bad if you got M 344
bag of dry dog M 340
bag if you are M 340
bag or box for M 338
bad as that now M 338
bad as she can M 338
bar on her way M 332
bad to let him M 332
bad as her own M 332
bar to let you M 330
bad thing that men M 330
bad as this and M 330
bar is not one M 326
bag of meat and M 326
bag in and out M 326
bad to get out M 326
bad it all was M 322
bar if you are M 321
bar of her own M 320
bar is cut off M 320
bar he did not M 320
bang on his head M 320
bag or box with M 320
bad as any man M 312
ban the use and M 308
bad as that and M 308
bad thing for both M 306
bar in all its M 304
bar so that its M 300
bad so that they M 300
bad to you and M 298
bad as she does M 296
bar to get them M 294
bar is long and M 294
bar on one end M 292
bad thing that this M 286
bar by bar and M 280
bad he was going M 280
bar to get her M 278
ban on all non M 275
bar to hear his M 270
bar in his day M 270
bad is that you M 268
bar to him and M 266
bag to her and M 266
bad is not now M 266
bag in this way M 265
bar to ask for M 264
bag to see how M 262
bag on his way M 259
bar in this way M 257
bad thing for men M 256
bad to see them M 254
bad is one and M 254
bar to any real M 252
bar in two and M 250
bag of its own M 248
bad as they now M 248
bad in all its M 246
bad as that you M 246
bar to all real M 244
bar is set too M 244
bag of meal for M 242
bar so that she M 240
bag on one arm M 236
bar to this plea M 234
ban on them was M 234
bag at him and M 234
bad or that you M 234
bad it was with M 234
bad at all but M 234
bad as that but M 234
bar up our way M 230
bad in her own M 228
bad is not that M 227
bar of his day M 226
bad in all things M 226
bad the way they M 224
bad as they get M 222
bar on top and M 220
bar to its new M 218
bar he was not M 218
bad to him who M 218
bad is not bad M 218
bad in them and M 218
bad as one can M 218
bar to say that M 217
bar so they can M 217
bar in this area M 216
bag or two and M 216
bag on top and M 216
bad thing can not M 216
bad if she does M 216
bar it does not M 214
bag in her cup M 214
bad as this for M 214
bar to her being M 212
bad to see how M 212
bad of his own M 212
bar to any new M 210
bad it was too M 210
bad as you all M 210
bar or you can M 208
bar is not too M 208
bad he was and M 208
bad thing does not M 206
bad no one can M 206
bar to try and M 204
bad as die with M 204
bag of things that M 202
bad so they can M 202
bar on our way M 200
bag to pay for M 200
bar to hang out M 199
bar is too long M 198
bag in his own M 198
bad or that all M 198
bar to get him M 196
bag to get her M 196
bag on his own M 196
bad we are men M 196
bag as she was M 194
ban of his own M 193
bad no idea that M 193
bad an idea that M 192
bar so that all M 190
bar is then cut M 190
bad if one has M 190
bar on new year M 188
bad to him and M 188
bad in all this M 188
bad if you put M 188
bad as that old M 188
bar of him who M 186
bag if you can M 186
bag he had set M 186
bad tea and bad M 186
bad or did not M 186
bad if they got M 186
bad as that they M 186
bar on her own M 184
bag to see that M 184
bad the day was M 184
bad to let her M 182
bad so that you M 182
bad if you let M 182
ban in any way M 181
bar so that his M 180
bar at its top M 180
bag to use for M 180
bag of things for M 180
bad thing can lead M 180
bad thing and not M 180
bad as they all M 180
bar to them and M 178
bar to deal with M 176
bar of his arm M 176
bar he had not M 174
bad thing that our M 174
bad it has not M 174
bar it was not M 172
bar in this and M 172
bar if you can M 172
bag on her way M 172
bad thing and may M 172
bad in all that M 172
bar we can not M 170
bar if they are M 170
bad thing for that M 170
bad no one had M 170
bad if one does M 170
bar of one who M 168
bar in our way M 168
bad the way you M 168
bad no one was M 168
bar on that day M 166
bag to get his M 166
bar to see them M 164
bag so they can M 164
bag so that all M 164
bag is not too M 164
bad to let you M 164
bad to ask for M 164
bad thing you can M 164
bad as men are M 164
bad as being one M 164
bar my way and M 162
bar as you can M 162
bag is not yet M 162
bad thing both for M 162
bad in him and M 162
bang my head and M 160
bad to win them M 160
bad as things got M 160
bad as being dead M 160
bag be not now M 158
bad as that man M 158
bad at math and M 156
bag or two for M 154
bag of red and M 154
bar to his doing M 152
bar to all who M 152
ban of god and M 152
bag to put his M 152
bag of dry cat M 152
bad to beat him M 152
bad of him not M 152
bad as that had M 152
bar of lead and M 150
bag to put her M 150
bad to put you M 150
ban on war and M 148
bag or box that M 148
bag in his arm M 148
bad to get rid M 148
bad as not doing M 148
bar to get our M 146
bar or two with M 146
bar is then put M 146
ban on his own M 146
bad in his head M 146
bad at his age M 146
bad as things get M 146
ban in all its M 144
bag to bring out M 144
bag so that its M 144
bad is this going M 144
bag of them for M 142
bad to her and M 142
bad is bad and M 142
bad as not going M 142
ban on all his M 140
bad to pay for M 140
bad to own one M 140
bad of its own M 140
bad if you use M 140
bad to see that M 139
ban on meat and M 138
bad to see all M 138
bad the air was M 138
bad on his own M 138
bar is one that M 137
bar to get rid M 136
bar in any way M 136
bad the man had M 136
bad of them being M 136
bar of red and M 134
bar is too low M 134
bar in our own M 134
ban of law and M 134
bag as they are M 134
bar to get out M 132
ban on him was M 132
ban on him and M 132
bag is for you M 132
bag is big and M 132
bag if they are M 132
bag as you can M 132
bad to one who M 132
bad to hear that M 132
bad thing she had M 132
bad thing and can M 132
bad of any one M 132
bad as that she M 132
bar it can not M 131
bad thing but that M 131
bag up and put M 130
bad thing and does M 130
bar is all that M 129
bar to cut off M 128
bar is not going M 128
bar at top and M 128
bad of any yet M 128
bad if she has M 128
bar on its own M 126
bar is that you M 126
bar is not yet M 126
bag on its way M 126
bag is not going M 126
bag he did not M 126
bad thing and you M 126
bad so long that M 126
bad by then that M 126
bad as this with M 126
bag in one day M 125
bad as you see M 125
bar so low that M 124
bar of his god M 124
bar is set for M 124
bar by bar with M 124
bar as they are M 124
bag so she can M 124
bad to ask you M 124
bad do not you M 124
bad as this year M 123
ban on any use M 122
ban on any and M 122
bag to put all M 122
bag is too big M 122
bag he had not M 122
bag at his head M 122
bad thing you are M 122
bad thing did not M 122
bad on that day M 122
bad is not all M 122
bad in law for M 122
bad if one had M 122
bad at her job M 122
bar of his long M 120
bang the big bang M 120
bag to get rid M 120
bag of them and M 120
bag at her and M 120
bad to get them M 120
bad thing that one M 120
bad it was out M 119
bad in that area M 119
bar of his seat M 118
bar in each set M 118
bag to try and M 118
bag to his head M 118
bag is then put M 118
bad thing was they M 118
bad the way she M 118
bad or they are M 118
bad as you hear M 118
bar in and out M 117
bad in any one M 117
bag to one end M 116
bag to deal with M 116
bag is cut off M 116
bag at each end M 116
bag as she ran M 116
bad or does not M 116
bad is not for M 116
bad as one had M 116
bar we are not M 114
bar to all his M 114
bar of one year M 114
bar is cut out M 114
bang my head with M 114
bag of her things M 114
bag he had put M 114
bad to this day M 114
bad to let any M 114
bad thing she did M 114
bad so you can M 114
bad or you are M 114
bad in her way M 114
bad if they get M 114
bad as this all M 114
bad as things can M 114
bar to any one M 113
ban on its own M 112
bad to hear you M 112
bad no one has M 112
bad at all now M 112
bang on her head M 111
bar to her own M 110
bar is weak and M 110
ban on them and M 110
bad to any man M 110
bad the war was M 110
bad on this one M 110
bad if that was M 110
bad as things now M 110
bar the ten that M 108
bar of this new M 108
bar in its own M 108
bag the man had M 108
bad thing they did M 108
bad in this one M 108
bad in man and M 108
bad he was too M 108
bad he was doing M 108
bad by his own M 108
bad as any war M 108
bar the way out M 107
bar to our being M 106
ban on all use M 106
bad thing they had M 106
bad the way things M 106
bad if one can M 106
bad as they was M 106
bad as they fear M 106
bar at any one M 104
bag of things and M 104
bad thing was not M 104
bad thing was going M 104
bad so that she M 104
bad of all bad M 104
bar the bar that M 103
bar to bar for M 102
bar is then set M 102
bar is not set M 102
bar at its end M 102
ban on may day M 102
bad we all are M 102
bad to say this M 102
bad the man was M 102
bad on him and M 102
bad in men and M 102
bad in all his M 102
bad if you ask M 102
bad if not for M 102
bad at all with M 102
bad as that day M 102
bar to hear him M 101
bar the way but M 101
bar to all that M 100
bar so that both M 100
bar on each end M 100
bar he had had M 100
bar he and his M 100
bar by day and M 100
bag of meal was M 100
bag as she did M 100
bad to see his M 100
bad to hear him M 100
bad to get him M 100
bad thing they are M 100
bad if she got M 100
bar to pay his M 98
bar of lead was M 98
bar is not far M 98
bar in her own M 98
ban of its own M 98
bag to her with M 98
bag of earth and M 98
bag as she had M 98
bad thing and they M 98
bad or that she M 98
bad or that his M 98
bad as you let M 98
bad as this but M 98
bag in her arm M 97
bar he was one M 96
bag the old man M 96
bad to them and M 96
bad or had not M 96
bad it was she M 96
bad is not going M 96
bad as that dog M 96
bad as she and M 96
bad as his old M 96
bad as any they M 96
bar of lead for M 94
bad to try and M 94
bad if she can M 94
bad as this has M 94
bar to any and M 92
bar so that each M 92
bar of this and M 92
bar at its head M 92
bag in each cup M 92
bad to his own M 92
bad to bear now M 92
bad thing now and M 92
bad or for both M 92
bad in his day M 92
bad in all men M 92
bad if they let M 92
bad by ten things M 92
bad as you try M 92
bad as they got M 92
ban on going out M 91
bar to get two M 90
bar is not that M 90
bar as she was M 90
bag to put our M 90
bag on this one M 90
bag of old and M 90
bad we are and M 90
bad to see this M 90
bad thing that his M 90
bad the day had M 90
bad or not bad M 90
bad on this earth M 90
bad if you try M 90
bad do not mean M 90
bad as you two M 90
bag to his son M 89
bad is all that M 89
bar to all things M 88
bang it with his M 88
ban on all things M 88
bag on its head M 88
bad thing for new M 88
bad on that one M 88
bad is that she M 88
bad in this man M 88
bad if they all M 88
bad if one did M 88
bad at all this M 88
bad as using too M 88
bad as his was M 88
bad as his son M 88
bag on that one M 87
bar it did not M 86
bar he does not M 86
bag to head and M 86
bag in and then M 86
bad if this was M 86
bad at doing this M 86
bar to this and M 84
bar to sit with M 84
bar to bring them M 84
bar to all her M 84
bar the one man M 84
bar by its own M 84
bar at mean low M 84
bag of gear and M 84
bad or bad for M 84
bad as you get M 84
bad as that then M 84
bad as not using M 84
bad as any you M 84
bar in going out M 83
bar to see her M 82
bar of oak with M 82
bar no one had M 82
bar at all but M 82
bar as they had M 82
ban on using any M 82
ban on any law M 82
bag the meat had M 82
bag in her own M 82
bad the cut was M 82
bad it was but M 82
bad he was for M 82
bad he had let M 82
bad as this man M 82
bad as any and M 82
bar of that god M 80
bar as she had M 80
ban on all who M 80
ban of all who M 80
bag the man was M 80
bag on one end M 80
bag on each arm M 80
bag is that you M 80
bad we are going M 80
bad is not easy M 80
bad if you and M 80
bad if this had M 80
bad he was dead M 80
bad he had had M 80
bad at not being M 80
bad as one may M 80
bang in and out M 71
bad as that all M 65
bag of red man M 64
bad at all that M 64
bag of meal that M 63
bar of each set M 61
bad to him that M 58
bar so that one M 57
bad thing and one M 57
bad as being out M 51
bad as was that M 48
bar or two that M 46
bad in this war M 45
bag is all that M 43
bar an old man M 42
ban in this way M 42
bad if any one M 42
ban in his own M 41
bad of him that M 41
bag on her lap D 3020
bag in her lap D 2516
bag on his lap D 1874
bat it was not D 1563
bag in his lap D 1216
bat he did not D 1087
bat it does not D 972
bag of ice and D 924
bath of ice and D 836
bay on his way D 770
bay at each end D 757
bath to get rid D 678
bat we can not D 671
bag of hot air D 665
bag in his car D 626
bay on its way D 570
bay of its own D 566
bath of hot oil D 538
bat he was not D 529
bath of his own D 520
bath of dry ice D 511
bath of oil and D 506
bath in her own D 502
bay on her way D 500
bay at one end D 492
bath in his own D 458
bat it did not D 456
bat it can not D 454
bay so that they D 447
ban on gay and D 436
bag on her bed D 432
bay to its head D 426
bag of one bee D 420
bay on our way D 418
bar of red hot D 418
bay we met with D 400
bag on his bed D 396
bat he does not D 385
bay is low and D 382
bay as they had D 360
bat an eye and D 356
bath of its own D 350
bath so that she D 344
bag of ice for D 344
bath at one end D 338
bath is too hot D 336
ban on gay men D 330
ban on oil and D 328
bay to bay and D 320
bay in all its D 316
bath or hot tub D 304
bag the old fox D 302
bath so that they D 300
bath he had had D 280
bath on his way D 276
bag of pot and D 276
bath is not too D 270
bag of his wig D 262
bay in his own D 258
bat we are not D 258
bay to see how D 251
bath on this day D 246
bag in her car D 246
bath in this way D 242
bath on that day D 240
bag to and fro D 239
bar or rod that D 227
bath if you are D 224
bad as thou art D 222
bath to see his D 220
bay in that year D 219
bag of hay for D 216
bath of mud and D 212
bay to cut off D 208
bay to try and D 204
bath of her own D 202
bat he can not D 199
bath is all that D 196
bath in his way D 190
bay on new year D 182
bath so you can D 176
bat it was too D 175
bad in any art D 174
bath so that you D 170
bath so hot that D 170
bag on her hip D 170
bay in may and D 168
bag of peas and D 168
bad in art and D 168
bay it was not D 167
bath of air and D 166
bag on his hip D 166
bath so that its D 162
bath to bring out D 160
bat it has not D 159
bath on his head D 158
bay to this day D 156
bath by his own D 152
bat he had not D 151
bath of lead and D 146
bat at one end D 145
bat an eye but D 145
bath on her own D 140
bath in that tub D 140
bad he was hit D 140
bay to deal with D 136
bath or oil bath D 136
bad as that guy D 136
bay so that you D 132
bath on his own D 132
bar to and fro D 130
bag at his hip D 130
bath in his tub D 128
bay on that day D 126
bag to his car D 126
bay is cut off D 124
bath he did not D 124
bay at this end D 122
bay at its head D 122
bath he saw that D 122
bath of hot air D 120
bay in this area D 118
bath to see him D 118
bath is too low D 118
bag to her car D 118
bay to get them D 116
bat is dun with D 116
ban on all oil D 116
bad ear can not D 114
bay on all our D 112
bay is now being D 112
bath or tub bath D 112
bath is too weak D 112
bag of ice was D 112
bay so that its D 110
bay is not far D 110
bath to his son D 110
bath to his bed D 110
bay in his den D 108
bat it with his D 108
bad ear for our D 108
bath in our own D 106
bar of mud and D 106
bay so that she D 104
bath in red ink D 104
bar in his den D 104
bay is long and D 102
bath of hot fat D 102
bath as she had D 102
bad as this guy D 102
bang to and fro D 101
bat in his own D 100
ban on sex with D 100
bay to see his D 98
bath of sun and D 98
bay of his own D 96
bar of ice was D 96
bay to see that D 95
bay in our way D 94
bath to see that D 93
bat if they are D 93
bay to see him D 92
bay he let out D 92
bath on its way D 92
bath if you can D 92
bar or rod for D 92
bath to ease her D 90
bath in any old D 90
bay as this with D 88
bay as far east D 88
bath as they are D 88
bat of his own D 88
bag in her mug D 88
bad thing for art D 88
bay on its own D 86
bath be not too D 86
bath at each end D 86
bat at his head D 86
bath in that year D 84
bat we did not D 84
bat as they are D 84
bay the dead lie D 82
ban on ads for D 82
bag of ice had D 82
bay by his own D 80
bay at any one D 80
bath to try and D 80
bath so that all D 80
bath in all its D 80
bath if they are D 80
bag to her lap D 80
bag in his hip D 80
bath at for one D 59
bag of ice that D 56
bay on its east D 40
bat he has not D 40
