pit can not hope M 3088
pit that had been M 2926
pit that they made M 816
pit that has been M 758
pit not far from M 490
pit had not been M 462
pit has not been M 350
pit was cut into M 346
pit and sat down M 308
pit that goes down M 233
pit with one hand M 218
pit that had once M 172
pit that had held M 170
pit was too deep M 166
pit has now been M 156
pit that was used M 152
pit and they were M 150
pit and had been M 150
pit that may have M 138
pit was put down M 123
pit was not deep M 122
pit than any into M 120
pit and you will M 118
pit that they have M 116
pit and his life M 110
pit that was once M 109
pit was not more M 106
pit and see what M 100
pit they had been M 92
pit not far away M 92
pit and cut into M 90
pit and then from M 88
pit was not very M 86
pit they had made M 84
pit she had been M 84
pit and lay there M 83
pit for two years M 82
pit was ten feet M 80
pit and may have M 80
pig and bar iron D 10275
pie and ice cream D 7781
pie with ice cream D 3092
pig that had been D 2032
pit was dug into D 1072
pig that has been D 1062
pin that had been D 876
pin with his teeth D 778
pie pan and bake D 773
pin his ears back D 740
pie that had been D 652
pin that has been D 582
pie that has been D 472
pig does not have D 436
pin and nut from D 428
pie she had made D 415
pin had not been D 366
pin and its bearing D 307
pig and red deer D 306
pin she was wearing D 296
pig has not been D 282
pig that had died D 238
pig with two heads D 234
pie with his fork D 226
pit and then sold D 215
pig had not been D 206
pin for his life D 204
pig does not know D 194
pie was cut into D 194
pig does not want D 192
pith was cut into D 188
pit was dug down D 186
pig and dog were D 186
pin has not been D 180
pie pan and trim D 175
pie with her fork D 172
pin does not have D 164
pig did not know D 160
pie pan with half D 160
pie had not been D 160
pie and two cups D 156
pig who had been D 150
pig with its tail D 148
pin does not come D 144
pin with one hand D 143
pig with his tail D 140
pig for two days D 140
pit was dug from D 138
pig did not have D 138
pie tin and bake D 136
pig that has died D 134
pin all our faith D 133
pip was put into D 128
pin and cut into D 126
pie with one hand D 126
pie does not grow D 126
pie and hot dogs D 126
pit that was sunk D 124
pig that had just D 124
pin with her teeth D 123
pin and pin hole D 122
pig for not making D 120
pie than any other D 120
pip and kip frog D 118
pin and nut lock D 118
pig who has been D 116
pig had got into D 116
pig and his busy D 116
pip was led away D 114
pin that one down D 114
pin for her hair D 114
pig and you will D 114
pin her ears back D 112
pie she had just D 110
pin does not move D 106
pig did not seem D 106
pig and any other D 104
pie she was making D 104
pie man has just D 104
pie does not have D 104
pin and you will D 102
pig with one hand D 101
pig was got back D 100
pig that has just D 100
pie that was left D 100
pie and sat down D 100
pin does not fall D 98
pig does not take D 98
pig and his deer D 98
pie pan with your D 98
pin them all down D 97
pig with six legs D 96
pie was all gone D 96
pig let fly four D 94
pie she was baking D 94
pin with her name D 88
pin was not only D 88
pin that had held D 88
pig did not wait D 88
pie has not been D 88
pit was being sunk D 86
pie who had been D 86
pin that was used D 84
pin does not make D 84
pig with its legs D 84
pig was cut into D 84
pig did not want D 84
pig did not come D 84
pig can not vote D 84
pie she had been D 84
pig with her face D 82
pig has long been D 82
pig did not take D 82
pig and ran away D 82
pin for his wife D 80
pie she has just D 80
pin with his left D 56
pig and rat heart D 55
pig did not like D 54
pin this guy down D 47
pig was not there D 45
pin you are wearing D 44
pig and rat skin D 44
pig and rat were D 43
pit was dug deep D 42
