pity you . " M 5632
pity him . " M 3988
pity them . " M 3290
pick one . " M 3188
pick them . " M 2390
pity her . " M 2364
pity you ! " M 1450
pick out . " M 1048
pity him ! " M 960
pity her ! " M 934
pick you . " M 838
pick them ? " M 746
pick you ? " M 694
pick him ? " M 694
pity him ? " M 622
pity her ? " M 546
pity them ! " M 516
pick him . " M 504
pity them ? " M 454
pick one ? " M 452
pick one ! " M 310
pity you ? " M 304
pick out ? " M 251
pick her ? " M 248
pick them ! " M 242
pick you ! " M 198
pick her . " M 164
pick two . " M 144
pick that ? " M 142
pity now . " M 134
pity too . " M 100
pick off . " M 90
