pictures for him . M 1992
pictures for them . M 1659
pictures with him . M 1576
pictures for you . M 1520
pictures with them . M 1400
pictures and things . M 862
pictures for her . M 770
pictures with her . M 724
pictures and all . M 705
pictures had hung . M 594
pictures with you . M 494
pictures are hung . M 448
pictures are not . M 428
pictures that way . M 337
pictures each year . M 335
pictures that day . M 329
pictures they see . M 316
pictures with you ? M 293
pictures all day . M 290
pictures for you ? M 286
pictures you see . M 270
pictures this year . M 250
pictures can not . M 224
pictured for them . M 180
pictures are few . M 178
pictures are bad . M 178
pictures they saw . M 177
pictures this way . M 172
pictures are doing . M 166
pictures are real . M 152
pictured for him . M 152
pictures you can . M 145
pictures you saw . M 133
pictures that year . M 117
pictures did not . M 114
pictured with him . M 112
pictures they are . M 108
pictures with ease . M 102
pictured with wings . M 98
pictures each day . M 94
pictures are they ? M 90
pictures for each . M 88
pictured for you . M 82
