must die . " M 34859
must say . " M 18352
must not . " M 17130
must not ! " M 10262
must die ! " M 8842
must you ? " M 6416
much now . " M 5829
must pay . " M 5040
must end . " M 4538
must see . " M 4252
must act . " M 4150
must try . " M 4040
much use . " M 3878
must say ! " M 3636
must read . " M 3097
must win . " M 2774
must run . " M 2680
must you . " M 2554
much joy . " M 1912
much yet . " M 1898
must fly . " M 1796
much sun . " M 1674
must hear . " M 1626
must die ? " M 1528
must bear . " M 1384
much then . " M 1322
must lie . " M 1200
must ask . " M 1052
must lead . " M 1006
much now ? " M 968
much then ? " M 910
must read ! " M 896
much meat . " M 890
must fly ! " M 878
much out . " M 838
must run ! " M 810
much fear . " M 786
much for ? " M 775
must deal . " M 754
must bring . " M 754
much too . " M 739
much heat . " M 734
must pay ! " M 726
must buy . " M 684
must not ? " M 682
must bow . " M 678
must act ! " M 662
must see ! " M 652
must hang ! " M 644
must win ! " M 608
must too . " M 594
much for . " M 574
must hang . " M 498
must end ! " M 446
much ease . " M 446
must own . " M 438
much that . " M 420
must use . " M 412
much air . " M 410
must get . " M 394
must try ! " M 392
must mean . " M 386
much death . " M 374
much wit . " M 368
must sit . " M 362
much sun ? " M 352
much joy ! " M 334
much doing . " M 301
much law . " M 298
much wet . " M 268
must add . " M 266
must they ? " M 262
must fit . " M 260
much read . " M 250
must fear . " M 246
much man . " M 242
must now . " M 238
must cry . " M 230
much with . " M 228
must lead ! " M 220
must you ! " M 214
must she ? " M 213
must reap . " M 210
much yet ? " M 202
much earth . " M 194
much dead . " M 193
must pay ? " M 186
much bad . " M 184
much pay . " M 180
much now ! " M 180
much lead . " M 166
much war . " M 160
much use ? " M 160
must aim . " M 156
much sin . " M 148
must arm . " M 146
much meat ? " M 144
much ill . " M 142
much heat ? " M 140
must heal . " M 138
much off . " M 136
much joy ? " M 136
much set . " M 132
much death ? " M 130
must say ? " M 126
much singing . " M 124
must deal ? " M 122
much aid . " M 120
must hear ! " M 116
much red . " M 116
much pay ? " M 112
much cry . " M 110
much new . " M 109
must wed . " M 108
must out . " M 108
must sin . " M 106
must she . " M 104
much sun ! " M 102
much meat ! " M 98
must err . " M 92
much too ! " M 91
must end ? " M 88
must earn . " M 88
much wit ! " M 88
must cling . " M 84
must beg . " M 82
must ask ? " M 82
much too ? " M 40
