vary with time . M 33758
vary with depth . M 2758
vary too much . M 2098
vain for help . M 1776
vary with time ? M 1482
vast and deep . M 1142
vain and idle . M 1118
vast deal more . M 816
vary with size . M 760
vain for years . M 570
vast and wide . M 516
vain for work . M 508
vast and rich . M 498
vary with load . M 488
vary that much . M 418
vast new land . M 400
vast and dark . M 362
vain for food . M 358
vain for peace . M 350
vain with more . M 316
vary each time . M 294
vain and void . M 286
vain for rest . M 264
vary with depth ? M 240
vary his ideas . M 238
vary each month . M 236
vast and clear . M 230
vary this rule . M 210
vast and high . M 206
vast new moon . M 204
vast new areas . M 204
vast and free . M 190
vain for more . M 190
vary with flow . M 188
vast and bare . M 184
vast and great . M 178
vary with angle . M 174
vast and open . M 170
vast and cold . M 148
vary with need . M 142
vain any more . M 142
vast and wild . M 140
vast and blue . M 138
vain for jobs . M 138
vary with site . M 134
vary with risk . M 132
vain than ever . M 128
vast new wealth . M 124
vary with these . M 120
vain this time . M 120
vary its form . M 118
vast dim cave . M 114
vary with length . M 112
vary with range . M 110
vain for ages ? M 108
vary its meaning . M 106
vary with type . M 104
vain for ever . M 102
vain and lost . M 102
vain for pity . M 92
vain and lazy . M 88
vain for land . M 86
vary each week . M 84
vain and wrong . M 84
vain our toil . M 80
