vast area with a M 926
vast sum for a M 400
vast area and a M 390
vain man and a M 354
vain and that i M 302
vain man with a M 254
vain and that a M 222
vast area was a M 218
vast deal for a M 192
vary this with a M 178
vast and with a M 176
vain but that i M 176
vain for her i M 174
vain and weak a M 152
vast area for a M 146
vary and are a M 126
vary and that a M 120
vast area has a M 116
vast and has a M 96
vast deal that i M 94
vain and not a M 94
vast man with a M 86
vast than any i M 84
vary them with a M 84
vain but for a M 84
vain and had a M 84
vast one and i M 80
vane was not a D 230
vain for him th D 142
vase that has a D 118
vase that was a D 104
