value of all the M 153134
value of each of M 58969
value of one of M 33148
valid as long as M 27098
value is set to M 24851
value of all of M 21322
value in that it M 18946
value of his or M 18218
value of any of M 17944
value of one or M 15770
value in and of M 15652
value is not the M 15638
value to him in M 15421
value is that it M 15241
value of this is M 14857
value so that the M 14523
value to that of M 14037
value is due to M 13674
value is that of M 11983
value at end of M 11678
value as long as M 11259
value of both the M 11244
valid so long as M 10967
value of for the M 10834
value as that of M 10794
value is not in M 10762
value of and the M 10124
value to him of M 10059
value the sum of M 9929
value to them in M 9557
value is one of M 9475
value of using the M 9110
value to all the M 8977
value to each of M 8321
valid as far as M 7992
value as far as M 7872
value of can be M 7548
value of one if M 7325
value so long as M 7254
value to you in M 7229
value is not to M 7109
value as low as M 7044
value to them of M 6970
value to both the M 6774
value in each of M 6687
value is that the M 6676
value is not an M 6610
value by using the M 6387
value so far as M 6352
value is for the M 5844
valid so far as M 5765
value of each is M 5258
value to him as M 5104
value at all in M 4988
value in all the M 4936
value to all of M 4822
value so that it M 4639
value as one of M 4629
value in use of M 4568
value in one of M 4517
value of two or M 4506
value to one of M 4313
value is not so M 4249
value to them as M 4129
value is set by M 4050
valid as that of M 4046
value or set of M 3925
value of that of M 3834
value to use in M 3785
value of that is M 3772
value in that the M 3756
value in use is M 3640
value of may be M 3638
value of being in M 3606
value is set at M 3443
value to you as M 3376
value of doing so M 3376
value at all to M 3352
value in any of M 3276
value of this or M 3268
value of things is M 3242
value of things in M 3216
value as for the M 3186
value is not as M 3182
value of one is M 3094
value he set on M 3063
value is set on M 2990
value in both the M 2938
value is out of M 2904
value to any of M 2884
value of one to M 2882
varying as they do M 2877
value by way of M 2829
value it may be M 2740
value to you of M 2702
value to get the M 2662
value it has in M 2640
value as may be M 2629
value of this in M 2613
value in all of M 2577
value of any thing M 2466
value of one in M 2456
value the use of M 2449
value is put on M 2337
value of this to M 2252
value of each in M 2234
value to set the M 2216
value of them is M 2196
valid to use the M 2192
value on each of M 2166
value to him or M 2096
value is going to M 2070
value of going to M 2048
value of them in M 2032
valid in all the M 2026
value is then the M 2024
value we set on M 2020
value to pay the M 1998
value to him if M 1972
value in doing so M 1949
value it can be M 1940
value to see if M 1889
value to him is M 1879
value of sum is M 1862
value of being the M 1860
value it had at M 1848
value if you do M 1803
value or use of M 1800
value in using the M 1800
value is set in M 1739
value is and the M 1722
value as being the M 1719
value is not of M 1685
value in one or M 1674
vague as that of M 1652
value on top of M 1636
value to add to M 1599
value of man as M 1598
value of being an M 1592
value of this as M 1587
value he put on M 1571
value of one thing M 1550
value the idea of M 1525
value of use of M 1516
value to one or M 1511
value in use to M 1505
value to her in M 1504
value of then the M 1504
value is easy to M 1498
value it had in M 1486
value to you if M 1476
value of both of M 1474
valid is that the M 1464
value we put on M 1455
value on all the M 1448
value of things by M 1436
value it for the M 1392
value or mean of M 1384
value is not at M 1383
valid in that it M 1380
value as can be M 1375
vague it may be M 1374
value to use as M 1361
value of that in M 1351
value of them to M 1348
value at all as M 1334
value if they do M 1328
value of each to M 1312
valid or not is M 1310
value of with the M 1286
value it has to M 1282
value to you is M 1278
value of man in M 1270
value at each of M 1259
value by use of M 1257
value to her of M 1251
value is thus the M 1236
value of using an M 1234
value or that the M 1224
varying the area of M 1220
value of both is M 1212
valid it may be M 1200
value to say to M 1172
valid in both the M 1168
value is near the M 1163
value to him at M 1156
value so that we M 1156
value to try to M 1145
value if one is M 1142
value is apt to M 1132
value to them is M 1111
value to man of M 1097
value of man is M 1084
value on one of M 1067
valid in law as M 1063
value at all on M 1050
value as that in M 1032
value to put on M 1030
value to you or M 1024
value of real or M 1018
vague in that it M 1016
value of two of M 1012
value of things as M 1004
value to his or M 1001
valid in and of M 992
value to man in M 989
value is that in M 989
value or that it M 986
value in use or M 982
vague as not to M 974
value of things to M 958
value or for the M 952
value of thus the M 950
value of one at M 950
value if this is M 949
value in his or M 943
valid in that the M 942
value to them at M 940
value to him to M 928
value of all he M 916
value on any of M 906
value it has at M 904
value of and is M 902
valid if all the M 900
value to you at M 896
value of each as M 889
value to them to M 882
value is that he M 875
value at all is M 874
value of each thing M 870
valid or that the M 870
value at all if M 866
value of doing the M 860
value is all the M 858
value of all is M 856
value of aid to M 852
valid if they do M 838
value to man as M 836
value of being at M 834
value of and so M 833
value as they do M 829
value it has as M 826
varying the use of M 818
value is that we M 804
value or use to M 800
value or use the M 797
value it has is M 795
value to you to M 772
value is set as M 765
value on both the M 762
value of ten or M 762
value to them if M 760
value it all the M 758
value of let us M 752
value of things we M 738
value to use is M 735
value to them or M 734
value of this at M 733
value by all the M 730
value of them as M 728
value as not to M 726
value as does the M 726
value or may be M 723
value of age is M 722
value to man is M 716
value of being on M 708
value of law in M 706
value is yet to M 706
value the things of M 699
value of that thing M 692
value or can be M 691
value at all it M 690
value of all my M 684
value to both of M 679
value of heat of M 678
value of all or M 678
value of two to M 676
value to them by M 675
value to her as M 674
value of them at M 670
value of any or M 666
value at all the M 662
valid in each of M 656
value is low in M 644
value of but the M 642
value is put in M 636
value by that of M 636
value of this by M 626
value of that to M 622
valid in law to M 614
vague so that the M 614
varying the mix of M 612
value to say on M 612
value on them as M 612
vague as far as M 610
varying the way in M 608
valid in all of M 604
value if all the M 595
value to men of M 592
value to set on M 589
value in use as M 577
value by using an M 576
value in use in M 573
value to see the M 569
value is read in M 560
value we are to M 552
valid is that it M 552
value of for an M 550
value so that he M 548
value as set by M 548
value at death of M 545
value of six or M 540
value in both of M 540
value as all the M 540
value to men in M 538
value is one or M 534
valid so that the M 534
value or one of M 531
value of this so M 524
value on one or M 520
value of doing it M 516
value is this is M 516
value to use the M 514
value we mean the M 512
value is one thing M 512
valid or not in M 512
value on his or M 511
value of sum to M 510
value of law as M 509
value on all of M 507
value of each at M 506
value of and in M 506
value of that the M 504
value of and to M 504
value at one of M 504
value of meat is M 500
valid if one of M 498
value the mean of M 497
value to that in M 493
value as did the M 493
value or sum of M 490
value or with the M 487
value to lie in M 483
value in going to M 482
value as are the M 481
value to one in M 480
value on any thing M 480
value is due in M 480
value to bring to M 478
valid in law or M 476
value of yes or M 474
value of one as M 467
value of and it M 466
value as being in M 459
value of one on M 456
varying the bias on M 454
value is near to M 452
value if not in M 450
value of this thing M 446
value or not is M 444
value to put in M 441
value of each by M 441
value of and we M 438
value is set up M 438
value so that no M 436
value is now in M 436
value is now the M 432
valid in any of M 432
value of sum of M 428
value as with the M 426
vague as was the M 419
valid as any of M 416
vague in all of M 412
valid by all the M 410
value of due to M 406
value to him on M 404
value by any of M 401
value so that an M 400
value by one of M 400
value as near as M 400
valid as for the M 400
value if any of M 399
value of men of M 398
value of war as M 397
value to bring the M 394
value of meat as M 394
value is this to M 394
value to use if M 392
value of two is M 392
value is that at M 391
value of any in M 388
value of men as M 386
value of men in M 384
vague an idea of M 384
value or that of M 382
value of all we M 382
value as that at M 382
value as any of M 382
value of that he M 380
vague so that it M 380
value of law is M 378
valid is not the M 376
value is far in M 375
value of all in M 372
vague to say the M 370
varying the set of M 366
valid or that it M 366
vague as long as M 366
value to use to M 365
value if one of M 365
value of things of M 364
value is that if M 364
value the act of M 361
value of are the M 360
value in this is M 360
value is one in M 359
value of ten to M 354
value of both in M 352
value in and by M 352
value of her or M 350
value or use in M 349
value to this or M 348
value of then we M 348
value of each on M 348
value if that is M 348
value to fit the M 347
value or who in M 346
value of using it M 346
value of being as M 346
value of and by M 346
value at one or M 346
value so that in M 344
value of that at M 344
value so that if M 343
value is read on M 343
value of has the M 342
value to any thing M 338
value to aid in M 336
value by being so M 336
value of things or M 334
value we get the M 332
value of one by M 332
value to him by M 326
value is but the M 326
value in that he M 326
value is read as M 325
value of new or M 324
value of and of M 324
value in doing the M 324
value in aid of M 324
value is not on M 322
value is for an M 322
value in this or M 322
value to two or M 320
vague as this is M 320
value of myth is M 318
value of men is M 318
value is both the M 318
value in being the M 318
value it and to M 317
value as real as M 316
value by each of M 314
value of and an M 312
varying the idea of M 310
value it was to M 310
valid by way of M 308
value as was the M 307
vague on how to M 306
value to bear the M 305
value as this is M 305
value is owing to M 304
value in two or M 304
value to man or M 302
value of both to M 302
value it has on M 302
value at all or M 302
vague on how the M 302
value of max is M 300
value is put at M 296
value he has in M 296
value the set of M 295
valid of things in M 294
valid if one is M 294
value of this the M 292
varying the way the M 290
value to them on M 290
value of them by M 290
value we see in M 288
value he saw in M 286
vague to lead to M 286
value on that thing M 284
value of aid in M 284
value we use the M 283
value of heat in M 282
value is read by M 282
value is not by M 282
valid to see the M 282
value to set up M 281
value he was to M 281
value is low or M 278
value it had to M 277
value is with the M 276
value is that to M 274
value is mean of M 272
value in them as M 272
value by one or M 272
value or heat of M 270
value in easing the M 270
value of meat in M 268
value of lying to M 268
value in that we M 268
value in doing it M 268
value be put on M 267
value it had on M 266
value we bring to M 265
value to get an M 264
value is that by M 263
value of pet in M 262
value in use by M 262
value of any on M 261
value on them in M 260
value at both the M 260
value to god or M 258
value in that of M 257
varying the age of M 256
value of things at M 256
value of man to M 254
valid by using the M 254
value he had in M 253
value the things we M 252
valid to end of M 250
value on that of M 249
value is one to M 248
vague so far as M 248
value if not the M 247
value of myth in M 246
value it had as M 246
value is that is M 246
valid it had to M 246
vague in that the M 246
value of has to M 244
value of going on M 243
value to that at M 242
value in them is M 242
valid is that of M 242
valid an act as M 242
value we add to M 240
value of bias is M 240
value of aid is M 240
value to all in M 238
valid if all of M 238
vague thing that we M 238
value to act as M 236
value of this we M 236
valid the use of M 236
valid or can be M 236
valid it can be M 236
value to her is M 234
varying so that the M 233
value of nil is M 232
value of men so M 232
valid is not to M 232
value of war in M 230
value to god is M 228
value at any of M 228
value at all at M 228
value it and the M 227
value to her or M 226
valid to try to M 226
value to two of M 225
value if all of M 225
value to things of M 224
valid or not by M 224
value of use the M 222
value is one if M 220
value to you on M 218
value of lead in M 218
value it was in M 218
value is thus an M 218
value if one or M 218
value so that at M 216
value is that an M 216
value in war of M 216
valid an act of M 216
value of six to M 214
value of air is M 214
value by using it M 214
value on being in M 212
value of him to M 212
value of god to M 212
value is going up M 212
value to all he M 208
value of men by M 208
value of and at M 206
value is read at M 206
value if for no M 206
value we may be M 205
value he had to M 205
value on things of M 204
value of that on M 204
value of and if M 204
value in use at M 204
value as you do M 203
value of that as M 202
value in man is M 202
value at and the M 202
valid if both the M 202
value to you by M 201
value to buy the M 200
value to god of M 198
value of war is M 198
value in using it M 198
value at all of M 198
value to that on M 196
valid in one of M 196
value in them to M 194
value in air is M 194
value to bring it M 192
valid as can be M 192
value of being of M 190
valid if not in M 190
varying the bias of M 188
value to say in M 188
value of fear as M 188
value of each be M 188
value as his or M 188
valid to ask if M 188
value on one thing M 186
value of thus we M 186
value at top of M 186
value to let the M 185
value in this as M 185
value me for my M 184
value is all in M 184
value on death of M 182
value of than the M 182
value of aid by M 182
value to put the M 181
varying it with the M 180
varying at all in M 180
value of with an M 180
value of them if M 180
value of heat is M 180
value of death in M 180
value of but in M 180
value in using an M 180
value by going to M 180
value by any thing M 180
varying in one or M 179
value of two in M 178
value of things on M 178
value of him by M 178
value by doing the M 178
valid by law of M 178
value we use in M 177
value is cut in M 176
valid of all the M 176
valid if one or M 176
valid if any of M 176
value is then to M 174
value is then in M 174
valid as are the M 174
value to this is M 172
value of use in M 172
value to pay as M 171
value as has the M 171
value to mean the M 170
value of its by M 170
value of men at M 168
valid by both the M 168
value to her at M 167
value it not as M 167
value or end of M 166
value is put to M 166
value is key to M 166
value is for us M 166
value is and it M 166
value as each of M 166
valid to use an M 166
valid or not as M 166
value as being an M 165
value of that we M 164
value of song in M 164
value of lead is M 164
value he has as M 164
value of man or M 162
value is set so M 162
value or how to M 161
value as due to M 161
varying in both the M 160
value is set or M 160
value to add or M 158
value so that by M 158
value of this ring M 158
value is odd or M 158
value in year of M 158
value as that on M 157
value the way in M 156
value of use or M 156
value is now so M 156
vague so long as M 156
value he may be M 155
value of year of M 154
value it was at M 154
value of this on M 153
value as going to M 153
value we use to M 152
value to man on M 152
value to him he M 152
value or end in M 152
value of hue in M 152
value of air in M 152
value is but an M 152
value in them at M 152
value we get is M 151
value or for an M 151
value it has the M 151
value or using the M 150
value of now the M 150
value of near the M 150
value in being an M 150
value he has to M 150
value as for an M 150
valid to ask the M 150
value to fix the M 149
value or not to M 149
value to her to M 148
value to each in M 148
value or are of M 148
value of one the M 148
value is net of M 148
valid at all in M 148
value to her if M 146
value or not at M 146
value of but it M 146
value at death or M 146
value so low as M 145
value of being so M 145
value to all my M 144
value of now we M 144
value is off by M 144
value is low to M 144
valid at all it M 144
value the way he M 142
value the aid of M 142
value of god is M 142
value of being is M 142
value of age in M 142
value is that on M 142
value as they go M 142
value to ten or M 140
value of top is M 140
value of them on M 140
value of out of M 140
value is read or M 140
value in any thing M 140
value as you go M 140
valid it has to M 140
value to set in M 138
value to god as M 138
value or that we M 138
value or out of M 138
value or mean is M 138
value of that or M 138
value of not to M 138
value of death is M 138
value by two to M 138
value at death is M 138
valid by any of M 138
value of head is M 136
value of death as M 136
value of area is M 136
valid to use it M 136
value of heat as M 135
value to ask the M 134
value to all it M 134
value of who we M 134
value of things be M 134
value of all to M 134
value in two of M 134
value as being by M 134
value or any of M 132
value on them is M 132
value of god in M 132
value is how the M 132
value in use it M 132
valid the idea of M 132
valid on all the M 132
value to aid the M 131
value in that if M 131
value in him is M 131
varying in all the M 130
value to using the M 130
value to god in M 130
value of use by M 130
value of both as M 130
value in that an M 130
value in and the M 130
value by all of M 130
value as being of M 130
vague as that no M 130
value to get to M 129
vague to use as M 129
value or with an M 128
value of use to M 128
value of then it M 128
value is and is M 128
value by being the M 128
valid to use in M 128
valid the act of M 128
valid if this is M 128
value or that he M 127
value to things is M 126
value to things in M 126
value to things by M 126
value to bear in M 126
value of and as M 126
value it was of M 126
value it for my M 126
value it was the M 125
value it has by M 125
value be set on M 125
value to use it M 124
value so far is M 124
value or use it M 124
value or not of M 124
value or aim is M 124
value on being the M 124
value of singing in M 124
value of area of M 124
value is two to M 124
value is that no M 124
value if they be M 124
value by both the M 124
value be set to M 124
value as that to M 124
value to this in M 123
value it now is M 123
value as lying in M 123
value to that he M 122
value to six or M 122
value to read the M 122
value to add the M 122
value the things he M 122
value of log is M 122
value is now to M 122
value is any of M 122
value in use on M 122
value or use is M 120
value of sin is M 120
value of red is M 120
value of man by M 120
value of dim in M 120
value of and on M 120
value if she is M 120
valid of things as M 120
valid in law in M 120
vague an idea to M 120
value to being an M 118
value of aid as M 118
value is then an M 118
value is real or M 118
value is now at M 118
valid so that it M 118
valid on both the M 118
valid if you do M 118
valid at both the M 118
vague or may be M 118
varying so that it M 117
value the way it M 117
value in being in M 117
varying the age at M 116
value or does it M 116
value on this as M 116
value is two or M 116
value is low the M 116
value in that by M 116
value in and to M 116
valid if each of M 116
valid as all the M 116
vague an idea as M 116
value the joy of M 115
value to and the M 114
value of song as M 114
value of her ring M 114
value of each or M 114
value it has no M 114
value is thus to M 114
value is thus in M 114
value at this is M 114
vague as yet to M 114
value to him the M 113
value to things to M 112
value of path is M 112
value of how the M 112
value of age as M 112
value by two or M 112
vague as that in M 112
value of this be M 111
value as both an M 111
value we are in M 110
value to set it M 110
value of use is M 110
value it had the M 110
value by doing so M 110
value as near to M 110
value as big as M 110
valid on any of M 110
valid at any of M 110
valid at all the M 110
valid as was the M 110
vague as are the M 110
value to say or M 108
value the day the M 108
value of things he M 108
value is low at M 108
value is low as M 108
value is let us M 108
value in that in M 108
value to bear on M 107
value be for the M 107
value to lead to M 106
value on them to M 106
value of two if M 106
value of doing an M 106
value is off the M 106
value is for me M 106
value is and in M 106
value if both the M 106
value of any so M 105
value we add the M 104
value of war to M 104
value of age to M 104
value if all or M 104
vague to him as M 104
vague to all of M 104
vague as may be M 104
varying by one or M 103
value to men as M 103
value of singing as M 103
varying as are the M 102
value or set it M 102
value of let the M 102
value of law to M 102
value of all it M 102
value is using the M 102
valid or may be M 102
varying or not in M 100
value we had to M 100
value of both by M 100
value is nil or M 100
value as read by M 100
vague or that the M 100
value we can be M 99
value or are in M 99
value to them it M 98
value to him so M 98
value on him as M 98
value of ten of M 98
value of day is M 98
value it and be M 98
value is that as M 98
value is can be M 98
value as read on M 98
valid in both of M 98
valid at all is M 98
value of myth as M 97
value as one in M 97
value to one thing M 96
value so far in M 96
value or that is M 96
value or one or M 96
value on earth is M 96
value of joy in M 96
value of head at M 96
value is now an M 96
value at two or M 96
value at all by M 96
value as all of M 96
vague on how it M 96
vague on how he M 96
value or add to M 95
value of any by M 95
valid to them as M 95
value to them he M 94
value to end the M 94
value or way of M 94
value of this he M 94
value of that ring M 94
value of set of M 94
value is for it M 94
value be due to M 94
valid or not to M 94
vague as can be M 94
value we use is M 93
value it may or M 93
varying the heat of M 92
varying in each of M 92
value the area of M 92
value or area of M 92
value of end of M 92
value of eating is M 92
value as that is M 92
valid or not at M 92
valid in one is M 92
vague to fix the M 92
vague to act as M 92
value to both in M 91
value of any no M 91
varying as far as M 90
value we saw in M 90
value we get by M 90
value so that on M 90
value on them or M 90
value of six is M 90
value is all of M 90
valid is not at M 90
valid in one or M 90
valid as one of M 90
varying in age by M 88
value on them at M 88
value of thus in M 88
value of age at M 88
value me and my M 88
value as that no M 88
valid to read the M 88
valid to him as M 88
valid is one of M 88
valid in law if M 88
value if put to M 87
value to get it M 86
value or are at M 86
value of was the M 86
value of how we M 86
value of each the M 86
value is both an M 86
value in each is M 86
value if not of M 86
value at can be M 86
valid is not an M 86
value of air as M 85
value to real or M 84
value to men is M 84
value on going to M 84
value of thus it M 84
value of that it M 84
value of now in M 84
value of but if M 84
value no man so M 84
value is thus no M 84
value in men is M 84
value do not in M 84
valid to that of M 84
vague to use in M 84
vague so that we M 84
value the things on M 83
varying it may be M 82
value to and to M 82
value to aid us M 82
value is and if M 82
value in use the M 82
value in them in M 82
value in being at M 82
value in air of M 82
value as one or M 82
valid at law or M 82
varying the head of M 80
value to hear the M 80
value of meat or M 80
value it with an M 80
value it set on M 80
value in for the M 80
value as both the M 80
vague is that the M 80
value the law of M 71
value the end of M 62
value of things so M 60
value the way the M 53
value the way of M 52
value is going on M 51
value is and so M 51
value or not in M 49
value the one or M 47
value in man as M 46
value of that by M 45
value it not at M 45
value or due to M 44
valid at law as M 44
value of that so M 43
value of his in M 43
value to them so M 41
value in being on M 41
value the heat of M 40
value or you do M 40
value is his or M 40
valve so that the D 6280
value of art in D 3884
value of art is D 3616
valve is set to D 2941
value of art as D 2652
valve so that it D 2355
valve on top of D 2168
value of art to D 1534
vapor in air is D 1312
value of oil in D 1192
valve is that it D 1160
valve is one of D 1144
valve is set at D 1124
vapor in air at D 1026
vault of all the D 984
valve is that the D 972
value the art of D 795
vault of one of D 764
vapor or gas is D 746
valve to let the D 734
value of fat is D 698
vapor or gas in D 676
value of gas in D 676
vapor is one of D 642
valve in one of D 638
valve is due to D 618
valve is out of D 604
value of gas is D 602
value of ore in D 575
vapor so that the D 559
valve is not in D 536
value of oil is D 534
value of oil as D 525
vapor to that of D 519
valve on one of D 513
valve of one of D 510
value of oil or D 506
valve is not so D 502
value of sex in D 500
valve is set in D 496
valve is put in D 483
valve in that it D 455
value in art is D 437
valve is for the D 426
value of fat in D 424
valve to bring the D 400
valve is that of D 400
valor to act in D 396
vault so that the D 388
valet to bring the D 381
value of hay is D 360
valve to see if D 359
vapor is due to D 345
valve ring and the D 344
vapor so that it D 342
valve is set so D 341
valve as far as D 341
vanes so that the D 332
value as per the D 328
vault is one of D 324
vapor by using the D 323
valve as long as D 320
vault in one of D 318
valve is not the D 310
vapor in air to D 308
value to par at D 306
value of oil to D 306
value of gas at D 304
value of gas as D 297
value of art or D 292
vapor the air is D 290
valve so that no D 290
valve to act as D 288
vault as that of D 284
valve in each of D 284
valve to that of D 282
value of urea in D 280
valve is not to D 279
vault is that of D 276
value of peat as D 276
valve is not as D 270
value of sex as D 264
valet of one of D 264
value of fat as D 263
value of peat is D 256
valve is one in D 254
value of rho is D 254
vases on top of D 250
valve in that the D 250
value of sex is D 250
valve by way of D 249
value of oil of D 244
valuing the use of D 242
valve is near the D 240
value of this ms D 238
valve is not at D 228
vapor as long as D 226
value in art of D 226
valor of all the D 226
value of phi is D 224
valve is apt to D 222
valve is now in D 218
vapor or gas to D 217
vault so that it D 206
valve is set by D 206
value as art is D 206
value of art by D 200
valet to one of D 200
value is fed to D 196
vapor is not the D 194
vapor in air in D 194
valve at top of D 194
vapor is fed to D 191
vapor is not so D 186
vapor in air or D 186
valve on each of D 184
value of oil at D 184
vapor as air at D 182
value of ore at D 180
vapor is that of D 179
vapor or gas at D 176
valve is set on D 176
valve is then in D 174
value in art or D 174
valve to let in D 173
vapor is not in D 172
value of dung as D 172
vapor in air by D 170
valve to get the D 170
valve it may be D 170
value of gas to D 170
value of fat the D 170
varying the sex of D 168
vanes of all the D 168
value of urea as D 168
vases is that it D 166
valve ring may be D 159
valve is not an D 158
valuing it for the D 156
value of gas or D 156
valor in war or D 155
valve is easy to D 154
valve is that in D 153
vases is that of D 150
value of ice in D 150
value of sex to D 148
valve to seal the D 147
vapor in air of D 145
vapor of oil of D 144
value of hay in D 144
valor of one of D 142
vault is due to D 140
valve to aid in D 140
valve is going to D 140
vapor is not an D 139
vault is apt to D 138
valve to one of D 138
valve is not of D 138
value as art or D 137
vases we get the D 136
valuing the things of D 136
vault is one in D 134
vapor of one of D 133
valve to ease the D 133
value of tax on D 132
value of mil is D 132
valve is put on D 130
valuing of each thing D 130
value of tin in D 130
value of art on D 130
vases is that in D 126
valve to let it D 126
vault on top of D 125
vault to see the D 124
value of tau is D 124
valor in all the D 124
valve to set the D 123
valve or one of D 123
valve in both the D 122
valve so that in D 121
value of car at D 120
valet to him at D 120
valve at end of D 117
vases in all the D 116
valve so long as D 116
value of yen in D 116
vault by way of D 114
vapor or gas of D 114
value of dung is D 114
valet to bring my D 114
valve it can be D 112
vault to get the D 110
vapor it may be D 110
valve or set of D 109
valve is and the D 108
valor is one of D 106
valve on both the D 104
valve at one of D 104
valor is not the D 104
vault as far as D 102
valve or may be D 102
value of art at D 102
value at par of D 102
valid as per the D 102
valve by using the D 100
valve as one of D 100
valet in one of D 100
valve so that if D 99
vault at one of D 98
value the tax is D 98
valor to lead it D 98
vases so that the D 97
vault is that it D 96
vapor or air to D 96
value of peat in D 96
vapor or gas by D 95
vases we see the D 94
vapor is apt to D 94
valve as with the D 94
valuing the act of D 94
value of this re D 94
value of oil on D 94
vault of air by D 92
vapor at all is D 92
vault to see if D 90
vault so that no D 90
vault is not in D 90
vapor is led to D 90
vault on one of D 88
valuing the idea of D 88
valve by use of D 87
vases is that the D 86
value of hay or D 86
vapor by use of D 85
vapor in one of D 84
value of urea is D 84
value of mean sea D 82
vapor in all the D 80
value of rye is D 80
valet to see to D 80
valve the air is D 61
vapor or gas as D 50
valve the area of D 50
vapor as far as D 49
vases to put on D 45
vapor or gas or D 45
value in art as D 45
