its first meeting . M 14870
its right place . M 14568
its final shape . M 14544
its final value . M 13488
its final stage . M 12444
its labor force . M 10168
its final phase . M 9394
its resting place . M 9264
its usual place . M 8302
its first stage . M 7636
its outer shell . M 7016
its selling price . M 5732
its first season . M 5652
its breaking point . M 5166
its final state . M 4936
its upper limit . M 4772
its first phase . M 4474
its first issue . M 4372
its fixed costs . M 4274
its place again . M 4200
its first steps . M 4148
its binding force . M 4012
its steady state . M 3810
its final cause . M 3504
its moral value . M 3402
its wider sense . M 3266
its resting state . M 3198
its usual sense . M 3194
its price rises . M 3136
its total costs . M 3132
its exact value . M 3096
its total value . M 3086
its basic needs . M 3020
its moral force . M 2892
its worst forms . M 2652
its engine running . M 2620
its share price . M 2610
its outer edges . M 2602
its staying power . M 2592
its first cause . M 2578
its outer walls . M 2490
its lower limit . M 2368
its money value . M 2202
its resting value . M 2154
its worst enemy . M 2138
its green color . M 2084
its usual state . M 2024
its major goals . M 1996
its turning point . M 1876
its major parts . M 1782
its yield point . M 1750
its upper parts . M 1658
its first class . M 1658
its value chain . M 1656
its magic power . M 1638
its first state . M 1628
its healthy state . M 1626
its first owner . M 1624
its working parts . M 1620
its final issue . M 1600
its vital force . M 1590
its moral sense . M 1582
its strong point . M 1570
its sides equal . M 1558
its moral power . M 1552
its working class . M 1542
its lower parts . M 1538
its usual value . M 1520
its growing season . M 1502
its water works . M 1494
its working force . M 1484
its front cover . M 1484
its inner logic . M 1480
its legal sense . M 1466
its vital parts . M 1436
its solid state . M 1436
its first leader . M 1430
its healthy growth . M 1412
its steady growth . M 1408
its steep sides . M 1406
its first draft . M 1390
its vital power . M 1376
its growing power . M 1376
its moral teaching . M 1372
its outer layer . M 1370
its first floor . M 1368
its basic shape . M 1342
its opening words . M 1330
its paper money . M 1312
its value today . M 1300
its first sitting . M 1298
its money price . M 1290
its inner parts . M 1280
its guiding light . M 1278
its green leaves . M 1278
its grand opening . M 1270
its whole force . M 1228
its outer limit . M 1222
its holding power . M 1210
its feeding value . M 1186
its working people . M 1184
its growth cycle . M 1178
its binding sites . M 1168
its lower price . M 1162
its final defeat . M 1144
its legal owner . M 1130
its meeting place . M 1100
its opening night . M 1092
its short sound . M 1090
its inner walls . M 1088
its growing needs . M 1084
its final value ? M 1082
its rough edges . M 1076
its labor costs . M 1074
its state space . M 1064
its binding power . M 1060
its power plant . M 1030
its first night . M 1022
its first period . M 1014
its whole value . M 1008
its every phase . M 1006
its drawing power . M 994
its views known . M 986
its opening pages . M 984
its basic goals . M 976
its selling value . M 968
its round shape . M 956
its growing period . M 956
its final close . M 952
its issue price . M 944
its ample folds . M 938
its moral bearings . M 936
its legal value . M 926
its steady value . M 924
its exact shape . M 924
its quiet beauty . M 920
its first words . M 920
its worst sense . M 918
its phase space . M 916
its exact place . M 916
its daily needs . M 908
its outer parts . M 906
its acute stage . M 900
its opening lines . M 896
its running costs . M 890
its adult state . M 890
its white color . M 888
its seven hills . M 886
its first months . M 886
its local color . M 880
its later forms . M 880
its first defeat . M 880
its black color . M 878
its usual price . M 876
its later phase . M 870
its white walls . M 868
its click event . M 856
its water needs . M 846
its small scale . M 840
its legal order . M 836
its exact wording . M 836
its daily round . M 832
its entry point . M 818
its local cache . M 814
its value added . M 812
its first ruler . M 810
its worst light . M 804
its brown color . M 802
its water power . M 790
its varying forms . M 790
its first action . M 786
its binding force ? M 786
its usual order . M 778
its labor power . M 776
its fluid state . M 776
its growth period . M 774
its human costs . M 770
its lower forms . M 768
its local units . M 764
its final draft . M 760
its worst shape . M 756
its place value . M 754
its growth phase . M 742
its local action . M 736
its price class . M 726
its moral order . M 726
its right child . M 714
its final pages . M 710
its local needs . M 698
its guiding force . M 698
its asset value . M 698
its later growth . M 688
its right light . M 686
its poetic value . M 686
its noble owner . M 686
its lasting value . M 686
its exact terms . M 680
its healthy action . M 678
its later period . M 674
its final months . M 674
its basic cause . M 666
its basic parts . M 664
its exact cause . M 662
its trend value . M 658
its final order . M 658
its final agony . M 656
its final offer . M 646
its basic terms . M 644
its pulling power . M 642
its deadly enemy . M 640
its daily tasks . M 638
its action thereon . M 638
its lifting power . M 636
its search engine . M 634
its final action . M 634
its basic rules . M 634
its major tasks . M 632
its hands again . M 630
its later stage . M 620
its final point . M 618
its every action . M 618
its usual shape . M 616
its human value . M 616
its inner unity . M 614
its royal house . M 612
its right state . M 612
its adult stage . M 610
its first value . M 608
its teaching force . M 604
its legal force . M 604
its final decay . M 604
its black depths . M 604
its world price . M 602
its major focus . M 602
its first showing . M 602
its plain sense . M 596
its human appeal . M 596
its first chair . M 596
its first start . M 594
its first author . M 594
its added value . M 590
its front pages . M 586
its final hours . M 586
its upper floor . M 584
its usual color . M 576
its solid parts ? M 576
its usual force . M 574
its beauty alone . M 570
its inner layer . M 568
its deadly power . M 566
its upper story . M 560
its fixed place . M 558
its angles equal . M 554
its whole power . M 550
its fitting place . M 550
its final meeting . M 550
its worst period . M 548
its human users . M 548
its whole front . M 546
its acute phase . M 544
its working power . M 540
its basic units . M 540
its usual quiet . M 536
its basic forms . M 534
its basic unity . M 532
its right value . M 530
its basic thrust . M 530
its fixed point . M 526
its voice again . M 522
its start point . M 520
its upper class . M 516
its final weeks . M 516
its prose style . M 514
its poetic beauty . M 508
its value rises . M 506
its moral vision . M 506
its final place . M 506
its first shape . M 504
its sworn enemy . M 500
its final period . M 498
its whole point . M 496
its front steps . M 496
its basic tasks . M 494
its light color . M 492
its green state . M 492
its rough state . M 490
its moral appeal . M 488
its grass roots . M 488
its cover story . M 486
its labor needs . M 482
its first check . M 474
its killing power . M 472
its armed force . M 470
its large leaves . M 468
its first pages . M 468
its right owner . M 466
its longer sides . M 464
its final stand . M 464
its growth stage . M 462
its first entry . M 462
its first power . M 460
its first sense . M 458
its awful power . M 456
its cloud cover . M 442
its major cause . M 438
its white paper . M 436
its small value . M 436
its prime cause . M 434
its older people . M 434
its usual magic . M 432
its upper layer . M 432
its right order . M 432
its exact words . M 432
its first cycle . M 430
its final glory . M 430
its opening phase . M 426
its fourth season . M 424
its first order . M 424
its exact sense . M 424
its basic sense . M 424
its sound track . M 422
its input value . M 422
its worst state . M 420
its proud owner . M 420
its first opening . M 420
its first growth . M 420
its final season . M 418
its closing pages . M 416
its legal limit . M 412
its cutting edges . M 410
its floor space . M 408
its final limit . M 406
its major asset . M 402
its earthly abode . M 400
its place today . M 396
its clock input . M 396
its inner world . M 394
its deadly shade . M 394
its right place ? M 392
its first round . M 390
its beaten track . M 388
its labor unions . M 386
its large scale . M 384
its eight sides . M 384
its vital needs . M 382
its moral beauty . M 382
its working hours . M 380
its strong walls . M 380
its selling price ? M 380
its outer forms . M 380
its search space . M 378
its total power . M 376
its place names . M 374
its lower costs . M 374
its white light . M 372
its first place . M 372
its every stage . M 372
its local unions . M 370
its growth habit . M 370
its first leaves . M 370
its landing place . M 368
its views thereon . M 366
its black people . M 366
its wider scope . M 364
its selling power . M 364
its human shape . M 364
its green cover . M 364
its noble author . M 360
its power needs . M 358
its closing words . M 356
its closing phase . M 356
its strong appeal . M 354
its magic touch . M 354
its waste water . M 352
its usual forms . M 350
its solid waste . M 350
its lasting power . M 350
its first onset . M 350
its first signs . M 346
its solid phase . M 344
its local state . M 344
its first verse . M 344
its final abode . M 344
its blood stream . M 344
its moral ideals . M 342
its major thrust . M 342
its first visit . M 342
its closing lines . M 342
its falling apart . M 340
its water front . M 338
its inner meanings . M 338
its sorry state . M 336
its inner light . M 336
its sound alone . M 334
its fixed price . M 334
its cutting power . M 334
its warning voice . M 332
its resting point . M 332
its poetic power . M 332
its scale value . M 330
its lasting appeal . M 330
its basic value . M 330
its people today . M 328
its river front . M 326
its lower edges . M 326
its input lines . M 326
its inner working . M 326
its working value . M 324
its whole scope . M 324
its lower house . M 324
its force today . M 324
its force field . M 324
its first weeks . M 324
its angles acute . M 324
its rough sides . M 322
its local agent . M 322
its inner depths . M 322
its older sense . M 320
its local roots . M 320
its first frame . M 320
its armed might . M 320
its walls again . M 316
its plain terms . M 316
its moral guilt . M 316
its growth plans . M 316
its fourth stage . M 316
its evening hours . M 316
its small towns . M 314
its fixed value . M 314
its working group . M 312
its needs change . M 310
its whole story . M 308
its vital signs . M 308
its lower leaves . M 308
its input stream . M 308
its seven gates . M 306
its royal owner . M 306
its quiet shade . M 306
its human scale . M 306
its right sense . M 304
its lower depths . M 304
its total needs . M 302
its price drops . M 302
its worst phase . M 300
its whole people . M 300
its point group . M 300
its lower point . M 300
its backing store . M 300
its wants known . M 298
its plain women . M 298
its playing field . M 296
its human owner . M 296
its first trials . M 296
its first tests . M 296
its cutting action . M 296
its sweet music . M 294
its still depths . M 294
its sound value . M 294
its legal power . M 294
its first sound . M 294
its share value . M 292
its poetic merit . M 292
its fourth phase . M 292
its world power . M 290
its state power . M 290
its plant cover . M 290
its legal right . M 290
its basic logic . M 290
its first album . M 288
its vague world . M 286
its inner space . M 286
its final award . M 286
its ascii value . M 286
its upper edges . M 284
its right place ! M 284
its usual style . M 282
its first appeal . M 282
its vowel sound . M 280
its lower value . M 280
its first works . M 280
its first glory . M 280
its final change . M 280
its burning power . M 280
its author lived . M 280
its worst stage . M 278
its style alone . M 278
its people happy . M 278
its moral codes . M 278
its leaves again . M 278
its varying needs . M 276
its spare parts . M 276
its right front . M 276
its known value . M 276
its author wrote . M 276
its power elite . M 274
its selling point . M 272
its missing parts . M 272
its final words . M 272
its usual power . M 270
its right cause . M 270
its legal forms . M 270
its whole frame . M 268
its point value . M 268
its major forms . M 268
its inner power . M 268
its people lived . M 266
its inner beauty . M 266
its usual warmth . M 264
its teaching value . M 264
its older forms . M 264
its legal price . M 264
its empty state . M 264
its daily wants . M 264
its outer world . M 262
its local value . M 262
its final lines . M 262
its working fluid . M 260
its happy issue . M 260
its usual vigor . M 258
its upper house . M 258
its lower fourth . M 258
its action ceases . M 258
its shape again . M 256
its power again . M 256
its lower story . M 256
its first reader . M 256
its first lines . M 256
its daily growth . M 256
its later pages . M 254
its growing point . M 254
its every point . M 254
its empty shell . M 254
its daily motion . M 254
its cycle again . M 254
its closing stage . M 250
its opening price . M 248
its magic again . M 248
its local clock . M 248
its holding period . M 248
its first story . M 248
its final wording . M 248
its solid walls . M 246
its outer shell ? M 246
its major units . M 246
its first child . M 246
its sweet sound . M 244
its solid parts . M 244
its short sides . M 244
its prime focus . M 244
its image plane . M 244
its lower floor . M 242
its labor input . M 242
its green shade . M 242
its exact scope . M 242
its every motion . M 242
its moral state . M 240
its limit value . M 240
its first point . M 240
its adult shape . M 240
its state table . M 238
its route table . M 238
its lethal action . M 238
its inner force . M 238
its human hosts . M 238
its earthly loves . M 238
its daily paper . M 238
its basic appeal . M 238
its green depths . M 236
its space group . M 234
its short season . M 234
its outer sides . M 234
its green light . M 234
its lower layer . M 232
its linear motion . M 232
its leaves alone . M 232
its final shaping . M 232
its first motion . M 230
its sound state . M 228
its power grows . M 228
its naked beauty . M 228
its lower ranges . M 228
its first usage . M 228
its first fight . M 228
its final undoing . M 228
its empty space . M 228
its closing hours . M 228
its blood cells . M 228
its amazing growth . M 228
its power today . M 226
its poetic style . M 226
its large towns . M 226
its gross value . M 226
its front lines . M 226
its final proof . M 226
its color alone . M 226
its class enemy . M 226
its warning signs . M 224
its local names . M 224
its cover price . M 224
its poetic force . M 222
its opening hours . M 222
its final pause . M 222
its fault lines . M 222
its basic ideals . M 222
its author alone . M 222
its under parts . M 220
its total force . M 220
its grand scale . M 220
its final vowel . M 220
its final forms . M 220
its field force . M 220
its usual train . M 218
its upper point . M 218
its needs known . M 218
its leaves appear . M 218
its first roots . M 218
its awful curse . M 218
its wider bearings . M 216
its soothing power . M 216
its quick growth . M 216
its power lines . M 216
its mother again . M 216
its growth goals . M 216
its first store . M 216
its field winding . M 216
its deadly wound . M 216
its final stage ? M 214
its steep walls . M 212
its right shape . M 212
its parts alone . M 212
its input power . M 212
its clearing house . M 212
its author laugh . M 212
its writing style . M 210
its worst times . M 210
its people alive . M 210
its legal rules . M 210
its basic lines . M 210
its worst fault . M 208
its total sense . M 208
its moral unity . M 208
its later sense . M 208
its deadly black . M 208
its action plans . M 208
its total decay . M 206
its strong sense . M 206
its inner value . M 206
its daily cycle . M 206
its black roots . M 206
its amazing power . M 206
its whole state . M 204
its moral decay . M 204
its basic method . M 204
its total defeat . M 202
its shape alone . M 202
its place later . M 202
its nursing mother . M 202
its later parts . M 202
its inner state . M 202
its final price . M 202
its dialog boxes . M 202
its small space . M 200
its phase shift . M 200
its pages again . M 200
its naked glory . M 200
its lower walls . M 200
its inner sense . M 200
its first party . M 200
its final passing . M 200
its utter folly . M 198
its utter defeat . M 198
its usual route . M 198
its shade trees . M 198
its first shell . M 198
its deadly grasp . M 198
its awful front . M 198
its awful depths . M 198
its total input . M 196
its proxy rules . M 196
its paper cover . M 196
its lower right . M 196
its final goals . M 196
its earthly close . M 196
its closing price . M 196
its moral rules . M 194
its lethal power . M 194
its final color . M 194
its working order . M 192
its usual grace . M 192
its steep hills . M 192
its steady light . M 192
its steady climb . M 192
its outer class . M 192
its opening meeting . M 192
its inner sides . M 192
its growing stage . M 192
its first tasks . M 192
its appeal today . M 192
its right track . M 190
its later usage . M 190
its first field . M 190
its worst defeat . M 188
its terms apply . M 188
its quick action . M 188
its noble ideals . M 188
its legal costs . M 188
its fourth power . M 188
its first judge . M 188
its earthly guest ! M 188
its cruel smile . M 188
its color value . M 188
its usual cause . M 186
its slave labor . M 186
its parts exist . M 186
its outer shape . M 186
its naked state . M 186
its basic facts . M 186
its wider appeal . M 184
its value again . M 184
its route cache . M 184
its right father . M 184
its orange color . M 184
its opening verse . M 184
its meeting house . M 184
its harsh terms . M 184
its first force . M 184
its extra costs . M 184
its daily ration . M 184
its civic pride . M 184
its basic tenet . M 184
its worst vices . M 182
its sunny smile . M 182
its selling agent . M 182
its resting period . M 182
its large sense . M 182
its labor force ? M 182
its upper walls . M 180
its soothing warmth . M 180
its outer frame . M 180
its growth needs . M 180
its growth ceases . M 180
its getting worse . M 180
its feeding place . M 180
its whole world . M 178
its vivid color . M 178
its vital unity . M 178
its large scope . M 178
its first glory ? M 178
its faded glory . M 178
its cloud point . M 178
its adult value . M 178
its opening stage . M 176
its noble cause . M 176
its moral roots . M 176
its lower state . M 176
its light touch . M 176
its growing cycle . M 176
its fourth issue . M 176
its first guest . M 176
its yield value . M 174
its upper sides . M 174
its local rules . M 174
its legal codes . M 174
its final touch . M 174
its color change . M 174
its worst point . M 172
its human parts . M 172
its given place . M 172
its first cutting . M 172
its final terms . M 172
its equal again . M 172
its words alone . M 170
its waste lands . M 170
its usual space . M 170
its terms alone . M 170
its passing forms . M 170
its light again . M 170
its known forms . M 170
its green cells . M 170
its first notes . M 170
its first house . M 170
its final power . M 170
its final growth . M 170
its power alone . M 168
its outer cover . M 168
its mother house . M 168
its landing point . M 168
its first voice . M 168
its first beauty . M 168
its father above . M 168
its basic truths . M 168
its upper stage . M 166
its small parts . M 166
its small change . M 166
its running board . M 166
its reply brief . M 166
its prime value . M 166
its moral point . M 166
its major flaws . M 166
its lending power . M 166
its green hills . M 166
its final image . M 166
its whole motion . M 164
its wealthy owner . M 164
its vital growth . M 164
its total change . M 164
its limit cycle . M 164
its given value . M 164
its given state . M 164
its first warning . M 164
its first light . M 164
its first joint . M 164
its basic steps . M 164
its white people . M 162
its total lending . M 162
its total cause . M 162
its terms appear . M 162
its sweet water . M 162
its power input . M 162
its mother plant . M 162
its local users . M 162
its first sleep . M 162
its first feeding . M 162
its closing months . M 162
its cleaning power . M 162
its waste stream . M 160
its vital truths . M 160
its total growth . M 160
its opening season . M 160
its major appeal . M 160
its local plant . M 160
its eighth season . M 160
its basic tools . M 160
its basic model . M 160
its yearly cycle . M 158
its place below . M 158
its learning goals . M 158
its human needs . M 158
its given cause . M 158
its first breaths . M 158
its earthly shell . M 158
its white cover . M 156
its value alone . M 156
its usual action . M 156
its start method . M 156
its offer price . M 156
its major enemy . M 156
its local forms . M 156
its first chaos . M 156
its basic state . M 156
its working space . M 154
its older parts . M 154
its human author . M 154
its growth stops . M 154
its first train . M 154
its final round . M 154
its equal sides . M 154
its daily press . M 154
its basic color . M 154
its working loose . M 152
its usual limit . M 152
its super class . M 152
its royal author . M 152
its power waned . M 152
its strong holds . M 150
its passing phase . M 150
its fixed plant . M 150
its awful caves . M 150
its total yield . M 148
its strong growth . M 148
its resting stage . M 148
its first users . M 148
its first pupil . M 148
its brain power . M 148
its whole action . M 146
its vital point . M 146
its usual smile . M 146
its motion ceases . M 146
its motion ceased . M 146
its ample space . M 146
its water table . M 144
its usual sound . M 144
its steep climb . M 144
its running water . M 144
its place twice . M 144
its people first . M 144
its major value . M 144
its image point . M 144
its human touch . M 144
its forming stage . M 144
its fitting close . M 144
its first hours . M 144
its first hints . M 144
its basic flaws . M 144
its staying power ? M 142
its roots began . M 142
its price cutting . M 142
its inner order . M 142
its inner needs . M 142
its first woman . M 142
its first agent . M 142
its final appeal . M 142
its vital power ? M 140
its shape longer . M 140
its price change . M 140
its major works . M 140
its legal scope . M 140
its human forms . M 140
its healthy color . M 140
its habit plane . M 140
its final unity . M 140
its every trace . M 140
its basic point . M 140
its willing slave . M 138
its usual lines . M 138
its track again . M 138
its quiet depths . M 138
its poetic forms . M 138
its plain front . M 138
its money value ? M 138
its gates again . M 138
its first board . M 138
its first blood . M 138
its cruel power . M 138
its class power . M 138
its usual round . M 136
its usual motion . M 136
its start state . M 136
its phone lines . M 136
its major towns . M 136
its letting value . M 136
its floor leader . M 136
its first landing . M 136
its erect state . M 136
its color noted . M 136
its brain cells . M 136
its world model . M 134
its usual place ? M 134
its teaching power . M 134
its sweet voice . M 134
its royal power . M 134
its royal guest . M 134
its price alone . M 134
its pages uncut . M 134
its force again . M 134
its first model . M 134
its final verse . M 134
its basic style . M 134
its added costs . M 134
its worst parts . M 132
its total scope . M 132
its small opening . M 132
its mother state . M 132
its moral views . M 132
its major point . M 132
its final tests . M 132
its field lines . M 132
its earthly state . M 132
its depths below . M 132
its amusing sides . M 132
its working style . M 130
its working method . M 130
its value today ? M 130
its usual scope . M 130
its paper backing . M 130
its morning glory . M 130
its final cause ? M 130
its facts right . M 130
its deadly force . M 130
its ample shade . M 130
its total denial . M 128
its small world . M 128
its people alone . M 128
its moral goals . M 128
its input stage . M 128
its first event . M 128
its first essay . M 128
its exact needs . M 128
its dawning light . M 128
its acute angles . M 128
its value later . M 126
its upper ranges . M 126
its total price . M 126
its strong roots . M 126
its human warmth . M 126
its haven found . M 126
its harsh light . M 126
its growing state . M 126
its growing appeal . M 126
its forms change . M 126
its fitting share . M 126
its first people . M 126
its dawning delay . M 126
its brave people . M 126
its awful voice . M 126
its working state . M 124
its total space . M 124
its state today . M 124
its proud people . M 124
its people again . M 124
its owner alone . M 124
its major users . M 124
its learning value . M 124
its human beauty . M 124
its force alone . M 124
its first smile . M 124
its final closing . M 124
its exact price . M 124
its equal share . M 124
its engine fails . M 124
its breathing space . M 124
its whole period . M 122
its weaker parts . M 122
its major goals ? M 122
its lodging place . M 122
its inner voice . M 122
its helping verbs . M 122
its healthy parts . M 122
its growth trend . M 122
its first grant . M 122
its empty place . M 122
its black cover . M 122
its worst chain . M 120
its whole shape . M 120
its upper opening . M 120
its solid shape . M 120
its short action . M 120
its selling costs . M 120
its round again . M 120
its place above . M 120
its naked power . M 120
its moral claim . M 120
its money first . M 120
its missing piece . M 120
its major steps . M 120
its later months . M 120
its final warning . M 120
its final state ? M 120
its final sleep . M 120
its deadly blows . M 120
its closing period . M 120
its after gifts . M 120
its acute forms . M 120
its upper works . M 118
its prime goals . M 118
its prime asset . M 118
its owner again . M 118
its music alone . M 118
its magic light . M 118
its magic beauty . M 118
its local ruler . M 118
its local board . M 118
its light chain . M 118
its final rules . M 118
its deadly sound . M 118
its class label . M 118
its burning point . M 118
its wider spread . M 116
its usual habit . M 116
its upper right . M 116
its upper limit ? M 116
its shaping power . M 116
its resting phase . M 116
its noble river . M 116
its morning paper . M 116
its moral thrust . M 116
its moral feeling . M 116
its merit alone . M 116
its logic state . M 116
its later value . M 116
its input space . M 116
its input layer . M 116
its hungry people . M 116
its human power . M 116
its guiding power . M 116
its glory within . M 116
its first stage ? M 116
its first offer . M 116
its first forms . M 116
its final phase ? M 116
its final beauty . M 116
its false glory . M 116
its deadly action . M 116
its black water . M 116
its awful beauty . M 116
its acute onset . M 116
its usual track . M 114
its usual tasks . M 114
its usual method . M 114
its usual beauty . M 114
its small leaves . M 114
its small brain . M 114
its rough weather . M 114
its poetic voice . M 114
its party leader . M 114
its opening months . M 114
its moral cause . M 114
its major fault . M 114
its green array . M 114
its fitting verse . M 114
its civil power . M 114
its awful warning . M 114
its armed power . M 114
its value field . M 112
its upper fourth . M 112
its total shape . M 112
its testing phase . M 112
its right class . M 112
its resting place ? M 112
its price today . M 112
its power ceases . M 112
its plain words . M 112
its plain speaking . M 112
its moral danger . M 112
its lower opening . M 112
its final sound . M 112
its earthly frame . M 112
its basic needs ? M 112
its amazing beauty . M 112
its wider usage . M 110
its shape easily . M 110
its quiet close . M 110
its power known . M 110
its point aimed ? M 110
its lucky owner . M 110
its lower plane . M 110
its light alone . M 110
its legal needs . M 110
its inner shell . M 110
its grand style . M 110
its final drive . M 110
its binding power ? M 110
its water right . M 108
its value drops . M 108
its total beauty . M 108
its local field . M 108
its leaves green . M 108
its inner limit . M 108
its guiding ideals . M 108
its exact limit . M 108
its engine power . M 108
its words brief . M 106
its vital action . M 106
its total unity . M 106
its small share . M 106
its short period . M 106
its share price ? M 106
its opening notes . M 106
its money power . M 106
its major phase . M 106
its lower notes . M 106
its local sense . M 106
its legal father . M 106
its inner edges . M 106
its human enemy . M 106
its hitting power . M 106
its group leader . M 106
its first wound . M 106
its first plant . M 106
its final mould . M 106
its field units . M 106
its false front . M 106
its basic order . M 106
its working tools . M 104
its working point . M 104
its upper shell . M 104
its small print . M 104
its resting place ! M 104
its poetic author . M 104
its people enjoy . M 104
its moral value ? M 104
its moral needs . M 104
its modem sense . M 104
its lower sides . M 104
its getting loose . M 104
its force spent . M 104
its first press . M 104
its final shape ? M 104
its exact order . M 104
its worthy owner . M 102
its rough walls . M 102
its parts missing . M 102
its paper value . M 102
its orange trees . M 102
its morning prime . M 102
its moral merit . M 102
its looks alone . M 102
its local store . M 102
its landing field . M 102
its human roots . M 102
its human agent . M 102
its green beauty . M 102
its first writing . M 102
its first storm . M 102
its first morning . M 102
its exact image . M 102
its exact force . M 102
its every change . M 102
its yearly value . M 100
its whole field . M 100
its small frame . M 100
its rules apply . M 100
its price again . M 100
its morning light . M 100
its labor value . M 100
its glory again . M 100
its floor value . M 100
its final steps . M 100
its earthly father . M 100
its deadly peril . M 100
its budding stage . M 100
its brave leader . M 100
its basic axioms . M 100
its water plant . M 98
its usual period . M 98
its usual meanings . M 98
its usual abode . M 98
its thinking power . M 98
its share thereof . M 98
its press agent . M 98
its power rests . M 98
its plain teaching . M 98
its moral growth . M 98
its moaning music . M 98
its meeting again . M 98
its local leader . M 98
its later glory . M 98
its growing light . M 98
its green walls . M 98
its first cries . M 98
its eight pages . M 98
its working cycle . M 96
its white owner . M 96
its vital value . M 96
its vital tasks . M 96
its shell again . M 96
its seeming power . M 96
its price fixed . M 96
its poetic feeling . M 96
its outer angles . M 96
its noble trees . M 96
its morning cloud . M 96
its money costs . M 96
its major lines . M 96
its lower types . M 96
its longer action . M 96
its learning phase . M 96
its house style . M 96
its hasty growth . M 96
its grief ceases . M 96
its fourth meeting . M 96
its fixed costs ? M 96
its first abode . M 96
its final check . M 96
its empty depths . M 96
its daily working . M 96
its black magic . M 96
its working rules . M 94
its white water . M 94
its water users . M 94
its warning light . M 94
its upper state . M 94
its strong lines . M 94
its solid angles . M 94
its small stage . M 94
its poetic appeal . M 94
its parts again . M 94
its owner lived . M 94
its naked force . M 94
its moral right . M 94
its major tools . M 94
its lifting force . M 94
its legal action . M 94
its input costs . M 94
its inner works . M 94
its human story . M 94
its first cases . M 94
its falling leaves . M 94
its breaking apart . M 94
its basic texts . M 94
its working women . M 92
its usual appeal . M 92
its sweet warmth . M 92
its seven parts . M 92
its major needs . M 92
its major force . M 92
its local paper . M 92
its local deity . M 92
its links fails . M 92
its limit point . M 92
its growing phase . M 92
its feeding habit . M 92
its exact shape ? M 92
its exact facts . M 92
its every issue . M 92
its draft stage . M 92
its cause alone . M 92
its black cloak . M 92
its action today . M 92
its worst ships . M 90
its whole beauty . M 90
its vital space . M 90
its sides equal ? M 90
its royal tombs . M 90
its poetic glory . M 90
its owner lives . M 90
its option value . M 90
its noble goals . M 90
its later shape . M 90
its human types . M 90
its forming state . M 90
its first vigor . M 90
its final notes . M 90
its final event . M 90
its filling space . M 90
its exact state . M 90
its coast lines . M 90
its brief season . M 90
its black walls . M 90
its black cloud . M 90
its basic teaching . M 90
its basic meanings . M 90
its white field . M 88
its rough usage . M 88
its owner slept . M 88
its magic power ? M 88
its local appeal . M 88
its legal merit . M 88
its legal bearings . M 88
its happy owner . M 88
its guest house . M 88
its first seeds . M 88
its first prize . M 88
its final crown . M 88
its facts arose . M 88
its close method . M 88
its black frame . M 88
its black blood . M 88
its beauty again . M 88
its world views . M 86
its whole style . M 86
its white shell . M 86
its vocal music . M 86
its vital warmth . M 86
its rough trunk . M 86
its resting shape . M 86
its power class . M 86
its plane trees . M 86
its lower focus . M 86
its longer edges . M 86
its large brain . M 86
its grace period . M 86
its final entry . M 86
its cruel grasp . M 86
its burning ruins . M 86
its block grant . M 86
its beauty theirs ? M 86
its upper notes . M 84
its prize money . M 84
its major failing . M 84
its local focus . M 84
its known risks . M 84
its growing wants . M 84
its glaring light . M 84
its focus point . M 84
its fluid parts . M 84
its fixed rules . M 84
its first steps ? M 84
its first moves . M 84
its first dawning . M 84
its final users . M 84
its daily issue . M 84
its class roots . M 84
its binding posts . M 84
its beauty sleep . M 84
its basic force . M 84
its basic action . M 84
its ample sides . M 84
its vivid green . M 82
its trunk lines . M 82
its total debts . M 82
its story lines . M 82
its steady thrust . M 82
its steady motion . M 82
its space needs . M 82
its right angles . M 82
its proud place . M 82
its prime agent . M 82
its people change . M 82
its outer leaves . M 82
its orange light . M 82
its noble place . M 82
its music halls . M 82
its lower stage . M 82
its lower class . M 82
its light below . M 82
its legal claim . M 82
its green woods . M 82
its green water . M 82
its green grass . M 82
its first walls ? M 82
its first maker . M 82
its final breaths . M 82
its evening paper . M 82
its eight lines . M 82
its class appeal . M 82
its brief glory . M 82
its awful glory . M 82
its author hoped . M 82
its yearly growth . M 80
its worthy price . M 80
its strong color . M 80
its sound growth . M 80
its seven notes . M 80
its party sense . M 80
its missing pages . M 80
its happy close . M 80
its green trees . M 80
its exact bearings . M 80
its empty halls . M 80
its brief story ? M 80
its beauty grows . M 80
its backing paper . M 80
