moth nor rust doth D 11201
moth and rust doth D 10619
mom and told her D 2932
mom and tell her D 2794
moth nor rust can D 1820
mow them down with D 1516
mom had told him D 1455
mom had told her D 1395
moth and rust can D 1347
mom and your dad D 851
mop his brow and D 818
mop his face with D 802
moth and rust and D 795
mom had said that D 707
mop his brow with D 692
mop and pail and D 528
mom had made for D 521
mom had said she D 513
mom was crying and D 475
mom was there and D 435
mom was sick and D 429
mop his face and D 406
mom and gave her D 406
mom had made her D 392
mom and have her D 392
mom put down her D 371
mom was busy with D 361
mom sat down and D 353
mom had made him D 342
mom got sick and D 340
mom had gone out D 328
mom was like that D 322
mom did when she D 312
mom did what she D 309
mom had left for D 300
mom was there with D 297
mom was there for D 294
mom was gone and D 290
mom had lost her D 281
mob set upon him D 262
mob and those who D 248
mop his bald head D 246
mom that there was D 240
mom and what she D 230
mom and baby are D 230
mow you down with D 228
mow them down and D 228
mom had left her D 224
mow his lawn and D 220
mom sat down with D 218
mob had done its D 216
mow him down with D 214
moth and dust doth D 208
mob was upon them D 206
mom had sent him D 205
mom and step dad D 198
mom was when she D 196
moth that lays its D 180
mom had told them D 179
mom was home and D 178
mob and there was D 178
mop and pail had D 176
mob and told them D 176
mom was wearing her D 164
mow and some six D 154
moth and rust may D 154
mob set upon them D 154
mop her face with D 150
moth and rust that D 147
moth that will not D 146
moth nor rust nor D 146
mow her lawn and D 145
mob was upon him D 142
mob and left for D 134
mop her eyes with D 132
mob was ready for D 132
mob that were got D 132
mob that there was D 132
mom had died and D 128
mob was such that D 128
moth and rust are D 126
moth has laid her D 120
mop her eyes and D 120
mom had sent her D 118
mop his eyes with D 114
mom had done for D 114
mob for their own D 114
mow his lawn for D 108
mop her face and D 108
mom was more than D 107
mom was living with D 106
mom had left him D 106
mop her brow with D 104
mom for what she D 102
mom was ready for D 100
mom set down her D 100
mow and mock oft D 98
mom and give her D 98
mow her lawn for D 96
moth and rust had D 96
mom was born and D 96
mom and your mom D 95
mom had been doing D 94
mom and their dad D 94
mop her brow and D 92
mom was there too D 92
mob had their own D 92
moth has only one D 90
mom had just had D 90
mom for more than D 90
mow them down for D 88
mom was left with D 88
mom was saying that D 87
mom was making her D 84
mom was just being D 81
mom had gone off D 81
mom and help her D 80
mom does when she D 51
mom had been out D 44
mom say when she D 43
mow and make hay D 42
