motives for it . M 2148
moments for me . M 1234
motives may be . M 1232
moments with me . M 614
modeled for us . M 551
mourned for it . M 424
moments for us . M 398
motives for it ? M 346
mortals can be . M 334
moments with us . M 284
modeled for me . M 230
monster was he ? M 224
mortals can do . M 202
movable with it . M 151
motives can be . M 144
mourned with us . M 142
moments can be . M 142
mourned for me . M 138
mourned with me . M 134
monster for me . M 132
monster for it . M 116
moments with it . M 112
monitor was on . M 106
monitor lit up . M 104
monarch can be . M 92
moments with me ? M 90
modeled for it . M 88
monster she is . M 86
moments may be . M 84
monster with it . M 82
monitor for it . M 41
