did i do ? M 80074
did i go ? M 3858
did a thing . M 1638
did i eat ? M 806
did i do . M 614
did i do ! M 476
die a king . M 332
did i go . M 216
did i eat . M 214
did i so ? M 212
did i sing ? M 136
did a do ? M 126
did i sing . M 108
did i go ! M 100
did a thing ! M 86
