tying them to the D 9150
tying him to the D 4736
tying them up in D 3027
tying her to the D 2456
tying him up to D 1160
tying him up in D 1008
tying off of the D 880
tying one of the D 853
tying run in the D 669
tying them at the D 646
tying them up to D 622
tying them in the D 592
tying you to the D 576
tying all of the D 538
tying her up in D 498
tying them by the D 484
tying them on the D 482
tying men to the D 438
tying run at the D 427
tying this on the D 408
tying them up by D 352
tying this to the D 346
tying them in to D 332
tying them to an D 314
tying him on the D 296
tying one to the D 274
tying you up in D 268
tying him to an D 264
tying aid to the D 256
tying run to the D 251
tying them on to D 238
tying her up to D 232
tying him by the D 230
tying them up at D 188
tying him to it D 182
tying each of the D 180
tying run is on D 168
tying him up by D 162
tying hay to the D 142
tying two of the D 136
tying him in the D 134
tying them up as D 129
tying things up in D 122
tying him up so D 122
tying any of the D 122
tying him up at D 120
tying them up or D 114
tying them up on D 114
tying them to it D 114
tying off at the D 110
tying her to an D 106
tying that to the D 104
tying her in the D 96
tying pay to the D 92
tying her to it D 90
tying him up on D 86
tying off on the D 84
tying them up so D 59
