type occurs in a M 1216
type instead of a M 1155
type should be a M 1126
type appears in a M 1039
type serves as a M 876
type appears as a M 836
type belongs to a M 678
type occurs as a M 554
type system is a M 496
type belonging to a M 443
type caused by a M 410
type system of a M 306
type exists in a M 302
type appears on a M 284
type result in a M 283
type occurs on a M 280
type points to a M 268
type served as a M 254
type occurs at a M 250
type marked by a M 203
type stored in a M 198
type matter on a M 182
type created by a M 181
type begins as a M 170
type changes to a M 166
type formed by a M 164
type system in a M 162
type system as a M 159
type standing on a M 156
type checking is a M 156
type family is a M 155
type itself is a M 152
type matter in a M 144
type relies on a M 142
type placed in a M 136
type locked in a M 132
type number of a M 130
type double to a M 128
type something in a M 125
type starts at a M 120
type checking in a M 119
type merely as a M 116
type existing in a M 116
type common to a M 115
type formed in a M 105
type exists as a M 104
type appearing in a M 101
type except in a M 93
type changed to a M 88
type arises as a M 85
type placed on a M 80
type strain of a M 67
type system to a M 57
type reaction to a M 56
type system or a M 55
type strain in a M 50
type design is a M 50
type filter in a M 48
type object is a M 47
type version of a M 45
type plants in a M 45
type changes in a M 45
type building in a M 44
type symbol is a M 43
type reaction of a M 43
type design as a M 40
type refers to a D 1596
type allele of a D 355
type driven by a D 291
type section is a D 195
type section of a D 188
type styles in a D 154
type suited to a D 148
type regions of a D 140
type allele in a D 118
typing errors in a D 117
type skills by a D 110
typing errors on a D 100
type regions in a D 93
type linked to a D 90
typing course at a D 86
type allele to a D 55
