open space in the M 64635
open space of the M 28512
open space at the M 18225
open space on the M 17917
open parts of the M 12724
open space to the M 10482
open water of the M 10388
open water in the M 9449
open meeting of the M 8604
open place in the M 8428
open house at the M 6609
open water to the M 6414
open field to the M 5250
open field in the M 5048
open state of the M 4940
open season on the M 4886
open sides of the M 4872
open wound in the M 4760
open field on the M 4672
open gates of the M 4651
open front of the M 4446
open enemy of the M 4142
open house in the M 4020
open space by the M 3780
open water at the M 3207
open water on the M 3126
open wound of the M 2786
open space to be M 2772
open pages of the M 2737
open lands of the M 2643
open field of the M 2618
open appeal to the M 2476
open holes in the M 2418
open method of the M 2334
open daily in the M 2312
open fires in the M 2252
open later in the M 2068
open field at the M 2056
open plain to the M 2038
open alike to the M 1967
open wound on the M 1964
open daily to the M 1946
open again to the M 1850
open space is the M 1829
open again in the M 1828
open until it is M 1752
open place on the M 1726
open edges of the M 1709
open denial of the M 1708
open forum of the M 1700
open glade in the M 1570
open vision of the M 1506
open place of the M 1466
open forum on the M 1439
open house on the M 1431
open views of the M 1375
open plain of the M 1370
open plain in the M 1348
open floor of the M 1320
open files in the M 1299
open plain on the M 1297
open field by the M 1264
open hearings on the M 1254
open hands to the M 1236
open sites in the M 1161
open close to the M 1118
open house to the M 1110
open stage of the M 1100
open space in an M 1090
open ranges of the M 1049
open again by the M 1036
open files on the M 1032
open place at the M 1026
open field or in M 1020
open meeting in the M 1014
open either to the M 975
open light of the M 968
open world of the M 950
open water to be M 918
open house of the M 917
open wound to the M 908
open again at the M 892
open space as the M 874
open meeting at the M 864
open study of the M 842
open event of the M 821
open nearly to the M 816
open enemy to the M 808
open season in the M 788
open space is to M 762
open people up to M 726
open phase of the M 714
open woods of the M 706
open above to the M 693
open right up to M 689
open issue in the M 688
open plain at the M 672
open lands in the M 672
open glade of the M 672
open again on the M 658
open forum in the M 655
open force or by M 636
open hands on the M 634
open trunk of the M 632
open minds to the M 618
open items in the M 613
open fires on the M 612
open glade on the M 594
open clearing in the M 592
open place by the M 586
open meadow on the M 576
open crack in the M 568
open route to the M 558
open model of the M 550
open views to the M 548
open space of at M 546
open notes of the M 546
open woods on the M 539
open meeting on the M 534
open space is an M 533
open gates to the M 532
open learning in the M 529
open space or in M 524
open plain by the M 524
open hands of the M 523
open forms of the M 522
open which in the M 521
open front to the M 520
open issue is the M 516
open forum at the M 512
open feeling of the M 502
open wound at the M 498
open looking at the M 498
open order on the M 494
open water by the M 486
open frame of the M 482
open wider to the M 480
open fires or in M 474
open stand on the M 472
open space of an M 468
open space as an M 468
open minds on the M 468
open seems to be M 465
open sound of the M 464
open sense of the M 462
open cover of the M 462
open where it is M 460
open walls of the M 460
open water or in M 457
open books in the M 456
open meadow in the M 450
open fight on the M 446
open action by the M 443
open enemy in the M 440
open space or the M 438
open fully to the M 438
open backing of the M 438
open woods in the M 437
open lands to the M 436
open books on the M 436
open entry to the M 428
open abuse of the M 428
open option in the M 416
open while it is M 413
open order to the M 412
open sites on the M 411
open again as the M 408
open issue as to M 402
open oceans of the M 400
open enemy to it M 400
open wound in my M 398
open boxes on the M 398
open period of the M 394
open sites of the M 391
open either of the M 391
open coast of the M 386
open fight in the M 380
open months of the M 376
open field or on M 376
open field to be M 364
open cells of the M 362
open threats of the M 358
open order in the M 354
open right to the M 352
open cells in the M 351
open files of the M 350
open joint in the M 348
open action of the M 348
open style of the M 346
open field or the M 344
open about it as M 344
open longer in the M 342
open hands in the M 342
open space is in M 340
open hearings of the M 340
open water it is M 334
open stage in the M 334
open water is to M 330
open meadow to the M 328
open space it is M 326
open offer to the M 322
open claim to the M 322
open shame of the M 316
open order of the M 316
open gates in the M 314
open either on the M 312
open lines to the M 311
open space or to M 310
open gates at the M 310
open either at the M 310
open place to the M 306
open hours of the M 306
open folds in the M 305
open either in the M 305
open season of the M 302
open ended in the M 302
open water up to M 301
open space in it M 300
open hearts to the M 300
open sharing of the M 299
open meadow at the M 296
open water is the M 295
open water as the M 292
open pages in the M 288
open thanks to the M 285
open field is the M 284
open state in the M 278
open force in the M 276
open table in the M 274
open stream of the M 274
open space in or M 272
open folds of the M 272
open entry of the M 272
open option on the M 269
open leaves of the M 269
open while in the M 268
open items on the M 268
open issue of the M 266
open denial of it M 264
open space is at M 262
open since it is M 262
open point on the M 262
open wound on my M 260
open grass of the M 260
open space as if M 256
open shell of the M 256
open people to the M 256
open action in the M 255
open field as the M 254
open about it in M 253
open proof of the M 252
open while at the M 251
open house to be M 250
open house is to M 250
open while he is M 248
open water or the M 248
open towns of the M 248
open hearts of the M 247
open below to the M 244
open books of the M 243
open method in the M 238
open crack of the M 238
open wound is an M 236
open space as it M 236
open boxes in the M 235
open after it is M 235
open steps of the M 232
open season on me M 232
open backs of the M 228
open minds of the M 226
open forms in the M 225
open threats to the M 224
open files at the M 224
open cases in the M 223
open halls of the M 222
open first at the M 222
open sitting of the M 220
open lines of the M 220
open field to do M 220
open water in an M 219
open weather in the M 218
open point in the M 218
open beauty of the M 218
open files to be M 217
open space in my M 212
open house is an M 212
open hands as if M 212
open feeling to the M 212
open right in the M 211
open which of the M 210
open ranges in the M 210
open point of the M 210
open meeting by the M 210
open hearings in the M 210
open growth of the M 210
open lands on the M 208
open walks of the M 206
open today to the M 206
open issue to be M 206
open edges to the M 206
open heaven to us M 204
open hands at the M 204
open space up to M 202
open meeting to be M 202
open house is the M 202
open share in the M 200
open plain or the M 200
open space in so M 198
open woods to the M 196
open season on us M 196
open water or on M 194
open coast in the M 194
open vices of the M 192
open space is so M 192
open lines in the M 191
open again as he M 191
open vowel in the M 190
open heaven to the M 189
open wound or the M 188
open above us on M 186
open pages of my M 185
open state to the M 184
open leader of the M 184
open fires of the M 184
open teaching of the M 182
open stand in the M 180
open shame in the M 180
open holes on the M 180
open warning to the M 178
open method on the M 178
open waiting to be M 176
open still to the M 174
open space or on M 174
open plain or in M 174
open first in the M 174
open woods or in M 172
open floor to the M 172
open daily at the M 172
open books to the M 171
open towns in the M 170
open times of the M 168
open house at my M 168
open letting in the M 167
open press in the M 166
open place or in M 166
open notes on the M 166
open breaks in the M 166
open right on the M 165
open group in the M 164
open boast of the M 164
open wound or an M 162
open hills of the M 162
open feeling in the M 162
open cutting at the M 162
open track in the M 160
open stage at the M 160
open space if the M 160
open shape of the M 160
open minds in the M 160
open minds as to M 160
open either by the M 159
open holes of the M 158
open claim to be M 158
open abuse of me M 158
open cases of the M 157
open until he is M 156
open glade at the M 156
open class at the M 156
open loops in the M 155
open wound is to M 154
open theirs to us M 154
open coast to the M 154
open woods or on M 152
open space or an M 152
open signs of the M 152
open easily to the M 152
open while on the M 151
open stand of the M 150
open field in an M 150
open trials of the M 148
open sense as the M 148
open crown of the M 146
open clearing of the M 146
open cases on the M 145
open boxes of the M 145
open space as in M 144
open front of my M 144
open books at the M 144
open entry in the M 143
open trunk in the M 142
open enemy to be M 142
open folding of the M 141
open unity of the M 140
open space so as M 140
open season to the M 140
open method is the M 140
open wider as the M 138
open today as it M 138
open right at the M 138
open house by the M 138
open force at the M 138
open files to the M 137
open holes at the M 136
open which is the M 135
open wound or in M 134
open vowel of the M 134
open learning is to M 134
open coast or in M 134
open below at the M 134
open joint at the M 132
open front on the M 132
open clearing on the M 132
open based on the M 132
open about it to M 131
open order at the M 130
open issue is to M 130
open action on the M 130
open first thing in M 129
open wound is the M 128
open study on the M 126
open learning is the M 126
open force to the M 126
open oceans in the M 125
open space to an M 124
open season on my M 124
open grass to the M 124
open water or at M 122
open vision in the M 122
open state at the M 122
open space is on M 122
open space is of M 122
open place to be M 122
open meadow by the M 122
open wound or to M 120
open words of the M 120
open space or as M 120
open fully in the M 120
open edges on the M 120
open edges at the M 120
open wound to be M 118
open pride in the M 118
open green of the M 118
open fight by the M 118
open defeat of the M 118
open daily at no M 118
open space as he M 116
open shame to the M 116
open rather to the M 116
open front in the M 116
open field as in M 116
open chain of the M 116
open place as the M 114
open looking at me M 114
open issue at the M 114
open hands up to M 114
open crack at the M 114
open cells on the M 114
open space of no M 113
open option of the M 113
open table at the M 112
open space of my M 112
open smile of the M 112
open loops of the M 112
open glory of the M 112
open floor in the M 112
open wound by the M 110
open water or of M 110
open voids in the M 110
open glade to the M 110
open fight of the M 110
open field as if M 110
open bowls of the M 110
open blows in the M 110
open again as if M 110
open towns on the M 108
open space on an M 108
open shame at the M 108
open field to an M 108
open world is the M 106
open space up the M 106
open space if it M 106
open sides in the M 106
open reply to the M 106
open music on the M 106
open light in the M 106
open house as we M 106
open hours in the M 106
open space or by M 105
open space as is M 104
open power of the M 104
open house in an M 104
open ended as to M 104
open track of the M 102
open meadow of the M 102
open looking up at M 102
open stand at the M 100
open space is no M 100
open method is to M 100
open green in the M 100
open fight at the M 100
open voice of the M 98
open trials in the M 98
open season at the M 98
open route of the M 98
open house or the M 98
open chair at the M 98
open fires by the M 97
open ended at the M 97
open trees to the M 96
open trail to the M 96
open place in it M 96
open period in the M 96
open field or to M 96
open ended as the M 96
open lakes in the M 95
open fires or on M 95
open names of the M 94
open front of an M 94
open force of the M 94
open folding in the M 94
open field or at M 94
open easily at the M 94
open cutting in the M 94
open appear to be M 94
open needs to be M 93
open weather of the M 92
open sides to the M 92
open meeting or in M 92
open image of the M 92
open green on the M 92
open field it is M 92
open field as we M 92
open boxes at the M 92
open about it at M 92
open threats by the M 90
open force by the M 90
open field is an M 90
open dates in the M 90
open coast on the M 90
open agent of the M 90
open wound or if M 88
open watch on the M 88
open space on to M 88
open river to the M 88
open links to the M 88
open landing at the M 88
open house or to M 88
open front at the M 88
open clearing at the M 88
open aisle in the M 88
open works of the M 87
open spread of the M 86
open space as we M 86
open smile as he M 86
open posts of it M 86
open issue of it M 86
open irony in the M 86
open house at an M 86
open house as the M 86
open house as he M 86
open hearings by the M 86
open breaking of the M 86
open burning in the M 85
open about it or M 85
open plane of the M 84
open paper on the M 84
open night of the M 84
open house in my M 84
open hands to me M 84
open fight or by M 84
open field if he M 84
open where he is M 83
open waste of the M 82
open space to do M 82
open pages of an M 82
open method or by M 82
open plans of the M 81
open warmth of the M 80
open space at an M 80
open rocks of the M 80
open pupil of the M 80
open hills or in M 80
open hills in the M 80
open gates of an M 80
open fires at the M 80
open field up to M 80
open facts of the M 80
open gifts in the M 76
open water or to M 70
open learning is an M 61
open first on the M 58
open ought to be M 55
open first to the M 55
open heaven in the M 53
open quite to the M 52
open parts of it M 51
open space is as M 50
open wider in the M 47
open again as it M 46
open gates on the M 45
open heaven by the M 44
open rules of the M 43
open hearings to the M 43
open easily in the M 43
open wider at the M 42
open right on to M 42
open class in the M 42
open caves in the M 42
open water is an M 41
open others in the M 41
open hearings at the M 40
open ended to the M 40
open doors of the D 23110
open court in the D 7809
open doors to the D 6496
open mouths of the D 5560
open breach of the D 4850
open court of the D 4788
open court by the D 4390
open court at the D 3587
open doors in the D 3038
open split in the D 2752
open court on the D 2303
open doors at the D 2086
open court to the D 2009
open hatch of the D 1884
open court or in D 1870
open strings of the D 1848
open ports of the D 1801
open trade in the D 1785
open sores on the D 1618
open grave in the D 1572
open breach in the D 1500
open biopsy of the D 1486
open pores of the D 1482
open bible on the D 1406
open spots in the D 1232
open pores in the D 1066
open doors on the D 1038
open flank of the D 1006
open ports on the D 934
open sores in the D 931
open hatch in the D 930
open china to the D 926
open shops in the D 918
open flame in the D 892
open bible in the D 876
open region of the D 822
open sight of the D 808
open court or by D 796
open boats in the D 784
open japan to the D 772
open grave of the D 756
open throat of the D 748
open fifths in the D 748
open skies of the D 732
open sweep of the D 672
open loggia on the D 672
open arena of the D 672
open mouths at the D 668
open slope of the D 656
open ports in the D 651
open porch on the D 650
open porch of the D 628
open would be to D 614
open palms of the D 568
open staring at the D 566
open flame of the D 564
open faces of the D 552
open housing in the D 549
open boats on the D 549
open drain in the D 540
open sores of the D 532
open slots in the D 531
open sewer in the D 502
open porch at the D 500
open court to be D 500
open spots on the D 497
open court is the D 497
open court as to D 492
open palms on the D 490
open hatch to the D 486
open roads of the D 482
open flame or in D 480
open flank to the D 470
open decks of the D 461
open slats of the D 438
open ulcer of my D 436
open shore of the D 428
open panel in the D 422
open mouths on the D 420
open hatch on the D 418
open flaps of the D 418
open court or at D 418
open lumen of the D 412
open talks on the D 410
open level of the D 406
open belly of the D 406
open roads to the D 404
open lesion on the D 404
open boats of the D 400
open trade to the D 390
open sewer of the D 384
open boats to the D 378
open vista of the D 376
open crest of the D 376
open mouths to the D 373
open grate in the D 370
open canal of the D 370
open piazza of the D 368
open mouths in the D 368
open packing of the D 365
open slope to the D 364
open slits in the D 360
open patch in the D 358
open scorn of the D 350
open ranks of the D 350
open hatch at the D 348
open rooms of the D 345
open hearths in the D 345
open shelf in the D 344
open loggia of the D 342
open plaza in the D 340
open wells in the D 339
open doors of an D 330
open ports by the D 322
open grave at the D 318
open porch in the D 316
open loggia at the D 316
open palms to the D 314
open plaza of the D 310
open spacing of the D 306
open strings in the D 303
open mines in the D 302
open region in the D 300
open flats of the D 298
open ditch in the D 292
open tones of the D 288
open lesion of the D 288
open would be the D 286
open setting of the D 280
open split of the D 278
open ditch at the D 278
open flame on the D 274
open pipes of the D 273
open strings on the D 262
open trade on the D 260
open bolls of the D 260
open roads in the D 256
open slots on the D 252
open grave on the D 252
open court as the D 252
open basin of the D 252
open curve of the D 250
open fingers of the D 249
open banks of the D 246
open sores on my D 245
open spots of the D 244
open stove in the D 238
open downs of the D 236
open bosom of the D 234
open pores on the D 233
open vault of the D 230
open shops of the D 228
opal glass in the D 228
open pools in the D 227
open loggia in the D 226
open flank on the D 226
open shops on the D 225
open biopsy is the D 225
open canal to the D 220
open plaza at the D 218
open hearths of the D 218
open grating in the D 218
open doors as we D 216
open bible to the D 212
open grate at the D 210
open space of sea D 209
open sheds in the D 208
open fifths of the D 208
open doors to an D 208
open wards of the D 206
open rooms on the D 206
open slope on the D 204
open mines at the D 202
open glare of the D 198
open valve in the D 196
open panel of the D 196
open bible at the D 196
open ridge to the D 194
open grain of the D 192
open clash in the D 190
open mouths as if D 189
open drain at the D 188
open grave to the D 186
open shelf of the D 184
open shaft of the D 184
open stern of the D 182
open grave as the D 182
open polls at the D 181
open flame or on D 180
opal tints of the D 180
open yards of the D 178
open grate of the D 178
open veins of the D 177
open slots of the D 176
open skies in the D 176
open doors as the D 176
open biopsy in the D 176
open court or the D 174
oped piece in the D 174
open mouths as the D 172
open lesion in the D 172
open court by an D 172
open strip in the D 170
open ulcer of the D 164
open flank in the D 164
open flame or an D 162
open doors as if D 161
open doors on to D 160
open stare of the D 158
open palms as if D 158
open niche in the D 158
open ports to the D 157
open pores to the D 157
open nests on the D 157
open vista to the D 156
open tract of the D 156
open cleft of the D 156
open dumps in the D 155
open doors as he D 155
open truck to the D 154
open slots at the D 154
open sight on the D 154
open plaza on the D 154
open valve at the D 152
open purse on the D 152
open porch to the D 150
open truck in the D 148
open knife in my D 148
open grill in the D 148
open rival of the D 146
open curve in the D 146
open doors to do D 145
open plaza to the D 144
open lobby of the D 144
open lanes in the D 144
open carts in the D 144
open vents in the D 143
open wagon in the D 140
open grating of the D 140
open ditch on the D 140
open breadth of the D 140
open orbit in the D 138
open stall in the D 134
open grave by the D 134
open fifths on the D 134
open shaft in the D 132
open doors of my D 132
open breast of the D 132
open breach at the D 132
open grave of my D 130
open theater of the D 128
open slope in the D 128
open dumping on the D 128
open bible on it D 128
open veins in the D 126
open trade of the D 126
open plots in the D 126
open court or to D 126
open cleft in the D 126
open bidding in the D 126
open slits of the D 124
opal mines in the D 124
open doors to it D 123
open sheet of the D 122
open sheds on the D 122
open sheds of the D 122
open knife in the D 122
open drain on the D 122
open doors or to D 122
open doors or the D 120
open tones on the D 118
open stair to the D 118
open sheds or in D 118
open shaft to the D 118
open purse in the D 118
open decks in the D 118
open chest in the D 118
open acres of the D 118
open ports to be D 117
open sewer at the D 116
open purse of the D 116
open palms in the D 116
open clash of the D 116
open china up to D 116
open sands of the D 115
open strings at the D 114
open motto of the D 114
open bible of the D 114
opal light of the D 114
open ulcer on the D 112
open trade in it D 112
open score so as D 112
open razor in the D 112
open court if the D 112
open trade at the D 111
open ports at the D 111
open polar sea to D 110
open ledge of the D 110
open wound of toe D 108
open necks of the D 108
open knife on the D 108
open flame or by D 108
open court to an D 108
open clash at the D 108
opal glass of the D 108
open truck on the D 106
open split on the D 106
open sewer by the D 106
open pouch on the D 106
open hatch as the D 106
open court in an D 106
open court if he D 106
open clash on the D 106
open chest of the D 106
open boats at the D 106
open tubes in the D 105
open grazing in the D 105
open staring up at D 104
open roofs of the D 104
open ridge of the D 104
open rents of the D 104
open moors of the D 104
open grave in my D 104
open ditch by the D 104
open boats at sea D 104
open pores at the D 103
open shirt in the D 102
open rooms at the D 102
open downs on the D 102
open downs in the D 102
open ceiling of the D 102
open tubes of the D 101
open tanks in the D 100
open bidding on the D 100
open shelf at the D 98
open grating at the D 98
open gorge of the D 98
open drain of the D 98
open basin in the D 98
opal tints in the D 98
open valve to the D 96
open tract in the D 96
open soils of the D 96
open court of an D 96
open court as an D 96
open canal on the D 96
open canal in the D 96
open veins on the D 95
open wards in the D 94
open sores at the D 94
open ridge at the D 94
open bloom of the D 94
open arena in the D 94
open split at the D 92
open sheet on the D 92
open piazza on the D 92
open flesh of the D 92
open arrow in the D 92
open patch on the D 90
open doors by the D 89
open railing of the D 88
open foyer of the D 88
open craft of the D 88
open water in sea D 86
open staring at me D 86
open ridge on the D 86
open parks of the D 86
open mouths as he D 86
open drain to the D 86
open boats up the D 86
open bible in my D 86
open looting of the D 85
open vista in the D 84
open fifths at the D 84
open ditch to the D 84
open chink of the D 84
open bible by the D 84
open doors to be D 83
open vault in the D 82
open trade to it D 82
open region at the D 82
open razor on the D 82
open court it is D 82
open bible on my D 82
open bible as the D 82
open sheds at the D 80
open grill at the D 80
open flame to the D 80
open booths of the D 80
opal glass at the D 80
open banks in the D 65
open wound of ear D 56
open trade by the D 56
open doors to me D 55
open would be an D 52
open trading on the D 51
open polar sea in D 48
open parks in the D 42
open would be in D 40
open fired on the D 40
