open the way for M 167180
open to all who M 57195
open at one end M 32693
open to all and M 20847
open to all men M 18746
open to any one M 17131
open to them and M 16772
open to him and M 14114
open to men and M 13067
open the box and M 12877
open to him was M 9010
open to both men M 8780
open it for you M 8690
open it and see M 8414
open at each end M 8402
open to them for M 8032
open to them was M 7663
open it and read M 7197
open to him for M 6898
open to all that M 6591
open so that you M 6086
open the bag and M 5781
open up and let M 5635
open so you can M 5578
open to him but M 5575
open so that they M 5495
open of its own M 5250
open to you and M 5150
open to any man M 5065
open to any and M 4814
open it for her M 4635
open to new and M 4557
open up new and M 4436
open up for you M 4368
open it for him M 4167
open to them but M 3839
open so that she M 3782
open to all his M 3695
open at any one M 3506
open up for him M 3482
open to him than M 3467
open at top and M 3324
open to them are M 3312
open to any who M 3268
open to her and M 3208
open in this way M 3208
open to them all M 3201
open to them than M 3146
open to god and M 3062
open up for them M 3037
open to all for M 2962
open to him who M 2910
open to let out M 2884
open it and let M 2827
open to all but M 2674
open to his own M 2496
open the path for M 2480
open to you for M 2360
open on that day M 2313
open to him are M 2234
open to its own M 2221
open on its own M 2182
open to one who M 2111
open to them that M 2089
open to him all M 2082
open to new things M 2048
open up his own M 2035
open to sun and M 1969
open to her was M 1948
open to him that M 1878
open it and then M 1868
open to our own M 1860
open to men who M 1860
open to one and M 1835
open the top and M 1814
open to all with M 1795
open in all its M 1784
open the way and M 1764
open to all its M 1763
open the can and M 1757
open to air and M 1756
open as they are M 1696
open so they can M 1658
open so that all M 1632
open to him with M 1621
open to him now M 1568
open to any new M 1556
open as day for M 1516
open on one end M 1487
open it with his M 1470
open to all new M 1469
open it for them M 1463
open to see that M 1447
open to you all M 1442
open the box with M 1412
open to all our M 1368
open to let him M 1364
open as you can M 1362
open to you with M 1320
open in its own M 1298
open it and you M 1266
open the earth and M 1264
open to them now M 1226
open to her for M 1214
open to them with M 1209
open up any new M 1154
open to him his M 1140
open to let them M 1136
open up for her M 1135
open up and say M 1130
open to this day M 1118
open so that his M 1105
open to you now M 1086
open to them they M 1080
open it and get M 1068
open it out and M 1064
open to all things M 1053
open an eye and M 1040
open to see how M 980
open up this area M 974
open to his eye M 969
open as they had M 957
open up this new M 909
open to deal with M 903
open to each and M 892
open in his own M 886
open to see and M 885
open to you that M 878
open up and you M 876
open up and get M 869
open by day and M 860
open to her but M 854
open so that any M 854
open the new year M 852
open as she had M 852
open up its own M 845
open on top and M 842
open up and then M 818
open the add new M 808
open to her own M 801
open if you are M 801
open up her own M 794
open as day and M 794
open the box for M 791
open to any boy M 788
open to say that M 784
open to all her M 782
open if they are M 778
open up with his M 774
open to hear and M 771
open to let you M 760
open to this new M 750
open to air out M 745
open the way with M 713
open to hear them M 706
open by its own M 704
open to her that M 688
open so that air M 685
open up our own M 680
open in may and M 670
open so that one M 666
open to all was M 658
open my bag and M 656
open in this area M 644
open the box that M 642
open to let her M 641
open so that her M 641
open as she was M 641
open to her now M 637
open to them new M 636
open to man and M 632
open up and see M 625
open to you are M 625
open to any but M 616
open the area for M 611
open so she can M 611
open the way out M 609
open to her all M 608
open to all non M 605
open to him not M 601
open the day with M 599
open the eye and M 597
open to you his M 592
open so that its M 592
open on new year M 588
open to each one M 584
open to men with M 580
open it and put M 579
open as they can M 574
open the sky and M 572
open in all his M 570
open to her than M 564
open to bias and M 538
open the head and M 538
open at both top M 534
open to this idea M 521
open on this day M 519
open to our cry M 512
open it with her M 505
open to our use M 502
open to get rid M 499
open to but one M 498
open to him had M 496
open to her his M 494
open it with one M 490
open to his son M 488
open to get out M 488
open to joy and M 486
open up new job M 485
open in any way M 482
open on his own M 478
open as you are M 477
open up that can M 476
open to being read M 473
open up and they M 472
open to them both M 464
open it for fear M 464
open in that way M 459
open to all are M 456
open up for new M 455
open at its end M 455
open on them with M 450
open to you but M 448
open to them not M 448
open it now and M 448
open to sky and M 438
open up with her M 436
open up for our M 435
open up for all M 433
open it and she M 425
open it for his M 422
open to see who M 416
open it and say M 412
open he did not M 412
open to all age M 411
open if you can M 410
open the idea that M 405
open to them had M 395
open to see him M 393
open to all this M 393
open an easy way M 392
open on his way M 391
open the bag with M 386
open to each man M 382
open the way not M 381
open to her are M 378
open up and are M 377
open the top one M 376
open to you than M 374
open to his use M 373
open the war with M 373
open to him any M 366
open as she saw M 366
open it was not M 364
open to see her M 362
open in that they M 362
open to things that M 361
open to them has M 360
open my head and M 358
open an area for M 352
open to each new M 351
open the dead man M 350
open to see them M 348
open to him her M 348
open the can with M 348
open the way that M 346
open up with all M 343
open to see all M 342
open as you read M 338
open it for any M 336
open it and use M 335
open the old man M 334
open up with each M 332
open the earth with M 332
open to use and M 328
open to man for M 324
open it and was M 319
open to him new M 318
open to any idea M 318
open to hear his M 314
open so long that M 313
open to them may M 312
open it did not M 309
open so that new M 308
open up with you M 307
open up each year M 307
open in all but M 306
open to him then M 305
open to but few M 304
open to them his M 302
open to let air M 302
open up and bring M 300
open to doing things M 300
open the new era M 299
open so that each M 295
open to you may M 292
open in war and M 292
open up for his M 291
open to men than M 291
open the new one M 290
open to use for M 288
open to them can M 286
open to any that M 283
open the way they M 278
open to see his M 277
open the pit and M 274
open to new men M 272
open at its top M 272
open it and saw M 269
open at all and M 269
open as she sat M 269
open to her with M 266
open to this and M 265
open it does not M 264
open up with him M 263
open the bar and M 261
open up and that M 260
open up and she M 259
open up and not M 259
open up all its M 258
open to her she M 253
open to him our M 249
open to all god M 249
open it for use M 247
open in all that M 245
open the bag for M 243
open it and run M 243
open to its use M 240
open the box you M 237
open to him may M 236
open up for this M 235
open the big box M 235
open an easy and M 234
open to his men M 230
open the year with M 229
open it with this M 229
open to them any M 226
open to his all M 226
open to try and M 225
open to them our M 224
open so that both M 224
open we can not M 223
open up with them M 222
open the poem with M 222
open as his own M 222
open up with one M 220
open in one way M 220
open to this man M 219
open to you was M 218
open it and bring M 218
open the box but M 217
open my box and M 217
open it and ask M 217
open to you both M 216
open by this act M 216
open so that our M 215
open on each end M 215
open it can not M 215
open as they did M 215
open to hear all M 214
open the one that M 213
open or does not M 213
open to men are M 212
open it with all M 210
open on any one M 209
open it with any M 208
open the bud does M 206
open it then and M 206
open up and use M 205
open it and try M 203
open in our own M 203
open up and ask M 202
open up and try M 201
open the earth for M 201
open in his rear M 201
open to you this M 198
open to him can M 198
open in that year M 197
open up and new M 196
open to air for M 196
open it and they M 196
open as she ran M 195
open to her new M 194
open up with this M 193
open to them this M 193
open up and all M 192
open in awe and M 191
open to men but M 190
open to hear god M 190
open it and that M 189
open by his own M 189
open as she did M 189
open up and read M 188
open at its two M 188
open at his own M 187
open to easy and M 186
open the way you M 186
open if she did M 186
open up that area M 185
open up this can M 184
open to see things M 184
open to all than M 184
open as day with M 184
open the add web M 183
open in that area M 181
open the top with M 180
open by now and M 180
open the one you M 179
open so that this M 179
open it and add M 179
open we can see M 178
open up for each M 178
open to that and M 178
open to east and M 178
open in all things M 178
open to and for M 176
open it you may M 176
open at one and M 176
open as they now M 174
open up this way M 173
open as she lay M 173
open up his head M 172
open to her had M 172
open to him she M 171
open up and out M 170
open to that idea M 170
open to her any M 170
open the new web M 170
open it for two M 170
open up that way M 169
open if they had M 169
open to fly out M 168
open so far that M 168
open by day but M 166
open to her then M 164
open to and can M 164
open so that god M 164
open up two new M 163
open in any one M 163
open up with our M 162
open he was with M 162
open to any non M 161
open on any day M 160
open as she read M 160
open to hear him M 159
open up with that M 158
open to him two M 158
open or they may M 158
open it for all M 158
open up for both M 157
open up that old M 156
open up and put M 156
open up and deal M 156
open to her son M 156
open to all has M 156
open the eye that M 156
open if they did M 156
open up for man M 154
open to get air M 154
open in him his M 154
open or you can M 153
open to both new M 152
open by its wings M 152
open to his new M 151
open to see god M 150
open to him both M 150
open to all you M 150
open my own law M 149
open to all they M 148
open in his day M 148
open to let his M 147
open to you then M 146
open to how god M 146
open to him one M 146
open to you not M 144
open the new and M 144
open the map and M 144
open in fear and M 144
open to god that M 143
open the wings and M 143
open on her way M 143
open to him has M 142
open to hear any M 142
open to being with M 142
open to being led M 142
open the box now M 142
open my wings and M 142
open to you any M 141
open to cry out M 141
open to sin and M 140
open the top two M 140
open the big one M 140
open he saw that M 140
open up all that M 139
open to them too M 138
open to both and M 138
open by his death M 138
open at its far M 137
open to try new M 136
open to run for M 136
open to one man M 136
open to bias than M 136
open the key and M 135
open the bin and M 135
open up with god M 134
open to put his M 134
open as this one M 134
open to all law M 133
open up all our M 132
open if they can M 132
open he can not M 132
open at this day M 132
open as she got M 131
open up with its M 130
open to them then M 130
open to see our M 130
open to one are M 130
open to men for M 130
open to being and M 130
open in one end M 130
open to one with M 129
open the bar for M 128
open on that one M 128
open up and run M 127
open to god for M 127
open it that way M 127
open it with its M 126
open it and set M 126
open to him this M 125
open up all his M 124
open on her own M 124
open at top for M 124
open as they dry M 124
open to that one M 123
open the path and M 123
open on him with M 123
open it for one M 123
open at all for M 123
open to man are M 122
open to lay men M 122
open to any use M 122
open so air can M 122
open on this one M 122
open to him its M 121
open in this new M 121
open in its new M 121
open as they lay M 120
open up and lay M 119
open to all may M 118
open the big oak M 118
open the air was M 118
open at both its M 118
open the eye for M 117
open on one day M 117
open at that end M 117
open up for its M 116
open up all this M 116
open to them its M 116
open to dry out M 116
open to any way M 116
open to all not M 116
open the end and M 116
open as they may M 116
open to get them M 114
open to get his M 114
open to get her M 114
open to any dog M 114
open the red box M 114
open is one that M 114
open in all her M 114
open if she had M 114
open by that any M 114
open up with new M 113
open up that box M 113
open up and for M 113
open to his rear M 113
open to him lay M 112
open to any poet M 112
open on all but M 112
open is that they M 112
open in her own M 112
open by this poem M 112
open as her own M 112
open the way she M 111
open the new day M 111
open up one day M 110
open up now and M 110
open to this than M 110
open to hear you M 110
open on him and M 110
open it but she M 110
open by two men M 110
open the box was M 109
open he does not M 109
open to see its M 108
open to our rear M 108
open to god than M 108
open or are they M 108
open to any two M 107
open as his head M 107
open to her not M 106
open to hear our M 106
open to hear her M 106
open to any team M 106
open to any real M 106
open it and had M 106
open in his head M 106
open by men who M 106
open to you can M 104
open to dry and M 104
open he was not M 103
open up and thus M 102
open to buy for M 102
open it out for M 102
open it and lay M 102
open as you may M 102
open up for men M 100
open to them day M 100
open to them being M 100
open on her arm M 100
open as you see M 100
open an easy path M 100
open up his way M 99
open to them out M 99
open to men that M 99
open so that two M 99
open up our way M 98
open to let any M 98
open the can for M 98
open at this end M 98
open to them nor M 96
open to him does M 96
open to but not M 96
open to all being M 96
open to all area M 96
open or that they M 96
open in how far M 96
open by her own M 96
open as was his M 96
open as she and M 96
open up one end M 95
open it and all M 95
open to war and M 94
open to things and M 94
open to earth and M 94
open it with ease M 94
open the new job M 93
open so low that M 93
open to you day M 92
open to them lay M 92
open to them due M 92
open to him too M 92
open to god are M 92
open to bring them M 92
open to both for M 92
open to ask for M 92
open of all our M 92
open by one who M 92
open to pay for M 91
open to its new M 91
open it one day M 91
open in dry air M 91
open we are with M 90
open to using new M 90
open to all low M 90
open it and thus M 90
open up his new M 89
open to this one M 89
open to them who M 89
open or not and M 89
open is all that M 89
open at all its M 89
open up that new M 88
open to let all M 88
open to her two M 88
open to and with M 88
open on one long M 88
open it with that M 88
open to this way M 87
open the far east M 87
open the box they M 87
open it you can M 87
open by then and M 87
open to them led M 86
open to men was M 86
open to his old M 86
open so that men M 86
open it for our M 86
open to see this M 85
open to one set M 84
open the act with M 84
open on his dear M 84
open it and his M 84
open it and cut M 84
open up and was M 83
open to him did M 83
open to get all M 83
open to his and M 82
open it and sit M 82
open it and did M 82
open as they got M 81
open to old and M 80
open to her has M 80
open to all had M 80
open the area and M 80
open in song and M 80
open as her head M 80
open as and for M 80
open the net and M 75
open to you its M 72
open to you new M 71
open the toy box M 71
open at six and M 70
open to things you M 67
open the sky with M 66
open an old and M 62
open to you our M 61
open the bag that M 60
open my head with M 59
open the new path M 56
open the path that M 55
open the one with M 55
open the air and M 52
open to them one M 51
open to its being M 51
open up and how M 50
open the cut and M 50
open to doing that M 49
open on them and M 49
open up and air M 48
open to our men M 48
open it was too M 48
open the log and M 47
open the gap and M 47
open on each day M 47
open if you had M 47
open up and old M 46
open up and lead M 46
open to bet that M 46
open the way both M 46
open or use any M 46
open in his new M 46
open up that are M 45
open the rings and M 45
open the new box M 45
open the long and M 45
open the few and M 44
open the box she M 44
open so long and M 44
open it was all M 44
open in and out M 44
open up and act M 43
open to this end M 43
open my fly and M 43
open my eye and M 43
open it tor you M 43
open in all this M 43
open up and this M 42
open to man that M 42
open to let off M 42
open is not easy M 42
open if you did M 42
open the gap for M 41
open in one day M 41
open to her war M 40
open the red and M 40
open on her lap D 10168
open on his lap D 7394
open the lid and D 5604
open in her lap D 5046
open in his lap D 3233
open the sac and D 2007
open the jar and D 1430
open the seal and D 1348
open on her bed D 847
open the tap and D 831
open the lid with D 670
open on his bed D 596
open the egg and D 516
open sea and then D 481
open sea can not D 480
open sea and are D 449
open an egg and D 440
open sea does not D 436
open sea and sky D 435
open the seam and D 425
open the pod bay D 424
open sea with its D 418
open sea are not D 398
open sea and that D 380
open sea was not D 376
open sea and its D 372
open the ears and D 370
open my ears and D 370
open to thee and D 358
open sea and was D 353
open my ears that D 340
open to her sex D 333
open on one hinge D 332
open sea and not D 318
open sea they are D 310
open sea with all D 309
open the car and D 308
open the gun and D 306
open the jaw and D 305
open the cap and D 300
open to any hon D 298
open the tin and D 294
open on its hinge D 283
open the pot and D 276
open in new tab D 273
open at its tip D 266
open the tin with D 263
open the ark and D 263
open to oil and D 258
open sea and has D 256
open the bed and D 248
open sea and had D 246
opting in and out D 235
open sea with his D 232
open the pan and D 231
open sea with one D 230
open the seal with D 222
open the nut and D 210
open to each sex D 194
open the pod and D 189
opting to get too D 188
open sea and with D 184
open the wax seal D 171
open to gay and D 168
open the dam and D 168
open the tin box D 167
open sea did not D 164
open the vial and D 162
open sea and thus D 161
open sea and for D 148
open sea and all D 148
open ear for all D 148
oped to bear his D 148
open to gay men D 140
open sea for two D 140
open sea and near D 136
open sea cut off D 134
open sea and set D 134
open the lid for D 132
open the tab set D 130
open sea that was D 126
open the ice box D 125
open sea and air D 123
open on this hot D 122
open ear and eye D 122
open the pen and D 120
open to art and D 118
open sea has not D 118
open sea they had D 116
open the jar for D 113
open as they hit D 111
open sea not far D 110
open sea that they D 108
open the beak and D 106
open sea and they D 104
open sea that lay D 102
open sea and may D 102
open the car for D 101
open sea with her D 101
open to all art D 96
open sea and her D 96
open the shoe box D 94
open to his art D 93
open an egg with D 90
open an inn for D 88
open he met his D 85
open to one sex D 84
open sea and can D 84
open the sac with D 59
open the ice and D 51
open the fan and D 50
open the box lid D 49
open the gas cap D 48
open the seam with D 47
open up new oil D 46
open the kit and D 43
opus of his own D 42
open the tab and D 41
open sea and one D 40
