open and she was M 7183
open all day and M 5509
open for her and M 4578
open all day long M 4123
open all year and M 3434
open and you can M 3330
open for him and M 3216
open and two men M 2996
open and did not M 2433
open one eye and M 2382
open and she saw M 2208
open for any one M 2095
open and his head M 2083
open and let out M 2001
open for them and M 1918
open and does not M 1901
open for all who M 1859
open war with his M 1820
open air all day M 1788
open and they are M 1686
open and can not M 1627
open and let him M 1591
open and then with M 1576
open all day for M 1549
open war with each M 1536
open and you are M 1524
open and that they M 1462
open and she had M 1372
open and let them M 1366
open all year long M 1344
open for sin and M 1340
open for you and M 1284
open them and see M 1283
open but did not M 1271
open and read them M 1270
open war with them M 1246
open and she sat M 1240
open and her head M 1029
open for too long M 1020
open and saw that M 1003
open air and sun M 979
open and deal with M 938
open and got out M 918
open all year for M 893
open for all men M 886
open for all that M 879
open area that was M 876
open air with his M 876
open air and not M 858
open them for you M 854
open with his own M 849
open and ran out M 837
open and let her M 836
open for his own M 809
open and one eye M 784
open air and then M 780
open now and then M 767
open his head with M 764
open for our use M 749
open war with all M 738
open for one year M 738
open and that she M 735
open war with him M 722
open and they all M 722
open and they had M 683
open air and with M 669
open war with one M 656
open with him and M 652
open both day and M 646
open and read all M 644
open with them and M 641
open with you and M 638
open war with her M 634
open air and are M 634
open all year with M 630
open with all its M 627
open them and let M 624
open does not mean M 621
open and let you M 618
open all year but M 615
open air that they M 612
open and are not M 609
open and they can M 606
open his own law M 603
open his head and M 602
open her bag and M 598
open his bag and M 590
open for day use M 587
open and lay out M 586
open and that you M 577
open for one day M 576
open end with his M 576
open with his head M 573
open air for two M 571
open for any new M 563
open and read his M 562
open air does not M 562
open and all his M 561
open them and read M 559
open for her with M 559
open and you see M 539
open and they both M 538
open than they had M 536
open and that was M 534
open air and that M 525
open and put his M 518
open and saw her M 514
open than they are M 508
open air they are M 506
open its wings and M 492
open for new and M 481
open air was not M 480
open air and had M 478
open and see that M 474
open air and was M 469
open for him for M 465
open air and for M 465
open air did not M 464
open that you may M 463
open and that all M 459
open for any and M 457
open for any man M 449
open his fly and M 444
open for air and M 442
open and all that M 441
open but she was M 440
open for him but M 438
open for its own M 437
open and then she M 433
open air each day M 432
open and was out M 428
open you can see M 420
open for all and M 415
open that box and M 413
open air and its M 413
open and you may M 410
open them for him M 404
open and was not M 404
open and read with M 404
open and not too M 400
open and they saw M 399
open air and his M 396
open and she did M 393
open war with both M 390
open this box and M 387
open that they may M 383
open them all and M 380
open but she did M 379
open for his son M 377
open you can not M 376
open and read this M 376
open and put them M 376
open that you can M 373
open them out and M 372
open with all his M 371
open for him with M 371
open and see how M 369
open and had not M 368
open one day and M 362
open and saw him M 360
open for our own M 359
open air day and M 356
open one and that M 352
open and that his M 352
open that they are M 350
open air and all M 347
open area that had M 346
open and saw his M 346
open and let off M 346
open his wings and M 344
open for his use M 344
open air with her M 344
open war with this M 342
open and all her M 342
open but does not M 341
open now and she M 335
open with her and M 332
open sat and sun M 330
open out for him M 330
open and with his M 330
open air can not M 327
open and then they M 326
open out new and M 324
open for you his M 323
open air are not M 322
open and easy for M 321
open and get out M 319
open eye for all M 316
open for men and M 312
open and one can M 311
open each one and M 310
open this path for M 301
open too long and M 300
open his sin and M 297
open and they did M 292
open with him than M 290
open all day but M 285
open his eye and M 284
open for that one M 282
open than she had M 281
open for use and M 281
open air for six M 281
open for them with M 279
open air with our M 278
open and read her M 268
open with her own M 267
open for them but M 267
open and she ran M 267
open with all her M 265
open end and one M 264
open end was then M 262
open air and they M 262
open air and did M 262
open them with his M 260
open for any who M 259
open and she lay M 259
open one for you M 256
open for him was M 256
open and ask for M 255
open and she got M 252
open them and then M 250
open and read any M 250
open them for fear M 249
open for them all M 249
open air and can M 249
open air for one M 248
open air and sky M 247
open war with its M 244
open you are with M 243
open and was now M 242
open air with its M 242
open for you for M 241
open war with our M 238
open air and yet M 238
open and this was M 236
open with one arm M 232
open and with all M 228
open and see not M 224
open and his arm M 224
open but they are M 222
open and all its M 222
open with her than M 220
open but you can M 220
open and cut off M 220
open with you than M 218
open can see his M 218
open and not yet M 218
open air with all M 218
open for him who M 216
open each day for M 216
open and say that M 215
open for him all M 214
open can see that M 212
open and then you M 212
open with his long M 211
open for her own M 210
open each day with M 210
open this one for M 208
open area that has M 208
open and one end M 208
open one end and M 207
open and all but M 206
open with his two M 204
open them for her M 204
open and that her M 203
open and easy and M 202
open and she can M 201
open and has not M 201
open and ran for M 200
open air for all M 200
open and wet and M 198
open and put her M 198
open and out she M 198
open and men and M 197
open and dry them M 195
open and set them M 194
open and read its M 194
open and fit for M 193
open for them was M 192
open for fear that M 192
open each day and M 192
open and she let M 192
open and out ran M 192
open and with one M 191
open but not too M 190
open area and then M 190
open and use them M 190
open and ran his M 190
open and let his M 190
open and her long M 190
open but can not M 188
open both top and M 188
open and that any M 187
open and both men M 187
opts out for now M 186
open that for you M 186
open and you get M 186
open air for his M 186
open air for fear M 186
open out and let M 183
open all day with M 183
open for use for M 182
open war with that M 180
open them and put M 180
open that one can M 180
open for one who M 178
open and one with M 178
open and let all M 178
open and was being M 177
open and out they M 177
open air than they M 176
open air and thus M 176
open with all our M 175
open that they can M 175
open and they got M 175
open them and you M 174
open for two and M 174
open for new men M 174
open and fix our M 174
open air with him M 172
open air for any M 171
open for them for M 170
open they can not M 168
open his box and M 168
open and they see M 168
open and that its M 167
open and she and M 167
open out for them M 166
open but they did M 165
open and with her M 165
opts for his own M 164
open and that this M 164
open for her for M 162
open end and then M 162
open and she has M 162
open all that day M 162
open out and are M 161
open any and all M 161
open and how they M 161
open them and they M 160
open and with its M 160
open with its own M 158
open end does not M 158
open sky with its M 156
open and one was M 156
open air than that M 156
open that she was M 155
open her box and M 155
open but they had M 155
open them for all M 154
open now and was M 154
open for one and M 154
open and not being M 154
open and led her M 154
open her own law M 153
open with his arm M 152
open air for ten M 152
open air and this M 152
open for this and M 151
open for her but M 151
open and they may M 151
open with her head M 150
open now and they M 150
open for you all M 150
open and hang them M 150
open and easy with M 150
open for you now M 149
open for things that M 149
open and yet not M 149
open and saw two M 148
open that any one M 147
open and dry and M 147
open air and out M 147
open they did not M 145
open she did not M 144
open air had not M 144
open for new things M 143
open them and say M 142
open and goes out M 142
open that eye and M 141
open war was now M 140
open end and box M 140
open air with two M 140
open air she was M 140
open but was not M 139
open and not let M 139
open and lay them M 139
open and its head M 139
open area that can M 138
open and one leg M 138
open this for you M 137
open for god and M 137
open now than they M 136
open for them new M 136
open and his long M 136
open and can see M 135
open for her she M 134
open all that was M 134
open and they ran M 133
open air for long M 133
open them and get M 132
open for use with M 132
open and who are M 132
open and all our M 132
open and all was M 131
open too far and M 130
open and she put M 130
open for men who M 129
open for them his M 128
open day and with M 128
open but are not M 128
open area with two M 128
open and wet with M 128
open air but not M 128
open air and set M 128
open they are not M 127
open for them both M 127
open and get all M 127
open with both his M 126
open for now and M 126
open and one arm M 126
open and has two M 126
open and all who M 126
open air and see M 126
open that she had M 125
open and all this M 125
open you can hear M 124
open with its long M 124
open with any one M 124
open them for any M 124
open and then let M 124
open and then his M 124
open and read each M 124
open and his son M 124
open and his big M 124
open and get rid M 124
open air and you M 124
open air and has M 124
open with god and M 122
open with fear and M 122
open with ease all M 122
open them now and M 122
open them and set M 122
open that bag and M 122
open but not with M 122
open and are being M 122
open air and saw M 122
open his poem with M 120
open for him now M 120
open and was going M 120
open war was thus M 119
open this and you M 119
open her wings and M 119
open for fear they M 119
open pit and then M 118
open but not yet M 118
open and with them M 118
open and that one M 118
open sky and sun M 117
open and try and M 116
open for both men M 115
open and ask you M 115
open way all his M 114
open for all but M 114
open and then her M 114
open and not get M 114
open and hung with M 114
open and all you M 114
open this and read M 113
open they are with M 113
open that they had M 112
open that box for M 112
open area and not M 112
open and for all M 112
open air has but M 112
open air and who M 112
open and use that M 111
open and read out M 111
open and are thus M 111
open this area for M 110
open one and not M 110
open for all his M 110
open but one day M 110
open and run out M 110
open and one that M 110
open and see her M 109
open war was not M 108
open war that was M 108
open than our own M 108
open her head and M 108
open air that was M 108
open its head with M 107
open war did not M 106
open that year and M 106
open eye with its M 106
open for each one M 105
open and his eye M 105
open one can see M 104
open his own path M 104
open for them that M 104
open and try not M 104
open and real with M 104
open air was one M 104
open air has not M 104
open air for that M 104
open with his big M 103
open and his own M 103
open war with god M 102
open and see for M 102
open air and one M 101
open way with her M 100
open that you are M 100
open out for her M 100
open for you but M 100
open eye for any M 100
open area not far M 100
open and set her M 100
open and ran her M 100
open and his red M 100
open with our own M 99
open for long and M 99
open for all things M 99
open and for him M 99
open top far off M 98
open one can not M 98
open and that our M 98
open and read that M 98
open air than any M 98
open for its use M 97
open them with one M 96
open them with any M 96
open but she had M 96
open and may not M 96
open air and get M 96
open with ease and M 95
open for each and M 95
open and set out M 95
open and cut out M 95
open with both her M 94
open sky was his M 94
open and ate them M 94
open not one but M 93
open for you that M 93
open and men with M 93
open and each one M 93
open war had not M 92
open that year was M 92
open sin with his M 92
open for read and M 92
open for each man M 92
open and six men M 92
open and one for M 92
open and his two M 92
open and for this M 92
open and for one M 92
open and easy way M 92
open and are then M 92
open and let fly M 91
open and who was M 90
open air that she M 90
open air his two M 90
open than that for M 88
open than his own M 88
open out for you M 88
open end can not M 88
open and that two M 88
open and one had M 88
open and led them M 88
open air bar and M 88
open air and being M 88
open for all our M 87
open and then put M 87
open and put out M 87
open and all set M 87
open too low she M 86
open this one and M 86
open they are and M 86
open them that way M 86
open than with them M 86
open sky and with M 86
open one day each M 86
open air they can M 86
open air and sat M 86
open air and long M 86
open with her two M 84
open that one may M 84
open for this new M 84
open far too long M 84
open air with any M 84
open air may not M 84
open air and ate M 84
open that day and M 83
open now and his M 83
open but you are M 83
open than you are M 82
open than her own M 82
open end may lie M 82
open with you now M 80
open with them than M 80
open end and with M 80
open and now and M 80
open and for two M 80
open and how long M 71
open that did not M 67
open for him any M 64
open and read and M 64
open for him that M 63
open with all that M 60
open for her use M 60
open that does not M 59
open and any one M 58
open and let our M 56
open that are not M 55
open each box and M 53
open one box and M 52
open one and see M 52
open but one way M 52
open and use this M 52
open all day sat M 52
open you may see M 49
open out and then M 49
open one and one M 49
open with his key M 48
open out and you M 48
open now for all M 48
open each year for M 48
open you can get M 47
open with his new M 47
open one and then M 47
open any day now M 47
open this way and M 46
open her head with M 46
open for her son M 45
open and read our M 45
open out any new M 44
open and see with M 44
open and for how M 44
open that was not M 43
open and then use M 43
open and then for M 42
open and read one M 42
open air that one M 42
open air all that M 42
open with each new M 41
open but had not M 41
open and one may M 41
open and let god M 41
open and cut them M 41
open one and was M 40
open one and read M 40
open his arm and M 40
open has its own M 40
open for you with M 40
open area and that M 40
open and you did M 40
open and run for M 40
open our ears and D 1175
open with her hip D 1072
open her fan and D 633
open and his ears D 593
open and his tie D 510
open his ears and D 471
open with his hip D 340
open and his jaw D 318
open and his hat D 316
open with his axe D 288
open our ears that D 265
open its beak and D 253
open his beak and D 253
open his bed and D 246
open and met his D 238
open car with his D 218
open and gay with D 198
open and her ears D 196
open with his gun D 189
open and her jaw D 188
open cab with her D 166
open and our ears D 165
open and his pen D 160
open with his paw D 159
open with sex and D 156
open and was met D 151
open car that was D 150
open with its beak D 146
opting for any one D 144
open car with two D 137
open and both ears D 128
open his fan and D 124
open car and was D 124
open and dug out D 120
open and his gun D 116
open and her bed D 116
open its lid and D 115
open her ears and D 114
open her own car D 113
oped and let them D 111
open seas and are D 106
open and lean out D 106
open and her bra D 104
open with his beak D 102
open car was not D 96
open his gun and D 95
open and tear out D 94
open and swing out D 94
open his ears for D 92
open car with its D 92
open and she met D 92
open and his bed D 88
open and his car D 83
open with her axe D 82
open beak and wings D 80
open his jaw and D 67
open for oil and D 56
opting for its own D 47
open her jaw and D 46
open her bra and D 44
opting for his own D 40
open her beak and D 40
open and hit him D 40
