be cut with a M 60524
be had for a M 38631
be read with a M 28418
be set for a M 20792
be easy for a M 20038
be now read a M 18130
be but for a M 12850
be fit for a M 12256
be out for a M 12135
be too long a M 12040
be one with a M 10648
be all that i M 10438
be for him a M 10186
be two and a M 9658
be one and a M 9208
be doing him a M 9098
be set with a M 8560
be too big a M 8365
be run with a M 7552
be that for a M 7394
be hung for a M 7346
be had with a M 6695
be for them a M 6684
be doing you a M 5620
be doing them a M 5612
be all that a M 5322
be run for a M 5274
be going for a M 5084
be doing her a M 5000
be for you a M 4954
be due for a M 4720
be read for a M 4714
be doing with a M 4422
be with you a M 3904
be bad for a M 3802
be off for a M 3482
be got for a M 3408
be with him a M 2818
be one for a M 2762
be out with a M 2736
be with you i M 2726
be that with a M 2702
be long ere i M 2652
be one day a M 2650
be that big a M 2519
be cut for a M 2518
be read off a M 2490
be put off a M 2472
be fit with a M 2460
be too easy a M 2458
be you and i M 2422
be for her a M 2348
be let for a M 2228
be one that i M 2128
be with them a M 2092
be one that a M 1975
be and that i M 1943
be ill for a M 1940
be put for a M 1898
be read and a M 1880
be too weak a M 1876
be dead and i M 1854
be low for a M 1842
be cut and a M 1754
be god that i M 1742
be won with a M 1738
be cut off a M 1734
be lit with a M 1694
be doing for a M 1558
be read using a M 1552
be with her a M 1550
be dead for a M 1542
be and was a M 1539
be won for a M 1482
be cut using a M 1474
be set and a M 1464
be too low a M 1456
be won than a M 1408
be and how i M 1380
be too bad a M 1362
be six and a M 1350
be was not a M 1338
be set using a M 1326
be dying for a M 1310
be put with a M 1302
be sad for a M 1272
be hung with a M 1236
be got with a M 1205
be that not a M 1198
be had and a M 1126
be going with a M 1124
be off with a M 1080
be easy with a M 1060
be too near a M 1050
be you that i M 1042
be led with a M 1040
be for all i M 1011
be run using a M 990
be not for a M 987
be weak for a M 966
be all but a M 948
be men with a M 906
be things that i M 876
be and then i M 852
be wet with a M 850
be mad that i M 850
be too dear a M 842
be long and i M 832
be set off a M 830
be odd for a M 812
be now that i M 806
be easy and i M 802
be easy but i M 796
be that being a M 778
be dry for a M 774
be old but i M 772
be out and i M 744
be all one a M 738
be low and a M 732
be dead than a M 720
be you are a M 718
be doing that i M 716
be and that a M 698
be doing and i M 682
be set out a M 678
be let out a M 678
be and how a M 674
be run off a M 668
be got and a M 666
be you for a M 660
be and for a M 645
be with him i M 638
be but that a M 627
be his for a M 614
be mad for a M 612
be won and a M 604
be using for a M 604
be any way i M 604
be god for a M 590
be too sad a M 588
be with and i M 586
be and not a M 584
be with them i M 566
be long but i M 564
be ill with a M 558
be doing that a M 546
be for but a M 540
be let off a M 538
be red with a M 537
be real for a M 528
be one and i M 510
be low with a M 504
be had and i M 498
be had but a M 497
be not with a M 496
be for man a M 496
be then that i M 492
be for all a M 487
be with for a M 486
be but that i M 483
be rid for a M 474
be and with a M 472
be and are a M 470
be that hath a M 468
be not all a M 467
be run and a M 462
be now but a M 460
be had was a M 456
be any for a M 452
be that than a M 450
be read than a M 448
be but with a M 444
be yet for a M 436
be dead and a M 434
be who has a M 430
be with and a M 428
be not now a M 427
be for long a M 427
be all for a M 424
be ten and a M 420
be led for a M 420
be any but a M 420
be old and a M 416
be not that i M 409
be going and i M 404
be doing this a M 392
be sad but i M 384
be that all i M 382
be dead but i M 380
be then that a M 374
be got but a M 372
be and who i M 372
be that has a M 371
be that both a M 361
be and had a M 353
be vying for a M 352
be off and i M 348
be easy being a M 346
be things that a M 342
be fit using a M 342
be this was a M 340
be weak and a M 338
be cut out a M 336
be long that i M 332
be not that a M 330
be easy and a M 328
be death for a M 326
be real and a M 324
be old and i M 324
be fit that i M 318
be that bad a M 316
be doing all i M 314
be dead with a M 312
be bad and i M 312
be that now i M 310
be long and a M 310
be long with a M 308
be sad that i M 306
be too far a M 303
be eating for a M 300
be not yet a M 299
be doing god a M 296
be read with s M 291
be she was a M 286
be ill and i M 286
be too old a M 284
be use for a M 280
be lit for a M 280
be lying with a M 278
be had than a M 278
be and now i M 278
be lit and a M 274
be and has a M 270
be red for a M 268
be set near a M 266
be had not a M 266
be that using a M 264
be mad but i M 264
be dying and i M 264
be ere long a M 262
be using them a M 260
be too mean a M 260
be mad and i M 260
be going out a M 256
be they had a M 254
be that was a M 253
be with her i M 252
be who had a M 252
be put and a M 250
be had had a M 246
be this day a M 242
be read but a M 242
be singing with a M 240
be she had a M 240
be had that a M 238
be yet but a M 236
be old for a M 236
be apt for a M 236
be dry and a M 234
be beat with a M 234
be than for a M 232
be wet for a M 230
be read and i M 228
be thus for a M 224
be one way a M 224
be beat for a M 224
be and yet i M 224
be this way i M 218
be got than a M 218
be bad and a M 214
be cut and i M 212
be than that a M 210
be and why i M 210
be war and a M 208
be put out a M 208
be long for a M 208
be that way i M 206
be real and i M 204
be fit that a M 204
be any way a M 204
be weak that i M 202
be god and a M 198
be new for a M 196
be that and i M 194
be that and a M 194
be she has a M 194
be put near a M 194
be big for a M 194
be rid with a M 192
be put was a M 192
be now for a M 192
be long ere a M 192
be with that i M 190
be near you i M 190
be hung near a M 188
be for you i M 188
be big with a M 188
be sad and i M 186
be doing but i M 186
be one day i M 185
be for each a M 184
be then but a M 182
be out and a M 178
be that man a M 176
be red and a M 176
be for using a M 176
be doing things a M 176
be how can i M 175
be they are a M 174
be god and i M 174
be for being a M 174
be they for a M 172
be you had a M 170
be that long a M 170
be his with a M 170
be bad with a M 170
be cut off i M 168
be that but a M 166
be one way i M 166
be big and i M 166
be bad but i M 166
be read that i M 164
be hid for a M 164
be dry with a M 162
be for both a M 160
be eating with a M 160
be war with a M 158
be too long i M 158
be that had i M 158
be that way a M 157
be has had a M 157
be weak and i M 156
be then read a M 154
be you and a M 152
be had using a M 152
be doing and a M 152
be won but a M 148
be read was a M 148
be one was a M 148
be far off a M 146
be that day a M 144
be sad with a M 144
be real with a M 144
be dead ere i M 144
be this and i M 142
be run and i M 142
be one but i M 142
be his and i M 142
be with but a M 140
be that man i M 140
be let with a M 140
be got was a M 140
be and all i M 140
be one using a M 138
be mean and i M 138
be was for a M 137
be ill and a M 136
be get you a M 136
be then for a M 134
be than that i M 134
be out but a M 134
be odd that a M 132
be new and a M 132
be that all a M 130
be him for a M 130
be any day a M 130
be was but a M 128
be this big a M 128
be dim with a M 128
be was now a M 126
be this that i M 126
be that had a M 126
be shy and a M 126
be but now i M 124
be you than i M 122
be going but i M 122
be you got a M 120
be singing for a M 120
be shy with a M 120
be read has a M 120
be not then a M 120
be her for a M 120
be had that i M 120
be each year a M 120
be but not a M 119
be won was a M 118
be weak with a M 118
be too that a M 118
be thus far a M 118
be sad and a M 118
be out that i M 118
be man but a M 118
be kings for a M 118
be for men a M 118
be meat for a M 117
be two for a M 116
be read that a M 116
be new and i M 116
be how far a M 116
be god but a M 116
be for god a M 116
be won and i M 114
be who was a M 114
be this year a M 114
be this way a M 114
be near and i M 114
be hung and a M 114
be you see a M 112
be who saw a M 112
be die for a M 112
be that one a M 111
be not read a M 110
be men and i M 110
be near with a M 108
be his and a M 108
be got off a M 108
be using with a M 106
be too bad i M 106
be bid for a M 106
be wet and a M 104
be near him a M 104
be had but i M 104
be using has a M 102
be out doing a M 102
be near for a M 102
be doing things i M 102
be both for a M 102
be thus with a M 100
be set and i M 100
be not put a M 100
be and then a M 99
be going mad a M 98
be and let a M 98
be mad with a M 96
be long now i M 96
be his son i M 96
be wed with a M 94
be one but a M 94
be now with a M 94
be any age i M 94
be them for a M 92
be off that i M 92
be odd and a M 92
be him and i M 92
be her and i M 92
be doing was a M 92
be with but i M 90
be wed and i M 90
be one year a M 90
be off and a M 90
be for long i M 90
be all and i M 90
be with out a M 88
be with one i M 88
be that you a M 88
be singing and i M 88
be near him i M 88
be low and i M 88
be law and i M 88
be ill was a M 88
be easing off a M 88
be that then i M 86
be that one i M 86
be put and i M 86
be now not a M 86
be lying for a M 86
be lying and i M 86
be law that a M 86
be how long a M 86
be cut was a M 86
be now that a M 82
be key for a M 82
be dying with a M 82
be but then i M 82
be with ease a M 80
be run was a M 80
be hung and i M 80
be eating off a M 80
be has not a M 70
be man with a M 48
be and get a M 43
be met with a D 53730
be met for a D 16884
be fed with a D 10994
be hit with a D 10504
be sung with a D 3154
be fun for a D 3063
be fed for a D 2940
be dug with a D 2310
be met and a D 2250
be fun and a D 1016
be with thee a D 762
be dug and a D 746
be met using a D 666
be fed and a D 634
be fun and i D 556
be not thou a D 530
be sung for a D 436
be dug for a D 384
be eking out a D 376
be rung for a D 350
be gay and a D 348
be hot for a D 340
be hit for a D 340
be for thee a D 296
be met was a D 282
be met and i D 272
be fun with a D 265
be fed and i D 248
be thin and a D 246
be met with i D 238
be rung and a D 228
be too hot a D 220
be hot and i D 220
be fed using a D 218
be fun being a D 215
be sung and a D 212
be gay and i D 190
be too thin a D 186
be deaf for a D 186
be dug out a D 168
be with thee i D 166
be ringing for a D 166
be gay with a D 164
be fun but i D 164
be too neat a D 152
be thin with a D 148
be hoed with a D 142
be gay for a D 140
be hot and a D 138
be thou art a D 128
be suing for a D 114
be dug near a D 110
be hit and a D 106
be gay but i D 104
be fat and i D 102
be thou all a D 100
be sex with a D 100
be thin and i D 96
be hit and i D 94
be thin for a D 92
be gay was a D 88
be fed was a D 86
be thou and i D 84
be rung with a D 82
