jar in a pan D 872
jaw of a man D 858
jaw of a dog D 432
jaw of a hog D 395
jaw in a way D 372
jaw of a pig D 314
jaw of a dead D 302
jaw of a lion D 294
jaw of a cow D 240
jaw of a new D 234
jaw of a bear D 233
jar in a pot D 202
jab of a pin D 194
jar in a dry D 182
jaw of a boy D 174
jar or a tin D 164
jam on a hot D 161
jaw in a sling D 160
jar or a pot D 156
jar is a jar D 138
jar so i may D 124
jar or a can D 121
jaw in a few D 108
jar in a box D 102
jar or a box D 100
jaw of a cat D 96
jar on a hot D 96
jam in a jar D 96
jar of a key D 90
jaw of a six D 59
