db can not be D 346
db and that the D 239
db and for the D 220
db and that of D 215
db and can be D 200
db for each of D 162
db for both the D 124
db and may be D 115
db for all the D 92
db and with the D 84
db that can be D 80
db and this is D 80
