fly was now too M 1040
fly with him and M 938
fly off with them M 690
fly with his own M 634
fly off with him M 588
fly with all his M 569
fly this way and M 568
fly ash for use M 566
fly and did not M 517
fly and fly and M 509
fly that does not M 491
fly out and see M 490
fly him and his M 484
fly with its wings M 432
fly off with her M 429
fly but can not M 426
fly ash fly ash M 371
fly all this way M 370
fly for his own M 347
fly off with his M 336
fly with song and M 326
fly with them and M 322
fly and can not M 321
fly now and then M 320
fly all that way M 314
fly one way and M 297
fly off and are M 292
fly out with him M 282
fly but did not M 280
fly with you and M 270
fly ash does not M 270
fly out and get M 266
fly with two wings M 263
fly and does not M 262
fly off his head M 261
fly off and get M 260
fly all day long M 251
fly all day and M 244
fly off with you M 242
fly off with its M 236
fly now and pay M 228
fly ash and its M 222
fly with her own M 220
fly that was not M 220
fly has not yet M 209
fly with her son M 206
fly out with them M 202
fly and you can M 200
fly with its own M 197
fly that can not M 195
fly with her and M 190
fly does not lay M 186
fly out and then M 180
fly and all but M 176
fly with all her M 175
fly low and are M 173
fly but does not M 172
fly ash did not M 162
fly and fly with M 158
fly with joy and M 155
fly with ease and M 147
fly with all that M 147
fly with him day M 146
fly off with any M 146
fly does not mean M 145
fly too far out M 144
fly two and two M 142
fly and they are M 140
fly and how they M 140
fly that did not M 137
fly has two wings M 137
fly out and set M 134
fly with him that M 132
fly and they can M 131
fly out with her M 127
fly with long wings M 126
fly but can run M 126
fly you are using M 123
fly off with one M 122
fly has its own M 122
fly with any boy M 120
fly that you can M 120
fly out with you M 120
fly can not get M 120
fly out that day M 118
fly and are not M 118
fly too low and M 117
fly off and then M 117
fly does not get M 117
fly and that they M 115
fly and all that M 115
fly and bring him M 113
fly but they are M 112
fly and wet fly M 112
fly with one she M 110
fly was not yet M 110
fly with him for M 109
fly and dry fly M 109
fly both day and M 108
fly you out for M 106
fly with them for M 106
fly with all its M 106
fly too far and M 102
fly singing and with M 102
fly are but few M 100
fly and let his M 100
fly but they can M 99
fly off her head M 98
fly near his head M 98
fly that had lit M 96
fly her and her M 96
fly and they got M 95
fly with his new M 93
fly out and bring M 93
fly with but one M 90
fly them out and M 88
fly and things that M 88
fly and how far M 88
fly with all our M 86
fly off and not M 86
fly ash are not M 86
fly with our own M 84
fly with her for M 84
fly that had got M 84
fly out and are M 84
fly and they did M 84
fly too low for M 80
fly ash and fly M 75
fly they can not M 67
fly with wings and M 65
fly and how long M 61
fly ash was not M 56
fly and get out M 53
fly and she was M 51
fly and you are M 50
fly you can not M 49
fly that she had M 49
fly are you using M 49
fly with wings that M 46
fly them all out M 45
fly and run with M 45
fly but are not M 44
fly and that was M 41
fly with one eye M 40
fly that day and M 40
fly out with his M 40
flu and did not D 491
fly ash and raw D 463
flu that was going D 416
fly and leaf and D 409
fly off and hit D 373
fling now and then D 353
flu and can not D 349
fly out and hit D 290
flu and was not D 220
fly tying and fly D 182
fly out and sting D 171
fly rod and fly D 146
fling out his arm D 140
flu and had not D 139
fly thou how thou D 120
fly rod and its D 112
fling him off with D 112
flu and she was D 108
fling him off and D 106
fly ash per day D 104
fly and hit him D 104
flu and was too D 93
floe had not yet D 92
fling all that she D 88
fly with his gun D 84
flu bug that had D 53
flu and was out D 43
