flying in the air M 48966
flying in the sky M 12095
flow of the air M 10086
flying by the seat M 9781
flow to the area M 8965
flag of the new M 7573
flow at the end M 6812
fled to the east M 5726
flow of the two M 4904
flow in the two M 4486
flow to the east M 4383
flow in the area M 4369
flow in the dog M 4181
flow in or out M 4157
flag at the top M 4060
fled to the rear M 4056
flow to the head M 3520
flag on the top M 3370
flying on the wings M 3139
flag at the head M 3030
flow to an area M 2938
fled to the new M 2815
flag at the end M 2810
flag to the top M 2784
flag of the old M 2347
flow in the earth M 2262
flow of the poem M 2070
flying at the top M 2066
flow of the new M 2025
flow is the sum M 1984
flag to be set M 1920
flag of the red M 1909
flow at the top M 1864
flaw in the way M 1826
fled to the top M 1682
flow to the top M 1668
fled to it for M 1662
flying in the area M 1606
flow of the earth M 1445
flow of the heat M 1396
fled to the far M 1394
flow is at its M 1374
flip in the air M 1370
flow of the day M 1354
flow in the dry M 1346
flaw in the new M 1343
flow in the near M 1307
flag in the air M 1264
flow in the new M 1241
flow is in one M 1176
flow in the gap M 1176
flow to the end M 1163
flow in the arm M 1160
flee to the east M 1148
flag as it was M 1138
flow in the cat M 1116
flow to the leg M 1070
flying at the head M 1056
flow in the low M 1037
flag in the new M 1033
flow to the eye M 1007
flow to the two M 1000
fled by the way M 990
fled to me for M 978
flow in the air M 974
flaw in the idea M 954
flying at the end M 936
fled to the low M 924
flag on the end M 921
flying to the top M 909
flow of the old M 873
flow in the old M 872
flaw in the act M 868
flow of the war M 865
flow on in one M 858
flow to the arm M 854
flow on the east M 853
flow in the top M 848
flow by the use M 835
flow of my own M 832
flying up to our M 828
flaw in the law M 827
flying in at one M 818
flying to the rear M 802
flow on the one M 800
flow of the one M 795
flow to the earth M 794
flow in the die M 780
flying to the east M 775
fled to the old M 775
fled at the end M 772
flow of the song M 769
fled to us for M 748
flow to the new M 747
flying up to her M 729
flow to the low M 727
flying in the sun M 718
flow in the leg M 717
flow in the long M 698
flow in an area M 698
fled on the wings M 694
flow is the key M 689
flow of the red M 683
flying in or out M 669
flow of the poet M 665
fled at the cry M 660
flow to the air M 658
flow as it was M 658
flying on the top M 657
flow is to use M 655
flow in the way M 642
flying up to him M 636
flaw in the old M 636
fled at the top M 627
flow on the earth M 614
flaw in the poem M 604
flow in the head M 600
flee to the new M 592
flow it is not M 589
flow in the path M 586
flow of the long M 585
flying as if they M 584
fled to the area M 584
flow in the one M 570
flow in the east M 568
flow at the two M 565
flag on it and M 558
flow of the real M 557
flag to the new M 554
flow on the arc M 544
flaw in the use M 538
flow to the heat M 536
flow on the two M 535
flag of the east M 532
flip to the end M 531
flaw in the man M 531
flying to the sun M 529
flee to the pit M 528
flow in the heat M 526
flow in the mid M 525
flow in the year M 524
flag at the bow M 522
flying in to see M 518
fled up the path M 516
flag to be run M 516
flag in the war M 516
flow of the sun M 514
flow at the head M 511
flow to the rear M 507
flag on the seat M 504
flying in the day M 498
flow as if they M 498
flow on the top M 495
flying to the aid M 494
flag on the red M 493
flow as it has M 492
flying in the lead M 490
flow of the low M 479
flow in the non M 475
flag to the end M 475
flow in the arc M 474
fled to the end M 473
flow on in its M 460
flow of the east M 459
flag on the new M 459
fled as if they M 448
fled up to her M 444
flow in the far M 443
flow at the earth M 440
flag in the top M 436
flow as it does M 430
flag on the wings M 430
flying to the far M 425
flow is the net M 416
flee to it for M 413
flag of my own M 412
flow of the year M 409
flying in the war M 406
flag or of its M 400
flow of the non M 391
flaw in my own M 390
flying up to new M 388
flag in the far M 379
flag of the rear M 376
flow is so low M 373
fled to the sky M 372
fled to the don M 370
flying to the sky M 368
fled on the day M 368
flow is the one M 366
flow to the one M 362
flow by the end M 362
flow in the web M 357
flow of the use M 350
flying to the end M 346
flee to the rear M 343
flag in the sky M 341
flag as an act M 341
flow at the rear M 340
flying in an arc M 339
fled to the big M 335
flying up to his M 334
flow in the rear M 334
fled to me and M 334
flag of the one M 333
flow of the area M 332
flow at or near M 332
fled as if for M 330
flag of the two M 330
fled or is dead M 328
flying in the new M 327
flow to the non M 326
flag to be hung M 326
flaw in it and M 324
flying at the age M 322
flaw in the boy M 322
flow of the big M 319
flow to us and M 316
flow in the real M 316
flip it on its M 316
flag in the rear M 315
flow to be one M 314
flow in it and M 312
flow as it did M 310
flow in to him M 306
flag of the all M 302
flow in the eye M 301
flag is the one M 300
flow on the day M 298
flow at the low M 296
flow is in both M 295
flow in an air M 294
flow in at one M 292
flow of the wet M 291
flow of an air M 290
flip at the end M 289
flying in an area M 288
flee to the far M 287
flaw of the new M 285
flag on the old M 284
flying to me for M 280
flow of the dry M 280
flag on the map M 278
flag in the east M 278
flag in the bow M 278
flag on the far M 277
flying in the old M 276
flow to it and M 276
flaw in it that M 276
flip of the head M 272
flow in the wet M 268
flying at an air M 265
flying in the rear M 264
flag to the rear M 261
flying as he was M 259
flying to me with M 258
fled in the dead M 257
flow is the use M 256
flying on my own M 254
flying as it does M 253
flow is in this M 252
flow is by far M 252
flaw in it was M 252
fled to the red M 250
flow of the now M 249
fled in the year M 248
flow of the dog M 247
flow is at all M 247
flip it up and M 246
flow as it had M 244
flying up to see M 242
flying in the east M 242
flag of the sun M 242
flying of the red M 241
fled to my own M 240
flag in the tcp M 238
flow in the end M 236
fled at the age M 236
flag on the day M 236
flag is up and M 232
fled if he had M 230
flag on the rear M 230
fled so as not M 228
flying on to new M 226
flee at the end M 225
flying in or near M 222
flow as the sum M 221
flag in the day M 220
flying in the far M 219
flow of the eye M 218
flying up to them M 216
flying at me and M 216
fled to the near M 214
flag in the old M 212
flying as if for M 210
flag of the war M 209
flow on the far M 206
flag on the yet M 206
flying to the old M 204
flow or it may M 204
fled to an area M 204
fled as if she M 204
flying by the end M 201
flag on the way M 201
flying up at him M 200
flying at my head M 198
flow on an arc M 198
flying in an air M 197
flow to be set M 196
flow of the mix M 196
flag or the red M 196
flag in the area M 195
flow of it all M 194
flow so as not M 193
flying up the path M 192
flying at the bow M 190
flow in an arc M 190
flow of the net M 188
flow of an idea M 186
fled to the one M 186
flying to the earth M 183
flag of the day M 180
flow of the idea M 178
flow in an east M 178
flee to the end M 178
flow to the day M 177
flow on the heat M 176
flow at the die M 176
flying at the new M 174
flow of the job M 172
flow is in any M 172
flow by an easy M 171
flying on the air M 170
fled to the bad M 170
flag to the seat M 170
flow is in two M 169
fled by the rear M 169
flaw in the one M 169
flow on or off M 168
flaw in the two M 168
flying as it was M 167
flow of it and M 166
flow is to add M 166
flow on to his M 165
flow of the man M 165
fled by the end M 164
flying at me with M 162
flow on the path M 162
flow in on him M 162
flow at the mean M 162
flee to the top M 161
flow on as one M 160
fled to the seat M 160
fled to the bar M 160
fled at the idea M 160
flag to the head M 159
flying in the low M 158
flow if it has M 158
flow up to and M 157
flying in to new M 156
fled to the two M 156
flow in an easy M 155
flow of the team M 152
fled as he had M 152
flying at or near M 151
flow is the mean M 151
flip it on and M 151
flee in the dead M 151
flag is the red M 151
flying in at that M 150
flow of my being M 150
flaw in the poet M 150
flee to the low M 149
flow of the top M 148
flee in the day M 148
flaw of the old M 148
flow up to this M 147
flying on to his M 146
flying on the way M 146
flee as he had M 144
flying in so mean M 142
flow in the bar M 142
flag is to fly M 142
flag by so doing M 142
flip of the wings M 140
fled in the day M 140
flag to be put M 140
flag on the one M 140
flying as he did M 139
flee on the wings M 138
fled in my fear M 138
flag of an old M 138
flying up in his M 136
flag on the bow M 136
flying on the one M 135
flying in the mid M 135
flying in an old M 135
flaw in the die M 135
flag if it was M 135
flee to the sky M 134
flee as he was M 134
flag to the far M 133
flying up to say M 132
flying to the head M 132
flow of the arc M 132
fled to the wings M 132
flag as if they M 132
flow of the things M 131
flow is the way M 131
flying up to god M 130
flow of the six M 130
flow up to that M 129
flow to the old M 129
flow or by using M 128
flow of the path M 128
flow if the two M 128
fled to an old M 128
fled on the death M 128
flaw is we may M 128
flag as he had M 128
flip it so that M 127
flying by my head M 126
flow of the arm M 126
fled to the men M 126
flag in the sun M 126
flow to the far M 125
flying as it did M 124
flow on the dead M 124
flee to the son M 124
flag in an area M 124
flag of the bear M 123
flow of the head M 122
fled to the head M 122
fled in the sky M 122
flag is the new M 122
flow to be two M 121
flying at the man M 120
flow is in its M 120
flow in the pre M 120
fled to the god M 120
flaw in the long M 120
flag on the box M 120
flag is an act M 120
flag at the far M 120
flow in so far M 119
flow on the way M 118
flow of the set M 118
flow of the pre M 118
flag to the men M 118
flag on the sky M 118
flaw in the earth M 117
flow on the low M 116
flow in the day M 116
flying to the area M 114
flying to be with M 114
flow is the real M 114
flying as an air M 113
fled to the then M 113
flow on the new M 112
flow in us and M 112
flag in the lead M 112
flying in the dead M 111
flow on to its M 111
flying it is not M 110
flow to the big M 110
flow of the weak M 110
flee to the big M 110
flag on the east M 110
flow in so that M 109
flow in on them M 109
flag of the cat M 109
flag at the rear M 109
flying on the day M 108
flying in the path M 108
fled to it had M 108
fled to be with M 108
flag of the death M 108
flag in the heat M 108
flow to the dog M 107
flow of the web M 107
flow in at all M 107
flying to the new M 106
flying in the near M 106
flying as he ran M 106
flow is as low M 106
flaw at the end M 106
flag in it and M 106
flying in the big M 105
flying by the use M 105
flow to the mean M 105
flow as the air M 105
flying up at her M 104
flow of the lead M 104
flaw in the myth M 104
flag as the one M 103
flow of the end M 102
flow of the act M 102
flow in so long M 102
flow at the new M 102
flee by the way M 102
fled in the heat M 102
fled at the head M 102
fled at the death M 102
fled as if with M 102
flag to the old M 102
flow to me and M 101
flow as it goes M 101
flying up to this M 100
flow of the saw M 100
flow of the run M 100
flow of tea and M 100
flow is by using M 100
flaw is the use M 100
flow in the red M 99
flow in the net M 99
flying in on his M 98
flow at the mid M 98
flag by the old M 98
flag as he did M 98
flying in the year M 97
flying at the low M 96
flee to the old M 96
flaw in the web M 96
flag to it and M 96
flee to us for M 95
flying to me and M 94
flying in at low M 94
flying as if she M 94
flow of the beat M 94
flag on it that M 94
flag as it had M 94
flag if we had M 93
flying on the old M 92
flying in the bow M 92
flow of the meal M 92
fled on the way M 92
flow to the bag M 91
flow of the law M 91
flow is the set M 91
flying is by far M 90
flying as he had M 90
flow in to pay M 90
fled to the earth M 90
flow by the area M 89
flying to the man M 88
flying to my head M 88
flow of the cat M 88
flow is of low M 88
flee to the area M 88
flee if he had M 88
flag to go and M 88
flag or the singing M 88
flaw in the day M 87
flying to be now M 86
flying on to her M 86
flow in the use M 86
flee or to die M 86
flee in the way M 86
fled to the few M 86
flag of the pre M 85
flag as the sun M 85
flag at the dip M 84
flag or in any M 83
flying up the long M 82
fled to it with M 82
fled in the old M 82
flag on the big M 82
flying on the end M 81
flying up to its M 80
flying up on each M 80
flying up of its M 80
flying in at her M 80
flag in the way M 80
flag on or off M 78
flow in the mean M 76
flow on as they M 74
flow in the lead M 74
flaw in me that M 65
flow to it that M 60
flow to the die M 58
flaw in the set M 57
flow in or near M 56
flow if it had M 55
flag in the red M 54
flow at the air M 53
flow to my head M 51
flow in to them M 51
flying of the two M 50
flow to the wet M 50
flow to an end M 50
flow so it can M 50
flow in on all M 50
flow in the off M 49
flow to the real M 48
flow to the few M 48
flee to the one M 48
flow of the near M 47
flow in the run M 47
flag of the dead M 47
flying in the two M 46
flow to the dead M 46
flag by the way M 46
flow to the man M 45
flow on the head M 45
flow of the age M 45
flow if it was M 45
flow as it may M 45
flag in the long M 45
flag by the end M 45
flying at the rear M 44
flow up to its M 44
flip on the air M 44
flow in to you M 43
flow in the sky M 43
flow if we are M 43
flow at the far M 43
flag in the end M 43
flow we do not M 42
flow to the way M 42
flow on to that M 41
flow by the mean M 41
flaw in the real M 41
flow to the red M 40
flat on the top D 17372
flow of the gas D 14265
flat on the bed D 13361
flat at the top D 12764
flew in the air D 12249
flat in the rue D 8976
flux in the air D 7261
flew to the top D 6078
flat on the earth D 5077
flat at the end D 4812
flew up to her D 4750
flow of the sap D 4590
flow of the oil D 4526
flung it at him D 4278
flow of the ice D 3975
flux at the earth D 3587
flat on the ice D 3448
flow in the rat D 3392
flew on the wings D 3288
flux at the top D 3113
flat on the mat D 3055
flew up to his D 2840
flung it at her D 2310
flung in the air D 2221
flew in the sky D 2215
flung it at his D 2126
flat in the mud D 2101
flow of the hot D 2016
flat on the rue D 2002
flung it in his D 1830
flow in the lung D 1800
flow to the lung D 1773
flat in the key D 1722
flat to the earth D 1712
flat on the head D 1640
flux in the gap D 1633
flap at the top D 1627
flat of my own D 1586
flag at the peak D 1497
flap of the wings D 1468
flow to the gut D 1416
flung it as far D 1397
flat to the head D 1380
flat on the seat D 1378
flap at the end D 1360
flew at me and D 1340
flew to the east D 1270
flew to the aid D 1252
flung up an arm D 1234
flew up to him D 1234
flux is the sum D 1232
flew by the seat D 1220
flat on my ass D 1212
flying at the peak D 1196
flat in an old D 1176
flew at me with D 1112
flung at my head D 1094
flow in the gas D 1063
flow of the jet D 1056
flew up to new D 1050
flung at the head D 1038
flew up to see D 1026
flew to the sky D 1008
flat as it was D 1008
flat on the way D 991
flow in the jet D 978
flat in the bed D 968
flew on to new D 966
flat at the head D 952
flat on the end D 949
flow of the dye D 942
flap of the bag D 935
flew at the man D 932
flat in the east D 929
flat on the bar D 904
flow of the ink D 897
flue at the top D 886
flew to the bed D 881
flew in to see D 868
flux at the end D 855
flew to me with D 838
flat on the east D 831
flat in the old D 825
flop on the bed D 821
flung on the bed D 810
flux in the two D 800
flat on the wet D 770
flew to the far D 769
flop at the box D 767
flat in the sun D 764
flux of the two D 749
flow of the raw D 744
flow in the bed D 728
flat as it had D 714
flux of the gas D 700
flew to the man D 687
flew up to them D 684
flung to the earth D 682
flew to the head D 680
flux in the beam D 672
flew to the inn D 670
flow at the tip D 662
flag of the seas D 661
flew to the end D 660
flap of the box D 646
flat to the eye D 638
flat as if they D 618
flux of the earth D 604
flat so as not D 596
flux of the sun D 595
flat in the new D 588
flew on to his D 584
flat on the rug D 584
flew to the area D 576
flap in the air D 576
flow of the ions D 570
flat on the ears D 566
flung it at them D 562
flew in the war D 561
flew in an arc D 559
flow at the bed D 548
flew up in his D 542
flew to the old D 542
flung to the mob D 540
flat in the air D 531
flow to the gas D 529
flux at the air D 521
flux of the beam D 520
flow in the hot D 519
flung it to one D 518
flat of an old D 518
flat on the saw D 517
flap at the rear D 508
flew to my head D 506
flew to me and D 506
flat in the area D 506
flew by as they D 500
flew to it and D 498
flung it on his D 494
flew at it with D 492
flow of the pen D 491
flat to the east D 486
flag on the seas D 478
flow as in fig D 467
flew at the head D 466
flat in the pan D 454
flat on my bed D 452
flat on the mud D 447
flung it in her D 444
flew up the path D 444
flux of the real D 440
flow in the thin D 440
flow of the wax D 436
flux on the earth D 434
flow in the lee D 424
fleas on the dog D 424
flap of the bar D 422
flag on the car D 418
flux to the air D 417
flux in the head D 410
flat on my own D 406
flew to the new D 405
flux in the area D 402
flew up at his D 402
flux by the area D 397
flew in the lead D 392
flew by on wings D 392
flew to it with D 390
flinging it at him D 388
flat as the top D 382
flux in the gas D 378
flat at the tip D 374
flat in the low D 370
flat as an old D 370
flat on the one D 368
flat as in fig D 366
flung it up and D 364
flux to the earth D 358
flex at the hip D 358
flow of the ore D 357
flung it to him D 354
flow in the pig D 354
flux of the ions D 352
flow to the tip D 352
flew at it and D 350
flux is at its D 346
flew to the rear D 340
flat on the far D 337
flag on the peak D 334
flew to the big D 328
flat on the hot D 327
flap on the top D 323
flux in the near D 322
flew by as she D 322
fleas in my bed D 322
flux of the air D 321
flat on the lap D 320
flat is to let D 319
flow to the oil D 316
flew up to one D 316
flow in the bay D 315
flat of the old D 314
flop to be set D 312
flew me to new D 312
flat on the car D 310
flew up in her D 306
flat in the top D 306
flat on the map D 302
fled to the bay D 300
flat in the long D 300
flat on the two D 298
flat to the top D 296
flat on the day D 296
flap of the tear D 294
flow on the bed D 293
flew in the day D 293
flat as it can D 292
flue at the end D 291
flow in the ice D 291
flew up at him D 288
flat as if she D 288
flag in the bog D 288
fled on the eve D 286
flat on my head D 286
flow on the lee D 285
flew at the end D 282
flew in an air D 281
flung it to her D 280
flux of the jet D 278
flap of the top D 278
flow in the gut D 276
flat on it and D 276
flat in the rear D 276
flow of an oil D 272
flew in at one D 271
flew up as she D 270
flow in the beam D 267
flow in the oil D 262
fled by sea and D 262
flew to the sun D 259
flux at the two D 258
flux on the top D 256
flew to be with D 256
flat in the box D 256
flat at the rear D 256
flop of the year D 254
flat to the bed D 253
flew at the boy D 252
flat of the head D 251
flux of the new D 250
flew to do his D 250
fled to the car D 246
flow of the lung D 244
flit in the air D 244
flew as if with D 244
flat on the big D 244
flap of my fur D 244
flung on the top D 243
flog me to death D 242
flat on the dry D 242
flux in an air D 238
flak on the way D 238
flat as he had D 236
flew on the top D 235
flung up the lid D 234
flux in the earth D 230
flat on the rim D 229
flung to the far D 228
flew to the bear D 228
flux in the low D 227
flung to the sky D 227
flat on the rear D 226
flip of the rod D 225
flung in the way D 224
flag to the peak D 224
flung at the boy D 222
flew up in all D 222
flux in the rod D 221
flap in the area D 221
flying in the hot D 220
flat in an area D 220
flow of the fur D 219
flat of the axe D 219
flow at the peak D 218
flew at the dog D 218
flat as he was D 218
flap to the top D 218
flap on the end D 215
flew to do her D 214
flow at the jet D 212
flew by on his D 212
flung it on top D 211
flux at the peak D 210
flow to the jet D 210
flow of the seas D 210
flew at the cat D 210
flew as if they D 208
flap of the long D 208
flat on the air D 207
flop is in its D 206
flew up as they D 206
flux in the mid D 204
flew to an old D 204
flat by the end D 204
flag in the ice D 204
flow to the bay D 203
flux in the jet D 202
flew to the two D 202
flew in on his D 202
flat on the cot D 202
flap of the big D 202
flux as the sum D 201
flag on my car D 200
flow of the ebb D 199
flow of the swing D 198
flew up at her D 198
flew in to new D 198
flaw in the tax D 198
flow of the mud D 197
flew up in fear D 196
flying in the fog D 195
flow in the tip D 194
flinging it in her D 194
flat on the heath D 194
flux is so low D 193
flow in the lad D 193
flux in the path D 192
flew to it all D 192
flew by my head D 192
flap in the top D 192
flow to the seas D 191
flow of the thin D 191
flow at the dam D 191
flux in or out D 190
flow to the hot D 190
flew up to our D 190
flue to the top D 188
flux to the area D 187
flinging up an arm D 186
flew at the top D 186
flow in the sac D 184
flow in the bath D 184
flat on to his D 184
flew in the sun D 182
flat on the red D 182
flew to the box D 181
flat at the two D 181
flap on the rear D 181
flew to the dog D 180
flew by me and D 180
fleas in the bed D 180
flat or it may D 180
flying in the bay D 179
flung it to his D 176
flat on the log D 176
flew on the air D 174
flew at my head D 174
flag in the mud D 174
flux as in fig D 173
flew to it for D 172
flat in the head D 172
flow of an ice D 171
flux on the one D 170
flung in my way D 170
flog it to death D 170
flinging it at her D 170
flew on to her D 170
fled in the car D 170
flap of the lid D 170
flung it at one D 168
flow to the ears D 168
flat on the box D 168
flat as the one D 168
flat as the old D 168
flow in the sub D 166
flew by on its D 166
flew as the two D 166
flat to the sky D 166
flat on the path D 166
flap of the hinge D 166
flying of the moth D 165
flat on the arm D 165
flat of the man D 165
flying at the mob D 164
flings it at her D 164
flap of it was D 164
flag to the seas D 164
flat as the earth D 163
flux to the heat D 162
flung up my arm D 162
flung on the dung D 162
flow to the bed D 162
flow in the rod D 162
fleas on the cat D 162
flat to the mat D 162
flat on the leaf D 162
flat on my way D 162
flat in the way D 162
flux in the far D 161
flat in the wet D 161
flat at the far D 161
flux on the two D 160
flat on the long D 160
flat on the lid D 160
flux on the sun D 158
flux in the bar D 158
flings it at his D 158
flew to the earth D 158
flew at the old D 158
flat to the end D 158
flat by the use D 158
flap of the old D 158
flux of the heat D 157
fleas of the dog D 157
flat in the end D 157
flung to the top D 156
flung on the air D 156
flex of the rod D 156
flying to the fen D 154
flow of the pus D 154
flop on my bed D 154
flew in my eye D 154
flap in the rear D 154
flux at the gap D 152
flung at me with D 152
flew up on his D 152
flux to be set D 150
flung to the end D 150
flew up to its D 150
flat or on end D 150
flat in the big D 150
flag in the ark D 150
flings it at him D 148
flew up at our D 148
flew to the boy D 148
flat so it can D 148
flung to the air D 146
flew to the long D 146
flee to the tap D 146
flow of the chi D 145
flux on the east D 144
flinging it at his D 144
flat in the mid D 144
flat in the bay D 144
flew at the peak D 143
flat of the earth D 143
flux to the seam D 142
flip of the dial D 142
flux to be cut D 141
flux in an area D 141
flux to the end D 140
flung at me and D 140
flew at us with D 140
flaw in the ice D 139
floes of sea ice D 138
flew up the long D 138
flew in to get D 138
flew at the men D 138
flue at the rear D 137
flew to the seat D 136
flat or on its D 136
flat on the hay D 136
flap in the rat D 135
flew up to god D 134
flew it at our D 134
flew in at low D 134
fled to the hut D 134
flat on the low D 134
flat if he had D 134
flag in the lion D 134
flux on the heat D 133
flux on the rod D 132
flew to the tip D 132
flew me in his D 132
flew in an old D 132
flew as if she D 132
flag in the seas D 132
flux to the mean D 131
flew in or out D 131
flat in the two D 131
flat as if cut D 131
flung to the east D 130
flung on the heap D 130
flew up in our D 130
flew to the peak D 130
flew to the car D 130
flew to me for D 130
flung it on her D 128
flow of the icy D 128
flinging it on his D 128
flew in at his D 128
fleas in the fur D 127
flap of the arm D 127
flinging it as far D 126
flat on the old D 126
flat in the eye D 126
flux to the ore D 125
flung by the sun D 124
flung at the old D 124
flaw in the gem D 124
flat if he did D 124
flat on the gas D 123
flung me on this D 122
flow in an oil D 122
flew by on her D 122
fled to the ark D 122
flat on the pad D 122
flap of the leg D 122
flung it so far D 121
flung in the path D 120
flow of my pen D 120
flip of the tip D 120
flip of the pen D 120
flew to the bay D 120
flat in the hot D 120
flow of the rat D 119
flew in the rear D 119
flying is an art D 118
flux to the bed D 118
flux is the heat D 118
flux at the tip D 118
flung it on its D 118
flew to my own D 118
flew at the big D 118
flat in the lap D 118
flat as we can D 118
flat as to let D 118
flag in the van D 118
flying in the car D 116
flung up at him D 116
flung to the men D 116
flow at the fan D 116
flinging of the two D 116
flat to the sun D 116
flat it is not D 116
flat as it has D 116
flat as he can D 116
flap of the hat D 116
flux to the top D 115
flue on the top D 115
flung at the man D 114
flow to the toes D 114
flew to the air D 114
flew in so low D 114
flew at the two D 114
flee to the ark D 114
flux at the bed D 113
flux in the new D 112
flung at us with D 112
flow in the seal D 112
fled up the bay D 112
fled to my car D 112
flax in the low D 112
flat in the earth D 112
flat if it does D 112
flap on the bag D 112
flux it is not D 111
flying in the van D 110
flux at the hot D 110
flux as it was D 110
flung at me that D 110
flew up on top D 109
flung to the rear D 108
flung it on one D 108
flow of the art D 108
flew up to get D 108
flew it to new D 108
flew in the area D 108
flat on the tip D 108
flag on the tip D 108
flag of the hon D 108
flux in the top D 107
flux by the mean D 107
flung at the dean D 107
flak in the area D 107
flung to the sun D 106
flung in the mud D 106
flow in the fig D 106
flew up on all D 106
flew to the one D 106
fleas in the sun D 106
flat on the ski D 106
flat on my lap D 106
flat on an old D 106
flat as if you D 106
flag of the lion D 106
flow at the hot D 105
flow of the tap D 104
flow of the beam D 104
flew up the east D 104
flew up on her D 104
flew to an oak D 104
flat on the nut D 104
flow of the mob D 103
flag on the eve D 103
flow as the gas D 102
flings it in his D 102
flat as it does D 102
flung it so that D 101
flux is to use D 100
flew up to and D 100
fled to the bed D 100
fled to sea with D 100
flat is the key D 100
flat in the near D 100
flap of wing and D 100
flux in the red D 99
flap at the tip D 99
flung at the new D 98
flings it in her D 98
flew to the hut D 98
flew on to our D 98
flat to us and D 98
flap is the one D 97
flux of the hot D 96
flung in in his D 96
flow of the bath D 96
flinging it in his D 96
flew by in his D 96
flat to the low D 96
flat in the car D 96
flap of the jib D 96
flap of the ears D 96
flux in the non D 95
flow of the gel D 95
flat of the long D 95
flinging in the air D 94
flew to the dead D 94
flat to be let D 94
flat on the beam D 94
flap of the hut D 94
flow in the seas D 93
flat of an axe D 93
flux in the heat D 92
flung up in his D 92
flew to the red D 92
fled by sea with D 92
fleas on an old D 92
flat so he can D 92
flat in the tub D 92
flat as he did D 92
flap in the seat D 92
flux is the net D 90
flung up in him D 90
flung on to his D 90
flung at the men D 90
flow of the sex D 90
flow of the fan D 90
flinging to the man D 90
flew as the car D 90
fled to the icy D 90
fled to the earl D 90
flat in the dry D 90
flap on the box D 90
flap is in its D 90
flaw in the art D 89
flinging it to one D 88
flew up at them D 88
flap of an owl D 87
flying in the jet D 86
flow of an icy D 86
flinging to the sky D 86
flinging it at you D 86
flew up to sit D 86
flew as if all D 86
flat on the leg D 86
flat in the bath D 86
flat as we had D 86
flap of the van D 86
flew us to new D 84
flew in the car D 84
flew in on him D 84
flat to my head D 84
flat on the rod D 84
flat on the jaw D 84
flat on the dead D 84
flow of the cow D 82
flew us in his D 82
flew at us and D 82
flap of an old D 82
flop at the end D 81
flat as the sun D 81
flak in the air D 81
flung at me for D 80
flow to my pen D 80
flinging at my head D 80
flew to the rim D 80
flew to my ears D 80
fled to the hot D 80
flat to go and D 80
flat in the bow D 80
flat as the day D 80
flow to the rod D 71
flat of the two D 71
flue in the top D 67
flow in an ice D 63
flue in the rear D 62
flow to the ice D 61
flux at the ice D 58
flux of the non D 56
flow to the peak D 56
flat of an oar D 56
flop in the air D 55
flow in the fin D 54
flop in the mud D 51
flat of the key D 50
flat is the one D 50
flow on the ice D 48
flow of the sub D 48
flux in the end D 46
flat to the key D 45
flat of the oar D 45
flew at the bear D 44
flat on my rear D 44
flap so as not D 44
flux is the one D 43
flat of the gun D 42
flap of the one D 42
flow of the fat D 41
flat on the sun D 41
flat of the top D 41
flung at the sky D 40
flow of the gum D 40
flinging of the arm D 40
flew to the ark D 40
flat by the two D 40
