flying out of his M 7324
flow out of his M 3902
flying out of her M 3806
flying all the way M 3608
flow out of this M 3524
flow out of him M 2802
flow out of her M 2746
flying off in all M 2402
flow for the year M 2281
flow all the way M 2270
flow out of that M 2070
flow out of them M 2028
flag with the red M 1944
flow out of our M 1896
flow that is not M 1816
flow out of one M 1779
fled out of that M 1756
flow out of you M 1686
fled all the way M 1648
fled out of fear M 1458
flow and do not M 1436
flag and the red M 1332
fled out of his M 1314
flag that he had M 1314
flag can be set M 1292
flow out of its M 1262
flow may be due M 1253
flow and the heat M 1207
flying out in all M 1182
flow out of each M 1000
flag bit is set M 993
flow and is not M 982
flag for the new M 944
flow all the year M 934
flag that is set M 934
flow out of and M 916
flag and the singing M 913
flow for the two M 835
flag out of his M 772
flee out of his M 726
flying out of its M 722
flying out of that M 706
flow out in all M 692
flow may or may M 682
flow and the use M 679
flying for the day M 634
flying out to see M 604
flow out to all M 604
flow and the mean M 543
flag all the way M 543
flow with the aid M 540
flag and it was M 534
flow for as long M 520
flow that is being M 519
fled and he was M 510
flying one of his M 509
flow out of any M 502
fled out of her M 492
flow but do not M 485
flag was to fly M 478
flying off the top M 475
flow due to this M 474
flying out of this M 470
flow can be set M 464
flying out of new M 462
flag may be set M 446
flow out of all M 436
flow out to our M 434
flow was at its M 430
flow due to its M 430
flying off the end M 408
flying for the air M 408
flow may be too M 403
flying and it was M 395
flying out of them M 390
flow both up and M 386
flow with the use M 384
flag and the old M 378
flow out to them M 370
flow near the top M 368
fled with the boy M 366
flow for the new M 362
flow and the head M 360
flying with the wings M 352
flow out the top M 352
flow out to her M 349
flow and it was M 349
flying off to new M 348
flying out of our M 344
flow and the area M 344
flow and in this M 341
flying out of one M 340
flow can be read M 336
fled out of him M 336
flow and the air M 332
flow out at one M 328
flow and the sun M 325
flag and the song M 320
flow that is too M 318
flow near the earth M 317
flow and the net M 316
flow and the two M 314
flying out at him M 310
fled out of this M 306
flag that is not M 306
flying and he was M 304
flow both in and M 304
fled with the two M 302
flow with it and M 299
flying was in its M 288
flag and the new M 287
flow and of its M 286
fled and it was M 286
flee out of fear M 284
flow that do not M 283
flow out of god M 282
flip out of his M 280
flow and is thus M 276
flow that we can M 272
flee all the way M 267
fled for the rear M 266
flee his or her M 264
flying out to new M 262
flag goes up and M 262
flying off to his M 260
flag with my own M 260
flag and do not M 258
flow and it may M 256
flow out to him M 255
flow out of both M 255
flag was the one M 255
flying off to her M 254
flag that he was M 254
flying off to one M 252
flying that he was M 250
fled one by one M 250
fled and the not M 250
flow are the two M 248
fled out of its M 248
flow and the way M 242
flow and the low M 241
flying with the sun M 237
flying with the aid M 234
flying one of them M 234
flag for me and M 234
flow and in its M 233
flow both to and M 232
flag out of her M 232
flow near the end M 230
flag was up and M 230
flow that we are M 229
flow and it has M 226
flow out on all M 222
flow path is not M 221
flying off to see M 220
flying with the air M 219
flow and the real M 219
flow than it does M 218
flow may be one M 215
flow that it can M 213
flying out of him M 212
flying off of his M 210
flow and it can M 208
flow but is not M 206
flow and to use M 206
fled his or her M 206
fled and no one M 205
flying one or two M 204
flow for the day M 204
flow out the end M 202
flow can be due M 201
flag was at that M 196
flying with an air M 194
fled had it not M 194
fled each to his M 192
fled and the men M 192
flag that we had M 192
flag for the day M 192
flag and the one M 191
flow and we can M 187
flow and the age M 186
flip out of our M 184
flying for so long M 182
fled with the few M 182
flying off the earth M 180
flow this is not M 180
flip out if she M 179
flag and the men M 179
flying for as long M 178
flow due to low M 178
flaw that is not M 174
flying off my head M 172
flag was in use M 172
flag ere the day M 170
flow year by year M 169
flag and the law M 167
fled with the old M 166
flying with us and M 164
flying and do not M 164
flag and of our M 164
flying off on his M 162
flow net is then M 162
flee out of this M 162
flow and the new M 160
flip him on his M 160
flag was the red M 160
flag with the two M 159
flying out at her M 158
flow off the end M 158
flow may be set M 158
flow can be put M 158
flag was in its M 158
flow with the air M 156
flag and the use M 155
flow can be cut M 154
fled out of our M 154
flow due to heat M 153
flaw lay in his M 152
flow and the long M 151
flip all the way M 151
flag that it was M 151
flag but it was M 150
flying and the use M 145
flying off in this M 144
flow may be low M 144
flow and the non M 144
fled and he had M 144
fled all the men M 144
flag run up and M 144
flying with the man M 142
flying off on its M 142
fled and so did M 142
flying out of all M 140
flow out at any M 140
flee out of her M 140
flow due to any M 139
flying off to its M 138
flying and the men M 138
flip you to see M 138
flying that he had M 136
flow that is due M 136
flow and on its M 136
flaw that it was M 136
flow out in one M 134
flow out at its M 134
flow and the one M 134
flag and the two M 134
flee out of them M 133
flying one by one M 132
flying near the sun M 132
flow that is both M 132
flag with the old M 132
flag led the way M 132
flag for the use M 132
flag and he was M 131
flying and he had M 130
flag out of its M 130
flip one of them M 129
flying off in one M 128
flow off in all M 128
flag and to our M 128
flag and in its M 128
flow that is now M 127
flow that is going M 127
flow than the one M 127
flow for the area M 127
flying that it was M 126
flow for the man M 125
flying off in his M 124
flow with the new M 124
flow with the ease M 124
flow may be read M 124
flow let us now M 124
flow that it has M 123
flow out at low M 123
flag that we are M 123
flying off the seat M 122
fled and the new M 122
flow and the end M 121
flying they do not M 120
flying leap at him M 120
flow out at all M 120
flow may be cut M 120
fled had he not M 120
fled and in its M 120
flow out as you M 117
flying and we had M 116
flip her on her M 116
fled with the men M 116
fled with the day M 116
flow due to both M 115
flag and the arm M 115
fled out of one M 114
flaw was in his M 114
flag mean to you M 114
flag for so long M 114
flag bit is not M 114
flying out to its M 112
flow area is not M 112
flip out if you M 112
fled off at one M 112
flow and it does M 111
flow that it was M 110
flag and to all M 110
flag and the man M 110
flow out to pay M 109
flying out to get M 108
flying out at you M 108
flow with no heat M 108
flow with an ease M 108
flow has so far M 108
flow but it can M 108
flaw lay in its M 108
flag not of our M 108
flow for the use M 107
flying one of our M 106
flying and the air M 106
flag and to his M 106
flow and the ease M 104
flag that is being M 104
flow path so that M 103
flee and do not M 103
flag with the new M 103
flying with the new M 102
flow out so that M 102
flow and is one M 102
fled now to him M 102
flag that is now M 102
flag can be read M 102
fled out the rear M 101
flag and he did M 101
flow and the sum M 100
flag and on one M 100
flag and of its M 100
flying off as she M 98
flying and in mid M 98
flow but it was M 98
flow and is then M 98
flow and by using M 98
fled out of things M 98
flying off the bow M 96
flow out by its M 96
flow but it does M 96
flow and the path M 96
fled and the two M 96
flying two by two M 94
flag and we are M 94
flag and in this M 94
flying one wing low M 93
flying and the war M 93
flow for the air M 93
flying out to him M 92
flying out to her M 92
flying off on her M 92
flying and the fear M 92
flow out to men M 92
flow out at this M 92
flow may be non M 92
flow and to get M 92
flow that it may M 91
flag and the war M 91
flying out at all M 90
flying being so long M 90
flying and so did M 90
flow out on its M 90
flow now as she M 90
flee but he was M 90
flag with the big M 90
flag put in his M 90
flow with the mean M 89
flow may be far M 89
flying out at them M 88
flow with the aim M 88
flee but it was M 88
fled she to her M 88
fled for the death M 88
flying and the two M 87
flying with me and M 86
flying out as she M 86
flag and it had M 86
flow was in one M 85
flip out if they M 85
flying off in that M 84
fled with the man M 84
fled with the aid M 84
flaw that he had M 84
flag that we saw M 84
flag that he has M 84
flip out on you M 83
flag and in his M 83
flying two of them M 82
flying and we are M 82
flaw that he was M 82
flag was in his M 82
flag can be any M 82
flow goes in both M 81
flying out on all M 80
flow long in one M 80
fled out of all M 80
flow and the earth M 74
flow end of year M 58
flow with the two M 55
flow with an easy M 55
flow for the six M 55
flow all in one M 54
flow and we are M 52
flying low so that M 51
flow and the top M 51
flow with an air M 50
flying and no one M 48
flow and he was M 48
flow with the heat M 46
flow they do not M 46
flow due to air M 46
flow for the low M 45
flow day by day M 45
flow one by one M 44
flag one of them M 42
flag and no one M 42
flying that is not M 40
flying but it was M 40
flying and the sun M 40
flow that he had M 40
flow out of two M 40
flaw may be that M 40
flew out of his D 20376
flew out of her D 11334
flew all the way D 7494
flung out an arm D 3956
fleas that on him D 2763
flung out of his D 2404
flat and do not D 2016
flew out of its D 1840
flat all the way D 1726
flew out to see D 1628
flew out of bed D 1509
flew out at him D 1414
flew off in all D 1294
flat and it was D 1184
flex his or her D 1034
flat out on his D 1010
flew out in all D 878
flat and the sun D 838
flew out of them D 828
flew off to his D 812
flog him to death D 800
flow law of ice D 798
flew off the bed D 794
flat top of this D 772
flog each of them D 759
flung out at him D 756
flew out of our D 738
flung them at him D 728
flung him on his D 708
flew off to new D 694
flat and he was D 690
flung one of his D 672
flew out of that D 672
flew them he was D 642
flow near the bed D 633
flat and he had D 596
flew out at her D 592
flat that it was D 590
flow and the ebb D 567
flinging out an arm D 558
flew off my head D 558
flew out of new D 556
flew out of one D 534
flung them at his D 532
flux due to this D 531
flat top of his D 530
flux and the heat D 529
flat area on top D 526
flat tax on all D 518
flat cap on his D 516
flung them at her D 512
flew out to new D 500
flat and the two D 500
flew off the top D 498
flew out of him D 496
flat with the head D 494
flap may be cut D 490
flat that he had D 480
flat out to get D 472
flung out of bed D 464
flung out of her D 456
flat out do not D 444
flat and the top D 438
flat and is not D 426
flung her on her D 414
flux that is not D 408
flux near the earth D 406
flat out on her D 404
flat top of one D 402
flew off the end D 392
flog you to death D 390
flap can be cut D 376
flat and the head D 374
flop can be set D 373
flat and the sky D 367
flew off to see D 364
flew off to get D 364
flung out of its D 360
flew off on his D 360
flung one of them D 354
flew off to her D 354
flew off to one D 350
flow and the bed D 347
flat that it can D 344
flat but it was D 338
flung them in his D 330
flat ban on all D 330
flew off in one D 328
flow and the gas D 326
flew him to new D 324
flung him to his D 322
flow net in fig D 320
flew off in his D 320
flag pin in his D 317
flux and the mean D 308
flew that he was D 308
flax and the tar D 304
flog them to death D 298
flue gas is then D 296
flew out to him D 288
flux for the two D 287
flat and we can D 284
flog her to death D 280
flat for as long D 280
flew two of them D 276
flat tax is that D 276
flag pin on his D 275
flap that is too D 269
flying off the bed D 268
flue gas is not D 267
flat that he was D 266
flung out at her D 264
flew out to his D 264
flying out of bed D 260
flat and the car D 256
flap all the way D 256
flux and the net D 254
flung them as far D 254
flung out my arm D 254
flat and we had D 254
flung him to one D 250
flux due to one D 249
flew with the wings D 248
flux out of any D 246
flung out in his D 246
flew out of this D 246
flew one of his D 246
flung them at each D 244
flat one on top D 244
flung off the bed D 241
flung out of that D 240
flew off the seat D 240
flux may be due D 239
flew out to her D 236
fleas are no fun D 236
flux due to its D 235
flux and is not D 234
flew that he had D 232
flat end of each D 228
flung one of her D 226
flying thru the air D 224
flung out of one D 220
flung out in all D 220
flat with the two D 220
flat with the earth D 220
flat top of that D 220
flew and it was D 218
flew ope at our D 216
flung out me and D 214
flew off to its D 214
flew off on her D 214
flat and the air D 211
flux and the area D 210
flat end of his D 210
flux and do not D 204
flung out at his D 204
flat for the year D 204
flow with the gas D 203
flog one of his D 202
flew out in his D 202
flat fee of one D 202
flux cut by one D 200
flat tax is not D 200
flat for so long D 200
flat and he did D 200
flat and the one D 198
flag and the seal D 196
flux out of this D 194
fleas out of his D 194
flat with an old D 194
flat box in her D 194
flow and the jet D 192
flew off in long D 192
flat near the end D 190
flat top of each D 188
flung her to her D 186
flew off on one D 184
flew off at our D 184
flow near the tip D 182
flat was in one D 179
flat and no one D 179
flung out to him D 178
flew off on its D 178
flat that it may D 176
flung off by any D 174
flog them if they D 174
flew her to new D 174
flat with the seam D 174
flat for as far D 174
flew out to get D 172
flap may be too D 172
flux due to both D 170
flinging them at her D 170
flux due to each D 169
flap them up and D 168
flat out in bed D 166
flat for the two D 166
flux due to any D 164
flung off the old D 164
flat near the top D 164
flung them in her D 162
flings out an arm D 162
flew out at them D 162
flux can be set D 160
flung out to his D 156
flat fee of two D 154
flew off of his D 150
flat fee of ten D 150
flung two of his D 148
flinging them at his D 148
flat out in his D 148
flung out to them D 146
flung out to her D 144
flog you if you D 144
flinging off my hat D 144
flat and is then D 144
flung her to one D 142
flew off as they D 142
flat and in its D 142
flat and the earth D 141
flow for the gas D 140
flew off the car D 140
flat top of its D 140
flung out of our D 138
flew with the team D 138
flax was in bud D 138
flat and it has D 138
flux and the earth D 137
flung him as far D 136
flew out of all D 136
flat box as she D 136
flat and in one D 136
flop may be set D 134
flog one of them D 134
flew them to new D 134
flue near the top D 133
flux that it was D 132
flew out as they D 132
flow net of fig D 131
flung out of all D 130
flat for me and D 130
flat end of this D 130
flat was the top D 129
flew one of its D 128
flat things at all D 128
flat hat on his D 128
flat and we are D 128
flat and it had D 128
flat and he has D 128
flow and the peak D 127
flung them on his D 126
flop that is set D 126
flew with the air D 126
flew out to them D 126
flat with the tip D 126
flat ban on use D 126
flow and the tax D 125
flung both of them D 124
flew one of them D 124
flat tax on each D 124
flat out of his D 124
flux due to heat D 123
flung him on her D 122
flung him at her D 122
flinging them at this D 122
flinging out of his D 122
flew off as she D 122
flag and the cap D 122
flew off the bat D 121
flux cut by each D 120
flung all the way D 120
flog them he did D 120
flat and the area D 120
flat and of low D 120
flew off at his D 118
flat tax is its D 118
flat but do not D 118
flog off the too D 116
flat with the aid D 116
flat and on end D 116
flat with the top D 115
flung mud at him D 114
flew off in that D 114
flat rim of his D 114
flat and the low D 114
flat and if you D 114
flung him to earth D 113
flux may or may D 112
flew out the day D 112
flat that it has D 112
flux than at any D 110
flung out on his D 110
flinging him on his D 110
flew out in two D 110
flew out as she D 110
flew one by one D 110
flux that it can D 108
flung off by his D 108
flew out the way D 108
flat that he and D 108
flat end of one D 108
flag with the lion D 108
flat out on top D 107
flat and the rim D 107
flung them to one D 106
flung off by its D 106
flog them as they D 106
flinging off of all D 106
flat that we had D 106
flux and the gas D 104
flinging out at her D 104
flat with an axe D 104
flat top of her D 104
flat area at its D 104
flat and on one D 104
flux and it was D 103
flung out in that D 102
flinging one of them D 102
flinging mud at earl D 102
flax that is fit D 102
flat fee is not D 102
flat cap to his D 102
flat area on each D 102
flow and the hot D 100
flat with no one D 100
flat with me and D 100
flat for the use D 100
flat area on one D 100
flat and so low D 100
flat and in this D 100
flux due to all D 98
flung them to his D 98
flinging them up and D 98
flinging them at him D 98
flew with it out D 98
flew out on all D 98
flew off to war D 98
flew off of her D 98
flat that it did D 98
flat that is not D 98
flat and as thin D 98
flat and the man D 97
flue gas or air D 96
flew with the aid D 96
flew with me and D 96
flew low so that D 96
flat top to his D 96
flings out of his D 94
flinging one of his D 94
flew out on his D 94
flew off on our D 94
flew for the air D 94
flat than it had D 94
flat box in his D 94
flat and the new D 94
flat and on its D 94
flag off the seas D 94
flux that is being D 92
flung them up and D 92
flung them on top D 92
flue and the air D 92
flew out in one D 92
flew him to his D 92
flat out if she D 92
flat with the end D 91
flung out by his D 90
flew that it was D 90
flew each to his D 90
fleas out of her D 90
flap may or may D 90
flag that the gum D 90
flew with me for D 88
flew out to one D 88
flew off it and D 88
flax for the use D 88
flat with the long D 88
flat but is not D 88
flung one by one D 87
flux may be set D 86
flung out by one D 86
flew one or two D 86
flew off as far D 86
flat that it had D 86
flat out on its D 86
flat and is now D 86
flat and in his D 86
flux and of its D 84
flung out on each D 84
flog him at his D 84
fleas out of each D 84
flat with the adz D 84
flat out to win D 84
flat out is not D 84
flat near the head D 84
flat for the day D 84
flat area of this D 84
flat and the oak D 84
flat and the going D 84
flat and the bed D 84
flat and so was D 84
flew with us for D 82
flew off to that D 82
flew and so did D 82
fleas are by this D 82
flat but it has D 82
flat out on one D 81
flux with the aid D 80
flux that we are D 80
flung him up and D 80
flew out as far D 80
flat was to let D 80
flat one by one D 80
flat near the old D 80
flat for tea and D 80
flat fee or for D 80
flop out of his D 62
flat with the key D 59
flak all the way D 51
flung off the top D 48
flap that is not D 48
flow with the oil D 47
flux and no one D 46
flat than the one D 44
flue gas so that D 41
flat and the rear D 41
