edge and compass . M 694
edge for support . M 506
edit and publish . M 383
edge and stopped . M 295
edge and surface . M 217
edit box control . M 210
edit cut command . M 180
edit them together . M 179
edge and watched . M 168
edit and rewrite . M 162
edit its content . M 139
edge off everything . M 132
edge for balance . M 130
edit and perfect . M 116
edge for success . M 116
edge was visible . M 110
edit his letters . M 98
edge for himself . M 98
edge for comfort . M 96
edge are visible . M 96
edit them himself . M 88
edit and correct . M 43
edit this journal . M 41
