though i did not M 374366
though i can not M 317469
though i was not M 126631
though i had not M 105382
though i may not M 32105
though a man may M 17151
thanks a lot for M 15424
though i can see M 10496
though a few are M 10446
thinking i was going M 8248
though i was going M 8188
though i had had M 7722
though i was too M 7710
though i fear that M 6650
though i was being M 6122
though i was now M 5911
though i had read M 5685
though i was then M 5582
though i was but M 4940
though i saw him M 4712
thanks i get for M 4602
thinks i can not M 4322
though a few may M 4226
though a man can M 4186
thinking i did not M 4172
though i was far M 4072
though i fear not M 3994
though i had long M 3793
though i had but M 3602
though a man who M 3518
though i saw that M 3389
though a man has M 3244
though a man say M 3184
though a few had M 3180
though i was doing M 3140
though a man had M 3120
though i was one M 3105
thinking i was not M 3048
though i may say M 3040
though a long way M 2848
though i see you M 2748
though i was with M 2738
though i see that M 2729
though i own that M 2640
thinking i can not M 2402
though i had all M 2360
though i fear you M 2344
though i had got M 2300
though i had two M 2290
though i did see M 2284
though i saw her M 2279
though i was his M 2240
though i saw them M 2230
though i can say M 2140
though i did get M 2106
though i was out M 2086
though i was all M 2014
thinking i was doing M 2010
though a few men M 2003
though i see not M 1999
though i did hear M 1976
thinking i had not M 1910
though i for one M 1761
though i had now M 1554
though i had put M 1550
though a new and M 1543
though i try not M 1518
thinking i was being M 1508
though a long one M 1479
though i say this M 1454
though a bad one M 1446
though a man was M 1434
thanks i owe you M 1409
though a man with M 1408
though i was near M 1382
though i had one M 1366
though i die for M 1356
though i did all M 1334
though i fear they M 1328
though i had won M 1306
though i was dying M 1264
though i can hear M 1260
though i had then M 1252
thinks i did not M 1248
though i hear that M 1226
thinking i was dead M 1224
though i was for M 1186
though i can read M 1183
though i say not M 1174
though a few did M 1116
though a weak one M 1110
though i now see M 1082
though i had run M 1062
though i was dead M 1050
though i saw you M 1034
though i saw his M 1032
thinking i was too M 1014
though i did try M 1003
though a long and M 986
though i had yet M 984
though i did that M 960
though a man does M 960
though i say that M 958
though a bit too M 952
though a sad one M 922
though i saw two M 920
though i was mad M 916
though a few old M 914
though i may add M 902
though i now had M 889
though a weak and M 862
though i had cut M 852
though i had set M 844
though a far cry M 842
though i see them M 810
though i had for M 808
though i can get M 792
though a new one M 792
though i see her M 786
though i long for M 776
thinking i was one M 766
though i fear she M 758
thanks i got for M 758
though i can now M 748
though i can bear M 736
though i was weak M 720
though i was lying M 720
though i was her M 718
though i ask for M 718
though i saw one M 716
though i had any M 714
though a year had M 704
though i see now M 662
though i see him M 652
though i then had M 644
though i had let M 644
though i had them M 642
though i can ill M 632
though i saw but M 624
though a few new M 624
thinks i can get M 624
though i can but M 610
though i was that M 603
though i hear you M 594
though i was using M 586
though i had this M 584
though i had her M 582
thanks a lot and M 582
though i may die M 580
though a man and M 576
though i mean not M 575
though a few can M 575
though i did this M 572
though i long ago M 568
though i read them M 564
though i saw not M 562
though a god had M 556
though i fear this M 554
though i was thus M 548
though i was and M 548
though i see one M 543
though i was yet M 541
though i may see M 528
though a real one M 528
thanks i can not M 515
though i set out M 510
though i was sad M 508
though i may fear M 504
though a fly had M 502
though i did say M 500
though i was new M 494
though i saw this M 492
though a lot has M 492
though i ask you M 490
though i was ill M 486
though a new era M 478
though i too was M 476
though i owe you M 474
though a bad man M 472
though a dead man M 460
though i beg you M 454
though i fear his M 452
though i did ask M 452
though i may get M 448
though i may now M 444
though i had that M 442
though i too had M 440
though a dog had M 434
thinking i was ill M 428
though i saw and M 422
though i saw all M 422
though i fear its M 412
though i was ten M 408
though a does not M 400
though i was two M 399
though i was old M 398
thinking i was now M 396
though i had him M 392
though i die old M 390
though a low one M 387
though a new idea M 372
though i now and M 370
though a few things M 370
thinking i had got M 370
though a boy may M 368
though i did put M 358
though i sat with M 356
though a few who M 352
though i use this M 348
though a man did M 344
thinking i had any M 344
thanks a lot but M 343
though i fear with M 338
thinking i was his M 338
though i let him M 336
though a big one M 336
thinks a man who M 336
though i was eating M 330
though i had both M 326
though a long day M 325
though a weak man M 324
though a man hath M 322
though i hear them M 316
though a year has M 316
though a war was M 316
though i but saw M 312
though i had sat M 310
though a year ago M 308
though i was wet M 306
though a poet and M 306
though i see how M 304
thinking a lot and M 302
though i had wings M 298
though i saw she M 296
though i had his M 294
thinking i was out M 293
though i was six M 288
though i was put M 284
thinking i was dying M 284
though i was both M 282
though i read him M 282
though i saw its M 280
though a man die M 280
though a war had M 278
though a new man M 276
though i see his M 274
though i did read M 274
though i die with M 268
though i can use M 268
thinks i owe him M 264
though a may not M 260
thinking i was all M 259
thinking i can get M 258
though i sit all M 256
though i may use M 254
though i and all M 252
though a big man M 252
thinks a lot and M 250
though i was led M 248
though i hear she M 248
though t did not M 244
though a dying man M 244
thereof a sum not M 244
though a did not M 240
though i saw how M 238
though i owe him M 238
though a few odd M 238
thereof i can not M 238
though a real and M 234
though a cat had M 232
thinking i was mad M 232
though i hear they M 230
though i had ten M 229
though i own they M 228
though a bit out M 227
though i fear for M 226
though i had few M 224
thanks i was not M 224
though i hear not M 222
though i had too M 222
though i bet you M 222
though a law had M 222
though i use them M 220
though d did not M 220
though a poet may M 220
though a new day M 220
thinks i see him M 218
though i had with M 216
though i did for M 216
though a war with M 214
thinking i was her M 214
though i read and M 212
though i fear too M 210
though i did mean M 210
though i deal with M 210
though i see they M 208
though i did use M 208
though i put out M 202
though a year and M 202
thanking a man for M 202
though i can put M 200
though a law was M 200
though i fear but M 196
though i can and M 196
thinks i was not M 196
though i own this M 194
though a son may M 194
though a bit old M 192
thinks a man can M 192
thinks a bit and M 192
thinking i was you M 192
thrust a few things M 191
though i say you M 190
though i put all M 190
thinking a long way M 190
though i may try M 186
though i beat him M 186
though i was shy M 184
though i try and M 184
though i see and M 184
though i ran all M 184
though a was not M 184
though i was long M 182
though i hear and M 182
though i cut out M 182
though i put them M 180
though i did but M 180
though a man that M 180
though a dead one M 180
thinking i had had M 180
thrust a head out M 179
though a man not M 178
thinking i hear his M 178
though i was off M 177
thrust a leg out M 175
though i try all M 174
though i see this M 174
though a few got M 174
though a bit long M 174
though i sat and M 172
though a low and M 172
though a law may M 172
though i may yet M 170
though a lot was M 170
thanks i got was M 170
though a few use M 169
though i saw death M 166
though i now saw M 166
though i had thus M 166
though s does not M 164
though i let you M 164
thinks a man has M 164
thinking i may not M 164
though i had led M 162
though i can add M 162
though a shy and M 162
though i buy with M 160
though i fear them M 158
though i then was M 156
though i hear his M 156
though i die and M 156
though i had you M 154
though i fear our M 154
though i can bring M 154
though a year was M 154
though a poem may M 154
though a new set M 154
thinking i had him M 154
thinking i had all M 154
though i got out M 153
though i was cut M 152
thinks i see her M 152
though i see all M 150
though i own you M 150
though i let her M 150
though a key had M 150
though a death had M 150
thinking a bit too M 150
though i was way M 149
though i own not M 148
though i may err M 148
though i did buy M 148
thereof i say that M 148
though i then saw M 146
though i saw with M 146
though i got him M 146
thirty i did not M 146
thinks i did this M 146
thinking a lot this M 146
though i hang ten M 144
though i deal not M 144
though a son who M 144
though i fear her M 140
though i cry with M 140
though a boy had M 140
though i did with M 138
though i bring you M 138
though a heat not M 138
thinking i see his M 138
thinking i had run M 136
though i had far M 134
though a god was M 134
though t can not M 132
though i with death M 132
though i say any M 132
though i bar out M 132
thinks i can see M 132
thereof i read with M 132
though i all but M 130
though a new law M 130
though a few non M 130
thanks i owe him M 130
thrust a long arm M 129
though i was due M 128
though a new war M 128
though i not him M 126
though a few big M 126
though i was real M 124
though i saw things M 124
though i saw our M 124
though i own she M 124
though i bet she M 124
thanks i owe them M 124
though i owe her M 122
though i had and M 122
though i got one M 122
though a cat may M 122
thinking i was that M 122
thanks i set not M 122
though i put him M 120
though i may ask M 120
though i did lay M 120
though i did ill M 120
though i ask them M 120
though d does not M 120
though a bit shy M 120
thinks i owe her M 120
though i now was M 118
though i did and M 118
though a sad and M 118
thinking i was with M 118
though a dim one M 117
though i own with M 116
though i let them M 116
thirty a day for M 116
thanking a man who M 116
though i was fit M 115
thinking a way out M 115
though i was this M 114
though i set off M 114
though i pay them M 114
though i pay for M 114
though i may run M 114
though i and you M 114
though a net had M 114
though a can not M 114
though a bear had M 114
thinking i had won M 114
thinking i can see M 114
though i saw they M 112
though a mean one M 112
though a few with M 112
thinks i can read M 112
thinking i was using M 112
though i read all M 110
though i hang for M 110
thinking i can hear M 110
though a has not M 108
though a few run M 108
thinks i may get M 108
thanks a lot you M 108
though i can sit M 106
though i beat them M 106
though a year old M 106
though a son had M 106
thinks i was too M 106
thinking a man can M 106
theirs i can not M 106
though i was singing M 104
though i put this M 104
though i now can M 104
though i bid you M 104
though i was bad M 102
though i had meat M 102
though i did them M 102
though a new age M 102
though a few long M 102
though a bad poet M 102
thrust a long way M 100
though i was its M 100
though i was big M 100
though a too easy M 100
thinks a man may M 100
thinking i had two M 100
thereon a new and M 100
though i did win M 99
though i see but M 98
though i may for M 98
though a war may M 98
thinking a man who M 98
thinks i did that M 97
though i was set M 96
though a new sun M 96
though a lot had M 96
though a bit weak M 96
though a bit off M 96
thinking a bit and M 96
though i vow they M 94
though i then did M 94
though i see its M 94
though i did set M 94
though i did bring M 94
though d was not M 94
though a sun had M 94
though a job may M 94
though a boy has M 94
thirty i was not M 94
thinking i saw him M 94
thinking i had now M 94
though t had not M 92
though i use that M 92
though i may put M 92
though i lay with M 92
though i got her M 92
though i got all M 92
though a day was M 92
thinking i was lying M 92
thrust a man out M 91
though i saw few M 90
though i had bad M 90
though i did run M 90
though i can with M 90
though i bet they M 90
though a man lie M 90
though a dog may M 90
though i add that M 89
though i now let M 88
though i hear now M 88
though i got them M 88
though i and not M 88
though a wit and M 88
though a lot can M 88
thinks i may not M 88
thinking i was this M 88
thinking i saw her M 88
though i hear all M 86
though i had six M 86
though i had rid M 86
though a poet had M 86
though a mad dog M 86
though a law has M 86
thirty a day and M 86
thinking i may one M 86
though i put her M 84
though i did you M 84
though a bit odd M 84
thinks a lot but M 84
thinking i was him M 84
thinking a man was M 84
thanks i did not M 83
threats i can not M 82
though a poem had M 82
thinks i put you M 82
though i see with M 80
though i hear her M 80
though i fear both M 80
though i did let M 80
though i bear him M 80
though a son was M 80
though a boy who M 80
thinks i hear you M 80
thinking i owe you M 80
though i did pay M 55
though i die ere M 53
though i read that M 48
though i had met D 2591
thrice a day for D 1963
though a dam had D 1686
though i met with D 1467
throws a new and D 1396
thrice a day with D 1144
though i met him D 1022
thrice a day and D 979
though a gun had D 970
thrown a new and D 754
throwing a new and D 740
though i had hit D 686
thence i set out D 562
throne a man who D 550
thrice a year and D 491
throwing a few things D 442
thrice a year for D 423
thrice a day she D 409
thrown a few things D 408
though a fog had D 398
throwing a six with D 386
though i see thee D 360
though a bee had D 360
throwing a bean bag D 340
throws a man out D 337
throwing a die and D 332
throwing a fit and D 330
though a tap had D 318
thrown a shoe and D 282
thrown a long way D 270
throwing a man out D 269
though a thin one D 269
throws a fit and D 266
though a pin had D 244
thrown a fit and D 234
thrill i got out D 215
throws a man off D 213
thrust a red hot D 209
though i met her D 198
though a red hot D 188
throne a seat for D 184
though a lid had D 184
thrown a bit off D 182
thence i saw him D 182
throne i can not D 181
throwing a dead cat D 174
throat i can not D 174
though a wee bit D 174
thanks i owe thee D 173
though a car had D 164
thawed a bit and D 162
throwing a head with D 154
though i hit him D 150
throwing a man off D 145
thrown a man out D 141
thence a man with D 140
throne i did not D 136
thrill i had not D 136
though a dam has D 136
though i was deaf D 134
throws a die and D 132
throwing a dead man D 132
though a zeal not D 132
though a gong had D 128
thrill i can not D 126
thirst i can not D 123
though i was hot D 122
though i was hit D 120
throwing a new year D 118
though i fear thou D 117
throws a bean bag D 116
throat i did not D 116
thirst i had for D 115
throat a bit and D 114
thrill i get out D 114
though a tear dim D 114
though a gun was D 112
though a new art D 110
though a neat one D 110
thither i was met D 110
theater i did not D 108
thesis i can not D 107
thrust a pen and D 106
throwing a long and D 106
though a fox had D 106
thence i was led D 105
though a man doth D 104
thrown a rod and D 102
throwing a long beam D 102
though a bad pen D 102
though a tear was D 98
though i was thin D 94
though i was fat D 94
though a fat lot D 94
thence a due east D 93
though i met you D 92
though a car may D 92
thrust a long pin D 90
thrown a dead cat D 90
throwing a toy out D 90
though a red fog D 90
though a moth had D 90
throwing a die with D 88
though a rat had D 88
theater i can not D 86
throws a few things D 84
throat a lot and D 84
though i was gay D 84
throwing a fly and D 82
though a cow had D 80
though a car was D 80
thrice a year with D 69
thatch i saw all D 58
thither i can not D 56
thrice a day they D 55
thrice i led him D 54
thence i can not D 53
though i did wear D 52
thirst i did not D 48
though a bit thin D 46
thrice a day was D 45
thinking i see thee D 42
thence a day and D 42
thrice a day has D 41
