fact is that the M 589584
fail to see the M 161603
fall in with the M 130759
fact is that in M 94525
face of all the M 91382
fact is that we M 88450
fact is that it M 73886
fact is that he M 58862
fact it was the M 44524
face of one of M 43061
faith in god is M 34726
fact is that no M 33026
fact it may be M 32548
fact if not in M 28902
fact is that if M 25231
fail to get the M 23854
face is that of M 23684
faith in god as M 21994
fail to see it M 21642
fate of all the M 21290
fall as low as M 20322
fact it can be M 20042
fail to see in M 19823
fail to pay the M 19714
fact is one of M 18756
faith in him as M 18633
faith is not the M 17516
face to see if M 15982
faith is that of M 14172
fact is that at M 14104
fail to use the M 14066
fail to lead to M 13334
faith is not to M 13200
fall on top of M 12948
fast as that of M 12552
fate of one of M 12340
fact is due to M 12334
fact he was the M 11920
faith in god the M 11619
fact of being in M 11179
fact is not so M 11101
fact is that as M 11077
fate to that of M 10936
fall in with it M 10930
face so that the M 10594
face of god in M 10478
fact is not to M 10400
fact is not the M 10186
fail to win the M 10178
faith in god to M 10131
face so that he M 9935
fail to bring the M 9716
fail to hear the M 9680
fact is that by M 9614
face is one of M 9528
face as red as M 9525
fact is that an M 9522
fall of man is M 9429
fall of man in M 9364
face is how to M 9352
fail to read the M 9296
faith is not an M 9217
fail to act in M 8962
faith in all the M 8860
faith of all the M 8796
faith in god or M 8511
fall in one of M 8494
faith in him is M 8318
face as long as M 8270
fact he had no M 8181
fate it was to M 8156
fact it was an M 8040
faith is one of M 7653
faith is not in M 7311
fail to use it M 6990
fact it was in M 6975
faith in god in M 6881
fall of one of M 6878
fail to see is M 6860
fact is that on M 6813
face so that it M 6793
face the idea of M 6668
fact is that my M 6636
fall so low as M 6628
faith in god by M 6626
fall in with my M 6576
fail to act on M 6482
fact the use of M 6446
fate as that of M 6374
fact is all the M 6360
fact of all the M 6308
fall on one of M 6298
fact it was so M 6281
fair to him to M 6252
fact in all the M 6162
fact to bear in M 6032
fact is that to M 5988
fact is that of M 5988
fail to fit the M 5920
faith at all in M 5824
fact the idea of M 5706
fact as far as M 5666
fail to act as M 5628
fact he was so M 5575
face to that of M 5459
fail to bring to M 5432
fact be due to M 5432
fall of man to M 5396
faith he had in M 5332
face of each of M 5323
face of all of M 5288
fact of being an M 5262
fail to let me M 5230
fact of being the M 5222
fact he was in M 5213
fail to get it M 5178
fair to say the M 5160
faith is that it M 5142
face is that the M 5116
fate of all of M 5098
fail to add to M 5096
fact of all is M 5040
fall in with an M 5002
fair to both the M 4992
face of god is M 4972
fair to all the M 4928
fact of death is M 4804
fact it was to M 4758
face of death is M 4750
face is not the M 4712
fact is that so M 4687
fast to one of M 4668
face the end of M 4667
fall so that the M 4604
fact or law to M 4485
face in one of M 4453
fact is not in M 4443
faith in him to M 4384
faith in any of M 4292
fall is due to M 4282
fail in one of M 4254
fail in any of M 4158
fast as they do M 4149
faith is that the M 4118
fact so far as M 4110
fast as can be M 4047
fair to ask the M 3990
fall of man as M 3935
face the death of M 3898
fact or set of M 3854
fail to put the M 3834
fate of man in M 3758
fact he was an M 3736
faith is not so M 3726
face of both the M 3724
fact the son of M 3720
face is not so M 3710
fail to put in M 3640
fact he had to M 3612
fast as may be M 3554
fail to ask the M 3542
fact is not an M 3492
faith in both the M 3482
face of things in M 3463
fact in one of M 3418
face in all the M 3416
fact he has no M 3414
fact as long as M 3376
fate of each of M 3366
face as that of M 3358
fast as any of M 3356
fair to say of M 3294
fair of you to M 3235
face of this the M 3230
fall in any of M 3222
fail as long as M 3208
fail to read it M 3176
fact an act of M 3146
fair to say he M 3118
fact the end of M 3116
fast so that the M 3108
fact the key to M 3098
faith in him by M 2980
fail to see or M 2938
fact it was he M 2928
face the fear of M 2912
fact be one of M 2902
fair in all the M 2900
fail to bear in M 2881
faith in them as M 2870
face as far as M 2870
fate of both the M 2868
face on top of M 2862
fact as one of M 2850
fall as far as M 2848
fail to bring in M 2844
fall to earth as M 2823
fact of one of M 2808
fair to them to M 2804
face it head on M 2790
fail to end in M 2788
fast as long as M 2724
fast as you do M 2723
fall of all the M 2716
fail to get to M 2710
face to see the M 2699
faith as that of M 2696
fall as long as M 2689
fail to bring it M 2674
fail to get an M 2672
fact to all the M 2666
faith in man as M 2660
fact the head of M 2656
fact it has no M 2652
fair as that of M 2650
fact it was no M 2643
faith of men in M 2612
fact he may be M 2604
faith is not of M 2596
fail in one or M 2594
fair to both of M 2564
fate is that of M 2552
fact is not as M 2548
faith in them is M 2512
fall in each of M 2484
faith by way of M 2462
face of things is M 2438
face is going to M 2418
face of man is M 2384
fail to get at M 2366
fact it was at M 2363
fair to you to M 2344
fair to say it M 2344
faith of man in M 2336
fact of death in M 2336
fair to ask if M 2316
fact the law of M 2270
faith in one of M 2264
faith in you is M 2260
fact the sum of M 2256
fall to him to M 2252
fate of man is M 2248
fall in both the M 2246
faith in all of M 2242
fail in doing so M 2232
fail to reap the M 2230
fact is not of M 2226
fact by way of M 2226
face of things it M 2216
faith as long as M 2212
fail so long as M 2201
fact so long as M 2185
fair to let the M 2182
fail to try to M 2172
fact is due the M 2154
fair to put the M 2142
fact he was to M 2140
fact or law in M 2136
face of any of M 2120
fair of him to M 2103
faith is that we M 2100
face an air of M 2100
fall on all the M 2092
fall to earth in M 2090
fair to say we M 2078
fail if you do M 2078
fact the way in M 2062
fact of his or M 2062
faith is one thing M 2054
faith in him we M 2052
fail if they do M 2050
fact by far the M 2050
fall of them be M 2037
fair is one of M 2020
faith to that of M 2016
fail to see at M 2011
fail to set the M 1990
fair to all of M 1984
fact we are in M 1983
fall to that of M 1980
fact it was on M 1980
fast as one of M 1973
fact is not at M 1968
faith to see the M 1958
fair to her to M 1954
fall on one or M 1922
fair to you or M 1922
fail to set up M 1920
face to try to M 1920
face of this it M 1918
faith in his or M 1912
fact or law is M 1911
fall is one of M 1910
face of them the M 1910
faith in man is M 1903
face up and the M 1900
face is set in M 1886
fact as that the M 1866
fail to hear it M 1864
fact we may be M 1864
fail to see an M 1858
fall of man the M 1856
faith so long as M 1836
fall is that of M 1830
fall to one of M 1828
fact of being on M 1823
faith is due to M 1818
fact it was as M 1816
fact of being so M 1812
fair to use the M 1810
fact he did so M 1804
faith as far as M 1802
faith in him in M 1792
fail to fix the M 1790
fall on him as M 1789
face on one of M 1773
fact in all of M 1768
fact is they do M 1762
faith to all the M 1756
faith of one of M 1744
fact is one thing M 1742
face it with the M 1740
fall in one or M 1738
fact it was my M 1736
face is that we M 1736
fair to say in M 1734
fail to bring on M 1734
fact is easy to M 1734
fact he had the M 1734
fact is apt to M 1728
face of god as M 1724
face is not an M 1720
fact so that the M 1718
fact be read as M 1713
face of god to M 1712
fate of two of M 1700
fact to that of M 1700
faith of being in M 1698
fall on them in M 1696
face up with the M 1696
fast to get the M 1688
fall so that it M 1688
face of things to M 1688
face as one of M 1682
fact we had to M 1666
face to one of M 1665
faith so that we M 1664
fate is not to M 1652
face is not to M 1646
fate is one of M 1642
fall on him in M 1638
fail to hear of M 1636
faith in you as M 1634
faith in him or M 1628
fail to get on M 1628
fail to fit in M 1625
fall in that of M 1624
fact in and of M 1620
face is not as M 1609
face of real or M 1605
fate of any of M 1602
fall of man by M 1602
fail to lead the M 1592
face of them to M 1586
fall in with us M 1582
face is not in M 1580
face at one of M 1568
faith as one of M 1567
fact he was at M 1566
fate of men of M 1562
fact in any of M 1560
face of death as M 1557
face by way of M 1553
fate is not in M 1552
fact it has the M 1550
faith so far as M 1539
face of death in M 1531
fate of that of M 1526
fare to get to M 1526
face is that it M 1524
face if you do M 1518
fact of death or M 1516
fall on any of M 1514
fail to put it M 1508
fail to add up M 1498
fact of death as M 1498
faith or for the M 1496
fail to pay it M 1496
fast as did the M 1487
face to put on M 1487
fair as long as M 1486
faith is but the M 1484
fall is not the M 1480
fair to try to M 1480
face is lit up M 1476
faith is going to M 1472
fail to add the M 1472
face is due to M 1472
faith he has in M 1470
fact he was on M 1462
fact as old as M 1450
fact it had no M 1446
fact by using the M 1446
fact he was no M 1445
fail to let the M 1434
fact to one of M 1430
face is out of M 1430
fast as that in M 1419
fair to ask me M 1416
face of things the M 1416
fact of going to M 1406
face the rear of M 1402
face of death he M 1402
face he saw in M 1401
face he saw the M 1382
face us with the M 1381
face by one of M 1380
fail to get in M 1374
fate of one or M 1362
fact he was as M 1362
fall is not so M 1361
fact we had no M 1360
fact of being at M 1360
fair to see the M 1356
face of god the M 1350
fact the act of M 1348
fall to them in M 1347
fate is not the M 1346
fact is that up M 1345
fact of doing so M 1344
fact we can be M 1336
fall in and be M 1332
fail to lead us M 1330
faith so that it M 1328
fact as that of M 1328
faith in you to M 1326
faith is for the M 1320
faith in god he M 1320
fall in and the M 1318
faith is not as M 1316
face of one or M 1314
fact or law of M 1312
faith so that the M 1298
fair to any of M 1290
fair of her to M 1288
fact is going to M 1284
faith in them to M 1282
fair as far as M 1282
fall to him in M 1281
fair to say at M 1280
face as big as M 1280
fact it has to M 1268
fall of man or M 1264
fair to bear in M 1260
face so that no M 1255
fast so that it M 1250
fate of one so M 1248
face the way it M 1246
fall in with on M 1244
face of all my M 1243
face the day of M 1240
fast to get to M 1235
fail to act to M 1232
fail to bring up M 1228
face of man or M 1226
fail to bear the M 1218
face is apt to M 1216
fail is that the M 1214
fact it was by M 1214
fall in all the M 1206
fair to lay the M 1204
fact is for the M 1204
fate or that of M 1202
fail to pay to M 1198
face the way he M 1194
face of things as M 1194
fall so low in M 1192
face the head of M 1191
fail to bring us M 1186
fact he has to M 1184
fall of one or M 1182
fact of sin is M 1182
fair to him or M 1180
face to get the M 1180
fact we owe the M 1172
fact of how the M 1170
fair to ask of M 1168
fair to say to M 1166
fact it had the M 1162
fall on them as M 1161
faith or that the M 1158
fall so far as M 1157
fail to aid the M 1152
face in both of M 1151
fate of man to M 1150
fate is going to M 1144
fact if not by M 1142
faith in god on M 1140
faith so that he M 1138
faith in her as M 1136
fair in aid of M 1136
fact the aim of M 1134
face the day he M 1130
fact or law or M 1128
faith is put to M 1124
fail to lay the M 1124
faith to bear on M 1122
fall in with in M 1120
faith of any of M 1116
face of war in M 1116
fail to put on M 1112
fact by all the M 1112
fast so that he M 1110
fall to him as M 1107
fast he had to M 1106
faith is not at M 1104
face of death the M 1100
face of this is M 1098
fast the end of M 1096
fall so long as M 1091
fate in that of M 1084
faith is put in M 1083
fall so that he M 1080
fall on them at M 1078
face the men of M 1076
faith to one of M 1072
fate of men in M 1070
faith in god we M 1070
faith in any thing M 1066
faith is that he M 1060
face of death or M 1060
fast it can be M 1059
faith to put in M 1055
faith in god at M 1052
fall in for the M 1051
fact is you do M 1048
fail to see on M 1042
face the sun at M 1036
fast to all the M 1035
faith in that it M 1034
fall to them as M 1029
fair to see in M 1026
fact it had to M 1024
fact we are the M 1022
fail in this is M 1014
fast if you do M 1012
fact we see the M 1000
fact of sin in M 1000
fall to you to M 999
fact no one is M 996
fact it did so M 991
fact we are to M 990
fail to beat the M 988
fate is not so M 982
fail to see me M 980
fail to earn the M 976
face of one to M 972
faith is that by M 968
fail to say to M 960
face of this we M 958
fact it does so M 957
fair in that it M 953
fall of both the M 952
fact it was of M 952
fail to read in M 950
face it and to M 949
fate of being the M 942
fact no one in M 942
face in doing so M 941
fact the way the M 940
face of things at M 936
face to all the M 929
fate as far as M 928
fail to bring me M 928
fail to pay on M 926
fast in one of M 924
face of each is M 924
fate as did the M 922
fail in all the M 914
face of all we M 914
fall if you do M 912
fail to act at M 912
face of death to M 910
fair to end in M 908
fact of death of M 904
fact the death of M 902
faith in man or M 898
fast to see the M 897
faith of both the M 894
faith is that in M 894
fail of being the M 894
face so near to M 893
fall in with me M 891
fate as all the M 888
fact by one of M 884
face of man in M 882
fair as can be M 880
face if they do M 880
fact is due in M 878
faith as did the M 876
face we see in M 875
faith in god of M 870
fail of being of M 870
fair as she is M 860
fact be that the M 858
face of war is M 856
faith is apt to M 854
faith is thus the M 852
fast in all my M 841
fail to see as M 840
fall to them by M 838
faith to see it M 834
face in each of M 832
fair to them or M 830
fall to him by M 828
fall on two of M 828
faith in one or M 826
fail to say so M 825
faith we are to M 824
fail to see to M 824
fair to put it M 820
fail to see my M 820
fact to add to M 818
faith is all the M 814
face of his or M 814
fact to any of M 812
fact the set of M 808
fate of this or M 806
face the heat of M 805
fail to let us M 802
fate to die in M 800
fast to get it M 798
faith we can do M 798
fair to bring the M 798
fall on each of M 794
faith in him the M 794
fact of death by M 792
fact no way of M 792
face the sun in M 792
faith in him at M 790
fact he had an M 790
fate of men is M 788
fall on him if M 787
faith it may be M 786
fair to lead to M 786
fact in that it M 786
fail to pay or M 780
fail to hear or M 778
faith in and the M 776
fail to hear in M 776
faith of god in M 774
fast as does the M 770
face to him in M 768
face is not at M 763
fail to get up M 760
face of this he M 760
fact if you do M 758
face is not of M 758
fate is now in M 756
fate of war is M 746
fall to earth at M 746
fall on both the M 746
fail to act or M 746
face of his foe M 746
face at him as M 741
faith in them by M 740
fact of his so M 740
fall on all of M 738
fall as one of M 736
faith to try to M 736
face is that in M 736
face is lit by M 736
fall to one or M 735
face in all of M 734
fact to try to M 732
fate of being an M 730
fall is that the M 730
fact or one of M 730
fall of two or M 728
fail to use to M 728
fair so long as M 727
fact it led to M 726
fast by one of M 725
fast as she is M 720
fact as may be M 720
fate as long as M 718
faith of all of M 716
fast as with the M 714
fall on them if M 714
fall as they do M 714
fail to act up M 714
face or hear the M 712
faith as this is M 710
fading is due to M 710
fact so that it M 710
face the job of M 710
faith in god if M 708
fact to all of M 708
face so that we M 708
fate as one of M 706
face to his in M 706
faith we had in M 704
fact or law on M 704
faith as being the M 702
fact is she is M 702
fail so that the M 700
fact as this is M 700
face of god or M 700
fall on them to M 699
face is all the M 699
fate is that the M 698
fail to put an M 698
fast as not to M 696
fair to you if M 696
fact of any of M 696
fall to and eat M 694
faith in god be M 692
fail to pay up M 691
fail in any thing M 690
face the man in M 690
fate he was to M 688
fair to say so M 688
fail us and we M 688
fate of all my M 686
fast so long as M 686
fail to pay my M 686
fast is one of M 684
fail of being so M 683
fall is not an M 682
fact or that the M 682
fast in all the M 680
fast as one is M 680
faith in this is M 680
fair is not the M 680
fail in doing it M 680
face of death by M 680
fail of being an M 678
fast or not at M 676
faith or that of M 676
fact of death to M 674
fact we are at M 673
fate he had so M 672
fail to put up M 672
face it was as M 672
fact is put in M 669
fail to cut the M 668
faith in god so M 666
fact the god of M 666
fact the area of M 666
fact we can do M 664
fact is now so M 664
faith in each of M 658
fall to see the M 656
fail it may be M 656
fact the law is M 656
fall on him at M 652
faith in this or M 652
faith in them or M 652
face of one in M 652
face the man he M 651
faith or with the M 650
fail to pay at M 648
fact he has the M 648
face in any of M 648
fate of all is M 646
fast as they go M 646
fair thing for the M 644
face it may be M 644
faith of god of M 642
face we put on M 641
fall is not to M 640
fair in one of M 640
fact in each of M 640
face me out of M 640
fair to him in M 638
face he put on M 638
fail to heal the M 636
fail to let it M 634
face to him as M 634
fate or god or M 631
faith in her to M 630
fall on him or M 629
fair to her or M 628
fact or two in M 626
fact is owing to M 626
fact of all in M 625
face to his as M 625
fast to try to M 624
fall on you or M 624
face to see it M 624
fall of each of M 620
face it was the M 618
fail to see by M 616
fate is out of M 614
fair to win the M 614
fair to add to M 614
fact the one thing M 614
fast we had to M 613
faith of each of M 612
faith in that of M 612
faith in him on M 612
fail to bring an M 612
face on each of M 612
face it for the M 605
fail to end the M 604
fact of and the M 604
face is red as M 604
fail to ask me M 602
face the two of M 601
fair to each of M 600
face or head of M 600
fail to pay in M 599
face or head is M 599
fact the sun is M 598
fact in that the M 596
face up out of M 596
fail to put to M 594
fall of two of M 592
fact we are so M 592
fast as for the M 591
fall or was he M 590
faith in man to M 590
fact the two of M 590
fast it may be M 589
fate is that he M 588
faith in her is M 588
fail to try the M 588
fact the seat of M 588
fall in with so M 587
fair to add the M 586
fail to set it M 586
fall to them to M 584
fall at one of M 584
fail to see us M 584
fact of god in M 584
fact he does so M 583
fate of each is M 582
fact it did in M 577
face to fit the M 577
face he had to M 577
faith in him he M 576
face to let the M 576
faith to cling to M 572
fair to him as M 572
fail to say the M 572
face of and in M 572
faith we may be M 570
fact so that he M 570
face to ask me M 569
fact on all the M 568
fail of being in M 567
fall of any of M 566
face or that of M 565
fair to set the M 564
fair to let me M 564
face my fear of M 564
fate of his or M 562
fare as far as M 562
fact in both the M 562
fate of one is M 560
face of one is M 560
fact to act as M 559
fact to use the M 556
fact as can be M 556
fair as any of M 554
fair as any in M 552
fact of being of M 552
face to her as M 552
face so dear to M 552
face of this or M 552
fast as this is M 551
fact of using the M 550
face of god on M 550
faith to him as M 546
fact as real as M 546
face of that of M 546
face of him he M 546
face on all the M 545
fate to see the M 544
faith by all the M 544
fact of each of M 542
fail as yet to M 540
fact of god as M 540
fast as far as M 539
fact we see in M 539
fact or idea is M 538
fact he was of M 538
face of one so M 538
face in using the M 537
face of her he M 536
faith is but an M 534
face so far as M 534
fate is not an M 532
faith of man is M 532
face of man the M 532
face of all he M 532
fall it may be M 530
faith by one of M 530
fact the age of M 530
face on him as M 530
fail so far as M 528
fact we owe to M 528
face we see the M 526
faith in both of M 524
fact of war is M 522
fate of all in M 520
face the way the M 520
fall of one in M 519
face of day to M 517
fate so long as M 516
faith or that it M 516
fact or bit of M 514
face it was to M 514
face the top of M 513
face so near the M 513
faith of men of M 512
fact the way to M 512
faith is out of M 510
fate to die at M 508
faith in them in M 508
fate so far as M 507
faith as big as M 507
fail to aid in M 506
fact to see the M 506
fact of being or M 506
face of death we M 506
face is set to M 505
faith if you do M 504
fail to win an M 504
fate of both of M 502
fair to use it M 502
fact we had the M 500
fact of both the M 500
fall as that of M 498
faith in him so M 497
fact is all we M 496
fall on him to M 494
fair to say is M 494
fail to buy the M 494
fact the man of M 494
fact he can be M 494
fair or not is M 492
fact is but the M 492
face or that it M 492
fast by way of M 490
faith in that he M 488
fact the poem is M 488
fact as due to M 486
face up for the M 486
face of god by M 486
face is that he M 486
face as you do M 486
faith is both the M 484
fail if any of M 484
fair to ask it M 482
fail to win in M 482
face in both my M 482
fail to set in M 481
face in that of M 481
fate of war to M 480
face as she is M 480
fall to you as M 479
fall on you in M 479
fall on him the M 479
faith we put in M 478
face to read the M 478
fast so that we M 477
fact we all do M 477
fate of death by M 476
fall on you as M 476
fair to sum up M 476
fail to get my M 476
face an era of M 476
fact do all the M 474
faith to pay the M 472
fail in all of M 472
fact the fear of M 472
fact or not is M 472
fact of war in M 472
fast we can go M 470
faith in all he M 470
fair it may be M 470
fair as one of M 470
fact the man in M 470
fall of six or M 469
fair to see as M 468
fade as long as M 468
fact he was by M 468
fall to get the M 466
fall in dead of M 466
fail to get as M 466
fail in this or M 466
fact is one to M 466
fact of sin as M 465
face the sun as M 465
fail to say it M 464
fact no one of M 464
face is for the M 464
fate is due to M 462
fall to each of M 462
fact the men of M 462
fall on you to M 460
faith it can be M 460
fair to them as M 460
fail to pay us M 460
fact is that is M 460
face the east or M 459
fast it can go M 458
fair to put an M 458
fact it has an M 458
fast it was as M 457
faith to bear of M 456
fact the way of M 456
fate of being in M 454
fact do not do M 454
fate in one of M 452
faith in god it M 452
fact the way it M 452
faith to god as M 450
faith as not to M 450
fail to use an M 450
fact the idea is M 450
fact of all of M 450
fail so that he M 448
fall in with or M 447
fall at all in M 447
fall by one of M 446
fair to say as M 446
fail on one or M 446
fact no way to M 446
face he read the M 445
fast to him by M 444
fact the key of M 444
faith is all in M 443
fall in with no M 442
faith to see in M 442
fact of being is M 442
face by using the M 441
faith he had so M 440
fast to them in M 439
fail to win it M 438
fact of one or M 436
fact is this is M 436
fact he did in M 436
fail to pay an M 434
fate of man as M 433
fall in and go M 433
fall is that it M 430
fall in two or M 430
faith in him be M 430
fact an area of M 430
face so long as M 429
face of death on M 428
face he had so M 428
faith of his in M 427
face is that if M 427
fair to you as M 426
fact of doing it M 426
fact he goes so M 426
fair in all of M 425
faith in law as M 424
fair of them to M 424
face the law of M 424
fact we can go M 422
fact or idea in M 422
fact he goes on M 422
fact the top of M 420
fact he saw the M 420
fact he and the M 420
face to each of M 419
faith to use the M 418
faith of men is M 418
faith of god is M 418
face of new or M 418
face of him on M 418
faith in things as M 417
faith to bring the M 416
faith in him of M 416
fair so far as M 416
fate of man on M 414
fact be that of M 414
fail to heal or M 412
fact we use the M 412
face in his or M 412
face as they go M 411
fate he had in M 408
fall on one as M 408
fail to act the M 408
fail if all the M 408
fact he can do M 408
face as may be M 408
fall to any of M 407
face it and do M 407
face is but the M 407
fast as all the M 406
fail to pay me M 406
face to act as M 405
faith in that the M 404
fact the path of M 404
face to get it M 403
face in all my M 403
fail in his or M 402
fact to bring the M 402
fact he had so M 402
fair of all the M 400
fast on top of M 398
fast is that it M 398
fall or that the M 398
faith in them at M 398
fail in this we M 398
fall of all of M 397
fast on one of M 396
fall to her to M 396
faith by going to M 396
fact he was my M 396
face at any of M 396
fast is that the M 395
fact the earth is M 394
face in both the M 394
face the real thing M 393
fact is put to M 392
fate he had to M 390
faith or that he M 390
faith of one or M 390
faith is then the M 390
faith he had to M 390
faith be put in M 390
fact the way we M 390
fact he did the M 390
fact as any of M 390
faith to act as M 389
faith in her by M 388
fact to act in M 388
face to him to M 388
faith in doing so M 387
faith it has in M 386
faith in things of M 386
fail to get us M 386
fact he got the M 386
fate in all the M 384
fair to them in M 384
fail or that the M 384
face of this to M 384
face it can be M 382
faith of his or M 380
fail to see so M 380
fast as any in M 379
fair is going to M 379
faith or out of M 378
faith in men of M 378
fact or idea to M 378
face of one he M 378
fail of doing so M 377
fair if you do M 376
fact to fit the M 376
fair to try the M 374
fail to put us M 374
fact to get the M 374
fact is going on M 374
face of him in M 374
fail to use in M 373
faith in you or M 372
fair in him to M 372
fair as any the M 372
fact it does in M 372
face of both of M 372
fall of man on M 371
fall he was in M 370
fall so that we M 368
faith is not on M 368
fact the one is M 368
fact the day of M 368
fact is yet to M 368
face it and the M 368
fast he can go M 366
fair to ask us M 366
fair an eye as M 366
fail to run the M 366
fact or that he M 364
fair in that the M 363
face the hue of M 363
faith the son of M 362
fair to bring in M 362
fail to say is M 362
fact is how the M 362
fair is going on M 361
fail is due to M 360
fail if one of M 360
face is put on M 360
faith in this as M 359
fate is for the M 358
fact is out of M 358
face of god we M 358
fall is all the M 357
fall of ban me M 356
faith we see the M 356
faith in man in M 356
fair we hear or M 356
fact is but an M 356
faith in you by M 354
fast to set up M 353
faith in and to M 352
fair to pay the M 352
fail to rid the M 352
fail to bring my M 352
fact the man is M 352
fact he did it M 352
face the bar of M 352
face of two or M 352
face of things he M 352
faith in this thing M 350
faith in one thing M 350
fail to use or M 350
fail to read or M 350
face the god of M 349
face as they do M 349
face as for the M 349
fate to end my M 348
fast is not the M 348
faith in and of M 348
fail as far as M 348
fact of its so M 347
fast to him as M 346
fall in with at M 346
fail to use my M 346
fact or act of M 346
fact of god is M 346
face in that it M 345
fate to die by M 344
faith to that or M 344
fact to set up M 344
fact is that king M 344
face or one of M 343
fact is not by M 342
face on things by M 342
fact he had in M 340
face so that my M 340
face on things as M 340
fast to him in M 338
fare of all the M 338
fact as being the M 338
face us and the M 338
fate if they do M 336
fall to bring the M 336
fall in all of M 336
fall if they do M 336
fair to you in M 336
fair in you to M 336
fact it can do M 336
fact at all in M 336
fail to let go M 334
fact to lead to M 334
fact or two to M 334
fact it has in M 334
fact if all the M 334
face of his king M 334
fate is not as M 332
faith is weak or M 332
fair to them if M 332
fair to set up M 332
face of man as M 332
fall on them by M 331
fall is apt to M 331
fall is not in M 330
fact by one or M 330
fact an arm of M 330
fall so far to M 329
fact he had it M 328
face of things by M 328
face as you go M 328
face the use of M 327
faith to read to M 326
fail to hear me M 326
fail of being at M 326
fact of two or M 326
fall of man he M 325
face or head or M 325
fall he was to M 324
fail to heal in M 324
face to his to M 324
face of him to M 324
fall is not as M 323
face to say to M 323
face is easy to M 323
fate be that of M 322
faith or not at M 322
faith is that if M 322
faith in war as M 322
faith in things to M 322
faith he may be M 322
fair to say on M 322
fail to aid us M 322
fact on one of M 322
face of death at M 322
face is now the M 322
face me for the M 321
face of man to M 320
fall on her as M 319
face it and go M 319
fall or death of M 318
faith to get the M 318
faith the idea of M 318
faith of all in M 318
fair to and in M 318
fact we may go M 318
face of fear or M 318
fall is going to M 316
faith to see if M 316
faith an act of M 316
fact to him in M 316
fact so that we M 316
face me with the M 316
fact as not to M 314
face the sun or M 314
face of fear of M 314
fall or not to M 313
fall on them or M 313
fall we had to M 312
fall by way of M 312
faith by using the M 312
fail to add an M 312
fact of this is M 312
fact as that in M 312
fate of war in M 310
fall of ten or M 310
faith to any of M 310
fair to him if M 310
fail to set me M 310
fail in doing the M 310
fact to see so M 310
fact he had at M 310
faith in him no M 309
fail to pay as M 309
fall of this or M 308
faith if they do M 308
faith he put in M 308
fair to all in M 308
fail to ask us M 308
face to all of M 308
fall on her in M 307
fate to let me M 306
fast to them as M 306
faith to all of M 306
faith of two or M 306
fact the way he M 306
fact as are the M 306
face of things be M 306
face if she is M 306
face at all the M 306
fast to any of M 305
fall so far in M 305
fact of war as M 305
fall at each of M 304
faith of men to M 304
fail at any of M 304
face is and the M 304
faith as they do M 302
fact no one at M 302
face as does the M 302
fast as heat is M 300
fall on his or M 300
fall in age at M 300
faith it was the M 300
fail on any of M 300
fail of doing the M 300
faith to let go M 299
fate of one to M 298
fate is that it M 298
faith to heal the M 298
faith so dear to M 298
fair to ask at M 298
fail to see if M 298
fact go out of M 298
fact as any in M 298
face to his so M 298
face of them it M 298
face my dead at M 298
face it with an M 298
fast is not to M 297
face of his the M 297
face we see is M 296
fall to see if M 294
fair to get the M 294
fair or not to M 294
fact we mean to M 294
fact he has an M 294
face of that the M 294
fast the idea of M 293
fast he had no M 293
fast of two or M 292
fair as may be M 292
fail to ask if M 292
fact we are on M 292
fact if not the M 292
fact as bad as M 292
face in two or M 292
fair to bring up M 291
face of things so M 291
fate of both is M 290
fate is all the M 290
fail to win at M 290
fail to fit it M 290
fact or two of M 290
fall of that of M 288
fail by far to M 288
face on things in M 288
face of earth is M 288
face as sad as M 288
fast an end of M 286
fall it was the M 286
faith to him in M 286
faith is dead in M 286
fail if one or M 286
fact or law by M 286
fact or law as M 286
fare at one of M 284
faith as are the M 284
fact the war of M 284
fact it goes to M 284
fact is both the M 284
face to hear the M 284
fair to ask to M 282
fair so that the M 282
fair to put on M 281
fast the earth is M 280
fair is that it M 280
fair at all to M 280
fail to set an M 280
fail at all in M 280
fact we get the M 280
fact to see if M 280
face to put the M 280
face to get to M 280
face or top of M 279
fair as was the M 278
fail or lead to M 278
fact to put the M 278
fact the mean of M 278
face the man of M 278
face of them we M 278
face of death it M 278
face he had the M 278
faith to act on M 277
fair to say no M 276
fair to read the M 276
fail of doing it M 276
fact the area is M 276
fact it does the M 276
fact if one is M 276
face it all the M 276
fate in being so M 274
fate as had the M 274
fall is for the M 274
faith we are in M 274
fact be out of M 274
fact an age of M 274
faith of all is M 272
faith in him if M 272
faith in god my M 272
fair to her if M 272
fail to try it M 272
fail to bow to M 272
fail in one thing M 272
fact to them in M 272
face of them is M 272
faith in god no M 271
faith is one in M 270
fail is that we M 270
fact we hear of M 270
fact of two of M 270
fact it does no M 270
fact as was the M 270
face to him he M 270
face of two of M 270
face it and be M 270
face at her as M 270
face in with the M 269
fall on with the M 268
faith to lead the M 268
fair an idea of M 268
fact of how it M 268
face by that of M 268
face the day in M 267
fast to see if M 266
fact of all to M 266
face of that it M 266
face of god at M 266
face the sun to M 265
fast in air as M 264
fall to near the M 264
fall to him if M 264
faith of each is M 264
faith is thus an M 264
fair of god to M 264
fail to lead in M 264
face of day is M 264
fast to death in M 263
fast on all the M 263
fact he did go M 263
faith is now the M 262
faith as being in M 262
fade the use of M 261
face the men in M 261
face as wet as M 261
faith to them in M 260
faith to hear the M 260
faith or set of M 260
fail in this if M 260
fact at all the M 260
face to bring me M 260
face is how the M 260
fact we can no M 259
fare is not so M 258
fall it can be M 258
fail to hear an M 258
fail to get me M 258
fact of who the M 258
fact of who is M 258
fact of who he M 258
face of god he M 258
face of fear is M 258
face he lit the M 258
fast to beat the M 257
fall we see the M 256
faith we can be M 256
faith he was to M 256
fair to ask in M 256
fail to bear it M 256
fact of death on M 256
fact he did do M 256
face it with me M 256
fate it was the M 254
fate it may be M 254
fast as that on M 254
fare is not the M 254
faith is not by M 254
fair to hear the M 254
fail to act is M 254
fail in this the M 254
fact the real thing M 254
face on one or M 254
face of this thing M 254
face he was so M 254
fall on him by M 253
fact be put in M 253
fast to god in M 252
fare is one of M 252
fall as low in M 252
faith to read the M 252
faith is not my M 252
fact we are no M 252
fact the year of M 252
fact it had an M 252
face of things we M 252
face if not by M 252
face he was the M 252
face as all the M 252
fall to his or M 251
face he was in M 251
fall to earth of M 250
faith he had the M 250
fair to add at M 250
fail or not be M 250
fail is not to M 250
face of each in M 250
fate to lead the M 248
fast the air is M 248
face of day in M 248
face as near as M 248
fact or for the M 247
face it was so M 247
fall of man we M 246
faith in her or M 246
fair to ask an M 246
fail of that he M 246
fail in that is M 246
fact we try to M 246
fact is key to M 246
fact in one or M 246
face is how we M 246
fall on that of M 245
fall he had to M 245
fate of men to M 244
fast to that of M 244
fast to bring the M 244
fast of one or M 244
fall the lot of M 244
faith to add to M 244
faith on all the M 244
faith in men as M 244
fail us for the M 244
fail to run in M 244
fact he did no M 244
face or out of M 244
face of death of M 244
faith to act in M 243
fall of man at M 242
faith to god in M 242
faith in and an M 242
faith he was an M 242
faith be real or M 242
faith as may be M 242
fail to aim at M 242
fact it has so M 242
fact as they do M 242
fact as for the M 242
face to ask the M 242
face the way of M 242
face the man on M 242
face up and he M 241
fall to him of M 240
fail on one of M 240
face he was to M 240
face is new to M 239
face as near to M 239
faith be not the M 238
faith at all to M 238
fair is not to M 238
fair by all the M 238
fail to bring as M 238
fail at one of M 238
fact the one in M 238
fact the myth of M 238
fall to men of M 237
face is not on M 237
faith of god as M 236
face to say it M 236
face he saw on M 236
fact to act on M 235
fate to deal the M 234
fate to bring the M 234
fate if you do M 234
fall to him or M 234
fall he was the M 234
faith is with the M 234
faith in them on M 234
faith as you do M 234
faith as with the M 234
fail as did the M 234
face of them as M 234
face to read it M 233
face he had no M 233
fare is not to M 232
fair to one of M 232
fair to lead the M 232
fail to let my M 232
fact he saw no M 232
fact he saw it M 232
fact as low as M 232
face up off the M 232
face of his is M 232
face is his to M 232
face is cut in M 232
fast it had to M 231
face is red or M 231
fall of earth in M 230
fall at one or M 230
fake it with the M 230
faith of and in M 230
faith is how we M 230
faith he had no M 230
fail to say or M 230
fail of one of M 230
face to let me M 230
face me with an M 230
face as did the M 230
face he had on M 229
fate is with the M 228
faith or for an M 228
faith is set in M 228
fail or may be M 228
fail of all the M 228
fact of war to M 228
fact of death at M 228
fact is all of M 228
face up one at M 228
face of one we M 228
face me and the M 228
face as set as M 228
fall in and we M 227
fate to one of M 226
fast as put on M 226
faith or way of M 226
faith of man to M 226
faith in using the M 226
fair to say my M 226
fair thing for me M 226
fail to buy it M 226
fail me and my M 226
fact the one of M 226
fact of going on M 226
fact in his or M 226
fact he has in M 226
face of things on M 226
fall on you if M 225
fate so that he M 224
fall to her in M 224
fall as due to M 224
fail to lead it M 224
fail to ask it M 224
fact the one he M 224
fact no law at M 224
fact it was me M 224
fact is not it M 224
fact if you go M 224
fact if they do M 224
fact he does it M 224
face or end of M 224
fall to him at M 223
fate of death is M 222
fate of all to M 222
fate is but the M 222
fall on men of M 222
fall of man it M 222
faith is that no M 222
faith at all if M 222
faith as for the M 222
fair to him he M 222
fail to read to M 222
face is not my M 222
face to one or M 221
fall to earth is M 220
faith is all we M 220
faith as was the M 220
fair to her in M 220
fail to earn an M 220
fail to awe the M 220
face to ease the M 220
fast to them by M 219
fast by all the M 219
face to cut the M 219
face is with me M 219
faith of this or M 218
faith at all is M 218
fact the one to M 218
fact the air is M 218
face on all of M 218
face of them he M 218
fall on her to M 217
fast or not to M 216
fare of one of M 216
fall to with the M 216
faith to one king M 216
faith the end of M 216
faith or not is M 216
fair to bring it M 216
fade so long as M 216
fact the era of M 216
fact in one so M 216
fact as does the M 216
face is all of M 216
fast to each of M 215
fall on them the M 214
fall on him he M 214
faith to use it M 214
faith as any of M 214
fair to bring to M 214
fail in that it M 214
fact we read in M 214
fact the poet is M 214
fact of both of M 214
face us now as M 214
face is set at M 214
face is cut by M 214
fast to read the M 213
fall to earth if M 213
face to her in M 213
fate of him to M 212
fall or that he M 212
fall of earth or M 212
faith in him it M 212
faith by one or M 212
fail to read on M 212
fail to mix up M 212
fail to end up M 212
face us all in M 212
face the east in M 212
fare by way of M 211
face to get my M 211
face as can be M 211
faith be not in M 210
fail to try is M 210
fact so easy to M 210
fact is why the M 210
face he can on M 210
fare as long as M 209
fact or that it M 209
fate to die of M 208
fate he was so M 208
fast as that to M 208
fall to and do M 208
fair to let it M 208
fair in all my M 208
fail to cling to M 208
fact to his or M 208
fact in two of M 208
fact as with the M 208
fast it has to M 207
face or head in M 207
fail to say in M 206
fail to lay in M 206
fail at one or M 206
face of them an M 206
face he saw no M 206
fast to one thing M 205
face is one in M 205
fall the end of M 204
fall on both of M 204
faith he saw the M 204
fair thing that the M 204
fail to put me M 204
fail so that it M 204
fact of using it M 204
fact of this or M 204
fact is one in M 204
fact he did at M 204
fare he had to M 203
fall to her as M 203
fall so far so M 203
fact or with the M 203
face to set up M 203
face the area of M 203
face as low as M 203
fair to put me M 202
fair thing was to M 202
fair or that the M 202
fail me for the M 202
fail in this to M 202
fail in that we M 202
fail in both the M 202
face on things at M 202
face it than to M 202
fake it for the M 201
fate is apt to M 200
fast we can do M 200
fast do they go M 200
faith if not in M 200
fact on top of M 200
fact no idea of M 200
fact by going to M 200
face is one thing M 200
fare as low as M 199
fate by going to M 198
fall as near as M 198
faith or one of M 198
faith in you in M 198
faith in things in M 198
faith if one is M 198
faith as can be M 198
fair to end the M 198
fair as you or M 198
fact we see it M 198
fact he has so M 198
fact be easy to M 198
fact at one of M 198
face the son of M 198
face it and we M 198
face as for my M 198
fast to get in M 197
fast as you go M 197
fail of being as M 197
face or may be M 197
fate of being at M 196
faith to put the M 196
faith in men is M 196
fact we are as M 196
fact of dying is M 196
fact is new to M 196
fact be that he M 196
face of earth in M 196
face is now in M 196
fare if you do M 195
face or near the M 195
face on for the M 195
fate in being the M 194
fail in this it M 194
fact of doing the M 194
fact of being my M 194
fact by use of M 194
face of them in M 194
fast is this in M 193
fall the way of M 193
face by use of M 193
fate of men as M 192
fate is that we M 192
fate in doing so M 192
fare in one of M 192
faith of god to M 192
faith in them if M 192
faith in man by M 192
faith in all my M 192
faith by both the M 192
fair as one or M 192
fail to see of M 192
fail to run or M 192
fail to hear my M 192
fact or idea on M 192
fact no man is M 192
fact no end to M 192
fact it did the M 192
fall on her if M 191
fall he had the M 191
fate to end up M 190
fast as was the M 190
faking it for the M 190
faith in who he M 190
fail as they do M 190
fact to both the M 190
face to see me M 190
face the way we M 190
face of one on M 190
face it was in M 190
fact to him as M 189
faith in going to M 188
fair to him at M 188
fail to read at M 188
fail to fly to M 188
fail it can be M 188
fail in this my M 188
fail in all my M 188
fact he goes to M 188
fact be for the M 188
fact as that we M 188
face to put to M 188
face in that the M 188
face he saw at M 188
fast to see it M 187
fair to put in M 187
face up near the M 187
fate is yet to M 186
fast be not as M 186
faith in her in M 186
fail us and the M 186
fail in this he M 186
fact to set the M 186
fact the war is M 186
fact be led to M 186
face to add to M 186
fact of man as M 185
fate by way of M 184
fate as this to M 184
fast as has the M 184
fall to earth or M 184
faith as does the M 184
fair to fix the M 184
fail to use up M 184
fact the air of M 184
fact of war or M 184
fact be put to M 184
face or two in M 184
face of one at M 184
fare as did the M 183
fall to you in M 183
fall as can be M 183
fail to run on M 183
face as with the M 183
faith to set up M 182
fact to say to M 182
fact of one thing M 182
fact by and by M 182
face the day to M 182
face the day as M 182
face of earth to M 182
fair on top of M 181
faith we owe to M 180
faith is now in M 180
faith he has to M 180
fail to heat the M 180
fail to ease the M 180
fail in each of M 180
fading of all the M 180
fact it did no M 180
face to them to M 180
face is all in M 180
fade so that the M 179
fact is not on M 179
face to him so M 179
face go red as M 179
fate of men on M 178
fast is that of M 178
fast as that at M 178
fare so that he M 178
fall we had the M 178
faith in you if M 178
fail to lay it M 178
fail to get or M 178
fact we see no M 178
fact we had an M 178
fact the one we M 178
fact if this is M 178
fact be read in M 178
fact as new as M 178
face the man at M 178
face of this king M 178
face of that we M 178
fall on you at M 177
fate to try to M 176
fare on one of M 176
fair it was to M 176
fact the law in M 176
fact is now to M 176
fact by both the M 176
face to bring the M 176
face so that if M 176
face of day by M 176
fast to one or M 175
fast or day of M 175
fact to aid in M 175
face in them as M 175
fate of all on M 174
faith we mean the M 174
fail to heal by M 174
fail in two or M 174
fact to bring to M 174
fact or try to M 174
fact of how we M 174
fact by men of M 174
face or with the M 174
face on earth no M 174
face of war or M 174
face is that no M 174
face is put in M 174
face is and to M 174
fast so that no M 173
fast if they do M 172
faith to say to M 172
faith it was to M 172
faith by men of M 172
fail in that the M 172
fact the aim is M 172
fact he does in M 172
fact an idea of M 172
face us with an M 172
face of that he M 172
fast or that the M 171
fare as ill as M 171
fall to earth to M 171
fast as this in M 170
fast as men in M 170
fall to bring in M 170
fall the way it M 170
faith to fit the M 170
faith or not in M 170
faith or act of M 170
faith in things we M 170
fair to cut the M 170
fact to pay the M 170
fact the lot of M 170
fact the kings of M 170
fact in all my M 170
face to him at M 170
face on both the M 170
face is near the M 170
fast to run the M 168
fall as did the M 168
faith we try to M 168
faith is real or M 168
faith is both an M 168
faith in was the M 168
fair to eye as M 168
fair to ask my M 168
fail so that we M 168
fact or may be M 168
fact of man in M 168
fact it may do M 168
fact if not as M 168
face the day we M 168
face of men of M 168
face of him at M 168
face as being the M 168
fall to try to M 167
fall in rear of M 167
face to say so M 167
face the eye of M 167
fate to die on M 166
fare as they do M 166
fall to one in M 166
fall as far to M 166
faith to bring it M 166
faith of both is M 166
fair to see or M 166
fair to let us M 166
fail if this is M 166
fact or law at M 166
fact of use of M 166
face of this ring M 166
face of each as M 166
face he saw as M 166
fate of one in M 164
fast it can do M 164
fast as then to M 164
fall or head of M 164
faith of one is M 164
faith be any thing M 164
fair as that on M 164
fail to ask is M 164
fact the end or M 164
fact or idea of M 164
fact go far to M 164
fact be using the M 164
fact as this to M 164
fact as being of M 164
face to see my M 164
face to bear the M 164
face on that of M 164
face of all is M 164
fare so that the M 162
faith to bear in M 162
fair to all my M 162
fact the man he M 162
fact be one to M 162
face us out of M 162
face or try to M 162
face of being the M 162
face at being so M 162
fair to add in M 161
fair in his or M 161
face of war as M 161
fate is not at M 160
faith we may so M 160
faith the act of M 160
faith in men or M 160
fair to lead me M 160
fair to lay it M 160
fail to lead on M 160
fail to hear us M 160
fail at one thing M 160
fact we had so M 160
fact he won the M 160
face to get at M 160
face it all at M 160
face is set the M 160
face as any in M 160
fast or far as M 159
fast he can do M 159
fall on two or M 159
fair is that of M 159
face the day the M 159
face he was no M 159
fate in that he M 158
fall so near the M 158
fall in all at M 158
faith or with an M 158
faith in god do M 158
faith at all or M 158
fair to you at M 158
fail me not at M 158
fact or idea or M 158
fact as that he M 158
face the bow of M 158
face as this is M 158
fall so that by M 157
fall in and to M 157
fact it goes on M 157
fact be set up M 157
face or arm or M 157
faith of both of M 156
faith is put on M 156
faith in and by M 156
faith as she is M 156
fair in them to M 156
fair by way of M 156
fail to fix it M 156
fail is not the M 156
fact the job of M 156
fact it may or M 156
fact he who is M 156
face it that the M 156
fast he has to M 155
fall to low or M 155
fall of men of M 155
face the men he M 155
face or that the M 155
face on any of M 155
face of them no M 155
fast to use the M 154
fall in than to M 154
faith to men of M 154
faith in them we M 154
faith in that we M 154
fair or that it M 154
fail me and the M 154
fact of them is M 154
face or arm of M 154
face it out in M 154
face as dead as M 154
fall at all or M 153
face of his in M 153
fate in that it M 152
fast as this thing M 152
fall to him on M 152
fall on her or M 152
faith to him the M 152
faith is god in M 152
faith as old as M 152
fail to win my M 152
fail to sum to M 152
fail to mean the M 152
fail to act if M 152
fail is that it M 152
fact we may in M 152
fact to each of M 152
fact of death the M 152
fact be doing so M 152
face to ask if M 152
face the toy it M 152
face of her to M 152
face of day he M 152
face if one of M 152
fall by that of M 151
fact of that in M 151
face if not the M 151
fate to bear the M 150
fate of lead in M 150
fate of death in M 150
fast in both the M 150
fast as each of M 150
fare on all the M 150
fall in for an M 150
faith to win the M 150
faith to him by M 150
faith of him to M 150
faith no man is M 150
faith is dead or M 150
faith as that by M 150
fair to put so M 150
fair is not it M 150
fail is one of M 150
fact we add the M 150
fact no way in M 150
fact is now the M 150
fact an oath of M 150
fact an era of M 150
face to bring it M 150
face or put on M 150
fast to all of M 149
face we had to M 149
fate of death or M 148
fate is now to M 148
fast to death if M 148
fall on her at M 148
fall as not to M 148
faith on any of M 148
faith is for us M 148
faith is and is M 148
faith in you at M 148
faith in men to M 148
faith if not by M 148
faith as this in M 148
fair by both the M 148
fail to own the M 148
fail to deal in M 148
fail to act so M 148
fail of men of M 148
fact to use in M 148
fact if not on M 148
fact an end in M 148
face or hear my M 148
fast at one of M 147
face or any of M 147
fast up with the M 146
faith on one or M 146
faith in her at M 146
fair the way the M 146
fail to bear me M 146
fail to ask of M 146
fail in that he M 146
fact of how he M 146
fact it got to M 146
fact in aid of M 146
face up and in M 146
face or hear in M 146
face of them so M 146
face in one or M 146
face at him in M 146
fall is that in M 145
fair to her as M 145
fair is for the M 145
fail to add in M 145
face to set the M 145
face to get me M 145
face the man to M 145
face or not is M 145
fate we are in M 144
fate in with the M 144
fast to god by M 144
fast as two or M 144
fall of men in M 144
fall is that he M 144
fall by and by M 144
faith or you do M 144
faith of this he M 144
fact as did the M 144
face so that in M 144
face of each to M 144
face of men in M 143
face of death so M 143
fate to see it M 142
fate of dying in M 142
fate of both to M 142
fast as you or M 142
faith be that of M 142
faith as that in M 142
fail to sit on M 142
fail to read as M 142
fact we saw the M 142
fact we are of M 142
fact the eye is M 142
face to say he M 142
face to own it M 142
face to ask it M 142
face me and my M 142
face in them to M 142
face as that in M 142
fall he was at M 141
face the things we M 141
fate of this king M 140
fate of man by M 140
fate is set in M 140
fall the bias of M 140
faith in that is M 140
faith he has no M 140
fair to see it M 140
fail to set us M 140
fail to lead me M 140
fail to lay to M 140
fact to put it M 140
fact or fear of M 140
fact of things as M 140
fact of death so M 140
fact it got so M 140
fact in both of M 140
fact if any of M 140
fact by any of M 140
fact be doing the M 140
fact as easy of M 140
face to get an M 140
face so you do M 140
face of each by M 140
fall to eating of M 139
fall he was on M 139
face is set on M 139
face in fear of M 139
face at all in M 139
fast to win the M 138
fall on him so M 138
faith to each of M 138
faith on both the M 138
faith by use of M 138
fail to see he M 138
fail to cut it M 138
fail at all is M 138
fail as not to M 138
fact to you in M 138
fact to bear on M 138
face the men at M 138
face is set as M 138
fare as bad as M 137
faith in you so M 137
fail to use on M 137
fail in this as M 137
face an end to M 137
fate or joy at M 136
fare is that it M 136
fare as may be M 136
faith we see in M 136
faith the use of M 136
faith of joy to M 136
faith of god or M 136
fair to say if M 136
fail to pay by M 136
fail to lay up M 136
fact or can be M 136
fact of who we M 136
fact if not of M 136
face to any of M 136
face of his he M 136
face of god be M 136
face it all by M 136
face is one to M 136
fast he may be M 135
fall to ten or M 135
fall of one is M 135
fall by using the M 135
face is now to M 135
fall to her by M 134
faith to god is M 134
faith the key to M 134
faith so that in M 134
faith it had in M 134
faith is yet to M 134
faith do not go M 134
fair on them to M 134
fail of doing me M 134
fact or sum of M 134
fact on each of M 134
fact is one on M 134
face so that at M 134
face so sad as M 134
face or for the M 134
face he had in M 134
face the joy of M 133
face at each of M 133
fast to let us M 132
fall the head of M 132
fall on men in M 132
fall in with as M 132
faith of men by M 132
faith is dear to M 132
faith he saw in M 132
fair to bear my M 132
fair in with the M 132
fail to wet the M 132
fail to run to M 132
fail on are of M 132
fact or that is M 132
fact no easy thing M 132
face us and to M 132
face of one the M 132
face the things he M 131
face is that at M 131
fate or with the M 130
fate of that at M 130
fast the end to M 130
fast is that he M 130
fare is going to M 130
fall to earth on M 130
fall to and be M 130
fall to all the M 130
faith in one to M 130
fair to beat the M 130
fair thing she is M 130
fair the way he M 130
fail to end it M 130
fail so far to M 130
fact the one on M 130
fact or was it M 130
fact of law in M 130
fact he led the M 130
fact he does do M 130
face to aid in M 130
face of any king M 130
face as his at M 129
fate or god to M 128
fate of him of M 128
fast to any thing M 128
fall to eating as M 128
fall the way he M 128
fall as far in M 128
faith to get me M 128
faith or any of M 128
faith is easy to M 128
faith is dead if M 128
fair to bring on M 128
fail to sum up M 128
fail by one of M 128
fading the use of M 128
fade in one by M 128
fact to you as M 128
fact to him is M 128
fact the one the M 128
fact the area in M 128
fact of being to M 128
fact is with the M 128
fact he did on M 128
fact at all to M 128
face us and we M 128
face of each the M 128
fall we may be M 127
fall to them on M 127
fall to earth by M 127
fact it may in M 127
face it has the M 127
face as old as M 127
fate to all the M 126
fate or was it M 126
fate is that in M 126
fast to get up M 126
fast to both the M 126
fast by him as M 126
fall to him the M 126
fall of both is M 126
faith to them as M 126
faith to one or M 126
faith to get to M 126
faith to end the M 126
faith on that of M 126
faith is god as M 126
fair to try it M 126
fair to run an M 126
fact the poet of M 126
fact it now is M 126
fact is and the M 126
fact be set in M 126
fact at all is M 126
fact as big as M 126
face the sun of M 126
face the east at M 126
face of him the M 126
face me with it M 126
face it now in M 126
fare to one of M 125
fall on this or M 125
fair to all as M 125
fact or not the M 125
face the real or M 125
face or head as M 125
face is now as M 125
fate of that in M 124
fate of man or M 124
fate it was in M 124
fast is that in M 124
fast is going to M 124
fast as are the M 124
fall to pay the M 124
faith to try the M 124
faith to try it M 124
faith the men of M 124
faith on god in M 124
faith in man on M 124
fair to put to M 124
fair or not at M 124
fail to read an M 124
fail to act by M 124
fail at all of M 124
fact we get no M 124
fact to say the M 124
fact to lay the M 124
fact the map is M 124
fact so far in M 124
fact on any of M 124
fact of sin to M 124
fact of law is M 124
fact as that it M 124
face of that is M 124
face of low or M 124
face in death is M 124
face as near the M 124
fate as being in M 123
fall in with to M 123
face the air of M 123
face it was an M 123
face it now as M 123
face by doing so M 123
fate of men or M 122
fate as that in M 122
fate as bad as M 122
fast to earth by M 122
fast do you go M 122
fare in all the M 122
fall if they be M 122
fall he and the M 122
fall as may be M 122
faith is weak in M 122
faith in who we M 122
faith in this in M 122
faith in death as M 122
fair go for the M 122
fair an idea as M 122
fail to sit up M 122
fail to dim the M 122
fact we got on M 122
fact to lead us M 122
fact the two go M 122
fact the path to M 122
fact is set up M 122
fact as easy as M 122
face so lit up M 122
face of things an M 122
face it that we M 122
face is that on M 122
face is cut up M 122
face if you go M 122
face we saw in M 121
fate of war or M 120
fast as they eat M 120
fast as any thing M 120
fall to them at M 120
fall of man be M 120
faith we are so M 120
faith the things of M 120
faith in that to M 120
fair or not in M 120
fail to get by M 120
fail to bear on M 120
fact to him or M 120
fact the head is M 120
fact so that no M 120
fact no one on M 120
fact is why we M 120
fact if one of M 120
face us all as M 120
face the sun on M 120
face of weak or M 120
face is how do M 120
face as was the M 120
fast to let the M 119
fall the men in M 119
fake it all the M 119
fair is set up M 119
fail to ask in M 119
face by far the M 119
fate so that it M 118
fate of going to M 118
fate is near at M 118
fast to buy the M 118
fast or far in M 118
fall in use of M 118
fall in and do M 118
fall by day or M 118
faith on earth is M 118
faith of each in M 118
faith by any of M 118
fair to use an M 118
fair to all is M 118
fail to lead an M 118
fail to bow in M 118
fail to add it M 118
fail or that it M 118
fail of going to M 118
fail of being to M 118
fact to bear the M 118
fact it does or M 118
fact it does do M 118
fact in this is M 118
fact in that he M 118
face us for the M 118
face to god in M 118
face the day or M 118
face of how the M 118
face it and it M 118
face is cut to M 118
fall of one by M 117
face it has to M 117
fate of death at M 116
fate as that is M 116
fast or easy to M 116
fast as had the M 116
fare as was to M 116
fall to set up M 116
fall or was it M 116
faith is now to M 116
faith he was the M 116
fail to say of M 116
fail to run at M 116
fact the gap is M 116
fact no one to M 116
fact he saw in M 116
fact by being in M 116
face to say the M 116
face of that to M 116
face me with my M 116
face me man to M 116
face it with my M 116
face it out as M 116
fall of both of M 115
fall as this is M 115
fair is that the M 115
fail to hang on M 115
fact as near as M 115
face it was no M 115
face in going to M 115
fate by one of M 114
fate as that to M 114
fast is not an M 114
fast as using the M 114
fall or sin of M 114
faith of god by M 114
faith in how the M 114
faith by that of M 114
faith as had the M 114
fair in bow or M 114
fail to say at M 114
fail to bar the M 114
fact to cling to M 114
fact the cry of M 114
fact of sin by M 114
fact of lying in M 114
fact of being no M 114
fact of aging is M 114
face we can on M 114
face to both the M 114
face so out of M 114
face of them by M 114
face of fear to M 114
face of day the M 114
face of any foe M 114
face in man is M 114
fast to see me M 113
fall by one or M 113
faith to him is M 113
fade in two or M 113
fact of being as M 113
face by one or M 113
fate of two or M 112
fate of each in M 112
fate he has in M 112
fate as easy as M 112
fast or going up M 112
fast as with an M 112
fall to them if M 112
fall in near the M 112
faith to bear up M 112
faith so that no M 112
faith if any of M 112
faith as with it M 112
faith as that is M 112
fail to own up M 112
fail to lead at M 112
fail to add is M 112
fact to one or M 112
fact or act as M 112
fact no two of M 112
fact is for us M 112
fact is both an M 112
fact in use in M 112
fact do not in M 112
fact be not so M 112
face of war by M 112
face he was of M 112
face an age of M 112
fast to use as M 111
fast so you do M 111
fall of two to M 111
faith to put on M 111
fact of our so M 111
fact it was up M 111
face to read in M 111
face the way in M 111
face the sun so M 111
fate of being by M 110
fall of day the M 110
fall as dead as M 110
faith to put my M 110
faith to get it M 110
faith the god of M 110
faith of men be M 110
faith it has no M 110
faith is that an M 110
faith he had at M 110
faith as being of M 110
fair to see if M 110
fair it lay in M 110
fair if all the M 110
fail to rear up M 110
fail or not to M 110
fail me not in M 110
fail in with the M 110
fail by one or M 110
fact to read the M 110
fact to put in M 110
fact to lead the M 110
fact to fix the M 110
fact the war in M 110
fact so old as M 110
fact of them the M 110
fact is any thing M 110
fact he had by M 110
fact do this in M 110
face the foes of M 110
face so red it M 110
face of them my M 110
face of god so M 110
face of god it M 110
face it was on M 110
face at her in M 110
fast so that by M 109
fast by using the M 109
fall so that at M 109
fake the death of M 109
fair he was at M 109
fade in with the M 109
fact to her in M 109
face if one is M 109
face as any of M 109
fate of her he M 108
fate of god in M 108
fate is this of M 108
fall of men or M 108
fall he saw the M 108
faith to see to M 108
faith to bring us M 108
faith to bear the M 108
faith or lead to M 108
faith on his or M 108
faith of one in M 108
faith by doing so M 108
faith be due to M 108
fair thing that it M 108
fail to lie on M 108
fact we saw no M 108
fact to him at M 108
fact of war on M 108
fact of all my M 108
fact he got so M 108
face to them as M 108
face to that in M 108
face the men on M 108
face so red as M 108
face or set of M 108
face of war to M 108
face of each ring M 108
face is now so M 108
face is for me M 108
fast to put the M 107
fast to his or M 107
fall or with the M 107
fall or with an M 107
face the war of M 107
fate of all us M 106
fate is easy to M 106
fate as big as M 106
fate as being the M 106
fall of man of M 106
fall in one by M 106
faith we say to M 106
faith to you in M 106
faith to get us M 106
faith the death of M 106
faith of his is M 106
faith of him in M 106
faith of god the M 106
faith is that as M 106
faith is set on M 106
faith in that thing M 106
faith in god an M 106
fair to let my M 106
fair if they do M 106
fail to win or M 106
fail to put my M 106
fail to earn as M 106
fail to arm the M 106
fact we use it M 106
fact we saw in M 106
fact we mean by M 106
fact we did so M 106
fact we ask the M 106
fact the heat is M 106
fact the boy is M 106
fact of death he M 106
fact is now in M 106
fact is how it M 106
fact in that of M 106
fact as this of M 106
fact as that at M 106
face to dry it M 106
face it out to M 106
face it out at M 106
face it and he M 106
face by going to M 106
fast so that in M 105
face up now to M 105
face he saw an M 105
face as are the M 105
fate of man at M 104
fast to both of M 104
fast as can the M 104
fare so ill in M 104
fall so low at M 104
fall on them on M 104
fall of one so M 104
faith to see us M 104
faith to lead us M 104
faith to bring in M 104
faith or not to M 104
faith on top of M 104
faith in war is M 104
faith as being an M 104
fair to him by M 104
fail to win on M 104
fail to sit at M 104
fail to fix in M 104
fail to bear an M 104
fail by and by M 104
fade as did the M 104
fact to use it M 104
fact to buy the M 104
fact the being of M 104
fact so near to M 104
fact it had in M 104
fact it did at M 104
fact he put the M 104
fact he does no M 104
fact by all of M 104
face to see he M 104
face the one thing M 104
face the east as M 104
face or two at M 104
face or that he M 104
face of this as M 104
face of any thing M 104
face of all in M 104
face is both the M 104
face as dry as M 104
face an era in M 104
fair he was to M 103
fade if you do M 103
fact in this as M 103
face to her so M 103
fate of war the M 102
fate of war be M 102
fate of all or M 102
fate is but to M 102
fate he has to M 102
fate he had an M 102
fast to set the M 102
fast to god as M 102
fast of one to M 102
fast he was in M 102
fall to and the M 102
fall of that king M 102
fall he had in M 102
faith to die by M 102
faith the law of M 102
faith it was in M 102
faith in and no M 102
faith he had an M 102
faith as this the M 102
fair to use in M 102
fair to men of M 102
fair to her at M 102
fair he was in M 102
fail to hang up M 102
fail if you go M 102
fading of one of M 102
fact we had in M 102
fact we did it M 102
fact we can in M 102
fact we act as M 102
fact the mean is M 102
fact the job is M 102
fact of sin or M 102
fact do not go M 102
fact be one or M 102
fact at all of M 102
fact as you do M 102
fact an aid to M 102
face of this my M 102
face do not go M 102
fading as far as M 101
face the east so M 101
fate on one of M 100
fast in each of M 100
fast as that is M 100
fast as his or M 100
fare is set at M 100
fall he had an M 100
faith we cling to M 100
faith to hang on M 100
faith to bring to M 100
faith to bear it M 100
faith or fear of M 100
faith in them of M 100
faith in that as M 100
faith if not the M 100
fair thing that he M 100
fail to set or M 100
fail is that no M 100
fail in any or M 100
fail in all or M 100
fail if all of M 100
fact to aid the M 100
fact the men in M 100
fact the end is M 100
fact the air in M 100
fact or law the M 100
fact as one to M 100
face the man as M 100
face of things of M 100
face of fear on M 100
face of earth or M 100
face of both an M 100
face it out so M 100
face by all the M 100
face an area of M 100
fast or you do M 99
fast by eating the M 99
fare as ill at M 99
fall to get my M 99
fall the arm of M 99
fall if all the M 99
fall he had no M 99
fair on any of M 99
face of him or M 99
fate so that the M 98
fate is with us M 98
fate by dying in M 98
fast or out of M 98
fall we had an M 98
fall to men to M 98
fall of all is M 98
fall is all on M 98
faith to you of M 98
faith to let the M 98
faith to god the M 98
faith the law is M 98
faith is one to M 98
faith as real as M 98
faith an easy thing M 98
fair to bring us M 98
fail to run up M 98
fail to log on M 98
fail to fit or M 98
fail to die of M 98
fail to buy at M 98
fail to ask to M 98
fact we did the M 98
fact the heat of M 98
fact on both the M 98
fact of that king M 98
fact of him is M 98
fact of eating the M 98
fact of age is M 98
fact as this by M 98
face or that is M 98
face of him is M 98
face it and so M 98
face is red in M 98
face is due in M 98
face at him to M 98
face as that on M 98
fast to put on M 97
fall in this or M 97
faith he has so M 97
face to his or M 97
face no end of M 97
face in doing it M 97
fate of them is M 96
fate of each to M 96
fate in death or M 96
fare is for the M 96
fall to eating it M 96
fall is due in M 96
faith to say the M 96
faith to read it M 96
faith to put it M 96
faith of this the M 96
faith of this is M 96
faith no one is M 96
faith is that on M 96
faith in this the M 96
faith at all it M 96
fair to lay at M 96
fail to win by M 96
fail to run it M 96
fail to heal on M 96
fail to bring or M 96
fail or are in M 96
fact to see it M 96
fact the map of M 96
fact or idea he M 96
fact of using an M 96
fact is this the M 96
fact in using the M 96
fact in two or M 96
fact an air of M 96
face to dry the M 96
face the war in M 96
face the sun the M 96
face of how we M 96
face he for the M 96
fate to act in M 95
fast is for the M 95
fare on earth as M 95
fall in with by M 95
faith he had as M 95
face he has to M 95
fate he had no M 94
fast in any of M 94
fast in all of M 94
fare is that the M 94
fall at any of M 94
faith we see it M 94
faith we bring to M 94
faith the way to M 94
faith of using the M 94
faith is due in M 94
faith in man the M 94
fair to set me M 94
fair to being the M 94
fair thing that we M 94
fair is not an M 94
fail to map the M 94
fail to ask an M 94
fact to bring it M 94
fact the song of M 94
fact no man of M 94
fact is how he M 94
fact go out to M 94
face to put in M 94
face the lot of M 94
face the east to M 94
face of age is M 94
face me and we M 94
face is that so M 94
face in with my M 94
face he did to M 94
face as not to M 94
fast to that in M 93
fast the way he M 93
fast so far as M 93
fast or let go M 93
fall the job of M 93
fall on you the M 93
fall of one to M 93
fail to mix in M 93
fact he had on M 93
face to get up M 93
face he saw it M 93
fate on earth is M 92
fate of this is M 92
fate by using the M 92
fast to him he M 92
fast as all of M 92
fare to get me M 92
fare of any of M 92
fall is out of M 92
faith the way of M 92
faith is for me M 92
faith in them the M 92
faith in men he M 92
faith in being the M 92
fair to set it M 92
fair to read by M 92
fair to him we M 92
fair to aim at M 92
fair on him to M 92
fair on her to M 92
fail to lie in M 92
fact we all of M 92
fact the year in M 92
fact the path is M 92
fact so far is M 92
fact be two or M 92
face or two of M 92
face or head to M 92
face of his to M 92
face of him of M 92
face of each wing M 92
face it but the M 92
face is that as M 92
fate to die as M 91
fare we had to M 91
fair to act as M 91
fate of death to M 90
fate is put in M 90
fate in that the M 90
fate as any of M 90
fast to get as M 90
fast the head of M 90
fast he did it M 90
fast by was the M 90
fast as one thing M 90
fall to you of M 90
fall or not in M 90
faith to let me M 90
faith or was it M 90
faith of both in M 90
faith in men in M 90
faith he has the M 90
faith by being the M 90
fair to vie in M 90
fair to run the M 90
fair thing for us M 90
fail to die in M 90
fail on all the M 90
fact to lie in M 90
fact to die in M 90
fact the act is M 90
fact or two on M 90
fact on all of M 90
fact it can in M 90
fact he got to M 90
fact he got no M 90
fact as she is M 90
face to win the M 90
face to hang in M 90
face on things to M 90
face on them to M 90
face of god if M 90
fast the use of M 89
fall to with an M 89
fall or let the M 89
fall on him on M 89
fall at all on M 89
fact or any of M 89
face so that an M 89
fate of his king M 88
fate is not of M 88
fate in his or M 88
fast to this as M 88
fast to bar the M 88
fast the heat is M 88
fare is not as M 88
faith to this or M 88
faith he saw it M 88
fair to lie in M 88
fair to lead us M 88
fair in doing so M 88
fail we may be M 88
fail to bear up M 88
fail me for my M 88
fail in this in M 88
fact the two do M 88
fact so near at M 88
fact of use to M 88
fact of men in M 88
fact of death we M 88
fact no man in M 88
fact it had so M 88
fact is why it M 88
fact is for me M 88
fact he may do M 88
fact at all as M 88
fact an air as M 88
face of day so M 88
face it that he M 88
faith to say no M 87
fair on one of M 87
fact it can no M 87
face or with an M 87
fate we are so M 86
fate as all of M 86
fast to rings in M 86
fast to her in M 86
fast to each by M 86
fast to all we M 86
fast so they do M 86
fast of ten or M 86
fare to any of M 86
fall of earth on M 86
fall my lot to M 86
fall as far or M 86
faith we can go M 86
faith to set the M 86
faith to say it M 86
faith to any thing M 86
faith to aid in M 86
faith is led to M 86
faith he was so M 86
faith as that the M 86
fair thing out of M 86
fair it was the M 86
fair in that he M 86
fail to run if M 86
fail to buy or M 86
fail to ask or M 86
fail to ask at M 86
fail on each of M 86
fact to run the M 86
fact the song is M 86
fact the doing of M 86
fact the day is M 86
fact or not it M 86
fact of that the M 86
fact of that is M 86
fact is then the M 86
fact he got it M 86
fact by using an M 86
face we try to M 86
face the sin of M 86
face the new foe M 86
face of man on M 86
face it all as M 86
face at all to M 86
fare on top of M 85
face so cut up M 85
fate to hear the M 84
fate the death of M 84
fate or that he M 84
fate of men at M 84
fast to you as M 84
fast in both of M 84
fast as one in M 84
faith to say in M 84
faith in man we M 84
faith in god go M 84
faith as that to M 84
faith as all the M 84
fair to win it M 84
fair as not to M 84
fair as all the M 84
fail to let in M 84
fail of doing if M 84
fail if put to M 84
fact the idea in M 84
fact of being by M 84
fact it does to M 84
fact is thus the M 84
fact is then to M 84
fact is not my M 84
fact is easy of M 84
fact he let it M 84
fact be read by M 84
face to that on M 84
face so long in M 84
face of sin is M 84
face it all on M 84
face in with it M 84
fall by lot to M 83
fair in both the M 83
fate to end in M 82
fate he goes to M 82
fare is that of M 82
fare is apt to M 82
fall so near to M 82
fall is that we M 82
fall is not of M 82
faith we are at M 82
faith to him to M 82
faith to ask the M 82
faith the way we M 82
faith is set up M 82
faith is all of M 82
faith in them he M 82
faith in that at M 82
faith if not of M 82
faith as are to M 82
fail to beat at M 82
fail to act it M 82
fail is not so M 82
fail in was the M 82
fact we see on M 82
fact we mean the M 82
fact we are an M 82
fact to him the M 82
fact to him he M 82
fact to beg the M 82
fact the one at M 82
fact or that of M 82
fact in this the M 82
fact he has it M 82
fact be going to M 82
fact be all the M 82
face to him or M 82
face the fear in M 82
face of one as M 82
face of fear in M 82
face of death do M 82
face of all to M 82
face me and he M 82
fast we had no M 81
face of who we M 81
face it and in M 81
fate to die so M 80
fate of him so M 80
fate is now at M 80
fate in death we M 80
fall to one as M 80
fall is near at M 80
faking it all the M 80
faith is thus to M 80
faith in two of M 80
faith in this we M 80
fair to lie to M 80
fail to say my M 80
fail to reap an M 80
fail to read my M 80
fail to bow the M 80
fact to see in M 80
fact the man on M 80
fact so that if M 80
fact of that of M 80
fact it lay in M 80
fact is with us M 80
fact by using it M 80
fact as being in M 80
face on things is M 80
face is but an M 80
fast the day of M 76
fare in each of M 75
face up and to M 70
face or not at M 69
face of this so M 68
face he put it M 67
fast to get on M 66
fall it was to M 65
fact of her so M 63
fast is that we M 62
fall to death in M 62
faith in this so M 62
face up and is M 62
face he was as M 62
fall so that no M 61
fall or for the M 61
fall of things in M 61
fall as does the M 61
face of his as M 61
fall in two of M 60
fair is not so M 60
fail to use as M 59
fact in doing so M 59
fact by doing so M 59
face an act of M 59
fall on them so M 58
fall in both of M 58
fair is not in M 57
fall in his or M 56
fact he was up M 56
fast to end the M 55
fast is not so M 55
face up and it M 55
face is with the M 55
fall to end the M 54
fall by all the M 54
face on his or M 54
fare so long as M 53
fall of kings in M 53
fall of them in M 52
fact he had as M 52
fact be going on M 52
face the sum of M 52
face or not to M 52
face he got up M 52
fast to death to M 51
fare on each of M 51
fail to log in M 51
fading is that the M 51
face is that to M 51
fail to say no M 50
face the day on M 50
fast is apt to M 49
fare in all of M 49
fall or can be M 49
fall of them is M 49
fall as you go M 49
face of things no M 49
face as head of M 49
fall or that it M 48
fall at end of M 48
fall as with the M 48
face if they go M 48
face at both the M 48
fate do with me M 47
fall on how the M 47
fair the day of M 47
face up one by M 47
face the map of M 47
face the age of M 47
face of this in M 47
fast of all the M 46
fall to eating the M 46
faith of him as M 46
face on and in M 46
fall the air is M 45
fall or end of M 45
fall is not at M 45
face to use in M 45
face to say no M 45
face the sun is M 45
face is thus the M 45
face is that an M 45
fast is not as M 44
fall to them is M 44
fall so that in M 44
fall of and the M 44
fall he was so M 44
fair to run in M 44
fast to get an M 43
fall to put on M 43
fall to all of M 43
fall to act as M 43
fall the use of M 43
fall so that my M 43
fall is but the M 43
fall in fear of M 43
fall in air of M 43
fair at one of M 43
face or how to M 43
face on her as M 43
face it had the M 43
face is his or M 43
face in and the M 43
fast to cut the M 42
fast as that he M 42
fall to them of M 42
fall of man so M 42
fact he got up M 42
face to set on M 42
face in doing the M 42
face as both the M 42
fall to you the M 41
fall to win the M 41
fall to aid in M 41
fall to add to M 41
fall or may be M 41
fall on him it M 41
fall on and eat M 41
fall on all in M 41
fall in and he M 41
fall as all the M 41
faith in her so M 41
fail in being so M 41
face up with my M 41
face or was it M 41
face is now on M 41
fare to pay the M 40
fall or that of M 40
fall as was the M 40
faith on him as M 40
faith in them so M 40
faith in its as M 40
fair to add as M 40
face the gap in M 40
face of how to M 40
face it with as M 40
fame as one of D 12330
facing the end of D 8850
fame is that he D 5332
fame as that of D 4508
fame is that it D 4506
facing the rear of D 4496
farm is one of D 4471
fame of being the D 4310
fail to hit the D 3678
facing the head of D 2768
facing the death of D 2678
fame is due to D 2606
fame of one of D 2282
farm of one of D 2070
facing up and the D 2062
fain to put up D 2047
facing the bay of D 2014
farm as long as D 1959
farm to see the D 1925
fame thing may be D 1897
facing the top of D 1878
farm in one of D 1800
fain be rid of D 1788
facing the sun is D 1784
farm it out to D 1658
facing us now is D 1586
fame in all the D 1338
fact the art of D 1246
farm is not the D 1220
fame is not the D 1206
farm to see if D 1179
farm is going to D 1166
fame is one of D 1166
fame is that of D 1164
fame of all the D 1146
farm so that the D 1120
facing the fear of D 1076
farm so that he D 1070
farm to one of D 1062
fast ye for me D 1033
face the ire of D 991
facing the sun at D 934
fame thing with the D 926
faith in art as D 917
facing us was the D 868
faith in thee is D 856
fame by being the D 834
facing the east or D 832
farm to each of D 818
facing us and the D 808
farm to pay the D 800
facing the use of D 800
fame is that the D 794
facing me was the D 786
fate of art in D 782
fast the car is D 762
farm as far as D 756
facing the row of D 750
fail to tap the D 748
facing it was the D 724
fall on his ear D 716
facing the red sea D 708
farm as one of D 701
farm to get the D 689
farm is run by D 678
facing the sun in D 666
fame as far as D 650
fain to see the D 647
fame is not so D 640
fame is not to D 638
fail to hit it D 632
farm is now in D 624
farm is now the D 616
fame to that of D 615
farm is not so D 614
facing the sun as D 610
farm is not an D 604
fame as long as D 600
facing the earth is D 596
facing it with the D 584
farm so long as D 581
fans to see the D 578
facing is how to D 578
facing the east in D 574
facing the way he D 568
facing it head on D 558
farm on one of D 545
fair to tax the D 540
farm is not to D 524
facing an era of D 522
farm is set up D 514
farm by way of D 513
farm is that it D 508
facing it and the D 508
farm on top of D 503
fall on our ear D 502
fain to let it D 498
facing the two of D 492
farm so that it D 487
farm in all the D 482
farm to that of D 478
fall of pan am D 478
facing the east is D 478
fain to let the D 474
face the lion in D 470
fain to put it D 464
facing us with the D 462
facing is that of D 456
facing so that the D 454
fact of sex is D 450
facing it for the D 450
face as gay as D 448
fate of oil in D 446
fame to all the D 440
fain be one of D 440
facing me and the D 440
facing the way we D 438
fame by way of D 432
facing the man in D 426
facing in and the D 426
farm is that the D 422
fame as being the D 422
farm to try to D 420
farm of two or D 420
facing the sun or D 420
facing the bow of D 416
farm to buy my D 412
fans as one of D 412
farm is that of D 410
fame he had so D 410
fain to cling to D 410
farm is not in D 408
farm he had to D 403
farm it may be D 402
facing the sun to D 400
fame of any of D 398
fame is not of D 396
facing the area of D 396
fats is due to D 392
fame is that in D 392
fain to fly to D 388
fain to lie in D 386
facing me with the D 374
facing the idea of D 368
fame of them the D 366
farm is not as D 365
farm is near the D 364
fame in one of D 362
fail to wear the D 358
farm in each of D 352
fame is but the D 336
facing it are the D 336
farm or for the D 335
fame he was to D 331
fays in one of D 330
farm or lot of D 328
fain to try the D 328
facing the way it D 326
fact the tip of D 322
farm of all the D 314
fangs as long as D 314
face the bay of D 314
face the earl of D 312
fame as for the D 310
fame in both the D 308
fact of sex in D 308
facing the men of D 308
fall in with thy D 305
fame of being an D 304
facing as they do D 304
fall on deaf or D 301
fain to use the D 298
facing us can be D 298
fain to put on D 297
facing is that the D 296
farm or with the D 290
facing the way the D 286
fain to see in D 284
facing of all the D 278
farm is due to D 276
fame is not an D 274
face to her ear D 274
fain to beg the D 273
fans so that the D 268
fans to get to D 266
farm is for the D 264
fans in all the D 264
face the row of D 264
farm or out of D 262
fangs of one of D 262
fats so that the D 258
fame of men of D 258
farm so that we D 256
fats in that it D 254
farm he has to D 254
fans is that the D 254
fain to bear up D 254
facing the east on D 254
farm he had in D 252
facing in each of D 250
fame of this or D 248
facing the man he D 248
farm to get to D 247
farm is run on D 244
fame is due in D 244
fain to ask the D 244
facing us are the D 244
facing the tip of D 244
fame so long as D 242
farm is out of D 240
fame is being the D 240
fame as head of D 240
fair to rob the D 240
fact be met by D 240
fain to get up D 236
face as hot as D 236
fame is not in D 235
fail to hit on D 235
face of beam or D 232
facing up with the D 230
facing so that it D 230
facing us all is D 228
facing the real thing D 228
farm of one or D 226
facing the sun so D 226
fame it was to D 225
farm he was to D 224
fail to fan the D 224
facing us and we D 222
facing the sun on D 222
fame as men of D 220
facing the east to D 220
fain to lean on D 219
fail to sue or D 218
fays it was the D 217
fall the seal of D 217
fans on top of D 216
face the mob of D 214
face of this sea D 214
farm to him in D 212
farm as big as D 212
fame of this he D 212
facing the east as D 212
face of art in D 212
fame so far as D 211
farm an area of D 210
fame of both the D 208
fame he won in D 208
facing us was to D 208
facing the men in D 208
fans of both the D 206
facing the man of D 206
fame of two of D 204
fact is that la D 204
facing the law of D 204
face of dis at D 204
faith to lean on D 203
face as thin as D 201
fans as you go D 200
facing us all the D 200
facing the heat of D 200
facing the dead sea D 200
facing the east so D 199
fats is one of D 198
fate of all thy D 198
fail to tie the D 198
fail to sow the D 198
fact of his re D 197
farm it was the D 194
fame or for the D 194
fain to beg to D 194
farm as may be D 193
farm or that of D 192
facing us for the D 192
facing the east at D 192
facing me was an D 192
farm so far as D 191
fact of sex as D 190
fain to sit on D 189
fans the air in D 186
fame is owing to D 186
facing the rim of D 186
fame or out of D 184
fame as any of D 184
fair of peg of D 184
facing in one of D 184
farm is one on D 182
farm is not of D 182
facing us and to D 182
farm or two in D 180
fame is not as D 180
fain to pay the D 180
fact the earl of D 180
facing an idea as D 180
farm if you do D 178
fame in that he D 178
facing the sun the D 178
farm of his in D 177
fame he was the D 177
farm to buy it D 176
facing us all in D 176
farm by one of D 175
farm to set up D 173
fame in that it D 173
farm as for the D 172
fans of one of D 172
fall of dew on D 172
fain to ask as D 172
fame to one of D 170
fame in god as D 170
fame is dear to D 168
faith or zeal in D 168
faith or art or D 168
facing the sun it D 168
facing the one on D 168
farm to see me D 167
farm to bring in D 167
farm or not to D 167
faith to woo the D 166
fame as that in D 165
farm is let to D 164
fall on her ear D 164
facing the seat of D 164
face to his ear D 164
fame is out of D 162
face the seal of D 162
farm me out to D 160
fame of this king D 160
fame is apt to D 160
fall of eve the D 160
faith in thee in D 160
fail to sap the D 160
farm we had to D 159
fain to lay the D 159
facing the bay in D 158
facing is one of D 158
face is but thy D 158
farm on each of D 156
fame is going to D 156
fail to bung the D 156
facing the one in D 156
farm to use the D 154
fans is one of D 154
fail to seal the D 154
facing the bay is D 154
farm to add to D 152
fame in all of D 152
farm at all to D 151
fame so that he D 151
fain to beg at D 150
farm to see my D 148
farm in all of D 148
fangs to tear thy D 148
fame or any of D 148
fame is now the D 148
fail to tie up D 148
facing the eye of D 148
farm is run as D 147
fame in men is D 146
fain be out of D 146
farm to buy the D 144
fact the peak of D 144
facing up for the D 144
facing me with an D 144
facing it with an D 144
facing is that we D 144
facing is not the D 144
face of her ex D 144
face as she re D 142
farm or going to D 140
facing the job of D 140
facing the ire of D 140
fast the mud is D 138
fans in all of D 138
fame to bear the D 138
fame to any in D 138
fame as not to D 138
fall of dew in D 138
facing of one of D 138
face as fat as D 138
fats is that the D 136
farm is apt to D 136
fame to lay at D 136
fame as may be D 136
fair to tax it D 136
fail to hit at D 136
facing on top of D 136
farm to earn the D 134
fangs of all the D 134
fame is for the D 134
fall on thee at D 134
fain to eke it D 134
fact he met the D 134
facing the day of D 134
facing me was to D 134
facing me and my D 134
farm the way he D 132
fans to try to D 132
fall of dew is D 132
fain to let go D 132
fain to bring on D 132
fail to tax the D 132
farm is one in D 130
fame on earth is D 130
fame he won as D 130
fact the tax is D 130
facing the arc of D 130
facing as far as D 130
fans to buy the D 128
fain to bear it D 128
fain to ask an D 128
facing us may be D 128
facing the man on D 128
face the sting of D 128
fain to set up D 127
facing it out as D 127
fans in both the D 126
fame he had in D 126
fact is that tho D 126
farm to get it D 125
farm to him at D 124
fall of eve in D 124
fain to seal on D 124
fail to swing the D 124
facing me had the D 124
farm as they do D 123
fall of dew or D 122
facing the one by D 122
facing me for the D 122
face is thin as D 122
farm is let on D 120
farm as that of D 120
fame of this so D 120
fain to sit up D 120
facing the path of D 120
fain to put in D 119
fate of oil on D 118
fans do not go D 118
fame of that of D 118
fact an art by D 118
facing us and it D 118
facing an age of D 118
fame of each of D 116
fame by one of D 116
fame by doing the D 116
fain go out to D 116
fail to wring the D 116
fail to sue in D 116
facing the bed of D 116
farm to use as D 115
face to wear the D 115
fats as long as D 114
farm it for the D 114
farm in that it D 114
fans in each of D 114
fact an art of D 114
facing the bay on D 114
fame it may be D 113
farm to one or D 112
farm is set in D 112
fame of all of D 112
fame is now so D 112
fame in any of D 112
fame by doing so D 112
fame by any thing D 112
fame by all the D 112
fain to hear the D 112
fail in her sea D 112
fact the hub of D 112
fats is that of D 110
farm to see to D 110
farm it can be D 110
farm at one of D 110
fans of all the D 110
fame of him as D 110
fact the car is D 110
facing the rear in D 110
farm the way we D 109
farm in any of D 109
fain to let us D 109
fain to bring up D 109
face go hot as D 109
fair to pin the D 108
facing an area of D 108
face of his ex D 108
fain to see ye D 107
farm or one of D 106
fangs as big as D 106
fame in being the D 106
fain of all thy D 106
fail to heal thy D 106
facing us both in D 106
face or dial of D 106
fate to wear the D 104
farm to lead the D 104
farm to act as D 104
fame as both an D 104
fact the nub of D 104
facing my fear of D 104
fame in this as D 103
fats is not the D 102
fate he met at D 102
farm to all the D 102
farm it all the D 102
faith is met by D 102
faith is fed by D 102
faro in one of D 100
farm to bring the D 100
farm is fed to D 100
fall on thee to D 100
face or rim of D 100
fats is not so D 98
fats in that the D 98
fast the gas is D 98
farm he was in D 98
fans of mat or D 98
fans it was the D 98
fame to him as D 98
fall the lid of D 98
fain do all so D 98
fain do all at D 98
fail to tear the D 98
facing to fit the D 98
facing on both the D 98
facing it was to D 98
facing it and to D 98
fawn on him by D 96
faun is one of D 96
farm to any of D 96
fans to get the D 96
fans it with the D 96
fame to being the D 96
fame is all the D 96
fame in that of D 96
fall the tear of D 96
facing the gap in D 96
facing on one of D 96
facing of death is D 96
facing me all the D 96
face of all thy D 96
fain to put my D 95
fays it was in D 94
farm to her by D 94
farm or near it D 94
farm it out on D 94
fame of all to D 94
fall on ice in D 94
faith in art to D 94
fact the bed of D 94
facing us was an D 94
facing the bay at D 94
facing as long as D 94
farm to see us D 92
farm to ask if D 92
farm it for at D 92
farm is now so D 92
farm is not on D 92
fans in one of D 92
fame is now in D 92
fame he has in D 92
fact no art at D 92
face to thee my D 92
fame he had to D 91
fall of dew at D 91
fain to use it D 91
fate of art is D 90
farm is put up D 90
fans do not do D 90
fame or that of D 90
faith in art is D 90
fain to lay it D 90
fain do with the D 90
fact the art is D 90
fact of art is D 90
facing up and to D 90
facing the men on D 90
facing the bar of D 90
farm is not at D 88
farm he had at D 88
fans to dry the D 88
fame is sung in D 88
fame as did the D 88
fain to fly the D 88
facing the sky as D 88
facing the mob in D 88
fast to hit the D 87
fate of fat in D 86
farm or that he D 86
farm is run in D 86
farm in that the D 86
fans of one or D 86
fans is that of D 86
fans as long as D 86
fame is not at D 86
fame is all my D 86
fact is met by D 86
facing the poet in D 86
facing the man at D 86
facing the bow or D 86
facing it can be D 86
facing is not so D 86
facing at all in D 86
face of ore is D 86
face is hot as D 86
face as wan as D 86
farm as any in D 85
fain to rid thy D 85
fats is not to D 84
fast in his ear D 84
farm to hear the D 84
farm to ask the D 84
farm it and to D 84
fans is due to D 84
fail to wear it D 84
fact the sex of D 84
facing us are to D 84
facing the map of D 84
facing the bed in D 84
facing me and he D 84
facing is that it D 84
fast in her ear D 83
fats as far as D 82
fate of his ms D 82
farm to see it D 82
farm it with the D 82
farm is cut up D 82
farm he had the D 82
fangs in one of D 82
fame is but an D 82
fame he has no D 82
facing the peak of D 82
facing the new king D 82
facing the man as D 82
facing the bay to D 82
facing me now is D 82
farm in two or D 81
farm he had no D 81
fame he was so D 81
fats is not by D 80
fans is that it D 80
fame to any of D 80
fame of him is D 80
fame is won by D 80
fame is that we D 80
fame is sung by D 80
fame by that of D 80
fair be all thy D 80
fail to rob the D 80
facing the sky in D 80
face the mob in D 80
face of art is D 80
fain to hear it D 66
face the beam of D 60
fain to say the D 58
fame to bid the D 55
farm or how to D 54
face the red sea D 54
farm he was on D 50
fain to run the D 50
fain to read it D 50
fall to hit the D 47
fain to see it D 47
facing is put on D 47
fain to sit in D 46
fact is that sea D 46
farm by using the D 45
face the tan of D 45
fall of art in D 43
farm up near the D 42
farm it was to D 42
fall of eve is D 42
fain to ask if D 42
fail to rub in D 42
fain to set the D 41
fawn on all the D 40
farm to put up D 40
farm or set up D 40
farm at all on D 40
fain to read the D 40
fail to tie in D 40
