family and was a M 6844
family was not a M 6280
family who had a M 5626
family that has a M 5426
family and had a M 5294
factor that has a M 4949
family has had a M 4794
favour him with a M 4736
family that had a M 4220
family man with a M 4146
family man and a M 3864
family had had a M 3664
famous for being a M 3350
family and has a M 2888
fairly easy for a M 2852
family out for a M 2764
favour them with a M 2562
family who was a M 2536
family who has a M 2516
family and that i M 2142
failed him for a M 2022
family and with a M 2006
family and not a M 1966
family and for a M 1702
fallen ill with a M 1572
fairly say that i M 1554
factor was that a M 1406
factor that had a M 1376
favoring him with a M 1286
factor was that i M 1102
factor was not a M 1084
factor and not a M 1065
family and being a M 1034
family that was a M 978
favour her with a M 976
family and that a M 924
fathers who had a M 910
failed and that a M 894
fallen out with a M 890
factor has had a M 888
failed her for a M 862
fairly own that i M 806
family who ran a M 788
favour you with a M 776
factor but not a M 776
family had for a M 710
favoring her with a M 690
family was now a M 686
family now has a M 666
family she was a M 636
fairly say that a M 620
fairly and with a M 592
family now had a M 590
family and how i M 568
family than for a M 548
factor and has a M 546
family that ran a M 526
fallen had not a M 512
family and now i M 506
family but with a M 494
factor and that a M 493
family going for a M 486
family was both a M 480
family and get a M 462
famous man and a M 458
family and then i M 456
family can get a M 454
family was for a M 452
famous poet and a M 446
family and then a M 444
family but not a M 424
family was but a M 412
fathers did for a M 406
family she had a M 398
family man and i M 388
family goes for a M 380
family that for a M 378
family was that i M 370
factor that was a M 370
family for being a M 368
family are not a M 368
family law and a M 366
family and are a M 366
family had not a M 358
family this was a M 356
family now and i M 350
failed and that i M 346
family had run a M 342
family but was a M 338
family head was a M 336
family has got a M 334
family and buy a M 330
family may own a M 322
family but for a M 320
family but had a M 318
family and all i M 318
family and thus a M 314
family with both a M 310
fallen off and i M 308
fairly low for a M 304
family has for a M 300
family and now a M 300
family was thus a M 294
family and lead a M 292
factor and with a M 290
favour and not a M 287
failed and for a M 287
family and got a M 284
fairly easy with a M 276
family and led a M 274
family they had a M 272
family and put a M 270
fathers had had a M 266
famous man with a M 254
family off for a M 252
fallen but for a M 252
factor and for a M 252
famous and had a M 248
family deal with a M 248
family head has a M 247
favors him with a M 242
family now that i M 236
favour was not a M 235
family dog for a M 234
family than with a M 230
fallen and that a M 230
family has not a M 228
fallen man was a M 228
family can buy a M 226
family may use a M 222
family but has a M 222
family and earn a M 220
favoring them with a M 218
famous men and a M 215
famous son was a M 212
family who own a M 212
family and run a M 212
famous for using a M 208
fallen off and a M 206
fairly ask for a M 204
fallen man with a M 203
family dog and a M 200
favour was that i M 198
fallen out for a M 196
fairly long with a M 190
failed you and i M 188
family had but a M 186
faults she was a M 184
famous plea for a M 184
family had led a M 184
fallen out that a M 182
family sat for a M 178
fallen man and a M 178
family may get a M 176
family has both a M 176
failed bid for a M 174
family who for a M 170
family had put a M 170
family all that i M 170
factor and thus a M 170
family then had a M 168
family can use a M 166
family may buy a M 164
family was eating a M 160
family and pay a M 160
fallen ill and i M 158
family you are a M 156
family who are a M 154
family they are a M 154
family head and a M 153
fathers are not a M 152
favour you and i M 150
famous song for a M 150
family say that i M 150
family was then a M 148
family can lead a M 148
family had both a M 146
family dog with a M 146
fallen out and i M 146
favors them with a M 145
family had got a M 144
fairly long for a M 144
failed him and a M 144
favour and for a M 142
family man was a M 142
factor for being a M 142
family meal was a M 140
factor and then a M 140
favour and with a M 139
family use and a M 139
faults she had a M 138
famous man was a M 138
fallen log with a M 138
factor but with a M 138
faults are not a M 136
failed was that i M 134
failed but for a M 134
factor and had a M 134
favour and that a M 133
favors you with a M 132
famous and was a M 132
family was that a M 132
family and did a M 132
family and ran a M 130
fallen off for a M 130
fallen log for a M 130
family head with a M 129
family men with a M 128
family head had a M 128
fathers was not a M 126
family has run a M 126
family had won a M 126
family all had a M 126
family can earn a M 124
factor who has a M 124
family you and i M 122
family seat was a M 122
family are but a M 122
family and yet i M 122
favour was that a M 121
family did for a M 120
family who led a M 118
family thus had a M 118
family had was a M 118
family and why i M 118
fallen out that i M 118
fallen man for a M 118
fairly and that i M 118
family who run a M 116
family can own a M 116
family and own a M 116
failed and now i M 116
family law was a M 115
family was doing a M 114
family man than a M 114
failed was not a M 114
family way and i M 112
family was all i M 112
family can bring a M 112
family and set a M 112
factor than with a M 112
family law with a M 111
famous man for a M 110
family pet and a M 110
family let out a M 110
family did own a M 110
family and how a M 110
fairly old for a M 110
famous and has a M 108
family two and a M 108
factor that goes a M 108
favour than that i M 106
family has but a M 106
family had each a M 106
fallen ill and a M 106
fairly easy and a M 104
failed them for a M 104
favour than any i M 102
favour now for a M 102
fathers who got a M 102
fathers and that i M 102
family she has a M 102
fallen was not a M 102
faults that are a M 100
famous for doing a M 100
family law act a M 100
family has won a M 100
family and see a M 100
family and kin i M 100
fairly and for a M 100
family with but a M 98
family with being a M 98
family put out a M 96
family meal with a M 96
family had set a M 96
factor that for a M 96
family thus has a M 94
family for all i M 94
family being out a M 94
family and won a M 94
family that are a M 92
family may pay a M 90
fallen log and a M 90
factor than for a M 90
factor has not a M 90
family than does a M 88
family may mean a M 88
family does for a M 88
fallen was but a M 88
fallen ill for a M 88
famous and for a M 86
family may lead a M 86
family for near a M 86
fallen and that i M 86
famous one with a M 84
family who got a M 84
family that not a M 84
fallen out and a M 84
fairly long and i M 84
failed him and i M 84
factor and use a M 84
famous was not a M 82
family and doing a M 82
fairly easy and i M 82
factor has both a M 82
failed and not a M 81
favors her with a M 80
fathers and with a M 80
famous man and i M 80
family meal and a M 80
fallen dead with a M 80
fairly new and i M 80
fairly low with a M 80
fairly long and a M 80
factor for year t M 66
favour with not a M 63
favour and that i M 48
family are all a M 45
favour one with a M 44
fallen and with a M 44
favour and was a M 42
favour and get a M 40
farmer who had a D 4904
farmer who has a D 4554
fashion and with a D 2492
faster than with a D 2110
faster than using a D 1996
faster and with a D 1894
farther end was a D 1822
farmer who was a D 1744
fabric that has a D 1228
farther than that i D 1147
farther than this i D 1132
farther off than i D 1084
farmer was not a D 1064
farmed out for a D 1058
faster than for a D 1012
fasten them with a D 990
faster and has a D 943
family car for a D 912
fanned him with a D 910
fanned her with a D 908
farmer and not a D 812
famine was not a D 809
fashion and for a D 740
farmer can get a D 726
faster and had a D 719
farther off was a D 716
faster and for a D 692
fashion but with a D 610
farther off than a D 572
farmer and had a D 558
faster than does a D 541
family car was a D 536
farther and saw a D 502
farther out than i D 500
facile pen and a D 495
farmed and ran a D 452
family met with a D 452
farmer and then a D 414
fashion and had a D 412
fashion and has a D 406
family car with a D 402
farmer and was a D 396
farmer has had a D 386
fashion was for a D 368
family car and a D 364
fashion for him a D 360
fashion was not a D 354
fathoms long with a D 321
farther and met a D 320
fatten them for a D 284
family pew was a D 280
farmer now has a D 268
faster than can a D 267
fashion and not a D 262
faction was not a D 254
fasted one day a D 238
fabric and with a D 236
fashion and that a D 234
farther than that a D 233
farther east than i D 230
farmer and has a D 230
fanned them with a D 230
fabric and has a D 230
farmer can buy a D 228
farmer had had a D 226
family cow for a D 220
fabric and use a D 220
farmer may use a D 218
faction was for a D 214
faster than any i D 213
farmer and for a D 206
farmed and was a D 206
fabric and cut a D 206
farmed and had a D 204
farmer who saw a D 198
fasten him with a D 190
farmer who ran a D 190
farmer has not a D 188
faction was that a D 188
faster than one a D 187
farther out than a D 184
farmer may get a D 184
fashion that was a D 182
faster now that i D 180
farmer can use a D 176
farmer may own a D 174
facile way for a D 166
farther east was a D 158
family eke out a D 158
faster and get a D 156
faster and then i D 154
farther east and a D 150
farmer was then a D 150
farther and for a D 148
faster than doing a D 146
farther out was a D 144
fasten off with a D 142
fanned out for a D 142
fagged out that i D 142
fashion and was a D 136
fabric that had a D 136
fashion that has a D 134
fashion than does a D 134
fashion and that i D 134
farther end with a D 134
fairer than any i D 134
fashion for them a D 132
fabric and not a D 130
fashion than with a D 128
fashion and then a D 124
farther than with a D 122
farther off yet a D 122
family pew with a D 122
fashion that for a D 120
fatter than any i D 118
farmer can pay a D 118
farmer can earn a D 116
farmer was now a D 112
family tie with a D 112
faction and not a D 112
fabric that was a D 112
farther off lay a D 110
farther and with a D 110
fabric was not a D 110
farmer and now a D 108
faction and was a D 108
farther they saw a D 106
farther than being a D 106
fabric and had a D 106
fashion and use a D 104
fabric and then a D 104
facade was not a D 102
fabric and using a D 102
fabric and add a D 102
fashion she was a D 100
family eking out a D 100
facade and has a D 100
faucet run for a D 99
faster but with a D 99
fashion that had a D 98
farther and say i D 98
farmer eking out a D 98
fainting was not a D 96
farther than for a D 94
farther and get a D 94
farmer thus has a D 92
family car has a D 92
faulty and that a D 90
faster now than i D 90
farther out for a D 90
farmer was using a D 90
fashion that not a D 88
farther now than i D 88
fagged out with a D 88
farther out that i D 87
farmer now had a D 86
farmer has got a D 86
fanned out with a D 86
faster but for a D 84
farther off ran a D 84
farther east than a D 84
farmed out with a D 84
faction that had a D 84
facade and with a D 84
farther east for a D 82
farmer who led a D 82
facade that has a D 82
fashion they had a D 80
farther and that a D 80
farmer has for a D 80
farmer and with a D 80
farther out and a D 54
farmer boy with a D 47
