plan can not be M 34157
plan was for the M 25973
plan was that the M 22551
plead with him to M 19176
plan may not be M 15905
play can not be M 15217
plan that can be M 13818
plead with you to M 11258
plan for each of M 10920
plan was not to M 10378
plan was that it M 10248
plan for how to M 8484
play with all the M 7866
plan and that the M 7382
plead with her to M 7292
play with them in M 6763
plead with them to M 6733
plan for you to M 6474
plan for all of M 6026
plan for him to M 5710
plan now was to M 5652
plan was that of M 5394
play was one of M 5342
plan was one of M 5224
plan that may be M 5156
plan and for the M 5124
plan was going to M 5076
plan for all the M 4982
plan that was to M 4883
plan was that he M 4784
play with him as M 4656
plan for using the M 4623
play with one of M 4606
plan was for me M 4547
play with them as M 4307
play with him in M 4238
plan was put in M 4199
plan and with the M 4184
plan was not the M 4014
plan for them to M 3994
plus one for the M 3959
play was put on M 3952
plan was set up M 3945
play may not be M 3853
play that can be M 3848
play was going on M 3664
plan than that of M 3610
plan with that of M 3522
play and that the M 3514
play with any of M 3484
plan for use of M 3346
plus one year of M 3327
play was going to M 3308
plan for her to M 3304
play with him at M 3240
play that was to M 3236
plan for how the M 3158
plan for one of M 3082
plan for doing so M 3080
plan did not go M 3022
plan was that we M 2953
plan was due to M 2940
plan and that it M 2899
plead with god to M 2870
plan can then be M 2870
plan with all the M 2834
play was set in M 2832
plan year and the M 2804
play with them at M 2780
play and how to M 2736
plan was not in M 2734
play area for the M 2708
play with him or M 2678
plan and that of M 2666
plan and how it M 2635
play and for the M 2596
plan and put it M 2504
play was that of M 2482
plan and set up M 2454
plan and how to M 2416
plan was set in M 2394
plan was now to M 2382
plan and that he M 2366
play with them or M 2304
plus that due to M 2291
plan for aid to M 2193
play was not the M 2097
plan and all the M 2080
plan was not so M 2061
plan was for us M 2058
play with them on M 2044
plan was not an M 2036
play with and to M 1982
play and that it M 1982
play with her in M 1946
plan for his or M 1926
play and that of M 1918
plan and then to M 1908
plan was for an M 1894
play with all of M 1874
play with her as M 1822
plan that was in M 1821
play was due to M 1809
play and all the M 1805
plan set out in M 1754
plan that led to M 1750
play for one of M 1726
plan for both the M 1726
plan that has the M 1712
play and that he M 1710
plan and try to M 1692
play for all the M 1674
plan for use in M 1661
play for him to M 1582
play and not the M 1571
plan was that if M 1568
plan was put to M 1542
play and one of M 1512
plan was not as M 1508
plead with him in M 1488
play and with the M 1456
play with him on M 1446
plan now for the M 1446
plead with you in M 1414
play that may be M 1400
plan for you is M 1383
play was not to M 1372
plan for them in M 1370
play and not to M 1368
plan was then to M 1368
play with and the M 1359
plan and may be M 1349
play tag with the M 1334
play with one or M 1328
plan are that it M 1324
plan for one or M 1316
play and can be M 1308
plan and not to M 1304
plan was set on M 1298
plan then was to M 1295
plead for him to M 1276
plan has yet to M 1264
plead for him in M 1256
plan for going to M 1255
play and try to M 1246
play with you in M 1245
plan and not the M 1225
play than that of M 1224
plan and act in M 1216
plan for and to M 1204
play them for the M 1200
plan for doing it M 1196
plan and can be M 1184
play with her at M 1163
play was that it M 1161
play any one of M 1161
plead with all the M 1136
plan has led to M 1122
play and how it M 1116
play for them to M 1106
plan was out of M 1098
plan and then the M 1097
play with them to M 1082
play for him in M 1082
play with you as M 1079
plan for how we M 1079
plan can lead to M 1078
plan for any of M 1048
plan does not go M 1034
plan are that the M 1028
plan that was the M 1008
plan and use the M 988
play with that of M 986
play and that is M 982
play all day in M 981
plan was that in M 981
plan and lead the M 980
plan may lead to M 976
plan can now be M 974
play with them if M 970
play and this is M 968
plan was not at M 968
plan for this to M 966
plan and run the M 964
play and then to M 962
plan but for the M 954
play was not so M 952
plan and act on M 942
play was that the M 940
plan that has an M 940
plan and that is M 939
plan may then be M 938
plan was put on M 931
play has all the M 924
play with her or M 917
play with you at M 913
plan that had the M 910
plan for doing the M 908
plan and how the M 891
play god with the M 887
play for you to M 874
plan and use it M 872
plead that this is M 866
play for him on M 858
play them with the M 854
plead not for the M 846
play area and the M 840
play was not in M 836
play with you if M 834
play did not go M 833
play are not the M 818
play was not as M 815
play for them in M 796
play can lead to M 791
play and had to M 790
play was not an M 789
plan for how it M 789
plus you get to M 776
play than any of M 776
play and then the M 776
play with them the M 773
plead for them in M 766
play and may be M 766
plan was that no M 762
plan and this is M 754
play that goes on M 749
plan was that as M 746
play with them by M 742
play for him at M 742
plan and one of M 737
plan and all of M 737
plan and set of M 734
play that has no M 732
play with and he M 728
plan she had in M 721
play that was the M 720
plan set out to M 713
play and how the M 708
play one set of M 706
play with him if M 705
plan that had to M 700
play out all the M 699
plan for both of M 696
play with him the M 686
plan and had the M 684
plan was now in M 676
plan that has no M 676
play does not go M 675
plan for using it M 673
play with each of M 672
play with her on M 668
plan with one of M 667
plead with god in M 664
play with you or M 661
play them out in M 658
plan and use of M 658
plan year may be M 654
plus any one of M 651
plan being that the M 650
plan for fear of M 645
plan and put the M 638
plan that was so M 634
plan that all the M 634
play for two or M 630
plan and that we M 630
plan has had to M 628
play with his or M 626
plead for her in M 624
play death and the M 622
plead with him as M 615
plead with them in M 608
play with him to M 608
play that she is M 608
plead with you on M 598
plan has all the M 596
play can not go M 595
plus two for the M 594
plead for her to M 594
plan and get the M 594
play out with the M 592
plead with him on M 590
play for him the M 589
plan was set at M 588
plan for how he M 585
play and read it M 583
play for her to M 582
plan and who is M 577
plan and one or M 577
plan may now be M 576
plan for war in M 576
play them all at M 574
plan for two or M 574
play and use of M 572
play for each of M 570
play and not be M 570
plead with god on M 568
plan was that on M 566
play for you the M 565
plan and see if M 563
play with all my M 560
plan was that at M 560
plead for him at M 558
plan and had to M 553
play this one by M 550
plan than any of M 547
play that won the M 545
plan set out by M 545
plan for them as M 544
play with him by M 543
plead for them to M 540
play out for the M 537
play than did the M 534
play that was so M 533
play was out of M 529
play off one of M 528
play for fear of M 528
plan for this in M 526
play was read to M 518
play but not in M 516
play area can be M 516
play and all of M 516
play has led to M 513
plan does not in M 512
plan and let the M 510
play with two or M 506
play was for the M 506
play for them on M 506
play with them so M 505
plan and get it M 505
plus one year in M 503
plan and not in M 503
play and put it M 501
plan had led to M 500
plan but with the M 500
plan they had in M 499
plan that has to M 498
plan and set the M 497
play that was in M 495
play not with the M 492
plan does not do M 488
play them for me M 486
play and not as M 485
play you one of M 484
plan and act as M 484
play for all of M 482
plus any two of M 481
plead for all the M 478
plan and not by M 476
plan and has no M 475
play that led to M 474
play with for the M 473
plus one set of M 472
play was got up M 468
plan set out the M 464
plan that has as M 462
play and win the M 461
plan with one or M 461
plead with her in M 458
plan for use by M 458
plan but that of M 458
plan and had no M 457
play for you on M 455
play for both the M 454
play but one thing M 450
play was that he M 449
plan for you in M 447
plead for you to M 446
play with them is M 446
plan and has the M 446
plan was for my M 444
play and had no M 442
play for them at M 441
plan for this is M 439
play and that we M 436
plan was that my M 436
play with both the M 434
play they are to M 434
plan now that the M 433
plead with men to M 432
play can thus be M 432
plan with all of M 428
plan they had to M 425
plan and not as M 424
plan but not the M 423
play but for the M 422
play and let the M 422
plan has got to M 422
plan had all the M 422
plan that was at M 421
play she was in M 420
play and then we M 420
plan and act to M 420
plan but not to M 419
plead with you as M 418
play may lead to M 417
play are not so M 417
plan for one to M 413
play and see the M 410
plan for them is M 410
plan got off to M 408
play was not at M 406
play that one of M 406
plan year for the M 406
plan and idea of M 406
play and out of M 405
play but that of M 404
play and how he M 404
play has yet to M 401
plan led him to M 400
play for them is M 399
play for her in M 397
play this for me M 395
play with you on M 394
play with both of M 394
plan for things to M 394
plan both for the M 394
play and not in M 392
plan with all my M 390
play for them the M 388
plan may use the M 388
plan out how to M 386
plan and put in M 383
play them all the M 382
play that you do M 382
plan for man is M 382
plan and aim of M 382
play for you in M 380
play was set up M 378
play and how we M 378
plan for you as M 378
play with him so M 377
play being put on M 377
play but that it M 373
play with him no M 372
plan was that an M 372
plan had yet to M 372
play has not the M 370
play you for the M 368
plan aid and the M 368
play and that in M 366
plead for him as M 365
plan was that by M 364
plan are yet to M 364
play that all the M 362
plan being for the M 362
play for both of M 360
plan and not on M 359
play with and be M 358
plan was for it M 356
plan had had to M 356
play with this in M 354
play and hear the M 354
play than they do M 353
plan and was the M 352
plus one that is M 351
play and win at M 351
plan but that the M 351
play with and it M 350
plan has had the M 350
plead and act in M 349
plus was that the M 348
play and get the M 348
plan did not at M 348
plan than for the M 347
play than with the M 346
plan for man to M 345
plead that they do M 344
plan are not the M 344
plan for all or M 342
plan and then we M 342
plan and put on M 341
play with him he M 340
play and use the M 340
plan and thus the M 340
plan are not to M 338
play for her on M 337
plan than with the M 337
plan now that we M 337
play that has the M 332
plan was all the M 332
play you are the M 330
play off for the M 329
play was put in M 328
play them for us M 328
plan was easy to M 328
plan and not be M 328
plan year that is M 326
plan with him to M 326
plan one day to M 326
plan and map of M 326
plan and set it M 325
plus you get the M 324
play with two of M 324
play but not to M 324
play that had the M 322
play him for the M 322
play all day on M 321
plan that was as M 321
play out his or M 320
play one day in M 320
play and they do M 320
play and see if M 320
play led him to M 319
play for any of M 318
plan that may or M 318
plus that for the M 316
play with you to M 316
plan and die by M 316
play than for the M 315
plan that had no M 315
play for you if M 314
play does not in M 312
plan with them to M 311
play with her the M 310
play and you do M 310
plan that for the M 310
plan may pay to M 310
plan for that of M 310
plan can thus be M 310
play they put on M 309
play and then he M 308
plan has set the M 308
plan for him is M 308
plan for all to M 307
plan being that of M 306
play with you the M 305
play this one as M 304
plan but not in M 304
plan for him or M 303
play that they do M 302
play area with the M 302
plan too far in M 301
play and let us M 299
play was set to M 298
play this out to M 296
play them out to M 296
play for one or M 296
plan was thus to M 296
plan was set to M 296
plan and using the M 296
plan and has an M 296
plus she had to M 295
plus one day of M 294
plan they may be M 294
plan that they be M 294
plan and see it M 294
plan and led to M 294
play and then it M 293
play with that thing M 291
play but not the M 291
plan and not an M 291
play with men as M 290
plead that all the M 288
play out and the M 288
plan was put up M 286
plan for this by M 285
plan for them or M 284
plan and thus to M 284
plan with each of M 282
play are not to M 281
play for her at M 280
plan and that in M 279
play now that the M 278
plan that you do M 278
plan are going to M 278
play with you no M 277
plead with her on M 276
play for all or M 276
play that has to M 275
play now has it M 274
play and thus to M 274
plan that won the M 274
plan and with no M 274
plan and then in M 274
play with and no M 273
play was all the M 272
play area that is M 272
play and who is M 272
plus she had the M 270
plus one each in M 270
play with and we M 270
play that this is M 270
play and had the M 270
play out one of M 269
plan and was in M 269
plead that they be M 268
play and was so M 268
plan out all the M 267
plan was put at M 266
plan did not do M 266
play with and in M 265
play was read by M 264
play did not do M 264
play all day if M 264
plan for him in M 264
play out all of M 263
plus they had to M 261
play can now be M 261
plan but that it M 260
plan and bring it M 260
plan and with an M 259
plan each year to M 258
plan are due to M 258
plan and are the M 257
plead for god to M 256
play with than the M 256
plus one and the M 255
plead with god as M 255
plan and was to M 255
play that one by M 254
plan with two or M 254
plan and each of M 254
play and not an M 253
play out for us M 252
play are not in M 251
plan and how he M 251
play and was the M 250
play and has no M 249
plan and that if M 249
play and had it M 248
plan and try it M 248
play all day at M 246
play can then be M 244
plan for that to M 244
plan and that no M 244
plus you had to M 243
play was not of M 243
plan that all of M 243
plead for them at M 242
play for you at M 242
play does not so M 242
play and thus the M 242
plan that had so M 242
plan and you do M 242
play and set the M 241
play with for an M 240
play was new to M 240
play had all the M 240
plan she had to M 240
play has got to M 238
plan for easing the M 238
plan and why it M 238
play that had to M 237
play had not the M 236
play dead for the M 234
plan and both the M 234
play and get it M 233
plan that far in M 233
plead for them as M 232
play they may be M 232
play one and the M 232
plan you may be M 232
plan but may be M 232
play she was to M 231
plus one each of M 230
play with that in M 230
play that had no M 230
plan was led by M 230
plan for and the M 230
plan can use the M 230
plan can not do M 230
plan and ask the M 230
plan year and is M 229
plead for one of M 228
play them all in M 228
play and then go M 228
plan was and is M 226
plan things for the M 225
plan did not in M 224
plan but that he M 224
play any but the M 222
play and with it M 222
plead and act on M 220
play are for the M 220
plan and pay the M 220
plead with them as M 219
play but with the M 219
play them out of M 218
play them one at M 218
play area may be M 218
plan and has to M 218
play now with the M 217
plan and then go M 217
plan are not in M 216
plan and with it M 216
play can not in M 215
plus all that is M 214
play for him as M 213
play are set in M 213
plus they had the M 212
play and see it M 212
play with her by M 211
play off all the M 211
play and how do M 211
plan and how we M 211
play with her to M 210
plan for you or M 210
plan are not so M 210
plan and now the M 210
plan aid for the M 210
play with him is M 209
play and won the M 209
play and then in M 209
plead with god the M 208
play than does the M 208
play not for the M 208
play far out of M 208
plan and see the M 208
play that was on M 207
play and put on M 207
plead for you in M 206
play than was the M 206
plan with this in M 206
play with her so M 205
play and not at M 205
plan and had it M 205
plan and are in M 205
play this song on M 204
plan was one in M 204
plan for you an M 204
play with her if M 203
play all that is M 203
plan out for the M 203
plead with him or M 202
play tag with me M 202
play for any thing M 202
play and has the M 202
plan and way of M 202
play was not up M 201
play for you as M 201
play are due to M 201
plan you set up M 201
play and let me M 200
plan year that the M 200
plan with him the M 200
play that had so M 199
plan you are to M 199
play with and is M 198
play may now be M 198
play for her the M 198
play and things to M 198
plan say that it M 198
plan and let me M 198
plan and bring to M 198
play with things in M 197
plan that one of M 197
plead thus for my M 196
play you for it M 196
play that way in M 196
plan may yet be M 196
plan and then be M 196
plus his use of M 195
play this out in M 195
play and bring it M 195
plan using one of M 195
plead with one of M 194
play that song on M 194
plan has not the M 194
plan and not at M 193
plan and get on M 193
plead with them on M 192
play with and on M 192
play one off the M 192
play and she is M 192
play with this thing M 191
plan year with the M 191
plan than did the M 191
plead one way or M 190
play with any thing M 190
play area near the M 190
play and ran to M 190
play and get to M 190
plan was yet to M 190
plan was due in M 190
play two for the M 189
plan and his or M 189
plead that you do M 188
play and was in M 188
play and not of M 188
play and has to M 188
play has had to M 187
plan they can be M 187
play and win in M 186
play and read the M 186
play and each of M 186
play too near the M 185
play had won the M 185
plan you had in M 185
plus one cup of M 184
plead that she is M 184
play them and the M 184
play does not do M 184
plan she was to M 184
plan and led the M 184
play has for the M 183
play off any of M 182
play but that he M 182
plan this year to M 182
plan that had as M 182
plan has two or M 182
play was not on M 181
play they had to M 181
plan with him or M 181
play him one of M 180
play and why it M 180
plan was not of M 180
plan than that he M 180
plan are for the M 179
play but they do M 178
plan things out in M 178
play with and so M 176
play for use in M 176
play and led to M 176
plan this year is M 176
plan they had of M 176
play with them he M 175
play deal with the M 175
play and saw the M 175
plan year can be M 175
plan for you if M 175
plan and they do M 175
play him off the M 174
play and lead to M 174
plan that put the M 174
plan being that he M 174
plan and out of M 174
play and act it M 173
play goes out of M 172
play and easy to M 172
plan was one thing M 172
plan and lead to M 172
play than can be M 171
play east for the M 170
plan with his or M 170
plan was how to M 170
plan set for the M 170
plan may thus be M 170
plan had not the M 170
plan for two of M 170
play can not do M 169
plan that they do M 169
plead with her as M 168
play each year in M 168
plan can not go M 168
plan and law of M 168
plan and bring the M 168
plan with him in M 167
plead with him the M 166
play god with my M 166
plan may use an M 166
plan had won the M 166
play off and on M 165
plan for this or M 165
play put him in M 164
plan for man in M 164
plan are apt to M 164
play and ask the M 163
plan god had in M 163
plan for her is M 163
plead with all of M 162
plead with all my M 162
plus they can be M 161
play man for the M 161
play each one of M 161
play are apt to M 161
play and use it M 161
plead that one of M 160
play with you is M 160
play that has so M 160
plan can mean the M 160
plan area and the M 160
play they are in M 159
play that set the M 159
plan them for the M 159
plan are not as M 159
plead with you at M 158
plead for him he M 158
play them with me M 158
play for all it M 158
play that put the M 157
play and that if M 157
plan that are in M 156
plan now that he M 156
plan has had no M 156
play for him or M 155
plan has not as M 155
play with but the M 154
play was set on M 154
play them off as M 154
plan for that as M 154
plan being that we M 154
plan and for an M 154
play was that in M 153
play area and an M 153
play and going to M 153
plan that has so M 153
play and set it M 152
plan was then in M 152
play was read in M 151
plan they had so M 151
plan that each of M 151
play you are in M 150
play them off on M 150
play for them if M 150
play for them as M 150
play and bring the M 150
plan for him as M 150
plan and then do M 150
plan and saw the M 150
play with you by M 149
play that are the M 149
plan with you to M 149
plan each day to M 149
plus his law of M 148
plead for him on M 148
play with you so M 148
play may then be M 148
play and then as M 148
plan with them the M 148
plan for use as M 148
play that lead to M 147
plan now had to M 147
plead with men in M 146
play with are the M 146
play this with the M 146
plan than they do M 146
play has had the M 145
play has had an M 145
play and not on M 145
play and let it M 145
plead with them by M 144
play with that he M 144
plan with them in M 144
plan may end up M 144
play but that the M 143
plan for one in M 143
plan and then by M 143
plead for aid to M 142
play with out of M 142
play with and do M 142
play was one in M 142
play are that it M 142
plan for use on M 142
plan and add to M 142
play with them no M 141
plead with them the M 140
play them and to M 140
play are not of M 140
plan than can be M 140
plan and using it M 140
play that are so M 139
play and run to M 139
plan for war on M 139
play that one is M 138
play may thus be M 138
play but one of M 138
plan them with the M 138
plan deal with the M 138
plan but this is M 138
play that has an M 137
plan for them by M 137
plus log them on M 136
plead with him at M 136
play with may be M 136
play was not by M 136
play this for the M 136
play that was at M 136
play one act of M 136
play are going to M 136
play are all the M 136
play and got the M 136
plan with that in M 136
plan with that at M 136
plan nor that of M 136
plan may pay the M 136
plan did was to M 136
play that was an M 135
play one has to M 135
plus end and the M 134
play and one or M 134
play and one in M 133
play and act in M 133
plan was not on M 133
plan than does the M 133
plus was that it M 132
plus one year as M 132
play them off the M 132
plan year are the M 132
plan that god is M 132
plan for each to M 132
plan for and be M 132
plan does not so M 132
plan does not at M 132
plan and got the M 132
plan and aid to M 132
plus all that he M 131
play that was as M 131
play now that it M 131
play two out of M 130
play them with us M 130
play that for me M 130
play for that of M 130
plead for and to M 128
play was but in M 128
play than are the M 128
play tag with us M 128
play and not by M 128
plan one way to M 128
plan nor man it M 128
plan did not so M 128
play for you is M 127
plan but had to M 127
plead with him he M 126
plead and cry as M 126
play with one thing M 126
play with and eat M 126
play thus with the M 126
play god and to M 126
play for you my M 126
play any but an M 126
plan that was on M 126
plan one way or M 126
plan and that an M 126
plan and let it M 126
plan his use of M 125
plead and beg to M 124
play war with the M 124
play they are the M 124
play she had to M 124
play him with the M 124
play any song in M 124
play all but the M 124
plan that both the M 124
plan each day in M 124
plan and then he M 124
plan and set in M 123
plus all that we M 122
play him out of M 122
play her for the M 122
play and lead the M 122
play and had an M 122
plan was new to M 122
plan then goes to M 122
plan than that in M 122
plan does not of M 122
plan and had an M 122
play with this or M 121
play with can be M 121
play one way or M 121
play and saw it M 121
plan for was the M 121
plan but can be M 121
play was then in M 120
play set out to M 120
plan say that the M 120
plan for them at M 120
plan can all be M 120
plus one day to M 119
play was with the M 119
play end with the M 119
plead for this as M 118
plead for any of M 118
play god with me M 118
play both for the M 118
plan for new or M 118
plan for ease of M 118
play area set up M 117
play and his or M 117
plan you are in M 117
plan for you at M 117
plan and run an M 117
play was due in M 116
play that for the M 116
play and was an M 116
plan our way to M 116
plan for two to M 116
plan and that at M 116
plan and put up M 116
plan and one in M 116
play and was to M 115
plan for use at M 115
plan for going in M 115
plan and that to M 115
plan and lead an M 115
plus ten for the M 114
plus one year at M 114
play than that it M 114
play had yet to M 114
play does not at M 114
plan was now on M 114
plan that was of M 114
plan for her in M 114
plan are now in M 114
play but this is M 113
play area with an M 113
play and then by M 113
plan with any of M 113
plan for men to M 113
plan and how is M 113
plan and end up M 113
play you had to M 112
play you are to M 112
play with her ring M 112
play with death in M 112
play that had an M 112
play off each of M 112
play fit for the M 112
play and yet it M 112
plan them out in M 112
plan that was an M 112
plan that had an M 112
plan but with an M 112
plan but had no M 112
plan and can at M 112
plus one day in M 110
plead with him by M 110
plead for them on M 110
play with was the M 110
play now and in M 110
play for ten or M 110
play but that is M 110
plan was one no M 110
plan than this is M 110
plan has had on M 110
plan can not in M 110
plan and lay the M 110
plan and get to M 110
plus two out of M 109
play was and is M 109
play that way at M 109
play day for the M 109
play can all be M 109
plead with you the M 108
play him for it M 108
play has had no M 108
play are that the M 108
plan year using the M 108
plan was dead in M 108
plan may not in M 108
plan had now to M 108
plan being that it M 108
plus was that he M 107
plus pay for the M 107
play than all the M 107
play now that he M 107
plan was with the M 107
plead with you by M 106
play was one thing M 106
play too long in M 106
play they act at M 106
play and that no M 106
plan then goes on M 106
plan that this is M 106
plan that saw the M 106
plan she had so M 106
plan for men of M 106
plan can act as M 106
plan and going to M 106
play them out on M 105
plan how long it M 105
play with and at M 104
play with and as M 104
play too long on M 104
play one out of M 104
play for them or M 104
play and beat the M 104
plan may set up M 104
plan god has in M 104
plan and add the M 104
plan and add it M 104
plus and run the M 103
plan and run it M 103
play with and go M 102
play who can be M 102
play was yet in M 102
plan you mean to M 102
plan lay with the M 102
plan has won the M 102
plan has had an M 102
plan each year is M 102
plan and won the M 102
plan and set to M 102
plus for both the M 101
play with and if M 101
play that has as M 101
play being one of M 101
plan with both the M 101
plan and then it M 101
plus any ten or M 100
plead now for the M 100
plead and try to M 100
play with but to M 100
play was put up M 100
play that was no M 100
play and yet is M 100
play and end the M 100
plan was and he M 100
plan that are of M 100
plan one day at M 100
plan and lay it M 100
plan and are of M 100
plan aid and to M 100
play them out as M 99
play not all at M 99
plan you can do M 99
plan they are to M 99
plus you and me M 98
plus one with the M 98
plead with her or M 98
plead this day in M 98
play with that is M 98
play with than to M 98
play too long or M 98
play that all of M 98
play out and in M 98
play has led us M 98
play god for us M 98
plan was going so M 98
plan for man on M 98
plan does not by M 98
plus one can be M 97
play and with no M 97
plan with her to M 97
plan for fear it M 97
plan and that as M 97
plus for all of M 96
play too long at M 96
play this one to M 96
play may end in M 96
play and why he M 96
play and set up M 96
play and run in M 96
plan was out the M 96
plan this was the M 96
plan that had at M 96
plan that are to M 96
plan than with an M 96
plan and thus is M 96
plan aid was the M 96
plan that both of M 95
plan for war is M 95
plus two can be M 94
plead for you at M 94
play has had on M 94
play had run to M 94
play had had an M 94
play for each in M 94
play and win on M 94
play and put the M 94
plan with you in M 94
plan was set by M 94
plan was read to M 94
plan than was the M 94
plan she had of M 94
plan out how the M 94
plan had set the M 94
plan can set up M 94
plan but not on M 94
plan and are to M 94
play with men in M 93
play with her is M 93
play that may or M 93
plan and win the M 93
plead with you if M 92
plead with both the M 92
play you all the M 92
play thus with my M 92
play him all the M 92
play and has an M 92
plan was both to M 92
plan than going to M 92
plan has for the M 92
plan are all in M 92
plan and all we M 92
play that with me M 91
play nor does it M 91
play area and is M 91
play and end up M 91
plan and how do M 91
plead this act in M 90
plead that she be M 90
play with one at M 90
play has got an M 90
play are but the M 90
plan year and on M 90
plan was but the M 90
plan that led the M 90
plan put out by M 90
plan each year on M 90
plan and one to M 90
play with her no M 89
play was now to M 89
play this way in M 89
play one song on M 89
plan that any of M 89
plan nor does it M 89
plan and read it M 89
plead for them the M 88
plead for her on M 88
play out and to M 88
play had led to M 88
play death death is M 88
plan was owing to M 88
plan using all the M 88
plan lay not in M 88
play has one or M 87
play and are the M 87
play was for me M 86
play thus had he M 86
play this with me M 86
play that song in M 86
play not with my M 86
plan then had to M 86
plan that was no M 86
plan that does the M 86
plan than any in M 86
plan its use of M 86
plan got off the M 86
plan goes out the M 86
play was set at M 85
play out both in M 85
play are put in M 85
play and goes to M 85
plan that she is M 85
plan for him it M 85
plead that for the M 84
plead for aid in M 84
play was yet to M 84
play them both at M 84
play them all by M 84
play may lie in M 84
play area was the M 84
play any man in M 84
plan was now so M 84
plan that you go M 84
plan that set the M 84
plan than that on M 84
plan for day by M 84
plan being one of M 84
plan and doing the M 84
plead with each of M 82
plead with all to M 82
plead not for my M 82
play with and my M 82
play was set by M 82
play was now in M 82
play this song in M 82
play them for my M 82
play has read the M 82
play for long the M 82
play and both the M 82
plan was off to M 82
plan was all in M 82
plan things and the M 82
plan they had the M 82
plan and put an M 82
play out for me M 81
play did not in M 81
play and act as M 81
plead for one or M 80
play being set in M 80
plan was dead on M 80
plan this was to M 80
plan they had no M 80
plan that got the M 80
plan had put the M 80
plan are easy to M 80
plan and now he M 80
plan and ask if M 80
play are not as M 75
play and are in M 71
play for her as M 68
plan for this as M 68
plan not for the M 65
plan and buy the M 64
play for all he M 63
play now for the M 62
play with this as M 61
play this year is M 58
plan for them so M 58
play and did so M 57
plan for them on M 57
plan for that in M 57
play for you or M 56
play both with the M 56
play you may be M 54
play things for the M 54
play then and sing M 53
plan but not as M 53
play for him is M 52
play and why the M 52
play and sat in M 52
play and one to M 52
play all that he M 52
plan for man as M 52
plan and set on M 52
play with death as M 51
play and get on M 51
plan for and do M 51
play with her he M 50
play are not at M 50
play and how is M 50
plan for going on M 50
plan area for the M 50
play and now he M 49
play one day at M 48
play and then be M 48
plan for him on M 47
plan and cut the M 47
play with things he M 46
play they had in M 46
play for them so M 46
play does for the M 46
play but all the M 46
play all day as M 46
plan and easy to M 46
play but not as M 45
play and read to M 45
play and now the M 45
play and does so M 45
plan for her as M 45
plan and read the M 45
plus all that the M 44
play are two of M 44
play and add to M 44
plan you can be M 44
plan with him as M 44
plan nor did he M 44
plan for him the M 44
play with god in M 43
play this out as M 43
play she was so M 43
play each day in M 43
play but not so M 43
play are one of M 43
play are all in M 43
play and you sing M 43
plan you use to M 43
plan was going on M 43
plan for them if M 43
plan for her or M 43
plus for each of M 42
play they can be M 42
play may use the M 42
play get out of M 42
play for him so M 42
plan you and the M 42
plan this for the M 42
plan for now is M 42
plan each day so M 42
plan and yet be M 42
plan and see to M 42
plan and not of M 42
play who has no M 41
play she was the M 41
play she was an M 41
play out both the M 41
play off with the M 41
play may all be M 41
plan that are the M 41
play but had to M 40
play are you in M 40
play and using the M 40
plan with you at M 40
plan his death in M 40
plan for you so M 40
plan but that is M 40
plan and thus be M 40
plot can not be D 3428
plug one end of D 2444
pleas for him to D 2353
plan met with the D 2336
plot that can be D 1353
play coy with me D 1310
plug can not be D 1286
plot for each of D 1277
plot and that the D 1230
pleas for her to D 1219
plot may not be D 1022
plot for one of D 1008
plot that led to D 948
plug that can be D 940
play hob with the D 864
plot that was to D 772
plug and let the D 760
plow and sow the D 744
plot was set on D 724
plot and all the D 722
plot and for the D 712
pleas for them to D 704
plot can then be D 684
plying him with the D 670
plot was one of D 642
plot with that of D 578
plan met with no D 576
plot and that of D 572
plot and that he D 546
plot with all the D 543
plot than that of D 531
plot and with the D 526
plan that met the D 514
plead that thou in D 500
plot was not the D 498
plot for all the D 482
plow can not be D 472
plot that may be D 460
pleas can not be D 417
plow all day to D 415
pleas for aid to D 412
plot and that it D 396
plot was that of D 380
plot was that the D 376
plot was set in D 365
plot was going to D 362
plug and let it D 360
plan has met the D 344
plot was due to D 342
plying off and on D 341
plot and can be D 340
plying them with the D 332
plug can then be D 326
plug this gap in D 322
plot was real or D 316
plot was going on D 314
plot can now be D 308
plot was got up D 306
plot has all the D 300
plot area and the D 300
plot was for the D 276
plot and not the D 276
plot and how it D 274
plead with thee to D 274
plot was set up D 272
plying her with the D 270
pleas that may be D 264
pleas that can be D 262
plot was not to D 256
play and sex of D 256
plan met with an D 252
plum run and the D 246
plug that may be D 240
pleas that they be D 239
plot and how to D 238
plot may then be D 234
plug and put it D 230
plot but not the D 230
plot and not to D 230
plot that was in D 226
plot and one of D 226
pleas for aid in D 226
play that ace of D 224
plug may not be D 220
plot and had to D 220
pleas that she be D 219
plan was met by D 218
plug for one of D 216
plot each set of D 216
plot and then to D 214
play and art is D 212
plot was not of D 208
play not with thy D 208
plot out all the D 207
plug may then be D 206
plot and try to D 206
plot and may be D 204
play with thee by D 204
plot for both the D 202
plot than any of D 201
plot than with the D 192
plot was not so D 188
plot was that it D 184
plot was put in D 182
plot was led by D 180
plot are due to D 180
plot and one or D 180
plot with him to D 177
plot that has to D 176
plot and then the D 176
plan met with so D 176
plot for one or D 174
plan may sue or D 174
plow that can be D 171
pleas are but of D 168
plow and sow in D 167
plus tax for the D 166
plot was not in D 166
play for fun or D 164
plot that had to D 160
plot was not as D 159
play met with the D 159
plot and use the D 158
plug and all the D 156
pleas for god to D 154
play and art in D 153
plot but with the D 150
plot was now in D 146
plot that has the D 146
plot but not in D 146
plot but for the D 146
plot got rid of D 144
plot had all the D 142
plot for all of D 142
pleas did not go D 142
plug tap can be D 140
plot them all on D 140
play has hit the D 140
plot and use it D 138
plug and can be D 137
plot and set of D 136
plot than for the D 132
plot and let the D 132
plot and had the D 132
plow and put in D 131
plow got set in D 130
plow and team of D 130
play and fun in D 130
play and art as D 130
plug for use in D 128
plug and not the D 128
plot are not the D 128
plot and all of D 128
plot with one of D 127
ploy that can be D 126
play his ace in D 126
plug and then the D 125
plot them out on D 124
plot for use in D 124
plot and use of D 124
plot that has no D 122
plot that was on D 120
plot for him to D 120
plot and how the D 120
plow and how to D 119
plow and with the D 116
plot with them to D 116
plot and not in D 116
plug this gap by D 115
plot was not an D 114
plot and thus the D 114
plot and see the D 114
plug and lay it D 113
plot than that the D 112
plot one set of D 112
plot area for the D 112
plow was one of D 110
plot are for the D 110
pleas may not be D 110
plug was put in D 109
plum that can be D 108
plot and see if D 107
plug was out of D 106
plug and see if D 106
ploy and that the D 106
plot was that he D 106
plot and thus to D 106
plot and bring the D 106
pleas was that the D 106
plying his pen in D 104
plot does not go D 104
plot but that he D 104
pleas are not to D 103
plot was easy to D 102
plot and has no D 102
plug any one of D 100
plot one day to D 100
plot and using the D 100
plum job with the D 98
plot does not in D 98
plot being that of D 98
play pen for the D 98
ploy was for the D 97
play and art of D 97
plug and put the D 96
plow and not in D 96
plan had met the D 96
plug and that the D 94
plot had led to D 94
plot for use as D 94
plot did not go D 94
plot can thus be D 94
plot and set the D 94
plot and not be D 94
plot for them to D 93
plying you with the D 92
plying them with tea D 92
ploy was going to D 92
ploy for him to D 92
plot that was the D 92
plot that had no D 92
plot but not to D 92
plot and long on D 92
play with his ear D 92
play bingo with the D 92
plying its way up D 90
plug out and the D 90
plug and then to D 90
plot them with the D 90
plot can lead to D 90
plow and all the D 89
plot for two or D 88
plot and that if D 88
pleas for you to D 88
plot and read the D 87
plug his ears to D 86
plug can now be D 86
plot that had the D 86
plot but long on D 86
plot and put the D 86
plot and not of D 86
plan for its re D 86
plug hat and the D 84
plot that was so D 84
plug was not in D 82
plot that one of D 82
plot and idea is D 82
plot and bring it D 82
plug our ears to D 80
plot may thus be D 80
plot and set up D 80
play and fun to D 59
play and art to D 52
plug and seal the D 49
plow for use in D 48
plot out how to D 48
plow all day or D 46
ploy that was to D 45
plow all day in D 44
play and fun of D 42
