plan a is the M 698
plan a is to M 427
play i am to M 387
play a by no M 329
plus a ring of M 141
plan a in the M 140
plan a of the M 134
plan d is the M 128
plan i am to M 109
play a thing of M 108
plus a in the M 106
plan a to the M 98
play d in the M 92
plan a is an M 78
plus s to the M 65
play i go to M 57
play i am the M 50
