pleased with him . M 37894
pleased with them . M 26316
pleased with you . M 17318
pleased with her . M 16062
played with them . M 13107
played with him . M 10772
plenty for all . M 7052
pleased with that . M 5722
played with her . M 5390
pleased with this . M 4890
placed with them . M 4460
played for him . M 4161
plants can use . M 3528
pleased for you . M 3326
played for them . M 3306
planning for them . M 2954
placed for him . M 2392
placed near them . M 2360
pleased with him ! M 1994
placed for her . M 1936
pleased for him . M 1856
plants are set . M 1746
pleased for her . M 1730
played that way . M 1716
plants each year . M 1704
pleased with you ? M 1681
played for her . M 1562
planning for war . M 1550
placed near him . M 1526
played all day . M 1514
placed for them . M 1444
played that day . M 1334
planning and doing . M 1316
planning for you . M 1292
pleased them all . M 1288
pleased she was . M 1284
played with you . M 1220
plants and man . M 1210
pleased them both . M 1203
planning for him . M 1110
placed with him . M 1088
pleases with him . M 1007
played this way . M 998
placed too low . M 992
played them all . M 968
pleased with him ? M 950
pleased him not . M 948
plants may die . M 934
pleased his eye . M 904
played and won . M 873
plants can not . M 840
played for you . M 834
plants with them . M 812
played out yet . M 766
pleased with you ! M 744
plenty for you . M 719
plants and meat . M 708
pleased with both . M 692
plants are not . M 686
pleased with them ! M 685
played out now . M 684
pleased with them ? M 676
plants are wet . M 660
placed near her . M 660
placed each year . M 660
plants and men . M 650
plants are dry . M 602
pleases with them . M 590
planning for her . M 572
played too long . M 570
pleased him too . M 558
pleased you are . M 556
pleased they are . M 538
plenty for him . M 520
pleased for them . M 518
plenty for them . M 508
placed with her . M 504
played this year . M 502
plants each day . M 502
played all year . M 486
played that year . M 480
plants are dead . M 480
pleased with things . M 474
plants for you . M 472
plants for man . M 448
plants that heal . M 446
plants and things . M 446
plenty for two . M 431
planning with them . M 424
plants are dying . M 418
plants for them . M 406
plants for him . M 400
played for real . M 390
plants set out . M 382
placed with you . M 382
pledge for him . M 378
planning and use . M 378
pleased with all . M 362
planning for this . M 362
planning his death . M 360
pleased with her ? M 359
plenty and ease . M 356
pleased with that ? M 333
plants did not . M 330
placed his men . M 330
played each year . M 323
placed for you . M 320
plants dry out . M 318
planning for death . M 318
pleased her too . M 310
played with him ? M 310
placed his bet . M 310
plenty with him . M 296
plenty for both . M 292
placed each day . M 286
plenty with you . M 282
plants they ate . M 282
pleased than she . M 276
planning his day . M 268
placed his own . M 260
plenty this year . M 257
pleased you did . M 256
plants near them . M 254
plants this year . M 252
pleased with this ? M 248
played that song . M 248
played long ago . M 246
played with them ? M 242
plenty for now . M 241
pleased her eye . M 240
plants with him . M 240
planning pay off ? M 236
planning her day . M 236
placed with kin . M 234
pleases with you . M 232
pleased with her ! M 230
played them out . M 228
plenty for her . M 226
plants are few . M 226
plants this way . M 216
plants for her . M 214
pleased than not . M 210
played each day . M 210
pleased with his . M 208
played with him ! M 208
played with you ? M 206
pleased for you ! M 204
played thus far . M 204
plants die off . M 198
plants and earth . M 198
played his way . M 192
played with ease . M 188
played for you ? M 188
played with that . M 182
plants are cut . M 182
placed our men . M 182
planning with him . M 181
pleased with god . M 178
plants you see . M 178
plants and all . M 176
placed for that . M 176
played with death . M 174
plants are doing . M 174
plenty for all ? M 172
pleases with her . M 170
placed each year ? M 170
planning for that . M 169
played with one . M 168
pledge with him . M 160
placed this way . M 160
pleased with one . M 158
plants die out . M 158
placed for this . M 158
played with men . M 154
plenty and joy . M 151
placed for use . M 150
plenty who did . M 148
planning our day . M 148
plenty for that . M 146
planning its use . M 146
placed and why ? M 146
pleases his eye . M 144
pleased with bad . M 144
played with his . M 144
plants they use . M 144
pleased she was ! M 143
pleases you both . M 142
played this one . M 142
placed you now ! M 142
planning was not . M 141
played with her ? M 140
planning for one . M 140
planning his own . M 138
played with both . M 136
planning things out . M 136
planning for them ? M 136
played with them ! M 134
plants are low . M 134
plenty with them . M 132
pleased all men . M 132
plants they are . M 132
played them both . M 130
placed his son . M 130
pledge for all . M 128
played them now . M 128
pleased that day . M 126
played and read . M 126
plants was low . M 126
plenty for all ! M 124
planning for you ? M 123
planning all this . M 123
pledge our all . M 122
played for him ? M 122
planning does not . M 120
placed that way . M 120
placed than they . M 118
planning with you . M 117
pleases him not . M 116
played that one . M 116
plants all day . M 116
planning her death . M 116
pledge for them . M 114
played for two . M 114
placed and why . M 114
played her song . M 112
played him out . M 110
placed him now . M 110
pledge you that . M 108
played any way ? M 108
plants they saw . M 108
planning and law . M 107
pleases them both . M 106
pleased with that ! M 106
plants for use . M 106
planning all this ? M 106
placed his head . M 106
played for pay . M 104
pleased her son . M 102
played near him . M 100
plants are put . M 100
played this song . M 98
played for them ? M 98
plants may rot . M 98
planning for her ? M 98
placed too low ? M 98
placed this year . M 98
placed and set . M 98
pleased you are ! M 97
played near her . M 96
played for long . M 96
plants you buy . M 96
placed that day . M 96
played out too . M 94
plants with her . M 94
plants are weak . M 94
plants and air . M 94
pleased both men . M 92
pleased and sad . M 92
played his own . M 92
planning each year . M 92
placed and lit . M 92
played his song . M 90
planning for him ? M 90
planning can not . M 90
placed for each . M 90
played with this . M 88
played all out . M 88
plants that die . M 88
pledge with them . M 86
planning was weak . M 86
planning and doing ? M 86
plight with him . M 84
placed them both . M 84
pleased them not . M 82
played one day . M 82
played old men . M 82
played off key . M 82
plants are due . M 82
placed with them ? M 82
pleased her now . M 80
plants you use . M 80
plants with you . M 80
planning for all . M 58
planning and why . M 51
planning each day . M 50
pleased for that . M 47
plenty with you ? M 41
pleased and easy . M 41
