write upon it . M 2304
writing upon it . M 2048
wrote upon it . M 1260
writing will be . M 1228
write over it . M 596
write into it . M 577
writing over it . M 418
wrest from me . M 404
wrest from it . M 398
writing went on . M 356
write from it . M 339
writing from me . M 317
write like me . M 315
wreck like me . M 308
wrest from us . M 282
writing into it . M 268
writing there is . M 265
writing from it . M 256
wrote into it . M 172
wrote over it . M 160
writing must be . M 157
write data to . M 156
write upon it ? M 147
write unto us . M 144
write like it . M 138
wrote unto me . M 122
wreck over it . M 104
writing early on . M 99
write unto me . M 94
writing grew up . M 88
write back to . M 88
write poems on . M 80
writing will do . M 58
