eye twice daily . M 310
eye could trace . M 246
eye could carry . M 166
eye about anything . M 156
eye takes place . M 138
eye under water . M 132
eye study group . M 132
eye every morning . M 116
eye color today . M 106
eye could judge . M 96
