eyes of the lord M 84189
eyes to the fact M 81151
eyes of the young M 50999
eyes of the other M 47765
eyes on the road M 45670
eyes in the back M 27892
eyes to the truth M 20008
eyes of the mind M 18649
eyes at the same M 18400
eyes of the great M 16380
eyes of the most M 16270
eyes of the body M 15647
eyes of the girl M 15240
eyes as he said M 13568
eyes in the dark M 13081
eyes of the rest M 12644
eyes of the poor M 12478
eyes of the heart M 9903
eyes to the left M 9881
eyes on the door M 9850
eyes in the same M 9766
eyes in the room M 9676
eyes of the gods M 8958
eyes of the same M 8388
eyes of the army M 8371
eyes of the west M 8134
eyes to the true M 7718
eyes on my face M 7624
eyes on the back M 7436
eyes on the other M 7134
eyes to the great M 6884
eyes of so many M 6780
eyes on the same M 6616
eyes of the wise M 6607
eyes on the young M 6478
eyes on the fire M 6184
eyes to the face M 6139
eyes to the other M 6032
eyes of the more M 5692
eyes of the lady M 5532
eyes at the back M 5506
eyes of the fair M 5418
eyes on the girl M 5404
eyes of the three M 5373
eyes on the face M 5050
eyes of the good M 4948
eyes to the side M 4817
eyes of the living M 4714
eyes of the male M 4611
eyes at the time M 4470
eyes to be cast M 4392
eyes to my face M 4369
eyes at the full M 4250
eyes to the door M 4239
eyes of the city M 4208
eyes of the many M 4098
eyes of the very M 4070
eyes to the dark M 4039
eyes in the face M 3976
eyes as he went M 3756
eyes on my back M 3669
eyes of my mind M 3611
eyes of the youth M 3604
eyes of the early M 3584
eyes of the boys M 3524
eyes to the west M 3518
eyes of the south M 3506
eyes as he told M 3496
eyes of the holy M 3490
eyes as if trying M 3326
eyes as he held M 3276
eyes on the great M 3272
eyes of the fish M 3252
eyes in the form M 3242
eyes to the most M 3240
eyes of my heart M 3231
eyes on the book M 3224
eyes of the town M 3216
eyes on the goal M 3207
eyes of the ship M 3126
eyes as he came M 3078
eyes of the north M 3000
eyes of the true M 2941
eyes on the page M 2932
eyes of the sick M 2814
eyes to the same M 2784
eyes in the most M 2711
eyes of the high M 2696
eyes to the past M 2632
eyes of the beast M 2547
eyes as it were M 2538
eyes to the road M 2509
eyes to the north M 2484
eyes on the dark M 2465
eyes to the many M 2422
eyes on the lord M 2414
eyes as he made M 2394
eyes to be sure M 2332
eyes to the need M 2330
eyes of the past M 2330
eyes of the bird M 2257
eyes on the side M 2242
eyes to the very M 2208
eyes of the aged M 2196
eyes at the very M 2138
eyes to the full M 2122
eyes on the copy M 2112
eyes on the past M 2110
eyes of an angel M 2102
eyes as he bent M 2062
eyes of the third M 2050
eyes of the sons M 2036
eyes of the hero M 2014
eyes as he heard M 2014
eyes in the hope M 1960
eyes to the young M 1948
eyes on the main M 1930
eyes in the last M 1906
eyes of the mass M 1896
eyes of my lord M 1874
eyes at the young M 1870
eyes to the back M 1850
eyes of the wild M 1842
eyes of the four M 1840
eyes of the vast M 1834
eyes up to meet M 1822
eyes of the rich M 1822
eyes to be seen M 1796
eyes to the south M 1792
eyes to the vast M 1786
eyes of the user M 1784
eyes to the blue M 1760
eyes of the best M 1757
eyes to the evil M 1738
eyes on the rich M 1722
eyes of the baby M 1718
eyes on the left M 1689
eyes on the lady M 1682
eyes as he left M 1642
eyes as he felt M 1636
eyes of the last M 1630
eyes on the blue M 1605
eyes of my body M 1592
eyes to be able M 1582
eyes of the left M 1557
eyes at the last M 1526
eyes of the main M 1510
eyes of the mask M 1484
eyes is the same M 1474
eyes on the next M 1466
eyes of the only M 1464
eyes of the host M 1464
eyes in the early M 1390
eyes is the most M 1377
eyes to the good M 1376
eyes on the open M 1341
eyes of the face M 1312
eyes of the free M 1311
eyes of the union M 1299
eyes of the next M 1292
eyes at the other M 1292
eyes to the high M 1288
eyes by the fact M 1287
eyes to the next M 1282
eyes or in those M 1280
eyes of the home M 1275
eyes on the edge M 1272
eyes at the door M 1272
eyes on the last M 1266
eyes as he gave M 1262
eyes of the dark M 1259
eyes at the ends M 1258
eyes to the rest M 1256
eyes in the half M 1252
eyes by the time M 1247
eyes as the most M 1246
eyes as to what M 1240
eyes to the open M 1232
eyes of the anti M 1232
eyes on the moon M 1231
eyes to the book M 1226
eyes to the lord M 1220
eyes on the land M 1198
eyes of the self M 1189
eyes to the meaning M 1182
eyes at the base M 1180
eyes in the case M 1164
eyes of the less M 1162
eyes to the girl M 1144
eyes in the other M 1132
eyes on the most M 1129
eyes as the door M 1119
eyes of the leading M 1116
eyes on the city M 1082
eyes in the very M 1080
eyes of the pure M 1074
eyes to the more M 1065
eyes on the ends M 1060
eyes on the baby M 1060
eyes as if from M 1060
eyes to the ship M 1037
eyes on the fair M 1034
eyes to the moon M 1030
eyes of the maid M 1026
eyes on the three M 1025
eyes to the last M 1014
eyes on the vast M 1008
eyes as if there M 1008
eyes of the land M 1004
eyes of the angel M 998
eyes of an army M 994
eyes to the wide M 992
eyes to the page M 988
eyes to the fire M 975
eyes at the girl M 970
eyes of the weary M 958
eyes of the late M 954
eyes to the deep M 946
eyes of the bank M 937
eyes or the eyes M 928
eyes on the very M 928
eyes of the sage M 924
eyes to the clear M 912
eyes on the work M 912
eyes of the reading M 905
eyes at me like M 898
eyes on the line M 895
eyes of the well M 892
eyes at the dark M 892
eyes of the half M 887
eyes of the kind M 886
eyes to the holy M 868
eyes of an angry M 864
eyes of the mate M 860
eyes up or down M 847
eyes at the great M 846
eyes to the land M 844
eyes on the view M 837
eyes on the ship M 837
eyes in the city M 836
eyes on the wealth M 828
eyes on the high M 825
eyes to the ways M 816
eyes of the idol M 814
eyes in the next M 806
eyes up to look M 802
eyes on the tree M 802
eyes in the land M 799
eyes on the bird M 793
eyes as we have M 792
eyes of the monk M 785
eyes on the body M 784
eyes on the game M 774
eyes of the five M 772
eyes to the work M 762
eyes in the great M 761
eyes of the huge M 760
eyes or no eyes M 756
eyes of my young M 746
eyes to the base M 742
eyes to the city M 739
eyes of the room M 738
eyes on the eyes M 734
eyes as we look M 734
eyes to the main M 729
eyes to the kind M 728
eyes on the food M 728
eyes at the side M 724
eyes as the young M 722
eyes as the last M 720
eyes on me like M 710
eyes as he laid M 710
eyes is the only M 708
eyes as the tears M 708
eyes to the heart M 705
eyes on the form M 700
eyes on me were M 700
eyes of the fool M 699
eyes in the past M 696
eyes as the other M 696
eyes on the coming M 691
eyes to the hard M 690
eyes on the youth M 690
eyes on the north M 688
eyes on the moving M 686
eyes of the nuns M 686
eyes on the wide M 684
eyes of the hard M 678
eyes to the only M 676
eyes to the rich M 674
eyes in the hall M 672
eyes in the full M 670
eyes to the pain M 664
eyes to the lady M 662
eyes to the depth M 662
eyes on me from M 662
eyes or the body M 660
eyes by no means M 658
eyes on the pair M 656
eyes on the look M 656
eyes as the pain M 650
eyes to the hill M 649
eyes of the ever M 632
eyes on the west M 623
eyes as in those M 622
eyes in my life M 620
eyes of my eyes M 616
eyes on the lake M 608
eyes to so many M 606
eyes to the gray M 602
eyes of the kids M 602
eyes on the holy M 600
eyes or on your M 598
eyes on the text M 596
eyes on the huge M 596
eyes of the angry M 594
eyes at the fire M 591
eyes as he fell M 588
eyes on me when M 586
eyes to the best M 585
eyes is the fact M 584
eyes of the truth M 580
eyes of the post M 578
eyes in the ends M 578
eyes of the time M 575
eyes on the gray M 566
eyes of the poets M 564
eyes on my feet M 562
eyes by the same M 560
eyes on the part M 558
eyes on the poor M 557
eyes in the tail M 557
eyes if he were M 556
eyes of the evil M 554
eyes at me when M 554
eyes as the wind M 551
eyes to the eyes M 550
eyes to the fair M 548
eyes to be torn M 540
eyes at the boys M 540
eyes as we went M 538
eyes to the life M 536
eyes of the eager M 536
eyes on the fact M 534
eyes on the wrong M 532
eyes to be more M 531
eyes to the size M 526
eyes to the cold M 524
eyes of the just M 522
eyes to the time M 518
eyes at me from M 516
eyes as he says M 516
eyes on the good M 514
eyes of the gray M 512
eyes is in fact M 512
eyes of the dogs M 506
eyes to the ugly M 502
eyes as to make M 502
eyes on the boys M 500
eyes in the vain M 500
eyes to the room M 498
eyes of the blue M 494
eyes in the late M 490
eyes on the rest M 488
eyes of as many M 486
eyes as he swung M 486
eyes to the wealth M 484
eyes at the edge M 484
eyes as the girl M 482
eyes to the soft M 479
eyes to the part M 476
eyes to be used M 472
eyes to the coming M 470
eyes in the soft M 470
eyes as the only M 469
eyes on the third M 468
eyes of my youth M 468
eyes in the cold M 467
eyes to the tree M 466
eyes to the means M 466
eyes to be open M 466
eyes on the beach M 466
eyes in the male M 466
eyes on so much M 465
eyes to the body M 464
eyes on the fine M 462
eyes at the blue M 461
eyes it is only M 460
eyes to so much M 458
eyes on the word M 458
eyes on the tail M 458
eyes if it were M 456
eyes as we came M 456
eyes of the lost M 450
eyes on the four M 449
eyes in the body M 447
eyes in the deep M 446
eyes at the face M 446
eyes to the view M 444
eyes to the bare M 442
eyes of my poor M 442
eyes at an angle M 442
eyes of the pair M 434
eyes as he reads M 434
eyes to the grey M 433
eyes of no less M 432
eyes up to mine M 431
eyes to the edge M 430
eyes as we were M 430
eyes on the room M 428
eyes on me once M 425
eyes at the word M 425
eyes on the busy M 424
eyes of an idiot M 423
eyes as he died M 422
eyes in the mask M 420
eyes at the poor M 418
eyes on the bank M 417
eyes to the fate M 416
eyes on the true M 416
eyes as the great M 416
eyes at the pain M 412
eyes of my love M 410
eyes at the three M 410
eyes on the ocean M 409
eyes in the spring M 406
eyes as if some M 406
eyes to the mind M 405
eyes in the west M 405
eyes up the road M 404
eyes in the living M 398
eyes as the fish M 398
eyes on the soft M 396
eyes on the only M 396
eyes in the days M 396
eyes on the hand M 395
eyes on the deep M 394
eyes to the dawn M 392
eyes in the warm M 392
eyes of the moon M 391
eyes to the wrong M 390
eyes as if asking M 390
eyes on the clear M 386
eyes as it grew M 386
eyes to the huge M 382
eyes to the role M 380
eyes on the town M 380
eyes on the bare M 376
eyes of the said M 376
eyes as if their M 376
eyes to the three M 374
eyes of the ones M 374
eyes in the open M 374
eyes on the living M 372
eyes in the blue M 370
eyes on the flag M 369
eyes by the wind M 369
eyes of the heads M 368
eyes on the gate M 366
eyes in so many M 366
eyes to the pure M 364
eyes to the living M 364
eyes or in their M 364
eyes in the fading M 364
eyes on the south M 362
eyes of the cold M 360
eyes of the deep M 358
eyes at the rich M 356
eyes of the once M 355
eyes of the work M 354
eyes in the gray M 354
eyes on the half M 351
eyes to the risk M 350
eyes as he sees M 350
eyes to be made M 348
eyes on the cake M 348
eyes on the bows M 348
eyes in the name M 348
eyes on the mark M 346
eyes of an aged M 346
eyes in the ship M 346
eyes on the many M 342
eyes on the fish M 342
eyes of an other M 342
eyes to the lack M 340
eyes at the fair M 340
eyes as he kept M 340
eyes in the clear M 338
eyes as we left M 338
eyes to the poor M 336
eyes is no more M 336
eyes in the heads M 334
eyes on the snow M 330
eyes of the idiot M 330
eyes or to look M 324
eyes to the goal M 322
eyes of my lady M 322
eyes in the eyes M 320
eyes as the eyes M 320
eyes to the four M 319
eyes on my eyes M 318
eyes as the dawn M 318
eyes in my back M 317
eyes to the third M 316
eyes to the joys M 316
eyes on the hill M 316
eyes at the rest M 316
eyes of the peace M 315
eyes to the form M 314
eyes on the feet M 314
eyes on the more M 313
eyes in the side M 313
eyes in the wrong M 312
eyes on the ever M 310
eyes at the lady M 310
eyes as if waking M 306
eyes as he used M 306
eyes on the grey M 304
eyes in the arms M 304
eyes by the very M 304
eyes on the well M 300
eyes on my book M 300
eyes of the shop M 300
eyes by the most M 300
eyes at the moon M 300
eyes in the book M 299
eyes to be like M 298
eyes on it from M 298
eyes on the life M 297
eyes at the huge M 296
eyes at me over M 296
eyes or the mind M 294
eyes as so many M 294
eyes to the tail M 293
eyes to the hand M 292
eyes in the young M 292
eyes at an early M 290
eyes to the ever M 289
eyes on the tops M 288
eyes in the work M 288
eyes as if seeing M 288
eyes to the heavy M 284
eyes on the wild M 284
eyes on the hole M 284
eyes of the game M 284
eyes of the born M 284
eyes as it came M 284
eyes is the best M 282
eyes in the dream M 282
eyes in the wide M 280
eyes as the truth M 280
eyes at the wrong M 278
eyes of the base M 277
eyes to the love M 276
eyes to be upon M 276
eyes at the bare M 276
eyes as the room M 276
eyes in the cool M 275
eyes on it when M 274
eyes of the fire M 274
eyes of the coming M 274
eyes is to look M 274
eyes in the heart M 271
eyes to the well M 270
eyes to the harm M 270
eyes of the book M 270
eyes as we pass M 270
eyes to be very M 269
eyes at the most M 269
eyes on the pile M 268
eyes on the cold M 268
eyes of an ever M 268
eyes of an early M 268
eyes in my face M 268
eyes to the calm M 267
eyes on the flying M 266
eyes in the town M 266
eyes on the list M 264
eyes of the wary M 264
eyes of the sort M 260
eyes of my host M 260
eyes or in your M 258
eyes on the dogs M 258
eyes of so great M 258
eyes of the love M 256
eyes of the grey M 256
eyes as if weary M 256
eyes on the full M 254
eyes of the full M 254
eyes at the name M 254
eyes to the mass M 252
eyes on the heavy M 252
eyes on the hard M 252
eyes on the beast M 252
eyes on my work M 252
eyes of the bold M 252
eyes do the work M 252
eyes to go back M 250
eyes or the face M 250
eyes to the early M 248
eyes or my mind M 248
eyes on the wood M 248
eyes on my body M 248
eyes of the wide M 248
eyes in the wake M 248
eyes in the heavy M 248
eyes in my eyes M 248
eyes as it went M 248
eyes of an evil M 247
eyes of the wood M 246
eyes of the vice M 245
eyes to the half M 244
eyes on so many M 244
eyes of the clear M 242
eyes of my faith M 242
eyes of an eager M 242
eyes at the next M 242
eyes on the site M 241
eyes as if just M 241
eyes to the hole M 240
eyes to the fine M 240
eyes in the years M 240
eyes to the feet M 238
eyes on the keys M 238
eyes at the open M 238
eyes to the line M 237
eyes to the angry M 236
eyes on the sign M 236
eyes of the dawn M 236
eyes of the wind M 234
eyes as the rest M 234
eyes of the tears M 232
eyes of the icon M 231
eyes in the wind M 231
eyes in the dawn M 230
eyes if he knew M 230
eyes or the heart M 228
eyes to the range M 227
eyes of the much M 227
eyes to the ends M 226
eyes to my heart M 226
eyes of the type M 226
eyes of the idle M 226
eyes of an ugly M 226
eyes of an idol M 226
eyes is the last M 226
eyes in the vast M 226
eyes at the rate M 226
eyes on the cloth M 222
eyes on my hand M 222
eyes as the ship M 222
eyes of the word M 221
eyes of the tail M 221
eyes as the fire M 221
eyes to the ocean M 220
eyes of my fair M 220
eyes as the full M 220
eyes as if saying M 220
eyes to the bank M 219
eyes on the truth M 218
eyes of the wrong M 218
eyes as the warm M 218
eyes as the three M 218
eyes as if reading M 218
eyes as he sits M 218
eyes of the road M 217
eyes is to have M 216
eyes in my mind M 216
eyes as we made M 216
eyes to the snow M 214
eyes to the gods M 214
eyes so he will M 214
eyes on the kids M 214
eyes on the fading M 214
eyes of the dull M 214
eyes in the cave M 214
eyes of the seeing M 213
eyes to do what M 212
eyes of the fine M 212
eyes it is very M 212
eyes is so great M 210
eyes in the fire M 210
eyes as if nothing M 210
eyes as he eased M 210
eyes to the text M 208
eyes of the mine M 206
eyes of my sons M 206
eyes by the great M 206
eyes to the moving M 205
eyes or the hair M 204
eyes of the health M 204
eyes by the side M 204
eyes on the cool M 203
eyes of the fact M 203
eyes to the wind M 202
eyes to the threat M 202
eyes to the ideal M 202
eyes is the very M 202
eyes so to speak M 200
eyes or in some M 200
eyes of the look M 200
eyes of the ocean M 199
eyes in the life M 199
eyes as the very M 199
eyes do the same M 198
eyes at the baby M 198
eyes on the worn M 197
eyes as if daring M 197
eyes or the length M 196
eyes on the rain M 196
eyes as the rain M 196
eyes as it must M 196
eyes in the wood M 195
eyes on the best M 194
eyes on in years M 194
eyes as we said M 194
eyes of the soft M 193
eyes of the winged M 192
eyes at the half M 192
eyes at the cold M 192
eyes in the snow M 191
eyes to the flag M 190
eyes to the angle M 190
eyes at my back M 190
eyes in the high M 189
eyes to the tops M 188
eyes on me very M 188
eyes of my good M 188
eyes as no other M 188
eyes to the days M 186
eyes of the buying M 186
eyes in the line M 186
eyes of the single M 185
eyes to the tears M 184
eyes of the faith M 184
eyes as the goal M 184
eyes as he cast M 184
eyes to the wild M 182
eyes to the ruin M 182
eyes on the monk M 182
eyes on the hall M 182
eyes of the mail M 182
eyes in the best M 181
eyes on the video M 180
eyes of us three M 180
eyes of the vain M 180
eyes in an open M 180
eyes at the list M 180
eyes to the home M 179
eyes of so much M 178
eyes as the cold M 178
eyes as if taking M 178
eyes to the rain M 176
eyes to the pile M 176
eyes or the fact M 176
eyes on the post M 176
eyes on the name M 176
eyes on the case M 176
eyes as the same M 176
eyes to the lake M 175
eyes to the warm M 174
eyes to do their M 174
eyes or the size M 174
eyes on the note M 174
eyes in the tree M 174
eyes as to their M 174
eyes is so much M 173
eyes to be blue M 172
eyes on the hero M 172
eyes on the exit M 172
eyes at the kind M 172
eyes at the soft M 171
eyes on the leading M 170
eyes in the word M 170
eyes in the huge M 170
eyes on the port M 169
eyes to my eyes M 168
eyes on the calm M 168
eyes as my heart M 168
eyes of the life M 167
eyes of the heavy M 167
eyes of the band M 166
eyes by the lord M 166
eyes at the body M 166
eyes as if hoping M 166
eyes to the busy M 164
eyes to the baby M 164
eyes to be kept M 164
eyes on the slow M 164
eyes in my dream M 164
eyes as the true M 164
eyes as it fell M 164
eyes as he hears M 164
eyes to the less M 163
eyes to be shut M 162
eyes on it till M 162
eyes is to make M 162
eyes is of great M 162
eyes in the bows M 162
eyes at the wide M 162
eyes at the four M 162
eyes at the city M 162
eyes to the just M 160
eyes to the boys M 160
eyes of the busy M 160
eyes in the three M 160
eyes at the vast M 160
eyes at the road M 160
eyes to the root M 158
eyes to the length M 158
eyes on an open M 158
eyes of the flying M 158
eyes is the look M 158
eyes by the hand M 158
eyes if the wind M 157
eyes as the more M 157
eyes to it when M 156
eyes on the play M 156
eyes on the five M 156
eyes of the rain M 156
eyes of the hill M 156
eyes of the hide M 156
eyes of my three M 156
eyes of my best M 156
eyes it is like M 156
eyes in the south M 156
eyes in the grey M 156
eyes in the four M 156
eyes at the feel M 156
eyes on the base M 154
eyes it is seen M 154
eyes in the wild M 154
eyes in the poor M 154
eyes in the dull M 154
eyes at the pair M 154
eyes as if into M 154
eyes on the late M 153
eyes on the heart M 153
eyes on the shop M 152
eyes of the dream M 152
eyes of my late M 152
eyes in my early M 152
eyes as we walk M 152
eyes to the free M 150
eyes as the next M 150
eyes as the book M 150
eyes of the keen M 149
eyes as in ours M 149
eyes on the single M 148
eyes on the move M 148
eyes on the heads M 148
eyes it is good M 148
eyes in the time M 148
eyes in the third M 148
eyes of the lone M 147
eyes as the body M 147
eyes on the rare M 146
eyes on the file M 146
eyes in the shop M 146
eyes at the more M 146
eyes as the dark M 145
eyes to the cool M 144
eyes or on their M 144
eyes to the reading M 143
eyes in the north M 143
eyes of the heir M 142
eyes it is hard M 142
eyes if we were M 142
eyes as the baby M 142
eyes of the calm M 141
eyes to my feet M 140
eyes of the cave M 140
eyes of the ages M 140
eyes of my great M 140
eyes to the self M 139
eyes of the test M 139
eyes to be left M 138
eyes or to shut M 138
eyes on the break M 138
eyes on my young M 138
eyes in the mind M 138
eyes at the view M 138
eyes at the high M 138
eyes as the life M 137
eyes to the duty M 136
eyes to it from M 136
eyes or to speak M 136
eyes or my heart M 136
eyes on the ugly M 136
eyes of an able M 136
eyes at the loss M 136
eyes as the boys M 136
eyes as he grew M 136
eyes to the union M 134
eyes to the game M 134
eyes to the army M 134
eyes to go into M 134
eyes to go away M 134
eyes on the sick M 134
eyes on the mask M 134
eyes it is more M 134
eyes it is also M 134
eyes is the true M 134
eyes in the road M 134
eyes in the hard M 134
eyes as if half M 134
eyes as if coming M 134
eyes on the dull M 132
eyes of the spring M 132
eyes it is just M 132
eyes is the great M 132
eyes is so like M 132
eyes in the more M 132
eyes at the length M 132
eyes at the dawn M 132
eyes as the heavy M 132
eyes at the well M 131
eyes to the want M 130
eyes to me when M 130
eyes on the wind M 130
eyes on the like M 130
eyes of the nine M 130
eyes of the hand M 130
eyes at the good M 129
eyes to an even M 128
eyes in the waking M 128
eyes in the reading M 128
eyes in the hour M 128
eyes at the snow M 128
eyes at the ship M 128
eyes as the word M 128
eyes as the blue M 128
eyes to the dull M 126
eyes or to move M 126
eyes of the ward M 126
eyes of so deep M 126
eyes in the rain M 126
eyes in the main M 126
eyes to the town M 124
eyes to the file M 124
eyes or in eyes M 124
eyes on the weary M 124
eyes on the said M 124
eyes of the over M 124
eyes of the fifth M 124
eyes at the wild M 124
eyes at the room M 124
eyes as if making M 124
eyes to the word M 123
eyes to be only M 123
eyes on the step M 123
eyes up in their M 122
eyes to the hall M 122
eyes to the gate M 122
eyes of the trial M 122
eyes of the line M 122
eyes if he will M 122
eyes at the fact M 122
eyes as we move M 122
eyes to the tale M 120
eyes to the sign M 120
eyes on the maid M 120
eyes on the army M 120
eyes on me even M 120
eyes of the daring M 120
eyes of no other M 120
eyes is as good M 120
eyes at the wealth M 120
eyes at the line M 120
eyes on the home M 119
eyes at the life M 119
eyes to the shop M 118
eyes to the much M 118
eyes to the case M 118
eyes to go wide M 118
eyes to go along M 118
eyes on the time M 118
eyes of so rare M 118
eyes of an ageing M 118
eyes is at once M 118
eyes in the realm M 118
eyes in the fish M 118
eyes at the pile M 118
eyes as the years M 118
eyes as the best M 118
eyes to the worth M 117
eyes of the ideal M 117
eyes to the name M 116
eyes to the crying M 116
eyes to my true M 116
eyes on the bleak M 116
eyes on me wide M 116
eyes on in your M 116
eyes of my dogs M 116
eyes of an ideal M 116
eyes in the wars M 116
eyes in the true M 116
eyes at the work M 116
eyes at the look M 116
eyes at the grey M 116
eyes at the clear M 116
eyes at the heavy M 115
eyes of the ugly M 114
eyes of the size M 114
eyes in the home M 114
eyes as an angel M 114
eyes on the reading M 113
eyes on the clean M 113
eyes in the door M 113
eyes to the food M 112
eyes to an angle M 112
eyes on the walk M 112
eyes on the bone M 112
eyes on the bend M 112
eyes on no living M 112
eyes of the slow M 112
eyes of so young M 112
eyes of my baby M 112
eyes is the life M 112
eyes in the calm M 112
eyes in no time M 112
eyes in my dark M 112
eyes in it were M 112
eyes as the soft M 112
eyes as if deep M 112
eyes as he lies M 112
eyes in the only M 111
eyes to go over M 110
eyes or to make M 110
eyes or the hearing M 110
eyes on us from M 110
eyes on the seed M 110
eyes on me till M 110
eyes of the miss M 110
eyes it is true M 110
eyes in the mist M 110
eyes in the bone M 110
eyes in my heart M 110
eyes as he knew M 110
eyes on the ideal M 109
eyes as if even M 109
eyes to the pair M 108
eyes to the bold M 108
eyes on the trap M 108
eyes on the angel M 108
eyes of the hall M 108
eyes of an icon M 108
eyes in the holy M 108
eyes in the fall M 108
eyes he is nothing M 108
eyes as in life M 108
eyes of an over M 107
eyes on the mass M 106
eyes on the band M 106
eyes of the sixth M 106
eyes of the losing M 106
eyes of the hurt M 106
eyes of the beings M 106
eyes of it were M 106
eyes it is nothing M 106
eyes is to give M 106
eyes at the warm M 106
eyes at the rain M 106
eyes as to give M 106
eyes of the snow M 105
eyes of the moving M 105
eyes of an anti M 105
eyes up the hill M 104
eyes to the gift M 104
eyes or to take M 104
eyes of the warm M 104
eyes if we look M 104
eyes if we have M 104
eyes by the name M 104
eyes at the root M 104
eyes as in their M 104
eyes as in mine M 104
eyes to the angel M 102
eyes of the lake M 102
eyes at the youth M 102
eyes at the fine M 102
eyes of the meek M 101
eyes of the cast M 101
eyes to the test M 100
eyes to the step M 100
eyes to the hair M 100
eyes to the beach M 100
eyes on the show M 100
eyes on the depth M 100
eyes at the coming M 100
eyes as the time M 100
eyes as the poor M 100
eyes as the meaning M 100
eyes as the huge M 100
eyes as the cool M 100
eyes of my most M 99
eyes to the slow M 98
eyes to the ills M 98
eyes on the maps M 98
eyes of so dark M 98
eyes in the girl M 98
eyes if he ever M 98
eyes at the land M 98
eyes at the best M 98
eyes as to know M 98
eyes as the snow M 98
eyes to the bird M 97
eyes on the self M 97
eyes to the sort M 96
eyes to be back M 96
eyes or in other M 96
eyes on the data M 96
eyes of the prior M 96
eyes if we like M 96
eyes at the hand M 96
eyes as to have M 96
eyes he is only M 95
eyes to the dire M 94
eyes on the lone M 94
eyes on the knot M 94
eyes of the tree M 94
eyes of the cult M 94
eyes is in some M 94
eyes in the depth M 94
eyes he is true M 94
eyes as to shut M 94
eyes as if what M 94
eyes as if lost M 94
eyes in the baby M 93
eyes to the wood M 92
eyes to be free M 92
eyes on us during M 92
eyes on the eager M 92
eyes on the cave M 92
eyes is the cold M 92
eyes in the ward M 92
eyes in the play M 92
eyes at the gate M 92
eyes as the moon M 92
eyes as the bird M 92
eyes as he once M 92
eyes to the icon M 91
eyes to an ever M 91
eyes up the length M 90
eyes to the type M 90
eyes to the cost M 90
eyes on the kind M 90
eyes of us boys M 90
eyes of the play M 90
eyes of the days M 90
eyes of my other M 90
eyes he is able M 90
eyes at my face M 90
eyes as my mind M 90
eyes as in other M 90
eyes as if wiping M 90
eyes as he shut M 90
eyes up to those M 88
eyes or to open M 88
eyes on the test M 88
eyes on the pure M 88
eyes on the love M 88
eyes is the love M 88
eyes in as life M 88
eyes at the food M 88
eyes at the feet M 88
eyes as the means M 88
eyes of the back M 87
eyes to the hanging M 86
eyes to the anti M 86
eyes to the acts M 86
eyes to be lost M 86
eyes on the pain M 86
eyes on the host M 86
eyes on the dream M 86
eyes on me said M 86
eyes of the unit M 86
eyes of the mice M 86
eyes of the form M 86
eyes of my girl M 86
eyes in the army M 86
eyes at the cool M 86
eyes as we think M 86
eyes as he wept M 86
eyes in the single M 85
eyes to the rise M 84
eyes to the faith M 84
eyes to be wide M 84
eyes or to turn M 84
eyes on the type M 84
eyes on the tomb M 84
eyes on me during M 84
eyes on an icon M 84
eyes of no great M 84
eyes in the tomb M 84
eyes at the only M 84
eyes as the band M 84
eyes as he puts M 84
eyes as he gets M 84
eyes as he asks M 84
eyes to the loss M 82
eyes to go from M 82
eyes or the heavy M 82
eyes on the tears M 82
eyes on my food M 82
eyes in the edge M 82
eyes at us from M 82
eyes at the gray M 82
eyes as the main M 82
eyes on the warm M 80
eyes on the rise M 80
eyes of my anger M 80
eyes in as many M 80
eyes at the mass M 80
eyes as the hero M 80
eyes as the face M 80
eyes as it will M 80
eyes as it made M 80
eyes on me more M 64
eyes on the fast M 63
eyes is no less M 61
eyes as he half M 55
eyes as an ideal M 55
eyes of my lost M 54
eyes in the moon M 52
eyes in the well M 51
eyes to the fast M 48
eyes on an even M 46
eyes or my hair M 45
eyes as the living M 44
eyes as the ideal M 44
eyes on the turn M 43
eyes of the echo M 42
eyes at the third M 42
eyes at the book M 41
eyes as if only M 41
eyes to the dread M 40
eyes to be there M 40
eyes of the open M 40
eyes at the hour M 40
eyes of the soul D 16621
eyes on the ball D 13858
eyes of the jury D 9566
eyes as he took D 5212
eyes of my soul D 5115
eyes of the pope D 4182
eyes of an eagle D 4029
eyes of the media D 3988
eyes of at least D 3910
eyes on the spot D 3740
eyes on the wall D 3670
eyes of the ruling D 2632
eyes of the duke D 2539
eyes of the navy D 2255
eyes of the crew D 2200
eyes to the wall D 2043
eyes of the pious D 2000
eyes of the lamb D 1975
eyes of the wolf D 1923
eyes to the spot D 1898
eyes of the eagle D 1798
eyes as he drew D 1766
eyes of the seer D 1673
eyes of the deer D 1658
eyes of the tall D 1646
eyes of the wife D 1590
eyes to the roof D 1504
eyes in the boat D 1430
eyes of my wife D 1330
eyed in the dark D 1142
eyes on the tall D 1114
eyes of the rank D 1110
eyes or the mouth D 1060
eyes of the giant D 1050
eyes of the rising D 1044
eyes as he rose D 1042
eyes of the hawk D 1034
eyes of the mole D 1026
eyes in the pale D 977
eyes of the boat D 940
eyes at the mere D 940
eyes of the czar D 925
eyes of the bull D 922
eyes on the deck D 882
eyes of the boss D 844
eyes on the duke D 808
eyes at the tips D 792
eyes in the dusk D 790
eyes to the nose D 774
eyes of the frog D 770
eyes on the pale D 758
eyes as he rode D 750
eyes on the boat D 686
eyes on the tips D 678
eyes of the dove D 652
eyes on the tiny D 650
eyes to the mouth D 632
eyes on the gold D 628
eyes on the roof D 622
eyes to the rising D 596
eyes in the pool D 588
eyes as he slid D 580
eyes of the pale D 558
eyes of the fans D 556
eyes of thy soul D 552
eyes as he threw D 522
eyes of the star D 518
eyes on the rock D 516
eyes at the wall D 515
eyes of the rats D 506
eyes to the pale D 504
eyes of the least D 504
eyes to the deck D 502
eyes of the peer D 499
eyes at the foot D 494
eyes up to hers D 488
eyes in the least D 488
eyes to the duke D 484
eyes on the desk D 481
eyes to the star D 468
eyes of the lynx D 452
eyes to the chin D 450
eyes of the singer D 446
eyes on the jury D 440
eyes of the film D 440
eyes of the folk D 439
eyes to the tall D 434
eyes on the star D 430
eyes of the race D 430
eyes on the sand D 429
eyes in an oval D 426
eyed at the door D 424
eyes of the throng D 422
eyes of the bulk D 422
eyes of the gaping D 421
eyes on the bull D 420
eyes of the crow D 420
eyes of the skin D 414
eyes of the lions D 414
eyes at the tall D 408
eyes or at least D 404
eyes at the news D 404
eyes of the camp D 403
eyes of the goat D 402
eyes in the sand D 401
eyes of the oxen D 392
eyes or the nose D 388
eyes of the firm D 383
eyes on the news D 380
eyes to the soul D 378
eyes to the desk D 376
eyes to the grim D 374
eyes of the shah D 372
eyes of the news D 372
eyes on the rising D 366
eyes as he bade D 366
eyes to the sins D 362
eyes as the boat D 358
eyes to the rays D 356
eyes of the tiny D 356
eyes of the cook D 354
eyes to the nape D 353
eyes of the loving D 350
eyes on the thick D 348
eyes of the park D 344
eyes to the glow D 334
eyes on the task D 334
eyes in the camp D 334
eyes of the doll D 330
eyed by the time D 326
eyes in the dust D 324
eyes in the dining D 324
eyes or the skin D 322
eyes on the rude D 322
eyes of the calf D 322
eyes on the menu D 318
eyes on my wife D 318
eyes in the glow D 312
eyes on the pool D 308
eyes on the lamp D 304
eyes of thy mind D 304
eyes of the mere D 304
eyes on the bowl D 300
eyes of the toad D 300
eyes of the moor D 300
eyes of the laws D 300
eyes of the herd D 298
eyes of the guru D 298
eyes on the singer D 294
eyes in the semi D 293
eyes to the task D 292
eyes of the thief D 292
eyes of the cows D 292
eyes of the clan D 288
eyes as he sank D 288
eyes on the giant D 284
eyes on my neck D 278
eyes on the camp D 276
eyes of the cops D 270
eyes of the babe D 270
eyes as we rode D 270
eyes on the tray D 268
eyes to the gulf D 266
eyes of the bush D 266
eyes on the puck D 265
eyes or on skin D 264
eyes on the rope D 258
eyes of the club D 257
eyes on the prow D 256
eyes on the dirt D 256
eyes of the cats D 256
eyed at the wall D 255
eyes of the dumb D 252
eyes on the dust D 249
eyes to the dome D 248
eyes to the bill D 246
eyes on the sofa D 246
eyes on the card D 246
eyes of the owls D 246
eyes to the neck D 244
eyes of the fawn D 244
eyes of the gazing D 243
eyes of the seals D 242
eyes of the bust D 242
eyes or the lips D 238
eyes of the lads D 236
eyes on the flat D 234
eyes of the farm D 234
eyes on the lawn D 232
eyes to the tips D 230
eyes to the rock D 223
eyes of the curia D 220
eyes of the boar D 220
eyes of the hare D 218
eyes of the rude D 216
eyes on the pink D 209
eyes to thy face D 208
eyes to the menu D 206
eyes of my aunt D 206
eyes to the thick D 204
eyes on the palm D 204
eyes on the cash D 204
eyes of the lamp D 204
eyes on the dock D 202
eyes of the goths D 202
eyes to the foot D 200
eyes of the abbe D 200
eyes to the tiny D 198
eyes on the wife D 198
eyes on the barn D 198
eyes at the least D 198
eyes of the stag D 196
eyes of the khan D 196
eyes in the deck D 196
eyes at the tiny D 196
eyes at the roof D 196
eyes on the pond D 194
eyes in the tips D 194
eyes of the voting D 193
eyes to the dirt D 192
eyes of the crab D 190
eyes on the bread D 187
eyes in the wall D 187
eyes of the imam D 186
eyes to at least D 184
eyes on the jack D 184
eyes as he blew D 184
eyes of the friar D 182
eyes on the mouth D 180
eyes of the guys D 178
eyes on the hilt D 176
eyes on so pious D 176
eyes of the bats D 176
eyes as it rose D 176
eyes as he flung D 176
eyes or my mouth D 174
eyes on the glow D 174
eyes at the pale D 174
eyes on the lush D 172
eyes at the spot D 172
eyes as he tore D 172
eyes of the grim D 168
eyed at the young D 167
eyes of the cane D 166
eyes at the duke D 166
eyes at the ball D 166
eyes on the wine D 164
eyes on the neck D 164
eyes on the coin D 164
eyes by the thick D 164
eyes by the mere D 164
eyes to the ball D 162
eyes of the cape D 162
eyed on the edge D 162
eyes in the tiny D 160
eyes to the hind D 159
eyes to the wife D 158
eyes on the tube D 158
eyes on the dome D 158
eyes in the thick D 158
eyed at the huge D 158
eyes on the farm D 157
eyes of the gold D 157
eyes to the sand D 156
eyes on the pine D 156
eyes on my shoes D 156
eyes of the fond D 156
eyes in the waning D 156
eyes as it sank D 156
eyed in the face D 155
eyes on the dish D 152
eyes to the semi D 150
eyes on the piano D 150
eyes on the cars D 150
eyes of the twin D 150
eyes of the mare D 148
eyes of the imps D 148
eyes on the slim D 146
eyes of the swan D 146
eyes of the lame D 146
eyes of the buck D 146
eyes as the thyme D 146
eyes to the doings D 144
eyes to my mouth D 144
eyes on the tape D 144
eyes on the cuff D 144
eyes to the dust D 143
eyed as the rest D 143
eyes to the dock D 142
eyes is thy finger D 142
eyes as he shot D 142
eyes to the beams D 140
eyes on the pack D 140
eyes on the mare D 140
eyes of the mute D 140
eyes on the pole D 139
eyes on the rose D 138
eyes on my mouth D 138
eyes at the prow D 138
eyes as the taxi D 138
eyes on the iron D 137
eyes or the tone D 136
eyes at the rows D 136
eyes of the prying D 135
eyes on the foot D 134
eyes of the pupa D 134
eyes of the fore D 134
eyes of the dame D 134
eyes in the tent D 134
eyes in the milk D 134
eyes of the mule D 133
eyes to the fore D 131
eyed at the same D 131
eyes to the slit D 130
eyes to the lure D 130
eyes or my legs D 130
eyes on the pope D 130
eyes of the radio D 130
eyes as the dupe D 130
eyes as the ball D 130
eyes of the prey D 128
eyes in the dirt D 128
eyes to the flat D 127
eyes on the leaping D 127
eyes to the lips D 126
eyes to the jury D 126
eyes of the tube D 126
eyes of the mining D 126
eyes of the bald D 126
eyes as he wrung D 126
eyes as he flew D 126
eyes to the peaks D 124
eyes to the lens D 124
eyes on the soil D 124
eyes on the nose D 124
eyes on the damp D 124
eyes of the pack D 124
eyes of the apes D 124
eyed at the dark D 124
eyes on the dials D 122
eyes of the desk D 122
eyes as he spun D 122
eyed at the other D 122
eyes on the fore D 121
eyes on the nape D 120
eyes by the veil D 120
eyes as the wine D 120
eyed as to miss D 120
eyed to the reading D 119
eyes in the palm D 118
eyes as he leans D 118
eyed at the mere D 118
eyes on the twin D 117
eyes at the rising D 117
eyes on the radio D 116
eyes in the oval D 116
eyes of the magi D 115
eyes to the soil D 114
eyes to the brim D 114
eyes on the deer D 114
eyes on my lips D 114
eyes of the guns D 114
eyes in the gaze D 114
eyes to be shot D 112
eyes on the guns D 112
eyes on the grim D 112
eyes on the cook D 112
eyes of the dust D 112
eyes of the sect D 111
eyes of the iron D 111
eyes of the coal D 111
eyed at the great D 111
eyes to the rank D 110
eyes on the wolf D 110
eyes on the steam D 110
eyes on the legs D 110
eyes on the doll D 110
eyes on the bust D 110
eyes of the rock D 110
eyes in the flat D 110
eyes in the bush D 110
eyes at the mouth D 110
eyes as we gaze D 110
eyed to the truth D 110
eyed at the fire D 110
eyed as he told D 109
eyes on the doings D 108
eyes on at least D 108
eyes in the yard D 108
eyes at the wife D 108
eyes at the lamp D 108
eyes as we took D 108
eyed me in such D 108
eyes of the rose D 107
eyed at the open D 107
eyes to the card D 106
eyes or my nose D 106
eyes on the dice D 106
eyes on the crew D 106
eyes on the club D 106
eyes on the bush D 106
eyes on the belt D 106
eyes on my desk D 106
eyes of the tame D 106
eyes in the park D 106
eyes in the film D 106
eyes at the tone D 106
eyes as we sped D 106
eyed in the early D 106
eyed in the dusk D 106
eyed at the three D 106
eyes at the swinging D 105
eyes as of yore D 105
eyes of the muse D 104
eyes of the gulf D 104
eyes is the teeth D 104
eyes in the rays D 104
eyes in the grim D 104
eyes at the jury D 104
eyes at my wife D 104
eyes as in hers D 104
eyes to the pink D 103
eyed at the girl D 103
eyes to the pane D 102
eyes on the finger D 102
eyes of the bond D 102
eyes of my crew D 102
eyes as it flew D 102
eyes of the sane D 101
eyed at the tall D 101
eyes on the hazy D 100
eyes as the tall D 100
eyes to the canoe D 98
eyes on the rail D 98
eyes on the film D 98
eyes on the boss D 98
eyes of the slim D 98
eyes of the bees D 98
eyes to the laws D 96
eyes to no spot D 96
eyes of the sans D 96
eyes in the nape D 96
eyed as an eagle D 96
eyes on the yard D 95
eyes of the wall D 95
eyes of thy heart D 94
eyes of the fort D 94
eyes in the hood D 94
eyes as he clung D 94
eyes to the giant D 92
eyes to the bowl D 92
eyes on the pomp D 92
eyes on the hearth D 92
eyes of the task D 92
eyes of the kirk D 92
eyes of the emir D 92
eyes at the grim D 92
eyes of the foul D 91
eyes to the rose D 90
eyes to the mess D 90
eyes to the dais D 90
eyes on the throng D 90
eyes on the eggs D 90
eyes in the pangs D 90
eyed as the next D 90
eyes of an ogre D 89
eyes of an awed D 89
eyes on the turf D 88
eyes on the roll D 88
eyes of the diet D 88
eyes in the pink D 88
eyes as the mere D 88
eyes as it slid D 88
eyed at the road D 88
eyes on the wire D 86
eyes on the skin D 86
eyes on the rows D 86
eyes on the alps D 86
eyes of the drug D 86
eyes of the cock D 86
eyes of the bears D 86
eyes of my mare D 86
eyes in thy soft D 86
eyes at the blur D 86
eyes of the semi D 85
eyes to the rosy D 84
eyes to my sins D 84
eyes on the shoes D 84
eyes on the pier D 84
eyes as the dining D 84
eyed on the sofa D 84
eyes to my soul D 82
eyes on the silk D 82
eyes on the kite D 82
eyes of the wasp D 82
eyes in the steam D 82
eyes at the heaps D 82
eyes as if gazing D 82
eyes to the rows D 80
eyes on the tent D 80
eyes on the gleam D 80
eyes on the cows D 80
eyes on the clay D 80
eyes of the aunt D 80
eyes is at least D 80
eyes at the joke D 80
eyes at the boat D 80
eyes as the tiny D 80
eyed by the fire D 80
eyes to the pine D 68
eyes to the gold D 64
eyes on the swinging D 62
eyes in the fore D 59
eyed in the back D 55
eyes of the sole D 51
eyes on the gaping D 48
eyes of the teen D 48
eyes at the gold D 48
eyes of the wage D 47
eyed at the very D 47
eyes to the iron D 44
eyes in the haze D 43
eyes on the lace D 42
eyes of the sand D 41
