eyes were closed . M 68864
eyes half closed . M 15708
eyes were bright . M 14542
eyes were opened . M 14514
eyes were serious . M 4728
eyes very bright . M 2532
eyes were laughing . M 2386
eyes were turned . M 2318
eyes were anxious . M 1806
eyes grew bright . M 1622
eyes grew serious . M 1476
eyes grew larger . M 1248
eyes were amused . M 1184
eyes were yellow . M 1168
eyes were watching . M 1086
eyes were gentle . M 1074
eyes were intent . M 1070
eyes were swimming . M 1064
eyes were streaming . M 898
eyes were normal . M 814
eyes were hidden . M 736
eyes were narrow . M 698
eyes were furious . M 678
eyes grew darker . M 658
eyes were curious . M 606
eyes were dimmed . M 604
eyes were searching . M 592
eyes were locked . M 574
eyes were defiant . M 558
eyes were strange . M 534
eyes from injury . M 500
eyes were closed ? M 496
eyes have opened . M 496
eyes half opened . M 494
eyes from behind . M 478
eyes well enough . M 476
eyes were accusing . M 462
eyes were tragic . M 424
eyes were earnest . M 406
eyes upon reality . M 396
eyes fell closed . M 392
eyes grew narrow . M 384
eyes were scared . M 356
eyes were better . M 354
eyes look larger . M 350
eyes were kindly . M 348
eyes were fearful . M 338
eyes very serious . M 336
eyes very slowly . M 332
eyes fall closed . M 332
eyes have closed . M 326
eyes were lovely . M 322
eyes fast closed . M 322
eyes were opened ! M 302
eyes were lively . M 302
eyes were remote . M 288
eyes grow bright . M 288
eyes more clearly . M 282
eyes open slowly . M 274
eyes were raised . M 262
eyes were liquid . M 252
eyes were filled . M 250
eyes were darker . M 250
eyes were opened ? M 242
eyes were widening . M 240
eyes grew deeper . M 240
eyes turn yellow . M 234
eyes stay closed . M 232
eyes seem larger . M 232
eyes were closed ! M 226
eyes grow larger . M 226
eyes were inlaid . M 224
eyes were direct . M 220
eyes have changed . M 220
eyes were honest . M 214
eyes were deeper . M 212
eyes into shadow . M 212
eyes will adjust . M 210
eyes were clearer . M 210
eyes were lifted . M 206
eyes turn inward . M 200
eyes open anyway . M 190
eyes were appealing . M 186
eyes have failed . M 186
eyes were greedy . M 184
eyes during prayer . M 176
eyes were bleeding . M 174
eyes were afraid . M 174
eyes were caught . M 170
eyes very widely . M 170
eyes from laughing . M 170
eyes cast upward . M 168
eyes were wicked . M 162
eyes were changed . M 162
eyes ever rested . M 160
eyes grew harder . M 158
eyes from damage . M 158
eyes even further . M 154
eyes wide opened . M 152
eyes look yellow . M 150
eyes wide enough . M 144
eyes more widely . M 144
eyes have caused . M 144
eyes even darker . M 142
eyes came closer . M 142
eyes were enough . M 140
eyes will follow . M 138
eyes upon before . M 138
eyes were crossing . M 134
eyes play tricks . M 134
eyes from sleeping . M 134
eyes upon another . M 130
eyes will suffer . M 128
eyes were sleeping . M 128
eyes look upward . M 124
eyes will result . M 122
eyes very intent . M 122
eyes have closed ! M 122
eyes said enough . M 116
eyes have rested . M 116
eyes grew gentle . M 116
eyes went narrow . M 114
eyes grew anxious . M 114
eyes look darker . M 112
eyes were absent . M 110
eyes very clearly . M 110
eyes from crossing . M 110
eyes went closed . M 108
eyes were calmer . M 102
eyes soon closed . M 100
eyes been opened ? M 100
eyes grew heavier . M 98
eyes were common . M 96
eyes turn upward . M 96
eyes were pleased . M 94
eyes were larger . M 94
eyes open widely . M 94
eyes from widening . M 94
eyes feel better . M 94
eyes were pretty . M 92
eyes were admiring . M 92
eyes were shaded . M 90
eyes were gloomy . M 88
eyes seem darker . M 88
eyes once before . M 88
eyes well opened . M 86
eyes have looked . M 84
eyes were purple . M 82
eyes were insane . M 82
eyes were burned . M 82
eyes went bright . M 82
eyes from strain . M 82
eyes were severe . M 80
eyes half closed ? M 80
eyes even larger . M 80
