okay with the idea D 776
okay with me and D 534
okay with me that D 476
okay with it now D 404
okay but it was D 374
okay and he was D 368
okay but do not D 364
okay with the way D 340
okay and it was D 338
okay with it and D 302
okay with me for D 298
okay and do not D 282
okay you do not D 238
okay with me but D 222
okay with me too D 220
okay with the two D 211
okay for me not D 206
okay with it all D 196
okay for me and D 194
okay with me being D 186
okay and if you D 162
okay for the two D 160
okay that he was D 158
okay with the new D 156
okay with my mom D 150
okay for the man D 150
okay but he was D 144
okay and if she D 142
okay for an old D 140
okay and no one D 132
okay with me going D 122
okay and he did D 114
okay all the way D 114
okay not to get D 106
okay and so are D 106
okay but if you D 104
okay for me but D 102
okay but he did D 102
okay and to see D 102
okay and so was D 102
okay with it too D 98
okay and to let D 98
okay that it was D 96
okay for me too D 88
okay and we can D 88
okay with me now D 86
okay with my dad D 80
okay with it but D 80
okay that he had D 80
