bye and set out M 780
bye and bye they M 660
bye and set off M 494
bye for now and M 493
bye and bye and M 434
bye and bye you M 386
bye and bye she M 255
bye and may god M 172
bye bye for now M 165
bye bye bye bye M 162
bye and see you M 140
bye and that she M 136
bye and she was M 136
bye and was off M 129
bye and got off M 127
bye and ran out M 123
bye and did not M 121
bye and head for M 111
bye and that was M 110
bye and saw him M 90
bye and bye that M 86
bye and bye for M 43
bye and all that M 41
bye and ran off M 40
