set aside for this M 36240
set aside for them M 30092
see where you are M 26312
set apart for them M 22065
set apart for this M 21084
set apart for that M 20684
see where they are M 19689
see where she was M 17366
set aside for that M 16004
see later that this M 15610
set apart for his M 13839
set aside each year M 12078
set aside for his M 11727
set aside for him M 11382
set apart for him M 10954
set apart for god M 9893
see people who are M 9549
set aside for use M 9325
set goals that are M 8652
set aside for her M 8273
see where and how M 8191
set aside for each M 7686
set aside his own M 6241
see where you can M 5969
set aside one day M 5766
see where they had M 5692
set apart for her M 5523
see later how this M 5492
see where this was M 4850
see which way they M 4794
set apart for its M 4704
see where they lead M 4628
set aside for its M 4549
set aside for you M 4388
set aside and that M 4268
set apart one day M 3806
see below that this M 3793
see where all this M 3626
see where she had M 3484
set aside each day M 3416
see every day that M 3354
see which one you M 3132
set aside for any M 3124
set apart for each M 3109
see anything that was M 3018
set aside for one M 2784
set aside for our M 2754
set aside for all M 2730
set about doing this M 2687
set apart this day M 2467
see which one can M 2464
see where they can M 2462
see where you get M 2408
see where they fit M 2389
see which way she M 2258
set aside her own M 2228
see which one was M 2192
set aside our own M 2160
set aside all that M 2150
set apart for our M 2092
seat until his death M 2068
set aside for two M 2061
set aside and not M 2006
set which does not M 1974
seat where she had M 1896
see every day and M 1830
set traps for them M 1825
see which team can M 1807
see others who are M 1721
set apart for any M 1700
set aside for new M 1689
set aside for god M 1686
see people and things M 1656
see where she goes M 1632
see where you fit M 1614
see later that they M 1608
set apart for use M 1530
set aside its own M 1506
set goals for each M 1482
set aside and let M 1476
see women who are M 1461
see anything but his M 1390
set apart for you M 1386
set about his new M 1355
set apart him that M 1352
see where things are M 1342
see women and men M 1333
see every day how M 1290
see which way you M 1264
see where and why M 1238
see people who had M 1222
see right off that M 1205
see where they led M 1204
set apart for all M 1200
set aside for non M 1198
set aside and new M 1192
see which one has M 1169
see where you got M 1164
set within his own M 1146
set which can not M 1136
set aside for men M 1120
see where this goes M 1120
set goals and then M 1086
set aside all his M 1071
see below how this M 1058
see anything that you M 1058
see every man with M 1050
see anything but that M 998
see every now and M 996
set aside for now M 994
see heaven and earth M 986
set about doing that M 985
see until his death M 984
set about him with M 971
set apart each year M 967
set aside and all M 963
set aside for low M 942
set right with god M 941
seat where you can M 930
see later that for M 920
set traps for him M 913
set about his own M 908
set about them with M 902
see where they got M 898
set which are not M 888
seat which she had M 884
see where they get M 864
see anything but her M 852
see which way things M 850
see every day are M 834
see about all that M 829
seat where she was M 828
see where they may M 812
see right now that M 806
see every one who M 796
see which way his M 790
seat until she was M 780
set within its own M 765
see later why this M 760
see while you are M 754
see where you may M 753
set about doing all M 738
set aside and his M 734
see where she has M 732
see father and son M 731
set goals that you M 718
set aside for long M 710
set where they are M 704
set apart for one M 696
see people who can M 690
see below for how M 683
see anything that can M 676
set where you are M 674
set aside for ten M 672
see anything but this M 672
set aside all our M 660
see where you end M 656
see anything that does M 656
set heaven and earth M 654
see which one had M 650
set about using his M 628
set goals that can M 624
see rather than hear M 624
see later that one M 620
see under that head M 616
set aside and they M 602
see people for who M 602
see where they end M 594
set aside for eating M 592
seat where they had M 579
set apart that day M 576
see where you put M 576
set aside for both M 575
see which one she M 574
set goals for them M 570
see later that all M 570
see where you and M 568
see where she got M 566
see anything that has M 566
set aside and for M 564
see where you mean M 564
see people doing things M 562
see where his own M 560
set about doing his M 553
see people that are M 550
set apart for men M 544
see where you had M 544
seat where she sat M 542
see where one was M 536
set goals for his M 534
see where they put M 527
set aside all this M 526
set aside and then M 524
set about this with M 524
set lower than that M 522
seat which they had M 520
see where all that M 511
see where that got M 508
set goals you can M 506
set apart for and M 502
set goals for our M 500
see which one they M 500
set about with all M 498
see later how far M 493
see later how they M 490
set about doing things M 486
see where they all M 486
set aside this day M 484
see below for this M 476
set about his job M 475
set aside and its M 474
set rules for how M 468
see which way this M 454
see under this head M 451
see first one and M 450
see where that led M 448
set aside for six M 443
see which can get M 440
set about with his M 439
see after all that M 439
set aside and are M 438
set times each day M 435
set about its own M 432
set above all things M 423
see today are not M 422
see every day for M 422
see where this new M 420
set smile did not M 419
see every day with M 418
see every day but M 416
see while they are M 410
see where that was M 410
set first and then M 408
see about them and M 406
set aside was not M 404
set apart and not M 404
see entry for may M 403
set about this new M 401
set about with but M 400
set which has not M 397
set apart each day M 396
set aside any law M 393
set price for each M 391
see civil war war M 391
set aside for and M 388
see later that both M 384
see anything that they M 384
set print off set M 383
see until you are M 381
see signs that this M 377
see again and who M 374
set goals that they M 373
see later that his M 372
set right all that M 370
see where this has M 370
see where they lie M 370
see below that for M 370
set aside her cup M 366
see equal pay act M 366
see about you and M 364
set aside for old M 362
see every man who M 362
see about him and M 360
set aside this law M 359
set aside his cup M 358
see which way that M 358
see after his own M 358
set every one his M 356
seat where she and M 354
set aside any act M 352
set aside all but M 352
set about doing with M 352
see where she can M 352
see where god has M 350
see where this one M 344
see where his head M 344
set aside and put M 342
see anything but its M 342
set start and end M 341
set right with him M 334
set about doing them M 334
see about all this M 334
set aside all its M 332
see below that they M 332
set about him and M 331
set which did not M 328
set aside but not M 328
see anything that may M 326
set right our own M 324
set aside does not M 323
see above all his M 322
set aside and this M 321
see where one has M 320
set which was not M 318
set aside this year M 318
see signs that they M 318
set aside for bad M 316
see every man and M 316
see below for his M 316
see anything that did M 316
set aside all her M 312
see today that this M 312
see where this can M 310
set about her new M 308
see worse things than M 308
see anything with his M 308
set traps for her M 306
see where that has M 306
set aside for doing M 305
set aside and pay M 304
see proof that you M 302
see women who fear M 300
see right now was M 300
see which team has M 298
seat lower than that M 296
set aside for war M 294
set aside that day M 292
see later that you M 292
set goals for how M 290
set every day and M 290
see above all that M 285
see every one that M 284
set father and son M 282
set aside all law M 282
set about doing her M 282
see where she put M 282
set aside all idea M 280
set while you are M 279
set about her own M 279
set aside for not M 278
see where that goes M 278
see until they are M 278
see grown men and M 278
see where this path M 277
set aside for being M 276
see later that our M 276
set apart for man M 274
set equal for all M 272
see anything you can M 272
see again that this M 272
see about that job M 272
see where this idea M 270
see state law and M 270
set aside long ago M 269
see anything but you M 269
see girls who are M 268
see anything that had M 268
set aside can not M 266
seat waiting for him M 266
set where they can M 265
set aside any idea M 262
see white men and M 262
see signs that say M 260
see people that you M 260
set traps for you M 259
see reason why they M 256
set aside and any M 254
see world war one M 254
see others that are M 254
set lower than for M 252
see until she was M 252
set which she had M 250
see later that its M 250
see after his men M 248
see about his own M 248
set aside that law M 244
see words that are M 244
see while she was M 244
see brave men die M 244
see again his old M 244
see today did not M 242
see first and then M 242
see which one does M 240
set goals for all M 239
set apart for kings M 238
see where this all M 238
see anything and then M 238
see below and see M 237
see anything but our M 236
see about that too M 235
set goals for you M 234
set goals for him M 234
set aside and was M 234
set apart for being M 234
seat which was not M 234
set until they are M 233
see anything now but M 232
see first how this M 230
set rules that are M 226
see about that and M 226
set aside and with M 224
set apart for two M 224
see waiting for him M 224
see about her and M 224
set about her with M 222
see where this led M 222
see until you get M 222
see light and hear M 222
set goals for her M 221
set water and air M 220
set tasks that are M 220
set rules for all M 220
see where you was M 220
see where god was M 220
see people who did M 220
see later that not M 220
see anything and you M 220
see people doing that M 219
seat where you are M 219
see mother earth her M 218
see later how his M 218
set point and then M 216
set about doing for M 216
set round with all M 215
set rules for this M 214
see where and who M 214
see people and hear M 214
see anything that goes M 214
set goals they can M 213
set about using them M 213
set short and long M 210
set aside for going M 210
set aside all fear M 210
see which way was M 210
see where each one M 210
see anything but sky M 209
set aside and thus M 208
see world war two M 208
see light that has M 208
set aside for team M 206
set about this job M 206
seat where they can M 206
set every day for M 204
set aside with all M 204
set about doing was M 204
see quite how this M 204
see every day who M 204
see entry for that M 204
see again that for M 204
seat after his death M 204
see where his son M 202
see today and how M 202
see people that way M 202
set until you can M 200
set point for each M 200
set aside and can M 198
see signs that she M 198
see first how they M 198
see worse than that M 197
set aside and one M 196
set apart for new M 196
see where her son M 196
see grown men cry M 196
see below for both M 196
see anything that she M 196
see above all things M 196
see below for our M 195
set goals for its M 194
set aside his son M 194
set aside are not M 194
see others who can M 194
see later that with M 194
see green and red M 194
see where she sat M 192
see where one can M 192
see either that they M 192
see anything but him M 192
see black men and M 190
see below for its M 190
seat waiting for her M 189
set since they are M 188
see after they had M 188
seat which was his M 188
set traps for his M 186
set aside two and M 186
set aside this area M 186
see about that one M 185
set later than they M 184
set aside his law M 184
see where her head M 184
set aside and she M 183
set which was now M 182
set aside this weak M 182
see since they are M 182
see people and they M 182
see others and how M 182
see again all that M 181
see where you did M 180
see later that she M 180
see every one has M 180
set while she was M 179
see where this man M 178
see signs that you M 178
see icons for all M 178
set aside any one M 177
set rules for its M 176
set aside now and M 176
see right now how M 176
see later that each M 176
see every day men M 176
set about them and M 175
set goals and how M 174
set apart that they M 174
set apart and are M 174
set about using her M 174
see mother and son M 174
set goals and are M 172
set aside for aid M 172
see people doing this M 172
see icons for each M 172
see above for both M 172
set goals and try M 170
see worse than this M 170
see which way our M 170
see people that see M 170
see anything and was M 170
set aside his fear M 168
see nearly all that M 168
see later how you M 168
see anything they did M 168
set aside may not M 167
see first that you M 167
set about things with M 166
see which way and M 166
see anything and did M 166
see again that they M 166
set goals and use M 165
set above his head M 165
see below that one M 165
see which way her M 164
see today may not M 164
see signs that our M 164
see about that yet M 164
seat while she was M 163
set rules that can M 162
set goals and get M 162
set apart and his M 162
see today was not M 162
see people all day M 162
see easily that this M 162
see anything with all M 162
set point does not M 161
set aside and her M 161
set under his arm M 160
set rules for them M 160
set apart for old M 160
see today that they M 160
see anything and she M 160
see above his own M 160
see above his head M 160
set times for his M 159
set goals that may M 159
set aside but that M 159
set above men who M 158
see which are going M 158
see until they had M 158
see again his own M 158
set apart for death M 156
set apart and that M 156
see where our own M 156
see right now you M 156
see poetry now and M 156
set aside not for M 154
set about his long M 154
see where that one M 154
see today does not M 154
see later that any M 154
see anything that way M 154
seat while you are M 154
set aside all things M 153
set right with you M 152
set aside was that M 152
set aside for death M 152
see where her own M 152
see strong men and M 152
set goals for both M 151
set rules for our M 150
set apart any sum M 150
see signs that read M 150
see right then that M 150
see first that his M 150
see black and red M 150
see about you are M 150
see about that now M 150
seat where they sat M 150
set which has yet M 148
set round with two M 148
set hours each day M 148
set aside his plea M 148
set aside fear and M 148
set aside both his M 148
set apart his own M 148
set about with its M 148
see which one goes M 148
see where things lead M 148
see where that path M 148
see where that man M 148
see every one and M 148
see again and get M 148
seat again and was M 148
see which boy that M 147
set goals too low M 146
set aside and use M 146
see words and that M 146
see women going and M 146
see within our own M 146
see where she and M 146
see every day new M 146
see anything for you M 146
see anything but god M 146
seat until they are M 146
seat after she had M 146
see white men who M 145
set tight and his M 144
set period and then M 144
see where any one M 144
see black men with M 144
set right with his M 143
see entry for this M 143
see again his dear M 143
set where she was M 142
set round with six M 142
set rather than being M 142
set night and day M 142
set aside with his M 142
set aside his old M 142
see which you can M 142
seat waiting for you M 142
seat empty for him M 142
see where they was M 141
see later that two M 141
set which they had M 140
set where you can M 140
set aside for things M 140
set apart for things M 140
set apart for eating M 140
see within his own M 140
see below why this M 140
set exact off set M 139
set apart for non M 139
see later how that M 139
set right and that M 138
set aside and how M 138
set apart all that M 138
set about this was M 138
see others for who M 138
see items that are M 138
see again that day M 138
see about them that M 138
seat which was won M 138
seat until she had M 138
see people and you M 137
set goals for and M 136
set above his own M 136
set about our own M 136
see where his real M 136
see scope for that M 136
see others who had M 136
see night and day M 136
see again our old M 136
see about his son M 136
set aside and each M 134
set about our job M 134
see anything but red M 134
set right with her M 132
set point for that M 132
set lower than they M 132
set aside for man M 132
see which things are M 132
see which and how M 132
see where this may M 132
see first that all M 132
seat after him who M 132
set about his real M 131
see below that both M 131
see again how far M 131
set every man and M 130
set apart for doing M 130
set apart for both M 130
see trees that are M 130
see below that his M 130
see about that for M 130
seat first and then M 130
see people going out M 129
set period each day M 128
set lower than this M 128
set aside one year M 128
set aside one for M 128
see parts two and M 128
see anything with that M 128
see anything they can M 128
see again and that M 128
set price for all M 127
set table for two M 126
set piece that was M 126
set aside that they M 126
see where they did M 126
see others doing things M 126
see later this was M 126
see again that god M 126
see first how far M 125
see every man that M 125
set quite too near M 124
set point can not M 124
set aside and had M 124
see where all her M 124
see people who say M 124
see lines that are M 124
see anything with them M 124
see above and see M 124
seat which does not M 124
set times for each M 123
set apart and put M 123
set aside this one M 122
set aside its old M 122
set about two and M 122
see where you all M 122
see rather than that M 122
see anything for them M 122
seat which was set M 122
set aside for real M 121
set goals for this M 120
set aside for key M 120
see women who had M 120
see where all his M 120
see today can not M 120
see below that all M 120
set times for eating M 119
set traps for each M 118
set aside her fear M 118
see first aid for M 118
see anything and they M 118
seat where they are M 118
set aside for pre M 117
seat until you are M 117
set under our own M 116
set times both for M 116
set about this and M 116
see which way its M 116
see which they are M 116
see people who may M 116
see every day dead M 116
set tasks for them M 115
set still and let M 114
set aside this sum M 114
set aside nor any M 114
set aside for off M 114
set aside any and M 114
set apart any day M 114
see which one got M 114
see which has any M 114
see where his box M 114
see where all our M 114
see parts one and M 114
see others and let M 114
see anything but one M 114
see again how this M 114
see after they are M 114
set every day with M 113
set aside did not M 113
see anything now that M 113
see anything all that M 113
set times each year M 112
set aside one and M 112
see which you are M 112
see which team goes M 112
see which man had M 112
see reason and not M 112
see people who get M 112
see again with you M 112
see again one day M 112
seat taken for her M 112
set while they are M 111
see reason for doing M 111
set round with low M 110
set method for each M 110
set aside with its M 110
see where that can M 110
see right now are M 110
see later how both M 110
see about that this M 110
set which had not M 109
set price and then M 109
set aside any area M 108
set aside and may M 108
set about eating his M 108
see where they hid M 108
see naked men and M 108
see anything but each M 108
set rules can not M 107
see people but they M 107
see blood and death M 107
set aside with that M 106
set aside for fear M 106
set aside and you M 106
see where they lay M 106
see where they cut M 106
see where they and M 106
see rather than how M 106
see people now and M 106
see mother and hear M 106
see first that its M 106
see anything she had M 106
see anything for him M 106
set working man with M 105
set right and they M 104
set about with big M 104
see where they set M 104
see where and with M 104
see right off how M 104
see proof that they M 104
see people and not M 104
see people and get M 104
see forms and hear M 104
see daily with our M 104
see below how they M 104
see below and box M 104
see anything with this M 104
set right for him M 102
set aside his long M 102
set aside for top M 102
set aside both for M 102
set apart men for M 102
see which man was M 102
see which can lay M 102
see where she may M 102
see where she lay M 102
see under his own M 102
see today that all M 102
see signs you may M 102
see below that our M 102
see about her own M 102
seat until her death M 102
seat found for him M 102
set which was then M 101
set terms and yet M 100
set goals and see M 100
set goals and act M 100
set every man you M 100
set aside now that M 100
set about with her M 100
set about using this M 100
set about any new M 100
see worse than they M 100
see women doing things M 100
see which was his M 100
see which can not M 100
see where they run M 100
see where that old M 100
see today are but M 100
see people die and M 100
see light but not M 100
see later how our M 100
see later how and M 100
see first how things M 100
see anything but she M 100
see again one who M 100
see after all this M 100
see about our own M 100
seat which she was M 100
set apart with its M 99
set aside law and M 98
set apart with his M 98
see whose they are M 98
see which team was M 98
see which men are M 98
see which boy had M 98
see where you two M 98
see where they sit M 98
see water that they M 98
see people for him M 98
see people eating and M 98
see later that that M 98
see forms that are M 98
see every day things M 98
see every act and M 98
see could not see M 98
seat every day this M 98
set right things that M 97
set apart and thus M 97
set aside his being M 96
see white men with M 96
see where you now M 96
see where any real M 96
see later that new M 96
see every day can M 96
see cases that are M 96
see burnt one day M 96
see again with his M 96
see after him and M 96
see about them but M 96
seat which had not M 96
set aside his death M 95
see round his head M 95
see rather than read M 95
see below how far M 95
see about this one M 95
set rules for her M 94
set round with long M 94
set right for you M 94
set either too low M 94
set aside this idea M 94
set aside our fear M 94
set aside one set M 94
set about for our M 94
see which are not M 94
see where one had M 94
see under its own M 94
see people this way M 94
see people are not M 94
see first how his M 94
see anything but two M 94
see anything and had M 94
see about her son M 94
seat which did not M 94
set about all this M 93
set under way for M 92
set aside for singing M 92
set aside but for M 92
see which does not M 92
see where that had M 92
see older men and M 92
see first that they M 92
see anything new and M 92
see again that his M 92
see again she was M 92
seat later that year M 92
set apart and was M 91
set traps for our M 90
set traps for one M 90
set might end its M 90
set apart his son M 90
set about doing our M 90
see where its own M 90
see waiting for them M 90
see today are due M 90
see right then and M 90
see first how you M 90
see every one with M 90
see anything you did M 90
see again how his M 90
see about him was M 90
set aside and add M 89
set rules for his M 88
set aside her son M 88
set apart one for M 88
set apart does not M 88
set apart are not M 88
set after him with M 88
see which way god M 88
see which end was M 88
see today that you M 88
see people who use M 88
see later why they M 88
see anything and not M 88
see again that our M 88
see again that all M 88
see about that new M 88
set apart this year M 87
set point and thus M 86
set aside that you M 86
set aside for out M 86
set apart this sum M 86
see today are all M 86
see grown men thus M 86
see first that this M 86
see first how our M 86
see every day too M 86
see below for new M 86
see beauty and use M 86
see anything for all M 86
see again and then M 86
seat until you get M 86
seat until his head M 86
seat under his own M 86
seat under his arm M 86
set about her job M 85
set aside our old M 84
set aside for law M 84
set aside and our M 84
set apart and set M 84
set about eating and M 84
see which man can M 84
see where things led M 84
see where things had M 84
see truths that are M 84
see sound and hear M 84
see proof that she M 84
see people with this M 84
see people with that M 84
see easily that they M 84
see anything that day M 84
see again that man M 84
see after you get M 84
see about our new M 84
seat waiting for them M 84
set tasks for him M 83
set above and one M 83
see every day out M 83
set aside with one M 82
set aside than any M 82
set aside his bow M 82
set apart and can M 82
set about its new M 82
set about doing and M 82
see women doing this M 82
see until they got M 82
see quite how they M 82
see people and how M 82
see others with them M 82
see others doing and M 82
see every one but M 82
see either his own M 82
see again and had M 82
seat until they had M 82
seat until her head M 82
seat every now and M 82
seat beneath him and M 82
set right its own M 80
set order both for M 80
set found its way M 80
set aside and now M 80
set apart and for M 80
set about with fear M 80
set about two things M 80
set about his day M 80
see which was dog M 80
see which dog may M 80
see right now and M 80
see quite how you M 80
see people that they M 80
see later how all M 80
see every one doing M 80
see anything with any M 80
see anything but then M 80
see anything but them M 80
see anything and can M 80
see after her and M 80
set rather than with M 76
see others doing that M 74
set aside for air M 67
set which they can M 66
set point for this M 65
set dialog box and M 65
see which was not M 63
see anything and that M 59
set rather than any M 58
set where she had M 57
set rules for using M 57
set point and that M 57
set goals are not M 57
set which you can M 56
set until you are M 56
set aside for day M 56
set which can then M 55
set goals and that M 54
set aside any that M 54
set which may not M 52
set rules for each M 50
set aside that sum M 48
see civil war and M 48
see later how one M 47
set under heat and M 45
set rather than that M 45
set period each year M 45
set alone does not M 44
set after they are M 44
set above all that M 44
see cause for both M 44
seat built for two M 44
set goals for one M 43
set aside for fly M 43
set shows that this M 42
set black man with M 42
see trees and sky M 42
see below and for M 42
set woman who was M 41
set aside for job M 41
set aside and has M 41
set above them and M 41
see anything new that M 41
set rather than one M 40
set dates for each M 40
set aside was for M 40
set about doing two M 40
see white and red M 40
see again how god M 40
sex roles and sex D 4408
see below and fig D 2112
seat belts and air D 1744
sex roles are not D 1462
sex until they are D 1268
see above and fig D 1234
seat belts are not D 987
sex ratios and age D 814
sex until you are D 752
seat belts and car D 736
sex roles that are D 722
seas within that area D 712
sex roles for men D 708
sex which does not D 660
sex drive does not D 646
sex until you get D 544
seas which are not D 520
sex ratios are not D 502
sex ratios and sex D 500
sex rather than with D 488
set aside for art D 469
sex drive than men D 454
sex until she was D 452
sex alone does not D 451
sex every day with D 438
sex which can not D 428
seas where they are D 424
sex rather than her D 422
seal skins and oil D 410
see stars that are D 406
see cleft lip and D 394
sex while they are D 358
seas which they had D 350
sex ratios that are D 340
sex cells that are D 338
sex roles for both D 332
sex drive and its D 320
sex while she was D 314
sex roles and how D 312
seas fleet did not D 300
sex lives are not D 296
see mother and dad D 284
seas fleet was not D 284
sex alone can not D 280
see below and ref D 276
sex drive and that D 274
sex roles and aging D 273
sex above her own D 270
seat belts for all D 266
see faces that are D 264
set aside for tax D 262
set rates that are D 260
sex roles can not D 258
see above and ref D 254
set aside his pen D 252
sex roles and that D 250
sex while you are D 248
sex which are not D 248
sex drive was not D 248
sex roles did not D 244
seas fleet and its D 244
sex roles and are D 242
sex roles does not D 238
sex ratios for each D 238
set aside ten per D 238
sex roles are being D 232
seas which can not D 232
sex which she had D 230
set afire and then D 230
sex since she was D 228
sex drive and sex D 226
seas which had not D 226
sex drive and his D 224
see finer things than D 224
seat belts and put D 223
sex drive can not D 218
see where they hit D 217
set apart ten per D 208
set aside for hay D 201
seal which they may D 198
sex which did not D 194
sex ratios did not D 194
sex since you are D 192
sex rather than for D 190
sex urges say yes D 188
sex which they had D 186
seat belts and get D 186
seas fleet was out D 186
see where you hit D 184
see where his viol D 184
sex rather than its D 182
seat belts that are D 182
sex every day for D 180
seas where they had D 180
seal which does not D 180
seas which are now D 176
see films that are D 174
seal which can not D 174
sex ratios for both D 172
sex ratios for all D 172
sex until you and D 170
sex drive and may D 168
set focus end sub D 168
sex right then and D 166
see faces and hear D 166
see bench and bar D 166
sex which was not D 164
see which row can D 164
sex drive and are D 162
sex cells are not D 162
sex appeal was not D 162
set aside for fun D 162
seal about his own D 162
sex ratios are low D 160
sex every now and D 160
sex appeal than any D 160
set aside one per D 160
seat belts and head D 160
sex appeal that was D 158
sex alone was not D 158
seas twixt them and D 156
sex rather than being D 152
seat belts and not D 151
sex roles and thus D 150
sex reared its head D 150
see where this guy D 150
sex guilt and sex D 147
sex which you now D 146
sex alone did not D 146
set aside her pen D 146
set afire and was D 146
seas where she has D 146
seat belts did not D 144
sex first and then D 140
seal which they had D 140
sex until they get D 138
set point for fat D 138
see about his car D 138
seas guide for oil D 138
sex trade and its D 136
set apart for thee D 136
sex lives that are D 132
sex appeal and her D 132
see peter and his D 132
sex rather than age D 131
see where this rat D 131
sex roles that they D 130
sex appeal that had D 130
sex after they had D 130
seas fleet had not D 128
sex unions are not D 126
sex roles that has D 126
sex every day and D 126
seal skins and seal D 126
set rates for all D 124
seas which was not D 124
seal which god has D 124
sex cells and are D 122
see stain with his D 122
sex within each age D 120
sex roles and its D 120
see fleet air arm D 120
set aside for thee D 118
see whose car was D 118
see billy and his D 118
seas beneath her bow D 116
sex rather than sex D 114
set aside for sex D 114
set aside for oil D 114
see later and fig D 114
see colds and flu D 114
seal which she had D 114
sex unions can not D 112
sex roles than did D 112
sex roles may not D 112
sex roles and for D 112
see peter pan and D 112
seat belts was not D 112
sex shops and sex D 110
sex drive for both D 110
sex drive and can D 110
seat belts does not D 110
sex which they are D 108
sex holds its own D 108
see smoke and hear D 108
sex rather than any D 106
sex drive and how D 106
sex appeal and his D 106
sex lives and that D 105
set setting set set D 105
sew every day for D 104
see roman art and D 104
seal first had and D 104
seat belts can not D 103
sex roles they are D 102
sex roles and with D 102
see daily that thou D 102
seas which she had D 102
set bells ringing and D 101
sex organ and its D 100
sex drive and with D 100
sex cells and sex D 100
set aside his mug D 100
set aside for car D 100
sex roles are now D 98
sex appeal does not D 98
set aside both earl D 98
see would not now D 98
see anything but fog D 98
seat belts are now D 98
sex ratios can not D 96
sex change was not D 96
set afire and that D 96
seas would not die D 96
seas where they can D 96
set afire and all D 94
set rates for each D 93
sex shall see them D 92
sex roles has not D 92
see where thou art D 92
seas fleet had put D 92
sex roles and has D 90
sex drive and her D 90
sex change does not D 90
set afire and his D 90
sex until she had D 88
sex roles that had D 88
sex roles are far D 88
sex lives than men D 88
sex lives and then D 88
sex appeal for him D 88
set price per ton D 87
sex games with his D 86
see frank and his D 86
sex roles that men D 84
sex knows how and D 84
sex drive that they D 84
sex appeal and she D 84
see which seal was D 84
see bloom that can D 84
seas which did not D 84
seal which was set D 84
seal which was not D 84
seal poked its head D 84
sex roles and age D 83
sex roles has led D 82
sex ratios may not D 82
sex lives did not D 82
sex grows old with D 82
sex games with her D 82
sex drive are not D 82
sex appeal for her D 82
sex appeal did not D 82
sex appeal and was D 82
sex which has not D 80
sex roles than with D 80
sex really does not D 80
sex maniac who had D 80
sex cords are not D 80
sex cells can not D 80
see which car was D 80
see which can hit D 80
see every one gay D 80
seas fleet was now D 80
seat belts and that D 66
sex appeal and that D 55
seat belts and seat D 47
see night and fog D 40
