second in command . M 77169
seemed to require . M 17150
secret of success . M 15182
seemed to increase . M 14680
serves no purpose . M 12810
served the purpose . M 11008
seemed to promise . M 8972
serves the purpose . M 8954
served no purpose . M 8018
seemed to prevail . M 7624
seemed to improve . M 6940
seemed to suggest . M 6014
served as control . M 5648
seemed to possess . M 4576
served in congress . M 4324
secret to himself . M 4164
seemed to justify . M 3784
seemed so familiar . M 3672
seemed to believe . M 3664
seemed to approve . M 3418
secure the victory . M 3330
seemed so natural . M 3150
seemed to prosper . M 3050
seemed to reflect . M 3036
seemed to recover . M 2750
seemed to succeed . M 2632
secret of secrets . M 2300
second of january . M 2282
secret to success . M 2279
secret to herself . M 2264
seemed to decline . M 2080
seemed to dictate . M 2048
served my purpose . M 2022
seemed so distant . M 1894
secure the position . M 1878
secret of liberty . M 1866
secret is revealed . M 1798
second of silence . M 1780
secret is pleasant . M 1724
select the following . M 1715
seemed to confirm . M 1706
seemed to imagine . M 1662
server is started . M 1653
seemed to suffice . M 1638
seemed to proceed . M 1586
seemed to respond . M 1570
server is located . M 1554
seemed so perfect . M 1554
seized the country . M 1360
secret of success ? M 1298
seldom go together . M 1282
senses of insects . M 1280
select the objects . M 1279
seemed to deserve . M 1264
served to confirm . M 1244
seemed to suppose . M 1232
seemed to whisper . M 1198
served as windows . M 1188
secure of victory . M 1182
secret of victory . M 1158
seemed to decrease . M 1112
secret to anybody . M 1068
seemed to lighten . M 1038
seemed so certain . M 1020
second in command ? M 1001
served to increase . M 996
served my country . M 982
served as teachers . M 976
seemed to provide . M 970
select the command . M 962
server by default . M 932
seventh of january . M 920
secure of success . M 916
serves my purpose . M 906
seemed so sincere . M 894
seemed to persist . M 856
seemed to develop . M 856
seemed to satisfy . M 848
seized the capital . M 846
select the picture . M 823
seemed so fragile . M 822
senses of animals . M 821
seemed to triumph . M 804
server in question . M 802
served the country . M 800
seemed to withdraw . M 794
seemed to support . M 764
secret of everything . M 744
seasons of revival . M 740
seemed in control . M 734
seemed to present . M 728
serious the problem . M 714
secure the treasure . M 702
seemed to revolve . M 698
searching the shadows . M 692
served the company . M 688
seemed to survive . M 688
seemed to produce . M 680
second is applied . M 670
server or servers . M 668
senses in general . M 664
serves no function . M 638
secure the country . M 634
second the address . M 630
searching the grounds . M 630
secure an abortion . M 624
served the emperor . M 604
seized the occasion . M 600
seemed so useless . M 594
seemed so unhappy . M 578
served as captain . M 574
server to respond . M 566
seemed so logical . M 566
seemed to inspire . M 564
seemed to attract . M 560
senses of rotation . M 556
select the control . M 556
serves as control . M 554
seemed to contain . M 540
seemed to operate . M 536
secure the capital . M 536
server is listening . M 534
serious an occasion . M 532
securing the victory . M 532
secure the payment . M 526
seemed in question . M 522
seemed to involve . M 520
secret at present . M 513
select the winners . M 512
seasons of devotion . M 504
second to respond . M 503
searching the records . M 500
select the location . M 498
serious as himself . M 496
seemed an illusion . M 494
seemed to benefit . M 492
served in uniform . M 490
seemed to blossom . M 490
secret of history . M 486
seemed to suggest ? M 480
secret of freedom . M 480
select the printer . M 478
secure my freedom . M 468
secret to success ? M 466
securing the position . M 464
serves to explain . M 462
seized the citadel . M 462
secure in himself . M 462
served on request . M 456
secret of religion . M 456
server or network . M 452
secure by default . M 450
serious is happening . M 448
seemed to connect . M 448
second is precious . M 442
serious in purpose . M 438
seemed so threatening . M 436
seemed so genuine . M 434
second the species . M 434
seemed to descend . M 428
served by schools . M 418
seemed to imitate . M 412
served as priests . M 410
seemed to despise . M 404
seemed an outrage . M 400
secure the passage . M 398
seemed to function . M 396
seemed to exhibit . M 396
seemed so precious . M 394
seemed in despair . M 394
served as counsel . M 384
seldom be assured . M 384
select the subject . M 378
seemed so nervous . M 378
secret of affairs . M 374
seldom be avoided . M 372
secure the traffic . M 368
second in command ! M 367
seemed to welcome . M 360
seemed to question . M 360
seemed the solution . M 358
seemed to qualify . M 356
served as editors . M 354
seldom in harmony . M 354
senses to discern . M 352
serious to discuss . M 350
select the material . M 348
served in rotation . M 344
secure the balance . M 344
secure the network . M 340
served so loyally . M 338
select the records . M 338
seemed to delight . M 338
seized by violence . M 334
seemed to endorse . M 330
secret of success ! M 326
seemed so foolish . M 324
securing the country . M 324
second in council . M 322
seasons in advance . M 322
server is stopped . M 320
severe or chronic . M 316
senses of freedom . M 314
seized by customs . M 314
second in priority . M 314
second on average . M 313
seemed to respect . M 312
serves to protect . M 310
secure the borders . M 310
served as members . M 306
served as handles . M 306
served in silence . M 304
seemed so elusive . M 304
seemed no solution . M 304
second to himself . M 304
seemed to surface . M 302
seemed to despair . M 300
securing of justice . M 300
seasons of worship . M 300
second is correct . M 299
sensed the problem . M 298
seemed to command . M 298
secure to himself . M 296
seemed to relieve . M 292
seemed to predict . M 292
serious as marriage . M 290
seemed to believe ? M 290
seemed an affront . M 290
seeker of justice . M 290
secret or mystery . M 289
second to recover . M 286
seemed in trouble . M 284
secret of content . M 284
seemed to display . M 282
seemed so pleasant . M 282
severe to support . M 280
secure my liberty . M 280
server or service . M 278
secret of heroism . M 278
seemed to explain . M 276
seasons of suffering . M 276
second in silence . M 274
seasons on conduct . M 274
severe in punishing . M 272
senses the channel . M 272
seldom be applied . M 272
served at present . M 268
senses in oblivion . M 268
seemed so content . M 268
severe the illness . M 266
select the program . M 266
serves as example . M 264
served at parties . M 260
seemed to disturb . M 260
seemed to advance . M 260
seemed the stronger . M 260
secure the material . M 260
seasons of success . M 260
serves to confirm . M 258
served the summons . M 258
seemed so assured . M 258
served as mentors . M 256
select the members . M 254
seemed in decline . M 254
severe the problem . M 252
serves the country . M 252
secure the results . M 250
secure an alliance . M 248
securing the network . M 246
seemed so intense . M 244
server to clients . M 242
second the request . M 241
serves to confuse . M 240
serious at present . M 240
seemed to promise ? M 240
seemed to achieve . M 240
select the project . M 238
seldom be realized . M 238
secure an advance . M 238
seventh in descent . M 236
served by priests . M 236
sensed my anxiety . M 236
second of exchange . M 235
served no function . M 234
seemed to himself . M 232
served to enhance . M 230
seemed to implode . M 230
secure the benefit . M 230
second is similar . M 230
select the profile . M 228
seemed in command . M 228
secure in herself . M 228
seemed to founder . M 226
second in history . M 226
server to contact . M 224
served in schools . M 224
seemed so dreadful . M 224
secure in position . M 223
serves in society . M 222
select the article . M 222
seemed to control . M 222
seemed to broaden . M 220
seemed to protest . M 218
seldom in question . M 216
secure at present . M 216
serves to connect . M 214
served as adviser . M 212
sensed my thoughts . M 212
select my empress ! M 212
select an account . M 212
seized by despair . M 212
secret of silence . M 212
severe to himself . M 210
select at pleasure . M 210
seldom be trusted . M 210
seemed to embrace . M 210
seemed to consist . M 210
serves as subject . M 208
senses or emotions . M 208
senses of justice . M 208
seemed so worried . M 208
served to produce . M 206
select the function . M 206
second is unknown . M 206
secret to divulge . M 205
select the fittest . M 202
seemed to propose . M 202
seemed to herself . M 202
seemed so endless . M 202
seemed in harmony . M 202
secure the location . M 202
served as sources . M 200
served as shelter . M 200
seized by madness . M 200
severe in females . M 198
served by religion . M 198
seized the treasure . M 198
secure the vessels . M 197
seldom the problem . M 196
secret of ambition . M 196
server is present . M 194
seized by anxiety . M 194
seemed to diverge . M 194
seemed so confusing . M 194
securing the treasure . M 194
served as markers . M 192
senses in himself . M 192
seemed the greatest . M 192
seemed so similar . M 192
secure the patient . M 192
server to process . M 190
served as witness . M 190
seldom be ignored . M 190
secret of failure . M 190
seemed to dislike . M 188
securing an abortion . M 186
severe the penalty . M 184
select the teachers . M 184
seized the preacher . M 184
seemed to acquire . M 184
secret to protect . M 183
serves the occasion . M 182
serves as support . M 182
served as advisor . M 182
seldom be repeated . M 182
severe or extreme . M 180
select the samples . M 180
seemed to inhabit . M 180
secret is exposed . M 180
second to execute . M 180
seemed to declare . M 178
seemed so unusual . M 178
serves the patient . M 174
seldom the reverse . M 174
seemed to receive . M 174
second my efforts . M 174
served as engineer . M 172
seized it roughly . M 172
seemed at present . M 172
seeker of religion . M 172
seasons of leisure . M 172
seasons in history . M 172
secret or private . M 171
severe on himself . M 170
serves no purpose ? M 170
served by silence . M 170
senses of history . M 170
seldom in contact . M 170
seldom be refused . M 170
seemed the reverse . M 170
seemed so hostile . M 170
seemed so familiar ? M 170
seemed so evident . M 170
secret be revealed . M 170
seasons in between . M 170
serves the present . M 168
serious in religion . M 168
seeker of pleasure . M 168
secure the windows . M 168
serious in content . M 164
seemed to neglect . M 164
secret of service . M 164
second is optional . M 163
server to function . M 162
served to protect . M 162
secure the divorce . M 162
seldom be removed . M 160
seemed so peculiar . M 160
searching the catalog . M 160
secret to himself ? M 159
seemed to project . M 158
secure the advance . M 158
senses to function . M 156
select the element . M 156
secure the package . M 156
second or shorter . M 156
server to perform . M 154
served as capital . M 154
serious the illness . M 154
seemed to exclude . M 154
seemed so devoted . M 154
secret to confide . M 154
severe it becomes . M 152
served in private . M 152
served as subject . M 152
seemed to conquer . M 152
secure the alliance . M 152
serves to sustain . M 150
served up together . M 150
securing the divorce . M 150
secret of himself . M 150
server to operate . M 148
served no purpose ? M 148
served as temples . M 148
select the message . M 148
seemed to consent . M 148
secret of marriage . M 148
served by language . M 146
served as prisons . M 146
seemed to reassure . M 146
secret in history . M 146
seasons of marriage . M 146
select the columns . M 145
serves to support . M 144
seemed so welcome . M 144
secret in question . M 143
server to execute . M 142
seemed to falsify . M 142
securing the capital . M 142
secret of society . M 142
second in everything . M 141
severe the effects . M 140
severe an illness . M 140
serious an illness . M 140
select the product . M 140
seldom in dispute . M 140
seemed so hopeful . M 140
secret to worship . M 140
searching the country . M 140
serves the machine . M 138
served is unknown . M 138
select the pattern . M 138
select the channel . M 138
seemed to combine . M 138
second is typical . M 138
second is present . M 138
secure or certain . M 137
server is enabled . M 136
served to obscure . M 136
served the priests . M 136
sensed the urgency . M 136
seldom be omitted . M 136
sensed my concern . M 134
sensed in himself . M 134
seemed to inquire . M 134
securing the product . M 134
select the largest . M 132
secure the product . M 132
secure the present . M 132
second in january . M 132
select the content . M 131
senses to survive . M 130
senses to develop . M 130
select an element . M 130
seemed so careful . M 130
secure the message . M 130
second in numbers . M 130
second to perform . M 129
searching by subject . M 129
senses in turmoil . M 128
select the parties . M 128
seemed to require ? M 128
seemed to enhance . M 128
seemed to destroy . M 128
seemed so subdued . M 128
secure the triumph . M 128
secret of command . M 128
serves to obscure . M 126
served so himself . M 126
served in congress ? M 126
serious to himself . M 126
select in advance . M 126
seized the position . M 126
seemed to envision . M 126
seemed so limited . M 126
second to minutes . M 126
second the attempt . M 126
severe in history . M 124
served to develop . M 124
served by society . M 124
seemed so welcoming . M 124
seemed no problem . M 124
securing the vessels . M 124
secret is balance . M 124
seasons of trouble . M 124
severe or disabling . M 122
serves as capital . M 122
served if desired . M 122
served as material . M 122
select the account . M 122
seldom be secured . M 122
seized the vessels . M 122
seemed to prevent . M 122
secure the verdict . M 122
secure the account . M 122
seasons in question . M 122
server is defined . M 120
served on counsel . M 120
served me loyally . M 120
serious or threatening . M 120
senses in question . M 120
select the victims . M 120
seized the records . M 120
secret of culture . M 120
second to anybody . M 119
second of contact . M 119
served in society . M 118
serious of purpose . M 118
seldom in between . M 118
seemed to possess ? M 118
seemed in turmoil . M 118
second is reduced . M 118
secret in advance . M 117
serves to enhance . M 116
server to support . M 116
served to explain . M 116
served as schools . M 116
seemed to condemn . M 116
secure the project . M 116
secure the bargain . M 116
second is superior . M 116
secure my position . M 115
second in between . M 115
severe on occasion . M 114
served it himself . M 114
served as support . M 114
served as criteria . M 114
serious or chronic . M 114
seemed to scatter . M 114
seemed so familiar ! M 114
seemed so complex . M 114
seemed in dignity . M 114
securing the material . M 114
securing the borders . M 114
secure the marriage . M 114
served or secured . M 112
serious it becomes . M 112
select the default . M 112
select the address . M 112
select an example . M 112
seldom in balance . M 112
seemed so together . M 112
seemed so magical . M 112
seasons to recover . M 112
secure the picture . M 111
server is reduced . M 110
served the college . M 110
senses we possess . M 110
sensed it somehow . M 110
seldom in trouble . M 110
seized it quickly . M 110
seemed so extreme . M 110
secure the decision . M 110
secure in history . M 110
second is omitted . M 109
serious on occasion . M 108
select the numbers . M 108
seemed to balance . M 108
seemed so obscure . M 108
securing the benefit . M 108
secure the service . M 108
secure the animals . M 108
seemed to reverse . M 106
seemed to observe . M 106
seemed to conform . M 106
seemed so selfish . M 106
seeker of history . M 106
securing the results . M 106
secret of control . M 106
searching the vehicle . M 106
served as buffers . M 104
serious an omission . M 104
senses in delight . M 104
seized by remorse . M 104
seemed to testify . M 104
secret of secrets ! M 104
second by default . M 104
searching in general . M 104
severe or intense . M 102
serves to clarify . M 102
serves the function . M 102
server or gateway . M 102
serious or harmful . M 102
second or seconds . M 102
second my desires . M 102
second is invalid . M 102
searching the library . M 102
searching the buildings . M 102
server is operating . M 100
served the society . M 100
senses is limited . M 100
senses in worship . M 100
secure the control . M 100
secure an increase . M 100
secret of balance . M 100
second of grammar . M 100
second is passive . M 100
secret to confess . M 99
severe or painful . M 98
serves the society . M 98
serves the elderly . M 98
serves the company . M 98
served to inspire . M 98
served to correct . M 98
seized the emperor . M 98
seized by illness . M 98
seemed to protect . M 98
seemed to condone . M 98
seemed so private . M 98
secure the vehicle . M 98
secret is unknown . M 97
severe at present . M 96
serves to increase . M 96
serves the species . M 96
serves the request . M 96
seldom be carried . M 96
seized by mistake . M 96
seeker of fortune . M 96
secure my sympathy . M 96
secret of mastery . M 96
secret of devotion . M 96
second in dignity . M 96
searching the unknown . M 96
second in talents . M 95
senses of liberty . M 94
sensed the trouble . M 94
seemed to worship . M 94
seemed to deliver . M 94
seemed to collect . M 94
seemed so awkward . M 94
secret of language . M 94
second is started . M 94
secret to everything . M 93
server is optional . M 92
served or injured . M 92
served on arrival . M 92
served it loyally . M 92
serious the subject . M 92
select the minimum . M 92
seldom of benefit . M 92
seldom be certain . M 92
seized on everything . M 92
secure us victory . M 92
secret of renewal . M 92
secret of harmony . M 92
second in rescues ? M 92
second by himself . M 92
seasons of weakness . M 92
seasons of neglect . M 92
secret to withhold . M 91
serves no purpose ! M 90
served the purpose ? M 90
served in everything . M 90
served as offerings . M 90
serious or sincere . M 90
seemed to concede . M 90
seemed so helpful . M 90
secure the profits . M 90
second in quality . M 90
serves at present . M 88
served to confuse . M 88
served as oracles . M 88
senses to observe . M 88
sensed it himself . M 88
seemed to implore . M 88
seemed the darkest . M 88
seemed so crowded . M 88
secret of victory ? M 88
secret in silence . M 87
serves as guardian . M 86
seldom be noticed . M 86
seized the letters . M 86
seized the company . M 86
securing the animals . M 86
secure it himself . M 86
secret to victory . M 85
senses in dignity . M 84
select the language . M 84
select the criteria . M 84
seldom so applied . M 84
seldom of concern . M 84
seemed the largest . M 84
secure the command . M 84
secure the captive . M 84
secret be revealed ? M 84
second in advance . M 84
seasons of service . M 84
severe in outline . M 82
server is receiving . M 82
server is limited . M 82
served us himself . M 82
served the capital . M 82
served by history . M 82
seemed to treasure . M 82
seemed to enforce . M 82
seemed to applaud . M 82
secure the victory ? M 82
secure my journey . M 82
secret if desired . M 82
second is nowhere . M 82
secure in slavery . M 81
serves to satisfy . M 80
sensed my despair . M 80
seemed the hardest . M 80
seemed so routine . M 80
seemed in spirits . M 80
second the reverse . M 80
second is assumed . M 80
select if command . M 54
served in between . M 52
select the surface . M 51
secure of sympathy . M 50
secret as himself . M 50
second of pleasure . M 49
second to operate . M 47
second to process . M 45
searching of records . M 43
securing of capital . M 41
secure of triumph . M 41
secret on purpose . M 40
second to compute . M 40
second to command . M 40
