turn up a thing M 294
turn to a thing M 259
turn to a no M 113
turn is a by M 96
turn of a wing M 90
turn by a king M 82
turn up a by M 47
tube to a ring D 314
turn to a re D 284
tube at a is D 134
tube on a ring D 130
turn to a sea D 115
tube at d is D 100
tube in a ring D 92
