turning it into a M 134314
turns it into a M 46022
turning me into a M 7622
turning it from a M 3750
turns me into a M 2472
turning us into a M 1570
turning to take a M 1521
turns in such a M 1148
turns it from a M 1053
turning up like a M 962
turns to have a M 858
turns to take a M 856
turns to make a M 774
turning to make a M 722
turning it over a M 694
turns to give a M 668
turns us into a M 657
turning to face a M 648
turns up like a M 640
turns to form a M 636
turning to such a M 557
turns to find a M 554
turning in such a M 502
turns to such a M 472
turns on such a M 460
turning it over i M 446
turning it like a M 438
turns to face a M 425
turning to find a M 422
turning up into a M 412
turns to pick a M 361
turning to what i M 320
turns up only a M 284
turns to keep a M 282
turning to give a M 268
turns on when a M 266
turns to hold a M 244
turns of such a M 230
tutor to make a M 220
turning me from a M 214
turning at such a M 197
turns on what i M 194
turns up into a M 174
turns to play a M 169
turning up when i M 162
turning to cast a M 162
turning as upon a M 158
turning up when a M 154
turns to what i M 153
turning the page i M 148
turning my eyes i M 148
turns up when a M 145
turns on what a M 144
turns it like a M 140
turning to have a M 134
turns in reading a M 132
turns in making a M 128
tutor to have a M 124
turns to draw a M 123
turning up only a M 120
turns to tell a M 119
turning on such a M 119
tutor to take a M 118
tutor is also a M 116
turns on like a M 116
turns me from a M 116
turning the body a M 116
turning as from a M 116
turns in leading a M 114
turning it down a M 114
turning to fire a M 112
tutor in such a M 111
turns to cast a M 110
turns up from a M 109
tutor to whom i M 108
turns up once a M 104
turns it over a M 104
turning the page a M 104
turns us from a M 102
turns in having a M 102
turning to meet a M 100
turning to form a M 100
turns up when i M 99
turning of such a M 99
turning to move a M 98
tutor to such a M 96
tutor to give a M 91
turns to seek a M 90
turning up from a M 88
turns to making a M 84
turns me down i M 82
turning us from a M 80
turns at such a M 62
turns to reach a M 49
turns to open a M 43
tubes in such a D 1778
tuned in such a D 1676
tubes to form a D 963
tuned to give a D 830
tucking it into a D 754
tunic he wore a D 527
tubes to give a D 508
tuned to such a D 466
tumor in such a D 454
turns to throw a D 410
tubes to make a D 393
tubes of such a D 320
tumor is also a D 306
tuned to have a D 276
tunic he wears a D 259
tumor or from a D 252
tucks it into a D 244
turning to wave a D 220
turns the skin a D 218
tubes is also a D 206
turns to roll a D 183
tuned up like a D 164
tuned to play a D 148
tusks in such a D 138
turning to throw a D 134
tumor or even a D 132
tuned to make a D 130
turning at least a D 124
tubes to have a D 122
tumor to reach a D 114
tumor is like a D 112
tubes is only a D 112
tunes in such a D 108
turns up wearing a D 106
tumor to have a D 106
tunic in such a D 102
tunic he drew a D 102
tuned to form a D 101
tuned to pass a D 94
tuned in during a D 92
tunes to make a D 91
turns to ride a D 88
tumor is only a D 88
tubes by adding a D 88
tunic to make a D 82
tubes to blow a D 82
tuned to suit a D 44
