turning now to a M 8548
turning out of a M 3530
turns out in a M 1659
turning them to a M 1516
turning out in a M 1370
turns out as a M 1360
turns out as i M 1197
turning off of a M 880
turning them in a M 776
turns out is a M 717
turning off at a M 710
turns off at a M 690
turning out as i M 668
turning out on a M 656
tutor and as a M 623
turns now to a M 585
turns off in a M 579
turning red as a M 568
turns out be a M 526
turning meat in a M 518
turns them to a M 512
turning off on a M 512
turns out to a M 498
turning them on a M 492
turns out of a M 442
turning then to a M 411
turns out on a M 349
turning out to a M 334
turns red as a M 318
turning out as a M 290
turning off in a M 286
turns and in a M 280
turning him to a M 272
turns him to a M 268
turns off to a M 256
turns red in a M 251
turning out at a M 240
turning off to a M 240
turns off on a M 238
tutor who is a M 237
turning him in a M 236
turns out at a M 227
tutor may be a M 212
turns not to a M 192
turns then to a M 180
turns not on a M 179
turning red as i M 156
turning her in a M 148
turning all of a M 144
turns one at a M 136
tutor out of a M 130
turning off by a M 130
turns them in a M 128
turning her to a M 124
turns out by a M 120
tutor can be a M 113
turns her to a M 110
turns due to a M 100
turning red in a M 100
tutor was in a M 96
turns going to a M 92
turns two at a M 86
turning east on a M 86
turns may be a M 81
turning and in a M 48
turns all of a M 40
tumor may be a D 1588
tubes are in a D 660
tumor was of a D 608
tubes are of a D 428
tubes and as a D 352
tunes out of a D 349
tubes one at a D 343
tubes set in a D 300
tubes act as a D 300
tumor due to a D 281
tubes may be a D 270
tubes can be a D 254
tunes sung by a D 239
tubes and in a D 232
tumor was in a D 228
tuned out by a D 224
tubes lead to a D 204
tubes out of a D 192
tumor can be a D 190
tubes are at a D 190
tubes and is a D 182
tubby man in a D 178
tubes due to a D 176
tunic was of a D 170
tumor and is a D 170
tumor that is a D 166
tumor and as a D 146
tunes are of a D 140
tumid and of a D 132
tubes end in a D 132
tumor and in a D 118
tubes and to a D 114
tumor led to a D 112
tubes led to a D 112
tumor this is a D 111
tunes going on i D 100
tunes set by a D 97
tubes and by a D 96
tubes lying in a D 94
tusks are of a D 90
tugging him to a D 84
tunes are in a D 82
tubes and at a D 80
tubes set at a D 45
