turned to me and M 269744
turned to me with M 61414
turned on or off M 44392
turned to the man M 42091
turned to the east M 31726
turned to the old M 24340
turned to the two M 22080
turned to the new M 21418
turned to the boy M 18272
turned to us and M 18216
turned to the men M 14948
turned up the heat M 12716
turned to the use M 12382
turned to the one M 11248
turned it on and M 10903
turned to me for M 10092
turned to go out M 8925
turned to the sun M 8916
turned on me and M 8452
turned to the sky M 7446
turned up in his M 7418
turned to the idea M 7376
turned on the air M 7356
turned it in his M 7350
turned at the end M 7170
turned up at his M 6980
turned to go and M 6970
turned on me with M 6454
turned to the law M 6363
turned up to his M 6358
turned in the seat M 6296
turned it on its M 5902
turned up to him M 5460
turned on the heat M 5302
turned to it for M 5110
turned to us with M 5016
turned it to his M 4942
turned to an old M 4862
turned up to see M 4772
turned in the air M 4462
turned up at one M 4404
turned up in new M 4305
turned to the big M 3908
turned to the rear M 3896
turned up at her M 3744
turned it so that M 3682
turned up on his M 3498
turned to the earth M 3484
turned to the war M 3466
turned up in our M 3354
turned on so that M 3336
turned up at our M 3322
turned at the top M 3250
turned up on one M 3241
turned to the head M 3237
turned on to his M 3192
turned on the man M 3156
turned to the bar M 3148
turned up at all M 3008
tunnel at the end M 2954
turned to the end M 2897
turned up in this M 2850
turned in my seat M 2785
turned to go but M 2731
turned it in her M 2722
turned up so that M 2664
turned to the far M 2627
turned up in her M 2554
turned on the set M 2541
turned on the old M 2524
turned up to her M 2520
turned to it with M 2514
turned on the two M 2484
turned to the map M 2478
turned on by her M 2458
turned on to her M 2444
turned up on her M 2402
turned in or out M 2379
turned up in one M 2300
turned to the real M 2286
turned to the long M 2246
turned to it and M 2240
turned it up and M 2190
turned to us for M 2170
turned to the dog M 2077
turned to the red M 2064
turned up to hear M 2020
turned to my own M 2018
turned on the new M 1994
turned to go with M 1940
turned up so far M 1908
turned on the seat M 1891
turned up at this M 1878
turned to me then M 1878
turned up the earth M 1824
turned up the path M 1798
turned on by his M 1728
turned in the end M 1725
turned on the red M 1589
turned on by this M 1562
turned on at all M 1556
turned up on its M 1554
turned in at his M 1552
turned up the air M 1544
turned on us and M 1512
turned it on for M 1488
turned to go she M 1476
turned to the god M 1468
tunnel in the sky M 1462
turned on the one M 1436
turned on at any M 1408
turned as if she M 1402
turned up in that M 1399
turned to the path M 1390
turned on in his M 1346
turned to the way M 1328
turned to the day M 1322
turned to the off M 1319
turned to the air M 1256
turned to the son M 1238
turned to the top M 1226
turned on the big M 1222
turned to the box M 1221
turned in to his M 1218
turned up at each M 1184
turned on the men M 1184
turned to the dead M 1182
turned on to its M 1180
turned to the job M 1174
turned up at that M 1152
turned it on him M 1136
turned to the things M 1116
turned up on our M 1104
turned it to her M 1100
turned in by his M 1100
turned up in all M 1094
turned up on end M 1091
turned on the boy M 1090
turned to my son M 1046
turned to the kid M 1042
turned on by that M 1042
turned in to him M 1042
turned on or not M 1038
turned to the poet M 1032
turned up in any M 1024
turned up the long M 1020
turned on in her M 1018
turned in at her M 1018
turned it on her M 984
turned to the now M 974
turned up as far M 966
turned it in and M 940
turned on to this M 932
turned on by him M 920
turned to the non M 906
turned to my old M 896
turned on the idea M 878
turned on the top M 874
turned as he was M 870
turned up at its M 864
turned to me one M 862
turned on the war M 829
turned up at both M 826
turned in at our M 818
turned to the area M 808
turned in to her M 806
turned up to its M 804
turned in to get M 804
turned up by now M 796
turned to go off M 796
turned as if they M 792
turned it in for M 778
turned to the few M 774
tunnel at the top M 762
turned to the team M 756
turned to me was M 752
turned on to them M 752
turned on the use M 750
turned up at any M 738
turned to me his M 736
turned up an old M 732
turned so he was M 726
turned to me now M 716
turned in so that M 706
turned on at this M 704
turned up to say M 696
turned up in due M 686
turned me on and M 686
turned on us with M 678
turned it on his M 672
turned to the eye M 671
turned on to one M 663
turned to the low M 659
turned up as one M 657
turned it to its M 656
turned at the far M 656
turned up in two M 654
turned on me for M 652
turned on it and M 652
turned on by them M 650
turned in at one M 649
turned in by each M 644
turned at the head M 638
turned to the web M 624
turned to the cat M 622
tunnel on the way M 610
turned in to our M 608
turned to the then M 606
turned up by his M 602
turned on the path M 600
turned to the all M 598
turned in the sky M 596
turned in to see M 593
turned to the six M 590
tunnel in the earth M 588
turned up on this M 586
turned on by you M 584
turned on the key M 578
turned up to pay M 576
turned up on each M 576
turned the thing off M 573
turned to the fly M 572
turned up the day M 571
turned up he was M 570
turned on the way M 568
turned on if you M 568
turned it to and M 560
turned on in this M 558
turned on in one M 558
turned it up with M 552
turned in the old M 552
turned to go for M 550
turned to my new M 538
turned on it with M 536
turned up on that M 530
turned to my seat M 529
turned to go his M 528
turned it on with M 524
turned up it was M 516
turned in the mid M 516
turned up in its M 514
turned to the nun M 514
turned by the key M 514
turned on to each M 510
turned to the heat M 495
turned to the key M 494
turned on to him M 492
turned on at one M 492
turned on the dim M 490
turned on me his M 482
turned up or not M 480
turned on the box M 475
turned in by one M 467
turned in to you M 466
turned on at that M 465
turned as it was M 460
turned up to get M 458
turned me in for M 456
turned on the end M 454
turned to it now M 452
turned on by men M 452
turned up at him M 448
turned it to him M 448
turned up on both M 446
turned so as not M 446
turned by the sun M 443
turned on me her M 442
turned up by then M 441
tunnel at the far M 441
turned me to him M 438
turned on by all M 437
turned in the sun M 437
turned in the one M 437
turned to in his M 436
turned on in all M 436
turned in the new M 436
turned up to ask M 435
turned it to one M 435
turned to the dying M 433
turned me so that M 433
turned on by being M 432
turned it so she M 432
turned on an old M 430
turned in my head M 430
turned on to see M 428
tunnel to the east M 426
turned on as she M 418
turned up by this M 416
turned to the poem M 416
turned on me was M 416
tunnel on the far M 414
turned up the end M 410
turned to the aid M 410
turned to be one M 405
turned up to this M 402
turned as the two M 400
turned as he saw M 400
turned up the old M 394
turned up no one M 394
turned to me her M 394
turned to an idea M 390
turned to do his M 388
turned to the sad M 386
turned on so you M 386
turned to no one M 385
turned to the near M 381
turned at the cry M 380
turned on by any M 378
turned in the act M 376
turned on the head M 374
turned on in that M 374
turned on by one M 374
turned in at ten M 365
turned to the pre M 364
turned in the long M 364
turned up as they M 362
turned to us all M 360
turned to me but M 358
turned on me that M 358
turned to the age M 356
turned on the bar M 356
turned on me then M 356
turned me to them M 356
turned in the way M 356
turned up to them M 354
turned as the man M 354
tunnel to the end M 354
turned in to them M 350
turned on by now M 348
turned it up for M 346
turned up in both M 344
turned on the six M 339
turned up by our M 338
turned on the day M 336
turned up on all M 334
turned it on them M 334
turned it to this M 332
turned up at six M 328
turned on the long M 328
turned on in our M 328
turned on the dog M 326
turned in the key M 326
turned up at ten M 325
turned on to you M 324
turned by the old M 324
turned to go get M 322
turned it in all M 320
turned on in each M 318
turned it to use M 318
turned in on his M 318
turned on to that M 314
tunnel to the top M 311
turned to the song M 310
turned to go then M 310
turned on my own M 308
turned on by each M 308
tunnel on the east M 307
turned up no new M 306
turned on in any M 306
turned to the seat M 302
turned to the due M 300
turned to king and M 300
turned as he did M 300
turned to my two M 298
turned as to bring M 298
turned up to put M 296
turned on he was M 292
turned to the bear M 291
turned on to heat M 290
turned in to one M 290
turned to be his M 288
turned to an all M 288
turned in on him M 288
turned in at all M 288
turned as he ran M 288
turned it on low M 286
turned to the death M 284
turned in my own M 284
tunnel in the old M 284
turned to the act M 282
turned up in east M 278
turned on to get M 278
turned up as she M 276
turned on by using M 276
turned to the bag M 274
turned in the big M 274
turned up in each M 272
turned to my men M 270
turned on the low M 270
turned in the path M 270
turned it on one M 268
turned it in with M 266
turned on the ill M 264
turned it to see M 264
turned up to one M 260
turned on the map M 260
turned up the two M 259
turned up by one M 258
turned to go that M 258
turned me to her M 258
turned in by them M 258
turned in by her M 258
turned the king and M 256
turned on it was M 256
turned by the new M 256
turned to the wings M 254
turned me on was M 254
turned it to any M 254
turned up to buy M 253
turned up at new M 253
turned up at two M 252
turned on me one M 250
turned on as they M 250
tunnel at the head M 250
turned on to any M 246
turned on the real M 246
turned on the death M 246
turned in at any M 246
turned up to dry M 245
turned up on two M 244
turned to the myth M 244
turned on by our M 244
turned to an area M 242
turned it to our M 242
tunnel as it was M 242
turned in the day M 241
turned up by that M 240
turned up as yet M 240
turned by the two M 240
turned in at two M 237
turned on to our M 236
turned it to read M 236
tunnel to the new M 236
turned in the two M 234
turned in an arc M 232
turned to me that M 231
turned to the dim M 230
turned by the men M 230
turned as if for M 230
turned on me all M 228
turned on at low M 228
turned to the lead M 227
tunnel at the rear M 227
turned to do her M 226
turned to go they M 224
turned to the bad M 222
turned by the end M 222
turned to the set M 221
turned to the dear M 220
turned to my god M 220
turned to be with M 218
turned on the things M 218
turned in at this M 218
turned to the bow M 214
turned it on all M 214
turned in on its M 214
turned by the way M 214
turned at an odd M 214
turned up on top M 213
turned to the ten M 213
turned it on but M 212
turned to me all M 210
turned it it did M 210
turned in the war M 210
turned in the head M 210
turned it on end M 208
turned to in her M 206
turned in the year M 206
turned in by him M 206
turned in by any M 204
turned on to bring M 202
turned as if with M 202
turned as he had M 202
turned up he had M 201
turned to the easy M 200
turned up to our M 199
turned on in both M 198
turned it in that M 197
turned to go her M 196
turned on the sun M 195
turned up on any M 194
turned to the pit M 194
turned it on this M 194
turned to my dear M 192
turned to the heap M 190
turned on no one M 190
turned in on each M 190
turned by an old M 190
turned up to bid M 188
turned up as his M 188
turned to us who M 188
turned on the ten M 188
turned it on red M 188
turned on as you M 186
turned in at that M 184
tutors at the end M 183
tunnel on the new M 183
turned up to try M 182
turned on by how M 182
turned by the man M 182
turned at the age M 182
turned it on now M 180
turned in to this M 180
tunnel in the area M 180
turned in on one M 178
turned in by this M 178
turned as he sat M 178
turned up of his M 176
turned to in this M 176
turned on to deal M 176
turned on to all M 176
turned up to bring M 174
turned up is not M 174
turned to the dry M 174
turned by the aid M 174
turned at the singing M 174
turned to the log M 172
turned by the heat M 172
tunnel of the old M 172
turned on the saw M 171
turned on the now M 171
turned on by its M 170
turned by the air M 169
turned up to that M 168
turned up in may M 168
tunnel of the new M 168
turned up to god M 167
turned on an air M 167
turned on in its M 166
turned it as far M 166
turned in on her M 166
turned it as she M 164
turned in the man M 164
turned by the use M 164
turned to the net M 163
turned to be not M 162
turned in so far M 162
turned by an act M 162
turned on the east M 161
turned in the top M 161
turned to us his M 160
turned to the weak M 160
turned on is not M 160
turned in the heat M 160
turned to the year M 159
turned to the lay M 159
turned to the meat M 158
turned to me not M 158
turned on the dying M 158
turned it on you M 158
turned in by that M 158
turned in at its M 158
turned up the one M 157
turned it up too M 156
turned in on our M 156
turned up the east M 154
turned in on this M 154
turned by the death M 154
tutors of the day M 152
turned on to run M 152
turned on by both M 152
turned as it did M 152
turned to be our M 150
turned on to use M 150
turned in the dim M 150
turned in by all M 150
turned on the law M 148
turned on so they M 148
turned up the top M 147
turned up in old M 146
turned to the out M 146
turned to the fear M 146
turned in on them M 146
turned as the boy M 146
turned on me too M 144
turned on as long M 144
turned it he saw M 144
turned it on that M 143
turned up the new M 142
turned of my own M 142
turned in my key M 142
turned me in and M 141
turned up so they M 140
turned up in odd M 140
turned on it for M 138
turned as the old M 138
turned up in death M 136
turned on the non M 136
turned on the all M 136
turned at the new M 136
turned at me and M 136
tunnel to the old M 136
turned to the aging M 135
turned to the mid M 134
turned on me now M 134
turned me in his M 134
turned it to let M 134
turned it on yet M 134
turned it in this M 134
turned in or not M 134
turned up to ten M 133
turned to the not M 133
turned to me she M 132
turned up the way M 130
turned up on him M 130
turned up at them M 130
turned to the cup M 130
turned in by our M 130
turned as of old M 130
tunnel to be cut M 130
turned up to fit M 129
turned on the then M 129
turned on the dead M 129
turned to the pro M 128
turned to the com M 128
turned me on with M 128
turned in the box M 128
turned at the man M 128
tunnel to the long M 128
turned to no use M 126
turned on to god M 126
turned in it was M 126
turned up the man M 124
turned to the kings M 124
turned to an easy M 124
turned on by things M 124
turned at the bar M 124
turned on the rear M 123
tunnel at the east M 123
turned to the oak M 122
turned to an ill M 122
turned to an end M 122
turned on to men M 122
turned on in two M 122
turned on at each M 122
turned me to god M 122
turned in an old M 122
turned by the war M 122
turned up to read M 120
turned on the weak M 120
turned as the one M 120
turned as the men M 120
turned the ring and M 118
turned in at each M 118
turned up by any M 116
turned to do this M 116
turned to as bad M 116
turned by my own M 116
tunnel of an old M 116
turned on or that M 115
turned to on all M 114
turned to it not M 114
turned on it can M 114
turned it up all M 114
turned it in its M 114
tunnel to the rear M 114
tunnel of the long M 114
turned up to act M 113
turned in to try M 113
turned to the ill M 112
turned in by two M 112
turned as it had M 112
tunnel of the path M 112
turned up to let M 111
turned up it and M 110
turned up at odd M 110
turned to the run M 110
turned on us for M 110
turned it on she M 110
turned as he got M 110
turned up so few M 108
turned to the and M 108
turned on my head M 108
turned on if they M 108
turned on at its M 108
turned if he had M 108
turned up is that M 107
turned to us that M 106
turned on the log M 106
turned it to new M 106
turned to me out M 105
turned in to ask M 105
turned us in for M 104
turned up the red M 104
turned up in and M 104
turned to ring for M 104
turned to it was M 104
turned it so they M 104
tunnel in the rear M 104
turned to in any M 102
turned by the arm M 102
tunnel is in use M 102
turned to it all M 101
turned up so you M 100
turned up in mid M 100
turned up by them M 100
turned to us was M 100
turned on the far M 100
turned by the long M 100
turned in the east M 99
turned up the big M 98
turned to the wet M 98
turned to my boy M 98
turned to it out M 98
turned on to aid M 98
turned on he can M 98
turned on by doing M 98
turned in the earth M 98
turned on my air M 97
turned me on too M 97
turned up so she M 96
turned to the joy M 96
turned the ring this M 96
turned on the sky M 96
turned to the odd M 94
turned so it was M 94
turned on the few M 94
turned on my way M 94
turned me to this M 94
tutoring me in math M 92
turned up the low M 92
turned up the cup M 92
turned to us both M 92
turned to the meal M 92
turned on the net M 92
turned on the earth M 92
turned it to get M 92
turned up to you M 90
turned to the hue M 90
turned on to new M 90
turned on he had M 90
turned it on was M 90
turned at me with M 90
tunnel to the big M 90
tunnel on the old M 90
turned on us all M 89
turned up the dry M 88
turned up do not M 88
turned to in our M 88
turned so he can M 88
turned on to read M 88
turned on at and M 88
turned it to bad M 88
turned in my old M 88
turned in by now M 88
tunnel so as not M 88
tunnel in the east M 88
tutors in the new M 86
turned up at long M 86
turned on or you M 86
turned me in this M 86
turned it on each M 86
turned in to hear M 86
turned in the pit M 86
turned up by day M 85
turned on the bear M 84
turned on at his M 84
turned me on for M 84
turned it in our M 84
turned in the boy M 84
turned in as they M 84
turned as the sun M 83
turned up by its M 82
turned to us then M 82
turned to us has M 82
turned to the yet M 82
turned on the kid M 82
turned it up real M 82
turned it on both M 82
turned in by its M 82
turned by the poet M 82
turned on the son M 81
turned up at you M 80
turned to the don M 80
turned to an east M 80
turned on my new M 80
turned in in our M 80
turned at the old M 80
turned to the singing M 56
turned in to each M 54
turned up to fix M 49
turned up on set M 48
turned by an air M 48
turned up to top M 47
turned up to sit M 47
turned on is that M 47
turned in to its M 47
turned on in mid M 44
turned in to fit M 44
turned to the cut M 42
turned to an ash M 42
turned up in far M 41
turned on at two M 41
turned in the far M 41
tutors on the one M 40
tumors of the head D 15873
turned on the gas D 15810
turned on the tap D 12510
tumors of the lung D 12368
tucked up in bed D 11943
turned on the hot D 9572
turned on the car D 6466
tumors of the eye D 5782
tucked it in his D 5782
turned to the bed D 5183
turned up the gas D 5046
tunics of the eye D 3980
tucked it in her D 3366
tugged at my arm D 3325
turned in the bed D 3230
turkey at the end D 3214
tugged at the hem D 3210
tubule of the rat D 3043
tumors in the rat D 2816
turkey in the war D 2691
tumors in the head D 2676
turned on the bed D 2488
turned on the fan D 2462
turban on the head D 2407
tucked up in his D 2140
tumors of the jaw D 2094
turkey on the one D 2054
tumbling in the hay D 2016
turned to the earl D 1966
tumult of the day D 1808
tumors in the dog D 1771
turned to the car D 1728
turned to the art D 1695
tufted at the end D 1655
tucked up to his D 1606
tumble in the hay D 1561
tucked up in her D 1446
tucked up to her D 1444
turban on my head D 1400
turned to the guy D 1380
tumors in the lung D 1374
tumbling in the air D 1374
tumors of the rat D 1360
tugged on my arm D 1358
turned on the bath D 1356
turned to the lad D 1336
tugged at it with D 1250
turkey in the east D 1199
tumult in the air D 1194
turned in my bed D 1176
tugged at it and D 1146
tubule of the dog D 1088
tumult of the war D 1053
turnings of the head D 1024
tugged on the hem D 980
tucked me in and D 928
turned in the car D 920
turkey in the mid D 886
tundra of the far D 886
tumbling to the earth D 825
tumble to the earth D 815
turned to the fat D 812
turned to my dad D 811
tumors of the lip D 802
tucked in the top D 774
turkey in the year D 772
tumors of the dog D 769
turned to the cop D 768
turret on the top D 757
turret at the top D 745
tugged at the end D 737
turned up the rue D 736
turkey in the near D 727
tucked me in bed D 727
tufted at the tip D 724
tugged at the long D 704
tugged at the top D 702
tumors in the area D 672
turned to my mom D 668
turned to the mob D 640
tugged at the man D 617
turnings of the sun D 614
tucked in so that D 611
turned to the row D 604
tucked at the end D 598
tumble in the air D 592
tucked up on one D 585
tumult of the mob D 584
tucked in at his D 584
tugged at the old D 578
tucked in at her D 578
turned on the tub D 564
tugged at the bit D 558
turned up the ace D 546
turned to the thin D 540
tumble on the bed D 533
tumors in or near D 532
tuition in the art D 531
turned to the gun D 502
turned to the dean D 502
tufted at the top D 494
turned up the oil D 493
turned by an ass D 493
turned up the car D 480
tugged at the oar D 476
tunnel in the ice D 474
turkey to the east D 461
tumult of the earth D 459
tumble in the mud D 458
tubule in the rat D 458
tumors of the gut D 444
turned in to bed D 439
turret of the lead D 437
turret at the end D 432
tucked in the far D 422
tubers at the end D 414
turner at the end D 412
turned to the pen D 410
tugged at the thin D 410
turned on my bed D 407
tugged at me and D 402
turkey as it was D 398
turned up the hem D 396
turned to the fur D 395
tunnel to be dug D 392
turkey in the new D 384
tumors in the cat D 382
tugged on the end D 376
tumult of the seas D 372
tugged on the lead D 372
tucked it in and D 372
turned to the gang D 370
tumors of the lid D 370
turned to the oil D 364
tugged at the tie D 363
tumult on the day D 350
tucked it in with D 350
turret at the rear D 347
turret of the old D 344
tumors on the head D 344
tundra in the far D 343
tumors of the long D 342
tumors at the end D 338
tugged at the big D 338
tucked up in our D 338
turned up in hoeing D 334
tuition of an old D 334
tugged at the arm D 332
tucked up so that D 332
tumult of my own D 330
tucked up in one D 330
turned to the bay D 326
tumors of the mid D 324
tugged at it for D 324
turned to the trio D 322
tumble of the real D 321
tucked in the end D 321
turned to an icy D 320
turned to the cow D 318
turkey on the east D 318
turned to my hoeing D 312
tugged on it and D 310
tucked in on one D 308
turned up an ace D 306
turned up the fur D 303
turned to the fox D 302
turkey on the eve D 299
turtle at the head D 298
tunics of the men D 296
tuition in the use D 296
tumult of the air D 295
turkey on the way D 294
turkey by the end D 292
tugged at the she D 292
turned to the lion D 288
tumult is at its D 286
tumors by the use D 284
turban on the top D 280
tumors in the two D 279
tumult of the age D 278
tucked in to his D 278
turned to the hot D 277
tumble on the ice D 275
turned me to ice D 268
turned on my car D 264
tumult of sea and D 262
tugged at me with D 262
turned to go aft D 261
turtle to sing you D 260
turned to the pot D 260
turkey it is not D 260
tuition at an out D 255
tumbling to the top D 254
turned up the dial D 252
turned on the beam D 250
tugged at the lead D 250
tumors in the eye D 246
tugged at the leg D 246
turned to the pig D 245
tugged at the red D 244
tugged at the bow D 238
tucked up in its D 238
turned to the bus D 236
turned to the gas D 235
turret at the east D 232
turnings of the path D 230
turned on the oil D 230
turkey in the hay D 228
tumult at the end D 225
tucked in at all D 224
turkey is at war D 222
turkey at the head D 222
tumors to the eye D 222
turned it to ice D 219
turned up the sod D 216
turned to the sub D 216
tumors to the lung D 216
tucked in at one D 216
turned to the cab D 214
turned on the mob D 214
turned to the ice D 213
tutors in the art D 212
turned to the lean D 212
tumbling in the mud D 212
tugged at the lid D 212
tugged at the heath D 212
tugged at the boy D 212
tucked up on her D 212
turned as the car D 210
tugged on it with D 210
turned on the ice D 209
turned up the hot D 208
tugged at the dog D 208
turned it to mud D 207
turret of an old D 204
turkey to an end D 204
turned as in fig D 203
tugged at the two D 203
tugged at the seat D 200
tucked me in with D 200
turkey at the top D 198
tumult of the bar D 198
tugged at the bag D 198
tucked in by his D 198
turned in the vat D 194
tugged at my leg D 194
tucked us in and D 194
tucked in by her D 194
tucked up on his D 192
turned on by sex D 190
tumbling in the sky D 188
tumble to it that D 186
turkey in the area D 184
turned on the dial D 182
tumors it is not D 182
turned to the gay D 180
turkey or to any D 180
turkey at the age D 180
tumult of the way D 180
tumult in the sky D 179
turkey to the pan D 178
tumult of the old D 178
tutoring in the art D 176
turnings of the way D 176
tumult of the sky D 174
turned up my toes D 172
tugged it up and D 172
tucked as it was D 172
tugged on the man D 171
tucked in the rear D 171
turned in the pan D 170
tumbling on to his D 170
tugged at the zip D 170
turned to the pew D 167
tumble to the idea D 167
turned to the hut D 166
turned to ma and D 166
tumult of the new D 166
tumult of the men D 166
tugged on the arm D 166
turned to the tax D 165
turned on the gun D 164
turned on the cot D 164
turkey as it had D 164
tunics as if they D 164
tucked in on all D 164
tucked in the bed D 163
turned in the pew D 162
turkey of the year D 162
turkey is by far D 162
tumors in the long D 162
turner is the one D 160
turned in the ice D 159
turkey is the one D 159
tucked up the bed D 159
turned up the bed D 158
turned on the van D 158
tucked up in that D 158
tucked in the box D 158
turned to the seal D 156
tumble at the end D 156
tugged at the gun D 156
turned to the van D 154
tugged at the head D 154
turner of the new D 153
tumbling on the top D 152
tucked in at both D 152
turtle in the mud D 150
turned to the con D 149
turret of the car D 148
turner as he was D 148
turned by the row D 148
turned to the elf D 147
turned in the mud D 146
turned in the hot D 146
tumult of the riot D 144
tumors of the two D 144
tugged on the leg D 144
turnings at the top D 143
turret in the rear D 142
turned up the fan D 142
turned on the mac D 142
tucked me in for D 142
tucked in an old D 142
tunics of the two D 140
tugged at the box D 140
tumbling in on top D 139
tugged at the peak D 139
turban to the hat D 138
tucked in my bag D 138
tussle as to who D 137
turret on the east D 137
tumbling on the bed D 137
turret to the rear D 136
turret in the old D 136
turned to an art D 136
turkey in the age D 136
turban of the men D 136
turned to the inn D 135
turned up the bay D 134
turned to an ice D 134
turkey on the map D 134
turban in the lap D 134
tumors of the rib D 134
tugged at the dead D 134
tucked in or not D 134
tucked at the top D 134
turret is an owl D 132
turner in the new D 132
turned to the ebb D 132
tumult in my head D 132
tugged at it but D 132
turkey as it has D 130
tuition of the old D 130
tucked it in all D 130
tubule in the dog D 130
tugged on the dog D 129
turtle in the sun D 128
turned to the raw D 128
turned to the lab D 128
turkey or of any D 128
tumors on the one D 128
tumors of the sex D 128
tumors is the use D 128
turned to pa and D 126
turned on the earl D 126
tugged on the old D 126
tucked in as you D 126
turned on the rim D 125
tulips in the sun D 125
turkey in the long D 124
tumors of the leg D 124
tumbling in on you D 124
tulips of the east D 124
tugged at the car D 124
tucked in on both D 124
tucked in my bed D 124
turtle on the top D 123
turned on the jet D 122
turbid at the end D 122
tumbling in my head D 122
tuition the king and D 122
turned to the mud D 121
tumors at or near D 121
turner if he had D 120
turned to the spy D 120
turned to the seas D 120
turned to the cot D 120
turkey on the path D 120
turkey in the way D 120
turban of the east D 120
turban as he was D 120
tugged on the top D 120
tugged at the wet D 120
tucked us in bed D 120
turtle in the air D 119
turned to the kit D 118
turned on the vhf D 118
turned at the tip D 118
tuition of the law D 118
tugged up the hem D 118
tugged at the thong D 118
turnings of the earth D 117
tugged the ring off D 117
turret of the gay D 116
turnings of the war D 116
turned on the thin D 116
turkey as the head D 116
tumult on the long D 116
tugged it on and D 116
tucked in the lee D 116
tucked in the seat D 115
turnings on the way D 114
turned on to sex D 114
turban at the head D 114
turned to thy joy D 112
turbid to the eye D 112
tugged on the long D 112
tucked me up and D 112
tucked up on its D 110
turnings of the year D 109
turned to the tub D 108
turned by the hot D 108
tunnel in the pith D 108
tumult of the era D 108
tumbling of the earth D 108
tumbling in on her D 108
tuition at an ivy D 108
tubers of the two D 107
turner to go with D 106
turned up in bath D 106
turned on the cab D 106
turned in the tub D 106
turkey in the pan D 106
tuition of the two D 106
tucked up the hem D 106
turned to the vet D 104
turned to the sex D 104
tucked up by her D 104
turned to the rat D 103
turned to my bed D 103
turkey on the day D 103
turned up to wear D 102
turned to my cow D 102
turned on to pot D 102
turban in the air D 102
tumors of the non D 102
tumors in the jaw D 102
tumbling on to her D 102
tuition in the new D 102
tucked us in our D 102
turned to the owl D 101
turned to the hon D 101
tuition at the end D 100
turtle at the end D 98
turtle at the bear D 98
turned to the ass D 98
turned on the cop D 98
tucker at the end D 98
tucked up so neat D 98
tucked it in one D 98
tucked in the car D 98
tucked in my head D 98
turned up the lid D 96
tundra at the top D 96
tumult of the big D 96
tumult at the pen D 96
tuition in the year D 96
tugged at the bed D 96
tucked up at his D 96
tucked in on each D 96
turret at the head D 94
turned up in bed D 94
turned to the bath D 94
turned on the pin D 94
turkey in the old D 94
turkey in the air D 94
turban of the old D 94
turban at the top D 94
tumult of the year D 94
tumult of the real D 94
tumult in my own D 94
tumors is as yet D 94
tuition at the new D 94
turtle is as shy D 92
tumult of it all D 92
tumble on my head D 91
turned in the bath D 90
turkey as it did D 90
tunnel in the hay D 90
tumbling on my head D 90
tugged at an old D 90
tubers of the new D 90
turtle as it was D 88
turnings of the old D 88
turner be the say D 88
turned to the fed D 88
turkey on to her D 88
tumors in the low D 88
tumors at the new D 88
tumble in thy bed D 88
tucked in at each D 88
turret to the top D 87
turkey in the end D 87
turned in the swing D 86
turned in the rim D 86
turkey of the one D 86
tumult in the pit D 86
tumult in the long D 86
tumble in on them D 86
tucked in the hem D 86
tuition in an out D 85
turner is in his D 84
tureen at the head D 84
tumult of the two D 84
tumult of the long D 84
tumbling on to its D 84
tugged at the tip D 84
tugged at my tie D 84
tucked me in that D 84
tucked it in its D 84
turnings in the path D 82
turned up the mud D 82
turned on the lad D 82
turkey is the head D 82
tumult of the pit D 82
tucked up by his D 82
turtle is on its D 80
turnip or an egg D 80
turnip in my own D 80
turned to the pan D 80
turned to the ads D 80
turkey is in our D 80
turkey as he was D 80
tumbling in on that D 80
tuition of the boy D 80
tucked in to her D 66
tundra to the east D 61
turned on the neon D 55
tumble in the bed D 55
turkey is the key D 48
tugged at an oar D 47
tumors in the mid D 46
turned to the pug D 45
turkey on the top D 45
tucked in to bed D 45
tumult of the mid D 44
tuition at the law D 44
tugged at the net D 44
tucked in or out D 42
tumbling on the ice D 40
tumble of it all D 40
tucked at the far D 40
