use another one . M 1191
use amongst them . M 1094
using mental math . M 810
use another day . M 544
use without them . M 523
use mental math . M 440
use before then . M 396
use another man . M 278
use another year . M 250
using another one . M 230
use before long . M 214
use before that . M 213
using gentle heat . M 198
use something new . M 196
use around them . M 196
use worrying now . M 184
use planning act . M 164
use fighting them . M 158
using medium heat . M 156
use another way . M 147
use beyond that . M 141
use serves she ? M 124
use toward him . M 112
use behind them . M 106
use before this . M 104
use another set . M 98
use toward you . M 94
use around him . M 92
use another cup . M 92
use worrying her . M 84
use without you . M 81
using another set . M 80
use planning law . M 61
use amongst men . M 48
use without fear . M 45
use before him . M 45
