ugly head . " M 1830
ugly one . " M 1251
ugly things . " M 1154
ugly man . " M 936
ugly too . " M 380
ugly dog . " M 302
ugly one ? " M 262
ugly man ! " M 254
ugly death . " M 254
ugly things ? " M 238
ugly one ! " M 234
ugly now . " M 224
ugly boy . " M 196
ugly men . " M 186
ugly man ? " M 186
ugly way . " M 180
ugly head ? " M 160
ugly head ! " M 160
ugly dog ! " M 132
ugly dog ? " M 122
ugly bear . " M 102
ugly things ! " M 86
ugly lot ! " M 86
