odd that such a M 3908
odd for such a M 491
odd that when i M 310
odd that only a M 196
odd and even a M 171
odd that when a M 146
odd and even i M 134
odd that even a M 128
odd how much i M 96
odd how such a M 90
