odd jobs to help M 1918
odd jobs to make M 1462
odd years of life M 1388
odd jobs as their M 1260
odd jobs to keep M 1230
odd bits of wood M 979
odd bits of work M 723
odd years of their M 670
odd jobs of work M 646
odd jobs at home M 608
odd jobs as well M 530
odd years we have M 480
odd sort of life M 446
odd sort of game M 444
odd bits of cloth M 422
odd jobs in town M 401
odd bits of time M 400
odd bits of food M 400
odd turn of fate M 398
odd bits of land M 368
odd years of living M 345
odd kind of life M 326
odd turn of mind M 312
odd fate of those M 302
odd look on your M 282
odd jobs in their M 276
odd years of work M 273
odd jobs to stay M 266
odd sort of name M 264
odd ideas of what M 220
odd sort of book M 202
odd sort of look M 200
odd sort of dream M 198
odd name to give M 196
odd kind of dream M 188
odd sort of girl M 175
odd days at some M 170
odd sort of peace M 166
odd years of peace M 163
odd goal in three M 150
odd feet in length M 146
odd years or more M 144
odd kind of love M 134
odd jobs as were M 134
odd jobs to save M 132
odd when he said M 130
odd what the look M 130
odd kind of mind M 130
odd bits of data M 130
odd sort of fish M 128
odd kind of fish M 128
odd kind of book M 123
odd years of hard M 122
odd sort of body M 118
odd time to come M 114
odd jobs to feed M 114
odd jobs in other M 114
odd time to make M 110
odd jobs to meet M 110
odd years of your M 108
odd sort of face M 106
odd union is like M 104
odd turn to give M 102
odd time to have M 102
odd jobs he held M 102
odd jobs as soon M 102
odd ends of time M 100
odd bits of bone M 100
odd will be those M 98
odd view to take M 98
odd sort of liking M 93
odd tale to tell M 92
odd sort of love M 92
odd kind of peace M 92
odd look on their M 90
odd ways of these M 88
odd kind of work M 88
odd years of eager M 84
odd ones in town M 83
odd lots of land M 82
odd look he gave M 82
odd fact of life M 80
odd jobs or work M 57
odd from the even M 48
odd sort of half M 46
odd sort of self M 44
odd bits of string D 438
odd kind of fame D 358
odd bits of iron D 308
odd bits of news D 258
odd bits of wire D 230
odd sort of chap D 191
odd bits of rope D 180
odd jobs of sewing D 162
odd from the lips D 160
odd pair of shoes D 146
odd tone of awed D 133
odd kind of garb D 132
odd bits of junk D 129
odd game of golf D 108
odd jobs he took D 106
odd gust of wind D 103
odd bits of silk D 100
ode upon the taking D 96
odd saying of lamb D 94
odd freak of fate D 92
odd kind of laws D 86
odd bits of wool D 86
ode upon the isle D 83
odd heads of taro D 82
odd sort of grin D 80
