odd to think of M 10070
odd to speak of M 5012
odd in view of M 3866
odd to find the M 1734
odd as well as M 1447
odd to talk of M 1178
odd to have to M 1048
odd to look at M 947
odd to have the M 938
odd or even in M 734
odd it felt to M 484
odd to find it M 440
odd to call it M 436
odd to call the M 422
odd to some of M 412
odd to most of M 398
odd to want to M 378
odd it must be M 370
odd to find in M 368
odd to have an M 360
odd thing here is M 342
odd or even is M 328
odd to think he M 305
odd to come to M 272
odd to find so M 260
odd or even as M 259
odd to those of M 258
odd to many of M 258
odd or even by M 248
odd to note the M 236
odd as those of M 234
odd if some of M 210
odd to find an M 204
odd to think it M 196
odd or even or M 188
odd in some of M 188
odd to talk to M 186
odd it will be M 186
odd to feel so M 178
odd as some of M 170
odd to even or M 162
odd if there is M 158
odd to live in M 154
odd on such an M 148
odd to have so M 146
odd to make the M 136
odd to have it M 132
odd to take the M 128
odd to feel the M 128
odd to treat the M 124
odd to have no M 124
odd in such an M 122
odd to deny the M 118
odd or even to M 116
odd to wake up M 110
odd to think we M 110
odd to turn to M 106
odd to find no M 104
odd to call so M 104
odd to think the M 96
odd by most of M 90
odd or even do M 84
odd to speak in M 80
ode in time of D 2629
ode to duty is D 377
ode is full of D 200
ode as well as D 177
ode to tell the D 164
ode is said to D 162
ode to youth in D 102
ode to duty or D 84
ode to duty in D 81
