odds of the game M 970
odds on the other M 584
odds on the side M 574
odds in the past M 514
odds as to what M 476
odds in the game M 452
odds at the time M 418
odds in the face M 312
odds on the next M 302
odds of the best M 300
odds of the same M 282
odds in the case M 275
odds in the early M 244
odds on the game M 230
odds in the heart M 208
odds of the rest M 202
odds in the form M 200
odds of the other M 192
odds in the name M 190
odds to me what M 188
odds in the hope M 186
odds on my side M 174
odds of the next M 170
odds in the same M 158
odds to the other M 146
odds in the book M 144
odds is the ratio M 140
odds is the same M 136
odds to the last M 134
odds in an open M 130
odds in the last M 126
odds on the part M 114
odds in the late M 114
odds on the pass M 111
odds on the same M 104
odds of an early M 104
odds on the fact M 95
odds in the most M 94
odds on the most M 90
odds to the best M 88
odds of the time M 88
odds is the most M 86
odds on so many M 84
odds of the three M 84
odds in the other M 82
odds as to their M 82
odor of the breath D 10629
odor to the breath D 6238
odor in the room D 3022
odor on the breath D 2898
odor to the lord D 2279
odor of the drug D 1817
odor of the food D 1765
odor of the rose D 1386
odds of at least D 1364
odor of the body D 1062
odor of the pine D 1058
odor of the acid D 1021
odor in the breath D 828
odor of the room D 820
odor of the wood D 683
odor of the wild D 648
odor of the skin D 620
odor of the fish D 618
odor of the milk D 606
odor of the other D 518
odor of the soil D 492
odor in the mouth D 478
odor of the bone D 452
odor of the male D 442
odor of the sweat D 433
odor of the wine D 364
odor of the salt D 339
odor of the mouth D 334
odor of the damp D 324
odor of the bait D 324
odor of the past D 320
odor of the dish D 292
odor of the soap D 288
odor of the sage D 276
odor at the time D 274
odes of the great D 274
odor is the most D 266
odor of the ether D 262
odor of the most D 260
odor of the musk D 252
odor of the barn D 246
odor of the tomb D 240
odor of the root D 238
odes in the same D 238
odor is the same D 236
odor to the milk D 228
odor of the beer D 224
odor of the same D 222
odor of the oils D 220
odor of the host D 220
odor of the feet D 220
odor of the ocean D 217
odes of the same D 213
odor of the goat D 208
odds in the race D 208
odor of the city D 203
odor of the lake D 202
odor of the tree D 196
odor of the ideal D 195
odor of the great D 192
odor to the room D 186
odor of the young D 186
odor of the warm D 186
odor of the dark D 182
odor on the wind D 179
odor of the fire D 177
odor of the rain D 176
odor of the hive D 176
odor of the land D 173
odor to the skin D 168
odor of the herb D 164
odor of so many D 164
odor of the girl D 162
odor of the frying D 162
odor at the same D 160
odor of the free D 158
odes is the best D 156
odds on the tote D 155
odor to the food D 154
odor of the glue D 154
odes of the form D 152
odes to the moon D 151
odes to the gods D 151
odes it is said D 150
odor or no odor D 148
odor of the rich D 148
odor of the soup D 146
odor of the lamp D 146
odor in the case D 144
odor of the beast D 140
odor of the poor D 138
odor of the last D 138
odes of the third D 138
odor of the bread D 134
odor in the milk D 134
odor on the skin D 132
odor of the home D 132
odor of the sick D 130
odor of the open D 130
odor is the odor D 130
odor in the nose D 128
odor of the race D 126
odor of the onion D 126
odes of the play D 126
odor of the half D 125
odor of the bark D 124
odor of my body D 124
odor of the nest D 120
odor of the ship D 116
odor of the good D 116
odor in the hall D 116
odds on the race D 116
odor of the drying D 114
odor in the sweat D 111
odor in the same D 110
odor of the lily D 108
odor of the pure D 106
odor of the cave D 106
odor is the only D 106
odor of the thick D 104
odes of the early D 104
odds or at least D 102
odor of the foul D 100
odor to the sweat D 98
odor of the hops D 96
odor in the home D 94
odor in the body D 94
odor to the body D 92
odor of the steam D 92
odor of the pigs D 92
odor of the hour D 90
odor of the early D 90
odor of the corn D 90
odor of the coal D 90
odor of the baking D 90
odor in my hand D 90
odor of the slum D 88
odor of the ripe D 88
odor of the heavy D 86
odor of the cell D 86
odor to the eggs D 84
odor of the spring D 84
odor of the cheap D 84
odor of the bats D 84
odor of an open D 84
odor of an onion D 84
odor at the mouth D 84
odor of the weed D 83
odor of the dirt D 82
odor of the cold D 82
odor of the soft D 80
odor of the many D 80
odor of the living D 80
odor of the ethyl D 80
odes by the same D 80
odor of the rank D 47
odor of the very D 46
odor of the wall D 45
odor of the dust D 42
odor of the vine D 40
