odds and ends of M 135702
odds with those of M 18956
odds and ends in M 10898
odds and ends to M 7854
odds with some of M 4188
odds and ends as M 3584
odds and ends on M 3438
odds with what we M 3404
odds with many of M 3390
odds with much of M 3360
odds with most of M 3358
odds with what the M 3221
odds with what is M 3196
odds and ends he M 2960
odds with what he M 2316
odds and ends at M 1719
odds and ends the M 1444
odds and ends we M 1132
odds are three to M 876
odds with those in M 866
odds are five to M 804
odds and ends is M 694
odds and ends it M 686
odds and ends by M 466
odds with what it M 450
odds are four to M 440
odds and ends or M 435
odds with many in M 414
odds and ends so M 399
odds are more in M 362
odds that there is M 302
odds with such an M 296
odds too great to M 232
odds are nine to M 230
odds that some of M 228
odds are just as M 221
odds had been so M 214
odds are good the M 188
odds are much in M 168
odds are said to M 162
odds with even the M 158
odds and made it M 158
odds are good it M 154
odds for what he M 152
odds for most of M 150
odds with those he M 144
odds and ends up M 142
odds and make it M 136
odds with ideas of M 134
odds are there is M 134
odds are good he M 134
odds and make the M 134
odds and ends my M 132
odds that most of M 126
odds you will be M 122
odds with much in M 118
odds can only be M 118
odds and bits of M 118
odds had been in M 116
odds can also be M 114
odds they were up M 112
odds may seem to M 112
odds with those we M 110
odds with life in M 110
odds with those on M 102
odds with part of M 102
odds and ends no M 99
odds and ends do M 98
odds they have to M 96
odds for much of M 94
odds with what an M 92
odds than those of M 92
odds and went on M 91
odds that when the M 90
odds and take the M 90
odds and ends be M 90
odds with life as M 88
odds that must be M 88
odds you want to M 80
odor that clung to D 550
odor that clings to D 426
odor may also be D 320
odor hung over the D 302
odes and songs of D 278
odds and sods of D 267
odor that made me D 234
odes and book of D 234
odor can also be D 202
odes and songs in D 152
odes and songs to D 144
odor was said to D 142
odor and must be D 142
odor that made the D 140
odes are full of D 138
odor that came up D 132
odor can only be D 116
odor all over the D 116
odes are among the D 112
odes and poems of D 110
odor and there is D 104
odes and those of D 96
odor and feel of D 94
odor that even the D 92
odds and sods in D 92
odor that must be D 90
odor and lack of D 84
