death takes place . M 5582
death within hours . M 1046
deal about people . M 578
dead within hours . M 548
death could occur . M 536
deal about music . M 516
deal about women . M 508
deal about money . M 444
death could sever . M 380
dead shall arise . M 379
death might occur . M 374
dead plant parts . M 374
dead under truce . M 370
death within months . M 348
dead brown leaves . M 336
death agony began . M 322
dear mother again . M 300
deal takes place . M 276
dead takes place . M 276
deal about writing . M 266
dead brain cells . M 248
dead while alive . M 246
dear child again . M 216
dead lived again . M 212
death every night . M 210
deal about poetry . M 210
dead within months . M 196
dead trees above . M 196
dead alive again . M 196
deal taken aback . M 192
dead brown grass . M 184
dead white color . M 180
dead blood cells . M 180
death within weeks . M 178
dead within weeks . M 178
dead seven months . M 174
dead still lived . M 168
dead plant cells . M 166
dear voice again . M 160
dear sweet child . M 160
deal makes sense . M 160
dear father again . M 156
dead though alive . M 156
dead leaves below . M 150
dead eight months . M 146
dead woman walking . M 144
deal about books . M 140
deal about anything . M 136
dead white cells . M 136
dear sweet mother . M 132
death makes sense . M 130
death never comes . M 128
dead since morning . M 128
dead until morning . M 120
dead every night . M 118
death comes calling . M 112
death study group . M 110
dead woman alone ! M 110
death comes about . M 108
dead adult worms . M 108
deal about others . M 106
dead white walls . M 106
deal about teaching . M 105
deal about learning . M 104
deal about birds . M 102
death takes place ? M 100
death while alive . M 96
dead people alive . M 96
death watch began . M 92
dear people again . M 92
dead still lives . M 92
dead above reason . M 90
death until later . M 88
dead every morning . M 88
death shall occur . M 86
death every morning . M 82
deal falling apart . M 40
