deep ocean floor . M 5554
deep blue color . M 5272
deep blue water . M 2798
deep male voice . M 1600
deaths over births . M 1542
deep ocean water . M 1404
deny these facts . M 1238
deep into space . M 984
deaths among women . M 926
deep well water . M 818
deny their guilt . M 796
deep down below . M 708
deep left field . M 618
deep south state . M 589
depth case study . M 522
deep blue light . M 484
deep snow cover . M 472
deep rich brown . M 463
deny their power . M 460
deep cold water . M 452
deaths will occur . M 448
deep breath again . M 426
deep blue night . M 424
deep rich voice . M 410
deny your claim . M 398
deny your major . M 376
deep warm water . M 358
deny their value . M 356
deep clear water . M 354
deep down within . M 334
deep blue shade . M 332
deny your words . M 318
deep root growth . M 318
deep lake below . M 316
deep slow breaths . M 310
deep into sleep . M 308
deep dark woods . M 294
deep dark brown . M 270
deny these facts ? M 254
deep dark green . M 254
deep breath first . M 252
deep rich green . M 251
deep blue heaven . M 248
deep blue green . M 244
deep dark water . M 242
deny their claim . M 240
deaths take place . M 240
deep blue lakes . M 238
deep from within . M 235
deny your motion . M 230
deep open water . M 224
deep into water . M 220
deep blue depths . M 214
debt once again . M 210
debt ever since . M 210
deny these truths . M 208
depth from focus . M 196
deep dark night . M 194
deep among woods . M 192
deem most worthy . M 192
deem most fitting . M 190
deny such facts . M 180
deep soft voice . M 168
deaths were noted . M 166
dealt heavy blows . M 166
deep slow voice . M 165
deep blue above . M 160
deep soft laugh . M 154
deny their force . M 150
deem worth while . M 150
deny your guilt . M 144
deep clear voice . M 144
deep blue black . M 144
deep last night . M 138
deaths from hunger . M 138
deep snow drift . M 132
deep into anything . M 129
deny your guilt ? M 128
deep cool water . M 128
deep peace within . M 126
depth from motion . M 122
dealing heavy blows . M 120
deep cool shade . M 118
deep base voice . M 118
deep ocean floor ? M 112
deep lake water . M 110
deep dark place . M 110
deep blue evening . M 110
deep loud voice . M 108
deep hole below . M 108
deep deep sleep . M 108
deep blue paper . M 108
deep snow below . M 106
debt more easily . M 104
deep blue field . M 102
deep calm voice . M 100
deep blue space . M 100
deny their beauty . M 98
deep healing sleep . M 98
depth ever since . M 96
deny those facts . M 96
deny great value . M 92
deep rich color . M 92
deep heavy sleep . M 92
debt ratio rises . M 92
deny such motion . M 90
debt paying power . M 90
deny your right . M 88
deep snow again . M 88
deep calm sleep . M 88
deep cold lakes . M 86
depth will allow . M 84
deep like water . M 84
debt from growing . M 84
deny their merit . M 82
deep down under . M 62
deep once again . M 51
deep into night . M 51
deep even breathing . M 44
