structure , " which M 5324
statement , " which M 3737
statement : " every M 2682
statement : " since M 2574
statement : " while M 2070
statement : " after M 2009
statement , " every M 1966
stability , " which M 1304
statement : " people M 1300
statement , " people M 1296
stability , " world M 1061
statement : " today M 1036
statement : " where M 964
statement : " under M 941
statement , " since M 914
statement , " where M 786
statement , " after M 766
statement , " while M 712
statement , " women M 674
structure , " paper M 590
statement : " though M 581
statement : " never M 550
statement : " women M 518
structure , " while M 464
statement : " please M 460
statement , " though M 430
statement , " never M 426
statement : " first M 408
statement , " today M 388
statement , " wrote M 358
statement : " warning M 357
statement : " about M 345
statement , " please M 328
statement : " until M 326
structure , " wrote M 324
structure , " since M 324
statement : " human M 311
statement , " under M 298
structure , " where M 290
statement : " within M 290
statement , " human M 280
statement : " given M 274
statement : " based M 246
statement , " about M 241
statement , " either M 236
statement : " either M 234
statement , " crime M 228
statement , " maybe M 216
statement , " first M 213
stupidity , " which M 210
statement : " music M 198
statement : " money M 198
structure , " working M 193
structure , " world M 187
statement , " beauty M 184
statement : " hence M 182
stability , " while M 180
statement , " dated M 178
statement , " anything M 178
statement , " water M 174
structure , " child M 172
statement , " judge M 171
statement : " learning M 168
struggles , " which M 166
structure , " human M 163
structure , " water M 160
structure , " rather M 160
statement : " poetry M 158
statement , " power M 156
statement : " labor M 152
structure , " though M 147
structure , " labor M 146
statement : " water M 146
statement , " given M 144
statement , " father M 144
stability , " paper M 144
statement : " father M 142
statement , " poetry M 141
statement : " right M 140
statement : " maybe M 138
statement : " above M 138
statement , " money M 136
statement : " power M 134
statement , " warning M 134
struggles , " wrote M 132
statement , " until M 132
structure , " whose M 130
structure , " based M 130
statement , " black M 130
statement : " white M 127
statement , " hearings M 126
statement : " still M 122
statement : " anything M 120
statement : " again M 120
statement : " woman M 118
statement : " nearly M 118
statement : " often M 116
statement : " apart M 116
statement , " learning M 114
statement : " rather M 112
statement , " white M 109
structure , " built M 108
statement : " mother M 106
statement : " truly M 104
statement : " speaking M 104
statement : " beauty M 104
statement : " looking M 102
statement , " knowing M 100
stability , " since M 100
statement : " words M 98
statement : " seven M 98
statement , " mother M 98
structure , " people M 96
statement : " value M 96
statement : " group M 96
statement , " woman M 96
statement , " added M 96
statement , " right M 94
statement , " words M 89
statement : " heaven M 87
statement : " thanks M 86
statement , " music M 86
strategic , " which M 84
statement , " could M 84
stupidity , " wrote M 82
statement , " looking M 82
stability , " wrote M 82
stability , " though M 82
structure , " often M 80
statement , " rather M 80
statement : " teaching M 57
statement : " writing M 53
strengthening , " which M 52
statement : " black M 45
statement , " teaching M 42
statement : " judge M 41
statement : " state M 40
