for the moment i M 127828
for the reasons i M 51744
for the moment a M 40554
for the future i M 20226
for the future a M 18035
for the latter a M 12700
for of course i M 12502
for me before i M 11184
for so slight a M 5527
for it seemed a M 5500
for he became a M 5420
for the church a M 5292
for the person i M 5140
for the reaction a M 5064
for the little i M 4864
for the former a M 4792
for the latter i M 4757
for so simple a M 4558
for the letter a M 4301
for it offers a M 4226
for the dangers i M 4222
for it became a M 3926
for the course i M 3872
for the record i M 3784
for so serious a M 3554
for the letter i M 3429
for so little a M 3184
for me unless i M 3160
for an answer i M 3122
for the public a M 3016
for it creates a M 2932
for so signal a M 2838
for so strange a M 2752
for the matrix a M 2652
for the former i M 2622
for it created a M 2618
for it through a M 2536
for the second a M 2468
for it before i M 2440
for by assuming a M 2418
for so sudden a M 2390
for the building a M 2316
for it without a M 2222
for of course a M 2212
for the second i M 2048
for the injury i M 2046
for it except a M 2038
for it showed a M 1956
for me without a M 1878
for in choosing a M 1874
for the family a M 1810
for it allows a M 1784
for he wanted a M 1780
for the honour i M 1726
for the advice i M 1726
for the damage i M 1712
for the better i M 1708
for the amount i M 1696
for the summer i M 1682
for so severe a M 1638
for the system a M 1620
for the writer a M 1606
for it marked a M 1562
for the teacher a M 1555
for the answer i M 1544
for the record a M 1514
for the clothes i M 1490
for the points a M 1485
for he thought i M 1446
for my becoming a M 1442
for the school a M 1404
for the family i M 1376
for the object i M 1370
for he seemed a M 1364
for so sacred a M 1338
for my family i M 1276
for to obtain a M 1270
for the winter i M 1262
for us through a M 1260
for the public i M 1249
for me whether i M 1242
for the summer a M 1210
for to become a M 1204
for the winter a M 1180
for the letter s M 1120
for the church i M 1120
for it covers a M 1112
for the masses a M 1111
for the minute i M 1098
for the sorrow i M 1094
for us without a M 1092
for the better a M 1068
for it causes a M 1036
for so humble a M 1016
for he needed a M 1012
for he thought a M 998
for the changes i M 994
for it formed a M 986
for the states a M 982
for so mighty a M 974
for the harder i M 958
for to attend a M 946
for it raises a M 944
for so violent a M 942
for it proved a M 930
for the factor a M 927
for me through a M 918
for the worker a M 916
for the ground i M 914
for the misery i M 906
for so remote a M 900
for the effort i M 888
for me whilst i M 884
for by applying a M 882
for he played a M 862
for me should i M 854
for he looked a M 854
for it caused a M 834
for the client a M 824
for so obvious a M 816
for the letter t M 807
for the prince a M 805
for he showed a M 800
for so modest a M 794
for the object a M 792
for the values a M 786
for in reality i M 786
for an answer a M 784
for the desire i M 776
for the friend i M 774
for the system s M 773
for the papers i M 768
for it played a M 742
for the points i M 740
for of myself i M 740
for the viewer a M 738
for an object a M 732
for the doctor a M 730
for he created a M 730
for me became a M 728
for the number i M 727
for so subtle a M 726
for so narrow a M 722
for so gentle a M 719
for the strength i M 704
for so famous a M 698
for the training i M 692
for the favour i M 686
for the speaker a M 682
for the choice i M 682
for the paired t M 672
for in myself i M 670
for it opened a M 664
for so marked a M 658
for so lovely a M 656
for the lesson i M 652
for the fright i M 652
for us merely a M 648
for it seemed i M 648
for it before a M 648
for the chance i M 646
for so useful a M 636
for the higher a M 635
for it yields a M 630
for me always a M 628
for me simply a M 626
for he caught a M 626
for the letter d M 615
for is called a M 614
for the speech i M 612
for my brother i M 610
for the founding a M 606
for he quotes a M 606
for the crimes i M 602
for or accept a M 602
for so unjust a M 600
for me almost a M 598
for the feelings i M 594
for so public a M 591
for it unless i M 588
for the amount a M 585
for we obtain a M 582
for he bought a M 572
for it needed a M 570
for the reaction i M 563
for by nature i M 562
for he writes a M 560
for the favors i M 550
for or obtain a M 545
for the losses i M 544
for so costly a M 536
for it appears a M 534
for the system i M 530
for so common a M 528
for so absurd a M 528
for it serves a M 526
for us whether a M 520
for the sample a M 519
for it beyond a M 518
for the figure i M 514
for my friend i M 512
for the mission a M 506
for so abrupt a M 498
for he issued a M 498
for me except a M 496
for the report i M 492
for the effect i M 488
for the relief i M 486
for the animal a M 486
for he turned a M 486
for the market a M 480
for so active a M 474
for it lasted a M 474
for the issues i M 472
for so curious a M 472
for the sooner i M 468
for the doctor i M 468
for it argues a M 464
for it across a M 464
for as simple a M 462
for at bottom i M 456
for so bright a M 452
for the causes i M 448
for so pretty a M 448
for the duties i M 446
for the school i M 440
for or expect a M 436
for the person a M 428
for the mission i M 428
for the matter i M 428
for it teaches a M 426
for the greater a M 421
for the nights i M 416
for the labour i M 416
for the errors i M 416
for me behind a M 416
for me merely a M 414
for so divine a M 408
for the building i M 398
for in reality a M 398
for the various a M 395
for the spirit i M 394
for so feeble a M 392
for the master a M 382
for the anguish i M 382
for he offers a M 378
for the scheme i M 374
for the murder i M 370
for the larger a M 370
for as little a M 369
for the attack a M 368
for he formed a M 368
for it placed a M 364
for to accept a M 362
for the latter s M 362
for the stress a M 361
for so learned a M 360
for the camera a M 356
for so horrid a M 356
for the learner a M 352
for is simply a M 352
for the regard i M 350
for is merely a M 350
for the spirit a M 348
for the sooner a M 348
for it raised a M 348
for he caused a M 348
for he raised a M 346
for he proved a M 346
for the belief i M 342
for me neither a M 342
for he placed a M 342
for so wicked a M 340
for the faults i M 338
for it reaches a M 336
for the manner i M 334
for the couple a M 334
for the blessing i M 334
for the reaction d M 333
for in adopting a M 333
for the worlds i M 332
for the orders i M 332
for so special a M 332
for the voyage i M 330
for the measure a M 330
for he opened a M 330
for so minute a M 328
for the screen a M 326
for he sought a M 324
for my friend a M 323
for the charge i M 322
for he gained a M 322
for by allowing a M 320
for us simply a M 318
for us behind a M 318
for the values i M 318
for the critic a M 318
for the triple a M 317
for my family a M 316
for by adopting a M 316
for to define a M 314
for to enable a M 312
for so tedious a M 312
for the actions i M 310
for the groups a M 309
for to ensure a M 308
for the claims i M 306
for the attack i M 306
for the events i M 302
for the effect a M 302
for the battle i M 302
for so direct a M 300
for the copies i M 296
for the groups i M 292
for so gifted a M 292
for my readers a M 292
for the vowels a M 291
for us almost a M 290
for my brother a M 290
for the design i M 288
for the energy i M 286
for the gospel a M 284
for we killed a M 282
for we expect a M 282
for we needed a M 280
for the reasons a M 280
for the pupils a M 278
for the ladies i M 278
for the volume i M 276
for in becoming a M 276
for the priest a M 274
for so fearful a M 274
for he dreaded a M 274
for us before i M 272
for the insane a M 270
for so varied a M 270
for it exerts a M 270
for we wanted a M 268
for he called a M 268
for so prompt a M 266
for my safety i M 266
for or without a M 264
for me before a M 264
for so strict a M 263
for the ladies a M 262
for the entire i M 262
for the garden i M 260
for the further i M 260
for he signed a M 260
for the owners a M 258
for the course a M 258
for so should i M 258
for me becoming a M 258
for it passed a M 256
for is always a M 256
for by myself i M 255
for the sounds i M 254
for the wisdom i M 252
for the street i M 250
for no better a M 250
for the symbol a M 249
for the events a M 249
for the moment t M 248
for so timely a M 248
for it becoming a M 244
for to secure a M 242
for the signal s M 242
for the second t M 242
for the chosen a M 242
for my future i M 242
for the entire s M 241
for the volume a M 240
for the result i M 240
for or renewing a M 240
for it enjoys a M 240
for the measure i M 236
for so heroic a M 236
for my readers i M 236
for me something i M 236
for by choosing a M 236
for so imposing a M 234
for in planning a M 234
for the result a M 233
for it merely a M 232
for it forces a M 232
for an object i M 232
for us became a M 230
for the pieces i M 228
for so crucial a M 226
for the passion i M 224
for the wounds i M 222
for me except i M 222
for in building a M 222
for he sensed a M 222
for we define a M 220
for the verses i M 220
for so stupid a M 220
for he waited a M 220
for the domain d M 218
for the actors a M 218
for he enjoys a M 218
for the animal i M 216
for it served a M 216
for the matrix s M 215
for the hatred i M 214
for my advice i M 214
for he passed a M 214
for we passed a M 212
for to choose a M 212
for the changes a M 212
for my sister i M 212
for the plants i M 210
for in spirit i M 208
for the wicked a M 207
for it looked a M 206
for in future i M 206
for the stress i M 204
for so envied a M 204
for us always a M 202
for the parent a M 202
for the methods i M 202
for the authors a M 202
for so entire a M 202
for to expect a M 200
for the states i M 200
for the female a M 200
for no greater a M 200
for it evokes a M 200
for he killed a M 200
for the burden i M 198
for the entire a M 197
for the limits i M 196
for the kisses i M 196
for the caution i M 196
for it states a M 196
for us beside a M 194
for us except a M 192
for it showed i M 192
for the brother i M 190
for so lively a M 190
for my return i M 190
for so vulgar a M 189
for is indeed a M 188
for he fought a M 188
for the readers a M 186
for the disease i M 186
for the creation a M 186
for my labour i M 186
for he learned a M 186
for the horror i M 184
for the number a M 183
for we shared a M 182
for the various i M 182
for the proofs i M 182
for it behind a M 182
for by defining a M 182
for the factor i M 181
for to effect a M 180
for so goodly a M 180
for my sister a M 180
for the voyage a M 178
for the profit i M 178
for the choice a M 178
for it rained a M 178
for by becoming a M 178
for the thought i M 176
for the reward i M 176
for the remark i M 176
for the phrase a M 176
for the initial a M 176
for the models i M 174
for the meetings i M 174
for the entail i M 174
for so unique a M 174
for it filled a M 174
for as normal a M 174
for the mystic a M 172
for the babies i M 172
for my starting a M 172
for it breeds a M 172
for he taught a M 172
for he filled a M 172
for the periods i M 170
for the matrix t M 170
for it reached a M 170
for it proves a M 170
for he smiled a M 170
for the matrix d M 169
for to answer a M 168
for the authors i M 168
for it appears i M 168
for we stayed a M 166
for the yellow d M 165
for the entire t M 164
for so urgent a M 164
for it boasts a M 164
for he creates a M 164
for the sounds a M 162
for the praise i M 162
for the phrase i M 162
for the granting a M 162
for the demand i M 162
for me beyond a M 162
for is whether a M 162
for by chance i M 162
for the secret i M 160
for the notice i M 160
for the deceit i M 160
for he seized a M 160
for the images i M 158
for the fiction i M 158
for the damage a M 158
for the answer a M 158
for it argued a M 158
for he paused a M 158
for by imposing a M 158
for an honour i M 158
for the sister i M 156
for the signal a M 156
for the memory i M 156
for in studying a M 156
for the common a M 155
for it wanted a M 154
for it breathes a M 154
for he pulled a M 154
for in itself a M 153
for the market i M 152
for so potent a M 152
for so formal a M 152
for my master a M 152
for me seemed a M 152
for it almost a M 152
for is become a M 152
for he spends a M 152
for the writer i M 150
for the shares i M 150
for the normal t M 150
for the helper t M 150
for the weight i M 146
for my dwelling a M 146
for in crossing a M 146
for us become a M 144
for the victim a M 144
for the camera i M 144
for the adults a M 144
for my feelings i M 144
for it stands a M 144
for me inside a M 142
for if indeed i M 142
for to violate a M 140
for the temple a M 140
for the stable a M 140
for the plight i M 140
for my lesson i M 140
for the topics i M 138
for the pardon i M 138
for the center a M 138
for the actual i M 138
for so valiant a M 138
for he quoted a M 138
for as pretty a M 138
for so modern a M 137
for the reality i M 136
for the guests a M 136
for the earlier a M 136
for my voices i M 136
for in effect i M 136
for the coward i M 134
for so honest a M 134
for it denies a M 134
for is something i M 134
for in removing a M 133
for us before a M 132
for the sample i M 132
for the fellow i M 132
for the battle a M 132
for to remove a M 130
for the window i M 130
for the points d M 130
for the dreamer a M 130
for the column i M 130
for my reward i M 130
for me become a M 130
for it turned a M 130
for it admits a M 130
for is itself a M 130
for an injury i M 130
for the teacher i M 128
for the degree a M 128
for the access i M 128
for the vulgar a M 126
for the novice a M 126
for the edition i M 126
for the design a M 126
for so secret a M 126
for it forced a M 126
for the judges a M 124
for the disease a M 124
for so devout a M 124
for he begins a M 124
for we desire a M 122
for me beside a M 122
for it called a M 122
for is neither a M 122
for he joined a M 122
for by securing a M 122
for the reaction s M 121
for so little i M 121
for the further a M 120
for no larger a M 120
for my papers i M 120
for he served a M 120
for as honest a M 120
for the various t M 118
for the tenant a M 118
for the talent i M 118
for the higher i M 118
for my clothes i M 118
for me around a M 118
for the reaction t M 116
for the masses i M 116
for the maiden a M 116
for the guilty a M 116
for so mature a M 116
for on monday i M 116
for it unless a M 116
for it simply a M 116
for he allows a M 116
for the models a M 115
for the victor a M 114
for the emotion i M 114
for the doubts i M 114
for so futile a M 114
for me across a M 114
for it evoked a M 114
for in pursuing a M 114
for the normal a M 112
for the labors i M 112
for the devout a M 112
for the degree i M 112
for or demand a M 112
for my rights i M 112
for the visits i M 110
for the various s M 110
for the second s M 110
for the return i M 110
for the murder a M 110
for the fields i M 110
for the energy a M 110
for the client i M 110
for or permit a M 110
for it starts a M 110
for by building a M 110
for the public s M 109
for the agency a M 108
for he shared a M 108
for he orders a M 108
for by quitting a M 108
for as strange a M 108
for to borrow a M 106
for the forest a M 106
for so choice a M 106
for my powers a M 106
for the lowest s M 104
for the impact i M 104
for the escape i M 104
for my actions i M 104
for it begins a M 104
for an excuse i M 104
for the person s M 103
for to myself i M 102
for to arrest a M 102
for the version i M 102
for the training a M 102
for so joyful a M 102
for me thought i M 102
for it drives a M 102
for it claims a M 102
for the younger a M 101
for the future t M 101
for we caught a M 100
for to follow a M 100
for the guests i M 100
for so tragic a M 100
for my spirit a M 100
for he walked a M 100
for the ground a M 99
for we assume a M 98
for to impose a M 98
for the renewing a M 98
for the readers i M 98
for the impact a M 98
for the client s M 98
for the choosing a M 98
for an animal i M 98
for the minute a M 97
for to suffer a M 96
for to attack a M 96
for the utmost i M 96
for the theories i M 96
for the strain i M 96
for the return a M 96
for the excuse i M 96
for the winner a M 94
for the safety i M 94
for the object t M 94
for the bottom a M 94
for so lonely a M 94
for my pupils a M 94
for my degree i M 94
for he reached a M 94
for by offering a M 94
for the tricks i M 92
for the securing a M 92
for the priest i M 92
for the master s M 92
for the gathering a M 92
for the effort a M 92
for the combat a M 92
for the abuses i M 92
for my sanity i M 92
for it amongst a M 92
for is clearly a M 92
for as severe a M 92
for we follow a M 90
for us around a M 90
for the riches i M 90
for the garden a M 90
for the actors i M 90
for it avoids a M 90
for in securing a M 90
for he wished a M 90
for he lifted a M 90
for us beyond a M 88
for to refuse a M 88
for to realize a M 88
for the member a M 88
for the editor a M 88
for the credit i M 88
for the closer a M 88
for it become a M 88
for he claims a M 88
for as serious a M 88
for we notice a M 86
for the relief a M 86
for the prayer i M 86
for so ethereal a M 86
for no higher a M 86
for my prince a M 86
for my belief i M 86
for it beside a M 86
for in assuming a M 86
for the heavier a M 85
for the voices i M 84
for the expert a M 84
for the exiles a M 84
for the circle a M 84
for the avoiding a M 84
for the affair i M 84
for on becoming a M 84
for me indeed a M 84
for at school i M 84
for an amount i M 84
for us should i M 82
for to attain a M 82
for the trauma i M 82
for the script i M 82
for the prince i M 82
for the injury a M 82
for the debate i M 82
for the crossing a M 82
for my answer i M 82
for it shares a M 82
for it builds a M 82
for in handling a M 82
for he stayed a M 82
for as narrow a M 82
for as merely a M 82
for the rulers a M 80
for the candle i M 80
for the autumn a M 80
for tea before i M 80
for so zealous a M 80
for it whether i M 80
for it sought a M 80
for in thought i M 80
for he denies a M 80
for he admits a M 80
for an animal a M 80
for the vowels i M 63
for the periods t M 55
for the entire d M 49
for the initial s M 48
for an amount a M 48
for the simple d M 44
for the domain a M 44
for so trifling a D 3740
for so paltry a D 2768
for it reveals a D 2658
for so trivial a D 2108
for the sodium d D 1890
for the office i D 1834
for the artist a D 1816
for so singular a D 1644
for the french a D 1612
for the series a D 1204
for so solemn a D 1117
for the empire a D 1072
for the colony a D 1052
for the opinion i D 996
for so sweeping a D 994
for the erecting a D 958
for the infant a D 834
for the office a D 828
for so speedy a D 793
for the vector a D 788
for the farmer a D 772
for my opinion i D 744
for so tender a D 706
for so charming a D 705
for so clever a D 676
for so striking a D 662
for the allies a D 660
for the morrow a D 642
for the station i D 632
for it places a D 628
for the papacy a D 600
for the dinner i D 592
for the museum a D 558
for so august a D 540
for so recent a D 534
for by positing a D 525
for the places i D 524
for the tension t D 516
for the county a D 501
for it struck a D 500
for the insult i D 494
for as speedy a D 468
for it lacked a D 466
for the career i D 464
for so amiable a D 460
for the horses i D 444
for the series i D 442
for the french i D 432
for the sultan a D 428
for the trifle i D 426
for the senate a D 426
for the torque t D 420
for the settling a D 416
for in section i D 414
for by section i D 402
for the clergy a D 380
for to strike a D 374
for it posits a D 372
for an opinion i D 372
for the police a D 370
for the coffee i D 370
for an infant a D 364
for he lacked a D 362
for so ardent a D 358
for the salary i D 322
for the sermon i D 314
for the cattle i D 308
for the curves a D 305
for the slaves a D 304
for the peasant a D 304
for the island a D 300
for my supper i D 300
for the miners a D 297
for my dinner i D 294
for the bishop a D 292
for the voiced th D 289
for in pitching a D 284
for the skills i D 282
for the bottle i D 280
for so bitter a D 276
for the troops i D 274
for the station a D 272
for the layman a D 262
for the native a D 261
for the police i D 260
for an island a D 260
for so spreading a D 254
for the diamond i D 250
for the section a D 249
for so inland a D 246
for the painting i D 242
for the novels i D 242
for he talked a D 242
for so hideous a D 238
for the stoics a D 236
for the electing a D 234
for so exacting a D 232
for the estate a D 228
for the troops a D 224
for the flight i D 224
for an artist a D 224
for the senate i D 222
for so astute a D 220
fox is always a D 216
for the terror i D 214
for the morrow i D 214
for an encore i D 212
for the scenes i D 208
for the regime a D 208
for the radius a D 206
for the colony i D 202
fog is simply a D 199
for my needle i D 198
for so fierce a D 196
for so shrewd a D 192
for the pistol i D 190
for the lovers a D 190
for the courts a D 188
for the policy i D 186
for so quaint a D 186
fog is merely a D 186
fox is called a D 184
for the seller a D 184
for the drinks i D 184
for as stanch a D 182
for so ruffian a D 178
for so benign a D 178
for the horses a D 174
for so dubious a D 174
for so casual a D 174
for the movies i D 172
for so obliging a D 172
for the sabbath a D 168
for the dollar a D 168
for so humane a D 168
for the ticket i D 166
for so superb a D 164
for the inputs a D 163
for the section i D 162
for the photos i D 162
for my supper a D 162
for the repose i D 160
for the cattle a D 160
for so dainty a D 160
for the blacks a D 158
for he beheld a D 158
for the sketch i D 156
for the pooled t D 155
for by invoking a D 155
for the stones i D 154
for on entering a D 154
for by charging a D 154
for the sinner a D 153
for so tempting a D 152
for he struck a D 152
for the hunter a D 150
for an office i D 150
for to settle a D 148
for the mirror a D 148
for the metals a D 148
for the island i D 148
for an artist i D 148
for the whites a D 146
for my refuge i D 146
for he founds a D 146
for the diamond a D 145
for the parish a D 144
for the copper t D 144
for my ticket i D 144
for the seducing a D 142
for or render a D 142
for of rhymes i D 140
for the pueblo i D 138
for the sights i D 134
for so bloody a D 134
for my coffee i D 132
for so ingenious a D 130
for thy renown a D 128
for the dollar i D 128
for the cornet a D 128
for so exciting a D 128
for so polite a D 126
for so coarse a D 126
for the enzyme a D 125
for the drawings i D 124
for so robust a D 124
for so barren a D 124
for as trivial a D 124
for the outfit i D 122
for the farther i D 122
for the cuckoo i D 122
for so scanty a D 122
for it smokes a D 122
for the portion i D 120
for the finale a D 120
for the cigars i D 120
for so homely a D 120
for the indies a D 118
for sea without a D 118
for the portion a D 116
for in august a D 116
for the survey i D 114
for the stairs i D 114
for the rebels a D 114
for the houses i D 114
for so craven a D 114
for so chatty a D 114
for the tension i D 112
for the surgeon a D 112
for the regions i D 112
for the painting a D 112
for the cathode a D 112
for the artist i D 112
for the airbus a D 112
for it paints a D 112
for to launch a D 108
for the session a D 108
for the grades i D 108
for so unholy a D 108
for so flimsy a D 108
for the survey a D 106
for the magnet a D 106
for the jewels i D 106
for the jacket i D 106
for the farther a D 106
for the pulpit a D 104
for the debtor a D 104
for so sinful a D 104
for so placid a D 104
for so clumsy a D 104
for my refusing a D 104
for it clasps a D 104
for the ritual i D 102
for the rabbis a D 102
for the device i D 102
for the nations a D 101
for the steamer i D 100
for the spider a D 100
for the cannon i D 100
for he places a D 100
for the supper i D 98
for the session i D 98
for the gentry a D 98
for the dishes i D 98
for an office a D 98
for the regions a D 97
for we talked a D 96
for the psalms i D 96
for the jurors a D 96
for so rueful a D 96
for the pencil a D 94
for the mounting a D 94
for the grower a D 94
for the estate i D 94
for the sphere a D 92
for the bridge a D 92
for so brutal a D 92
for as recent a D 92
for the plates a D 90
for the orator a D 90
for the nurses i D 90
for the notions i D 90
for the lawyer a D 90
for the holder a D 90
for the flower i D 90
for so dismal a D 90
for the soviet t D 89
for to morrow i D 88
for the solace i D 88
for the sabbath i D 88
for the revenge i D 88
for the bullet i D 88
for the player a D 86
for the lender a D 86
for the county i D 86
for the chapel a D 86
for my career i D 86
for in places a D 86
for by exacting a D 86
for the scolding i D 84
for the review i D 84
for the menage a D 84
for the esteem i D 84
for my office i D 84
for my dinner a D 84
for an outfit i D 84
for the duller a D 82
for the diocese a D 82
for the cinema a D 82
for he darted a D 82
for the whipping i D 80
for the parcel i D 80
for the vector s D 54
for in section a D 51
for the grades a D 47
