for a time . M 1059722
for a week . M 615960
for a month . M 339700
for a living . M 295444
for a walk . M 271906
for a living ? M 78758
for a rest . M 59048
for a swim . M 51766
for a girl . M 47670
for a date . M 46590
for a book . M 45880
for a kiss . M 39440
for a home . M 37718
for a cure . M 37600
for a hearing . M 36994
for a fact . M 35478
for a break . M 32314
for a fool . M 32026
for a sign . M 31796
for a walk ? M 31124
for a test . M 28738
for a word . M 27742
for a talk . M 25960
for a baby . M 25848
for a lady . M 24210
for a room . M 22632
for a look . M 22194
for a treat . M 21470
for a fire . M 21404
for a copy . M 21012
for a trial . M 20224
for a fall . M 20168
for a game . M 19664
for a play . M 19358
for a life . M 19126
for a loop . M 19012
for a week ? M 18652
for a third . M 18616
for a name . M 17858
for a mate . M 16848
for a week ! M 15892
for a time ? M 15690
for a mile . M 13848
for a trip . M 13828
for a debt . M 13814
for a show . M 12590
for a city . M 12576
for a gift . M 12510
for a term . M 12284
for a ship . M 11714
for a call . M 11522
for a pass . M 10746
for a clue . M 10410
for a loss . M 10338
for a month ? M 10318
for a door . M 10200
for a spring . M 9700
for a part . M 9464
for a breath . M 9424
for a town . M 9404
for a file . M 9348
for a bank . M 9286
for a tour . M 9126
for a fool ? M 8934
for a lift . M 8900
for a month ! M 8714
for a site . M 8684
for a blow . M 8366
for a user . M 8342
for a peace . M 8214
for a dream . M 7858
for a hero . M 7840
for a road . M 7470
for a union . M 7332
for a single . M 7304
for a move . M 7052
for a swim ? M 7026
for a date ? M 7016
for a tree . M 6886
for a cold . M 6860
for a base . M 6542
for a theory . M 6498
for a goal . M 6364
for a turn . M 6216
for a body . M 6200
for a rise . M 6084
for a plan . M 6038
for a male . M 5998
for a list . M 5746
for a hunt . M 5670
for a good . M 5666
for a reading . M 5660
for a fish . M 5620
for a tail . M 5592
for a case . M 5382
for a stay . M 5262
for a nest . M 5244
for a fact ? M 5218
for a bird . M 5188
for a halt . M 5120
for a living ! M 5092
for a walk ! M 4966
for a view . M 4888
for a kill . M 4734
for a text . M 4634
for i hour . M 4516
for a wind . M 4492
for a line . M 4394
for a page . M 4364
for a noun . M 4342
for a girl ? M 4320
for a form . M 4212
for a note . M 4200
for a post . M 4150
for a bone . M 4142
for a role . M 4110
for a coat . M 4096
for a time ! M 4042
for a heart . M 4040
for a maid . M 4014
for a hand . M 3720
for a will . M 3636
for a fool ! M 3478
for a face . M 3432
for a pair . M 3368
for a wash . M 3200
for a monk . M 3170
for a trap . M 3140
for a fare . M 3044
for a unit . M 3026
for a truth . M 2970
for a cell . M 2914
for a rule . M 2906
for a cake . M 2900
for a beating . M 2888
for a hole . M 2878
for a book ? M 2868
for a hold . M 2854
for a well . M 2838
for a tomb . M 2770
for a band . M 2706
for a mark . M 2700
for a baby ? M 2610
for a name ? M 2608
for a jump . M 2602
for a stop . M 2590
for a home ? M 2560
for a draw . M 2490
for a fine . M 2472
for a test ? M 2436
for a lord . M 2392
for a wrong . M 2384
for a flag . M 2322
for a port . M 2312
for a feed . M 2296
for a host . M 2220
for a girl ! M 2218
for a bathe . M 2206
for a rush . M 2188
for a link . M 2178
for a load . M 2130
for a mass . M 2126
for a deed . M 2092
for a worm . M 2090
for a room ? M 2062
for a shop . M 2018
for a bell . M 2008
for a work . M 1982
for a meaning . M 1930
for a type . M 1916
for a game ? M 1876
for a ways . M 1868
for a life ? M 1824
for a lake . M 1802
for a fact ! M 1750
for a cave . M 1730
for a hint . M 1678
for a kick . M 1670
for a step . M 1668
for a kiss ? M 1662
for a fair . M 1658
for a hanging . M 1656
for a rest ? M 1610
for a gate . M 1608
for a tale . M 1606
for a youth . M 1588
for a lock . M 1576
for a cure ? M 1560
for a healing . M 1554
for a sign ? M 1532
for a fifth . M 1518
for a lady ? M 1506
for a wake . M 1490
for a swim ! M 1472
for a lady ! M 1468
for a mask . M 1464
for a dash . M 1462
for a gain . M 1456
for a cast . M 1434
for a bait . M 1430
for a trim . M 1414
for a treat ! M 1412
for a book ! M 1388
for a jail . M 1362
for a code . M 1356
for a break ? M 1346
for a wait . M 1342
for a drop . M 1324
for a lull . M 1316
for a faith . M 1308
for a mine . M 1252
for a birth . M 1248
for a half . M 1246
for a leave . M 1224
for a gift ? M 1168
for a fast . M 1150
for a mate ? M 1148
for a trip ? M 1146
for a take . M 1124
for a date ! M 1118
for a verb . M 1108
for a mind . M 1102
for t years . M 1090
for a fall ? M 1082
for a play ? M 1068
for a crib . M 1064
for a fire ? M 1062
for a self . M 1044
for a range . M 1038
for a hill . M 1038
for a life ! M 1020
for a zero . M 1018
for a city ? M 1018
for i know . M 1012
for a talk ? M 1006
for a word ? M 1004
for a five . M 994
for a stem . M 984
for a kiss ! M 976
for a cloth . M 960
for a gale . M 954
for a font . M 950
for a fish ? M 944
for a sixth . M 940
for a beast . M 906
for a bearing . M 898
for a steal . M 888
for a home ! M 872
for a hall . M 870
for a look ? M 866
for a thread . M 852
for a lift ? M 834
for a burn . M 828
for a dare . M 820
for a video . M 814
for a threat . M 814
for a cold ? M 814
for a plan ? M 802
for a heading . M 800
for a show ? M 786
for a rating . M 774
for a meet . M 770
for a rest ! M 762
for a trial ? M 754
for a three . M 754
for a taking . M 742
for a baby ! M 734
for a beach . M 730
for a moon . M 706
for a push . M 702
for a seed . M 698
for a sage . M 696
for i have . M 694
for a treat ? M 692
for a bank ? M 670
for a wrap . M 664
for a less . M 656
for a high . M 656
for a root . M 654
for a ship ? M 652
for a theory ? M 650
for a ward . M 648
for a drag . M 636
for a hearing ? M 632
for a back . M 632
for a part ? M 626
for a loop ! M 626
for a call ? M 626
for a vest . M 624
for a theft . M 622
for a dream ? M 622
for a miss . M 618
for a flaw . M 610
for a cheat . M 606
for a tour ? M 604
for a core . M 602
for a wish . M 598
for a four . M 598
for a cage . M 598
for a need . M 590
for a fake . M 588
for a sign ! M 586
for a body ? M 584
for a gift ! M 570
for a tale ! M 568
for a third ? M 564
for a play ! M 564
for a what ? M 530
for a pull . M 530
for a hero ? M 512
for a past . M 500
for a bird ? M 500
for a safe . M 492
for a tree ? M 484
for a copy ? M 484
for a flow . M 482
for a duty . M 482
for a rate . M 474
for a fall ! M 474
for a swap . M 472
for a name ! M 472
for a food . M 468
for a hour . M 464
for a cost . M 460
for a fire ! M 448
for a town ? M 446
for a shed . M 446
for a cult . M 438
for a text ? M 436
for a span . M 434
for a user ? M 432
for a bird ! M 426
for a break ! M 416
for a heart ? M 406
for a rash . M 404
for i week . M 394
for a side . M 386
for a maid ? M 384
for a union ? M 382
for a hero ! M 382
for a rain . M 376
for a pile . M 376
for a case ? M 374
for a coat ? M 370
for a pass ? M 366
for a length . M 366
for a loop ? M 364
for a reading ? M 360
for a game ! M 356
for a void . M 350
for a sort . M 340
for a show ! M 336
for a word ! M 328
for a line ? M 328
for a cell ? M 328
for a pass ! M 322
for a loss ? M 322
for a help . M 322
for a pose . M 318
for a ship ! M 312
for a mile ! M 310
for a fill . M 310
for a room ! M 308
for a wood . M 306
for a tenth . M 304
for a hope . M 304
for a twig . M 300
for a ratio . M 298
for i month . M 296
for a lord ! M 296
for a good ? M 294
for a dare ? M 290
for a pick . M 286
for a city ! M 286
for a turn ? M 284
for a town ! M 284
for a male ? M 282
for a hand ? M 282
for a goal ? M 282
for i must . M 278
for a role ? M 276
for a will ? M 274
for a risk . M 272
for a lack . M 272
for a file ? M 270
for a save . M 268
for a calm . M 268
for a mate ! M 266
for a knot . M 264
for a note ? M 258
for a cake ? M 258
for a land . M 256
for a chop . M 256
for a norm . M 250
for a means . M 250
for a truth ? M 248
for a tree ! M 248
for a third ! M 246
for a nine . M 246
for a find . M 244
for a toll . M 242
for a hiding . M 240
for a cure ! M 238
for a clue ? M 238
for a warm . M 236
for a move ? M 236
for a mile ? M 234
for a five ? M 234
for a blow ! M 234
for a trap ? M 230
for i will . M 228
for a term ? M 226
for a dream ! M 224
for a hell . M 222
for a rise ? M 218
for a debt ? M 218
for a road ? M 216
for a bone ? M 212
for a bark . M 208
for a test ! M 206
for a tail ! M 206
for a wrong ? M 204
for a pain . M 204
for a hide . M 204
for a look ! M 202
for a hunt ? M 202
for a dawn . M 202
for s years . M 200
for a form ? M 200
for a hail . M 196
for a band ? M 196
for a vice . M 194
for a ruin . M 194
for a join . M 192
for a pair ? M 190
for a flip . M 190
for a hurt . M 188
for a bend . M 186
for a trip ! M 184
for a talk ! M 182
for a list ? M 182
for a heart ! M 182
for a tail ? M 180
for a wind ! M 178
for a view ? M 178
for a true . M 178
for a site ? M 178
for a page ? M 178
for a nest ? M 178
for a mode . M 178
for a nothing . M 176
for a fish ! M 176
for i think . M 174
for a left . M 172
for a hunt ! M 172
for a base ? M 172
for a more . M 168
for a harm . M 168
for a flag ? M 168
for i knew . M 166
for a spring ! M 164
for a peace ? M 164
for a love . M 164
for a line ! M 162
for a hair . M 162
for a goal ! M 160
for a door ? M 160
for a blow ? M 158
for a very . M 156
for a free . M 156
for a worm ? M 154
for a twig ? M 154
for a trap ! M 154
for a blue . M 154
for a copy ! M 152
for a wash ? M 150
for a trial ! M 150
for a think . M 150
for a great . M 148
for a fade . M 148
for a burn ? M 148
for a lord ? M 146
for a full . M 144
for a ninth . M 142
for a moan . M 142
for a last . M 142
for i said . M 140
for a sell ! M 138
for a fold . M 138
for a face ? M 138
for a mail . M 136
for a noun ? M 134
for a nest ! M 134
for a feel . M 134
for a south . M 132
for a sage ! M 132
for a threat ? M 130
for a sore . M 130
for a beating ? M 130
for a post ? M 128
for a grab . M 128
for a doom . M 126
for s days . M 124
for a thorn . M 124
for a main . M 124
for a debt ! M 124
for a unit ? M 120
for a page ! M 120
for a lift ! M 120
for a turn ! M 118
for a mating . M 118
for a yell . M 116
for a years . M 116
for a wipe . M 114
for i even . M 112
for a saying . M 112
for a meaning ? M 112
for a body ! M 112
for a bash . M 110
for a young . M 108
for a single ? M 108
for a sell . M 108
for a healing ? M 108
for a spring ? M 106
for a reach . M 106
for a mind ? M 106
for a stay ? M 104
for a skip . M 104
for a size . M 104
for a port ? M 104
for a monk ? M 104
for a feed ? M 104
for a beast ? M 104
for a ruin ! M 102
for a realm . M 102
for a peace ! M 102
for a mass ! M 102
for a video ? M 100
for a cold ! M 100
for d days . M 98
for a rule ? M 98
for a jump ? M 98
for a draw ? M 98
for a call ! M 98
for a beast ! M 98
for a breath ? M 96
for a beating ! M 96
for a bathe ? M 96
for a well ? M 94
for a ways ? M 94
for a shop ? M 94
for a bank ! M 94
for a tour ! M 92
for a kill ? M 92
for a hint ? M 92
for a deed ? M 92
for i love . M 90
for a male ! M 90
for a face ! M 90
for a drop ? M 90
for a door ! M 90
for a coat ! M 90
for a cast ? M 90
for a tomb ! M 88
for a tale ? M 88
for a maid ! M 88
for a rush ! M 86
for i come . M 84
for a plus . M 84
for a plan ! M 84
for a grey . M 84
for a faith ? M 84
for a days . M 84
for a bathe ! M 84
for a trim ? M 82
for a kill ! M 82
for i know ! M 80
for a clear . M 80
