forth his son " M 1096
form his own " M 490
food that was " M 370
form and its " M 368
form that was " M 330
food for all " M 300
form its own " M 294
forth with his " M 280
food for you " M 252
form and that " M 240
four old things " M 232
food does not " M 226
form with its " M 222
forth his own " M 220
form that this " M 214
food for his " M 198
food for them " M 184
four year old " M 176
form does not " M 172
food may day " M 170
four men who " M 168
fool for you " M 166
form and say " M 161
form was not " M 156
form for his " M 147
four and six " M 145
food and eating " M 142
form they are " M 136
form and then " M 136
forth its own " M 134
four old men " M 127
food for man " M 126
form for this " M 122
form that has " M 120
four and two " M 116
form does this " M 112
food for her " M 112
forth that they " M 110
form and not " M 107
food and that " M 103
food was not " M 98
forth with him " M 96
forth and say " M 96
form and his " M 94
form was that " M 88
form our own " M 88
fool you are " M 88
food and then " M 80
form and use " M 40
