four feet from the M 68092
four years from the M 50574
four years prior to M 25216
four more years of M 19264
form some sort of M 16712
form some kind of M 16150
four last years of M 14594
four days from the M 13660
four days prior to M 12978
four main areas of M 11673
forth from time to M 10154
four feet into the M 6490
four years during the M 6174
form only part of M 6134
four years into the M 5998
form from those of M 5661
four feet deep in M 5442
four years when the M 5346
four more years to M 5302
four years ahead of M 4810
forth from among the M 4764
four years were to M 4732
four years when he M 4654
four years more of M 4602
four years will be M 4486
form from time to M 4398
food came from the M 4060
food away from the M 4026
four more years in M 4022
four home runs in M 3790
four days during the M 3744
food from time to M 3512
four days into the M 3358
four were from the M 3118
four days ahead of M 3078
form must also be M 3075
form only when the M 3008
forth from home to M 2982
food will have to M 2908
forth once more to M 2882
four more days of M 2854
form when there is M 2852
fold upon fold of M 2840
four feet wide by M 2838
four feet high at M 2782
four feet wide at M 2736
forth their young in M 2717
four years among the M 2710
four years ending in M 2684
food from door to M 2674
four years went by M 2602
four feet high in M 2592
four main ways in M 2542
food back into the M 2524
form will have to M 2521
four more days to M 2520
four years trying to M 2368
forth once more in M 2298
four years down the M 2280
four full years of M 2244
four were able to M 2238
form will also be M 2198
four days when the M 2180
four were sent to M 2130
form their ideas of M 2040
four days went by M 2006
form laid down by M 2003
four years there is M 1976
fold back into the M 1914
four main ways of M 1888
four came from the M 1880
forth from side to M 1846
four were born in M 1830
four feet deep at M 1822
four feet deep on M 1820
font size from the M 1813
four feet high by M 1776
four years were the M 1754
forth your hand to M 1718
form some type of M 1687
food must also be M 1666
four main sets of M 1652
form laid down in M 1650
four feet high on M 1562
food when there is M 1556
food coming from the M 1556
forth their hand to M 1543
form there will be M 1517
form even when the M 1516
form some part of M 1472
form will have the M 1470
four full days of M 1455
food eaten during the M 1452
four sons born to M 1442
form gave rise to M 1416
forth from among my M 1408
four main areas in M 1404
forth food from the M 1386
food made from the M 1358
form there must be M 1348
four feet from me M 1328
four feet wide in M 1316
four years when it M 1310
food down into the M 1302
forth have been of M 1282
four days will be M 1276
four days when he M 1274
food gets into the M 1270
four main ways to M 1254
four years over the M 1246
form from those in M 1240
form like those of M 1234
form came from the M 1228
four days over the M 1216
form away from the M 1200
four feet over the M 1184
form from what it M 1182
four years upon the M 1174
form much like the M 1122
four years more to M 1120
form some plan of M 1110
four boys from the M 1100
four years must be M 1082
form only when it M 1076
four went into the M 1032
forth from left to M 1032
four came into the M 1028
form used here is M 1026
forth their sons to M 1018
four years more in M 1010
four were among the M 1010
form will need to M 1003
four years leading up M 1000
form well into the M 996
forth once more the M 990
four other sets of M 986
four songs from the M 984
food there will be M 978
food were sent to M 968
form owes much to M 964
fold their arms in M 946
form their line of M 934
four areas will be M 918
four feet high to M 916
four more years as M 912
food only when the M 912
four years there he M 910
four feet depth of M 906
forth some sort of M 904
forth from hand to M 896
form just ideas of M 891
four more days in M 874
four more from the M 872
four days more to M 872
form back into the M 866
forth once more on M 860
food left from the M 850
form very early in M 844
four years leading to M 838
four days trying to M 838
food only when it M 836
four feet along the M 822
forth from here to M 820
food will also be M 816
four last days of M 814
food come from the M 808
form what came to M 799
four were said to M 794
food only from the M 792
four more years at M 780
four years came to M 776
food coming into the M 774
four other areas of M 766
forth from amid the M 762
food pass into the M 754
four years living in M 752
forth into songs of M 750
four days more the M 744
forth anew into the M 736
food left over by M 736
four feet from my M 734
four full years in M 730
four years when we M 724
four feet wide on M 712
four days left to M 712
four days upon the M 710
form only during the M 704
food even when it M 694
four more years the M 692
form clear ideas of M 692
fold your arms in M 685
four feet from it M 682
four great poets of M 680
forth most into the M 678
food were made to M 678
four years past the M 676
four years most of M 676
forth some kind of M 672
food down from the M 664
four days more of M 662
form only from the M 662
four years worth of M 660
food sent from the M 658
form used when the M 657
four from among the M 654
form will show the M 654
form will give the M 652
food only once in M 652
form will make it M 640
food even when the M 636
four years were as M 635
form from what is M 635
four hard years of M 634
form giving rise to M 630
four years more he M 628
four years just to M 626
form were used to M 626
four years were up M 622
four more were to M 618
four days there is M 616
form when used as M 610
forth from some of M 608
four years more the M 606
four come from the M 601
four were held in M 598
four more years he M 596
four main uses of M 592
forth like those of M 590
form when used in M 590
four more were in M 588
four more sets of M 584
form were used in M 582
four days just to M 580
form have been the M 579
forth once more as M 576
forth into acts of M 576
food home from the M 576
form data will be M 575
four feet ahead of M 574
forth only when the M 574
fold back over the M 574
four feet clear of M 566
four feet deep by M 562
fold away from the M 555
food will come to M 554
form will make the M 552
food will need to M 546
four deep along the M 545
four years left to M 544
food will soon be M 544
four days were the M 542
form will only be M 538
forth when there is M 534
four were used in M 532
four young ones at M 528
four days among the M 528
four days along the M 524
forth what seem to M 524
fold down over the M 522
forth their young on M 520
food only during the M 516
form even when it M 513
four more will be M 508
four poems from the M 506
forth only from the M 506
form some ideas of M 506
food fits into the M 506
forth from room to M 504
forth from there to M 502
food will make the M 500
food item from the M 499
four days till the M 498
forth their songs of M 496
forth some part of M 496
form three sets of M 492
food left over to M 492
food from home to M 492
four years back in M 490
form must have the M 489
four days when we M 486
four great heads of M 484
forth their young at M 482
forth their arms to M 482
four were held by M 480
form were made in M 480
four best years of M 478
form will soon be M 476
food from some of M 476
form coming from the M 475
four full days to M 474
forth their ideas in M 474
form give rise to M 473
four were sons of M 472
form will help to M 472
four feet high or M 470
form from among the M 470
four such sets of M 465
four good years of M 465
form great part of M 463
forth from city to M 462
four will have to M 461
four years there as M 460
four teams from the M 460
forth even from the M 460
form data from the M 459
four feet down in M 458
four years seem to M 456
form very like the M 456
four were left in M 454
forth from among us M 454
form what will be M 454
font name from the M 454
forth from past to M 452
form date from the M 452
four days were to M 446
four core areas of M 446
forth from what is M 446
form like unto the M 446
four more days the M 444
forth from three to M 442
form were made by M 442
four feet high is M 440
food back from the M 440
form more like the M 437
four fell into the M 434
four feet upon the M 432
form will come to M 432
food item such as M 429
four sons were in M 426
four days left in M 426
four were part of M 424
forth these ideas in M 424
four days more in M 422
four years were in M 420
form from what we M 419
four feet will be M 418
four have been in M 416
forth their host by M 416
form their mind to M 416
four feet during the M 414
four young ones in M 408
four days down the M 408
forth from ship to M 406
form just prior to M 406
form into line of M 406
form have come to M 406
food will help to M 406
food from areas of M 404
food from among the M 404
food pass from the M 400
food gave rise to M 400
four feet down the M 396
four years into my M 394
four years more at M 392
four years held the M 392
font size used in M 390
four were used to M 388
four paths leading to M 388
four full days in M 388
four days more he M 388
four more during the M 386
four main areas to M 386
form over half the M 386
four other ways in M 384
form much used in M 383
four days more we M 382
four days came to M 382
four have been the M 380
four feet past the M 380
four were living in M 378
four feet deep to M 378
form used during the M 378
food must meet the M 376
four ways from the M 372
four days past the M 372
forth over land or M 370
four were made in M 368
form only will be M 368
four were ready to M 362
four went back to M 362
form were sent to M 362
food came into the M 360
form their view of M 358
four years there in M 356
four years left on M 354
four deaths among the M 354
four days worth of M 352
food when food is M 352
food went into the M 352
food left over in M 352
form have been in M 351
four other ways of M 350
four days must be M 350
four clear days at M 350
form were used as M 348
four boys went to M 346
forth what must be M 346
forth from four to M 346
four feet deep as M 345
four bits from the M 344
form also part of M 344
food will have the M 344
four sons were the M 342
four areas must be M 342
form just like the M 342
form over half of M 341
form were able to M 340
form part only of M 340
form most used in M 340
food fell into the M 340
four died during the M 338
forth fire from the M 338
four years from an M 336
four days when it M 336
four days south of M 334
food only when he M 334
form come from the M 327
four years till he M 326
form among some of M 326
food webs from the M 326
food from side to M 326
four years many of M 324
four main aims of M 324
four boys were in M 324
four years work in M 323
four were born to M 322
four weary years of M 322
four days late in M 322
four years been the M 320
four years away at M 318
four were seen at M 318
four sons into the M 318
four more days at M 318
four years past he M 316
four full years to M 316
form bent over the M 316
four great areas of M 314
four feet deep of M 314
forth their faith by M 314
form will ever be M 314
form from what he M 314
form will help us M 312
form what must be M 312
forth their view of M 310
form also must be M 310
food just like the M 308
food have been the M 308
fool will mind it M 306
four other boys in M 304
forth their young by M 304
form free from the M 304
form will have no M 303
forth life from the M 302
food very rich in M 302
food just prior to M 302
four days leading up M 300
form came into the M 300
form from left to M 299
four years till the M 298
four were left to M 298
four more years on M 298
food eaten must be M 298
food must come in M 297
four feet back of M 296
four boys grew up M 296
food fish such as M 295
four great vows of M 294
four great gods of M 292
forth from north to M 292
food used during the M 292
four years down to M 290
four feet wide to M 290
forth only when it M 290
food were able to M 290
fold from left to M 289
four years some of M 288
four feet deep is M 288
four feet away on M 288
form will help the M 288
food came forth to M 288
form made from the M 287
four days most of M 286
food there must be M 286
food left over at M 286
four great ages of M 285
four days some of M 284
form very much the M 284
food even from the M 284
font size will be M 284
four other sons of M 282
forth from life to M 282
form need only be M 282
four other ways by M 280
form will have an M 279
form some time in M 279
form over most of M 279
four deaths during the M 278
form some plan to M 278
four were living at M 276
forth from town to M 276
food away from me M 276
form their plan of M 275
forth free from the M 274
form were those of M 274
form from four to M 274
four years only to M 272
four went down to M 270
four feet wide is M 270
four years from my M 268
four main heads of M 268
four days were up M 268
four days making the M 268
forth were come to M 268
form what kind of M 268
form must have an M 268
four sons died in M 266
form very much as M 266
form from three to M 266
four years more as M 265
four years made the M 264
four feet high of M 264
forth there will be M 264
four went over to M 262
four feet wide or M 262
forth from gate to M 262
form will cease to M 262
form were used by M 262
form just part of M 262
food give rise to M 262
form among many of M 261
four more days on M 260
forth some form of M 260
forth from such an M 259
four years when in M 258
four feet down to M 258
four days taking in M 258
four days left of M 258
forth what came to M 258
form sets forth the M 258
food were among the M 258
forth their arms in M 256
food when ready to M 256
fold down over my M 254
fold back along the M 253
four runs over the M 252
four data sets in M 252
form among those of M 252
food during most of M 252
fold runs from the M 252
four full sets of M 251
four years more it M 250
four years back he M 250
form went over the M 250
food even during the M 250
fold back upon the M 250
four years been in M 248
forth into what is M 248
form from some of M 248
four were lost to M 246
four other ways to M 246
forth here will be M 246
form here used is M 246
form only when we M 245
four main ways by M 244
forth during most of M 244
form much used by M 244
form data back to M 243
four have come to M 242
food went down the M 242
food from home or M 242
four years gone by M 240
four were more or M 240
four were lost in M 240
forth very early in M 240
form even among the M 240
food will keep the M 240
fold down from the M 240
form their army in M 238
form some view of M 238
four coming from the M 236
form best able to M 236
four were those of M 235
four were made of M 234
four date from the M 234
forth from door or M 234
form will take as M 234
food will give the M 234
four young sons to M 232
four sons went to M 232
form such ideas of M 232
food will have an M 232
fold these into the M 232
form will take the M 230
form when seen in M 229
form even during the M 229
four were kept in M 228
four more over the M 228
four from north to M 228
four days there in M 228
forth their ideas on M 228
forth from many of M 228
form like those in M 228
four years much of M 226
four were made by M 226
four other heads of M 226
four feet from us M 226
form such data as M 225
form from side to M 225
four years like the M 224
four years free of M 224
four were seen in M 224
four days past in M 224
form will open in M 224
form were made to M 224
form moving among the M 224
food will make it M 224
food were used to M 224
food were kept in M 224
four days more at M 222
four days early in M 222
forth will have to M 222
forth tears from the M 222
food left much to M 222
fold back onto the M 222
four years past in M 220
four feet deep or M 220
four areas along the M 220
forth from text to M 220
food even when he M 220
four years late in M 218
four went down the M 218
four last tears of M 218
four have died in M 218
forth from love to M 218
four bits will be M 216
form were part of M 216
form must show the M 216
form have been of M 216
fool will turn the M 216
food from hand to M 216
food will only be M 214
four more days we M 212
four feet onto the M 212
four days more it M 212
forth were from of M 212
forth once more at M 212
food will have on M 212
food well into the M 212
food have been so M 212
food fell from the M 212
fold down into the M 212
four there will be M 211
forth their side of M 210
forth only part of M 210
form only when he M 210
four years stay in M 208
four have gone to M 208
four feet south of M 208
form used only in M 208
form fading into the M 208
food when used in M 208
food from living or M 208
four years left in M 206
four will have the M 206
four sons were to M 206
four feet high the M 206
forth coming from the M 206
form used will be M 206
food item among the M 206
four young boys in M 204
four will give the M 204
four were used as M 204
four good years in M 204
four boys were the M 204
forth even into the M 204
forth away from the M 204
form owed much to M 204
form once more in M 204
food item during the M 204
fold from birth to M 203
four years made it M 202
four month stay in M 202
four main ideas in M 202
four feet west of M 202
four feet north of M 202
forth anew from the M 202
food will have no M 202
food were used in M 202
food were made by M 202
food from cell to M 202
fold your arms or M 202
four young clinging to M 200
four feet wide of M 200
forth also from the M 200
form your ideas of M 200
food hanging from the M 200
form take care of M 199
four young sons of M 198
four years along the M 198
forth into life in M 198
form will find it M 198
form rise from the M 198
form ranging from the M 198
form also will be M 198
food will reach the M 198
form will work in M 196
food from what is M 196
four years went to M 194
four years only in M 194
four other areas in M 194
forth nothing from the M 194
forth from tree to M 194
forth dogs from the M 194
form fits into the M 194
food were none of M 194
food mass along the M 194
food fish from the M 194
form data into the M 193
four years into an M 192
four were also in M 192
fold over into the M 192
food free from the M 191
four years time the M 190
four were seen on M 190
four days west of M 190
forth were those of M 190
food were used as M 190
food from dawn to M 190
food also must be M 190
fold back when the M 190
four years what it M 188
four were used by M 188
four data sets of M 188
forth your hand on M 188
forth their heads to M 188
forth into such an M 188
four years during my M 186
four days north of M 186
four days half of M 186
forth from bank to M 186
form once more the M 186
form name from the M 185
four years were so M 184
four years making the M 184
four more runs in M 184
four feet away in M 184
four boys left the M 184
forth what kind of M 184
form will fail to M 184
food were part of M 184
four years have the M 182
four years even if M 182
four maps show the M 182
four boys came to M 182
fool once more in M 182
food mass from the M 182
four such years as M 181
form during most of M 181
four years when my M 180
four hour trip to M 180
forth their faith in M 180
form will give no M 180
form went hand in M 180
form must have at M 180
form down into the M 180
fool will have to M 180
food away from us M 180
form have been so M 179
form date back to M 179
four years here in M 178
four were full of M 178
four great acts of M 178
four feet must be M 178
forth three pair of M 178
forth only what is M 178
form must seem to M 177
four years term of M 176
four were made to M 176
four other poems in M 176
four more days he M 176
four main paths of M 176
four feet high so M 176
four deaths from the M 176
forth some ideas on M 176
food left over on M 176
fold other half of M 175
four days sent the M 174
four days gone by M 174
four bits must be M 174
forth their ideas of M 174
forth from work to M 174
forth from door to M 174
food will make us M 174
food away from it M 174
four years back to M 172
four plus four is M 172
four other days of M 172
four boys born to M 172
four areas during the M 172
forth their young as M 172
form over much of M 172
four leads from the M 171
four years here at M 170
four only came up M 170
four heads from the M 170
four feet three in M 170
forth what will be M 170
forth from high to M 170
forth from five to M 170
forth from deep in M 170
forth anew upon the M 170
form some plan by M 170
food will help the M 170
food gets from the M 170
four years ending on M 169
four gave birth to M 168
four full days at M 168
forth pure from the M 168
form will meet the M 168
form from those on M 168
fool like some of M 168
food over from the M 168
food during much of M 168
font size list on M 168
fold their arms on M 168
fold their arms as M 168
fold rise over the M 168
four sons whom he M 166
four sons were at M 166
four other boys to M 166
four nuns from the M 166
four more years we M 166
four more were on M 166
four areas need to M 166
form will give us M 166
form come only by M 166
form also used by M 166
four years when an M 164
four only were of M 164
four give rise to M 164
four best ways to M 164
form most used by M 164
food from your it M 164
form once more on M 163
four years kept in M 162
four feet when the M 162
forth their theory of M 162
form very much in M 162
food made from it M 162
font size list to M 162
form over time in M 161
form from birth to M 161
four years past to M 160
four years amid the M 160
four main areas or M 160
four last songs of M 160
four feet more of M 160
four feet leave the M 160
four feet deep the M 160
forth their wealth of M 160
forth into life by M 160
form means only the M 160
fool says there is M 160
food will give us M 160
food webs leading to M 160
form some form of M 159
four years back at M 158
four were seen to M 158
four must have an M 158
forth from word to M 158
food were hard to M 158
font face from the M 158
form clear ideas as M 157
four wars during the M 156
four there were no M 156
forth only once in M 156
forth into life the M 156
form have nothing to M 156
form from most of M 156
form boys came to M 156
fool will want to M 156
food very poor in M 156
food save such as M 156
four sons from the M 154
four other more or M 154
four feet when he M 154
four days away by M 154
forth from page to M 154
form were made of M 154
form some theory of M 154
food meant nothing to M 154
four more years is M 152
forth from line to M 152
forth even when the M 152
form must meet the M 152
food fell upon the M 152
food during part of M 152
four years will do M 150
four years more or M 150
four hour week in M 150
four great days of M 150
four away from the M 150
forth must also be M 150
form some more or M 150
food will come in M 150
food eaten over the M 150
font list from the M 150
four sons born of M 148
four more came to M 148
four main means of M 148
four great ends of M 148
four feet high as M 148
four clear days to M 148
form used must be M 148
form just such an M 148
form even into the M 148
form data when the M 148
fool take care of M 148
food will make me M 148
food item will be M 148
form only once in M 147
form also used in M 147
four years plus the M 146
four years only the M 146
four years away in M 146
four trying years of M 146
four boys live in M 146
form were among the M 146
form even when he M 146
form coming along the M 146
food moving along the M 146
food item must be M 146
food back onto the M 146
forth into life as M 145
form only half of M 145
fold over fold of M 145
four were trying to M 144
four sons grew up M 144
four plus years of M 144
four more into the M 144
four days from my M 144
four boys ranging in M 144
forth very much as M 144
forth their best in M 144
form also leads to M 144
food have come to M 144
food fits into an M 144
fold over those of M 144
four young ones of M 142
four years were of M 142
four years gave me M 142
four will make the M 142
four sons came to M 142
four part test of M 142
four must also be M 142
four more years if M 142
four main aims in M 142
four good ways to M 142
four feet more or M 142
four feet like the M 142
four feet from an M 142
four days when an M 142
forth truth into the M 142
forth into life to M 142
forth from whom the M 142
forth even unto the M 142
form went into the M 142
fool will play the M 142
fool some time or M 142
food were made at M 142
food sent down to M 142
food must come to M 142
food mass into the M 142
food have been in M 142
fold back from the M 142
four years left the M 140
four years into it M 140
four full years at M 140
four clear days in M 140
four bits into the M 140
forth just what the M 140
form from those we M 140
food fall into the M 140
food eaten will be M 140
four more came in M 139
four hour call to M 139
four years came the M 138
four such areas of M 138
four other uses of M 138
four other boys of M 138
four days work in M 138
four areas were the M 138
forth from shut or M 138
form only among the M 138
food from those of M 138
four years living on M 137
four other kids in M 136
four more feet of M 136
four days time to M 136
food were left on M 136
food must have the M 136
food also leads to M 136
four have done so M 135
four young ones to M 134
four years time he M 134
four years making it M 134
four were born at M 134
four kids from the M 134
four fold during the M 134
four feet when it M 134
four days here in M 134
form once more to M 134
form laid upon the M 134
food cost will be M 134
form break down the M 133
food have gone up M 133
four years what we M 132
four years show the M 132
four years full of M 132
four years back the M 132
four were over the M 132
four ways into the M 132
four feet away to M 132
four days till it M 132
four buds from the M 132
forth here some of M 132
forth from hill to M 132
forth from heart to M 132
form when used to M 132
form were seen no M 132
food were sent by M 132
food were left at M 132
food very much as M 132
food uses such as M 132
food ready when he M 132
food from coming in M 131
four years were at M 130
four years ahead in M 130
four will show the M 130
four sons born in M 130
four days back in M 130
forth from theory to M 130
form when some of M 130
form went back to M 130
food from three to M 130
food from four to M 130
food eaten prior to M 130
food coming down the M 130
food come from to M 130
four hour rule is M 129
four fall into the M 129
form will take on M 129
fold over onto the M 129
four sons will be M 128
four meals during the M 128
four deep from the M 128
four busy days in M 128
four boys were at M 128
forth their love of M 128
forth their birth of M 128
forth living from the M 128
forth just like the M 128
form moving along the M 128
form have made it M 128
food much used in M 128
food left over is M 128
food from home in M 128
form seen from the M 127
font size back to M 127
four years kept the M 126
four sore acts of M 126
four holy days of M 126
four fold rise in M 126
forth such work as M 126
forth from face to M 126
forth back into the M 126
form back from the M 126
form also from the M 126
food will stay in M 126
food were made in M 126
food were left in M 126
fold their arms or M 126
form will come in M 125
form most like the M 125
form from what the M 125
four years were an M 124
four were made up M 124
four were back in M 124
four runs along the M 124
four only were in M 124
four more along the M 124
four main arms of M 124
forth their tears as M 124
form your mind to M 124
form best fits the M 124
food were eaten by M 124
food plan must be M 124
food have made the M 124
four mile walk to M 123
four home runs to M 123
font size must be M 123
four years next to M 122
four years gave the M 122
four other days in M 122
four died from the M 122
four days till he M 122
four days only to M 122
forth till south is M 122
forth such data as M 122
form those ideas by M 122
form these ideas by M 122
form some ideas as M 122
food over most of M 122
food need only be M 122
four years upon my M 120
four years time to M 120
four years have to M 120
four years half the M 120
four years back on M 120
four were left on M 120
four main areas on M 120
four days seem to M 120
forth were part of M 120
forth their ideas as M 120
forth have been the M 120
forth from land to M 120
forth down into the M 120
form what used to M 120
form there were no M 120
form their nest in M 120
form grew from the M 120
form coming down the M 120
fool will come to M 120
fool hanging upon it M 120
font size used by M 120
four page list of M 119
four young boys to M 118
four years more we M 118
four years ending the M 118
four ways among the M 118
four other teams in M 118
four more were at M 118
four main paths to M 118
four hard days of M 118
four days only in M 118
forth buds from the M 118
form will list the M 118
form less open to M 118
form into teams we M 118
form among many in M 118
food during years of M 118
form only half the M 117
form must come to M 117
four years more on M 116
four sons living in M 116
four more died in M 116
four month tour of M 116
four free ends of M 116
four fold over the M 116
four feet nine or M 116
four data sets to M 116
four back into the M 116
forth from what we M 116
form used from the M 116
form some plan or M 116
form care must be M 116
food when eaten in M 116
food there were no M 116
food over much of M 116
food only once or M 116
food from home if M 116
fold your arms on M 116
four fish from the M 115
form will vary in M 115
form hanging from the M 115
form fall into the M 115
four years work on M 114
four years when no M 114
four years four to M 114
four other poems of M 114
four heavy beats to M 114
four heads will be M 114
four great ones in M 114
four days kept up M 114
four came back to M 114
four boys into the M 114
four areas from the M 114
forth were used to M 114
forth upon such an M 114
forth their work in M 114
forth like fire in M 114
forth good from the M 114
forth from male to M 114
form gave birth to M 114
food were left to M 114
food were held in M 114
food grew cold on M 114
font size used to M 114
form over land or M 113
form clear ideas on M 113
form came back to M 113
four years three of M 112
four years even the M 112
four went down in M 112
four main areas as M 112
four clear days of M 112
four boys were on M 112
form were seen in M 112
form were held to M 112
form much more of M 112
form line upon the M 112
food will turn to M 112
font file from the M 111
four teams left in M 110
four take time to M 110
four sets will be M 110
four more like it M 110
four main ideas of M 110
four last years the M 110
four have nothing to M 110
four have been so M 110
four even beats to M 110
four data sets is M 110
forth much like the M 110
forth from week to M 110
forth from there in M 110
forth from most of M 110
form when used by M 110
form used among the M 110
fool will learn in M 110
food wrap over the M 110
food will there be M 110
food will take the M 110
food giving rise to M 110
food from home is M 110
four there must be M 109
four take part in M 109
four days went on M 109
form these take is M 109
four more years it M 108
four feet high if M 108
four days there he M 108
four days over it M 108
four days into my M 108
four cuts from the M 108
forth what were the M 108
forth what there is M 108
forth their case in M 108
forth even among the M 108
form will give it M 108
form have made so M 108
food have nothing to M 108
four years past it M 106
four were free of M 106
four other kids to M 106
four last songs in M 106
four home runs on M 106
four heavy sets of M 106
four from those of M 106
four days leave to M 106
forth from here in M 106
form will seem to M 106
form must reach the M 106
form data sent to M 106
form also asks the M 106
food very early in M 106
food till three in M 106
food item into the M 106
food from here to M 106
food away when he M 106
four ways open to M 104
four more years or M 104
four more when the M 104
four feet were in M 104
forth very well the M 104
forth just when it M 104
form will send the M 104
food these days is M 104
food from many of M 104
food fall from the M 104
form very early on M 103
four years what the M 102
four years none of M 102
four years come to M 102
four will also be M 102
four were laid on M 102
four poor years of M 102
four more years by M 102
four days what we M 102
four days turn to M 102
four best teams in M 102
four areas seem to M 102
forth your view of M 102
forth your love to M 102
forth from boys to M 102
form lost none of M 102
form into those of M 102
form also there is M 102
food lies upon the M 102
food just when the M 102
food came from or M 102
fold away into the M 102
forth from home as M 101
form when left to M 101
form such ideas as M 101
font used here is M 101
four years time in M 100
four years back by M 100
four were seen as M 100
four fine days in M 100
four down from the M 100
four days time the M 100
four days into it M 100
four boys were to M 100
forth their buds in M 100
forth their body of M 100
forth only when we M 100
forth from what he M 100
form when part of M 100
form were seen as M 100
form vast areas of M 100
form from cell to M 100
fool says what he M 100
food will ever be M 100
food were some of M 100
food have much to M 100
fold over like an M 100
four feet deep up M 99
form stem from the M 99
four years ending at M 98
four years died in M 98
four were lost on M 98
four were also the M 98
four other poems by M 98
four last days in M 98
four great ways of M 98
four feet left the M 98
four feet four to M 98
forth will feel the M 98
form their ideas on M 98
food from even the M 98
fold line along the M 98
form when only the M 97
form also uses the M 97
fold rise during the M 97
four years will go M 96
four years stay at M 96
four years grew to M 96
four will form the M 96
four were seen by M 96
four such areas in M 96
four hard years in M 96
four great beats of M 96
four days more on M 96
four come down at M 96
forth will also be M 96
forth their fears as M 96
forth only during the M 96
forth living beings of M 96
forth from nothing by M 96
forth from case to M 96
form your plan of M 96
form were said to M 96
form pass into the M 96
form must take the M 96
form most able to M 96
food were said to M 96
food webs such as M 96
food sent over to M 96
food must have at M 96
food have made it M 96
form will tell the M 95
fold more care to M 95
four years past no M 94
four years made me M 94
four other years of M 94
four great ages in M 94
four gave rise to M 94
four feet wide the M 94
four feet there is M 94
four days trying in M 94
four days many of M 94
four boys will be M 94
forth what were to M 94
forth their heads in M 94
forth only when he M 94
forth from port to M 94
form spring from the M 94
form bent over me M 94
food very high in M 94
food used must be M 94
food there during the M 94
food sent into the M 94
food ready when the M 94
food from week to M 94
food from most of M 94
food even more so M 94
fold their arms to M 94
four dark years of M 93
form will have on M 93
form even from the M 93
four years shut up M 92
four years leads to M 92
four will take the M 92
four will make it M 92
four great ideas in M 92
four days back to M 92
forth some type of M 92
forth once more by M 92
forth from edge to M 92
form only late in M 92
form also made it M 92
food when game is M 92
food were those of M 92
food must have an M 92
food from gate to M 92
food down there to M 92
four such years of M 91
forth ideas like the M 91
four leading poets of M 90
four kids into the M 90
four having died in M 90
four great sets of M 90
four days shut up M 90
four boys came in M 90
four arms bent at M 90
forth your hand in M 90
form will help in M 90
form some view or M 90
form much like an M 90
form cast upon the M 90
form also seen in M 90
fool even when he M 90
food will kill me M 90
food will help us M 90
food were made of M 90
food from those in M 90
food from month to M 90
food away from my M 90
font file into the M 90
four week tour of M 89
four kids were in M 89
form only three or M 89
four were years of M 88
four sons ranging in M 88
four paths open to M 88
four part test to M 88
four more died of M 88
four feet away at M 88
four eyes from the M 88
four days stay in M 88
forth from cell to M 88
forth came from the M 88
form their buds in M 88
form rise step by M 88
form most trying to M 88
form more like an M 88
form fade into the M 88
food from what the M 88
food away from an M 88
font size list is M 88
form used prior to M 87
form till late in M 87
four years have in M 86
four were heads of M 86
four week stay in M 86
four town lots in M 86
four sons must be M 86
four sons grew to M 86
four more hits in M 86
four have left the M 86
four have died of M 86
four full days on M 86
four feet over my M 86
four days stay at M 86
four came into my M 86
forth there were no M 86
forth there must be M 86
forth there from the M 86
forth only some of M 86
form their nest on M 86
form their faith of M 86
form owes more to M 86
form from base to M 86
fool went back to M 86
food will want to M 86
food will give me M 86
food when used as M 86
food upon what he M 86
form some ideas on M 85
form from those at M 85
food cake from the M 85
four years here he M 84
four years coming to M 84
four were held to M 84
four week trip to M 84
four have been of M 84
four great wars in M 84
four fell upon the M 84
four days left on M 84
four areas there is M 84
forth will help to M 84
forth three sets of M 84
forth their love to M 84
forth their load of M 84
forth none must be M 84
forth into arms at M 84
forth here from the M 84
forth from good to M 84
forth from data to M 84
form when those in M 84
form were left to M 84
form view from the M 84
form just what the M 84
form also acts as M 84
food pass along the M 84
food must take the M 84
food fish along the M 84
food even when we M 84
form into some of M 83
form from north to M 83
form from early in M 83
four years only of M 82
four years have we M 82
four will have no M 82
four were told to M 82
four went over the M 82
four more days it M 82
four feet high it M 82
four days full of M 82
four come down to M 82
forth were such as M 82
forth those ideas in M 82
forth some show of M 82
form will give an M 82
form used only to M 82
form their line on M 82
form must give the M 82
form most used is M 82
form like many of M 82
form from hour to M 82
food will vary in M 82
food went hand in M 82
food webs just as M 82
food plan will be M 82
fold when such is M 82
fold well when he M 82
form their ideas in M 81
four years such as M 80
four were born on M 80
four more must be M 80
four full years as M 80
four days lost in M 80
four days down to M 80
forth their best to M 80
forth from town at M 80
forth five sons at M 80
form very much at M 80
form some plan as M 80
form from ours at M 80
food your baby is M 80
food will rise in M 80
fold away when the M 80
form their ideal of M 74
form just ahead of M 71
four hour tour of M 70
form only over the M 70
form part also of M 68
food were sent in M 66
fold hanging from the M 66
form what seem to M 65
four years went on M 64
form over time as M 61
form what sort of M 59
form into teams of M 55
four feet wide so M 54
form into line in M 53
form four sets of M 53
font type from the M 52
fold left third to M 52
fold down along the M 52
four full years on M 50
fold down when the M 49
four such days in M 47
four days were as M 47
form into what we M 47
four years just as M 46
four hour stay in M 46
form there during the M 46
form into what is M 46
fold down upon the M 46
fold down onto the M 46
form there what is M 45
form their past by M 45
form over areas of M 45
form from five to M 45
form three arms of M 43
form only some of M 43
four years here as M 42
four will look at M 42
forth ideas such as M 42
form when trying to M 42
four feet deep so M 41
fool away time in M 41
food will keep in M 41
form only along the M 40
form must here be M 40
food were laid on M 40
fold over what it M 40
fold over from the M 40
foot away from the D 15730
folk songs from the D 8676
forth bread from the D 4982
foot down hard on D 3704
foot came down on D 3548
foot even unto the D 3240
foot once more on D 2113
foot away from me D 1869
foot drop into the D 1863
foot back into the D 1834
forth thine hand to D 1804
four feet thick at D 1758
foot high from the D 1705
foot back from the D 1632
foul blot upon the D 1590
folk songs such as D 1560
foot deep into the D 1449
foot from heel to D 1318
foul odor from the D 1317
foot down into the D 1296
foot from side to D 1292
foot drop from the D 1266
foot hard down on D 1260
foot away from it D 1190
form will tend to D 1149
four rows from the D 1122
four rods from the D 1082
folk among whom he D 1060
foot down from the D 1026
foot away from my D 1013
food from mouth to D 972
fort fell into the D 958
foot from time to D 932
foot sank into the D 910
fort good hope on D 892
form rose from the D 780
four guns from the D 778
foot down upon the D 773
foot hanging over the D 772
form dating from the D 771
folk were wont to D 744
food will tend to D 738
foot high wall of D 732
folk were able to D 716
fort worth during the D 706
ford took over the D 702
four bare legs in D 674
foot once more in D 671
foul mood when he D 654
foot down onto the D 650
foam high into the D 650
foul play from the D 640
foot deep over the D 640
four wave mixing in D 639
four seats from the D 638
folk tale from the D 634
folk have come to D 608
food from farm to D 600
four bars from the D 586
folk away from the D 584
fort good hope in D 583
forth from foot to D 572
forth from wall to D 564
form more akin to D 560
foot from town to D 552
foot free from the D 544
foot went into the D 532
ford went back to D 514
foot span over the D 509
foot down when it D 508
folk hero among the D 500
form dating back to D 496
form rising from the D 488
fore feet upon the D 473
fort dating from the D 471
four feet thick in D 470
four feet tall at D 460
foot back down on D 455
foot will have to D 452
four rows along the D 442
four feet tall in D 438
folk were glad to D 432
foot flat down on D 424
fore paws upon the D 421
fork tube from the D 420
foot down when he D 420
folk arts such as D 417
foot back onto the D 412
foot high pile of D 410
folk from whom he D 402
four great inns of D 400
foot went down on D 396
fore from time to D 394
foot coming down on D 383
foot will tend to D 380
foot were sent to D 378
forth soul living in D 372
fort rock cave in D 372
foil away from the D 371
fore when there is D 370
form will tend in D 362
four giant cans of D 360
form thick beds of D 354
four eggs into the D 350
foot flat upon the D 345
forth from heel to D 342
foot drop down to D 337
foul blot from the D 334
four took part in D 330
four guys from the D 326
foul wrong done to D 326
foot down upon it D 324
four aces from the D 318
foot high into the D 318
foot when there is D 316
food webs tend to D 316
fork deep into the D 315
ford went into the D 314
foot seen from the D 313
fogs rising from the D 309
four seats went to D 308
fork away from the D 307
four legs from the D 304
foot down when the D 302
folk songs into the D 302
four were shot in D 300
foot fall from the D 297
four more rows of D 296
foot came down in D 296
fork from time to D 295
fore feet over the D 295
foot length from the D 295
folk came into the D 288
fort dating back to D 286
ford were among the D 286
ford came into the D 286
fore only when the D 281
fort union beds of D 280
foot from there to D 280
foot went over the D 276
folk were used to D 274
four heavy guns in D 272
foot must also be D 272
fore legs were no D 268
food from leaving the D 266
four foot length of D 264
ford will have to D 264
folk will have to D 262
foot were able to D 260
foot north face of D 259
foot bank into the D 259
folk were trying to D 258
four rows show the D 256
four legs like the D 254
foul deed were by D 252
foot deep upon the D 251
fore once more in D 250
folk were ready to D 248
four legs into the D 246
fork down into the D 245
four feet leaving the D 244
foot back down to D 244
fort will soon be D 242
foot will soon be D 242
folk came from the D 238
four blue eggs in D 236
foot hard into the D 235
fort just south of D 234
foam flying from the D 234
four feet thick on D 230
fort just north of D 230
foot down next to D 230
four were paid to D 228
four foot from the D 228
foot golf club in D 228
four eggs from the D 226
four cars from the D 226
foul ball into the D 226
fork tube into the D 226
ford were able to D 226
foot fits into the D 226
foot fall into the D 225
folk have gone to D 224
four feet tall to D 222
four cars ahead of D 222
folk were said to D 222
foot rise from the D 221
folk come back to D 220
foam flew from the D 220
fore feet from the D 218
fork back into the D 217
four guns were in D 216
food riots during the D 216
folk songs were the D 215
four more seats in D 214
foul play when he D 214
foot thick over the D 214
foot there will be D 214
folk among whom the D 214
fort good hope by D 212
folk were eager to D 212
foot from city to D 210
food crop such as D 210
fore feet into the D 209
foot down flat on D 206
foot beats time to D 206
folk will come to D 204
four rows ahead of D 202
four cows when he D 202
foot come down on D 202
fond look back at D 202
folk tale told by D 201
four feet tall or D 200
forth into peals of D 200
fort were made of D 198
fold axis along the D 197
fort good hope to D 196
foot from here to D 196
ford took over as D 195
four legs made of D 194
four other cars in D 192
four legs must be D 192
fort worth from the D 192
foot fell upon the D 192
four great eras of D 190
four foot deep on D 190
forth more feats of D 190
fort smith during the D 190
folk were coming to D 190
foam coming from the D 190
fold flat over the D 189
form beaming forth in D 188
foot just back of D 188
fond love into the D 188
folk tune from the D 188
foot jump from the D 187
four sins crying to D 186
foul work went on D 186
forth from pole to D 186
foot walk from the D 186
folk songs during the D 186
foot sank into it D 184
foot beating time on D 184
folk will find it D 184
folk went back to D 184
four heavy guns of D 182
four cars full of D 182
foot will also be D 182
four cars will be D 180
fork down next to D 180
ford knew what he D 180
foot high over the D 179
four other guys in D 178
fort there were no D 178
foot shot into the D 178
folk have much to D 178
fold axes along the D 178
foam fell from the D 178
four legs like an D 176
foot will give the D 176
foot pass over the D 176
foot half sunk in D 176
folk losing life by D 176
four were sold to D 174
foot fell into the D 174
folk were left to D 174
folk have been so D 174
fort worth when he D 172
ford went down to D 172
foot drop onto the D 171
folk will give us D 170
foam flew over the D 170
four loud hems as D 168
foul play during the D 168
foot slid into the D 168
foot down over the D 168
foot just over the D 165
foot from left to D 165
foot sunk into the D 164
foot deep hole in D 164
foot back over the D 164
foot back next to D 164
food salt beef or D 164
form three rows of D 163
fork back down on D 163
four rows will be D 162
four jars full of D 162
foul slut were to D 162
fort were able to D 162
fort union during the D 162
foot will clear the D 162
foot were come up D 162
foot deep from the D 162
folk were fond of D 162
foam away from the D 162
fore once more the D 161
food tube into the D 160
folk have told me D 160
foot wide along the D 159
four such gangs at D 158
fork held over the D 158
fore legs from the D 158
foot some kind of D 158
foot away from an D 158
folk were full of D 158
folk media such as D 158
folk from whom the D 158
folk from birth to D 158
foot drop over the D 157
fowl from drying up D 156
four feet tall on D 156
foul ball down the D 156
ford came over to D 156
foot held fast in D 156
folk knew nothing of D 156
folk having gone to D 156
fork fell from the D 154
foot hard upon the D 154
food bill will be D 154
folk hero when he D 154
fort away from the D 153
four took post on D 152
fort sill during the D 152
fort good hope is D 152
fort from time to D 152
ford went over to D 152
fond look upon the D 152
four legs when it D 150
four cows from the D 150
foot sank deep in D 150
foot once upon the D 150
foot just ahead of D 150
foot hangs over the D 150
foot deep along the D 150
foot away from us D 150
foil were used to D 150
fort some time in D 149
foot well into the D 149
fort came into the D 148
foot felt like it D 148
four feet thick of D 146
foot pack back the D 146
food tray from the D 146
folk will want to D 146
foot race from the D 145
foul mood from the D 144
ford came back to D 144
foot kept time to D 144
four more cups of D 142
fort hall during the D 142
fort good hope at D 142
foot will stop the D 142
foot were used to D 142
folk songs will be D 141
four iron feet of D 140
fort good hope the D 140
foot trod upon the D 140
foot back upon the D 140
food bowl from the D 140
foot drop down the D 139
folk singer from the D 139
folk arts from the D 139
four teeth from the D 138
four more jets of D 138
foul play were the D 138
foul means must do D 138
ford back into the D 138
ford away from the D 138
foot went along to D 138
foot coming from the D 138
foot deep when the D 137
four legs ending in D 136
four great peaks of D 136
foul breath from the D 136
fort were sent to D 136
fort smith from the D 136
foot among some of D 136
folk songs there is D 136
ford lord grey of D 134
foot will make the D 134
foot were ready to D 134
foot went down the D 134
foil were used as D 134
foot sink into the D 133
folk songs must be D 133
folk songs among the D 133
folk living along the D 133
four guns were on D 132
four feet tall by D 132
form uric acid in D 132
foot hanging from the D 131
four rows give the D 130
four heads facing the D 130
form sane ideas at D 130
fore only during the D 130
fore feet were on D 130
foot back into it D 129
four legs will be D 128
four iron shoes of D 128
fort worth when the D 128
form slid into the D 128
foot will find the D 128
foot only when the D 128
foot down hard to D 128
food also tend to D 128
folk have been in D 128
four were shot at D 126
four great laws of D 126
four bays from the D 126
forth clad only in D 126
foot came down to D 126
foot back into my D 126
folk from time to D 126
foam rose from the D 126
form rows along the D 125
four years rose to D 124
four rows into the D 124
four paws into the D 124
four other guys to D 124
fore there must be D 124
ford meant when he D 124
foot slid over the D 124
foot main span of D 124
foot just clear of D 124
foot high when he D 124
folk were there to D 124
foam will form on D 124
foot wide hole in D 123
foot rest upon the D 123
foot length will be D 123
foul play when the D 122
foul play from an D 122
forth rays from the D 122
forth from mouth to D 122
forth from boat to D 122
fort worth will be D 122
form thick beds or D 122
form leaning over the D 122
ford once said of D 122
folk were among the D 122
folk came down to D 122
folk among whom it D 122
foam back into the D 122
fowl rising from the D 121
foot jump shot to D 121
four legs waving in D 120
four guns upon the D 120
four guns lost by D 120
four cows during the D 120
foul wind from the D 120
fork coming from the D 120
foot sent from the D 120
foot over into the D 120
folk will have it D 120
foul means what he D 118
food took over the D 118
food from noon to D 118
folk will soon be D 118
fort rising from the D 117
fore legs will be D 117
folk songs used in D 117
four feet thick is D 116
foot slid from the D 116
foot pace over the D 116
food mill into the D 116
foot upon foot of D 115
four were sunk by D 114
four rods west of D 114
four guns into the D 114
forth from farm to D 114
forth from camp to D 114
fort worth over the D 114
fork from left to D 114
foot will need to D 114
foot jump into the D 114
foot even when the D 114
folk were free to D 114
folk songs made by D 114
folk from over the D 114
foam will rise to D 114
foot wide band of D 113
folk coming from the D 113
four were shot by D 112
four bunk beds in D 112
four bags full of D 112
forth from rock to D 112
fort union from the D 112
foot very hard to D 112
foot from back to D 112
folk were more or D 112
foot wife gets on D 111
fork from hand to D 110
ford just north of D 110
foot give rise to D 110
foot cave over the D 110
foot came from the D 110
food were sold in D 110
food bill came to D 110
folk were just as D 110
fork left onto the D 109
four tabs along the D 108
four great hinges on D 108
four full rows of D 108
four dams along the D 108
forth wine into the D 108
forth some rays of D 108
ford cars sold in D 108
foot pass free of D 108
foot over much of D 108
folk songs tend to D 108
foam from side to D 108
foot wall into the D 107
folk hero during the D 107
four were sunk in D 106
four legs were the D 106
four guns were at D 106
four cups from the D 106
foot some part of D 106
folk were saying of D 106
foot coming down the D 105
folk songs seem to D 105
four years tend to D 104
four bars must be D 104
form sank into the D 104
fork leads down to D 104
foot lies flat on D 104
fond male flew to D 104
folk were fain to D 104
form must tend to D 103
foot just prior to D 103
foal back into the D 103
fowl rose from the D 102
four triad axes of D 102
four took hold of D 102
four oxen from the D 102
four heavy guns to D 102
four foot deep in D 102
four bars will be D 102
forth their wrath at D 102
forth such peals of D 102
fore feet will be D 102
foot were made to D 102
foot back along the D 102
folk know nothing of D 102
fort till most of D 101
four seats held by D 100
four main axes of D 100
foul from lack of D 100
fore from among the D 100
foot will help to D 100
foot well ahead of D 100
foot thick upon the D 100
foot line from the D 100
food crop among the D 100
fond kiss upon the D 100
folk were left in D 100
folk saying puts it D 100
foil tent over the D 100
fort there during the D 99
fork over some of D 99
foot wall made of D 99
food tray into the D 99
fowl from time to D 98
four rows deep in D 98
four pegs into the D 98
four iron pins to D 98
four eggs laid in D 98
fort till three in D 98
form took half an D 98
ford book fund in D 98
ford been able to D 98
foot took hold of D 98
foot slid along the D 98
foot from camp to D 98
foot dive into the D 98
foot came down the D 98
folk were living in D 98
foam rising from the D 98
four heavy guns on D 97
four rods south of D 96
four laps from the D 96
four feet tall is D 96
fort hall when the D 96
foot from four to D 96
fogs rise from the D 95
four main eras of D 94
four lions back to D 94
four feet thick to D 94
four cars sold in D 94
foul play must be D 94
forth away from thy D 94
fort hays till the D 94
fort hays during the D 94
fort hall road to D 94
ford said when he D 94
ford once said to D 94
foot were used in D 94
foot well down on D 94
foot safe upon the D 94
foot like those of D 94
food riots among the D 94
folk will find in D 94
folk among whom we D 94
foam more like to D 94
four wave mixing is D 92
four bays west of D 92
forth loud peals of D 92
form great beds of D 92
foot upon what is D 92
foot rose from the D 92
foot race down the D 92
foot over some of D 92
foot ever trod the D 92
fond good faith of D 92
folk will have the D 92
folk tale will be D 92
fork down onto the D 91
foot only from the D 91
four rods wide to D 90
four guys heard it D 90
four ells from the D 90
four cars were in D 90
foul play upon the D 90
forth good wine at D 90
ford came from the D 90
foot putt from the D 90
foot hard onto the D 90
foot down hard in D 90
foot back down the D 90
foot away when the D 90
fond ties glow at D 90
folk think nothing of D 90
folk have heard of D 90
foot beating time to D 89
four inch length of D 88
four guns were to D 88
four cups will do D 88
four cups full of D 88
foul play among the D 88
forth rays like the D 88
fort were shot in D 88
fort were four in D 88
foot very early to D 88
foot down here by D 88
foot bore down on D 88
food dyes such as D 88
food cart into the D 88
food cart down the D 88
folk tale into the D 88
folk have lent me D 88
folk come here to D 88
four other beds in D 86
four hour ride to D 86
forth their soul in D 86
forth their peals of D 86
foot came back to D 86
food rose during the D 86
food bags from the D 86
folk were part of D 86
folk come from the D 86
foot slip from the D 85
four lions rest on D 84
four great seats of D 84
fort came from the D 84
form took over the D 84
foot just like the D 84
foot came into the D 84
food from dish to D 84
fond gaze from the D 84
folk went forth to D 84
four tiny cups of D 82
fort came down to D 82
form took root in D 82
form most akin to D 82
form from neck to D 82
ford from farm to D 82
ford came down to D 82
foot from north to D 82
foot from home to D 82
food like bread or D 82
folk were slow to D 82
folk like those of D 82
four great eras in D 80
foul mood when the D 80
forth from lips so D 80
fort worth early in D 80
fort will ever be D 80
fort smith when he D 80
fort hall from the D 80
form from oval to D 80
fork went away to D 80
ford took part in D 80
foot will wipe it D 80
foot slip into the D 80
foot race back to D 80
foot cast into it D 80
folk were made to D 80
folk must learn to D 80
foil will keep the D 80
foil back over the D 80
foam runs down on D 80
foam flying over the D 80
folk hero from the D 71
fowl have been the D 67
fore finger into the D 67
foot wall along the D 65
foot thick wall of D 65
fowl feed during the D 58
foot wall side of D 58
font dating from the D 56
fore limb from the D 55
fore legs over the D 53
four feet thick as D 52
fore legs into the D 52
fore feet pawing the D 50
foot depth from the D 50
foot clear from the D 49
foot boat from the D 49
foot paths leading to D 48
foot jump shot at D 47
foot depth over the D 47
four heavy bags of D 46
foot wall from the D 46
foot rope tied to D 46
foot hole into the D 46
foot from here on D 46
fore part from the D 45
foot wide swath of D 45
foot putt into the D 45
foot more into the D 45
foot high when it D 45
foot care such as D 45
fold axis from the D 45
fowl come from the D 44
folk songs like the D 44
folk lore from the D 44
folk were coming in D 43
four mile ride in D 42
four like cats in D 42
foot fall onto the D 42
folk coming into the D 42
fowl were wont to D 41
form thick mats on D 41
foot thick from the D 41
fowl sail away to D 40
foot will rest on D 40
foot tall when he D 40
foot rule from the D 40
foot pine tree in D 40
foot high wall in D 40
foot care must be D 40
folk songs were in D 40
folk songs have the D 40
