found their way to M 359848
found there was no M 46539
forty years ago the M 26215
found also that the M 17997
found their way in M 17128
found some way to M 16978
forty years ago in M 15390
force their way to M 14905
forty years ago by M 13427
force their way in M 12216
found along with the M 10658
force will not be M 9920
forty years ago it M 9803
found among all the M 9500
found some way of M 8906
found nothing but the M 8766
found time for the M 8434
forms other than the M 7938
found their way on M 7771
found their way up M 7331
forty years with the M 7181
found wide use in M 6482
found such that the M 6464
forty years ago to M 6330
forty years old at M 5906
force their way up M 5842
forty years ago he M 5525
force must not be M 5330
found there was an M 5200
forty years for the M 5152
forcing their way to M 5040
found their way by M 5038
forty years and the M 4808
force other than the M 4488
found work with the M 4416
forty feet long by M 4360
found other things to M 4306
forms will not be M 4270
force like that of M 4183
found your way to M 4160
found only for the M 4138
found some one to M 4076
forty years ago as M 4043
found only near the M 3858
found room for the M 3817
found nothing out of M 3722
found here and in M 3685
found only one of M 3551
found many things to M 3524
forty years old in M 3450
forty years ago is M 3446
found only with the M 3388
forms used for the M 3384
forcing their way in M 3278
forty years that the M 3268
found great joy in M 3250
force base and the M 3227
forming what may be M 3205
focus will not be M 3093
forty years ago at M 3074
force need not be M 3071
found their way as M 3070
found here for the M 2988
force upon them the M 2980
forty years ago we M 2979
forcing their way up M 2889
fourth army and the M 2788
force upon him the M 2726
found much that is M 2714
found among any of M 2702
force will then be M 2594
forty days for the M 2584
forty years old or M 2546
found among men of M 2534
found some use in M 2512
forms need not be M 2511
forms there may be M 2496
found here are the M 2464
found very near the M 2400
found there and the M 2370
forty years out of M 2346
forty years and is M 2338
forms what may be M 2322
found there that the M 2308
fourth more than the M 2300
found there and in M 2294
found their way at M 2264
forty years ago on M 2253
forty years was the M 2244
force making for the M 2244
fourth less than the M 2228
found among them the M 2168
forty years that he M 2164
force there may be M 2156
found nothing but an M 2106
forming some idea of M 2098
found time for an M 2058
found there for the M 2032
focus here was on M 2016
force along with the M 1961
found more than the M 1906
found among both the M 1900
found what may be M 1896
found also that in M 1896
found many things in M 1890
force your way in M 1884
found dealing with the M 1864
found work for the M 1853
found among them in M 1826
forty years ago or M 1824
force must act on M 1814
force sent out to M 1808
found when using the M 1794
forms must not be M 1788
force only for the M 1782
fourth time that the M 1720
found here than in M 1712
forms along with the M 1698
found only two or M 1694
found also that it M 1680
forty years old he M 1642
found only two of M 1636
forty years ago an M 1610
found very few of M 1602
force will act on M 1598
found only one or M 1588
found here that the M 1568
found also for the M 1562
found best for the M 1554
force from year to M 1546
found what was to M 1540
found very easy to M 1536
found there all the M 1530
force upon her the M 1514
found time for it M 1494
found there with the M 1482
found there was to M 1472
found more than he M 1466
forty years may be M 1452
focus from that of M 1452
found nothing new in M 1440
forty days with the M 1434
forty years and in M 1430
found here and the M 1428
found wrong with the M 1416
forms only one of M 1396
forty years one of M 1388
force their way by M 1387
force their way on M 1379
fourth side was the M 1372
forty years and he M 1372
found there may be M 1358
fourth deals with the M 1346
fourth step was to M 1338
forty days and the M 1304
force sent out by M 1298
found wide use as M 1295
found along with it M 1284
found there was the M 1282
found there can be M 1280
force there was no M 1268
found there than in M 1260
forcing upon them the M 1240
found their man in M 1238
found over all the M 1236
forty feet long or M 1230
found among them as M 1228
forty years and it M 1228
found other than the M 1216
found among men in M 1205
found also that he M 1196
found here may be M 1195
found from one to M 1192
found from may to M 1184
forty feet off the M 1180
found only one in M 1171
force there was in M 1165
forcing upon him the M 1158
found only that the M 1155
found even for the M 1140
forms like that of M 1139
force will lead to M 1134
found what was the M 1126
force from him the M 1126
fourth plan and the M 1108
found some use as M 1101
found much use in M 1086
forum other than the M 1082
found among them an M 1078
forty years ago my M 1078
force upon all the M 1064
found ready for the M 1062
forty years that it M 1056
force less than the M 1056
found here are of M 1050
forty years and to M 1050
found next day in M 1048
found there one of M 1046
found their way of M 1038
found more easy to M 1030
fourth time that he M 1028
forty years ago no M 1028
forty years ago of M 1026
found many men of M 1022
found here can be M 1022
found upon one of M 1021
fourth army was to M 1020
force such that the M 1016
found only one thing M 1008
found just east of M 1002
found from two to M 1002
forms show that the M 1002
forms gave way to M 994
force used and the M 987
force means that the M 980
found their death in M 978
found from all the M 968
found there are the M 966
forty years was to M 956
found even with the M 950
found just off the M 946
found jobs with the M 946
found some things in M 942
found from that of M 936
fourth plan for the M 912
force from one of M 897
found from one of M 894
focus must not be M 891
found when all the M 890
found jobs for the M 888
found such things as M 885
fourth mile east of M 884
force there can be M 879
fourth month and the M 875
found room for it M 872
found best not to M 872
found were due to M 868
found will not be M 866
forty days was the M 856
found nothing was to M 855
found even now in M 854
force will act in M 854
forms come and go M 851
found here with the M 850
force must then be M 836
found also with the M 834
forms grow out of M 833
force will now be M 830
found rest for the M 828
found along all the M 828
found show that the M 826
found among all of M 822
forms give way to M 813
found these things in M 808
fools there are in M 802
found among them is M 794
found also that if M 794
focus will now be M 792
found there was so M 790
found great use in M 790
found living with the M 786
forty years can be M 784
found other than in M 781
focus means that the M 781
found from and the M 780
focus upon one or M 776
found upon any of M 774
found their way so M 771
found some things to M 768
found from six to M 768
found time for me M 766
found from any of M 766
forty years old to M 766
force upon them an M 766
force from all the M 765
found dealt with in M 762
found upon all the M 748
force acting and the M 748
found less than the M 740
found here and at M 738
found among them to M 738
forms vary with the M 738
forms used and the M 732
force coming out of M 732
found more than we M 728
found next day by M 726
force only with the M 720
found years ago in M 718
found nothing that he M 718
found such men as M 716
forms will now be M 716
found much joy in M 714
forcing their way on M 706
found there was in M 698
focus upon one of M 696
forty years than in M 694
found more than an M 690
found three out of M 684
force from that of M 683
fourth time with the M 680
found from ten to M 678
found your way in M 664
forty years old is M 664
found work for me M 658
found true for the M 656
found coming out of M 650
force will not do M 649
found there and to M 648
force must now be M 647
forms there are no M 645
found from day to M 644
forms from age to M 644
focus need not be M 643
forty days that he M 642
found much that he M 638
force used for the M 638
forty years was at M 636
found their way via M 634
forty feet and the M 634
forms grew out of M 630
force base for the M 628
found work with an M 626
force among all the M 626
forty years old by M 622
found such joy in M 620
force their men to M 620
force data for the M 620
found last year in M 618
force must act in M 618
force over all the M 617
found uses for the M 616
force felt that the M 616
forty years had to M 614
force into one of M 613
force other men to M 609
found more joy in M 608
found when one of M 606
found what was in M 606
found very near to M 606
forms turn out to M 606
found only east of M 602
forty years that we M 602
focus other than the M 597
fourth step was the M 594
found from year to M 592
forms there can be M 591
focus there was on M 591
forms were not the M 590
forms more than the M 590
focus will then be M 588
found here all the M 586
forms used with the M 585
force your way to M 585
force meant that the M 585
found room for an M 582
forms from that of M 580
forty years all the M 578
forms also can be M 573
found hope for the M 572
found there are no M 570
found upon him at M 568
found among them at M 568
found there that he M 566
found some men of M 562
found many things of M 560
force more than the M 557
found true that the M 556
found there are of M 550
found food for the M 548
focus upon how the M 548
forty years old on M 546
force from them the M 545
fourth time for the M 544
forty years old the M 544
fourth time and the M 538
found here was the M 538
force their way at M 538
force left for the M 536
found when one is M 534
found some one in M 534
force young men to M 534
found very few to M 528
focus from one to M 528
found also near the M 522
fourth goal was to M 514
found here one of M 514
fourth plan was to M 513
found their joy in M 508
forcing upon her the M 504
forum will not be M 503
found along both the M 502
forty years with no M 502
force these men to M 502
found among them of M 500
fourth book and the M 499
force even for the M 499
found there and at M 498
forms were not in M 498
found their use in M 496
forty years and we M 496
forms make use of M 494
focus areas for the M 494
forms will lead to M 493
fourth down and the M 488
found their path to M 486
found love for the M 486
found good things to M 486
focus from one of M 485
forty years and of M 482
forms also may be M 481
focus from near to M 479
forty years than the M 478
forty days that the M 476
force upon him an M 476
fourth side being the M 474
forms dealt with in M 472
force into two or M 472
found nothing new to M 468
forms were for the M 466
forms will then be M 464
force went out of M 464
fourth line and the M 462
forty years and at M 462
forty days out of M 462
force will try to M 462
force when all the M 462
force came out of M 462
found among them no M 461
forty young men in M 460
forms came out of M 460
force were out of M 460
forty years and an M 458
force grew out of M 458
focus along with the M 458
force acts and the M 456
found some ten or M 454
forty feet out of M 454
found less easy to M 452
force from day to M 452
found four out of M 448
found along with an M 447
found during one of M 444
force other than in M 442
found there two of M 441
forms such that the M 439
found room for in M 438
fourth dealt with the M 437
found also that an M 436
forty feet east of M 434
fourth week and the M 432
found making use of M 432
forty third year of M 432
force their way of M 431
fourth part for the M 430
found here that is M 430
forms were not to M 430
forty years with an M 428
forms were not so M 428
force dealing with the M 427
focus upon both the M 424
fourth beast and the M 422
force over that of M 422
found nothing new or M 420
forms were set up M 420
forcing young men to M 420
force went out to M 420
force lies not in M 420
forms means that the M 419
forms from one to M 418
fourth among all the M 417
force gave him the M 416
force also had to M 416
forms were then to M 414
force upon you the M 414
forms sent out by M 413
found nothing odd in M 410
found here are in M 410
forcing upon them an M 410
force from one to M 410
force base near the M 410
found there two or M 409
found here and on M 406
found like that of M 404
found laid out in M 404
forty more than the M 404
forms made use of M 404
force ready for the M 404
forms only for the M 403
found some way or M 402
found were not the M 400
force from his or M 399
force gave way to M 398
fourth book with the M 396
force from her the M 395
found acting with the M 394
forms have yet to M 394
force will thus be M 393
folding time for the M 392
force vary with the M 390
force were going to M 389
found only two in M 386
found must not be M 386
found were all of M 384
found good for the M 384
forty years has the M 384
forms used are the M 384
force will lie in M 384
fourth word that is M 382
found peace with the M 381
focus from god to M 381
found only one to M 380
forms from all the M 380
found there but the M 378
forty years and as M 378
found such that it M 376
found nothing that is M 376
found among them by M 374
force must act to M 374
force those who do M 373
found more things to M 372
force made use of M 372
forming what was to M 370
fourth term can be M 366
fourth less than in M 366
forty years saw the M 366
force there for the M 366
force here was the M 366
force here than in M 366
found three men in M 364
forms were due to M 364
forty years had the M 362
found room for me M 356
forms come out of M 355
forty years was an M 354
forty years than it M 354
found ways not to M 352
found living near the M 352
found also that we M 352
force acting for the M 352
force there was to M 351
found only off the M 350
forming ties with the M 349
found such that no M 348
force there was the M 348
fourth line with the M 346
found some one of M 346
fourth plan was the M 344
found some things of M 344
forty years are the M 344
found text with the M 342
forty years old as M 342
forms from each of M 342
found life with the M 341
found only six of M 340
found none but the M 338
fourth part may be M 336
found from top to M 336
forty years for it M 336
forms also one of M 336
force your dog to M 336
found open and the M 334
found most easy to M 334
force were not to M 334
force upon any of M 334
fourth said that he M 332
forty years was in M 332
found wrong with me M 330
found were not in M 330
found these men to M 330
force upon him so M 330
found were put to M 328
focus your eye on M 328
force used may be M 327
focus will lead to M 326
found wise men to M 324
found some one or M 324
found more than in M 324
forms there was no M 324
forms have led to M 324
folly very apt to M 324
found nine out of M 322
found from each of M 322
found also that by M 322
forming along with the M 322
fourth part out of M 320
found their end in M 320
force have led to M 320
force from both the M 320
forms made out of M 319
fourth home run of M 318
found wrong with it M 318
found were that the M 318
found from near the M 318
forty years now the M 318
found time for so M 316
found nothing that it M 316
found next day to M 316
found hanging out in M 316
found also that my M 316
forty years but the M 316
force size and the M 315
found such things in M 314
found more easy of M 314
found from both the M 314
folly need not be M 314
forms must now be M 312
focus must now be M 312
force from doing so M 309
found other things in M 308
found just then in M 308
forcing your way in M 308
found such that if M 306
found none for the M 306
forty feet long at M 306
forcing their way by M 306
force there was an M 306
fourth term for the M 304
found very few in M 304
forty years and by M 304
force from going to M 304
fourth week and is M 302
forty years and no M 300
force said that the M 300
fourth plan and to M 298
found time yet to M 298
found there and it M 298
fourth more than so M 296
found here and it M 296
found from this by M 296
forty days and to M 296
forms have had to M 294
force from him an M 293
forty fifth year of M 292
forming what can be M 292
focus here was to M 292
found these things to M 290
found some two or M 290
found here and is M 290
forty young men of M 290
forty ninth year of M 290
focus here not on M 290
found when both the M 288
found some joy in M 288
found along one of M 288
forty feet for the M 288
forms among all the M 288
force ratio for the M 287
forcing these men to M 286
force went out on M 286
forty years ago so M 285
found time for my M 284
forty years due to M 284
forms have all the M 284
focus will thus be M 284
found hanging dead in M 283
found also that as M 282
force must act at M 282
force born out of M 282
force base was the M 282
forms from both the M 281
force ratio and the M 281
found were for the M 280
focus upon and to M 278
fourth will not be M 276
fourth part and the M 276
force were not the M 276
force were now as M 275
forms there are in M 274
forms seem not to M 274
force heading for the M 274
force from top to M 274
fourth army led by M 273
folly like this by M 273
found here but the M 272
force their way as M 272
force must lie in M 272
found such that is M 271
forms dealing with the M 271
force upon both the M 271
force term can be M 271
fourth side was an M 270
found some six or M 270
found over all of M 270
found many dead in M 270
found from for the M 270
force save that of M 270
force base and at M 270
fourth line and in M 269
found only that he M 268
fourth term may be M 266
found time and the M 266
force when they do M 264
found from this is M 262
forms from year to M 262
force upon one of M 262
folly like that of M 262
found when she is M 261
force along with it M 261
fourth time that we M 260
forcing open all the M 260
force will act at M 260
folly will not be M 260
force acts with the M 259
found need not be M 258
force from each of M 258
fourth type was the M 256
found there was of M 256
found from end to M 256
focus more than the M 256
fourth part was to M 254
found when two or M 254
found nothing and no M 254
forty feet and is M 254
force from now on M 254
forty years and my M 252
force upon them at M 252
force made for the M 252
forms have for the M 250
forming cell and the M 250
force came out to M 250
force when one is M 249
fourth month that the M 248
fourth army for the M 248
found nothing yet to M 248
forty days all the M 248
forms have not in M 248
forming only one of M 248
fourth step may be M 246
fourth full year of M 246
force from him so M 246
force brings with it M 246
found when this is M 244
found upon him the M 244
found also that at M 244
fourth army was the M 243
fourth time was the M 242
found most use in M 242
forcing from him the M 242
force also may be M 242
force come out of M 241
fourth there was no M 240
fourth term and the M 240
found very low in M 240
forms made with the M 240
forty years and so M 239
found there and on M 238
found ideal for the M 238
force will cut the M 238
fourth arch and the M 236
force into that of M 236
found very apt to M 234
found meet for the M 234
focus from far to M 234
folly will die of M 233
found what she is M 232
found there that it M 232
found nothing and the M 232
forty feet long on M 232
forms there are the M 232
found room for us M 231
fourth step and the M 230
found ways out of M 230
found ways for the M 230
found room for so M 230
found room for my M 230
forum such that the M 230
forum need not be M 230
forty feet long in M 230
force upon them to M 230
fools will not go M 230
focus will lie on M 230
found must then be M 229
found what had to M 228
found means for the M 228
forms from one of M 228
force sent out in M 228
found when all of M 227
fourth there was an M 226
found uses for it M 226
found upon him he M 226
found giving way to M 226
forty years old if M 226
fourth more than in M 224
found there and is M 224
found some day to M 224
found room for at M 224
found five out of M 224
forms ready for the M 224
force were not in M 224
found rest for my M 223
fourth side for the M 222
found leading out of M 222
forms what can be M 222
force more than by M 222
force base with the M 222
forms other than as M 221
force acting for an M 221
found hiding out in M 220
forty years and on M 220
forms must then be M 220
forcing their way at M 220
focus here was the M 219
found laid out on M 218
found among them my M 218
force will act to M 218
force when one of M 218
force sent him to M 218
found none that he M 216
forcing many men to M 216
force came with the M 216
focus upon how to M 215
found those things in M 214
found ready for us M 214
forms part one of M 214
forms were not as M 213
found upon them the M 212
found time out of M 212
found there are in M 212
found hanging out of M 212
forty years had he M 212
forms used may be M 212
found work that he M 210
found there and by M 210
found hanging dead on M 210
forty years has so M 210
force from them an M 210
found hanging out at M 208
forms sent out to M 208
focus here and in M 208
found time both to M 207
forty days are up M 207
force acting with the M 207
focus meant that the M 207
found were not so M 206
found upon all of M 206
found those with the M 206
found among one of M 206
forms some idea of M 206
forms coming out of M 206
force will act as M 206
focus lies with the M 206
found there than the M 204
found over them in M 204
found even one of M 204
forty years but it M 204
fourth plan that the M 203
found some day in M 202
forty days and no M 202
force upon one the M 202
fools will not be M 202
found peace for the M 201
fourth part with the M 200
found time for in M 200
found their use of M 200
found some way in M 200
found here than at M 200
forty years did the M 200
force will all be M 200
force truth hath in M 200
force when this is M 199
fourth type may be M 198
found from one or M 198
forty years did he M 198
forty feet long to M 198
force will lead the M 198
force upon him in M 198
force these things on M 198
force their son to M 198
force flow out of M 198
found peace and the M 197
fourth step that the M 196
found those who do M 196
found ready for me M 196
forty years not to M 196
forty days was to M 196
forms other than in M 196
force will set up M 196
force also for the M 196
found half dead in M 195
found were not of M 194
found some few of M 194
force will bring the M 194
found there that is M 193
fourth month and is M 192
fourth line for the M 192
found there that in M 192
found from using the M 192
forty days and is M 192
force were not so M 192
force were due to M 192
force upon him it M 192
force make with the M 192
forms when two or M 191
focus deals with the M 191
fourth beast with the M 190
found there and he M 190
found next day on M 190
found amid all the M 190
forty sixth year of M 190
force also can be M 190
force open one of M 189
fourth less than it M 188
found there are so M 188
found five men in M 188
found early that the M 188
found caring for the M 188
forty years for an M 188
forty years did my M 188
forms made for the M 188
focus grew out of M 188
fourth line can be M 186
found there lying by M 186
found over one of M 186
found also two or M 186
forming from one to M 186
found work for us M 184
found upon them in M 184
found upon each of M 184
found such was the M 184
found saying that the M 184
found down near the M 184
forms will all be M 184
focus down with the M 184
found there was as M 183
found time for us M 182
found their way the M 182
found some one at M 182
found nothing and he M 182
found less than an M 182
found land for the M 182
force during all the M 182
focus here being on M 182
fourth army was in M 181
force upon each of M 181
force coming out to M 181
fourth step can be M 180
found there and no M 180
found their death on M 180
found nothing that we M 180
found most and in M 180
forty years long the M 180
forms giving way to M 180
force such that it M 180
focus from you to M 180
force into all the M 179
fourth rule for the M 178
found work and the M 178
found three things in M 178
found there way to M 178
found half way up M 178
found good use in M 178
found during any of M 178
found during all the M 178
forum must not be M 178
forum dealing with the M 178
forty years and if M 178
focus gave way to M 178
force will not in M 177
found some day or M 176
found four men in M 176
found early use in M 176
forty young men to M 176
forms have not the M 176
forcing upon them of M 176
force some men to M 176
force show that the M 175
focus upon two of M 175
fourth line may be M 174
found time hang so M 174
found such men in M 174
found more use in M 174
forms have this in M 174
forms come and to M 174
focus here are the M 173
fourth dealing with the M 172
found there and of M 172
found some men in M 172
found ready use in M 172
found even near the M 172
forty from east to M 172
forms have one thing M 172
force were put on M 172
force there and the M 172
force term due to M 172
force sent for the M 172
force must use no M 172
force make all the M 172
force other than to M 171
found their death at M 170
found life and the M 170
found last year at M 170
forty years that is M 170
forty feet long be M 170
forming what was in M 170
force from any of M 170
fourth from that of M 169
fourth army had to M 169
forms there are of M 169
fourth month with the M 168
fourth army east of M 168
found when one or M 168
found used for the M 168
found among each of M 168
found along any of M 168
focus from now on M 168
found your way up M 167
forms have not as M 167
forms from out of M 167
force your son to M 167
force upon her an M 167
folly help out my M 167
fourth rate men of M 166
found next day at M 166
found many men in M 166
found here was of M 166
found here that it M 166
found faith with the M 166
forty years and be M 166
forty days that it M 166
force from out of M 166
folds like that of M 166
fourth main area of M 164
found upon him in M 164
found these men in M 164
found other things of M 164
found other men to M 164
found only that in M 164
found nothing for it M 164
found more use of M 164
found here and to M 164
forcing term for the M 164
force here fit to M 164
fourth book that the M 162
found some men to M 162
found only six or M 162
found ages ago in M 162
forty days may be M 162
forms have two or M 162
force held him in M 162
force base and in M 162
focus leads him to M 162
force upon him as M 161
fourth plan may be M 160
found your idea of M 160
found years ago at M 160
found there than at M 160
found there but in M 160
found such that at M 160
forty days and it M 160
forms call for the M 160
found what can be M 158
found just now in M 158
found half dead on M 158
forms from one or M 158
force your way up M 158
force from ten to M 158
force from being the M 158
force acts may be M 158
focus means that we M 158
found there both the M 157
force moving him to M 157
found years ago by M 156
found soon that the M 156
found only that it M 156
found free and in M 156
forty years who is M 156
forty years ago if M 156
force when and if M 156
force from then on M 156
force acts for so M 156
fourth ward and the M 155
forms when one of M 155
focus upon them as M 155
fourth side and the M 154
fourth rate man of M 154
fourth plan can be M 154
fourth plan and in M 154
found when each of M 154
found there was at M 154
found their way or M 154
found some things he M 154
found room for on M 154
found nothing for the M 154
found gave them to M 154
found also that of M 154
forty years old it M 154
forty days with no M 154
forms were all in M 154
forming along with it M 154
force such men to M 154
forms from two to M 153
focus upon each of M 153
found what are the M 152
found those who in M 152
found these men at M 152
found like him in M 152
forty ways that he M 152
forty days are to M 152
forms like that in M 152
forcing boys not to M 152
force upon him to M 152
force there are no M 152
force even with the M 152
focus from how to M 152
force more than it M 151
force from two to M 151
folds along with the M 151
fourth great head of M 150
fourth book for the M 150
forty years and up M 150
forty days and in M 150
forcing other men to M 150
force held off the M 150
force base was in M 150
force base and is M 150
fourth time that it M 148
found much use as M 148
forms were new to M 148
forcing upon him an M 148
forcing their men to M 148
force will bring us M 148
force used with the M 148
folds will not be M 148
fourth more than it M 147
found union with the M 147
fourth plus one of M 146
fourth case may be M 146
found years ago on M 146
found vary with the M 146
found soon that to M 146
found some with the M 146
forty years now he M 146
forty feet and in M 146
forms from out the M 146
forcing open one of M 146
force have had to M 146
force other than as M 145
found these men so M 144
found only far to M 144
found means that the M 144
found here was an M 144
found from them by M 144
forty years but he M 144
forms were set in M 144
force when that is M 144
force note that the M 144
forms were put in M 143
fourth page was the M 142
fourth case was the M 142
found were all in M 142
found time too to M 142
forms when one or M 142
forms were put to M 142
force plan for the M 142
found from now on M 141
force other than an M 141
fourth plan has to M 140
found soon that it M 140
found ready for it M 140
found none with the M 140
found need for the M 140
found along all of M 140
forty feet with the M 140
force upon him at M 140
force move with the M 140
forty days and as M 139
fourth type are the M 138
fourth item was the M 138
found three men of M 138
found there men of M 138
found some one he M 138
forms making use of M 138
force when each of M 138
force used was the M 138
force moving out of M 138
found means both to M 137
force more out of M 137
fourth beast was the M 136
found some man or M 136
found more for the M 136
found here but in M 136
found from then on M 136
forty days for an M 136
forms from day to M 136
forming their idea of M 136
force when she is M 136
force base and to M 136
force also had the M 136
found among them so M 135
force many out of M 135
found upon earth at M 134
found reading one of M 134
found only weak or M 134
found during both the M 134
found also that no M 134
forty years led to M 134
forms were easy to M 134
forms these may be M 134
force were not at M 134
force upon them in M 134
force term and the M 134
force line and the M 134
force lies with the M 134
force lies for us M 134
fourth plan with the M 132
found upon one or M 132
forty years with my M 132
forty years are to M 132
forty feet and it M 132
forming part now of M 132
force were then to M 132
force upon him or M 132
force deals with the M 132
focus only with the M 132
found were not as M 131
forming body for the M 131
force unit and the M 131
force data and the M 131
focus upon them in M 131
focus there may be M 131
found your way so M 130
found very far in M 130
found upon them to M 130
found there near the M 130
found there had to M 130
found only with an M 130
found nothing but my M 130
found living off the M 130
found here are on M 130
found best that the M 130
forms used can be M 130
force used can be M 130
force open all the M 130
force most apt to M 130
force means that it M 130
force lies not so M 130
force felt that it M 130
focus brings with it M 129
found will then be M 128
found their way is M 128
found some things we M 128
found here are as M 128
forms rise out of M 128
forms other than an M 128
forms have one or M 128
forms from all of M 128
force your cat to M 128
force will end up M 128
focus here may be M 128
fourth army with the M 127
fourth week with the M 126
fourth hour and the M 126
found some man to M 126
found some ease in M 126
found only two to M 126
found only ten or M 126
found here was in M 126
found here both in M 126
found here are to M 126
found even yet in M 126
found among one or M 126
forum grew out of M 126
forty years was so M 126
forty years that an M 126
forms when they do M 126
forms must lead to M 126
forms into use in M 126
force were now in M 126
force like that in M 126
found wealth and the M 125
fourth side can be M 124
found here near the M 124
found good things in M 124
found among them it M 124
forty years was no M 124
forty years head of M 124
forty days are the M 124
forms leads him to M 124
force during each of M 124
force also has the M 124
focus when using the M 124
found time now to M 123
forms acid but no M 123
fourth week that the M 122
fourth time was in M 122
fourth plan and it M 122
found upon two of M 122
found upon him by M 122
found safe for the M 122
found only one at M 122
found less than in M 122
found here that we M 122
found also that on M 122
forty years for me M 122
forty years and do M 122
forty days and he M 122
forms went out of M 122
forms ranging all the M 122
forms born out of M 122
force were set up M 122
force their way so M 122
force once set in M 122
force here and the M 122
force from end to M 122
force during that of M 122
focus from all the M 122
focus also can be M 122
found there than on M 121
fourth time and he M 120
fourth month all the M 120
fourth copy goes to M 120
found will now be M 120
found upon him or M 120
found true joy in M 120
found some idea in M 120
found none that is M 120
found many things on M 120
found here with me M 120
found deep joy in M 120
forty years yet to M 120
forty days she is M 120
forms these are the M 120
forcing those who do M 120
force what can be M 120
force were for the M 120
force used was in M 120
force told off to M 120
fools were going to M 120
forms only with the M 119
force data can be M 119
fourth kind are the M 118
found what all the M 118
found were near the M 118
found very easy of M 118
found time with the M 118
found soon that he M 118
found some one on M 118
found nice things to M 118
found much out of M 118
found more fit to M 118
found just out of M 118
found four men at M 118
forty years for us M 118
forty years and am M 118
forms were not of M 118
forms made out by M 118
forming from them the M 118
force were not as M 117
force other than by M 117
force meant that it M 117
force from her an M 117
fourth home run in M 116
found these two in M 116
found other than by M 116
found more than my M 116
found like that in M 116
found last year by M 116
found from east to M 116
found acting for the M 116
forty years owing to M 116
forty years has it M 116
forms were but the M 116
forming some idea as M 116
forcing from them the M 116
force there and in M 116
force sent out of M 116
force must lead to M 116
force here for the M 116
force also led to M 116
focus must lie on M 116
focus areas and the M 116
found love with the M 115
found faith and the M 115
forms more than an M 115
fourth time all the M 114
fourth line and by M 114
fourth copy may be M 114
found what was of M 114
found three men on M 114
found there with an M 114
found some bit of M 114
found over one or M 114
found nothing going on M 114
found just that in M 114
found here and by M 114
found from and is M 114
forty feet may be M 114
forms part two of M 114
forms part both of M 114
forms from any of M 114
forcing some out of M 114
force left was the M 114
focus must then be M 114
focus from one thing M 114
found their own in M 113
force give way to M 113
found upon him of M 112
found those that he M 112
found there are as M 112
found nothing for me M 112
found less than he M 112
found food for my M 112
forum during all the M 112
forms when air is M 112
forms into one of M 112
force when using the M 112
force when and to M 112
force till all is M 112
force there had to M 112
force here and in M 112
force also has an M 112
focus such that the M 112
forms such that it M 111
forms here are the M 111
fourth time and is M 110
found well out in M 110
found upon them is M 110
found turn out to M 110
found time for at M 110
found having all the M 110
found among you in M 110
forum will lead to M 110
forty years has in M 110
forty years but in M 110
forty days had no M 110
forms used are as M 110
forms show that it M 110
forms curl out of M 110
force must end in M 110
forms part and the M 109
forms just one of M 109
force dealt with the M 109
fourth type can be M 108
fourth says that the M 108
fourth army and of M 108
found when using an M 108
found what one of M 108
found upon them by M 108
found those things to M 108
found those for the M 108
found their use to M 108
found their son in M 108
found some that he M 108
found show that it M 108
found save that of M 108
found just one of M 108
found from this to M 108
found along each of M 108
forty more for the M 108
force these things to M 108
force even than the M 108
force base for an M 108
forms even for the M 107
force upon all of M 107
force also has to M 107
focus upon all the M 107
fourth week for the M 106
fourth step for the M 106
found what was at M 106
found upon that of M 106
found there that we M 106
found such that in M 106
found once each in M 106
found more apt to M 106
found here for an M 106
found even then to M 106
found among men is M 106
forms upon them in M 106
force their way or M 106
force term for the M 106
force made this an M 106
force like this is M 106
forms more than in M 105
forms food for the M 105
fourth side are the M 104
fourth plan with an M 104
fourth page with the M 104
found were not to M 104
found upon both the M 104
found these men on M 104
found some men at M 104
found last year on M 104
found here but an M 104
found help for the M 104
found along one or M 104
forty years has he M 104
forty feet long is M 104
forms will lead us M 104
forms from that in M 104
forms brings with it M 104
forming part both of M 104
forcing wild out of M 104
force went out as M 104
force theory and the M 104
force making for an M 104
force like that at M 104
force even him to M 104
force during one of M 104
found love and the M 103
found even this to M 103
fourth years and the M 102
fourth month for the M 102
fourth army and to M 102
found your son in M 102
found your man in M 102
found nothing bad in M 102
found most apt to M 102
found from that in M 102
forty years ago do M 102
forms were all the M 102
forms must all be M 102
forms meant that the M 102
forms leads one to M 102
forms have had on M 102
forms have had an M 102
forcing many out of M 102
force used was no M 102
force knew that the M 102
force from using the M 102
folds down out of M 102
focus upon for the M 102
force size for the M 101
folds there may be M 101
fourth week all the M 100
fourth form may be M 100
found were men of M 100
found till now in M 100
found mixing with the M 100
found many things he M 100
found from all of M 100
found cast out on M 100
forms were put on M 100
forms were not at M 100
forms dealt with by M 100
forcing such men to M 100
force when all of M 100
force upon one or M 100
folly those who do M 100
found wealth for the M 99
found note that the M 99
force upon them by M 99
fourth type that is M 98
fourth time and it M 98
fourth part was the M 98
fourth pair and the M 98
found when not in M 98
found upon him to M 98
found some new thing M 98
found more easy in M 98
found jobs and the M 98
found into one of M 98
found here than on M 98
found from this as M 98
found among you an M 98
forty years led the M 98
forms will not do M 98
forms were out of M 98
forms laid out in M 98
forcing just one of M 98
forcing from him an M 98
force will use the M 98
force upon men the M 98
force came out in M 98
folds give way to M 98
folding their wings to M 98
found more that is M 97
found here that in M 97
force your head up M 97
force acting may be M 97
fourth mate was to M 96
found upon him on M 96
found love not as M 96
found data for the M 96
forty years old of M 96
forms will add to M 96
forms into all the M 96
forms give you the M 96
forcing upon them by M 96
force your way by M 96
force sent out on M 96
force from six to M 96
fools have not the M 96
focus from him to M 96
found some going up M 95
fourth book may be M 94
found work that is M 94
found very ill in M 94
found their idea of M 94
found their death by M 94
found such that an M 94
found peace with my M 94
found only out of M 94
found most things to M 94
found here with us M 94
forms there was an M 94
forming more than an M 94
forming food for the M 94
force were put to M 94
force were cut to M 94
force used than is M 94
force pull one of M 94
force during all of M 94
fools like you do M 94
focus less than is M 94
focus upon all of M 93
fourth time one of M 92
fourth term with the M 92
fourth room was the M 92
fourth line had to M 92
fourth full day of M 92
found work out of M 92
found when any of M 92
found what was so M 92
found well out on M 92
found well off the M 92
found very far to M 92
found there are at M 92
found other than an M 92
found none but in M 92
found hanging near the M 92
forms having all the M 92
forms came with the M 92
forms also had to M 92
forming mind out of M 92
forming from two to M 92
forcing term can be M 92
force your way on M 92
force will add to M 92
force were dead or M 92
force have for the M 92
force along each of M 92
fools think that the M 92
focus their use of M 92
focus lies not on M 92
forty years old no M 91
force into one or M 91
focus upon one thing M 91
focus upon and the M 91
fourth type and the M 90
fourth time did he M 90
fourth month was the M 90
found wise not to M 90
found upon them an M 90
found there ten or M 90
found part way up M 90
found more had he M 90
found from that at M 90
found from age to M 90
found during each of M 90
found among them if M 90
forty years that my M 90
forty years now we M 90
forty years long to M 90
forty years long in M 90
forty days and do M 90
forms part and in M 90
forcing term due to M 90
forcing term and the M 90
force went out in M 90
force their doing so M 90
force among them to M 90
fools there than we M 90
folds must not be M 90
focus upon was the M 90
focus from her to M 90
focus from death to M 90
found some things on M 89
found hard going in M 89
force more than in M 89
focus will lie in M 89
fourth line has the M 88
found were two of M 88
found there for an M 88
found saying that he M 88
found less use of M 88
found less joy in M 88
found four men of M 88
found even then in M 88
found among you to M 88
forty years not so M 88
forty other men in M 88
forty days and of M 88
forms were apt to M 88
forms made out in M 88
forcing away with it M 88
force must cut the M 88
force just going to M 88
force leads him to M 87
force just for the M 87
fourth side with the M 86
fourth role for the M 86
fourth line was the M 86
found your way by M 86
found when two of M 86
found used with the M 86
found true with the M 86
found these things on M 86
found nothing for my M 86
found none that we M 86
found living both in M 86
found also both in M 86
forms were all of M 86
forming more than the M 86
force very near the M 86
force upon for me M 86
force there and to M 86
force there and by M 86
force some out of M 86
force sets out to M 86
force play and the M 86
fools like you to M 86
folding their wings in M 86
focus areas can be M 86
force from going on M 85
found wrong with my M 84
found work using the M 84
found what was on M 84
found upon them or M 84
found these things at M 84
found these men of M 84
found some day by M 84
found many who do M 84
found here due to M 84
found good that the M 84
found from thus the M 84
found early that he M 84
found dealt with the M 84
found among them on M 84
found among men at M 84
found among all or M 84
found also all the M 84
forty years had in M 84
forty will not be M 84
forms show them to M 84
force there was so M 84
force over one of M 84
force must all be M 84
force leading them to M 84
force into any of M 84
force grew with the M 84
force even now in M 84
force acting due to M 84
folly from now on M 84
focus when one is M 84
focus means that it M 84
fourth week and in M 82
fourth ward was the M 82
fourth part that is M 82
fourth case was of M 82
fourth book was the M 82
fourth army and in M 82
found wide use on M 82
found when you go M 82
found upon them at M 82
found these two to M 82
found some who do M 82
found some way by M 82
found only ten of M 82
found most for the M 82
found less than it M 82
found among two or M 82
found among them or M 82
forty feet was the M 82
forms will thus be M 82
forms will aid in M 82
forms most apt to M 82
forms have not so M 82
forms asking for the M 82
forming were put in M 82
forcing their son to M 82
force term may be M 82
force pass out of M 82
force making use of M 82
force knew how to M 82
force kept out of M 82
force held him to M 82
fourth call was to M 80
found were not at M 80
found torn out of M 80
found their man at M 80
found their law in M 80
found living with an M 80
found last year to M 80
found hanging out on M 80
forum there was an M 80
forty years had no M 80
forty years all of M 80
forms were old on M 80
forms lies not in M 80
forming such idea of M 80
forcing upon her an M 80
force your men to M 80
force those men to M 80
force just out of M 80
force have yet to M 80
force base east of M 80
force acts for the M 80
focus leads them to M 80
folly there may be M 71
force there are in M 61
force work out of M 60
force into being the M 59
forms less than the M 58
force upon them as M 56
forcing their way as M 54
focus when you do M 54
found upon him as M 53
fourth less than at M 51
found among men as M 51
force size can be M 51
fourth more than is M 50
fourth more for the M 49
found there not the M 49
found need for an M 49
fourth said that the M 48
forms from now on M 48
forty years are as M 47
forms into one or M 47
force turn out to M 47
found there and so M 46
folly there can be M 46
forms from ten to M 45
folly more than the M 45
force must act as M 44
force upon them is M 43
force upon him by M 43
forty years was as M 42
forms part now of M 42
force more than to M 42
force more than is M 42
force made him the M 42
force less than an M 42
force from all of M 42
focus upon how we M 42
fourth army was on M 41
found there and as M 41
found rest and the M 41
found mine and we M 41
forms along with it M 41
force from you the M 41
focus upon how it M 41
found wood for the M 40
found free and as M 40
force upon man the M 40
force from him by M 40
focal length and the D 7238
foods from each of D 4842
focal length can be D 4538
forge ahead with the D 3861
focal length for the D 3430
footing from that of D 3303
found shot dead in D 2541
folks will not be D 2122
focal length may be D 2056
forging ahead with the D 1980
focal spot and the D 1732
folks were going to D 1730
foods from all the D 1620
focal length than the D 1590
foods will not be D 1126
folks have got to D 1078
focal length and an D 1068
force bill and the D 1042
folks know how to D 968
found seats near the D 966
focal length and is D 952
focal length that is D 886
foods must not be D 862
foods need not be D 810
focal spot can be D 800
found hers and he D 793
found some rum in D 764
foods eaten and the D 736
folks were out of D 708
found voting with the D 706
forge ties with the D 666
found singly and in D 660
fourth finger and the D 636
found mingling with the D 632
forging ties with the D 614
footing from that on D 610
folks were not so D 586
foods other than the D 534
focal length with the D 534
foods from all of D 526
folks from out of D 462
fonts used for the D 452
forge ahead and do D 436
foods will lead to D 420
folks came out of D 414
focal length that the D 404
folks think that the D 398
found voting for the D 396
folks knew how to D 388
forge ahead and to D 376
folks want you to D 376
foods along with the D 374
found shot dead on D 372
focal spot may be D 368
folks come and go D 352
folks like you to D 344
folks when they do D 336
folks have had to D 332
folks know that the D 328
found seats for the D 318
folks said that the D 318
forge fire and the D 312
folks will not do D 306
folks have all the D 306
fourth task was to D 298
folks were not the D 298
focal depth and the D 298
foamy surf that the D 296
forge ahead with an D 294
folks know that we D 292
found siding with the D 282
folks went out to D 282
found shot dead at D 280
folks came out to D 278
forts were put in D 276
folks said that he D 276
found great fun in D 274
fourth plan was rs D 272
folks will try to D 270
folks have got so D 270
forge ahead with my D 266
focal length and of D 264
forms rising out of D 258
folks made for me D 256
forts were set up D 254
foods from day to D 254
fourth wall was the D 252
found gold near the D 252
forty rods east of D 252
focal line and the D 252
force drew him to D 250
folks will not go D 248
forge ahead and the D 247
folks have got the D 244
focal length with an D 242
folks will not eat D 240
focal areas for the D 240
focal zone can be D 238
focal length has the D 238
fowls know you to D 236
focal length due to D 236
fourth wall and the D 234
found vent for the D 232
forge their way to D 232
forks were not in D 230
footing from that in D 229
found hers and the D 228
forging their way to D 228
forging ahead and the D 228
footing from any of D 228
focal length and to D 226
folks were not in D 224
found from near sea D 221
foods fill you up D 220
forging ahead with an D 216
foods have led to D 216
fonts will not be D 212
folks were apt to D 212
focal length and so D 212
folks will let me D 210
fourth plan and rs D 206
folks were not at D 206
fowls will not eat D 202
foods were fed to D 202
footing from all the D 201
forty sous for the D 198
force pump and the D 198
foods used for the D 198
folks coming out of D 198
focal spot for the D 196
folks come out to D 194
foods give you the D 190
folks burn his tea D 190
focal length that it D 190
found seats for us D 188
foods made with the D 188
focal firm and the D 188
forty guns and the D 186
foray into one of D 184
fonts other than the D 182
folks went out of D 182
force your mac to D 178
force paid for by D 178
foods eaten with it D 178
focal length are the D 178
fourth cash and the D 176
found iron ore in D 176
folks want him to D 176
folks there are in D 176
focal depth can be D 176
fourth wife was the D 174
found some art of D 174
found fame with the D 174
forks into two or D 170
force urging him to D 170
folks come for the D 170
focal length for an D 170
focus lens for the D 169
force wife not in D 166
focal spot with the D 166
found your bed so D 165
forts were out of D 164
foods there may be D 164
focus lens can be D 163
fools bears not so D 162
foods were not the D 162
foods also can be D 162
folks must not be D 162
force pump may be D 161
folks came out by D 160
foist upon him the D 160
focal date and the D 160
foods from two or D 158
folks will all be D 156
foist upon them the D 156
fowls were fed on D 155
focus their ire on D 153
forty foot out of D 152
forming tool and the D 152
folks were not as D 152
folks think that if D 152
folks from all the D 152
focus lens and the D 152
focal line can be D 152
fourth theme was the D 150
foods were not to D 150
folks were all in D 150
folks said that it D 148
footing will not be D 146
focal length has an D 146
fourth finger for the D 144
forks made for the D 144
foods made out of D 144
foods were not as D 143
fourth dose may be D 142
folks know that he D 142
folks knew that the D 142
focal length and in D 142
found tinged with the D 140
forge shop and the D 139
forty tons for the D 138
forts were not to D 138
foods like meat or D 138
foods from one or D 138
folks went off to D 138
focal spot that is D 138
found ready ears in D 137
found coping with the D 137
fourth inning with the D 136
foods used and the D 136
fourth wire may be D 134
found some ears of D 134
foods vary with the D 134
folks like you do D 134
folks like that in D 134
focal length has to D 134
foods will not do D 132
folks think that it D 132
forging ahead all the D 130
foods eaten with the D 130
folks will let us D 130
folks will get it D 130
focus lens may be D 129
force smith and the D 128
force rode out to D 128
force pump can be D 128
foods have yet to D 128
folks turn out to D 128
found their fun in D 126
found oozing out of D 126
folks think she is D 126
folks care for the D 126
foggy days for the D 126
focal zone and the D 126
found their pot of D 124
found much fun in D 124
forty fort and the D 124
forms tend not to D 124
folks know that it D 124
fowls were lying on D 122
fowls ready for the D 122
fourth wife and the D 122
fourth inning and the D 122
fourth finger with the D 122
forming laws for the D 122
force rode out of D 122
foods also may be D 122
folks there are the D 122
folks feel that the D 122
focal length but of D 122
focal depth for the D 122
forge ahead for the D 121
fourth foot and the D 120
found voting for it D 120
forty seats for the D 120
forge arms for the D 120
footing here than in D 120
foods more than the D 120
folks were doing the D 120
folks think this is D 120
folks been singing it D 120
foods were put on D 119
fourth shot hit the D 118
forts were not in D 118
force fuel out of D 118
foods very low in D 118
foods from both the D 118
folks here are in D 118
foods from any of D 116
folks took him to D 116
forty quid for the D 114
forty guns for the D 114
forts were not so D 114
forge their way in D 114
force laws for the D 114
foods eaten may be D 114
folks have had the D 114
folks come out of D 114
forts gave way to D 112
forcing milk out of D 112
foods when you eat D 112
folks will see it D 112
folks when they go D 112
folks felt that the D 112
folks call him the D 112
found rising out of D 110
forge ahead with it D 110
force were met by D 110
foods ready for the D 110
foods only for the D 110
focal length and it D 110
fowls coming out of D 108
fourth bump and the D 108
found shot dead by D 108
force rising out of D 108
force flung him on D 108
folks think they do D 108
focal length and on D 108
force pump for the D 107
found some oil in D 106
forum baths and the D 106
forking into two as D 106
force laws and the D 106
foods laid out on D 106
folks were not to D 106
folks make fun of D 106
focal areas may be D 106
forging ahead with my D 104
foods made with it D 104
foods have all the D 104
folds fuse with the D 104
focal theme for the D 104
fours along one of D 102
found their fox in D 102
found here and la D 102
found dining with the D 102
forks over one of D 102
forking into two or D 102
force drew near the D 102
foods made with or D 102
foods help you to D 102
focal spot area of D 102
forging their way up D 101
footing only with the D 101
found seats and the D 100
forging ahead and is D 100
footing here than at D 100
folks have not the D 100
fonts along with the D 99
forty beds for the D 98
force laws can be D 98
folly ooze out of D 98
folks like you in D 98
focal length and by D 98
forcing oral sex on D 96
folks will read it D 96
fourth rode out the D 94
fourth finger may be D 94
forts will not be D 94
force urging them to D 94
force drew her to D 94
foods when one is D 94
folks were out in D 94
fowls will not be D 92
found some ray of D 92
found fuel for the D 92
forty seats out of D 92
forts were for the D 92
forge came out in D 92
footing even with the D 92
fonts were set up D 92
folks told him he D 92
folks think that he D 92
folks saying now as D 92
folks living near the D 92
folks from that of D 92
foaming over them in D 92
folks will get in D 91
fourth rows are the D 90
fourth drug may be D 90
forty tons and the D 90
forts were all in D 90
forge ahead and be D 90
foods eaten and of D 90
folks went off in D 90
folks hold them to D 90
focal length than is D 90
found iron ore on D 88
forts there was no D 88
forts there for the D 88
foray once did in D 88
footing among men in D 88
folks were all at D 88
folks like they do D 88
foyer gave way to D 86
forty oxen lay in D 86
forging ahead for the D 86
fords there was no D 86
footing there with the D 86
folks must put up D 86
focal length being the D 86
foxes will not eat D 84
found drug use to D 84
forty seats and the D 84
forts fell one by D 84
folks will get to D 84
folks sent him to D 84
folks seem not to D 84
focus from art to D 84
foaming base lay the D 84
found john lying on D 82
foods were not so D 82
folks have got an D 82
found vent for my D 80
force urging you on D 80
foods were not in D 80
foods lack one or D 80
folks need not be D 80
folks just had to D 80
folks have got it D 80
focal length and at D 80
fools crow and the D 57
folly told thee to D 46
found folk art of D 45
forks into two at D 45
folks were not up D 44
force milk out of D 43
forms soap with the D 41
found gold and the D 40
forging dies and the D 40
footing along with the D 40
