so strong that even M 25164
so small that there M 21194
so large that there M 16532
so small that their M 15160
so small that only M 13910
so strong that when M 11616
so strong that there M 10778
so could not have M 10615
so small that even M 10376
so large that even M 9938
so close that their M 9538
so large that their M 8952
so check with your M 8767
so large and heavy M 8586
so large that only M 8036
so close that there M 7680
so strong that many M 7604
so strong that nothing M 6600
so strong that some M 6572
so strong was their M 6358
so often has been M 6224
so small that when M 6008
so sorry for your M 5548
so strong and well M 5505
so often that there M 5260
so sorry for what M 4966
so short that there M 4728
so large that when M 4674
so large that many M 4498
so while they were M 4492
so strong that only M 4436
so close that when M 4370
so large that some M 4084
so strong has been M 3888
so strong that their M 3638
so sweet and kind M 3569
so named for their M 3522
so strong and clear M 3352
so small that many M 3340
so black and blue M 3289
so sorry you have M 3240
so sweet and good M 3226
so small that most M 3116
so strong that most M 3074
so strong and deep M 3007
so large and well M 2974
so after you have M 2878
so fully set forth M 2822
so since they were M 2817
so often that their M 2786
so close that even M 2775
so small that these M 2676
so small that some M 2612
so after they have M 2593
so plain and clear M 2560
so close that some M 2534
so often had been M 2532
so sweet and pure M 2508
so tight that there M 2350
so badly that there M 2320
so strong had been M 2306
so close that only M 2282
so often that many M 2262
so large that most M 2260
so badly that when M 2230
so often did when M 2192
so close they were M 2189
so until they were M 2175
so badly that even M 2150
so often that even M 2132
so sorry you were M 2116
so shall you have M 2116
so people who have M 2111
so often that when M 2052
so until they have M 2036
so saved his life M 2022
so large and deep M 1978
so sweet and clear M 1967
so strong and full M 1962
so sweet and fair M 1908
so tight that even M 1878
so strong that these M 1876
so within two years M 1862
so after two years M 1843
so sorry for poor M 1838
so plain that there M 1830
so white and clean M 1829
so strong and sure M 1827
so short that only M 1820
so often that some M 1810
so often they were M 1778
so badly that their M 1772
so small and their M 1764
so light and free M 1763
so large and their M 1752
so happy with their M 1728
so close she felt M 1717
so maybe they were M 1709
so small and poor M 1694
so plain that even M 1691
so small they were M 1690
so often they have M 1690
so large that these M 1682
so steep and high M 1652
so steep that there M 1650
so shall you find M 1641
so people who were M 1638
so short that when M 1624
so happy you came M 1622
so small that very M 1612
so after they were M 1612
so until you have M 1609
so could not give M 1605
so small that such M 1578
so could not tell M 1571
so small that nothing M 1558
so close that many M 1550
so easily put down M 1546
so easily this time M 1528
so rather than risk M 1526
so fully and ably M 1522
so strong are these M 1510
so acute that even M 1510
so strong that those M 1490
so quiet and well M 1488
so could not make M 1485
so could not take M 1482
so large and fine M 1473
so small that none M 1466
so strong and true M 1456
so while you were M 1451
so within ten days M 1432
so short that their M 1432
so close was their M 1422
so white and pure M 1406
so large that more M 1406
so maybe you will M 1397
so strong that none M 1396
so steep that even M 1390
so rather than have M 1374
so happy and full M 1324
so sorry for those M 1310
so short that even M 1294
so happy and free M 1294
so often had done M 1292
so large and rich M 1292
so strong and self M 1290
so since that time M 1281
so brave and true M 1276
so happy with your M 1254
so noted for their M 1248
so happy you have M 1242
so upset and angry M 1240
so rather than trying M 1224
so easily won over M 1205
so could not help M 1197
so strong and cold M 1190
so could not come M 1188
so quiet and calm M 1186
so tight that when M 1184
so large and full M 1182
so mixed with other M 1178
so sweet and soft M 1177
so today than ever M 1171
so strong that other M 1164
so after all these M 1151
so large that three M 1148
so badly they were M 1146
so still and calm M 1135
so happy and well M 1122
so after that rate M 1114
so strong that such M 1110
so still and cold M 1110
so often you have M 1106
so fixed and show M 1090
so white and fair M 1084
so lived and died M 1084
so still that even M 1082
so where are these M 1078
so sweet and clean M 1075
so strong and pure M 1072
so often does when M 1067
so fetch them home M 1067
so strong and good M 1065
so large that such M 1064
so badly that some M 1060
so brave and good M 1056
so taken with their M 1048
so vivid that when M 1034
so rather than just M 1034
so small that from M 1032
so large they were M 1024
so acute that there M 1024
so since they have M 1020
so often with such M 1008
so badly that only M 1000
so drive them away M 987
so small and young M 984
so acute that many M 978
so often set forth M 974
so steep that only M 972
so light that there M 971
so acute that some M 956
so people can find M 950
so sweet and true M 946
so often you will M 944
so often that most M 942
so badly that many M 942
so after two days M 941
so still and clear M 940
so later they were M 940
so rather than having M 934
so hungry for love M 932
so easily that there M 930
so brave and bold M 930
so light that even M 926
so small and dark M 925
so lucky this time M 922
so quiet that even M 921
so sweet and nice M 916
so easily led away M 910
so white and soft M 898
so sweet and full M 896
so short that many M 894
so within one month M 888
so large that nothing M 882
so easily led into M 880
so fully that there M 864
so brief that there M 864
so large that very M 858
so people who live M 856
so large and wide M 856
so small and soft M 853
so tight that only M 850
so large and high M 850
so ended his life M 850
so maybe you have M 849
so light that when M 849
so large that much M 846
so sorry that your M 844
so shall she leave M 844
so maybe they will M 844
so within that time M 840
so often put forth M 838
so often not only M 828
so easily got over M 828
so willing and able M 826
so saved him from M 818
so shall his part M 816
so vague that there M 814
so noble and good M 814
so where are your M 813
so rather than take M 808
so quiet that when M 808
so order his life M 807
so since you have M 806
so large that none M 804
so close that nothing M 804
so tough and hard M 802
so large and dark M 802
so dearly for their M 798
so strong that during M 794
so close had been M 785
so strong and bold M 782
so happy that there M 782
so strong that once M 781
so sitting and acting M 778
so people can have M 777
so tight that very M 774
so small and there M 769
so easily with their M 768
so vivid that even M 766
so often with their M 764
so happy and busy M 764
so space and time M 761
so quiet and self M 759
so sweet and mild M 756
so large that four M 753
so often that only M 752
so tight they were M 750
so steep that when M 746
so famed for their M 738
so close and warm M 738
so trust that what M 737
so proud and self M 735
so large and clear M 732
so strong they were M 730
so small that your M 730
so could not know M 730
so close his breath M 730
so until you show M 728
so willing and ready M 726
so strong and hard M 725
so strong and their M 722
so often one hears M 722
so small that more M 716
so rather than wait M 716
so short had been M 708
so shall you make M 706
so often and have M 706
so strong and heavy M 704
so happy that when M 698
so happy with what M 696
so quiet and good M 695
so light and clear M 695
so after ten years M 694
so people can make M 691
so large that other M 690
so happy that even M 688
so small that three M 687
so tight that nothing M 686
so strong that your M 686
so people can come M 685
so strong and wise M 684
so strong and great M 678
so rather than saying M 678
so large has been M 678
so shall you come M 674
so large that those M 674
so after all there M 674
so close this time M 673
so rough and ready M 672
so quick that there M 670
so moved with pity M 669
so where and when M 668
so quick and sure M 656
so sweet that even M 654
so ended this great M 654
so fixed that there M 652
so vivid and clear M 650
so tight that their M 646
so rough that even M 646
so often that your M 644
so still and deep M 643
so taken with your M 642
so strong and able M 642
so large and there M 639
so shall you also M 638
so easily and well M 638
so small that those M 636
so moved that tears M 636
so often with other M 634
so large that from M 634
so brave and daring M 634
so after you left M 633
so others can learn M 631
so might use some M 630
so state and give M 628
so small they have M 628
so light and soft M 628
so large and free M 628
so could you tell M 628
so strong that from M 622
so strong and rich M 622
so badly that nothing M 620
so plain that none M 618
so shall they make M 616
so proud and high M 614
so could any other M 610
so strong that very M 608
so fixed that when M 608
so people are more M 605
so white and cold M 602
so every man must M 601
so vivid had been M 600
so large that your M 600
so strong and high M 598
so happy you were M 598
so black and ugly M 598
so small and fine M 597
so might not have M 596
so light and fine M 596
so tough that even M 595
so happy that tears M 594
so round and full M 590
so light that their M 588
so first you have M 584
so large and hard M 582
so about this time M 581
so strong that more M 580
so noble and true M 580
so easily put into M 580
so acute that when M 580
so often put into M 572
so strong and fine M 571
so light they were M 571
so after that time M 570
so large and have M 568
so noble and pure M 566
so close that your M 566
so quiet that there M 564
so signing was acting M 560
so hungry that even M 557
so sorry for these M 554
so short that some M 554
so nearly with those M 554
so shall they burn M 550
so people can live M 550
so often and from M 550
so light that only M 548
so empty that there M 546
so while you have M 545
so short that most M 545
so often with these M 544
so after that date M 542
so strong that what M 537
so rough that there M 534
so close has been M 534
so acute that only M 534
so rather than make M 532
so quick you will M 532
so awful that even M 532
so alive and full M 532
so harsh that even M 531
so small they must M 530
so white that even M 529
so strong and free M 528
so every day when M 528
so loose and open M 526
so vital for their M 524
so small you need M 524
so close that those M 524
so willing and eager M 522
so often hear from M 522
so maybe you were M 521
so close and well M 520
so drawn that there M 518
so short and there M 516
so every one said M 516
so sorry for having M 514
so every few days M 514
so where does your M 511
so check out your M 510
so while this book M 508
so taken with what M 507
so vague that their M 502
so prone and ready M 502
so loose and wide M 502
so every few years M 501
so happy for years M 500
so sweet and warm M 499
so close that these M 498
so hungry and cold M 496
so small that other M 492
so within two days M 490
so loose that there M 490
so tight they hurt M 488
so maybe this will M 488
so black and heavy M 488
so quick with your M 486
so upset that when M 484
so often that nothing M 484
so shall you live M 482
so maybe you need M 482
so hungry that when M 482
so close that none M 482
so sunny and warm M 481
so vital that their M 480
so until she died M 480
so people can learn M 478
so easily not have M 478
so until that time M 476
so shall you know M 476
so close that from M 476
so quick had been M 474
so often they seem M 474
so badly that most M 474
so after they left M 473
so small has ever M 472
so proud and glad M 472
so green and fair M 470
so strong and warm M 469
so small and have M 468
so people can take M 468
so close are these M 468
so white and fine M 467
so rough and hard M 467
so please sit down M 467
so rather than taking M 466
so healthy and well M 466
so could not work M 466
so could not find M 465
so still that there M 464
so maybe she will M 462
so happy that your M 462
so strong she felt M 460
so bored with life M 460
so where they were M 458
so quick and eager M 458
so sweet and wild M 456
so still that when M 456
so small was their M 456
so people who know M 456
so often has done M 456
so happy she felt M 452
so about that time M 452
so close and heavy M 451
so steep that many M 450
so rough and wild M 450
so about two years M 450
so rather than lose M 448
so often run into M 448
so happy they were M 448
so women who have M 446
so white and clear M 444
so sorry you lost M 444
so quiet out here M 444
so strong they will M 442
so small you have M 442
so large and cold M 442
so black and full M 442
so every one says M 441
so taken with these M 440
so vague that even M 439
so saved them from M 438
so first you must M 438
so could not speak M 437
so rough that only M 436
so often did these M 436
so could not even M 435
so where you from M 434
so rather than give M 434
so every one must M 434
so close that most M 433
so bored with their M 432
so small are these M 428
so people can walk M 428
so cruel and hard M 428
so steady and well M 426
so often any more M 426
so large had been M 426
so glaring that even M 425
so after six years M 424
so large and open M 423
so while they have M 422
so tried and true M 422
so people can look M 422
so often and well M 420
so black that even M 420
so steady and self M 418
so large and good M 418
so holding has been M 418
so others may have M 417
so sorry you will M 416
so happy for many M 416
so still that only M 415
so large that half M 414
so happy for your M 414
so small and slow M 413
so people who want M 413
so large and fair M 413
so could not leave M 413
so small they will M 412
so tight you will M 408
so often that these M 408
so deadly had been M 406
so where did these M 404
so large that during M 404
so badly they will M 404
so quick and keen M 403
so people can work M 403
so small that during M 402
so short that these M 402
so maybe they have M 402
so after she left M 401
so small and hard M 400
so rather than face M 400
so noble and great M 400
so happy and good M 400
so small that much M 398
so people who work M 397
so close and hard M 397
so grand and bold M 396
so until they reach M 394
so could you just M 394
so spread out over M 393
so where you have M 392
so tough that when M 392
so taken and used M 392
so strong are their M 392
so often then must M 392
so might they have M 392
so large and soft M 392
so quiet out there M 391
so easily that even M 391
so loved each other M 390
so deadly that even M 388
so strong and fast M 387
so gross that even M 387
so tight she felt M 386
so small and well M 386
so again this time M 386
so quiet that only M 384
so large and bold M 384
so strong and wide M 382
so sorry you feel M 382
so quiet and clean M 382
so quick and ready M 382
so often for their M 382
so quiet and dark M 380
so happy that their M 380
so within ten years M 378
so happy that nothing M 378
so basic that even M 378
so maybe that will M 376
so could not keep M 376
so alike that none M 376
so often put upon M 375
so cruel and cold M 374
so where they have M 373
so often with those M 372
so close and clear M 372
so others can have M 371
so tight that some M 370
so maybe you want M 370
so large they have M 370
so vivid and full M 368
so sweet and calm M 368
so first you need M 368
so blind with rage M 368
so strong for good M 366
so strong and kind M 366
so sorry for their M 366
so large was their M 366
so quiet and nice M 364
so plain and full M 364
so harsh that many M 364
so every one went M 364
so could not join M 364
so until you reach M 362
so steep that none M 362
so proud and free M 362
so noble and high M 362
so brief and clear M 362
so alike that there M 362
so where you been M 360
so alone and lost M 360
so large that five M 358
so strong for some M 356
so steep that their M 356
so shall you show M 356
so large that great M 356
so bored with good M 356
so brave and kind M 355
so small and clear M 354
so proud and vain M 354
so vivid and true M 352
so solid and hard M 352
so shall they ever M 352
so makes them feel M 350
so large they must M 350
so given that there M 350
so after all those M 350
so large that what M 349
so after ten days M 349
so easily that their M 348
so small that what M 347
so might any other M 346
so black that when M 346
so quick and hard M 345
so close that what M 345
so small and full M 344
so rather than making M 344
so noble and just M 344
so badly for their M 344
so under any other M 342
so tight that many M 342
so rather than leave M 342
so quiet and cool M 342
so often they will M 342
so often that none M 342
so maybe you know M 342
so sweet and holy M 340
so steep that some M 340
so tight and hard M 338
so often did during M 338
so knowing that their M 338
so close and their M 338
so still and dark M 336
so often that those M 336
so fixed that even M 336
so ended his days M 336
so happy you will M 334
so black and dark M 334
so sweet and deep M 333
so white and even M 332
so might not only M 332
so short that very M 331
so plain and self M 331
so makes them more M 331
so after his work M 331
so vague that many M 330
so easily get into M 328
so solid and well M 326
so happy and glad M 326
so again you have M 326
so users can find M 325
so could not hold M 325
so small you will M 324
so short and fine M 324
so noble and well M 324
so hungry for some M 324
so please him come M 322
so could you give M 322
so alike that even M 322
so write them down M 321
so tough that only M 320
so strong and loud M 320
so often with great M 320
so lucky and were M 320
so famed for love M 320
so sweet that when M 318
so small that once M 318
so small that four M 318
so rather than seeing M 318
so sweet and cool M 317
so might she have M 317
so strong and have M 316
so noble and self M 316
so badly she felt M 316
so vague that only M 314
so shall they also M 314
so plain that nothing M 314
so loose that when M 314
so drawn that their M 314
so others can find M 313
so small and lost M 312
so short and cold M 312
so built that when M 312
so often goes hand M 311
so cruel that even M 311
so easily get lost M 310
so after she died M 310
so people can call M 309
so cross and ugly M 309
so sweet and young M 308
so often with your M 308
so moved his heart M 308
so small that five M 307
so strong but time M 306
so short that none M 306
so quick with life M 306
so plain that their M 306
so often and take M 306
so hungry they were M 306
so cunning was their M 306
so brown they were M 306
so strong that much M 305
so often set down M 304
so often for such M 304
so easily fit into M 304
so sweet and rich M 302
so still and fair M 302
so noisy and open M 302
so large and many M 302
so grand and fine M 302
so built that there M 302
so basic that there M 302
so others may live M 300
so often had their M 300
so green and soft M 300
so close that more M 300
so wealthy that their M 298
so vivid that many M 298
so strong that just M 298
so loose and free M 298
so close you feel M 298
so breathing and deep M 298
so while you will M 296
so short they were M 296
so often get into M 296
so maybe she just M 296
so force them into M 296
so could you come M 296
so badly that your M 296
so people who came M 295
so right and good M 294
so knowing that there M 294
so easily that when M 294
so bored with your M 294
so black and deep M 294
so strong that life M 293
so often that what M 293
so guard her face M 293
so vague and open M 292
so tight that your M 292
so sweet for their M 292
so short and their M 292
so often run away M 292
so empty and cold M 292
so small that over M 291
so people can talk M 291
so vague that some M 290
so sweet and fine M 290
so often and when M 290
so hasty had been M 290
so alike that their M 290
so round and fair M 289
so sound that there M 288
so quick that even M 288
so makes you feel M 288
so people can know M 287
so small and high M 286
so black that there M 286
so women who were M 284
so solid and heavy M 284
so short that nothing M 284
so order and make M 284
so often for nothing M 284
so often and ably M 284
so large that just M 284
so equal that there M 284
so equal had been M 284
so could not reach M 284
so could not pass M 284
so strong and there M 283
so steep that most M 282
so mixed that there M 282
so badly off were M 282
so sound that even M 281
so often and were M 280
so total that there M 278
so strong you will M 278
so strong and fair M 278
so small they look M 278
so shall you feel M 278
so often that soon M 278
so which had been M 277
so people are very M 277
so often for more M 277
so maybe this time M 277
so sweet and caring M 276
so often one sees M 276
so every one will M 276
so easily are very M 276
so brief that only M 276
so brave and wise M 276
so sorry that there M 274
so easily run away M 274
so badly let down M 274
so alive and well M 274
so until they came M 272
so quick and loud M 272
so often put down M 272
so often had made M 272
so laden with meaning M 272
so fixed that their M 272
so easily that your M 272
so faded and worn M 271
so upset with what M 270
so small that great M 270
so shape his life M 270
so plain that those M 270
so large that part M 270
so large and able M 270
so healthy and full M 270
so easily get back M 270
so empty that even M 269
so could they have M 269
so write and tell M 268
so within this time M 268
so right and true M 268
so light and pure M 268
so hunger for mine M 268
so close one upon M 268
so could not stay M 267
so women are more M 266
so strong that three M 266
so solid that even M 266
so short had their M 266
so shall you give M 266
so rather than asking M 266
so quiet and kind M 266
so often are when M 266
so happy and eager M 266
so round and soft M 265
so steep they were M 264
so large that once M 264
so could you send M 264
so black and cold M 264
so bowed with evil M 262
so badly you will M 262
so badly that none M 262
so ample and vast M 262
so strong and calm M 261
so close and fine M 261
so others can live M 260
so maybe you think M 260
so could not meet M 260
so within one week M 259
so strong for peace M 258
so sound and well M 258
so people can move M 258
so could not move M 258
so again they were M 258
so where are those M 257
so until you come M 256
so strong and young M 256
so often for your M 256
so often and there M 256
so close that during M 256
so easily any more M 255
so white that when M 254
so until you feel M 254
so small that half M 254
so short and dull M 254
so named not from M 254
so large are these M 254
so green and rich M 254
so equal was their M 254
so badly this time M 254
so badly off here M 254
so again with many M 254
so users can view M 253
so stand with your M 252
so proud that when M 252
so light that many M 252
so harsh and cold M 252
so small and ugly M 250
so others are born M 250
so later they came M 250
so green and full M 250
so beaten and made M 250
so happy you like M 249
so either they were M 249
so close and there M 249
so white they were M 248
so where did your M 248
so timed that when M 248
so quiet that their M 248
so often she knew M 248
so often she felt M 248
so often does duty M 248
so light that four M 248
so acute that most M 247
so steep that snow M 246
so sound and true M 246
so often they come M 246
so often had seen M 246
so loved and gave M 246
so strong that four M 245
so strong and safe M 244
so right and wrong M 244
so others may learn M 243
so sweet has been M 242
so proud and rich M 242
so often sat during M 242
so often and over M 242
so nearly that there M 242
so vivid and life M 241
so until too late M 240
so tight this time M 240
so often led into M 240
so often had when M 240
so easily that many M 240
so could not hope M 240
so close and even M 240
so vital that even M 239
so heaven and hell M 239
so happy and safe M 239
so strong and just M 238
so still and pure M 238
so steady and sure M 238
so solid that there M 238
so happy you made M 238
so happy and calm M 238
so exact that many M 238
so could you have M 238
so ample that many M 238
so small and fast M 237
so shall you love M 236
so people can feel M 236
so often you find M 236
so mixed with those M 236
so leaves one able M 236
so close not only M 236
so black they were M 236
so sweet and well M 235
so still and heavy M 235
so loathe and hate M 235
so hungry for more M 235
so blood can flow M 235
so toiling one must M 234
so spent his time M 234
so after that when M 234
so above our heads M 234
so sweet and talk M 232
so rough that when M 232
so quiet and dull M 232
so often and make M 232
so badly with their M 232
so white they hurt M 230
so strong that soon M 230
so still and warm M 230
so short and wide M 230
so shall you learn M 230
so quiet that some M 230
so often goes wrong M 230
so moved that when M 230
so lived his life M 230
so exact and clear M 230
so empty and lost M 230
so close they seem M 230
so ample that there M 230
so people can tell M 229
so often goes along M 228
so green and clear M 228
so brave and free M 228
so basic that their M 228
so about ten years M 228
so quiet and meek M 227
so until his last M 226
so though they were M 226
so saved her from M 226
so rough that many M 226
so large they will M 226
so happy for ages M 226
so fully that nothing M 226
so enjoy this book M 226
so dearly that when M 226
so could not look M 225
so strong they have M 224
so since they will M 224
so proud and cold M 224
so never being able M 224
so maybe they just M 224
so easily get away M 224
so close that once M 224
so brave and able M 224
so acute that their M 224
so green and cool M 223
so easily put away M 223
so vital are these M 222
so strong with some M 222
so strong they made M 222
so start with your M 222
so sorry for miss M 222
so often was when M 222
so light and full M 222
so close and have M 222
so biased his mind M 222
so basic that many M 222
so badly run down M 222
so water can flow M 221
so since you were M 221
so people are less M 220
so often are seen M 220
so hated for their M 220
so could not fail M 220
so people can help M 219
so close and deep M 219
so tough that nothing M 218
so right and just M 218
so light and fast M 218
so brief that some M 218
so plain and open M 217
so turning his back M 216
so taken and held M 216
so sorry for some M 216
so small that high M 216
so often they must M 216
so maybe you just M 216
so light and well M 216
so later she heard M 216
so could not call M 216
so large that food M 215
so knowing that such M 215
so today than when M 214
so shall you soon M 214
so faded that their M 214
so exact that there M 214
so cruel and evil M 214
so close you felt M 214
so brief had been M 214
so vivid that their M 212
so vital that there M 212
so vague that nothing M 212
so strong that great M 212
so often has made M 212
so often are these M 212
so nearly with what M 212
so large and warm M 212
so fully and well M 212
so every day during M 212
so basic that most M 212
so white and worn M 211
so strong that time M 211
so people all over M 211
so shall they have M 210
so rough and high M 210
so quick that when M 210
so happy you want M 210
so easily get over M 209
so could not well M 209
so check that your M 209
so white with rage M 208
so vivid that some M 208
so vague that when M 208
so users can make M 208
so steep that nothing M 208
so quick and fast M 208
so people may have M 208
so often you must M 208
so often that other M 208
so often got into M 208
so large that over M 208
so happy and young M 208
so fully that their M 208
so exact and well M 208
so could not send M 208
so close her breath M 208
so civil and well M 208
so users can send M 207
so light and sure M 207
so cutting off their M 207
so until you find M 206
so strong and your M 206
so still that nothing M 206
so rough that some M 206
so proud that their M 206
so often you need M 206
so loose that even M 206
so large and great M 206
so easily with such M 206
so close and loud M 206
so badly and were M 206
so close and fast M 205
so after his birth M 205
so sweet and rare M 204
so short but there M 204
so often you come M 204
so often read over M 204
so named not only M 204
so large that high M 204
so easily see what M 204
so black but what M 204
so above all else M 204
so anything you want M 203
so strong that early M 202
so spread that some M 202
so sorry you came M 202
so short that during M 202
so light and open M 202
so happy and when M 202
so could not break M 202
so brave and fine M 202
so since she knew M 201
so fully that even M 201
so total that even M 200
so tight that none M 200
so strong that lord M 200
so strong that ever M 200
so strong his love M 200
so maybe that means M 200
so green that when M 200
so close with their M 200
so quiet and soft M 199
so turning them into M 198
so strong that tears M 198
so proud had been M 198
so often and made M 198
so named had been M 198
so lucky and have M 198
so loose and deep M 198
so green they were M 198
so could not form M 198
so acute that nothing M 198
so light and cool M 197
so hungry for life M 197
so strong any more M 196
so solid that nothing M 196
so quiet for nothing M 196
so proud and bold M 196
so often his eyes M 196
so often are used M 196
so noble and full M 196
so makes him feel M 196
so later she came M 196
so large and ugly M 196
so happy and felt M 196
so could not talk M 196
so acute that these M 196
so every day there M 195
so wound that when M 194
so hungry that their M 194
so deadly that there M 194
so close did some M 194
so badly they have M 194
so often this week M 193
so often how much M 193
so small that were M 192
so small and sick M 192
so proud and full M 192
so people can keep M 192
so others can know M 192
so moved him when M 192
so large and were M 192
so grand and rich M 192
so feared his ship M 192
so every day more M 192
so brief that their M 192
so brave and calm M 192
so amply set forth M 192
so until two years M 190
so still that their M 190
so small but what M 190
so quiet and mild M 190
so large but what M 190
so harsh that only M 190
so faded they were M 190
so every two years M 190
so change his port M 190
so strong and living M 189
so others can view M 189
so loose that what M 189
so harsh and hard M 189
so worthy and good M 188
so vital and full M 188
so quick and clear M 188
so please put your M 188
so owned and used M 188
so often that such M 188
so often and what M 188
so lucky with their M 188
so light that some M 188
so light and hanging M 188
so large they made M 188
so badly that tears M 188
so alter its rate M 188
so acute was their M 188
so asked him what M 187
so where was your M 186
so tough that many M 186
so steep that from M 186
so sound and half M 186
so plain and true M 186
so light and dark M 186
so laden with snow M 186
so feared that even M 186
so basic that only M 186
so awful that there M 186
so strong and keen M 185
so light and clean M 185
so frail that even M 185
so steep and deep M 184
so noble that even M 184
so loose and soft M 184
so leaves you more M 184
so hasty with your M 184
so grand and good M 184
so fully that when M 184
so deadly was their M 184
so close and look M 184
so brave and well M 184
so every year there M 183
so empty and void M 183
so white and hard M 182
so upset that their M 182
so sound and good M 182
so solid that when M 182
so small that less M 182
so shall you bind M 182
so rather than stay M 182
so quiet and safe M 182
so quiet and free M 182
so please you give M 182
so light and vain M 182
so gross are these M 182
so fixed that nothing M 182
so could not stop M 182
so exact that even M 181
so sweet and free M 180
so strong and ready M 180
so quick with their M 180
so proud and lazy M 180
so plain and dull M 180
so often with nothing M 180
so harsh that there M 180
so happy with life M 180
so empty and bare M 180
so cruel that when M 180
so cross each other M 180
so could not play M 180
so alone any more M 180
so large and blue M 179
so grand that even M 179
so upset with their M 178
so strong not even M 178
so quick and deep M 178
so noble and kind M 178
so brave and rich M 178
so after that there M 178
so vivid that these M 176
so upset that there M 176
so unfit for such M 176
so thanks for your M 176
so strong and clean M 176
so often had come M 176
so hated his life M 176
so every boy felt M 176
so easily with other M 176
so began our life M 176
so awful that many M 176
so amazing that even M 176
so often and will M 175
so easily does even M 175
so vital that some M 174
so vital not only M 174
so upset and hurt M 174
so strong that young M 174
so strong that were M 174
so strong and moving M 174
so proud and fine M 174
so others too much M 174
so often not what M 174
so never was there M 174
so named for having M 174
so exact and full M 174
so cunning but what M 174
so today you will M 173
so small and dull M 172
so short and cool M 172
so others are only M 172
so feared for their M 172
so could she have M 172
so quiet and slow M 171
so vivid that there M 170
so sweet that there M 170
so small and cold M 170
so shall she have M 170
so shall say nothing M 170
so quick was their M 170
so quick and true M 170
so proud and wild M 170
so often and look M 170
so hated had left M 170
so grown that there M 170
so amusing that even M 170
so alert and daring M 170
so small for most M 169
so within easy reach M 168
so strong this time M 168
so strong that over M 168
so strong that five M 168
so sorry you went M 168
so shall not have M 168
so often they came M 168
so alike that only M 168
so ample and well M 167
so which has been M 166
so vivid are these M 166
so until they learn M 166
so taken with some M 166
so steady has been M 166
so quiet that those M 166
so often that very M 166
so hasty was their M 166
so black and high M 166
so sweet and high M 164
so strong and even M 164
so still and cool M 164
so spent had been M 164
so showing that there M 164
so short that your M 164
so often and know M 164
so naked and bare M 164
so looks too dark M 164
so hungry for your M 164
so hated and evil M 164
so happy that none M 164
so close and high M 164
so about that town M 164
so large and such M 163
so wrote his name M 162
so white they seem M 162
so still and soft M 162
so steep that your M 162
so rather than fall M 162
so proud and sure M 162
so happy and have M 162
so fully with those M 162
so fixed that those M 162
so easily run into M 162
so close and full M 162
so badly that half M 162
so alive and free M 162
so right now there M 161
so quick that only M 161
so keeping them from M 161
so grand and fair M 161
so until they died M 160
so under six feet M 160
so strong that upon M 160
so stand out from M 160
so sound and clear M 160
so rather than giving M 160
so quiet had been M 160
so happy and having M 160
so grand and great M 160
so getting out your M 160
so easily that only M 160
so brave and self M 160
so alone out there M 160
so added for their M 160
so vital that only M 159
so rough and heavy M 159
so large and slow M 159
so after one more M 159
so wealthy that when M 158
so unfit for their M 158
so total that when M 158
so still and slow M 158
so round and clear M 158
so rather than tell M 158
so rather than less M 158
so quiet and cold M 158
so plain that only M 158
so often one will M 158
so happy with such M 158
so frail that only M 158
so fluid that there M 158
so easily and were M 158
so bored that when M 158
so after being told M 158
so light and cold M 157
so tight they look M 156
so strong and wild M 156
so steep that those M 156
so steep that great M 156
so steep and hard M 156
so small and your M 156
so short and soft M 156
so short and clear M 156
so resting one upon M 156
so proud that there M 156
so often get from M 156
so might you have M 156
so large that were M 156
so gross that there M 156
so drawn that when M 156
so badly that those M 156
so since not only M 155
so happy and self M 155
so brown and bare M 155
so brief that even M 155
so white that their M 154
so timed that their M 154
so tight they made M 154
so tight that most M 154
so thinking and acting M 154
so strong and will M 154
so small for such M 154
so small and warm M 154
so shall you grow M 154
so quiet that most M 154
so plain that when M 154
so often and been M 154
so healthy and young M 154
so happy you feel M 154
so dearly and whom M 154
so could not learn M 154
so close and true M 154
so carry out their M 154
so brief that many M 154
so proud and fair M 153
so others can make M 153
so every one knew M 153
so black that only M 153
so trust you ever M 152
so strong and daring M 152
so small and self M 152
so seize and fill M 152
so saved his army M 152
so pitying him from M 152
so others may know M 152
so often that busy M 152
so often her eyes M 152
so lucky you have M 152
so loved his work M 152
so large that full M 152
so given has been M 152
so finding out what M 152
so ended this most M 152
so empty and dull M 152
so alone out here M 152
so steady and clear M 151
so small and bare M 151
so within six years M 150
so sound and just M 150
so small has been M 150
so shows that there M 150
so quick that none M 150
so large you will M 150
so large and loud M 150
so happy with these M 150
so grand and vast M 150
so fixed has been M 150
so close that three M 150
so brave and young M 150
so black that nothing M 150
so after they leave M 150
so small and such M 149
so shall they live M 149
so first and last M 149
so white this lady M 148
so vivid and moving M 148
so users can move M 148
so small did their M 148
so quiet and full M 148
so people had been M 148
so often they make M 148
so often and seen M 148
so light and warm M 148
so keeps you from M 148
so fixed had been M 148
so either you have M 148
so could not swear M 148
so could not deny M 148
so again you will M 148
so after you were M 148
so noisy that even M 147
so fluid that even M 147
so within his reach M 146
so wealthy and rich M 146
so vivid was their M 146
so tight that snow M 146
so small they seem M 146
so small that just M 146
so short and have M 146
so quiet and deep M 146
so proud and great M 146
so people are able M 146
so often that once M 146
so nearly had these M 146
so maybe things will M 146
so loose that many M 146
so later you will M 146
so gross and dull M 146
so forcing them upon M 146
so could not plead M 146
so check out their M 146
so brave and just M 146
so brave and full M 146
so vague and vast M 144
so upset she went M 144
so train his mind M 144
so speaking and acting M 144
so sorry you must M 144
so sorry for making M 144
so rough and fast M 144
so never let there M 144
so makes all other M 144
so large and eager M 144
so grand and true M 144
so faded and gone M 144
so could not turn M 144
so badly and have M 144
so awful that when M 144
so after that last M 144
so short that such M 143
so naive and self M 143
so happy this week M 143
so easily and will M 143
so weaken each other M 142
so tough that their M 142
so taken had been M 142
so strong that self M 142
so solid and warm M 142
so since they knew M 142
so saved her life M 142
so plain and good M 142
so often she gave M 142
so often see when M 142
so often for having M 142
so often bring into M 142
so large that mass M 142
so large that free M 142
so harsh and loud M 142
so gross that many M 142
so easily and felt M 142
so dearly had been M 142
so deadly that only M 142
so badly and what M 142
so acute that those M 142
so vital for life M 141
so truly and well M 141
so people can send M 141
so easily put upon M 141
so brown was sent M 141
so acute and clear M 141
so unfit for what M 140
so truly that there M 140
so small they make M 140
so small lying there M 140
so since that date M 140
so rough and full M 140
so rather than talk M 140
so quick and full M 140
so often they knew M 140
so loved has been M 140
so later she went M 140
so human and good M 140
so healthy that there M 140
so easily that some M 140
so could not live M 140
so close are their M 140
so carry them away M 140
so black and rich M 140
so alike they were M 140
so after its birth M 140
so quick and clean M 139
so people can plan M 139
so large and fast M 139
so found due from M 139
so cares and joys M 139
so after this time M 139
so wiped out from M 138
so vivid they were M 138
so vital that when M 138
so taken off from M 138
so sweet and open M 138
so stood out from M 138
so small and move M 138
so round and rich M 138
so rough with your M 138
so quiet this time M 138
so often that spring M 138
so often that half M 138
so might both lose M 138
so later that same M 138
so could not think M 138
so brown and ugly M 138
so short that five M 137
so plain and well M 137
so could not only M 137
so within one hour M 136
so taken has been M 136
so steady and good M 136
so small they pass M 136
so often she gets M 136
so often his best M 136
so often far from M 136
so often and told M 136
so keeps them from M 136
so hungry that there M 136
so healthy and good M 136
so harsh that some M 136
so false and cold M 136
so drive them into M 136
so dearly for your M 136
so could they hope M 136
so basic are these M 136
so badly and made M 136
so sweet and such M 135
so strong and such M 135
so often this past M 135
so often that more M 135
so false and base M 135
so white and well M 134
so train our mind M 134
so tight with their M 134
so small that full M 134
so shall they cease M 134
so quiet and even M 134
so people who made M 134
so often ran away M 134
so often had said M 134
so often and give M 134
so noble and rich M 134
so named may have M 134
so lucky with your M 134
so happy that time M 134
so given that these M 134
so easily with your M 134
so deadly that when M 134
so close that very M 134
so blind with anger M 134
so began his life M 134
so alert and full M 134
so alert and eager M 134
so proud and hard M 133
so noble and fair M 133
so large and self M 133
so binding that even M 133
so sorry that poor M 132
so quiet they were M 132
so quiet that none M 132
so quiet that many M 132
so quick that nothing M 132
so often not been M 132
so light and true M 132
so later she said M 132
so happy this time M 132
so happy and rich M 132
so easily and even M 132
so close and were M 132
so basic that when M 132
so badly set upon M 132
so awful that some M 132
so tight not even M 131
so place and time M 131
so happy out there M 131
so after this date M 131
so vague and wide M 130
so tight with your M 130
so steep you have M 130
so state and also M 130
so small that good M 130
so short and mild M 130
so others can take M 130
so older than most M 130
so often that much M 130
so often sat upon M 130
so often and knew M 130
so hungry for what M 130
so happy and said M 130
so happy and feel M 130
so grand that when M 130
so freed them from M 130
so close any more M 130
so close and many M 130
so blind all these M 130
so badly off when M 130
so anything that will M 130
so watch out when M 129
so until this very M 129
so today and will M 129
so right out loud M 129
so while they grew M 128
so vivid they seem M 128
so vital that many M 128
so until she felt M 128
so turns them into M 128
so thinking she fell M 128
so sweet and cold M 128
so strong that high M 128
so strong she runs M 128
so sorry that these M 128
so small and were M 128
so small and even M 128
so shall that name M 128
so plain that some M 128
so plain and just M 128
so people can reach M 128
so often had heard M 128
so often and think M 128
so naive that when M 128
so light that none M 128
so large and vast M 128
so hasty and rash M 128
so false and full M 128
so could not wait M 128
so brave and high M 128
so brave and great M 128
so after his fall M 128
so rather than look M 127
so plain and bare M 127
so often and even M 127
so noble and fine M 127
so click and drag M 127
so vivid that nothing M 126
so upset with your M 126
so upset that your M 126
so still and will M 126
so short and full M 126
so shall that evil M 126
so quick and warm M 126
so proud has been M 126
so plain this time M 126
so plain that most M 126
so people can meet M 126
so often with some M 126
so noisy and busy M 126
so large and pure M 126
so human and wise M 126
so happy with those M 126
so happy that these M 126
so grand and deep M 126
so every ten years M 126
so every man knew M 126
so ended that most M 126
so badly that other M 126
so strong that half M 125
so state and such M 125
so since she came M 125
so people can leave M 125
so drawn that only M 125
so users can work M 124
so until you tell M 124
so tight they have M 124
so tight her eyes M 124
so strong and eager M 124
so spent with their M 124
so small and only M 124
so shall all those M 124
so people can view M 124
so others can work M 124
so often and stay M 124
so often and just M 124
so light that your M 124
so later and said M 124
so happy they have M 124
so happy for those M 124
so force him into M 124
so close that other M 124
so brief and mild M 124
so brave that when M 124
so after they went M 124
so after his last M 124
so solid and safe M 123
so short and dark M 123
so others who were M 123
so easily and there M 123
so white all over M 122
so valid and clear M 122
so tough that some M 122
so stood for some M 122
so small had been M 122
so small and weary M 122
so shall they lose M 122
so please ask your M 122
so often won back M 122
so often they find M 122
so often led their M 122
so often cut down M 122
so often are their M 122
so nearly too late M 122
so light and good M 122
so laden that their M 122
so happy all these M 122
so grand and keen M 122
so frail that many M 122
so every man will M 122
so easily with these M 122
so easily and have M 122
so cunning and wise M 122
so could not fall M 122
so again with land M 122
so sweet and meek M 121
so people are free M 121
so mixed that even M 121
so badly that much M 121
so ample that even M 121
so alert and well M 121
so until you know M 120
so sweet are worth M 120
so sweet and loud M 120
so sweet and heavy M 120
so spent his life M 120
so spare that there M 120
so solid and dark M 120
so quick that many M 120
so people may come M 120
so often they made M 120
so often his wont M 120
so often are made M 120
so moved with their M 120
so large they look M 120
so large that time M 120
so large for their M 120
so happy had been M 120
so dearly that even M 120
so deadly that their M 120
so cruel that their M 120
so built that from M 120
so bored with nothing M 120
so strong with most M 119
so people can pick M 119
so people can just M 119
so light they seem M 119
so light can reach M 119
so while you wait M 118
so where you want M 118
so strong his faith M 118
so still and hard M 118
so small and deep M 118
so since they came M 118
so plain and fair M 118
so people who knew M 118
so often they take M 118
so moves that those M 118
so makes them less M 118
so lucky that your M 118
so light and fair M 118
so hungry she felt M 118
so hungry for their M 118
so happy out here M 118
so easily that those M 118
so deter them from M 118
so could you make M 118
so could not rely M 118
so could not drop M 118
so close you will M 118
so blind that when M 118
so black and angry M 118
so basic that some M 118
so badly that just M 118
so allow for some M 118
so again for some M 118
so short that much M 117
so often was there M 117
so glaring that some M 117
so gives you more M 117
so every day from M 117
so badly that very M 117
so within our reach M 116
so white and your M 116
so while they went M 116
so tight that rain M 116
so taken that such M 116
so strong she knew M 116
so strong and came M 116
so steady that even M 116
so small are their M 116
so others are made M 116
so opens his eyes M 116
so often with good M 116
so often they think M 116
so often get lost M 116
so might sit down M 116
so lucky you were M 116
so large they seem M 116
so large that life M 116
so large and rare M 116
so laden with debt M 116
so glaring that there M 116
so frail and worn M 116
so fixed for hearing M 116
so fixed and held M 116
so check out what M 116
so begun hath been M 116
so amply and ably M 116
so acute that during M 116
so white and blue M 115
so people can think M 115
so wealthy that even M 114
so vague that what M 114
so sweet and wise M 114
so strong was self M 114
so spread out among M 114
so small and fair M 114
so quick with those M 114
so others can also M 114
so often with what M 114
so often was these M 114
so often they feel M 114
so often hear such M 114
so often and keep M 114
so light that most M 114
so hungry and eager M 114
so healthy that when M 114
so happy and look M 114
so ended her days M 114
so could not draw M 114
so bored with what M 114
so blind that there M 114
so badly had been M 114
so badly and there M 114
so after his time M 114
so users can take M 113
so light and rare M 113
so happy any more M 113
so after you leave M 113
so until they know M 112
so sweet they made M 112
so steady that there M 112
so sorry but there M 112
so shall they learn M 112
so please get your M 112
so people can stop M 112
so people can stay M 112
so often hear these M 112
so often get their M 112
so noble and holy M 112
so moved her heart M 112
so hungry that some M 112
so hungry for land M 112
so hungry for good M 112
so holding her fast M 112
so hated this kind M 112
so happy she gave M 112
so grand and free M 112
so fully with these M 112
so easily for their M 112
so close she knew M 112
so close his face M 112
so carry him away M 112
so brave and such M 112
so bored with these M 112
so badly that more M 112
so amazing that when M 112
so fixed that only M 111
so brave and fair M 111
so while all these M 110
so until they come M 110
so total that nothing M 110
so since you left M 110
so short has been M 110
so rather than send M 110
so quiet you will M 110
so people who take M 110
so others can help M 110
so large you have M 110
so large that soon M 110
so happy that some M 110
so frail that their M 110
so could not teach M 110
so close that just M 110
so close all these M 110
so black that their M 110
so black and hard M 110
so badly that what M 110
so badly that during M 110
so badly his body M 110
so alive and eager M 110
so every one else M 109
so built that only M 109
so awful that only M 109
so above all other M 109
so white with snow M 108
so where our wide M 108
so where did those M 108
so vivid that your M 108
so vital that nothing M 108
so tough that there M 108
so tight they must M 108
so strong that years M 108
so still they were M 108
so steep for taking M 108
so smiling and good M 108
so small and rare M 108
so saves his life M 108
so often they need M 108
so often that fate M 108
so noble and free M 108
so named for nothing M 108
so makes her feel M 108
so large but also M 108
so hungry and weary M 108
so gross that their M 108
so grand and pure M 108
so fully with their M 108
so fully that only M 108
so cruel had been M 108
so badly for your M 108
so alive that when M 108
so after six days M 108
so after his name M 108
so upset that even M 107
so often sat down M 107
so white they look M 106
so white and wild M 106
so utter was their M 106
so under one term M 106
so under his hand M 106
so sweet with many M 106
so small and gray M 106
so small and also M 106
so since they left M 106
so rough that their M 106
so quiet and there M 106
so proud they will M 106
so please you step M 106
so people may know M 106
so often she came M 106
so often for those M 106
so nearly had been M 106
so nearly all their M 106
so light for many M 106
so large that huge M 106
so large and wild M 106
so large and true M 106
so large and busy M 106
so jumps with mine M 106
so hungry they will M 106
so hungry that nothing M 106
so harsh and wild M 106
so happy you said M 106
so happy for such M 106
so grand that their M 106
so given that many M 106
so given had been M 106
so finding his young M 106
so final that there M 106
so faded that only M 106
so empty and vain M 106
so could not very M 106
so could not show M 106
so burning with love M 106
so brown and soft M 106
so blind with love M 106
so ample and full M 106
so amazing that many M 106
so strong and dark M 105
so strong all over M 105
so small and clean M 105
so praying for your M 105
so harsh that most M 105
so while you want M 104
so upset that tears M 104
so upset and crying M 104
so until this time M 104
so shall you ever M 104
so right that there M 104
so quiet and sure M 104
so proud they were M 104
so please set your M 104
so often they look M 104
so often one reads M 104
so often for food M 104
so large for many M 104
so hated that even M 104
so happy and sure M 104
so happy and kind M 104
so found out what M 104
so exact and true M 104
so every man kept M 104
so dearly for will M 104
so deadly can ever M 104
so close for many M 104
so badly you were M 104
so badly that four M 104
so badly she will M 104
so after she came M 104
so while she went M 103
so steep and dark M 103
so small any more M 103
so rather than move M 103
so close that much M 103
so check for these M 103
so white that there M 102
so waste his time M 102
so users can have M 102
so sweet that nothing M 102
so sweet and their M 102
so still that some M 102
so still and high M 102
so steep they have M 102
so steep that these M 102
so steady and true M 102
so solid and sure M 102
so shall they find M 102
so rough that most M 102
so quick that what M 102
so please use your M 102
so plain that these M 102
so people that were M 102
so others can play M 102
so often you just M 102
so often she will M 102
so often she went M 102
so often put their M 102
so noisy that their M 102
so noble and wise M 102
so large she must M 102
so large and will M 102
so large and made M 102
so laden with pain M 102
so helps you keep M 102
so happy she said M 102
so happy for once M 102
so happy for having M 102
so happy and warm M 102
so grand and mild M 102
so enter her from M 102
so could she show M 102
so could say nothing M 102
so blind with fury M 102
so black out there M 102
so black and bare M 102
so badly she knew M 102
so after you take M 102
so steady and calm M 101
so others can come M 101
so learning can take M 101
so easily with what M 101
so close and dark M 101
so brave that even M 101
so vague that most M 100
so tight they felt M 100
so sweet she came M 100
so sweet her look M 100
so strong that free M 100
so strong and were M 100
so strong and taking M 100
so strong and many M 100
so sorry they were M 100
so solid that many M 100
so sleep for ever M 100
so short this time M 100
so rather than think M 100
so proud you will M 100
so proud that nothing M 100
so owned and held M 100
so often they just M 100
so often hung over M 100
so often for many M 100
so often and said M 100
so makes you look M 100
so makes them look M 100
so light and high M 100
so later than their M 100
so later and told M 100
so lasting that even M 100
so large they give M 100
so given and made M 100
so fixed for taking M 100
so false that even M 100
so every day will M 100
so either way there M 100
so easily that these M 100
so dearly for having M 100
so cruel that many M 100
so could not sell M 100
so could not feel M 100
so could bring into M 100
so close they have M 100
so badly you have M 100
so after they came M 100
so after death when M 100
so tight and warm M 99
so light can pass M 99
so easily with just M 99
so close that were M 99
so wound that their M 98
so vague and full M 98
so timed that there M 98
so tight and fast M 98
so sweet that tears M 98
so strong with love M 98
so strong nor clear M 98
so strong and what M 98
so sound that when M 98
so short you will M 98
so shall she give M 98
so rather than break M 98
so often sat when M 98
so often had lost M 98
so makes all ready M 98
so healthy and free M 98
so hated that when M 98
so happy and even M 98
so green with envy M 98
so frail and young M 98
so fixed was their M 98
so every year when M 98
so drive him from M 98
so deter him from M 98
so cried out upon M 98
so close her hair M 98
so badly that these M 98
so awful six years M 98
so steep that much M 97
so others may also M 97
so order and form M 97
so grand that only M 97
so easily set over M 97
so brief that most M 97
so alien that even M 97
so until two days M 96
so today you have M 96
so tight you have M 96
so tight with anger M 96
so sweet that those M 96
so sorry for taking M 96
so small that single M 96
so short that those M 96
so short and safe M 96
so rough they were M 96
so quick that some M 96
so plain and ugly M 96
so people can play M 96
so often see among M 96
so often goes into M 96
so often for other M 96
so often and talk M 96
so nasty that even M 96
so named has been M 96
so maybe she knew M 96
so loved had been M 96
so loose they were M 96
so looking one upon M 96
so light they will M 96
so large are some M 96
so large and having M 96
so hungry this time M 96
so happy you told M 96
so happy they will M 96
so first did nothing M 96
so every day till M 96
so empty his body M 96
so easily had been M 96
so could not care M 96
so close she heard M 96
so badly that part M 96
so aptly set forth M 96
so anything you need M 96
so alive and warm M 96
so steady and cool M 95
so small that time M 95
so short and hard M 95
so quick this time M 95
so nearly that only M 95
so hungry any more M 95
so bored that even M 95
so birds that have M 95
so worthy and able M 94
so vague that much M 94
so unfit for work M 94
so sweet that many M 94
so strong that part M 94
so strong and angry M 94
so sound that nothing M 94
so small that data M 94
so quick that their M 94
so often you meet M 94
so often was done M 94
so often not even M 94
so often had gone M 94
so often for some M 94
so often for help M 94
so often and also M 94
so never get into M 94
so mixed that their M 94
so loved and whom M 94
so large that nine M 94
so large that early M 94
so large his love M 94
so large and safe M 94
so laden his ship M 94
so keeps him from M 94
so happy with some M 94
so gross that when M 94
so empty that when M 94
so empty that some M 94
so dooms far wrong M 94
so close you were M 94
so civil and kind M 94
so built that their M 94
so badly and like M 94
so alike with their M 94
so added one more M 94
so people with whom M 93
so healthy that even M 93
so fully that what M 93
so women can make M 92
so white and full M 92
so where they live M 92
so wealthy that there M 92
so upset and felt M 92
so until she left M 92
so tight they will M 92
so thanks for nothing M 92
so takes his leave M 92
so sorry they have M 92
so small are some M 92
so since you came M 92
so short that other M 92
so shall this lady M 92
so round and wide M 92
so round and safe M 92
so rough that love M 92
so quiet that nothing M 92
so proud that even M 92
so noisy and full M 92
so loose that their M 92
so keeping off other M 92
so ingrate and void M 92
so happy and made M 92
so gross and idle M 92
so green and warm M 92
so fixed for such M 92
so feeling her host M 92
so exact that nothing M 92
so ended this last M 92
so could she keep M 92
so close you think M 92
so close his warm M 92
so close and know M 92
so close and clean M 92
so built that what M 92
so alone that even M 92
so alive and rich M 92
so alike that some M 92
so after she went M 92
so after her last M 92
so after all their M 92
so maybe that made M 91
so while you must M 90
so while you keep M 90
so vivid and warm M 90
so utter had been M 90
so usual that when M 90
so users are more M 90
so upset they were M 90
so trust each other M 90
so tight and high M 90
so sweet that hell M 90
so sunny and full M 90
so strong you have M 90
so strong with many M 90
so strong that among M 90
so strong for their M 90
so strong for such M 90
so steep and vast M 90
so steady was their M 90
so sound and deep M 90
so sorry for young M 90
so smiling and fair M 90
so small they need M 90
so small and open M 90
so since you will M 90
so short they have M 90
so short that from M 90
so shall they know M 90
so shall his life M 90
so saves him from M 90
so round and warm M 90
so others may find M 90
so often may have M 90
so often and tell M 90
so noisy that some M 90
so noble with their M 90
so naked and cold M 90
so mixed with good M 90
so happy you come M 90
so happy and there M 90
so empty that nothing M 90
so easily and turn M 90
so could you take M 90
so brave and cool M 90
so badly all these M 90
so alert with their M 90
so again with those M 90
so acute that from M 90
so watch for these M 89
so gross that only M 89
so whole and clean M 88
so white and bare M 88
so while you need M 88
so upset this time M 88
so until they find M 88
so until she went M 88
so tight she knew M 88
so thinking they were M 88
so strong for many M 88
so still and mild M 88
so sorry you heard M 88
so solid and good M 88
so small and very M 88
so short and poor M 88
so shall you safe M 88
so rough and cold M 88
so risen that poor M 88
so rather than rely M 88
so quiet that your M 88
so please bring your M 88
so people who call M 88
so people are saying M 88
so others may come M 88
so often you were M 88
so often they fail M 88
so often not seen M 88
so light they come M 88
so later that week M 88
so large that heavy M 88
so large for some M 88
so laden with arms M 88
so hated that many M 88
so fluid and full M 88
so fluid and free M 88
so fixed and clear M 88
so fitting for their M 88
so exact his test M 88
so ended that great M 88
so drawn that these M 88
so cunning that when M 88
so cruel was their M 88
so cruel that there M 88
so could you call M 88
so close and kind M 88
so carry them home M 88
so badly for these M 88
so aware that their M 88
so after our last M 88
so makes him more M 87
so knowing and wise M 87
so dearly for what M 87
so close that half M 87
so vivid and rich M 86
so tight his eyes M 86
so taken with those M 86
so strong you know M 86
so strong they must M 86
so strong that single M 86
so strong and when M 86
so small they only M 86
so since this will M 86
so since his birth M 86
so short for such M 86
so shall not need M 86
so round and well M 86
so putting them into M 86
so proud and ever M 86
so often you know M 86
so often they went M 86
so often that three M 86
so often that life M 86
so often set their M 86
so often has seen M 86
so often hang over M 86
so often and leave M 86
so noted for good M 86
so human that even M 86
so healthy for those M 86
so freed him from M 86
so freed her from M 86
so fluid that heavy M 86
so false that there M 86
so every one here M 86
so enjoy each other M 86
so either you tell M 86
so drive with care M 86
so close and made M 86
so close all along M 86
so brown and well M 86
so brief and their M 86
so brave they were M 86
so badly that from M 86
so amazing that some M 86
so after you went M 86
so badly any more M 85
so worse than vain M 84
so white and nice M 84
so white and calm M 84
so until you were M 84
so tough who says M 84
so sweet with their M 84
so spent has been M 84
so small that adding M 84
so small for some M 84
so small and will M 84
so shall our seed M 84
so shall not take M 84
so saved its life M 84
so quiet for such M 84
so often was able M 84
so often she made M 84
so often see from M 84
so often one gets M 84
so often lead into M 84
so moves its tail M 84
so light and nice M 84
so large that land M 84
so large for these M 84
so known for many M 84
so hungry and poor M 84
so grand and high M 84
so fully how much M 84
so found has been M 84
so finds out their M 84
so exact his care M 84
so easily and fast M 84
so dearly for such M 84
so close his body M 84
so change his life M 84
so broke that when M 84
so books that have M 84
so blind was their M 84
so blind our eyes M 84
so badly and will M 84
so aware that there M 84
so alone with their M 84
so again you must M 84
so again they went M 84
so until she came M 83
so short and heavy M 83
so months and years M 83
so healthy and clean M 83
so happy that most M 83
so willing and even M 82
so valid for your M 82
so until you give M 82
so until they feel M 82
so until she heard M 82
so still and blue M 82
so speaking they went M 82
so small with such M 82
so shall you keep M 82
so saves them from M 82
so right with mine M 82
so right being here M 82
so rather than paying M 82
so quiet and kept M 82
so proving that there M 82
so proud that your M 82
so others can join M 82
so often with young M 82
so often men have M 82
so often are during M 82
so often and sent M 82
so often all over M 82
so needy for love M 82
so naked men were M 82
so monks who stay M 82
so might they also M 82
so might one have M 82
so light and glad M 82
so later than those M 82
so large that adding M 82
so laden with other M 82
so knowing they were M 82
so knowing that these M 82
so harsh that their M 82
so happy for their M 82
so happy and went M 82
so ended that life M 82
so easily you will M 82
so easily with those M 82
so easily and give M 82
so cover him over M 82
so close with your M 82
so close they felt M 82
so close and just M 82
so black and clear M 82
so badly that three M 82
so badly that lord M 82
so badly she lost M 82
so badly all those M 82
so awful that nothing M 82
so awful for poor M 82
so after going back M 82
so state his case M 81
so wound that there M 80
so weakly with other M 80
so weaken that part M 80
so vivid are their M 80
so vital for good M 80
so tight that those M 80
so taken with such M 80
so strong that good M 80
so round and heavy M 80
so quick they were M 80
so quick that your M 80
so quick and free M 80
so pleasing was unto M 80
so often they know M 80
so often read into M 80
so often his hand M 80
so often goes back M 80
so often and come M 80
so mixed with what M 80
so makes you more M 80
so lucky and died M 80
so loose that your M 80
so loose that those M 80
so loose that some M 80
so light that nothing M 80
so large for such M 80
so happy and what M 80
so fixed that these M 80
so fills our mind M 80
so exact that when M 80
so every way what M 80
so equal and just M 80
so easily for such M 80
so easily and lets M 80
so could you help M 80
so could not rise M 80
so close her body M 80
so close and when M 80
so calling him back M 80
so broke his fall M 80
so badly for those M 80
so alive with game M 80
so close that such M 69
so total has been M 67
so quiet that once M 67
so wealthy and well M 64
so easily lay down M 63
so right and left M 60
so nearly run over M 60
so badly that once M 60
so people who come M 59
so easily set down M 55
so acute that such M 55
so sweet that only M 53
so glaring that only M 53
so exact that only M 51
so where was there M 50
so solid that only M 50
so happy and care M 49
so people who feel M 48
so girls and boys M 48
so people who need M 47
so large and much M 47
so women can have M 46
so people who make M 46
so green and well M 46
so grand and well M 46
so easily cut down M 46
so cruel and heart M 46
so badly that soon M 46
so people can give M 45
so often with only M 45
so large that hand M 45
so fraud was used M 45
so black and base M 45
so allow for more M 45
so white that only M 44
so tight and well M 44
so rather than work M 44
so people can pass M 44
so often hung upon M 44
so large and more M 44
so close and such M 44
so risky that even M 43
so often are more M 43
so front and back M 43
so frail and fair M 43
so every way more M 43
so vivid that only M 42
so sorry that such M 42
so quiet and warm M 42
so often with mine M 42
so light she felt M 42
so easily that such M 42
so calls for more M 42
so women who want M 41
so tight that once M 41
so thanks for coming M 41
so sweet and heart M 41
so solid and self M 41
so short that time M 41
so people with more M 41
so people who went M 41
so people had more M 41
so costs too much M 41
so badly that less M 41
so steady and even M 40
so sound and safe M 40
so risky that only M 40
so people can only M 40
so gross and hard M 40
so fully with what M 40
so forcing them into M 40
so easily and early M 40
so would not have D 8294
so rapid has been D 7937
so rapid had been D 5526
so broad and deep D 5470
so rapid that there D 4736
so would not only D 4454
so stiff and sore D 3864
so fresh and clean D 3500
so light and airy D 3408
so sharp and clear D 3093
so tired and worn D 3014
so shalt thou find D 2554
so would you mind D 2491
so rapid was their D 2384
so would you like D 2371
so dense that even D 2138
so frank and open D 1974
so fresh and fair D 1962
so would you have D 1961
so rapid that many D 1838
so rapid that even D 1790
so shalt thou feed D 1728
so stiff with cold D 1655
so would any other D 1654
so plain and firm D 1623
so dense that there D 1572
so fresh and young D 1548
so broad that there D 1542
so broad that even D 1532
so rapid that only D 1526
so sweet and loving D 1473
so smooth and soft D 1462
so fresh and pure D 1396
so tired that when D 1366
so swift and sure D 1352
so fresh and clear D 1341
so close and thick D 1328
so rapid that some D 1316
so tired that even D 1290
so fresh and cool D 1240
so green and pale D 1188
so strong and firm D 1184
so shalt thou rest D 1183
so tired and weary D 1174
so odious that nothing D 1168
so swift had been D 1156
so dense that only D 1152
so would they have D 1140
so smooth and even D 1133
so shalt thou have D 1127
so dense that nothing D 1066
so fresh and full D 1032
so large and thick D 1030
so stiff and cold D 1024
so faint that only D 948
so dense and dark D 938
so would not make D 896
so broad and high D 884
so smooth and hard D 882
so dense and high D 880
so crisp and clear D 864
so tired and sore D 836
so fresh and well D 835
so strong and rank D 833
so still and pale D 827
so strong and thick D 812
so smooth that there D 786
so dense that their D 770
so dense and heavy D 764
so shalt thou know D 763
so drunk that when D 754
so tired and sick D 746
so short and thick D 736
so stiff and hard D 735
so rapid that their D 728
so smooth and clean D 723
so dense and thick D 720
so sharp that there D 716
so shalt thou make D 716
so broad that three D 708
so broad and flat D 704
so broad that only D 698
so loyal and true D 688
so swift was their D 686
so shalt thou come D 680
so broad that many D 678
so rigid that there D 670
so fresh and free D 668
so tired they were D 664
so strong and tall D 662
so nobly and well D 646
so frank and free D 646
so dense that when D 646
so strong you thump D 644
so gaunt and grim D 632
so fresh and dewy D 630
so sharp that even D 628
so shalt thou live D 626
so smooth and clear D 607
so rigid that even D 603
so laden with wool D 602
so sharp and well D 600
so fresh and rosy D 598
so novel that nothing D 592
so tired and cold D 590
so rapid that when D 588
so fresh and good D 588
so proud and fond D 585
so faint and weary D 584
so swift that there D 566
so spake our sire D 566
so would she have D 562
so would not need D 562
so would not give D 560
so mingled with other D 552
so bulky and heavy D 551
so would not come D 550
so black and thick D 550
so sharp and keen D 545
so small and pale D 539
so close and firm D 539
so tired that their D 538
so rapid that most D 536
so green and lush D 528
so crisp and clean D 526
so grave that even D 525
so smooth and fine D 522
so swift has been D 508
so sharp that when D 490
so peter and john D 489
so twist and turn D 480
so would not help D 478
so would not know D 474
so tired she felt D 468
so smooth and cool D 467
so zebra has made D 466
so dense and hard D 460
so stale and cheap D 458
so broad that some D 458
so rapid that these D 456
so stiff that when D 448
so grave that there D 448
so smooth and well D 444
so stiff and numb D 441
so smooth and high D 440
so sharp and deep D 437
so sharp and clean D 436
so broad and fair D 436
so miles per hour D 433
so tense that even D 429
so peter was kept D 424
so sleek and well D 420
so large and tall D 416
so dense that many D 414
so faint that even D 406
so smooth that even D 402
so teeming with life D 400
so swift and deep D 400
so rough and rude D 400
so nobly set forth D 400
so smooth and calm D 397
so drunk they were D 396
so grave that only D 392
so smooth and flat D 390
so sharp and hard D 390
so heated with their D 390
so broad and thick D 390
so stiff and heavy D 389
so drunk that their D 388
so stiff and deep D 386
so mingled with those D 386
so smooth and fair D 383
so large and firm D 382
so rigid that only D 380
so faint and sick D 378
so stern and cold D 376
so small and cheap D 374
so hungry for news D 374
so sharp and cold D 368
so funny any more D 367
so tired she fell D 366
so small and puny D 366
so faint and pale D 365
so tired and pale D 362
so dense that some D 360
so neatly that there D 358
so broad and rich D 358
so often with silk D 356
so merry and good D 354
so broad that their D 354
so broad and open D 352
so would mean losing D 350
so broad and firm D 350
so would his wife D 348
so swift that even D 347
so broad and tall D 346
so fresh and fine D 344
so round and lips D 342
so fresh and true D 340
so sharp that some D 338
so stout and true D 334
so small and flat D 332
so sharp and fine D 329
so tense that when D 328
so since his wife D 326
so rapid and well D 326
so broad and clear D 326
so would all other D 324
so tired that nothing D 324
so repel each other D 324
so faint that their D 324
so would not take D 322
so could not vote D 322
so broad that when D 322
so funny that even D 321
so would not even D 320
so stiff that there D 320
so dirty that even D 319
so shalt thou keep D 314
so round and firm D 308
so small and cute D 306
so grand and tall D 306
so cowed was their D 305
so after his wife D 300
so toxic that even D 299
so would mean giving D 298
so rapid that very D 298
so rapid that much D 297
so prosy that many D 296
so crown with gold D 296
so tough and thick D 292
so plump and rosy D 292
so nobly for their D 292
so mingled with hope D 292
so frank and kind D 291
so broad and well D 290
so stiff and lame D 289
so would bring down D 288
so dizzy and sick D 288
so broad that four D 288
so tired they fell D 286
so crude that even D 286
so while his wife D 284
so would you tell D 282
so large and airy D 282
so dense was their D 282
so tired that there D 280
so grave and wise D 280
so fresh and warm D 280
so broad that most D 279
so rapid that what D 278
so levying them from D 278
so tired she just D 276
so sharp that nothing D 276
so rapid and great D 276
so loyal and loving D 276
so relax and have D 274
so level that there D 272
so tired and heavy D 270
so fresh and cold D 270
so shalt thou save D 266
so rigid that many D 266
so empty and airy D 266
so smart and well D 264
so would not want D 262
so smooth and free D 262
so small and slim D 262
so odious that even D 262
so novel that there D 262
so filthy that even D 262
so lofty and pure D 260
so tired out from D 258
so tense that there D 258
so solid and firm D 258
so laden with dust D 258
so fresh and eager D 256
so shady and cool D 255
so fresh they were D 254
so dense that most D 253
so tired with their D 252
so merry and loud D 252
so fresh that there D 252
so sharp that only D 251
so stiff with gold D 250
so relax and take D 250
so putting her soul D 250
so would mean having D 248
so mayst thou live D 248
so fresh that when D 248
so funny and nice D 246
so shiny and clean D 244
so loyal and good D 244
so mingled with their D 242
so amply and rose D 242
so smooth and open D 241
so odious that many D 240
so laden with gold D 240
so handy with their D 240
so dirty and ugly D 240
so plump and well D 239
so smooth that when D 238
so fresh and nice D 238
so white and pink D 236
so smooth and warm D 236
so sharp had been D 236
so drunk that there D 236
so windy and cold D 234
so rapid and their D 234
so proud and tall D 234
so caked with dirt D 234
so round and rosy D 232
so lofty that their D 232
so grave that many D 232
so broad and vast D 232
so white and gold D 231
so stern and hard D 231
so merry and glad D 230
so split off from D 228
so smooth and fast D 228
so smart and clean D 228
so rigid that when D 228
so meager that there D 228
so broad and free D 226
so genial and kind D 225
so would not think D 224
so rapid that during D 224
so faint that none D 224
so heated his mind D 222
so strong that john D 220
so rapid that those D 220
so merry and full D 220
so tired and angry D 218
so sharp and loud D 218
so fresh that come D 216
so would you care D 214
so soapy had made D 214
so sharp that many D 214
so meager that only D 214
so jolly and good D 214
so dirty and full D 214
so close and loving D 214
so would you just D 212
so caked with dust D 212
so drawn and pale D 211
so toxic that their D 210
so faint that there D 210
so white and thick D 208
so rapid that such D 208
so dense that from D 208
so would you take D 206
so smooth and firm D 206
so often met mine D 206
so broad and sure D 206
so broad and full D 206
so swift that only D 205
so sharp that their D 204
so pants his soul D 204
so false and foul D 204
so swift and heavy D 203
so jaded and worn D 203
so would you give D 202
so sharp and true D 202
so heated that some D 202
so stiff that even D 201
so white and pale D 200
so vague and hazy D 200
so sweet and cute D 200
so smart with your D 200
so hearty and well D 200
so harsh and rude D 200
so fixed and firm D 200
so dense they were D 200
so would all those D 198
so tired that your D 198
so shalt thou show D 198
so rapid that none D 198
so mixed with clay D 198
so jolly and full D 198
so close his lips D 198
so tired she went D 196
so timid that when D 196
so swift that none D 196
so loved his wife D 196
so livid with rage D 196
so tired you will D 194
so smart how come D 194
so mixed with sand D 194
so dense and rich D 194
so broad and fine D 193
so rainy and cold D 192
so plump and full D 192
so grave that some D 192
so germs are less D 192
so crude that only D 192
so stout and well D 191
so dense and wild D 190
so tired and there D 188
so smooth and nice D 188
so lofty that there D 188
so flush with cash D 188
so broad and wide D 188
so would not seem D 186
so rapid that nothing D 186
so swift that many D 184
so longed for came D 184
so dirty that when D 184
so shalt thou burn D 182
so hours per week D 182
so genial and good D 182
so fresh and keen D 182
so faint they were D 182
so beset his life D 182
so rapid that more D 181
so shalt thou pass D 180
so shalt thou fall D 180
so would not show D 178
so white fang knew D 178
so sharp and biting D 178
so minor that there D 178
so fresh and airy D 178
so frank and full D 178
so dirty and torn D 178
so smart that when D 176
so nobly and acts D 176
so merry and kind D 174
so frail and tiny D 174
so fatal had been D 174
so white with foam D 172
so tired they just D 172
so thrice and four D 172
so sorry for leaving D 172
so smart and good D 172
so longed for peace D 172
so heated that there D 172
so frank and good D 172
so tired they fall D 170
so quiet and firm D 170
so large and loving D 170
so gaunt and pale D 170
so heated that even D 169
so swift that when D 168
so small and tiny D 168
so slick with sweat D 168
so shalt thou learn D 168
so shall thou feed D 168
so quick and thick D 168
so dirty that their D 168
so wrote sir john D 166
so would not leave D 166
so novel that even D 166
so drunk with their D 166
so dirty they were D 166
so smart and such D 164
so heated that when D 164
so fixed and paid D 164
so stiff that only D 163
so suits our life D 162
so happy with mere D 162
so dense and firm D 161
so would not feel D 160
so naked and flat D 160
so merry and free D 160
so dried his tears D 160
so close that john D 160
so black with dust D 160
so about this wall D 160
so minor that only D 159
so would you call D 158
so weird and wild D 158
so meanly put upon D 158
so heated that their D 158
so drunk that even D 158
so dense and tall D 158
so tired and lame D 156
so stiff that their D 156
so shalt thou gain D 156
so rigid all over D 156
so rapid that from D 156
so rapid and deep D 156
so rainy that there D 156
so often that john D 156
so dense and deep D 156
so quiet and pale D 155
so lucid and clear D 155
so fresh and living D 155
so would they also D 154
so green and thick D 154
so badly his teeth D 154
so would mean taking D 152
so sweet and sexy D 152
so suave and fine D 152
so smooth and thick D 152
so seizing his roll D 152
so bulky that there D 152
so broad and heavy D 152
so black and grim D 152
so wells and leaps D 151
so rapid that time D 151
so novel and daring D 151
so meager that even D 151
so crazy that even D 151
so stiff and high D 150
so sharp and full D 150
so scant that even D 150
so novel that many D 150
so neatly that when D 150
so freeing him from D 150
so frank and bold D 150
so faint that when D 150
so close that jack D 150
so black with soot D 150
so shalt thou best D 149
so would not meet D 148
so tired they will D 148
so swift and eager D 148
so sealed off from D 148
so rigid that some D 148
so odious for their D 148
so hardy and will D 148
so fresh that even D 148
so drunk with wine D 148
so dreary and dark D 147
so tired and have D 146
so sharp and high D 146
so rapid that other D 146
so spoke this poor D 144
so smooth and oily D 144
so sitting and voting D 144
so round and racy D 144
so otter goes there D 144
so funny and cute D 144
so float and rest D 144
so broad and their D 144
so broad and bold D 144
so blithe and free D 144
so tired that some D 142
so singled out from D 142
so laden with silt D 142
so funny that when D 142
so frank and true D 142
so drunk they will D 142
so crisp and cool D 142
so cocky and sure D 142
so broad and good D 142
so stern that even D 141
so tired her eyes D 140
so smooth and wide D 140
so scant that there D 140
so rocky and full D 140
so meager that their D 140
so faint for want D 140
so dirty and dark D 140
so black with dirt D 140
so would bring upon D 138
so tired any more D 138
so smooth and sure D 138
so rapid are their D 138
so rapid and true D 138
so large and flat D 138
so strong and loving D 136
so smooth and bare D 136
so rigid that their D 136
so mingled with what D 136
so filthy they were D 136
so crazy for your D 136
so cocky and self D 135
so would not harm D 134
so would add nothing D 134
so sighs and tears D 134
so rocky that there D 134
so noble and pious D 134
so haply you will D 134
so funny with their D 134
so dreary with toil D 134
so dense that other D 134
so lofty and firm D 133
so vexed and angry D 132
so novel that some D 132
so hewed with their D 132
so fresh and soft D 132
so would not save D 130
so tired you have D 130
so taken and sold D 130
so solid and thick D 130
so smooth and full D 130
so meager that many D 130
so grave that their D 130
so fresh and open D 130
so dense that very D 130
so dazed that even D 130
so china has been D 130
so sweet and thyme D 129
so would you also D 128
so would not work D 128
so would lead only D 128
so trite that even D 128
so tense she felt D 128
so tense and angry D 128
so stout and bold D 128
so smart and know D 128
so large that mere D 128
so green with moss D 128
so fused that their D 128
so flowing all from D 128
so silly and self D 127
so would not pass D 126
so would bring into D 126
so tired you just D 126
so tired and felt D 126
so rides for ever D 126
so queer being there D 126
so frail and pale D 126
so faint with loss D 126
so moist and warm D 125
so lofty that even D 125
so every man took D 125
so would they come D 124
so would god have D 124
so witty and full D 124
so tired and full D 124
so setting them forth D 124
so rapid are these D 124
so plays its part D 124
so lucid and well D 124
so happy and loving D 124
so grave that nothing D 124
so chill and burn D 124
so moist and soft D 123
so black with coal D 123
so wired that when D 122
so tired that many D 122
so strong for thine D 122
so smooth that their D 122
so smooth and pure D 122
so often she took D 122
so genes that make D 122
so fills his soul D 122
so dirty and worn D 122
so dense with salt D 122
so canst thou well D 122
so badly her teeth D 122
so tired that only D 121
so smart and trim D 121
so blond and fair D 121
so black and foul D 121
so tired his eyes D 120
so tired and done D 120
so throwing him into D 120
so tamed are those D 120
so stern and angry D 120
so smooth that nothing D 120
so smooth and cold D 120
so smoky with last D 120
so short and pithy D 120
so sharp and sour D 120
so sharp and heavy D 120
so shalt thou cease D 120
so neatly with what D 120
so loyal that when D 120
so crisp and cold D 120
so close his nose D 120
so rapid that soon D 119
so tired and busy D 118
so tense that some D 118
so shalt thou dare D 118
so shall thou find D 118
so rapid and wide D 118
so rapid and vast D 118
so longed for during D 118
so gases and ices D 118
so funny and wise D 118
so dreary and cold D 118
so dense that heads D 118
so dense and fine D 118
so crude that there D 118
so freeing them from D 117
so weird that even D 116
so stout and tall D 116
so longed for when D 116
so lofty and cold D 116
so heated that many D 116
so fresh that their D 116
so frank and clear D 116
so broad and dark D 116
so boiling with rage D 116
so stark and bare D 115
so brisk and well D 115
so would put their D 114
so would cut into D 114
so until his wife D 114
so throwing them over D 114
so tense that their D 114
so sleek and clean D 114
so sheer and high D 114
so sharp and ready D 114
so shalt thou ride D 114
so loved and loving D 114
so drunk she fell D 114
so balmy and healing D 114
so would mean loss D 113
so fresh and life D 113
so chill and earthy D 113
so would mean leaving D 112
so white and firm D 112
so tired and feel D 112
so swift that some D 112
so steep and tall D 112
so smooth and deep D 112
so sharp and dark D 112
so often this mood D 112
so novel and bold D 112
so filthy that when D 112
so dense and full D 112
so close his thigh D 112
so tight and firm D 111
so teeming with ideas D 111
so would not hurt D 110
so would mean their D 110
so sweet and beaming D 110
so stick out your D 110
so sorry for john D 110
so sheer that there D 110
so light and tiny D 110
so funny with your D 110
so fired with reading D 110
so cruel and grim D 110
so broad and great D 110
so would you want D 108
so tight his teeth D 108
so stiff with dirt D 108
so smooth and rich D 108
so neatly that none D 108
so moody and dull D 108
so fresh and even D 108
so dense that none D 108
so dense are these D 108
so bonny she will D 108
so blond they were D 108
so strong and sane D 107
so would not lose D 106
so tense and hard D 106
so stern and gray D 106
so smooth and pale D 106
so smooth and dark D 106
so quick and fond D 106
so neatly with their D 106
so muddy that even D 106
so hyper that other D 106
so hotly that till D 106
so green and tall D 106
so grave has been D 106
so drunk but what D 106
so broad that what D 106
so silly that even D 105
so lurid that even D 105
so unreal that when D 104
so timid and self D 104
so thinly that there D 104
so terse and clear D 104
so swift they were D 104
so smooth and young D 104
so silly and hold D 104
so sharp are these D 104
so salty that nothing D 104
so salty that even D 104
so nobly did their D 104
so mingled that clear D 104
so meager that some D 104
so grave and pale D 104
so godly and good D 104
so close her lips D 104
so bound and tied D 104
so stale and hard D 103
so would not fall D 102
so stick with your D 102
so stand thou forth D 102
so stale and flat D 102
so sorry for bringing D 102
so smoky and dull D 102
so smart and wise D 102
so smart and have D 102
so small that mere D 102
so raked her fore D 102
so neatly that even D 102
so muddy and thick D 102
so lofty and great D 102
so endow with eyes D 102
so broad was their D 102
so stark and clear D 101
so tense that your D 100
so tense that many D 100
so swift that their D 100
so stiff and your D 100
so stern and grim D 100
so smart with their D 100
so short and flat D 100
so quick and firm D 100
so proud and firm D 100
so minor that their D 100
so jovial and good D 100
so grave and full D 100
so gaily put upon D 100
so fatal not only D 100
so fatal for love D 100
so dense that those D 100
so broad nor deep D 100
so spongy and soft D 99
so would you send D 98
so would not like D 98
so wasting all their D 98
so tired they went D 98
so tired that just D 98
so swift and clear D 98
so stiff they were D 98
so smart and knew D 98
so small and vile D 98
so silly with your D 98
so shaky that when D 98
so scorn and defy D 98
so lofty and wide D 98
so lofty and high D 98
so faint and cold D 98
so crude that their D 98
so close and tall D 98
so brave and loving D 98
so smooth and pink D 97
so fresh and firm D 97
so would all such D 96
so thrown out into D 96
so swift and true D 96
so swift and hard D 96
so stout that when D 96
so stiff and aching D 96
so rapid and there D 96
so plump they look D 96
so moses was angry D 96
so mixed with dirt D 96
so large doth grow D 96
so jolly and kind D 96
so float they must D 96
so could his wife D 96
so close and foul D 96
so small and pink D 95
so loyal and kind D 95
so would you look D 94
so would not wish D 94
so weaves them into D 94
so uniting that town D 94
so tense that only D 94
so sweet and thick D 94
so sweet and sane D 94
so sweet and ripe D 94
so steep that cars D 94
so spoke this bold D 94
so silky and fine D 94
so sharp set upon D 94
so rigid that nothing D 94
so often they took D 94
so novel that when D 94
so muddy that there D 94
so liable for such D 94
so funny this time D 94
so fresh that some D 94
so frank and warm D 94
so easily does mere D 94
so drunk and high D 94
so dirty that there D 94
so cruel and rude D 94
so plump and soft D 93
so broad that much D 93
so tired and lost D 92
so stout she will D 92
so stern and grey D 92
so smart that even D 92
so silky and nice D 92
so plump and pink D 92
so driving them into D 92
so dreary that what D 92
so dreary and dull D 92
so dense with life D 92
so broad that more D 92
so brisk and eager D 92
so above its mouth D 92
so strong and lithe D 91
so rapid that half D 91
so tough and wiry D 90
so tired with these D 90
so strong that laws D 90
so smooth and good D 90
so silly any more D 90
so sharp they were D 90
so rocky and poor D 90
so longed for some D 90
so longed for from D 90
so funny that there D 90
so fleet that their D 90
so drunk with love D 90
so dizzy that when D 90
so would not vote D 88
so would mean making D 88
so tired and aching D 88
so strung out from D 88
so sorry for aunt D 88
so sharp and bare D 88
so rocky that nothing D 88
so rigid and cold D 88
so light and firm D 88
so green and leafy D 88
so frank and fair D 88
so frail and puny D 88
so falls one pile D 88
so faint and hazy D 88
so drunk that some D 88
so dense and vast D 88
so broad that your D 88
so would you come D 86
so would not reach D 86
so tired and poor D 86
so stiff they will D 86
so split for ever D 86
so smart and able D 86
so sharp that these D 86
so shall his fife D 86
so plunge her hand D 86
so neatly and well D 86
so light and lily D 86
so gaunt and great D 86
so fresh and pink D 86
so frank and high D 86
so fixes its gaze D 86
so fired his heart D 86
so draws him away D 86
so didst thou fall D 86
so cross her legs D 86
so cocky and full D 86
so broad that other D 86
so would that other D 84
so would not risk D 84
so witty and wise D 84
so uneasy that booth D 84
so tired she must D 84
so tawny and thick D 84
so saucy with your D 84
so rather than leaving D 84
so rapid and sure D 84
so plunge her into D 84
so muddy and soft D 84
so longed for their D 84
so jumpy that when D 84
so drunk with self D 84
so drunk they fell D 84
so broad that those D 84
so broad and bare D 84
so brash and bold D 84
so tired and numb D 83
so shiny and soft D 83
so tired that most D 82
so tired her legs D 82
so tired and warm D 82
so swift and free D 82
so stony that there D 82
so stiff and prim D 82
so squab and like D 82
so showy and taking D 82
so sharp that tears D 82
so sharp are their D 82
so sharp and their D 82
so shall yow also D 82
so rigid that these D 82
so oddly did come D 82
so nobly that some D 82
so neatly with those D 82
so healthy and rosy D 82
so grave and deep D 82
so gaunt and tall D 82
so fresh and hale D 82
so filthy and foul D 82
so every sun tide D 82
so drove them away D 82
so close her nose D 82
so would not send D 80
so swift and wide D 80
so swift and full D 80
so strong and wiry D 80
so stick them into D 80
so steep and miry D 80
so smooth that some D 80
so sleek and warm D 80
so rapid that early D 80
so often and took D 80
so oddly that even D 80
so large that john D 80
so dense and there D 80
so broad and true D 80
so cents per copy D 69
so dirty that only D 66
so level that even D 64
so lofty that only D 63
so quick and deft D 61
so dense with meaning D 60
so tired that once D 59
so loyal and well D 55
so smooth that only D 54
so level and free D 54
so toxic that only D 53
so swift and deft D 53
so dusky and dark D 51
so chill and damp D 50
so swift and well D 48
so merry and well D 47
so would his life D 46
so silky and soft D 46
so broad that such D 46
so teeming with fish D 45
so bulky that only D 45
so would bring back D 44
so level and open D 44
so fresh and pale D 44
so bland and boring D 44
so tired and hurt D 43
so sharp and fast D 43
so moist and cool D 43
so tired and achy D 42
so stiff and self D 42
so rocky that only D 42
so dense that more D 42
so trite and well D 41
so rigid and self D 41
so rapid that three D 41
so rapid and clear D 41
so light and lithe D 41
so strong and hale D 40
so steady and firm D 40
so shalt thou wait D 40
so scant and poor D 40
so rapid and cheap D 40
so inert that even D 40
so gaunt and worn D 40
