so to speak . M 669103
so as well . M 56808
so it went . M 41938
so he said . M 28207
so at once . M 26054
so to speak ? M 20630
so no more . M 19982
so he says . M 17234
so in fact . M 16422
so he died . M 9132
so we went . M 8642
so he left . M 7810
so he went . M 6748
so is mine . M 6731
so go ahead . M 6611
so at home . M 6592
so in love . M 5690
so we left . M 5479
so to speak ! M 5339
so we think . M 4359
so in length . M 4270
so in vain . M 3979
so in time . M 3965
so at once ? M 3628
so on down . M 3412
so we were . M 2984
so we will . M 2730
so it will . M 2612
so we have . M 2571
so of life . M 2534
so in life . M 2509
so be ready . M 2498
so is life . M 2487
so to heart . M 2380
so at last . M 2359
so to live . M 2283
so he quit . M 2283
so he came . M 2156
so he will . M 2034
so in ours . M 1852
so as well ? M 1802
so to think . M 1685
so is ours . M 1623
so we wait . M 1574
so he knew . M 1524
so at peace . M 1446
so in theory . M 1444
so we hope . M 1419
so in name . M 1408
so to date . M 1379
so in truth . M 1358
so we came . M 1327
so is love . M 1313
so in ether . M 1282
so go away . M 1260
so in fact ? M 1245
so it felt . M 1240
so on edge . M 1212
so in peace . M 1212
so it ends . M 1203
so an hour . M 1187
so he felt . M 1156
so he sees . M 1150
so in part . M 1136
so to work . M 1131
so the rest . M 1102
so in width . M 1029
so in form . M 1029
so we will ! M 1016
so of late . M 993
so the next . M 975
so to hold . M 955
so at most . M 952
so at will . M 951
so is clear . M 946
so in depth . M 944
so we must . M 938
so on back . M 920
so the other . M 910
so we heard . M 870
so it died . M 852
so do mine . M 838
so he dies . M 818
so no less . M 776
so go home . M 776
so we know . M 774
so be deep ! M 772
so at length . M 762
so is time . M 759
so at once ! M 756
so to know . M 753
so it lies . M 742
so he fell . M 742
so to find . M 733
so in size . M 726
so no more ! M 716
so he fled . M 681
so it must . M 680
so be lost . M 678
so by whom ? M 668
so is wrong . M 654
so in mine . M 640
so be wary . M 618
so is mine ! M 615
so it says . M 591
so we quit . M 588
so it came . M 586
so the loss . M 572
so is there . M 572
so he must . M 566
so we pray . M 563
so is true . M 561
so to feel . M 552
so be nice . M 550
so be done . M 542
so to come . M 537
so he will ! M 537
so to pray . M 530
so at home ? M 518
so no more ? M 506
so by name . M 501
so in mind . M 491
so in deed . M 491
so in turn . M 487
so the mind . M 486
so in years . M 486
so by whom . M 486
so we have ! M 482
so is great . M 478
so at heart . M 477
so to rule . M 467
so to move . M 459
so so much . M 456
so do ours . M 454
so it hurt . M 452
so be used . M 444
so we said . M 442
so in love ! M 442
so is lost . M 438
so is losing . M 434
so of time . M 431
so as well ! M 428
so the third . M 427
so we stop . M 424
so it will ! M 421
so go ahead ! M 414
so by hand . M 403
so at work . M 401
so to plead . M 396
so is high . M 390
so by birth . M 390
so on edge ? M 389
so to many . M 388
so it dies . M 382
so be good . M 374
so do come . M 370
so is work . M 368
so he acts . M 362
so be ready ! M 362
so he says ! M 360
so at best . M 360
so to walk . M 359
so we speak . M 356
so on land . M 354
so it fell . M 353
so we talk . M 351
so of rest . M 348
so it grew . M 348
so we live . M 346
so to rest . M 346
so the same . M 346
so is hell . M 346
so he said ! M 343
so do these . M 342
so we come . M 341
so on time . M 337
so is truth . M 334
so at odds . M 334
so to wait . M 330
so to heart ? M 330
so in love ? M 330
so is good . M 329
so we stay . M 326
so it fits . M 324
so go slow . M 320
so be gone . M 318
so to love . M 310
so is evil . M 308
so go away ! M 308
so to rise . M 306
so is void . M 304
so is done . M 298
so by many . M 296
so we knew . M 294
so is peace . M 294
so by fate . M 294
so in hell . M 293
so we leave . M 292
so in town . M 292
so in life ? M 292
so we ready . M 290
so to heart ! M 290
so of years . M 290
so do nothing . M 286
so be cool . M 286
so it said . M 285
so we felt . M 284
so is anger . M 282
so in truth ? M 282
so is vice . M 278
so to pass . M 277
so it runs . M 274
so by faith . M 274
so of mine . M 273
so in need . M 270
so to life . M 266
so of work . M 264
so to whom ? M 262
so the fact . M 260
so to ours . M 259
so in great ? M 254
so by land . M 254
so to sign . M 253
so by will . M 252
so to some . M 248
so of these . M 247
so in time ? M 240
so be free . M 236
so in spring . M 232
so is made . M 229
so the lord . M 228
so to mine . M 226
so in some . M 225
so we lost . M 223
so he grew . M 222
so to fall . M 221
so at risk . M 221
so the case . M 213
so to wish ? M 212
so it were . M 212
so in anger . M 212
so of birth . M 210
so to teach . M 209
so in full . M 208
so go early . M 208
so we fled . M 206
so of land . M 206
so we wait ? M 205
so in cold . M 205
so be wise . M 204
so in youth . M 200
so as ever . M 198
so to talk . M 196
so to learn . M 196
so is here . M 196
so is hope . M 195
so he lost . M 194
so at birth . M 193
so we feel . M 192
so in faith . M 190
so we learn . M 186
so on here . M 186
so is safe . M 186
so to will . M 185
so to kill . M 183
so do dogs . M 183
so is faith . M 182
so in jail . M 180
so we part . M 178
so is food . M 178
so to work ! M 177
so in many . M 177
so he knew ! M 177
so we rest . M 174
so to grow . M 174
so is gone . M 174
so be made . M 170
so do ideas . M 166
so is youth . M 165
so we were ! M 160
so is free . M 160
so to swear . M 158
so or such . M 158
so the name . M 156
so by mail . M 156
so to live ? M 155
so the poor . M 155
so my lord . M 154
so in boys . M 154
so the body . M 152
so be there . M 152
so at trial . M 152
so the most . M 150
so in reading . M 150
so of snow . M 148
so it acts . M 148
so is life ! M 148
so in health . M 148
so in debt . M 145
so to whom . M 144
so to react . M 142
so to other . M 142
so in ours ? M 142
so he heard . M 142
so be safe . M 142
so be kind . M 142
so we teach . M 141
so of ours . M 140
so we walk . M 137
so is zero . M 136
so in hand . M 135
so to town . M 134
so he died ! M 134
so by love . M 134
so do harm . M 132
so to take . M 130
so by some . M 130
so at rest . M 130
so to fail . M 129
so it went ! M 129
so he went ? M 129
so in great . M 128
so we obey . M 126
so is meaning . M 126
so in three . M 126
so on fire . M 125
so is pain . M 124
so to want . M 122
so to life ? M 122
so to hate . M 122
so the heir . M 122
so is used . M 122
so is best . M 122
so in play . M 122
so do kids . M 122
so to turn . M 120
so to make . M 120
so on mine . M 120
so in life ! M 120
so he wept . M 120
so go forth . M 120
so at mine . M 120
so to treat . M 119
so of peace . M 119
so we find . M 118
so to have . M 118
so on home . M 118
so up there . M 117
so is mind . M 114
so go back . M 114
so on faith . M 113
so the girl . M 112
so by time . M 112
so to save ! M 111
so in kind . M 111
so to leave . M 110
so it rots . M 110
so is health . M 110
so in these . M 110
so in there . M 109
so in hope . M 108
so in heart . M 108
so he meant . M 108
so the last . M 107
so to call . M 106
so of what ? M 106
so of line . M 106
so we think ! M 105
so of truth . M 104
so is wealth . M 104
so is fine . M 104
so be sure ! M 104
so is hate . M 102
so in fact ! M 102
so at home ! M 102
so of love . M 101
so we grow . M 100
so we died . M 100
so is healing . M 100
so in body . M 100
so go there . M 100
so the depth . M 98
so is rare . M 98
so in worth . M 98
so the pain . M 96
so on trial . M 96
so of fish . M 96
so by mine . M 96
so we hope ! M 94
so to lose . M 94
so is reading . M 94
so by much . M 94
so by deed . M 94
so to meet . M 93
so is wise . M 92
so he ends . M 92
so go along . M 92
so my self . M 91
so we kiss . M 90
so to stay . M 90
so the text . M 90
so is land . M 90
so in pain . M 90
so he asks . M 90
so up here . M 89
so at last ? M 89
so to what ? M 88
so of text . M 88
so of many . M 87
so it went ? M 86
so is birth . M 86
so in vain ? M 86
so be bold . M 86
so to port . M 84
so in here . M 84
so he runs . M 84
so he lies . M 83
so to look . M 82
so the next ? M 82
so in most . M 82
so be sure . M 82
so he must ! M 81
so it ends ! M 80
so of faith . M 55
so the boys . M 50
so to think ? M 49
so to give . M 47
so to save . M 46
so of rain . M 45
so the work . M 43
so the more . M 42
so at hand . M 42
so to help . M 41
so the land . M 41
so of reading . M 41
so we lose . M 40
so to stop . M 40
so the male . M 40
so of home . M 40
