son of the first M 76229
son of the father M 60923
son of the house M 47085
son of the morning M 35419
son to the father M 33061
song of the birds M 32785
son of the above M 32479
son of the count M 19853
son of the owner M 17406
son of my father M 16540
son of the people M 13852
son of the devil M 11758
song of the angels M 11639
son of the queen M 11140
son of the author M 11098
son of the elder M 10848
son of the grand M 10828
son of the woman M 10618
son of the local M 9036
son at the front M 8244
son of the black M 8152
son of the right M 7901
son by the father M 7538
son of the prime M 7474
son of my mother M 7432
son of the fourth M 7209
son of the state M 6488
song on the album M 6466
son in the father M 6243
song of the night M 6114
son of the ruler M 5831
song in the night M 5800
son on the cross M 5662
son of the mother M 5638
son of the wealthy M 5226
son of the royal M 5134
son by the first M 4964
song of the period M 4757
son of the noble M 4740
song of the people M 4662
son to the world M 4587
song of the river M 4566
son in the house M 4484
song in the first M 4371
song of the first M 4302
son is the father M 4261
son of the noted M 4186
song in the world M 4054
song of the trees M 4036
son of the slave M 4032
son of the judge M 4022
son in the world M 3881
song of the world M 3768
son in the first M 3615
song of the white M 3359
son of the crown M 3313
song of the happy M 3282
son of the leader M 3248
son of the famed M 3146
song of the women M 3027
son of the white M 3025
song in the house M 3006
song of the black M 2999
song of the water M 2994
son of an actor M 2986
song of the morning M 2898
son of an elder M 2864
son of the river M 2804
son of the working M 2769
son is no longer M 2672
son as an atoning M 2600
son on the altar M 2542
son of the world M 2503
son to the mother M 2495
song of the evening M 2445
son of the brave M 2382
son of the hated M 2286
son to be proud M 2256
son is the image M 2224
son of my right M 2132
son of the eighth M 2004
son of the blind M 1929
son or the father M 1926
son of the actor M 1864
son in the hands M 1780
son to the house M 1672
son is the first M 1652
song to the evening M 1631
son of the woods M 1596
son of the party M 1553
song of the cycle M 1538
song of the fates M 1534
son of an upper M 1491
song of the exile M 1444
son to the queen M 1444
son of the older M 1424
son to the cross M 1375
son in the midst M 1360
son to the first M 1332
son in the story M 1297
son of the kingdom M 1248
son of the major M 1241
son of the worthy M 1228
song of the mother M 1223
song of the brown M 1218
song in the morning M 1218
son as the father M 1184
song of the stream M 1166
son of the evening M 1162
son of the water M 1152
son to be named M 1144
son in the place M 1140
son at the hands M 1140
son to my father M 1138
song of the civil M 1130
son of the field M 1116
song in the midst M 1102
song is no longer M 1092
song of the train M 1062
song of the times M 1058
song of the bells M 1058
song is the first M 1032
son in the royal M 1028
son to be happy M 1010
son to be taken M 1006
son is to marry M 1006
son is in danger M 1006
son to the count M 1002
son of the deity M 991
song in the evening M 984
son in the event M 981
son of an enemy M 976
song of the child M 970
song of the meadow M 966
song in the style M 958
song in the cycle M 958
son in the sense M 948
son in the power M 946
son of the civil M 931
son of the night M 928
song to the world M 921
song in the front M 918
son of my people M 918
son in the white M 907
son of the demon M 890
son on the phone M 879
son of an older M 876
son of an alien M 874
son on the right M 863
song of the woods M 850
song of the field M 848
song in the whole M 846
son to the local M 836
son as the first M 830
song of the whole M 820
son if he could M 812
song of the seven M 808
son to the altar M 804
song on the first M 794
son in the morning M 786
son on the father M 784
son to the point M 780
son in the unity M 780
son so he could M 776
son on the floor M 771
song of the monks M 766
son of the whole M 764
son to the right M 751
son to be given M 748
song of the woman M 740
song of the green M 735
song of the group M 732
son of my house M 730
song of the house M 721
song in the story M 710
song of the storm M 697
song of the blind M 696
son to my mother M 682
song to the music M 678
son of the light M 675
son of the maker M 674
song to the glory M 668
son in the kingdom M 647
song is the voice M 645
son to the place M 630
song of the blood M 622
son by the power M 620
song at the close M 615
song of the queen M 614
song of the state M 607
son to be equal M 606
son of an exile M 600
son to the front M 596
son on the first M 594
song on an album M 590
song to the class M 588
song of the album M 586
song of the hills M 584
son of an earthly M 584
son on the field M 582
son by the mother M 577
son in the light M 571
son of my first M 568
son of the enemy M 566
son in the field M 566
song of the girls M 564
song of the season M 556
son to the state M 556
song on the board M 552
son of the hills M 552
son by the queen M 548
son to the crown M 542
son to the cause M 542
song of the hours M 540
son to the people M 538
song of the brave M 534
son of the newly M 534
song of the youths M 533
song in the trees M 532
son of the proud M 532
song of the grass M 530
song by the group M 530
son of the still M 530
song in the works M 524
son by my first M 522
son to the above M 520
song of the human M 519
song of the engine M 516
son of the green M 515
son of the small M 511
son to the royal M 504
song to the people M 492
son of an owner M 489
song in the music M 488
son to the white M 486
song of the slave M 484
son of the junior M 484
son of the upper M 481
son on the night M 480
son is the child M 480
son in the right M 478
song in the woods M 470
song in the meadow M 470
son in the civil M 468
son of an engine M 466
song at the right M 460
song at the first M 460
son in the prime M 460
son in the evening M 454
song in the white M 452
son at the table M 452
song to the sound M 451
son of the storm M 450
son in the large M 444
song on the stage M 442
son in the fourth M 442
son of the frail M 438
son in the whole M 438
song to be found M 430
song of the royal M 430
son is the grief M 430
son of the agent M 428
song of the sweet M 424
son in the front M 423
son of the lower M 422
son of the heaven M 418
son is the cause M 418
son of the later M 411
song of the leaves M 410
son on the stage M 410
son in the water M 409
son of the seven M 408
son to the noble M 406
song of the lower M 405
son in the state M 403
song on the sound M 397
son or the mother M 396
son in the woods M 396
song at the opening M 395
song of the fight M 390
song in the sense M 386
son of the place M 386
son of my worthy M 386
son to the field M 385
son to the black M 383
song to the words M 382
song of the music M 382
son of the tiger M 381
son on the front M 378
son in the study M 378
son is an adult M 371
son as he stood M 370
song of my father M 366
son to the woman M 364
song on the times M 356
song of the small M 356
son of the nurse M 354
son as the price M 354
song to the first M 350
song in the light M 349
son in my father M 348
son in the local M 346
son as the image M 346
son to the river M 344
son at the altar M 344
son of the store M 343
son to be healed M 340
son on an altar M 340
son if the father M 338
son at the father M 338
son to the angels M 334
son in the small M 334
son at the right M 333
song is the story M 332
song of the caged M 331
song of the leader M 330
song in the place M 330
song in the hearts M 330
son on the morning M 330
son to the store M 328
son of the cruel M 328
son of my elder M 328
song in the album M 324
son is the glory M 324
son to be saved M 322
son by the grace M 322
son to the grand M 320
son to do anything M 320
son of the human M 320
song to the night M 314
song as the first M 314
son at the first M 314
song of my people M 310
song to the group M 308
song in the final M 308
song of an exile M 307
song of the glory M 306
son at the house M 304
son as an enemy M 302
song at the start M 298
son is the light M 298
son of the loved M 294
son of an elite M 292
song of the cross M 288
son of the abyss M 286
son of the awake M 284
son in the final M 284
son at the close M 282
son is my father M 281
son to the floor M 280
son of my enemy M 280
son in my place M 280
son of the cloud M 279
son to be brave M 278
son on the evening M 278
song of the noble M 276
song in the field M 276
son in my house M 276
son of the twice M 273
son to the elder M 272
son is the story M 272
son in the order M 272
song of an adult M 270
song to the child M 269
song of the wreck M 269
son by the slave M 268
son as an adult M 265
song of the deeds M 264
song of the beasts M 264
son in the crowd M 264
song at the party M 260
son to be strong M 260
son on the verge M 260
son is the agent M 260
son of an under M 259
song in the voice M 258
son of the music M 256
song to sing while M 254
song is so sweet M 254
son to the study M 252
son in the human M 252
song to the echoing M 250
song in the piece M 250
son to be hanged M 250
son in the river M 250
son in the armed M 250
son to be quiet M 248
son in the image M 248
song in the fourth M 246
son as an equal M 246
son of the group M 244
son of the danger M 244
son of the plain M 243
son in the mother M 243
song in the grass M 242
song in the opening M 237
song in the group M 236
son as he grows M 236
song on the bells M 234
son to the block M 234
son is the worst M 232
song on the night M 228
son on the walls M 226
son of the strong M 224
son as he slept M 224
son in the words M 222
son of the blood M 221
song in the hands M 220
son in the fight M 220
son at the point M 220
son as he leaves M 220
son of the named M 218
son as he could M 218
son by the hands M 216
song in the right M 212
son or the slave M 212
son as the cause M 210
song is at first M 209
song or an album M 208
son in the shape M 208
son is the owner M 206
son of the missing M 205
son of the child M 205
song to the mother M 204
son is no doubt M 204
son by the wrist M 204
song of the passing M 202
son of the legal M 200
son in the usual M 200
son in the night M 200
song to the birds M 198
song of the devil M 198
song of the beauty M 198
song in the usual M 198
son on the train M 198
son of an agent M 198
song to the morning M 196
song to be about M 196
song of the final M 196
son to be found M 194
son as the crown M 194
song or the music M 192
son to be cared M 192
son of the short M 192
son of so worthy M 192
son is the power M 192
son on the point M 190
son of an orange M 190
son of an author M 190
song of the words M 188
son to be beaten M 188
son to be alive M 188
son on the board M 188
song of the fourth M 187
song to sing about M 185
song of the voice M 184
song of the track M 184
song of the shell M 184
son on the eighth M 184
son of the times M 184
son of the paper M 184
son of the large M 184
son if he wants M 184
song to the whole M 182
song of the empty M 180
son or the first M 180
son of the period M 178
son is in heaven M 178
son as the child M 178
song of the forty M 177
song of the power M 176
son to the child M 176
son so we could M 176
son in the lists M 176
song to the right M 175
son of the toiling M 175
son of my blood M 175
son by the light M 175
son in the cause M 174
song of the local M 170
son to be seated M 170
son on the steps M 170
son is so strong M 170
son in the later M 170
son by the elder M 170
song on the music M 168
song in the blood M 168
son to be alone M 168
son of the forty M 168
son of the story M 167
son to the devil M 166
son is the world M 166
son by the woman M 166
son in the upper M 165
song of the story M 164
son to my house M 164
son of the false M 164
son is the exact M 164
son in the above M 164
son at the local M 164
son is the mother M 163
song to the point M 162
song on the hearts M 162
song of the nearly M 162
son is to stand M 162
son as the mother M 162
son as my father M 160
song of the plane M 158
song of the party M 158
song of the bones M 158
song is the final M 158
son to the whole M 158
son to be cured M 158
song by the whole M 157
song in the local M 156
song in my honor M 156
son of so noble M 156
song of the adult M 155
son to go about M 155
son of the eight M 155
son of so close M 154
son of my noble M 154
son in the group M 154
song of the heroes M 152
song is no doubt M 152
song in the later M 152
son as he might M 152
song of the place M 150
song of the older M 150
son to be known M 150
son on the mother M 150
son to be under M 148
song of the magic M 147
song or in story M 146
song is the music M 146
son of the thirty M 146
son of the crime M 146
son is the human M 146
son is the author M 146
son as the author M 146
son on the grand M 144
son to the human M 143
song to the white M 142
song in the green M 142
son in the forum M 142
son in the eighth M 142
son to the table M 140
son to the older M 140
son or the pupil M 140
son at the start M 140
son as we honor M 140
song or the sound M 139
song of the father M 139
son at the opening M 139
song in the period M 138
song in the lives M 138
son of the wilds M 138
son by the people M 138
song is the sound M 137
son in the class M 137
song as he stood M 136
son of the usual M 136
son is the leader M 136
son is so cruel M 136
son is an enemy M 136
son in the hearts M 136
son at the cross M 136
song he is about M 134
son to the small M 134
son in the depths M 134
song of the opening M 133
song in an alien M 133
son or my father M 133
song or an amusing M 132
song of the later M 132
song in the words M 132
son to the meeting M 132
son to the enemy M 132
son to be still M 132
son of the tutor M 132
son of the labor M 132
son of the stage M 131
song of the working M 130
song of the burning M 130
song is as sweet M 130
song in the upper M 130
son in the style M 130
son in the opening M 129
song of the piece M 128
song is at times M 128
son to the woods M 128
son to the author M 128
son on the danger M 128
son of the rough M 128
son in the space M 128
son in my class M 128
song to my mother M 126
song in the outer M 126
son of the order M 126
son of my grief M 126
son is an actor M 126
son at the gates M 126
son as the agent M 126
song of the trail M 125
son of the under M 125
song on the morning M 124
song on the evening M 124
song of my mother M 124
song is an appeal M 124
son of no earthly M 124
son in the period M 124
son in the crash M 124
song of the eighth M 123
song on the words M 122
song of the strong M 122
song of the halls M 122
song of the falling M 122
song is in major M 122
son is the legal M 122
song in the still M 121
son of the power M 121
song of the running M 120
son of the sweet M 120
son of my nurse M 120
son is my first M 120
son in an upper M 120
song or the words M 118
song of the others M 118
song is so short M 118
song in the major M 118
son to the gates M 118
song or the story M 116
song of the chase M 116
song by the women M 116
son on the whole M 116
son of the freed M 116
son is the model M 116
song of the brain M 115
son or the noble M 114
son of the brown M 114
song to the crowd M 112
song on the water M 112
song of the short M 112
song of the newly M 112
son up the steps M 112
son to go after M 112
son to be anything M 112
son in the shade M 112
son in the lower M 112
son in the chair M 112
son in the joint M 111
song or the first M 110
song of the upper M 110
song at the point M 110
son to the power M 110
son on the upper M 110
son on the coast M 110
son of the elite M 110
son in the glory M 110
son in the enemy M 110
son by the cross M 110
son at the white M 110
song of the enemy M 109
son is so stand M 109
song of the search M 108
song of the saved M 108
song is to begin M 108
song in the shape M 108
song as he could M 108
son to be truly M 108
son or the woman M 108
son on the table M 108
son of the worst M 108
son is on board M 108
son in the wreck M 108
son at the train M 108
son at my house M 108
son as he began M 108
song is the whole M 106
song in the leaves M 106
song in the depths M 106
son to the worthy M 106
son to the wealthy M 106
son to the hunting M 106
son of the exile M 106
son is to blame M 106
son in the months M 106
son on my right M 105
song of the inner M 104
song if he calls M 104
song as the class M 104
son to the glory M 104
son of the board M 104
son is as strong M 104
son as he tried M 104
son as he loved M 104
song to the river M 102
song to the queen M 102
song of the elder M 102
song of the crowd M 102
song is in order M 102
song by the author M 102
son of the sunny M 102
son of the quiet M 102
son of my older M 102
son in the hills M 102
song to the story M 100
song to the human M 100
song to the beauty M 100
song to be given M 100
song so he could M 100
song by the people M 100
son to the train M 100
son to the stand M 100
son to the danger M 100
son it is human M 100
son is the reason M 100
son in the lodge M 100
son in the action M 100
song to the others M 98
song on the lines M 98
song as it comes M 98
son to the ruler M 98
son to the hands M 98
son to be worthy M 98
son of the giver M 98
son of my queen M 98
son in the habit M 98
son in my hands M 98
son be the first M 98
son in the waiting M 97
song as he works M 96
song as an adult M 96
son to be aware M 96
son is as truly M 96
son is an honor M 96
song in the quiet M 95
song to the trees M 94
song on the floor M 94
song of the nurse M 94
song of an evening M 94
song in the order M 94
son to the deity M 94
son of the heroes M 94
son if he found M 94
son at the price M 94
son is the whole M 93
son in the black M 93
song to the women M 92
song to the woman M 92
song in the black M 92
son on the stand M 92
son as the leader M 92
song in the mother M 90
song as the people M 90
son to the judge M 90
son to go hunting M 90
son to be tough M 90
son on the cover M 90
son of the reader M 90
son of my hosts M 90
son of my brave M 90
son as he loves M 90
song of the order M 88
song by the first M 88
son to the nearby M 88
son or the child M 88
son or an enemy M 88
son on the river M 88
son of the buyer M 88
son as the ruler M 88
son as he takes M 88
son as he moved M 88
son to the coast M 87
song on the right M 86
song in my brain M 86
song in my blood M 86
song if the words M 86
song as the words M 86
son to the party M 86
son to the chair M 86
son or the issue M 86
son or an older M 86
son in the worst M 86
son in so small M 86
son at the peril M 86
son as an actor M 86
son in the store M 85
song to my worst M 84
song of an older M 84
song of an empty M 84
song in the minds M 84
song if he could M 84
son to the idols M 84
son to me since M 84
son on the value M 84
son on the model M 84
son on the fourth M 84
son of the needy M 84
son of the lodge M 84
son is the pride M 84
son in the queen M 84
son in the nearby M 84
son by my father M 83
song to me about M 82
song is in keeping M 82
song is in every M 82
song as the birds M 82
son to be shown M 82
son of the sitting M 82
son of the guide M 82
son of the feared M 82
son of my floor M 82
son is to serve M 82
son at the store M 82
song or the action M 80
song on the river M 80
song of my writing M 80
son of the bearer M 80
son is to reveal M 80
son is an image M 80
son in the legal M 80
son to be either M 67
son by the right M 65
son of the money M 63
song of the light M 59
son to the water M 59
son in the drawing M 56
son of the burning M 54
son of the grail M 52
song on the whole M 51
song of the orange M 51
son of the fifty M 49
son in the quiet M 49
song of the clock M 48
son of the weather M 48
son of the hanged M 46
song or of sound M 44
song on the front M 42
son to the newly M 41
son he no longer M 41
son of the chief D 36045
song of the shirt D 29019
son of the widow D 17689
son on the throne D 9886
song of the thrush D 6929
son of the sheik D 6552
son of the manse D 5604
son of the laird D 5540
son to the throne D 5434
song of the sword D 5300
son of the roman D 5197
son of the mayor D 5028
song of the broad D 5025
son of the vicar D 4706
son of the senior D 4128
son of my uncle D 4000
song of the stars D 3938
son of the baron D 3938
song of the robin D 3890
sow to the flesh D 3653
son of the muses D 3303
song of the rolling D 3263
son of the slain D 3026
song of the siren D 2812
song of the flame D 2685
song of the brook D 2625
son in the flesh D 2583
son of the rabbi D 2393
son to the grave D 2363
son of the tribe D 2315
son of thy mother D 2093
son of the rajah D 1977
song of the mocking D 1780
son of the titan D 1746
son of the court D 1728
song of the pines D 1541
song of the frogs D 1466
song of the negro D 1422
son of the nation D 1422
song of the muses D 1419
song of the larks D 1370
song of the waves D 1366
son of the dutch D 1302
son of the rebel D 1264
son in the bosom D 1232
son of the uncle D 1206
son of the nabob D 1179
song of the bower D 1170
song in the opera D 1158
son if he would D 1142
song of the sower D 1119
song is my weapon D 1079
son of the stars D 1046
song of the banjo D 1000
song of the flute D 997
song of the stone D 994
song of the phoebe D 990
son of the pasha D 976
son of the donor D 952
son of the sword D 942
son to the court D 935
son of the clerk D 914
song in the movie D 911
son of the sable D 896
son in the bible D 894
song of the olden D 892
son of the charm D 875
song of the bride D 849
son of the nymph D 846
sow in the field D 834
son on the cheek D 829
son to the laird D 828
song of the reaper D 822
song of the winds D 804
son on the basis D 796
son to the mercy D 782
son of the mogul D 776
son of my bosom D 762
sow by the right D 761
sou in the world D 760
sob in my throat D 720
son of the saint D 719
son of thy father D 700
song of the oriole D 696
song of the whale D 694
son of the witch D 692
son of the hotel D 686
sob in the throat D 685
son is the chief D 682
son of the abbot D 681
son of an uncle D 680
song of the smoke D 651
son as he would D 632
sop to the people D 630
son on the bench D 628
son of the deacon D 626
son to the chief D 622
son as the savior D 606
song of the bards D 602
song of my dusky D 594
song of the nation D 566
son of the bride D 556
song in the score D 550
son to be slain D 544
song of the horse D 540
song of the males D 534
son of the baker D 534
song of the choir D 525
son of the region D 508
song of the lover D 500
sop up the gravy D 492
sop up the blood D 488
son of my loins D 482
sow in the minds D 481
son of an organ D 481
sod of the first D 481
song in the jungle D 480
song of the movie D 478
son of the pagan D 475
son of the loyal D 474
son of king peter D 472
sow in the hearts D 469
song be in quire D 468
song of the dance D 460
sop up the sauce D 456
song in the studio D 456
song to the rhythm D 450
son to the widow D 448
song as the basis D 434
song of the sibyl D 430
song of the wrens D 426
son of the stout D 423
sop up the water D 415
song on the stereo D 415
son of the flesh D 408
son of the raven D 401
song of the marsh D 398
son of the rival D 394
sob of the waves D 388
song of the fairy D 387
son in the title D 379
son in the ranks D 378
son of the fairy D 377
son at the breast D 376
song in the throat D 370
song in the grove D 368
son of the welsh D 366
song in the waves D 362
son of the weaver D 361
son of the heathen D 359
song of the anvil D 349
sou in the house D 348
son of the stone D 348
son of the manor D 347
song by the rolling D 346
son of the snake D 344
son of the forge D 344
son in the tower D 342
son of the horse D 340
song of the merry D 337
song in an opera D 336
son in the grave D 334
son is on drugs D 332
song of the taste D 331
song or the dance D 330
song of the flesh D 326
son of the solar D 326
song of the swans D 324
song of the lotus D 324
son of the negro D 321
son is the exuding D 321
son to the welsh D 320
son of the bitch D 316
song of the talking D 314
song to the movie D 312
son of an opera D 312
son is the logos D 312
song in the minor D 310
son as he spoke D 306
song to the stars D 298
song in the nation D 298
son of the miner D 298
sob in the voice D 295
son as the logos D 294
song of the ghost D 293
song by the choir D 292
song of the camel D 290
son of the pilot D 288
son to be filial D 286
song of the swamp D 283
son of the social D 282
son of the dwarf D 282
song of the sedge D 280
song of the vikings D 276
son in the sight D 276
son in the novel D 275
son of us would D 274
song in my throat D 273
son of my niece D 272
song of the snake D 271
song of an oriole D 270
son at the wheel D 270
song on the basis D 268
son so he would D 268
son to the trade D 267
sob at the sight D 266
song of the rails D 262
son of the bible D 262
son at the siege D 254
song of the roman D 252
son of an unwed D 252
son in the guise D 252
sob in my voice D 251
song of the roses D 250
song in the bible D 250
son to be reared D 250
son of the minor D 249
song of the wedding D 248
son to the hotel D 248
son to be bound D 248
son of the vikings D 248
son at the court D 247
son of the jungle D 246
song of the singers D 242
son to be thrown D 240
son of the liver D 238
son in the rebel D 237
song at the stake D 236
son of the fiery D 236
son or the logos D 234
song of the scald D 232
son on the couch D 232
son of the tenor D 232
son by the chief D 231
song or an opera D 230
song on the banks D 230
song in the novel D 230
son by the widow D 230
sow in the eighth D 229
song of the finch D 228
son of the mongol D 228
sod of it would D 228
son to the nation D 226
sow on the altar D 223
song of the violet D 223
song of the violin D 222
song of the title D 220
song of the strings D 220
son in the movie D 220
sou of the money D 218
song of the tribe D 218
son of my flesh D 218
song of the grave D 217
song as the title D 217
son of the godly D 212
son of the ducal D 212
song of the olive D 210
son on the banks D 208
son of the naval D 208
son at the mercy D 208
song at the sight D 206
song of the gypsy D 205
song in the rigging D 205
song of the quail D 204
song of the motor D 202
son of the rural D 202
song of the raven D 201
son of the mason D 200
song of the soaring D 199
sow in the morning D 198
son on the porch D 198
son of the grave D 198
song on the flute D 196
song in the drama D 194
son in the manger D 194
son of the druid D 193
son in the fairy D 193
son to the niece D 192
son or the widow D 192
son of the throne D 192
son of the ranch D 192
sop in the shape D 190
song of the opera D 190
son of the stern D 188
son to my uncle D 184
son of the title D 184
son of an urban D 184
son in the court D 184
song of the trade D 182
son of the fiend D 180
sop to my pride D 178
song on the shore D 178
song of the wheel D 178
son by the throat D 178
sop up the juice D 177
song of the scythe D 177
song on the organ D 176
son as the chief D 176
sow in the first D 175
song in the zebra D 175
song to the level D 174
son of the peter D 174
son of the canon D 174
son in the crook D 174
son of the hound D 172
son of king roger D 172
song of the social D 170
son of the smoky D 170
song in the vicar D 168
son or an uncle D 168
son of thy loins D 168
song of the comet D 164
song of the souls D 162
song of the region D 162
song is the basis D 162
song as he drove D 162
song of the forge D 161
sow in the flesh D 160
song at the wedding D 160
song of the flood D 159
song of the bayou D 158
song of the chief D 157
song of thy youths D 156
son of the groom D 156
song to the siren D 155
son of the median D 155
sow in the world D 154
sop to the working D 154
sob to the music D 154
song in the scene D 152
sop to the party D 150
son in the senior D 150
sou of the first D 148
son to the baron D 148
son of an usher D 147
song of the rider D 146
song of the dancing D 145
song by the eagles D 144
song by the token D 142
son of the heather D 142
son at the hotel D 142
sow in the seeds D 141
sop to the right D 141
song of the sands D 140
son to the bosom D 140
sop to the pride D 138
song to the bride D 138
son of the petty D 137
sow by the offer D 136
son of the creek D 136
son of the begum D 136
sod of the canal D 136
song of the fruit D 134
son on the brink D 134
song of the sheep D 132
song of the jungle D 132
son to the sword D 132
son of the opera D 132
son of the dealer D 132
son of la belle D 132
son as my savior D 131
song of the skies D 130
song of the doves D 130
song be an anthem D 130
sow of the breed D 128
sou of the above D 128
son of the coach D 128
son by the elbow D 128
song is in minor D 127
song of the toads D 126
song of the creek D 126
sow at the right D 124
sop to the unions D 124
song is the chief D 124
son to the brink D 124
sop to the reader D 122
son of the waves D 122
son of the crazy D 122
son in the chest D 122
song to the dancing D 120
song of the rover D 120
son on the shore D 120
son on the bible D 120
son of an heathen D 120
son is the apple D 120
son in my bosom D 120
sop to the growing D 118
son to the bride D 118
son of the papal D 118
son of the giants D 118
son to the roman D 117
son to the stake D 116
son to the begum D 116
son on the score D 116
son of the niece D 116
song of the snowy D 114
song of the jolly D 114
son of the privy D 114
son of the movie D 114
son in the trade D 114
son of the mufti D 113
son to the level D 112
son to the duchy D 112
sow in the ashes D 110
song of the steaming D 110
song of the bulls D 110
son to the title D 110
son on the mount D 110
song to the dance D 108
song on the banjo D 108
song of the goats D 108
song of the drums D 108
song as it would D 108
son of the sugar D 108
son of the organ D 108
son of the mythic D 108
son of the attic D 108
son by the nymph D 108
sod in the front D 108
sou in the franc D 107
song or the blues D 106
song of the skirt D 106
song is the setting D 106
song is an anthem D 106
song in the plays D 106
song as he flies D 106
son to the wedding D 106
son to be loyal D 106
son is at stake D 106
song of the pipit D 104
song of the falls D 104
song of the bible D 104
son of the valet D 104
son of the lowly D 104
son by the senior D 104
song in the title D 103
song of the arrow D 102
song in the rhythm D 102
son of the slums D 102
son of an ultra D 102
son of an abbot D 102
son is the basis D 102
sod to the running D 102
son of the novel D 101
son to the theater D 100
son is the fruit D 100
son at my breast D 100
song or the organ D 99
son in the roman D 99
song of the vicar D 98
son to the scene D 98
son of the theater D 98
son in the bloom D 98
son by the waist D 98
sod of the meadow D 98
sob of my blood D 98
song on the canal D 96
song of the pilot D 96
song by the doors D 96
song as it plays D 96
son to the tower D 96
son to the manes D 96
son of the genial D 96
son is so smart D 96
son is in grave D 96
son in the reign D 96
song of the steel D 95
sod in the field D 95
sop to the small D 94
song to the trump D 94
song on the violin D 94
song of the nesting D 94
song as it flies D 94
song as he soars D 94
son to the skies D 94
son of thy bosom D 94
son of the would D 94
sob of the widow D 94
song of the zodiac D 93
son on the horse D 92
son of the jovial D 92
sod of the hills D 92
sod is so tough D 92
sop up the extra D 91
song of the reeds D 90
son in the jungle D 90
sow in the rainy D 89
son of the trade D 89
sop to the women D 88
song of the scalp D 88
song of the genre D 88
song of the camps D 88
song in the strings D 88
song by the title D 88
son of the skies D 88
son in the hotel D 88
sob to my throat D 88
sob in the world D 87
song to the skies D 86
song of it lured D 86
son of the dancing D 86
song as an anthem D 85
son of the savoy D 85
sow of the black D 84
sop up the spill D 84
song of the saint D 84
song in my breast D 84
son to the shore D 84
son to be crazy D 84
son on the chest D 84
son as the basis D 84
sod by the hoofs D 84
song of the rushing D 82
song at the court D 82
son to the saint D 82
son or he would D 82
son of the witty D 82
son in the social D 82
sop to the black D 81
son as he drove D 80
son as an envoy D 80
sol fa by forming D 80
song of the setting D 70
son of my chief D 65
sow or to plant D 59
sow on the field D 58
son to go fishing D 57
sob as he spoke D 52
sod on the grave D 51
sob in the midst D 51
song of the welsh D 50
song in the roman D 50
son of the gypsy D 50
son of the whore D 49
son of the grain D 49
song of the humming D 47
son of the hazel D 47
son of an adoring D 46
sod of the grave D 46
sob on the phone D 46
sow on the first D 44
song of the organ D 44
son of the ultra D 43
son of the serving D 42
