or less than a M 99084
or even for a M 53832
or more than a M 50361
or even with a M 34830
or more for a M 29336
or there was a M 27514
or those with a M 24828
or give him a M 15658
or three and a M 15540
or give them a M 14418
or have had a M 13874
or only for a M 12494
or give you a M 10650
or less for a M 10566
or look for a M 9966
or more and a M 9934
or more with a M 9196
or even that a M 8951
or call for a M 8863
or four and a M 8786
or wait for a M 8598
or even that i M 7720
or else with a M 7476
or three things i M 7377
or less with a M 7240
or work for a M 7185
or living with a M 7160
or work with a M 7019
or dealing with a M 6940
or give her a M 6854
or less and a M 5918
or just for a M 5480
or have not a M 5328
or asking for a M 4910
or giving them a M 4824
or need for a M 4716
or five and a M 4570
or take out a M 4358
or giving him a M 4336
or used for a M 4214
or were they a M 4192
or caring for a M 4166
or else that i M 4146
or only with a M 4130
or think that i M 3996
or work out a M 3900
or play with a M 3816
or more than i M 3765
or loss for a M 3648
or else that a M 3342
or other than a M 3338
or even had a M 3316
or less than i M 3179
or even get a M 3090
or hope for a M 3084
or care for a M 3054
or make him a M 3032
or were not a M 2896
or have you a M 2812
or other for a M 2752
or more had a M 2732
or when using a M 2710
or there are a M 2709
or else for a M 2688
or hour and a M 2676
or rule out a M 2618
or from being a M 2592
or talk with a M 2564
or fill out a M 2562
or taking out a M 2506
or live with a M 2452
or other with a M 2380
or gave him a M 2346
or what can i M 2344
or nothing but a M 2340
or other that i M 2280
or gave them a M 2276
or having had a M 2270
or made with a M 2220
or three for a M 2216
or else pay a M 2170
or plan for a M 2166
or used with a M 2146
or even use a M 2144
or stop for a M 2114
or meet with a M 2088
or acts with a M 2056
or very near a M 2008
or seek out a M 1918
or have they a M 1906
or even than a M 1886
or giving her a M 1864
or send him a M 1798
or along with a M 1780
or help with a M 1762
or speak with a M 1738
or paying for a M 1738
or even read a M 1722
or girl with a M 1717
or cold with a M 1712
or time for a M 1702
or less had a M 1690
or ever was a M 1676
or ends with a M 1670
or else use a M 1670
or other had a M 1654
or send for a M 1638
or went for a M 1628
or town with a M 1598
or more that i M 1576
or even using a M 1570
or make you a M 1542
or make out a M 1540
or other and i M 1526
or make them a M 1522
or send them a M 1518
or asks for a M 1508
or send you a M 1504
or laying out a M 1500
or hoping for a M 1500
or ever had a M 1468
or more was a M 1462
or pull out a M 1460
or feel that i M 1442
or else had a M 1434
or walk with a M 1416
or more and i M 1398
or what can a M 1390
or down with a M 1388
or wood with a M 1378
or were you a M 1362
or fall with a M 1356
or deny that a M 1338
or moving with a M 1334
or call him a M 1324
or even has a M 1308
or what was a M 1300
or areas with a M 1298
or left with a M 1296
or next day i M 1284
or held for a M 1284
or wish for a M 1282
or three that i M 1268
or will not i M 1262
or send out a M 1262
or acting out a M 1254
or even see a M 1250
or nothing for a M 1236
or know that i M 1236
or even being a M 1236
or deals with a M 1236
or reach for a M 1214
or none that i M 1214
or even put a M 1212
or take off a M 1208
or giving you a M 1202
or have not i M 1188
or gave her a M 1178
or even buy a M 1176
or else was a M 1176
or tied with a M 1172
or just being a M 1164
or four for a M 1144
or wrong for a M 1138
or play for a M 1138
or more has a M 1134
or move for a M 1120
or love for a M 1118
or city with a M 1114
or pick out a M 1112
or nine and a M 1088
or else has a M 1080
or less how i M 1066
or else get a M 1064
or made him a M 1046
or down for a M 1044
or land for a M 1041
or done with a M 1036
or just use a M 1034
or sell for a M 1022
or left for a M 1022
or room for a M 1004
or just get a M 1002
or girl has a M 996
or what has a M 990
or break off a M 988
or less was a M 970
or ending with a M 970
or felt that i M 966
or speak for a M 958
or even add a M 958
or taking off a M 950
or stay for a M 932
or beating with a M 924
or longing for a M 922
or three with a M 920
or stay with a M 920
or even how i M 918
or what did i M 916
or rest for a M 914
or loss and a M 886
or even who i M 886
or kept for a M 874
or mile and a M 870
or make her a M 870
or food for a M 856
or just had a M 854
or fish with a M 854
or hope that a M 850
or city has a M 846
or think that a M 844
or just with a M 840
or fall off a M 832
or turn out a M 828
or more ago a M 826
or trying out a M 824
or last for a M 820
or turn off a M 816
or five for a M 814
or even but a M 800
or even run a M 798
or send her a M 792
or jump off a M 792
or paying off a M 780
or nothing that i M 776
or have but a M 766
or other has a M 764
or part with a M 752
or four that i M 746
or fish for a M 746
or even why i M 746
or what does a M 742
or leave out a M 742
or town has a M 740
or ones with a M 736
or city for a M 734
or blue with a M 734
or from using a M 732
or body with a M 732
or over and a M 730
or feel that a M 728
or what was i M 720
or move with a M 718
or will bear a M 706
or making him a M 702
or years for a M 698
or ward off a M 686
or less than t M 681
or care that i M 679
or there for a M 676
or hand him a M 674
or ready for a M 672
or room with a M 662
or react with a M 660
or union with a M 654
or town for a M 640
or made for a M 634
or other that a M 632
or sell you a M 626
or other and a M 624
or wipe with a M 618
or third day i M 618
or more ago i M 614
or held with a M 614
or there being a M 612
or tell you a M 610
or over with a M 610
or gave you a M 610
or seem but a M 608
or know that a M 608
or time and a M 607
or show that a M 602
or land with a M 602
or wipe out a M 600
or mark with a M 600
or hold out a M 600
or more are a M 594
or less has a M 592
or shop for a M 586
or just that i M 582
or gray with a M 582
or meals with a M 578
or drop off a M 578
or find him a M 574
or even say a M 572
or leave for a M 570
or third day a M 568
or pray for a M 566
or think for a M 560
or data for a M 558
or home for a M 552
or four with a M 552
or other was a M 546
or gate with a M 542
or more that a M 538
or tell him a M 536
or even near a M 536
or give off a M 534
or give out a M 532
or those that i M 526
or tell them a M 526
or blow out a M 526
or cloth with a M 522
or band with a M 522
or even hear a M 520
or trial for a M 516
or lend him a M 510
or seek for a M 508
or lost for a M 506
or even how a M 504
or will use a M 502
or save for a M 502
or name for a M 502
or town being a M 500
or even own a M 500
or drag out a M 500
or saving for a M 498
or ideas that i M 497
or says that a M 494
or fifth day a M 494
or view that i M 492
or back with a M 492
or only had a M 488
or call you a M 488
or treat with a M 486
or come with a M 482
or show him a M 480
or fish and a M 480
or less and i M 474
or hunt for a M 472
or tree with a M 471
or pull off a M 470
or find that a M 470
or cold for a M 470
or kill with a M 468
or call out a M 468
or fell off a M 466
or even pay a M 464
or sent him a M 462
or live for a M 460
or give one a M 460
or girl for a M 460
or years with a M 458
or over for a M 458
or make for a M 458
or grey with a M 458
or gone for a M 458
or safe for a M 456
or even doing a M 456
or said that i M 454
or ideas for a M 454
or cuts off a M 454
or knew that i M 452
or fire off a M 450
or clean out a M 450
or born with a M 450
or base for a M 450
or liking for a M 448
or good for a M 446
or pass for a M 444
or laid out a M 442
or show you a M 440
or teach them a M 438
or angry with a M 434
or dealt with a M 430
or show them a M 428
or feel for a M 428
or body for a M 428
or days for a M 426
or come for a M 426
or pity for a M 422
or even ask a M 422
or else buy a M 422
or reading with a M 420
or will get a M 416
or wait out a M 416
or acting for a M 416
or tell him i M 414
or such that a M 414
or once and a M 414
or five with a M 412
or reading for a M 410
or pull with a M 410
or leave him a M 410
or else put a M 410
or less that i M 408
or hand out a M 408
or mark out a M 404
or body and a M 404
or just add a M 402
or making them a M 400
or less than s M 398
or eaten with a M 398
or list for a M 396
or have got a M 396
or four things i M 396
or even saw a M 396
or zero for a M 394
or walk for a M 394
or live near a M 394
or less than d M 392
or show how a M 390
or draw out a M 390
or other things i M 388
or wood for a M 384
or wiping with a M 382
or away for a M 382
or other got a M 380
or felt but a M 380
or bone with a M 380
or heard that a M 378
or three men i M 376
or hope that i M 376
or heading for a M 376
or those using a M 374
or must pay a M 374
or making out a M 372
or even not a M 370
or work near a M 368
or fell with a M 368
or book for a M 368
or even bring a M 366
or over had a M 364
or find you a M 362
or seen for a M 360
or site for a M 358
or sent her a M 358
or have read a M 358
or deny them a M 358
or help for a M 356
or form with a M 356
or body has a M 356
or left out a M 354
or word for a M 352
or when both a M 352
or less that a M 352
or hole with a M 352
or find out a M 352
or else using a M 352
or form for a M 350
or talk for a M 348
or drop him a M 348
or deny that i M 348
or youth with a M 346
or wrong with a M 346
or fall for a M 346
or done for a M 346
or cure for a M 346
or gate and a M 345
or ideas with a M 344
or hide for a M 344
or plead for a M 342
or late for a M 342
or just read a M 342
or even one a M 342
or three had a M 340
or were for a M 338
or show how i M 338
or draw with a M 338
or there with a M 336
or sits for a M 334
or line with a M 334
or lose with a M 332
or push for a M 330
or month and a M 330
or saying that a M 328
or file for a M 328
or will with a M 326
or nothing with a M 324
or mine that i M 324
or find them a M 324
or died was a M 324
or years and a M 322
or must use a M 322
or loss that a M 322
or fact that a M 322
or face with a M 322
or word with a M 320
or wish that i M 320
or felt that a M 320
or what but i M 318
or pose for a M 318
or even lead a M 318
or deed that i M 318
or gate has a M 317
or base with a M 316
or show that i M 314
or nothing and i M 314
or just doing a M 314
or even set a M 314
or even why a M 312
or acting with a M 312
or food with a M 310
or acts for a M 310
or hold for a M 308
or also with a M 308
or home with a M 306
or else not a M 306
or none for a M 304
or want for a M 302
or only has a M 302
or five that i M 302
or care that a M 302
or sixth day a M 300
or leave them a M 300
or worn with a M 298
or saying that i M 298
or more not a M 298
or heard that i M 298
or even try a M 298
or test for a M 296
or knew that a M 296
or girl and a M 296
or tell her a M 294
or life with a M 294
or coat with a M 294
or base and a M 294
or when for a M 290
or town and a M 290
or gift for a M 290
or ever saw a M 290
or those for a M 288
or leave with a M 288
or four and i M 288
or break with a M 288
or join with a M 286
or trying for a M 284
or just buy a M 284
or blow with a M 284
or side with a M 282
or else run a M 282
or back for a M 282
or wood and a M 280
or none but a M 280
or drop them a M 280
or time with a M 278
or other but i M 278
or lend you a M 278
or find that i M 278
or pain with a M 276
or once had a M 276
or came with a M 276
or burn with a M 276
or look out a M 274
or areas for a M 274
or town was a M 272
or sell him a M 272
or make this a M 272
or text for a M 270
or just put a M 270
or felt with a M 270
or tell them i M 268
or leave her a M 268
or know who i M 268
or dream that i M 268
or note for a M 266
or meaning for a M 266
or even had i M 266
or three men a M 265
or single out a M 264
or open with a M 264
or just has a M 264
or have put a M 264
or snow with a M 262
or paying him a M 262
or busy with a M 262
or rule for a M 260
or mixing with a M 260
or love with a M 260
or lake with a M 260
or help out a M 260
or book with a M 260
or been for a M 260
or three and i M 258
or call her a M 256
or when with a M 254
or meet for a M 254
or having but a M 254
or find her a M 254
or clean with a M 254
or pain and a M 252
or brings out a M 252
or will pay a M 250
or safe that a M 250
or more using a M 250
or mark off a M 250
or cell with a M 250
or spring for a M 248
or laying off a M 248
or word that i M 246
or sign for a M 246
or less are a M 246
or unit has a M 244
or said for a M 244
or living for a M 244
or think out a M 242
or land and a M 242
or even cut a M 240
or cloth for a M 240
or take for a M 238
or less using a M 238
or land but a M 238
or acts out a M 238
or west for a M 236
or show her a M 236
or file with a M 236
or stem with a M 234
or loss was a M 234
or fine for a M 234
or door with a M 234
or text with a M 232
or shut off a M 232
or sell them a M 232
or send off a M 230
or free with a M 230
or cost you a M 230
or cost for a M 230
or angry that i M 230
or teach him a M 228
or come near a M 228
or hard for a M 226
or even earn a M 226
or data has a M 226
or city was a M 226
or call them a M 226
or sent for a M 224
or pour out a M 224
or jail for a M 224
or dash off a M 224
or swim with a M 222
or size for a M 222
or sell off a M 222
or linger out a M 222
or just that a M 222
or five and i M 222
or down and a M 222
or wrong was a M 220
or thread with a M 220
or hand with a M 220
or third year a M 218
or less being a M 218
or laid with a M 218
or fifth day i M 218
or test with a M 217
or true for a M 216
or some say a M 216
or name has a M 216
or must bear a M 216
or days with a M 216
or what may i M 214
or living out a M 214
or living near a M 214
or fail for a M 214
or code for a M 214
or blue for a M 214
or wash with a M 212
or tell her i M 212
or made out a M 212
or even win a M 212
or sent out a M 210
or note with a M 210
or held out a M 210
or loss has a M 208
or evil for a M 208
or even than i M 208
or wrong you i M 206
or make one a M 206
or hoping that a M 206
or wrong but i M 204
or steal for a M 204
or means for a M 204
or less put a M 204
or hanging out a M 204
or data with a M 204
or those that a M 202
or stop with a M 202
or slow with a M 202
or seen with a M 202
or pass with a M 202
or part has a M 202
or pain for a M 202
or fill with a M 202
or what death i M 200
or play out a M 200
or make but a M 200
or kill for a M 200
or heard for a M 200
or having read a M 200
or fair for a M 200
or even lay a M 200
or range for a M 198
or post with a M 198
or made them a M 198
or linger for a M 198
or lady with a M 198
or four things a M 198
or bind with a M 198
or wash out a M 196
or think him a M 196
or rise with a M 196
or next day a M 196
or cast with a M 196
or stop being a M 194
or sets off a M 194
or seed with a M 194
or have won a M 194
or goal for a M 194
or case for a M 194
or call with a M 194
or beast with a M 194
or more off a M 192
or month for a M 192
or even got a M 192
or city and a M 192
or went with a M 190
or learn that a M 190
or just using a M 190
or tree for a M 189
or swim for a M 188
or said that a M 188
or page and a M 188
or stop using a M 186
or south for a M 186
or sell with a M 186
or nine and i M 186
or more get a M 186
or mail you a M 186
or left them a M 186
or else are a M 186
or else add a M 186
or dies with a M 186
or cloth and a M 186
or well with a M 184
or sort out a M 184
or show off a M 184
or only that a M 184
or less all i M 184
or hill with a M 184
or giving off a M 184
or give for a M 184
or five men a M 183
or yearn for a M 182
or week and a M 182
or trim with a M 182
or sent with a M 182
or when doing a M 180
or told that i M 180
or rate for a M 180
or page with a M 180
or must get a M 180
or made but a M 180
or leave you a M 180
or know how i M 180
or anger that a M 180
or once was a M 178
or nothing that a M 178
or moving for a M 178
or fire for a M 178
or three things a M 176
or sits with a M 176
or else bring a M 176
or told her a M 174
or paying out a M 174
or paths with a M 174
or part for a M 174
or meant for a M 174
or less why i M 174
or ideas that a M 174
or even eating a M 174
or done him a M 174
or buying him a M 174
or unit with a M 172
or mate with a M 172
or lend them a M 172
or lake for a M 172
or just ask a M 172
or hall with a M 172
or gain for a M 172
or songs with a M 170
or have led a M 170
or type out a M 168
or pain has a M 168
or mating with a M 168
or hand you a M 168
or four men a M 168
or five was a M 168
or even end a M 168
or bird with a M 168
or aiming for a M 168
or wish that a M 166
or wise for a M 166
or will buy a M 166
or when did i M 166
or week for a M 166
or there but i M 166
or sign with a M 166
or other put a M 166
or more but i M 166
or more but a M 166
or less got a M 166
or fears that a M 166
or fail with a M 166
or deny him a M 166
or hell for a M 164
or fact that i M 164
or debt with a M 164
or word has a M 162
or puts out a M 162
or loss with a M 162
or life for a M 162
or food and a M 162
or fast for a M 162
or eager for a M 162
or coming off a M 162
or chop off a M 162
or book that i M 162
or ones that i M 161
or work that i M 160
or word that a M 160
or unit and a M 160
or threat with a M 160
or snow for a M 160
or mine for a M 160
or making for a M 160
or heard was a M 160
or hard with a M 160
or felt for a M 160
or three are a M 159
or over has a M 158
or make that a M 158
or live out a M 158
or keep for a M 158
or hand her a M 158
or form that i M 158
or cease being a M 158
or cage with a M 158
or spring with a M 156
or pity that i M 156
or just off a M 156
or hold that a M 156
or high for a M 156
or girl was a M 156
or even was a M 156
or eaten for a M 156
or anger for a M 156
or eyes with a M 155
or when was i M 154
or unit for a M 154
or shop with a M 154
or next year i M 154
or made her a M 154
or lost and a M 154
or link with a M 154
or left her a M 154
or game for a M 154
or dark with a M 154
or city had a M 154
or anger that i M 154
or what for a M 152
or take with a M 152
or sick for a M 152
or runs for a M 152
or peace with a M 152
or nine with a M 152
or done that i M 152
or deny you a M 152
or youth was a M 150
or were but a M 150
or singling out a M 150
or sign that i M 150
or poems with a M 150
or making her a M 150
or lost with a M 150
or like being a M 150
or left him a M 150
or idle with a M 150
or giving out a M 150
or faith and a M 150
or even off a M 150
or date for a M 150
or chop with a M 150
or will not a M 148
or were using a M 148
or paying them a M 148
or keep him a M 148
or just not a M 148
or girl had a M 148
or four men i M 148
or fire was a M 148
or ever use a M 148
or drop her a M 148
or cease for a M 148
or care who i M 148
or brings you a M 148
or will for a M 146
or said with a M 146
or rule that a M 146
or line has a M 146
or less how a M 146
or form was a M 146
or bark for a M 146
or years that a M 144
or form that a M 144
or cast out a M 144
or cast off a M 144
or best for a M 144
or been with a M 144
or their being a M 142
or seeing that a M 142
or road was a M 142
or idle for a M 142
or hide with a M 142
or hate for a M 141
or shed with a M 140
or pray with a M 140
or open for a M 140
or hint that i M 140
or heard with a M 140
or hand them a M 140
or flying with a M 140
or ever see a M 140
or else being a M 140
or dogs with a M 140
or clear out a M 140
or teach you a M 138
or risk for a M 138
or only that i M 138
or lose you a M 138
or feet with a M 138
or even let a M 138
or down using a M 138
or type for a M 136
or reach out a M 136
or pass out a M 136
or lift with a M 136
or else but a M 136
or burn off a M 136
or wrong and i M 134
or wrap with a M 134
or will say a M 134
or taking for a M 134
or other get a M 134
or item for a M 134
or from doing a M 134
or beating out a M 134
or warm with a M 132
or uses for a M 132
or sent you a M 132
or mind for a M 132
or list with a M 132
or hire for a M 132
or from eating a M 132
or feed with a M 132
or evil that i M 132
or buying out a M 132
or town had a M 130
or tell you i M 130
or risk being a M 130
or none that a M 130
or nine for a M 130
or less but a M 130
or just how i M 130
or hell was a M 130
or exit with a M 130
or data that a M 130
or crying for a M 130
or what being a M 128
or tree has a M 128
or term for a M 128
or sick with a M 128
or said was a M 128
or risk that a M 128
or range with a M 128
or mind has a M 128
or ideas and a M 128
or have for a M 128
or goal and a M 128
or ever for a M 128
or anger with a M 128
or also for a M 128
or theory but a M 126
or root with a M 126
or post for a M 126
or moon but a M 126
or bank for a M 126
or anger and a M 126
or wrong but a M 124
or work that a M 124
or wiping out a M 124
or what had i M 124
or theory that a M 124
or sign has a M 124
or shut with a M 124
or pick off a M 124
or nothing but i M 124
or nine that i M 124
or jump out a M 124
or hearing that a M 124
or give but a M 124
or feet for a M 124
or ever read a M 124
or break for a M 124
or will see a M 122
or toys with a M 122
or there and a M 122
or other than i M 122
or nine men a M 122
or making this a M 122
or left and a M 122
or item with a M 122
or feed for a M 122
or book has a M 122
or base has a M 122
or asking him a M 122
or work and a M 120
or peace for a M 120
or open out a M 120
or note has a M 120
or knew who i M 120
or game with a M 120
or game and a M 120
or form has a M 120
or else die a M 120
or drop you a M 120
or back and a M 120
or some one i M 118
or must not i M 118
or love that i M 118
or line and a M 118
or fair that i M 118
or cuts with a M 118
or break out a M 118
or thread and a M 116
or test out a M 116
or teach for a M 116
or some with a M 116
or sixth day i M 116
or pain that i M 116
or odds that a M 116
or note that a M 116
or moon with a M 116
or lend her a M 116
or know for a M 116
or jump with a M 116
or have run a M 116
or duty for a M 116
or debt for a M 116
or bank with a M 116
or user with a M 114
or turn with a M 114
or told you a M 114
or ties with a M 114
or sent them a M 114
or self with a M 114
or noting that a M 114
or norm for a M 114
or name and a M 114
or make with a M 114
or hall for a M 114
or good that i M 114
or exit for a M 114
or even going a M 114
or else lead a M 114
or else ask a M 114
or cold and a M 114
or case with a M 114
or asks you a M 114
or young man i M 112
or wrong and a M 112
or when near a M 112
or when does a M 112
or three but a M 112
or term has a M 112
or take him a M 112
or swear out a M 112
or nothing and a M 112
or kind for a M 112
or keep them a M 112
or hair with a M 112
or eyes for a M 112
or else bear a M 112
or body was a M 112
or blue and a M 112
or been near a M 112
or wrong that i M 110
or what had a M 110
or ward with a M 110
or toys for a M 110
or third year i M 110
or tell how a M 110
or some day i M 110
or runs with a M 110
or other are a M 110
or opts for a M 110
or mind that i M 110
or meaning that a M 110
or made you a M 110
or kick off a M 110
or just say a M 110
or hunt with a M 110
or here was a M 110
or heart for a M 110
or gain him a M 110
or four had a M 110
or feed him a M 110
or days that a M 110
or coming for a M 110
or more men a M 109
or wood was a M 108
or when but i M 108
or view with a M 108
or size and a M 108
or rule has a M 108
or more being a M 108
or making you a M 108
or hand for a M 108
or evil that a M 108
or data and a M 108
or beast that i M 108
or video with a M 106
or time that a M 106
or theory has a M 106
or less then a M 106
or have set a M 106
or give each a M 106
or cuts out a M 106
or came for a M 106
or will win a M 104
or time has a M 104
or size with a M 104
or ship with a M 104
or said had a M 104
or over was a M 104
or less get a M 104
or keep out a M 104
or just how a M 104
or hearing for a M 104
or goal with a M 104
or food that i M 104
or even men a M 104
or even fix a M 104
or coat and a M 104
or buying them a M 104
or angle for a M 104
or what and i M 102
or type with a M 102
or root for a M 102
or peace was a M 102
or kick with a M 102
or kept with a M 102
or high with a M 102
or heard has a M 102
or good with a M 102
or free for a M 102
or four was a M 102
or evil than a M 102
or even two a M 102
or burn out a M 102
or arms with a M 102
or wealth for a M 100
or ways that a M 100
or user has a M 100
or theory with a M 100
or note that i M 100
or more then a M 100
or mine with a M 100
or look with a M 100
or lets out a M 100
or less set a M 100
or giving one a M 100
or girl than a M 100
or even bear a M 100
or cake and a M 100
or alias for a M 100
or aged for a M 100
or when but a M 98
or video for a M 98
or tree was a M 98
or role that a M 98
or paying her a M 98
or mind and a M 98
or lust for a M 98
or know why i M 98
or just got a M 98
or gave out a M 98
or else let a M 98
or dies for a M 98
or boring with a M 98
or bark with a M 98
or band has a M 98
or zero and a M 96
or will that a M 96
or when can i M 96
or told him i M 96
or take but a M 96
or such that i M 96
or rule that i M 96
or rich for a M 96
or rest with a M 96
or play has a M 96
or page for a M 96
or ninth day a M 96
or mind with a M 96
or meaning that i M 96
or late with a M 96
or else see a M 96
or early for a M 96
or core and a M 96
or cell has a M 96
or bone and a M 96
or bathe with a M 96
or youth has a M 94
or will add a M 94
or what end i M 94
or week that a M 94
or walk off a M 94
or shed for a M 94
or reading them a M 94
or monk was a M 94
or mark for a M 94
or loop with a M 94
or ideal for a M 94
or hold with a M 94
or glad that i M 94
or fair was a M 94
or face and a M 94
or cool with a M 94
or cast for a M 94
or caring that i M 94
or bold and a M 94
or jobs with a M 93
or beings with a M 93
or will bring a M 92
or once with a M 92
or noun with a M 92
or line for a M 92
or leave off a M 92
or learn how a M 92
or home and a M 92
or help run a M 92
or halt for a M 92
or form and a M 92
or five things i M 92
or five had a M 92
or dream for a M 92
or care how i M 92
or buying off a M 92
or blow off a M 92
or bearing for a M 92
or asking that a M 92
or only one a M 91
or wrong than a M 90
or will put a M 90
or what not a M 90
or view has a M 90
or told him a M 90
or these with a M 90
or there and i M 90
or text and a M 90
or sent off a M 90
or seen that i M 90
or rain for a M 90
or plan with a M 90
or meaning with a M 90
or mail them a M 90
or live but a M 90
or hurt that i M 90
or hour for a M 90
or hole for a M 90
or here are a M 90
or help that i M 90
or died for a M 90
or clear with a M 90
or angry for a M 90
or work off a M 88
or were doing a M 88
or tour with a M 88
or time that i M 88
or sign that a M 88
or peace and a M 88
or pair with a M 88
or other things a M 88
or other bring a M 88
or means that a M 88
or heart with a M 88
or hears that a M 88
or health for a M 88
or fell for a M 88
or feet and a M 88
or door for a M 88
or cake with a M 88
or what use i M 86
or what job i M 86
or what but a M 86
or talk and i M 86
or swim and i M 86
or road with a M 86
or other not a M 86
or name with a M 86
or mice with a M 86
or lose for a M 86
or lake has a M 86
or hold off a M 86
or gray and a M 86
or girl that i M 86
or file off a M 86
or even singing a M 86
or years had a M 84
or union has a M 84
or spring and a M 84
or sets out a M 84
or root and a M 84
or rating for a M 84
or pain that a M 84
or need and a M 84
or mass with a M 84
or lost was a M 84
or lose all i M 84
or ideas but a M 84
or hell and i M 84
or heard but a M 84
or hair and a M 84
or from both a M 84
or fire with a M 84
or evil was a M 84
or edge with a M 84
or drop with a M 84
or dread that i M 84
or died with a M 84
or crib with a M 84
or ceasing for a M 84
or buying for a M 84
or body that i M 84
or user for a M 82
or torn with a M 82
or think you i M 82
or rule and a M 82
or push out a M 82
or owes you a M 82
or love than i M 82
or left but a M 82
or left and i M 82
or just run a M 82
or file has a M 82
or fears that i M 82
or asking them a M 82
or life was a M 81
or wish them a M 80
or some way i M 80
or role for a M 80
or other saw a M 80
or mind was a M 80
or held that a M 80
or flaw and i M 80
or fade was a M 80
or eyes and a M 80
or three year s M 57
or more than s M 50
or sold for a D 4036
or vote for a D 1916
or lease for a D 1780
or cope with a D 1722
or coping with a D 1460
or oval with a D 1396
or inch and a D 1096
or voting for a D 1086
or chat with a D 986
or paid for a D 858
or loan for a D 824
or mash with a D 814
or throw out a D 778
or bowl with a D 762
or hast thou a D 742
or opting for a D 660
or foot and a D 656
or wool for a D 636
or tube with a D 620
or shot with a D 602
or rice and a D 594
or jeans and a D 572
or leaving out a D 568
or dish with a D 560
or ruling out a D 544
or rent for a D 534
or pipe with a D 518
or iron with a D 508
or milk with a D 500
or wire with a D 488
or wife has a D 488
or eked out a D 482
or milk and a D 476
or pink with a D 472
or cream with a D 460
or paid with a D 456
or stir with a D 454
or soil with a D 436
or ride with a D 436
or wife was a D 432
or film with a D 430
or wife for a D 418
or pays for a D 418
or suit for a D 412
or flat with a D 404
or sand with a D 402
or wall with a D 396
or firm has a D 392
or clay with a D 392
or riding with a D 390
or wife with a D 370
or silk with a D 370
or leaving for a D 368
or tray with a D 366
or boat with a D 366
or dust with a D 364
or wife and a D 356
or card with a D 354
or fees for a D 350
or tinged with a D 348
or oxen with a D 346
or theme for a D 340
or cream and a D 340
or steam for a D 334
or rock with a D 332
or sold with a D 330
or stab with a D 324
or desk with a D 324
or sale for a D 318
or firm with a D 318
or cone with a D 316
or soup and a D 310
or drum with a D 308
or bringing out a D 306
or toying with a D 300
or wife had a D 298
or rice with a D 296
or pole with a D 290
or lays out a D 290
or bread and a D 290
or tearing off a D 288
or skin with a D 288
or shoes with a D 288
or club with a D 288
or bolt with a D 288
or race has a D 286
or bond for a D 284
or milk for a D 280
or bond with a D 280
or beer with a D 280
or tank with a D 276
or rent you a D 274
or gold with a D 274
or even wear a D 274
or posing for a D 272
or took out a D 270
or rope with a D 270
or cord with a D 270
or dining with a D 268
or wine and a D 260
or legs with a D 260
or foot with a D 260
or neck with a D 258
or foot for a D 258
or wire for a D 256
or gold for a D 254
or jury that a D 248
or wine with a D 244
or vase with a D 242
or sand and a D 240
or corn with a D 240
or tape with a D 236
or hiring for a D 236
or firm for a D 236
or string with a D 232
or roll with a D 228
or rice for a D 228
or tape and a D 226
or cook for a D 224
or cash for a D 224
or flat for a D 220
or task for a D 218
or patio with a D 218
or throw off a D 216
or wool with a D 214
or bite off a D 214
or filing for a D 212
or dine with a D 210
or radio with a D 208
or spear with a D 206
or bread with a D 206
or sink with a D 204
or salt for a D 204
or nose with a D 200
or mouth with a D 200
or cream for a D 200
or rods with a D 198
or tool with a D 194
or beer and a D 194
or toss off a D 192
or pond with a D 192
or fuel for a D 192
or rose with a D 190
or task with a D 188
or shot off a D 188
or blot out a D 188
or jeans and t D 186
or disk with a D 186
or pots with a D 184
or sofa with a D 182
or iron and a D 182
or even hit a D 182
or camp for a D 180
or sand for a D 176
or lime and a D 176
or roll out a D 174
or rent out a D 174
or fend off a D 174
or bars with a D 174
or soda and a D 172
or soul was a D 170
or leaving off a D 170
or dirt with a D 170
or berth with a D 170
or tubing with a D 168
or tool for a D 168
or shot for a D 168
or bush with a D 168
or sown with a D 166
or clan was a D 166
or wheat for a D 164
or teeth with a D 162
or beans with a D 162
or sale with a D 160
or park with a D 160
or farm for a D 160
or disc with a D 160
or took off a D 158
or bread for a D 158
or wheat with a D 156
or oven for a D 156
or film and a D 156
or soup with a D 154
or slab with a D 154
or pool with a D 154
or beef with a D 152
or string and a D 150
or cook with a D 150
or coal with a D 150
or broth and a D 150
or sink for a D 148
or navy for a D 148
or lease with a D 148
or clan had a D 148
or bill for a D 148
or throw him a D 146
or jars with a D 146
or beans and a D 146
or whip out a D 144
or tape for a D 144
or roof with a D 144
or pail with a D 144
or jeans with a D 144
or gown with a D 144
or tile with a D 142
or pony for a D 142
or even dig a D 142
or duct with a D 142
or barn with a D 142
or three yen a D 140
or sewing with a D 140
or radio for a D 140
or joke with a D 140
or cups with a D 140
or corn for a D 138
or yard with a D 136
or soul and a D 136
or fuse with a D 136
or diet for a D 136
or zinc with a D 134
or wine for a D 134
or race was a D 134
or race for a D 134
or beer for a D 134
or sale was a D 132
or pork with a D 132
or piping with a D 132
or goat for a D 132
or plot for a D 130
or mule with a D 130
or sold and a D 128
or mood for a D 128
or levy but a D 128
or have met a D 128
or riding for a D 126
or loft with a D 126
or hawk for a D 126
or film for a D 126
or desk and a D 126
or clay and a D 126
or blot with a D 126
or soil for a D 124
or race with a D 124
or oils with a D 124
or biting off a D 124
or belt with a D 124
or wall and a D 122
or sale and a D 122
or coal for a D 122
or tent with a D 120
or suit with a D 120
or spin off a D 120
or silk and a D 120
or pays off a D 120
or camp with a D 120
or buff with a D 120
or boot with a D 120
or barn for a D 120
or threw out a D 118
or spit out a D 118
or pipe and a D 118
or paid him a D 118
or else wear a D 118
or dyed with a D 118
or diving off a D 118
or club for a D 118
or anus with a D 118
or singly with a D 116
or pine for a D 116
or nail with a D 116
or make thee a D 116
or glow with a D 116
or cars with a D 116
or ride out a D 114
or lens with a D 114
or dish and a D 114
or angling for a D 114
or pans with a D 112
or paid them a D 112
or lent him a D 112
or leaving with a D 112
or horn with a D 112
or pint and a D 110
or hiking with a D 110
or club and a D 110
or clad with a D 110
or chip with a D 110
or cash and a D 110
or rats with a D 108
or limb for a D 108
or legs for a D 108
or goat and a D 108
or gaming with a D 108
or firing off a D 108
or cane with a D 108
or bowl and a D 108
or bathing with a D 108
or airy for a D 108
or yarn with a D 106
or task that a D 106
or shot out a D 106
or send thee a D 106
or park for a D 106
or eggs for a D 106
or beans for a D 106
or beams with a D 106
or siding with a D 104
or rock for a D 104
or racing with a D 104
or pink for a D 104
or patio and a D 104
or oxen and a D 104
or lent for a D 104
or cows with a D 104
or clan has a D 104
or cape with a D 104
or atom with a D 104
or will wear a D 102
or throw them a D 102
or tearing out a D 102
or tank for a D 102
or snip off a D 102
or rode with a D 102
or joking with a D 102
or hook with a D 102
or deck with a D 102
or string for a D 100
or rising with a D 100
or riding out a D 100
or pawn for a D 100
or paid off a D 100
or lamp with a D 100
or foil with a D 100
or cyst with a D 100
or cats with a D 100
or yarn and a D 98
or wire and a D 98
or star with a D 98
or shoes for a D 98
or pork for a D 98
or mule and a D 98
or ball with a D 98
or sued for a D 96
or soul has a D 96
or nave and a D 96
or laws and a D 96
or finger with a D 96
or boat for a D 96
or wool and a D 94
or spear and a D 94
or salt and a D 94
or roll off a D 94
or logo for a D 94
or jury had a D 94
or give thee a D 94
or even met a D 94
or even hum a D 94
or clay for a D 94
or cart with a D 94
or wringing out a D 92
or task and a D 92
or sulk for a D 92
or steak and a D 92
or posing with a D 92
or pipe using a D 92
or neck and a D 92
or heating for a D 92
or dust for a D 92
or diving for a D 92
or coke with a D 92
or wall for a D 90
or tiara with a D 90
or theme with a D 90
or ride for a D 90
or pleas for a D 90
or goat with a D 90
or eggs with a D 90
or corn and a D 90
or beef and a D 90
or swinging with a D 88
or skin and a D 88
or shoes and a D 88
or salt with a D 88
or rose for a D 88
or poke with a D 88
or lace for a D 88
or farm with a D 88
or chat for a D 88
or canoe with a D 88
or bulb with a D 88
or bringing her a D 88
or steak with a D 86
or soil and a D 86
or soda with a D 86
or mood with a D 86
or fork with a D 86
or chip off a D 86
or cars for a D 86
or cafe for a D 86
or silk for a D 84
or sewn with a D 84
or rent them a D 84
or pale with a D 84
or gold and a D 84
or dive for a D 84
or desk for a D 84
or canoe for a D 84
or slip him a D 82
or nuts for a D 82
or news that a D 82
or mouth has a D 82
or leasing for a D 82
or just sip a D 82
or jury with a D 82
or heating with a D 82
or diary for a D 82
or cans with a D 82
or bill with a D 82
or beef for a D 82
or tube and a D 80
or tore off a D 80
or soul with a D 80
or slot with a D 80
or paid her a D 80
or lime with a D 80
or drum and a D 80
or bringing him a D 80
