try his luck . M 11340
try too hard . M 8662
try his hand . M 5372
try new ideas . M 4162
try any more . M 4152
try our luck . M 3268
try and fail . M 3008
try our best . M 2574
try and help . M 2437
try this case . M 2112
try his best . M 1974
try her luck . M 1500
try for more . M 1478
try one more . M 1454
try his case . M 1234
try this test . M 1163
try and think . M 1159
try real hard . M 1106
try new ones . M 1052
try new ways . M 1000
try our faith . M 900
try out ideas . M 836
try and rest . M 801
try his plan . M 714
try this plan . M 704
try her best . M 670
try this time . M 653
try her hand . M 616
try our best ! M 590
try both ways . M 578
try and come . M 570
try his edge . M 508
try and learn . M 505
try its hand . M 496
try this game . M 484
try too much . M 440
try for peace . M 406
try its luck . M 396
try that hard . M 386
try his fate . M 372
try and talk . M 360
try and hide . M 358
try his faith . M 356
try and fail ? M 354
try all three . M 324
try this case ? M 318
try any other . M 318
try him there . M 300
try this book . M 286
try for goal . M 286
try our ways . M 278
try our hand . M 274
try that next . M 268
try them soon . M 264
try that game . M 262
try each other . M 256
try that case . M 254
try that here . M 252
try this time ? M 236
try too hard ? M 220
try and walk . M 220
try and speak . M 218
try but fail . M 216
try and save . M 215
try and stop . M 210
try for game . M 208
try for three . M 203
try too hard ! M 202
try this site . M 202
try and leave . M 202
try new ideas ? M 200
try and work . M 200
try and find . M 198
try and stay . M 196
try all means . M 196
try for home . M 195
try this week . M 191
try and move . M 190
try our luck ? M 186
try that plan . M 182
try his luck ? M 180
try may find . M 178
try and live . M 178
try new paths . M 176
try and test ! M 174
try for once . M 164
try was made . M 162
try her plan . M 162
try any more ? M 162
try and sell . M 158
try for more ? M 155
try any case . M 154
try and land . M 148
try its fate . M 144
try his cell . M 138
try our plan . M 136
try them there . M 134
try that door . M 134
try them here . M 130
try for work . M 126
try his home . M 122
try for free . M 121
try one more ? M 120
try for three ? M 118
try and hope . M 118
try and help ? M 116
try this week ? M 115
try his hand ? M 112
try for third . M 112
try and reach . M 112
try this once . M 111
try that line . M 110
try him here . M 108
try our luck ! M 104
try her faith . M 104
try her case . M 104
try them once . M 102
try new ones ? M 100
try for years . M 100
try you once . M 98
try this plan ? M 98
try this move . M 98
try them over . M 98
try her there . M 98
try and rise . M 98
try and meet . M 98
try for size . M 96
try that also . M 95
try and swim . M 93
try and keep . M 93
try his ways . M 92
try all five . M 92
try him hard . M 90
try her cell . M 90
try for fish . M 90
try each case . M 90
try and call . M 89
try this case ! M 88
try and fail ! M 88
try and fill . M 86
try his ideas . M 82
try and pray . M 81
try them also . M 80
try that once . M 43
try this road . M 41
try for four . M 41
