try to help . M 23595
try the case . M 20036
try my best . M 9700
try to talk . M 9350
try to think . M 8585
try to hide . M 8138
try my luck . M 6510
try to rest . M 6340
try to show . M 6190
try to speak . M 6129
try to learn . M 5716
try to move . M 5686
try so hard . M 5236
try to leave . M 4484
try to live . M 4184
try it once . M 4180
try to walk . M 4142
try the other . M 3704
try the door . M 3476
try to stop . M 3258
try the same . M 2986
try to come . M 2938
try to work . M 2463
try to make . M 2460
try to teach . M 2331
try my hand . M 2170
try to reach . M 2139
try to sell . M 2052
try to flee . M 2038
try to help ? M 2026
try to meet . M 2012
try to pray . M 1978
try at home . M 1887
try to save . M 1868
try to land . M 1827
try to find . M 1574
try to know . M 1572
try it here . M 1526
try to pass . M 1488
try to play . M 1377
try to rise . M 1300
try to quit . M 1236
try no more . M 1236
try to tell . M 1217
try to swim . M 1208
try to fill . M 1168
try as well . M 1098
try to copy . M 1048
try the last . M 1034
try in vain . M 1020
try to take . M 1012
try to give . M 952
try the next . M 950
try to cheat . M 929
try so hard ? M 862
try to call . M 832
try the plan . M 824
try to grow . M 821
try to draw . M 810
try the truth . M 794
try to steal . M 792
try to deny . M 775
try to keep . M 760
try to kill . M 753
try it there . M 740
try to cure . M 737
try it over . M 708
try to break . M 673
try to obey . M 662
try to stay . M 654
try to love . M 620
try to look . M 598
try the case ? M 578
try to pull . M 544
try the food . M 542
try as hard . M 538
try the game . M 536
try to hide ? M 516
try the fact . M 515
try to leave ? M 504
try to jump . M 492
try to think ! M 488
try to wait . M 482
try to open . M 472
try my plan . M 472
try to hold . M 462
try to join . M 456
try to mend . M 452
try to talk ! M 440
try it soon . M 422
try to make ? M 418
try the door ? M 412
try my luck ? M 406
try to save ? M 390
try so hard ! M 384
try the keys . M 382
try it also . M 370
try to have . M 364
try the rest . M 356
try to stop ? M 352
try to learn ? M 352
try to help ! M 348
try the door ! M 348
try to turn . M 336
try the back . M 332
try to reach ? M 330
try at goal . M 325
try to rest ? M 322
try the lock . M 316
try it once ! M 316
try to talk ? M 312
try to live ! M 310
try to find ? M 308
try to live ? M 306
try to walk ? M 298
try my faith . M 290
try at once . M 288
try the test . M 280
try it here ? M 278
try to plan . M 254
try to teach ? M 246
try we must . M 242
try to rush . M 240
try to undo . M 238
try to feel . M 238
try my case . M 238
try my best ! M 230
try to rule . M 228
try the third . M 224
try it once ? M 222
try to lose . M 220
try to gain . M 218
try to call ? M 214
try the range . M 214
try to push . M 212
try the road . M 210
try to meet ? M 209
try to lift . M 206
try to move ! M 204
try to show ? M 202
try to come ? M 202
try the gate . M 198
try it next . M 198
try to kick . M 196
try to feed . M 196
try to nothing . M 195
try to speak ? M 190
try us once ! M 186
try to swim ? M 184
try to flee ? M 172
try to fish . M 172
try to name . M 170
try to hide ! M 170
try to hunt . M 166
try the work . M 166
try to cheat ? M 165
try the best . M 164
try to sell ? M 162
try to hope . M 160
try to quit ? M 158
try the cure . M 158
try to pray ? M 154
try to think ? M 150
try to mate . M 150
try to work ? M 148
try to treat . M 146
try at life . M 145
try to know ? M 140
try to form . M 140
try to leave ! M 138
try the pass . M 138
try my fate . M 138
try to kill ? M 136
try to speak ! M 134
try to shun . M 134
try the same ? M 132
try my luck ! M 130
try to test . M 128
try the fish . M 128
try to land ? M 126
try to hurt . M 126
try the beach . M 126
try to bend . M 124
try the sixth . M 124
try the army . M 124
try the other ? M 122
try my hand ? M 122
try to play ? M 120
try to take ? M 118
try to dream . M 118
try to care . M 118
try the left . M 118
try my best ? M 118
try to seem . M 116
try to steal ? M 115
try to send . M 114
try to grow ? M 114
try the jump . M 114
try the fire . M 114
try the bank . M 114
try in here . M 111
try us most . M 110
try the bank ? M 110
try or test . M 110
try the eyes . M 108
try the depth . M 108
try to exit . M 106
try up there . M 105
try the heart . M 104
try to stay ? M 100
try to like . M 98
try to grab . M 98
try the city . M 98
try the truth ? M 96
try to move ? M 94
try to fail . M 93
try to type . M 92
try to react . M 92
try the dogs . M 92
try is made . M 92
try to stop ! M 90
try the lake . M 90
try to skip . M 88
try of mine ? M 88
try to fool . M 84
try to face . M 84
try the south . M 84
try the book . M 84
try to void . M 82
try to give ? M 82
try the role . M 82
try to date . M 40
