try to maintain a M 37755
try to identify a M 8945
try to describe a M 6558
try to discover a M 6246
try to convince a M 5898
try to persuade a M 5447
try to remember a M 5120
try to generate a M 3375
try to conceive a M 2358
try to schedule a M 2276
try to assemble a M 1826
try to complete a M 1822
try to purchase a M 1556
try to organise a M 1424
try to retrieve a M 1315
try to exercise a M 1294
try to estimate a M 1137
try to overcome a M 1042
try to suppress a M 1016
try to evaluate a M 944
try to approach a M 904
try to interest a M 902
try to conclude a M 766
try to separate a M 702
try to remember i M 584
try to decipher a M 530
try to dominate a M 528
try to associate a M 522
try to extinguish a M 500
try to consider a M 440
try to disguise a M 410
try to transfer a M 404
try to dissolve a M 382
try to practice a M 380
try to download a M 380
try to allocate a M 356
try to restrain a M 346
try to continue a M 346
try to compress a M 320
try to simplify a M 300
try to motivate a M 264
try to navigate a M 260
try to frighten a M 238
try to activate a M 220
try to practise a M 204
try to strengthen a M 202
try to abstract a M 194
try to perceive a M 192
try to validate a M 182
try to disprove a M 178
try to restrict a M 174
try to surprise a M 164
try to forecast a M 160
try to outsmart a M 156
try to distract a M 156
try to conserve a M 126
try to manifest a M 122
try to instruct a M 122
try to quantify a M 118
try to challenge a M 112
try to contract a M 108
try to subtract a M 104
try to confront a M 102
try to document a M 96
try to outguess a M 88
try to surround a M 83
try to advocate a M 80
try at developing a M 43
try to negotiate a D 15526
try to organize a D 6028
try to preserve a D 3263
try to memorize a D 1252
try to indicate a D 937
try to simulate a D 774
try to pinpoint a D 468
try to envisage a D 456
try to dissuade a D 452
try to classify a D 348
try to transmit a D 341
try to sabotage a D 329
try to minimize a D 328
try to register a D 314
try to optimize a D 304
try to maximize a D 302
try to overthrow a D 270
try to delineate a D 236
try to dislodge a D 226
try to maneuver a D 212
try to alleviate a D 204
try to contrive a D 202
try to overturn a D 194
try to mobilize a D 194
try to regulate a D 186
try to construe a D 172
try to postpone a D 162
try to pressure a D 158
try to overtake a D 142
try to condense a D 132
try to override a D 124
try to humiliate a D 124
try to rekindle a D 120
try to reinvent a D 120
try to redefine a D 112
try to nominate a D 106
try to redirect a D 98
try to relocate a D 88
try to propound a D 86
try to obstruct a D 86
try to traverse a D 84
try to scribble a D 80
