tried a few more M 3768
trust i may have M 2280
trust a man like M 1973
tried a long time M 1806
tried a few years M 1606
trace a path from M 1511
truly i say unto M 1375
train a few days M 1332
trees i had seen M 1288
tried a few other M 1196
tried a new plan M 960
trees i had ever M 890
tried a new line M 818
trees a few feet M 770
trips a day from M 740
trips i had made M 716
tried a few days M 710
train a new army M 694
trust i may live M 652
treating a man like M 566
train a new type M 559
trees i had been M 490
trust i may find M 485
trunk a few feet M 482
trail a few feet M 446
truths a man ever M 414
train a day from M 414
trail a few days M 409
tried a new kind M 406
trees a few years M 388
train i had been M 381
train i had ever M 378
trips a day were M 368
truly i had been M 361
trail a long time M 359
tries a man like M 348
trace a path back M 337
train a new kind M 333
track a few feet M 333
trace a long line M 330
truths i had been M 322
truly i see none M 318
tried a new form M 314
truly a man only M 304
trick a man into M 299
trace a path along M 298
trees a long time M 294
tried a new angle M 292
train a few years M 284
trips a year from M 278
truly i did tell M 276
trials a day were M 274
trail i had been M 259
trust i may pity M 256
train a long time M 252
trips a day over M 248
trees i saw were M 244
trust i may call M 229
trust a man whom M 226
trust a few years M 226
trend a few years M 225
trick i had ever M 224
trace a path down M 223
trust a man when M 218
truly a man among M 216
track i had been M 215
trust i may rely M 206
trail a few years M 205
trace a new line M 204
trust a god like M 200
tried a new type M 200
trust i can rely M 194
trips a year were M 194
track a long time M 194
trees a few days M 192
track i had made M 191
track a man down M 191
truly a new birth M 190
train i was coming M 189
trail i had just M 186
tries a few more M 185
trust i may soon M 182
trick i had seen M 181
trees i had nothing M 172
trace i can find M 172
trick i can think M 169
track a few days M 165
trials i had been M 162
train a few more M 158
trust i may take M 150
truly i may well M 150
train i had seen M 150
train i had just M 149
truly i can find M 148
trips i was able M 148
treating a dead body M 148
trust a web site M 146
trick a long time M 146
trust a few days M 143
trust i had been M 142
tried a new mode M 142
trail i had made M 142
trips i had been M 140
truly a man must M 136
train i had left M 136
truly i was nothing M 134
train a dog like M 134
tried a bit more M 133
track a few years M 133
trips a day during M 132
trick i use when M 132
trace a few more M 132
truly i was very M 130
truly a new kind M 128
train a new girl M 128
train a new hire M 127
truly i was glad M 126
trick i had been M 126
trust a man from M 124
trips a day down M 124
tried a new food M 124
trips a few days M 122
trick i had used M 122
truths i had only M 120
tried a few jobs M 120
tried a new move M 118
trust i may learn M 116
trust i may meet M 114
trust i was able M 111
truths i had heard M 110
truly a man when M 110
trips a year into M 110
trials i had ever M 110
trick a few years M 109
trail i had left M 108
tried a new life M 107
tried a long pass M 106
trials a few years M 104
train a few young M 104
truly a man ahead M 102
trips i had ever M 102
trail i had come M 102
track a long weary M 102
trust i may also M 100
train i got into M 100
trace a path over M 100
truce a few days M 98
treats a man like M 98
track i had seen M 98
trust i may some M 97
trunk i had when M 96
tried a new game M 96
truly a new form M 94
truly a man cease M 94
trials i had made M 92
truly a law unto M 91
trust i may hope M 90
trust i may ever M 90
trunk i had left M 88
trips i had seen M 88
train i had come M 88
train a long list M 88
trips a day into M 86
tries a new plan M 86
trees a man cuts M 86
treating a being made M 84
trust i may speak M 83
trials i was able M 82
trees i saw during M 82
trees a year from M 82
truly i was like M 80
truly a long time M 80
tried a new coat M 80
train i ran into M 80
train a day over M 80
train i was taking M 72
trust a bit more M 54
trace a few years M 52
tried a lot more M 51
trust a long time M 46
truly i was much M 42
train i was reading M 42
train i may have M 41
trail i had ever M 41
track i had ever M 41
tried a new tack D 5318
tracing a path from D 1194
trade a few years D 856
tried a long shot D 725
treading a thin line D 624
trout i had ever D 561
treads a thin line D 507
trade a long time D 482
tracing a path down D 471
trust a big butt D 449
trace a ray from D 442
tries a new tack D 366
tracing a ray from D 290
tracing a path along D 284
trust a guy like D 278
train i was riding D 262
truck a few feet D 254
track a few rods D 230
truck a few days D 228
treaty a few years D 218
trade a bad name D 212
tried a new ploy D 202
trail a few rods D 193
tried a new drug D 168
trees a few rods D 166
tried a new tact D 164
train a new crew D 158
treaty a few days D 148
trees a dim glow D 144
tracing a path over D 144
treaty i had made D 138
truck i was riding D 134
truck i had seen D 124
tract i now live D 124
tribe a few years D 119
trout i had seen D 116
truck i had been D 108
tribe i had seen D 108
trace a dead soul D 108
trading a few years D 103
trust a long shot D 101
truly a god mars D 100
truck a few years D 100
truck i had ever D 98
treed a fat coon D 98
tribe a long time D 94
trade i was born D 94
tried a few bars D 92
train a gun upon D 88
trace a few rays D 86
tried a new diet D 84
tracing a thin line D 84
trace a thin line D 84
truck a long time D 82
train a new crop D 82
trade a few days D 64
tribe i had ever D 51
