zinc of one cell D 1094
zinc is put into D 520
zinc or any other D 372
zinc in this case D 264
zinc be put into D 191
zinc or lead ores D 186
zinc is not used D 175
zinc is not only D 155
zinc on one side D 147
zinc on each side D 138
zinc of each cell D 138
zinc in each cell D 138
zinc is not very D 131
zinc is not pure D 131
zinc of one pair D 118
zinc in any form D 117
zits on his face D 94
zinc in this form D 92
zinc in its ores D 90
zips up and down D 45
zinc ion has been D 40
