knowledgeable M 3190953
kindergarten D 3422978
kaleidoscope D 524842
knowledgeably D 97358
kitchenettes D 75918
kleptomaniacs D 12018
knightliness D 6834
keyboardists D 5427
kindheartedly D 1224
kaffeeklatch D 203
