city is not a M 14838
city to see a M 3517
city to get a M 3356
city is now a M 3152
city he was a M 2090
city it was a M 2018
city to buy a M 1590
city is but a M 1280
city to pay a M 1278
city we had a M 1032
city he had a M 1026
city so that i M 974
city is both a M 922
city he saw a M 686
city or for a M 644
city to earn a M 552
city is thus a M 516
city as both a M 459
city so that a M 452
city as with a M 446
city of god a M 443
city as being a M 400
city we saw a M 398
city to hear a M 374
city to run a M 332
city of god i M 330
city to use a M 320
city is that a M 320
city to put a M 308
city or near a M 302
city the way i M 234
city it has a M 222
cite to you a M 222
city we see a M 218
city or with a M 214
city by using a M 198
city he has a M 184
city it had a M 176
city is doing a M 162
city to lead a M 160
city to own a M 158
city is for a M 156
city as for a M 151
city is near a M 150
city to bring a M 148
city the way a M 136
city to try a M 126
city is then a M 120
city to set a M 100
city do for a M 96
city of being a M 90
city to win a M 86
city to add a M 86
city or that a M 84
city we are a M 82
city is using a M 80
city he met a D 420
city we met a D 260
