bit at a time M 74410
bit of a fool M 10457
bit of a rest M 7414
bit of a walk M 7332
bit of a break M 5220
bit of a girl M 4958
bit of a cold M 4931
bit of a pain M 4909
bit of a rush M 4668
bit of a show M 4352
bit of a blow M 4023
bit of a risk M 3937
bit of a hard M 2779
bit of a bind M 2764
bit of a wild M 2756
bit of a hero M 2695
bit of a turn M 2580
big as a good M 2436
bit of a talk M 2336
bit of a drag M 2236
bit of a word M 2207
bit of a trial M 2201
bit of a hole M 2188
bit of a game M 2174
bit of a loss M 2115
big as a tree M 2021
big as a baby M 1985
big as a half M 1953
bit of a note M 1931
big as a great M 1896
bit of a wait M 1871
big as a city M 1871
bit of a time M 1746
bit of a look M 1742
bit of a push M 1740
bit of a fire M 1653
bit of a kick M 1634
bit of a hill M 1614
big as a room M 1578
bit of a cheat M 1564
big as a young M 1394
big as a full M 1390
bit of a good M 1374
bit of a hand M 1348
bit is a zero M 1342
bit of a dream M 1322
big as a hand M 1293
bit of a baby M 1277
bit of a sore M 1266
big as a ship M 1260
bit of a lift M 1220
bit at a loss M 1186
bit of a name M 1156
bit of a free M 1148
bit of a wash M 1126
bit of a treat M 1108
bit of a dark M 1095
bit of a room M 1056
bit is a single M 1026
bit of a lull M 1023
bit of a face M 1002
bit in a word M 978
bit of a come M 975
big as a mans M 951
bit of a soft M 931
big as a hill M 910
bit of a lady M 900
big as a five M 888
bit of a beating M 878
big as a door M 850
bit of a book M 846
bit of a jump M 838
bit of a moon M 822
bit of a line M 822
bit of a blue M 807
bit of a wind M 792
bit of a high M 751
bit of a self M 736
bit of a heart M 735
bit of a wise M 728
bit of a test M 721
bit of a reach M 686
bit of a hint M 682
big of a risk M 672
bit of a tail M 664
bit of a rise M 654
bit of a wood M 639
big as a bird M 632
bit of a data M 629
big as a town M 622
bit of a back M 617
bit of a fall M 616
bit of a pity M 608
bit of a pull M 580
bit of a love M 580
bit of a late M 580
bit of a town M 579
bid me a last M 574
bit of a trip M 563
bit of a shop M 560
bit of a life M 556
bit of a clue M 554
bit of a step M 547
big as a wash M 534
bit of a clean M 530
bit of a play M 524
bit of a lost M 510
bit of a view M 508
bit of a tour M 502
bit of a home M 501
big as a lake M 501
bit of a slow M 500
bid me a good M 500
bit of a know M 495
bias of a single M 490
big as a three M 488
bit of a body M 479
bit of a cult M 478
bit of a bird M 477
bit of a road M 462
bit is a unit M 456
bias in a mail M 452
bit of a think M 451
bit of a tree M 448
bit in a data M 447
bit of a threat M 443
bit of a drop M 439
bit of a young M 438
big as a fair M 437
bit of a fake M 434
big as a beach M 430
bit of a fish M 428
bit is a sign M 428
bit of a mind M 425
bit as a sign M 425
bit of a dash M 422
bid us a last M 420
bit of a beast M 416
bit of a gale M 405
big as a book M 405
bit of a load M 403
bit of a heavy M 403
bit of a spring M 399
bit of a trap M 398
big as a very M 386
bit of a very M 384
bit if i were M 384
big as a four M 381
bias in a case M 378
bit of a living M 375
bit of a pose M 374
bit of a nest M 374
bit of a hell M 367
big as i think M 366
bit of a lone M 364
bit of a kiss M 362
bias is a very M 361
bit of a fine M 359
bit of a feel M 355
bit of a gift M 344
bit of a thorn M 343
bit of a plan M 338
big of a fool M 338
bit of a role M 336
bit of a hold M 336
bit in a file M 336
bit of a bone M 330
big as a single M 329
bit is a good M 325
bit of a case M 324
big as a well M 317
bit of a kind M 315
bid it a last M 312
bit to a depth M 307
bit of a swim M 304
bit of a warm M 303
bias of a great M 294
bit of a health M 292
bit of a lake M 291
bit or a great M 290
bias in a test M 283
bit of a side M 281
bit of a dare M 280
bit of a single M 277
bias is a term M 276
bid on a single M 272
bit of a gray M 270
bit of a half M 266
bit of a curl M 264
big as i want M 264
bit of a tale M 262
bit of a grey M 260
bit of a wake M 258
bit of a dull M 256
bit of a list M 254
bit of a male M 253
bit of a sign M 252
bit of a bank M 252
big of a step M 248
bit of a ways M 246
bit of a burn M 246
bit of a help M 243
bit of a down M 240
bin at a time M 240
bit of a shed M 238
big as a huge M 238
big as a lady M 236
bit of a snow M 233
big of a threat M 232
bit of a twig M 230
bit is a very M 230
bit of a page M 227
bit of a past M 226
bit of a moan M 224
big as a wild M 224
bit in a page M 223
bit of a poor M 222
big thing i have M 222
bid me i will M 222
big as a cave M 220
bid us a good M 220
bias at a time M 220
bit of a last M 218
bit in a code M 218
big as a living M 218
bit of a flag M 217
bit of a move M 216
big of a role M 216
bit of a lazy M 212
bit of a file M 212
bit of a code M 212
bit do i know M 210
big of a rush M 210
bit of a worm M 208
bit of a more M 207
bit of a wide M 206
bit of a rash M 206
bit of a give M 206
big as a pair M 206
bias is a more M 206
bit of a mist M 204
bias is a form M 202
bit in a single M 200
big of a jump M 198
bit of a sell M 194
bit do i care M 192
bit of a sort M 191
bit of a work M 190
bit of a ruin M 188
bit of a chop M 188
bid at a time M 188
bit of a send M 186
bit of a bash M 186
bias to a more M 186
bid on a unit M 184
bit of a bend M 182
bit of a liking M 178
bit of a ship M 176
bit in a hand M 176
big at a time M 176
big as i have M 176
bit of a moving M 175
big as a post M 175
bid by a third M 172
bit of a loop M 171
big as a flag M 169
bit of a left M 168
bit of a great M 168
bit of a cave M 168
bias in a single M 167
bias is a good M 166
bit of a rage M 164
bit of a beach M 164
bit of a well M 163
big or i miss M 162
bit of a trim M 161
bit of a will M 160
bit of a hunt M 160
bit of a city M 160
big as a moon M 160
bias is a well M 160
bit of a hash M 156
big as a blue M 156
bit of a third M 155
bias in a more M 153
bit of a theory M 150
bit in a very M 147
bit of a feed M 146
bit is a flag M 146
big is a baby M 146
bit on a file M 144
bit as i went M 144
bias of a mind M 144
bias of a body M 144
bit as i have M 141
bit of a holy M 138
bit of a grab M 138
bid by a sort M 137
bit of a full M 136
bit to a more M 135
bit of a hair M 135
bit of a pick M 134
big as a fire M 134
big as a band M 134
bid on a city M 134
bit of a mark M 133
bit of a boring M 133
bit of a cake M 132
bias or a rest M 132
bit of a root M 130
bit of a nice M 130
bit of a knot M 130
bit of a food M 130
bit of a door M 130
bias or a lack M 130
bit as a unit M 129
big of a town M 129
bit of a toll M 128
bit of a sick M 128
bit of a torn M 127
bit of a cool M 127
bid on a hand M 126
bit of a wrong M 124
bit of a band M 124
bit of a draw M 122
big of a part M 122
bias of a test M 122
big as a coat M 120
bid or a pass M 120
bias is a type M 120
bit of a void M 119
bit of a three M 118
bit as i said M 118
bin is a good M 116
big of a hole M 116
bid on a very M 116
bias is a threat M 116
bit of a stay M 114
bit of a part M 114
bit of a cant M 114
big as a life M 114
bit of a cell M 113
bias as a form M 112
bias of a male M 111
bit or a good M 110
big as a high M 110
bias is a part M 110
bit of a hiding M 109
bit of a four M 109
bit of a loud M 108
bit of a cure M 108
big as a live M 108
bias as a threat M 108
big or a very M 107
bit in a cell M 105
bit of a find M 104
bit is a copy M 104
bias in a very M 104
bit is a most M 102
bit as a depth M 102
bit of a land M 101
bit by a single M 101
bit of a flaw M 100
big as a side M 100
bit of a fair M 98
bit by a very M 98
big as a hall M 98
bid us a kind M 98
bit of a live M 96
bit of a bell M 96
big as i ever M 96
big as a load M 96
bid me a kind M 96
big of a loss M 94
big as a girl M 94
big as a fish M 94
bit of a pile M 92
bit of a clear M 92
bit is a part M 92
bit or a word M 90
bit if i want M 90
big as a moving M 90
bid us a warm M 90
bias of a theory M 90
bias is a risk M 90
bit in a hole M 88
bit of a weep M 86
big as a cake M 86
big thing i want M 84
bit of a pass M 82
bit of a hearing M 82
bit of a busy M 82
bit of a wipe M 80
big as a third M 80
big as a sign M 80
bias is a most M 80
bias in a book M 80
bit of a fast M 73
bit to a zero M 58
bid as a means M 51
bit of a take M 48
bid on a home M 47
bid on a book M 47
bit by a wild M 46
bit on a seed M 45
bit of a five M 44
bit or a pair M 42
big as a wood M 41
bit of a mess D 15362
bit of a joke D 13701
bit of a bore D 10101
bit of a snob D 5879
big as a barn D 5111
bit of a chat D 4501
bit of a stir D 4469
big as a fist D 3994
bit of a lark D 3909
bit of a prig D 3636
bit of a fuss D 3115
bit of a jolt D 2678
big as a cart D 2366
big as a calf D 2286
bit of a hike D 2238
bit of a blur D 2238
bit of a grin D 1900
bit of a daze D 1747
bit of a rake D 1666
big as a bull D 1626
big as a giant D 1594
bit of a farm D 1328
bit of a tiff D 1253
bit of a limp D 1246
bit of a freak D 1236
big as a thumb D 1214
bit of a jerk D 1198
bit of a byte D 1149
bit of a spot D 1148
bit in a byte D 1142
bit of a chip D 1141
bit of a buzz D 1138
bit of a tease D 1137
big as a pony D 1108
bit of a flap D 1094
big is a foot D 1023
bit of a sigh D 1012
bit of a wimp D 966
big as a golf D 964
bit of a pest D 952
big as a boat D 932
bit of a ride D 907
bit of a trek D 895
bit of a sham D 891
bit of a tune D 884
bit of a yarn D 877
bit of a dust D 848
big as a crow D 846
bit of a bump D 836
bit of a bite D 823
big as a dime D 806
bit of a chap D 787
big as a soup D 758
bit of a huff D 737
bit of a funk D 737
big as a duck D 736
bit of a sweat D 722
bit of a pond D 702
bit of a star D 699
bit of a card D 696
big as a wolf D 685
bit of a wall D 673
bit of a roll D 669
bit of a slob D 663
big as a mule D 639
bid in a suit D 632
bit of a tall D 614
bit of a flop D 614
bid at a sale D 610
big as a tent D 604
big as a finger D 599
bit of a nerd D 588
bit of a dump D 581
bit of a heel D 566
bit of a tart D 554
bit of a lass D 541
bit of a twit D 534
bit of a snag D 533
bit of a task D 523
bit of a haze D 510
bit of a brat D 509
bit of a sail D 505
bit of a slip D 490
bit of a slut D 483
big as a plum D 482
bit of a rock D 481
bit of a beard D 480
bit of a thief D 472
big as a peck D 459
bit of a nose D 446
bit of a lisp D 438
bit of a boat D 438
bit of a slap D 437
bit of a bust D 436
bit of a lump D 435
bit of a spin D 428
bit of a romp D 422
bit of a race D 422
bit of a glow D 412
bit of a sneak D 411
bit of a cock D 410
bit of a dive D 398
bit of a feast D 396
bit of a damp D 394
bit of a geek D 391
big as a hare D 390
big as a boot D 390
big as a mill D 382
bit of a jack D 376
big as a piano D 366
big as a doll D 362
bit of a hack D 361
bit of a pill D 358
bit of a twinge D 352
bit of a maze D 350
bit of a mood D 348
bit of a chit D 347
big as a rock D 347
bit of a coup D 344
big as a tank D 344
bit of a wave D 340
bit of a flat D 340
big as a swan D 336
bit of a toss D 332
big as a loaf D 332
big as a dining D 332
big as a peach D 329
bit of a stew D 316
big as a wall D 316
bit of a prat D 315
bit of a spat D 311
bit of a yard D 309
bit of a snit D 304
bit of a scar D 302
big as a foot D 300
bit of a soul D 296
big as a wine D 296
bit of a cash D 290
big as a star D 286
big as a drum D 286
big as a ball D 281
bit of a bomb D 280
big of a mess D 278
bit of a pout D 277
big as a bream D 274
bit of a kook D 272
bit of a beer D 271
bit of a yawn D 264
bit of a slog D 262
big as a bowl D 262
bit of a wink D 260
bit of a boor D 260
bit of a string D 258
big as a sack D 258
bid of a suit D 258
bit of a sour D 256
big as a deer D 254
bit in a string D 251
bit of a wine D 250
bit of a pipe D 250
bit of a haul D 250
big as a lamb D 250
big as a palm D 248
bit of a pack D 246
bit of a bull D 246
big as a pint D 244
bit of a boom D 243
bit of a hoot D 239
bingo is a game D 235
bit of a bush D 230
big as a park D 230
bit of a tiny D 228
bit of a shot D 228
bit of a drip D 228
bit of a plot D 224
bit of a barn D 224
bit of a mouth D 222
bit of a tilt D 220
bit of a scam D 220
big as a sofa D 220
big as a beer D 220
bit of a media D 219
bit of a reef D 216
bit of a loan D 216
big as a goat D 216
bit of a cheap D 214
bit of a drug D 211
bit of a dope D 210
bit of a swot D 208
bit of a lawn D 204
bit of a slur D 203
bit of a limb D 200
bit of a film D 200
bit of a dent D 200
big as a desk D 200
bit of a tidy D 199
bit of a toff D 198
bit of a lush D 196
bit of a spar D 195
bit of a muff D 194
bit of a ruse D 192
bit of a hoax D 192
bit of a diary D 191
big as a frying D 190
bit of a rope D 188
bit of a rift D 186
big as a milk D 184
bit of a minx D 182
big as a cock D 182
bit of a wife D 180
big as a pork D 180
big as a pail D 180
bit of a tent D 178
bit of a dolt D 176
bit of a cook D 176
bit of a hump D 175
big as a bush D 173
bit of a dude D 172
bit of a mama D 170
big as a farm D 170
bit of a runt D 169
bid me a fond D 168
bit of a poke D 166
bit of a lout D 166
bit of a cove D 166
bias of a coin D 166
bit of a wuss D 165
bit of a rant D 165
bit of a camp D 165
bit of a leer D 164
bit of a gold D 164
bit of a thump D 162
bit of a kink D 162
bit of a goat D 162
big as a tall D 162
bit of a doze D 161
bit of a crap D 160
big as a coal D 160
bit of a rude D 159
bit of a theme D 158
bit of a ball D 157
big of a jerk D 157
big as a dish D 156
big as a bale D 156
bit of a bill D 154
bit of a tingle D 152
bit of a thick D 152
bit of a dish D 152
big as a sail D 150
bit of a hick D 148
big as a pipe D 148
big as a colt D 148
bit of a dork D 146
bit of a jest D 145
bit of a pool D 144
big as a pond D 144
big as a fowl D 144
bit of a foot D 142
bit or a byte D 140
big as a damn D 140
bit of a wolf D 139
bit of a folk D 139
bit of a whiz D 138
bit of a weed D 138
bit of a butt D 138
big as a bread D 138
bit of a tool D 136
bit of a pall D 136
bit of a hook D 136
bit of a drum D 136
bit of a buck D 136
bit of a quiz D 134
bit of a gasp D 134
bit of a chin D 134
big as a dove D 134
bit of a singer D 133
bit of a goof D 133
big as a nail D 133
bid to a feast D 133
bit of a snap D 132
bit of a poof D 132
bit of a mite D 132
bit of a slug D 130
big as a singer D 130
bias of a bowl D 130
bit of a loon D 128
bit of a hymn D 127
bit of a twang D 126
bit of a clod D 126
big as a gnat D 126
big as a cent D 126
bit of a sulk D 124
bit of a roof D 124
bit of a club D 124
big as a wren D 124
bias of a tube D 124
bit of a babe D 122
big as a mast D 122
big as a cask D 122
bit of a diva D 120
bit of a bond D 120
bit of a gleam D 118
big as a lump D 118
bit of a miff D 116
big of a bite D 116
bid it a fond D 116
bit of a romeo D 115
bit of a hunk D 115
bit of a loaf D 114
bit of a grip D 114
bit of a foul D 114
bit of a trot D 112
bit of a roue D 112
bit of a lilt D 111
bit of a tizz D 110
bit of a cart D 110
bit of a tick D 108
bit of a lame D 108
bit of a seer D 107
bit of a burr D 107
bit of a stud D 106
bit of a pope D 106
bit of a halo D 106
big as a steam D 106
big as a pack D 106
big as a coin D 106
bit of a moot D 104
bit of a jock D 104
big as a ripe D 104
big as a baking D 104
bid us a fond D 104
big as a paving D 103
bit on a sand D 102
big as a tiny D 102
bit of a finger D 101
big as a pine D 101
bit of a stab D 100
big as a nose D 100
big as a gold D 100
bit of a thigh D 98
bit of a roving D 97
bit of a park D 96
bit of a doll D 96
big as a bass D 96
bit of a mule D 94
bit of a feud D 94
big as a silo D 94
bit of a damn D 93
bit of a prod D 92
bit of a nosy D 92
bit of a news D 92
bit of a canoe D 92
big as a canoe D 92
big as a flat D 91
bit of a sack D 90
bit of a calf D 90
big as a tray D 90
big as a pool D 90
bit of a frog D 89
bit of a mast D 88
bit of a dumb D 87
bit of a tweak D 86
bit of a snub D 86
big as a club D 86
bit of a lick D 84
bit of a brag D 84
big of a task D 84
big as a rose D 83
bit of a golf D 82
bit of a blot D 82
bit of a barb D 82
big as a mack D 82
big as a lark D 82
bit of a ditz D 80
bid on a lump D 64
big as a corn D 61
bit of a punk D 53
bid on a sale D 49
big as a rice D 48
bit of a solo D 45
big as a crab D 44
bit of a knee D 43
bit of a hush D 43
bit of a muck D 42
bit of a mutt D 41
bit is a poll D 40
