bid each other a M 2195
big for such a M 1425
bit and have a M 1373
bit and take a M 1108
big deal when i M 570
bit and make a M 550
big man made a M 542
bid and make a M 518
big deal over a M 514
bias has been a M 510
big that when i M 452
bit and made a M 420
bid for such a M 420
big and have a M 412
big head like a M 404
big man gave a M 374
bias may play a M 372
bid him have a M 370
bit and when i M 352
bit can have a M 338
big earth into a M 320
bid him take a M 316
bid him make a M 304
big day when i M 296
bid you have a M 291
bias can have a M 284
bit and there a M 282
big one like a M 282
big that only a M 272
bit off half a M 270
bid him call a M 264
bit and find a M 260
big and heavy i M 246
bid and made a M 240
bit him like a M 218
big deal when a M 214
bias but also a M 212
big that even a M 208
big boy beating a M 208
bid him send a M 206
big things like a M 194
bit may have a M 192
bias may have a M 178
bit and give a M 174
bid you keep a M 174
big man like a M 170
big way when i M 168
big for what i M 166
big boy when i M 162
big and heavy a M 160
bid her stay a M 160
big and such a M 156
big man into a M 152
big one when i M 150
big man from a M 150
big for even a M 146
big and fine a M 136
bid them have a M 136
bit too much i M 133
bit and gave a M 130
big leap from a M 130
big man wore a M 128
big for just a M 128
bid them take a M 128
bit was just a M 126
bit sad when i M 123
bid was from a M 122
big and make a M 120
bit for what i M 118
bit and said i M 116
bit and making a M 116
bit had been a M 114
bias can play a M 112
bit each time i M 111
big and when i M 110
big and bold a M 110
bias and from a M 109
big dog like a M 108
big and wore a M 108
bias with such a M 107
bit too much a M 106
bit odd when i M 106
bit how nice i M 104
big man whom i M 104
big idea into a M 102
big day when a M 102
big and made a M 102
bias that such a M 102
bit was when i M 98
big man when i M 98
bid him wait a M 96
bias and have a M 96
bit for such a M 95
bid had been a M 92
bit can make a M 88
big oak tree i M 88
bit and left a M 86
big that even i M 86
big and like a M 86
bit and play a M 84
big man held a M 82
big and take a M 82
bid her take a M 82
bit with what i M 80
bit and taking a M 80
bid them send a M 80
bid him such a M 80
bid him seek a M 80
bit her like a M 41
bit and having a M 40
big man wearing a D 1082
big man took a D 686
bit and took a D 442
big hug when i D 328
big car into a D 244
big guy wearing a D 194
big pot over a D 136
big ears like a D 130
big hat like a D 106
big bed like a D 104
big man drew a D 102
big car like a D 92
big hit when i D 90
bin and took a D 88
bid thee crop a D 80
bid his wife a D 80
