ha per year for D 636
ha per year and D 457
ha long bay and D 234
ha van tan and D 170
ha and lib are D 139
ha per year was D 119
ha lay with him D 92
ha per year are D 70
ha per year with D 47
