ha of forest and D 613
ha of forest area D 533
ha in extent and D 432
ha of forest was D 240
ha of forest are D 224
ha of forest per D 184
ha of forest had D 156
ha the tousling her D 127
ha of arable and D 120
ha of forest for D 119
