had never seen . M 132074
had never been . M 103860
had taken over . M 35442
had never heard . M 34896
has never seen . M 28382
had moved away . M 17720
had lived there . M 17690
had taken part . M 15760
had taken root . M 15554
has taken over . M 15522
had never done . M 15000
has given rise . M 14430
had never come . M 13580
had given birth . M 13488
has since died . M 12958
had faded away . M 12634
has given birth . M 11986
had given rise . M 11242
had never left . M 11018
has never been . M 10922
had taken hold . M 10880
had found nothing . M 9836
had blown over . M 9330
had taken away . M 8994
has taken root . M 8406
has taken hold . M 8264
has faded away . M 7134
has taken away . M 6574
has never lost . M 6480
had grown cold . M 6314
had flown away . M 6108
had never died . M 5820
hath taken away . M 5626
had dared hope . M 5620
had lived here . M 5438
had slept well . M 5246
had found there . M 5098
had since died . M 4856
had grown dark . M 4846
had really been . M 4578
has never heard . M 4354
has blown over . M 4180
had given away . M 4158
has moved away . M 4108
has never died . M 4052
had really come . M 3608
had never used . M 3588
had black hair . M 3522
had never been ! M 3452
had never seen ? M 3388
had never been ? M 3384
had blown away . M 3364
had known nothing . M 3360
had found none . M 3276
had spent there . M 3244
has never done . M 3192
had never felt . M 3192
has flown away . M 3072
had grown there . M 2962
had seven sons . M 2916
had moved there . M 2886
had never gone . M 2794
had stood there . M 2792
has never come . M 2782
had found peace . M 2776
had never made . M 2692
has grown cold . M 2508
had nearly died . M 2478
had never seen ! M 2430
had taken fire . M 2336
had built there . M 2300
had taken form . M 2292
had short hair . M 2246
had first seen . M 2242
had really gone . M 2208
had often heard . M 2200
had never lost . M 2182
has taken part . M 2168
had brown hair . M 2162
had often said . M 2156
had slept there . M 2132
had brown eyes . M 2128
had green eyes . M 2080
had known well . M 2074
had ended there . M 1970
had white hair . M 1948
has brown eyes . M 1946
has since held . M 1900
has never left . M 1900
has never seen ? M 1890
had never worn . M 1868
had known there . M 1812
had really done . M 1804
had often done . M 1770
had never said . M 1752
had fully come . M 1748
had burst open . M 1724
has black hair . M 1702
had grown rich . M 1688
had drawn back . M 1678
had found work . M 1670
had first come . M 1652
had begun there . M 1576
had really said . M 1560
had burnt down . M 1560
had begun well . M 1546
had fixed upon . M 1512
has since done . M 1496
has brown hair . M 1492
had taken nothing . M 1492
had close ties . M 1482
had really died . M 1472
had begun early . M 1468
has lived there . M 1456
has taken form . M 1444
had never trod . M 1430
has since been . M 1428
had eight sons . M 1426
had really meant . M 1410
has green eyes . M 1372
had taken cold . M 1354
had anything else . M 1340
had taken time . M 1332
has really come . M 1302
had often been . M 1296
had curly hair . M 1258
had moved west . M 1210
had taken post . M 1204
had grown weary . M 1184
had grown back . M 1168
had slept late . M 1158
had never come ! M 1158
has given away . M 1152
has taken time . M 1142
had taken down . M 1134
had quite gone . M 1126
had given life . M 1124
had taken leave . M 1120
had blown down . M 1110
had grown into . M 1100
has since lost . M 1096
has often been . M 1086
has fully come . M 1082
had moved north . M 1054
had ended well . M 1046
has often said . M 1042
had taken arms . M 1028
has found peace . M 1022
had often seen . M 1010
has seven days . M 990
has curly hair . M 984
has blown away . M 984
has loved much . M 982
had never held . M 976
had black eyes . M 970
has short hair . M 964
has lived here . M 964
had moved south . M 958
had fared well . M 954
had begun anew . M 946
had found love . M 944
has really been . M 940
had moved here . M 932
hath never lost . M 924
had still less . M 916
has given life . M 906
had learnt nothing . M 900
had ample time . M 894
had begun work . M 882
had saved nothing . M 868
has never seen ! M 866
had dwelt there . M 862
has often done . M 852
had burst forth . M 846
had taken there . M 830
had grown late . M 824
has grown dark . M 816
has white hair . M 814
had grown cool . M 810
had anything left . M 808
had steady work . M 806
had since birth . M 798
had risen high . M 796
has moral worth . M 782
had nearly gone . M 778
has never trod . M 770
had light hair . M 768
has never felt . M 766
had spent here . M 752
had taken sick . M 738
had tried hard . M 734
had found here . M 730
had ended here . M 728
had found jobs . M 726
had taken along . M 720
had grown soft . M 718
had nearly lost . M 716
has never used . M 714
has really gone . M 702
had liked best . M 702
had really seen . M 700
had never heard ? M 698
had grown heavy . M 698
had wound down . M 692
has never gone . M 690
has ended well . M 688
had moved into . M 684
hath loved much . M 683
had nearly come . M 678
had spare time . M 668
had feared most . M 668
has grown less . M 662
had taken note . M 662
had risen early . M 660
has thirty days . M 658
has eight arms . M 656
had risen also . M 656
had small feet . M 654
had white eyes . M 650
has grown great . M 648
hath never seen . M 642
had blown open . M 636
had stuck fast . M 634
had loved best . M 632
has really done . M 630
has lived well . M 630
had stood here . M 630
had moved fast . M 626
had lived well . M 626
has never made . M 624
has truly come . M 606
has begun well . M 600
had built well . M 594
has grown back . M 590
had never told . M 586
has grown rich . M 584
has found there . M 582
had often used . M 578
had found rest . M 578
had moved back . M 574
had healed well . M 572
had grown hard . M 570
has found nothing . M 568
had known more . M 566
had flown over . M 564
has fared well . M 560
has quite gone . M 558
had healed over . M 552
had moved ahead . M 544
has never said . M 540
had loved much . M 538
had grown great . M 538
has grown into . M 528
had taken years . M 522
has slept well . M 520
had grown warm . M 520
had taken none . M 518
had since made . M 516
had risen from . M 516
has grown fast . M 514
had first heard . M 508
had grown angry . M 504
had stuck there . M 496
had taken mine . M 492
had still more . M 492
had never eaten . M 488
has known nothing . M 486
had drawn away . M 484
has begun anew . M 482
had stood fast . M 482
has taken cold . M 480
has black eyes . M 474
had given nothing . M 468
had truly come . M 466
had lived years . M 466
has taken years . M 462
has found none . M 462
had nearly done . M 460
had lived there ? M 458
has taken away ? M 450
had first used . M 450
has still more . M 446
has since said . M 446
has found rest . M 446
has taken fire . M 444
had never come ? M 444
had money left . M 442
has value zero . M 440
had taken home . M 440
had lived here ? M 440
had grown dull . M 440
has acted well . M 438
had really left . M 438
has nearly gone . M 436
has anything else . M 434
had spread fast . M 434
has really died . M 430
had loved most . M 428
had known love . M 428
had human form . M 428
had grown wild . M 428
had knelt down . M 426
has burst forth . M 420
had grown calm . M 420
had found some . M 418
has grown dull . M 416
hang about here . M 416
had taken more . M 416
has begun here . M 414
had missing data . M 412
had never heard ! M 410
has since made . M 408
has never heard ? M 408
had worse luck . M 408
had steady jobs . M 408
had learnt much . M 408
had about life . M 402
has nearly come . M 398
had acted upon . M 396
had asked once . M 394
had slept here . M 390
had found home . M 390
has since left . M 388
had ceased beating . M 388
has still less . M 386
has risen high . M 386
had truly been . M 386
had grown gray . M 384
has moved down . M 382
had taken vows . M 380
had known best . M 380
has taken note . M 378
has seven heads . M 378
has learnt nothing . M 372
has grown late . M 370
had given none . M 370
had ceased fire . M 370
has taken birth . M 368
had taken life . M 368
had seven kids . M 368
had first call . M 368
had begun here . M 368
had ample means . M 368
has never been ? M 364
has burnt down . M 364
has close ties . M 362
had grown less . M 362
has large eyes . M 360
had ample room . M 360
hath never been . M 357
has moved ahead . M 356
had often felt . M 356
had under arms . M 350
had taken birth . M 350
had flown open . M 350
had grown wary . M 336
had headed south . M 334
has flown away ! M 332
had strong ties . M 332
had slept much . M 326
had never wept . M 326
had large feet . M 326
had given pain . M 326
had acted well . M 326
had moved down . M 324
had grown huge . M 324
had noted down . M 322
hath taken away ! M 320
has healed over . M 320
has burst open . M 320
had taken food . M 320
had taken here . M 318
had longer hair . M 318
had grown grey . M 318
had found land . M 316
had every seen . M 316
had ceased work . M 316
has healed well . M 314
had known many . M 312
has fixed upon . M 310
had spent time . M 310
had grown well . M 308
had first pick . M 308
has given nothing . M 306
had really hurt . M 306
has taken over ? M 302
has often seen . M 302
had seven heads . M 302
had never sent . M 302
had acted wrong . M 302
had learnt there . M 300
has grown also . M 296
had headed north . M 296
had found food . M 296
has burnt away . M 294
had large eyes . M 294
has seven sons . M 290
had never done ? M 290
had flown home . M 290
had since left . M 288
had known here . M 288
has given birth ? M 286
has blown over ? M 286
had taken over ? M 286
had strong arms . M 286
had spread there . M 286
had freer play . M 286
had flown past . M 286
had first been . M 286
hath given away ! M 284
has never told . M 284
had added nothing . M 282
has risen also . M 280
had ended early . M 280
has begun work . M 278
had rather play . M 278
has never been ! M 276
has added nothing . M 276
has saved life . M 274
has found work . M 274
had moved from . M 274
had drawn forth . M 274
has taken nothing ? M 272
has learnt much . M 272
had lived fast . M 272
had first made . M 272
had eight kids . M 272
has unity gain . M 270
had shown nothing . M 270
had really lost . M 268
had later died . M 268
had grown fast . M 268
had green hair . M 266
had beaten down . M 266
had risen there . M 264
has taken leave . M 262
has human form . M 262
has wound down . M 260
had thirty days . M 258
had begun crying . M 258
hath never come . M 256
has grown weary . M 256
has given much . M 256
had moved along . M 256
had liked best ? M 256
had headed west . M 256
had cried more . M 254
had taken care . M 252
had grown wide . M 252
has given birth ! M 248
had still left . M 248
had people over . M 248
had known peace . M 248
had first said . M 246
had owned land . M 244
had large ideas . M 244
has small feet . M 242
had really made . M 242
had headed home . M 242
had built here . M 242
had asked nothing . M 242
has saved nothing . M 240
has grown there . M 240
has given rise ? M 240
had since lost . M 238
had bowed down . M 238
has spare time . M 236
has moved south . M 236
has every other . M 236
had dared dream . M 236
has taken here . M 234
has moved there . M 234
has grown much . M 234
has found life . M 234
had tough luck . M 234
had grown lazy . M 234
had given birth ? M 234
has found truth . M 232
has human ones . M 230
has ended here . M 230
had night duty . M 230
had ceased moving . M 230
has spent there . M 228
had extra time . M 228
has power over . M 226
has light hair . M 224
had quite lost . M 224
had flown south . M 224
had burnt away . M 224
had broke down . M 222
has moved along . M 220
had grown ugly . M 220
had ceased also . M 220
had guard duty . M 219
had truly died . M 218
had small ones . M 218
had again come . M 218
has begun there . M 216
had voice mail . M 216
had taken some . M 216
had shown none . M 216
has found love . M 214
had taken back . M 214
has moved into . M 212
has drawn upon . M 212
has drawn back . M 212
had while there . M 212
had saved face . M 212
had ruled over . M 212
had risen late . M 212
has stood there . M 210
has moved here . M 210
has green hair . M 210
has found good . M 210
had moved away ? M 210
had grown wise . M 210
had stood trial . M 208
had really heard . M 208
had nearly made . M 208
has since seen . M 206
had taken pity . M 206
has taken back . M 204
has stood here . M 204
has flown away ? M 204
had often made . M 204
had found mine . M 204
had found good . M 204
had flown away ! M 204
has moved west . M 202
has given here . M 202
has fixed ideas . M 202
had given there . M 202
had given back . M 202
had breathing time . M 202
had aimed well . M 202
has stood well . M 200
had while living . M 200
had grown used . M 200
had flown there . M 200
had first fled . M 200
had drawn breath . M 200
had taken part ? M 198
had stood down . M 198
had ruled there . M 198
had earned nothing . M 198
has grown well . M 196
has grown grey . M 196
had roots there . M 196
had grand ideas . M 196
had drawn there . M 196
has moved north . M 194
has eight bits . M 194
has ceased beating . M 194
had taken toll . M 194
had taken away ? M 194
had hired help . M 194
had given over . M 192
had found help . M 192
has small eyes . M 190
had risen fast . M 190
had really felt . M 190
had taken heart . M 188
had people there . M 188
had faced life . M 188
has never held . M 186
has given name . M 186
had really been ? M 186
had known once . M 186
had grown blue . M 186
had found truth . M 186
had found time . M 186
has earned nothing . M 184
has ceased there . M 184
had lived among . M 184
had truly gone . M 182
had nearer home . M 182
had grown high . M 182
had ceased there . M 182
has taken food . M 180
has moved back . M 180
has lasting meaning . M 180
had never left ? M 180
has learnt more . M 178
has given none . M 178
had strong faith . M 178
had seven years . M 178
had lived hard . M 178
had grown over . M 178
had given more . M 178
has taken sick . M 176
has taken mine . M 176
had first done . M 176
has grown heavy . M 174
has blown down . M 174
had stood open . M 174
has stood fast . M 172
has never heed . M 172
has cured many . M 172
had taken over ! M 172
had taken days . M 172
had slept over . M 172
had loved once . M 172
had found life . M 172
has acted upon . M 170
had winning ways . M 170
had grown poor . M 170
had eight years . M 170
has aptly said . M 168
had first gone . M 168
has taken well . M 166
has strong ties . M 166
had orange hair . M 166
has acted wrong . M 164
had taken three . M 162
had never kept . M 162
had headed over . M 162
had found last . M 162
had anything done . M 162
has moved away ? M 160
has known well . M 160
has found food . M 160
had ceased crying . M 160
had blown there . M 160
has white eyes . M 156
has never trod ! M 156
has lived here ? M 156
has first call . M 156
had loved life . M 156
had drawn ahead . M 156
has taken root ? M 154
has shown here . M 154
has nearly died . M 154
has grown cold ? M 154
has equal worth . M 154
has eight sons . M 154
had begun moving . M 154
had amazing luck . M 154
has spread there . M 152
has longer life . M 152
has freer play . M 152
had money once . M 152
had light eyes . M 152
has stuck fast . M 150
has really meant . M 150
has lower cost . M 150
has ended there . M 150
had never dealt . M 150
had given leave . M 150
had fifty sons . M 150
has truly said . M 148
has taken down . M 148
has grown gray . M 148
has built there . M 148
has anything left . M 148
had taken well . M 148
had roots here . M 148
had really come ? M 148
had grown rare . M 148
had begun life . M 148
has since gone . M 146
has grown young . M 146
had spent years . M 146
had often trod . M 146
had nearly said . M 146
has really said . M 144
had taken heed . M 144
had power over . M 144
had known nothing ! M 144
had grown here . M 144
had found more . M 144
has really gone ? M 142
has missing data . M 142
has drawn fire . M 142
had small eyes . M 142
had short runs . M 142
had given birth ! M 142
had first left . M 142
has taken away ! M 140
has strong arms . M 140
has shown none . M 140
has known love . M 140
had longer arms . M 140
had begun reading . M 140
has taken nothing . M 138
has taken life . M 138
has risen there . M 138
has risen from . M 138
has risen fast . M 138
has never worn . M 138
has never done ! M 138
has grown wild . M 138
has given more . M 138
has burst there . M 138
had taken less . M 138
had often worn . M 138
had large ones . M 138
had hoped much . M 138
had flown back . M 138
had drawn upon . M 138
had truly said . M 136
had never none . M 136
had known pain . M 136
had getting there . M 136
had getting here . M 136
had found peace ! M 136
had eight left . M 136
had black hair ? M 136
has noted down . M 134
has large gaps . M 134
had sound ideas . M 134
had small heads . M 134
had never gone ! M 134
had extra food . M 134
had begun wrong . M 134
has theirs been ! M 132
has grown ugly . M 132
has grown hard . M 132
had taken five . M 132
had saved mine . M 132
had given much . M 132
had built upon . M 132
had aimed high . M 132
has valid data . M 130
had wiped away . M 130
had never died ! M 130
has steady work . M 128
has really seen . M 128
has often made . M 128
has grown here . M 128
has brown eyes ? M 128
had spent more . M 128
had never quit . M 128
had never left ! M 128
had fared best . M 128
had dwelt here . M 128
hath given away . M 126
has grown cool . M 126
has found here . M 126
had white ones . M 126
had grown some . M 126
had ample food . M 126
has often used . M 124
has faded away ? M 124
had taken four . M 124
had never done ! M 124
had lived there ! M 124
had eight arms . M 124
has taken over ! M 122
had taken wind . M 122
had taken rest . M 122
had grown young . M 122
had found open . M 122
had flown down . M 122
has really come ! M 120
has eight eyes . M 120
had strong ideas . M 120
had really done ? M 120
had given rise ? M 120
had forty sons . M 120
had dwelt upon . M 120
had blind faith . M 120
has yours been ? M 118
has slept well ? M 118
has since kept . M 118
has often heard . M 118
has grown warm . M 118
has grown soft . M 118
had right here . M 118
had loved there . M 118
had every care . M 118
had again fled . M 118
has taken three . M 116
has saved many . M 116
has place here . M 116
has moral meaning . M 116
has known best . M 116
has grown from . M 116
has fixed ends . M 116
had spent there ! M 116
had large heads . M 116
had flown from . M 116
hath taken away ? M 114
has really made . M 114
has given leave . M 114
had stood back . M 114
had slept last . M 114
had grown loud . M 114
had grown bold . M 114
had every week . M 114
had every other . M 114
had color sets . M 114
has since died ? M 112
has large feet . M 112
has faced life . M 112
had really died ? M 112
had really come ! M 112
had anything more . M 112
has black hair ! M 110
had stood idle . M 110
had small means . M 110
had seven more . M 110
had never aged . M 110
had grown also . M 110
hath since done . M 109
has drawn from . M 108
has ceased also . M 108
has added meaning . M 108
had spent nothing . M 108
had never died ? M 108
had longer range . M 108
had known less . M 108
had grown deep . M 108
had given form . M 108
had first felt . M 108
had faded fast . M 108
had begun late . M 108
has human meaning . M 106
has given rise ! M 106
had tried once . M 106
had never shed . M 106
had money there . M 106
had found hope . M 106
had drawn lots . M 106
has value true . M 104
has taken fire ! M 104
has stood high . M 104
has never done ? M 104
has ceased moving . M 104
hang about there . M 104
had short arms . M 104
had really none . M 104
had given land . M 104
had feared nothing . M 104
has spread afar . M 102
has lower risk . M 102
has green eyes ? M 102
has ample time . M 102
has ample means . M 102
had within reach . M 102
had taken ages . M 102
had ruled here . M 102
had quite done . M 102
had place there . M 102
had newly made . M 102
had lived once . M 102
had known life . M 102
had inner peace . M 102
had drawn down . M 102
had blown past . M 102
has longer hair . M 100
has grown great ? M 100
hang bells from . M 100
had seven days . M 100
had never meant . M 100
had moved over . M 100
had fixed ideas . M 100
had every good . M 100
had about five . M 100
has white feet . M 98
has voice mail . M 98
has tried hard . M 98
has slept there . M 98
has since come . M 98
has roots here . M 98
has moved fast . M 98
has black hair ? M 98
has added more . M 98
hang about here ? M 98
had working here . M 98
had thrust there . M 98
had still died . M 98
had small part . M 98
had short ones . M 98
had lived down . M 98
had every heard . M 98
had ceased reading . M 98
hath often been . M 96
hath never heard . M 96
has slept here . M 96
has power here . M 96
has lived among . M 96
has known there . M 96
has ample food . M 96
had worse ones . M 96
had acted there . M 96
has truly been . M 94
has taken heart . M 94
has known pain . M 94
has flown past . M 94
has dwelt upon . M 94
had stuck open . M 94
had stood upon . M 94
had seven boys . M 94
had moved home . M 94
had loved more . M 94
had lands here . M 94
had given peace . M 94
had given away ? M 94
had drawn mine . M 94
had asked leave ? M 94
had acted fast . M 94
has never eaten . M 92
has grown down . M 92
has first died . M 92
has father said ? M 92
has every gift . M 92
had taken root ? M 92
had nearly wept . M 92
had grown weary ! M 92
had grown from . M 92
had found there ? M 92
had earned there . M 92
had blown shut . M 92
has grown poor . M 90
has equal arms . M 90
has eight kids . M 90
has built upon . M 90
has black feet . M 90
had theirs also . M 90
had still lost . M 90
had saved some . M 90
had found three . M 90
had flown north . M 90
had first died . M 90
had extra room . M 90
had drawn fire . M 90
had breathing room . M 90
has taken vows . M 88
has slept much . M 88
has place there . M 88
has grown clear . M 88
has given form . M 88
has ample room . M 88
has above three . M 88
had working there . M 88
had really eaten . M 88
had price tags . M 88
had never lain . M 88
had grown sick . M 88
had drawn more . M 88
has waned away . M 86
has taken more . M 86
has since been ? M 86
has grown huge . M 86
has built well . M 86
has built here . M 86
had taken root ! M 86
had taken breath . M 86
had still hope . M 86
had short life . M 86
had right away . M 86
had people here . M 86
had lower ones . M 86
had found game . M 86
had flown high . M 86
had drawn even . M 86
had brown eyes ? M 86
had anything else ? M 86
had added more . M 86
has taken root ! M 84
has never died ? M 84
has grown some . M 84
has grown most . M 84
has found game . M 84
has eight heads . M 84
has black ones . M 84
had while reading . M 84
had taken hurt . M 84
had taken acid . M 84
had lived upon . M 84
had known none . M 84
had knelt there . M 84
had given hope . M 84
had earned more . M 84
has since used . M 82
has never come ? M 82
has loved most . M 82
has lived there ? M 82
has grown lazy . M 82
has bowed down . M 82
has blown over ! M 82
has begun early . M 82
has about life . M 82
had wider aims . M 82
had since lain . M 82
had right there . M 82
had hungry eyes . M 82
had found room . M 82
had civil wars . M 82
had about love . M 82
has taken hold ? M 80
has shown nothing . M 80
has really lost . M 80
has ceased here . M 80
had taken ship . M 80
had round heads . M 80
had really seen ! M 80
had grown bleak . M 80
had flown here . M 80
had equal time . M 80
had amazing eyes . M 80
had alike gone . M 80
