has created a new M 76089
had created a new M 47138
has played a key M 35359
had killed a man M 35170
has become a key M 34054
has become a new M 32308
has become a way M 29248
had learned a lot M 28740
had become a man M 27776
has opened a new M 26993
had passed a law M 25397
had reached a new M 22666
had played a key M 21156
has changed a lot M 19741
has become a real M 19254
had thought i was M 19094
had bought a new M 17339
had opened a new M 16870
had become a real M 16361
had waited a long M 15754
had become a new M 15706
had formed a new M 15145
had become a way M 14870
has become a big M 14664
has reached a new M 14500
has become a man M 14299
has passed a law M 12261
had gained a new M 11772
had changed a lot M 11379
had reached a dead M 10901
had learned a few M 10524
had become a dead M 9916
had gotten a job M 9774
has gained a new M 9684
had become a bit M 9504
had become a big M 8837
had reached a low M 8579
has killed a man M 8386
has caused a lot M 8246
has become a bit M 8130
has learned a lot M 7430
had bought a few M 7284
had become a key M 7058
had become a law M 6992
has become a law M 6938
had walked a few M 6642
had passed a few M 6384
had served a long M 6366
had walked a long M 6200
had become a war M 6160
has lasted a long M 6116
had thought i had M 5968
had spoken a few M 5894
has formed a new M 5844
has become a dead M 5531
had fought a war M 5336
had thought a lot M 5276
had broken a leg M 5038
has played a big M 4926
has gotten a lot M 4898
had become a nun M 4829
had gotten a lot M 4786
has issued a new M 4748
has created a lot M 4690
had waited a few M 4606
has become a far M 4584
has arisen a new M 4504
has become a god M 4476
had learned a new M 4456
had gained a lot M 4443
has become a net M 4379
has bought a new M 4358
had learned a long M 4356
had bought a lot M 4340
has helped a lot M 4325
had fallen a few M 4268
has gained a lot M 4236
had lasted a long M 4106
had fought a long M 4042
has gotten a bad M 4036
had landed a job M 4028
had become a net M 3993
had played a big M 3946
has reached a dead M 3945
had caused a lot M 3844
had gained a few M 3820
had killed a few M 3812
has opened a way M 3766
has become a top M 3668
had become a god M 3660
has become a myth M 3628
had gotten a new M 3592
has become a long M 3566
had opened a way M 3562
had chosen a new M 3534
had lasted a year M 3360
had served a year M 3355
has created a set M 3344
had signed a new M 3294
has become a lot M 3284
had caught a few M 3224
had played a few M 3146
has become a war M 3090
has changed a bit M 3082
had wanted a son M 3017
had chosen a man M 2987
has become a bad M 2916
had issued a new M 2840
had raised a new M 2712
had passed a long M 2706
had become a long M 2702
has learned a new M 2646
had wanted a boy M 2590
had gotten a bit M 2584
had lasted a few M 2556
had become a one M 2526
has waited a long M 2514
had called a few M 2512
had become a far M 2482
had caught a bad M 2442
had passed a new M 2436
had seemed a bit M 2370
had missed a lot M 2331
had become a bad M 2312
has learned a few M 2302
had played a lot M 2261
has become a non M 2234
has issued a set M 2173
had gotten a few M 2162
had signed a non M 2158
has created a real M 2145
had landed a few M 2142
had placed a few M 2122
had cleared a path M 2114
has raised a new M 2108
had already a long M 2102
had arisen a new M 2088
had waited a year M 2073
has reached a low M 2047
has played a far M 2047
had wasted a lot M 2036
had stayed a few M 2034
had killed a bear M 2029
had opened a few M 2022
has become a one M 1996
had stolen a few M 1992
had become a top M 1990
has placed a new M 1982
had passed a day M 1972
has created a web M 1970
has become a two M 1966
had chosen a bad M 1920
had seemed a long M 1898
had changed a bit M 1898
had passed a bad M 1892
had become a two M 1888
had missed a few M 1878
has broken a law M 1872
had passed a year M 1834
had become a lot M 1810
has become a day M 1806
had worked a few M 1758
had bought a big M 1758
had become a non M 1750
had become a myth M 1742
had helped a lot M 1698
had passed i was M 1684
has become a set M 1682
had worked a long M 1654
has caused a new M 1652
has created a gap M 1632
has chosen a new M 1624
had become a poet M 1602
had killed a lot M 1596
had almost a year M 1590
had chosen a path M 1554
had placed a new M 1548
had created a lot M 1548
had caused a new M 1548
had become a near M 1534
had rested a few M 1504
had signed a deal M 1476
hath created a new M 1471
had learned a bit M 1468
had sought a new M 1464
had gotten a bad M 1460
has become a near M 1456
hath killed a man M 1442
has played a not M 1430
had before i was M 1392
has become a nun M 1368
has filled a gap M 1358
has marked a new M 1356
has raised a lot M 1352
had sought a way M 1346
had created a real M 1326
had shared a few M 1316
has caused a few M 1314
has served a long M 1312
has thought a lot M 1310
had raised a few M 1306
has created a big M 1296
had broken a law M 1291
has become a low M 1290
had passed i had M 1286
had forced a way M 1284
has gotten a bit M 1282
had chosen a seat M 1267
has passed a new M 1250
had fallen a long M 1244
has broken a leg M 1232
had caused a few M 1232
had pulled a few M 1230
had become a low M 1228
has become a red M 1227
had become a team M 1212
has become a dear M 1210
had broken a few M 1206
has proved a real M 1188
had something i did M 1184
has passed a long M 1182
had opened a law M 1175
had joined a new M 1170
has become a poet M 1158
has created a few M 1142
had called a new M 1133
has chosen a path M 1130
had stayed a long M 1130
had worked a lot M 1124
had shared a lot M 1113
has opened a path M 1108
had wanted a new M 1106
has become a year M 1090
had created a set M 1090
had served a few M 1082
had bought a set M 1076
had opened a can M 1073
had become a set M 1066
had bought a box M 1062
had become a sad M 1062
had placed a ban M 1048
has become a sad M 1042
had played a not M 1042
had stayed a day M 1040
had caught a big M 1034
had shared a meal M 1032
had become a red M 1027
had missed a beat M 1018
had become a death M 1014
had worked a year M 1004
had needed a new M 1000
had become a heap M 1000
had gotten a big M 994
hang around a bit M 982
had opened a gap M 978
had opened a path M 976
had become a boy M 976
had become a weak M 966
had looked a bit M 958
had halted a few M 956
had become a day M 950
has become a weak M 948
had learned i was M 934
has created a long M 928
has gained a few M 922
had formed a low M 917
had gained a day M 912
has created a two M 910
had created a few M 910
has filled a long M 904
has called a new M 898
had framed a new M 894
hang around a few M 892
had caught a new M 888
had turned a few M 886
has signed a deal M 884
has bought a lot M 884
had waited a day M 884
had something i had M 882
had raised a lot M 880
has raised a few M 874
had killed a dog M 874
had placed a bet M 870
had played a far M 868
had formed a long M 866
has lasted a few M 862
had marked a new M 860
had reached a few M 840
had killed a boy M 840
had wanted a man M 836
had become a dear M 834
has fought a long M 828
has proved a far M 826
had killed a big M 824
has become a not M 816
had turned a new M 812
has chosen a man M 811
had turned a bit M 811
has gotten a new M 806
has become a job M 806
has walked a long M 802
had become a dim M 802
had always a new M 802
had reached a far M 800
has sought a new M 788
has created a way M 788
had rested a bit M 788
had changed a few M 786
has signed a new M 784
has created a myth M 784
had created a gap M 780
had engaged a man M 776
had cleared a few M 776
had signed a long M 774
had become a lay M 773
had raised a sum M 768
has passed a few M 766
has forced a new M 764
had engaged a new M 764
had bought a year M 755
had signed a two M 752
has gotten a job M 750
had picked a bad M 748
had reached a long M 746
had cleared a way M 746
had joined a few M 738
has turned a new M 736
has issued a non M 736
had gained a bit M 736
had missed a day M 735
had stolen a lot M 732
had caught a man M 728
had formed a real M 724
hang around a lot M 721
had cleared a bit M 720
had broken a long M 720
had bought a two M 720
had gotten a head M 718
had thought a long M 712
had caught a lot M 712
has worked a lot M 706
had taught a few M 706
has killed a lot M 702
had created a big M 702
had placed a long M 700
had wanted a dog M 696
had raised a cry M 694
had gained a real M 692
had placed a man M 691
had created a bad M 686
had caused a man M 683
had seemed a few M 680
had looked a lot M 678
had killed a cat M 676
had thought a few M 672
had fallen a bit M 672
has missed a lot M 670
had signed a ten M 670
had looked a few M 670
had burned a few M 668
had served a two M 658
has caught a fly M 654
had raised a hue M 650
has become a bye M 649
had raised a son M 644
has always a bad M 642
had placed a box M 640
has placed a ban M 638
had rained a lot M 638
had played a mean M 638
had placed a big M 638
had fought a few M 638
had become a pro M 636
has become a team M 630
had played a long M 628
had issued a few M 628
has become a lie M 626
has gained a bad M 622
had gained a seat M 620
had reached a head M 618
had issued a set M 617
had formed a few M 616
had already a few M 616
had passed a man M 613
had chosen a few M 610
had waited a bit M 607
had merely a few M 606
had bought a one M 604
had forced a new M 602
had seized a few M 596
had become a not M 596
had become a going M 594
has become a pre M 593
has worked a long M 592
has already a long M 590
had closed a deal M 588
has proved a dead M 586
had caused a big M 584
had formed a team M 583
has played a lead M 582
has become a death M 582
had placed a red M 582
had become a pet M 582
had failed a few M 580
has reached a far M 578
had seemed a lot M 577
has become a joy M 574
had created a myth M 572
has signed a long M 570
had placed a lot M 570
has fought a war M 564
had signed a year M 560
had opened a box M 559
had signed a one M 554
had picked a few M 554
had gained a bad M 554
had calmed a bit M 554
had proved a dead M 553
has caused a big M 552
had become a son M 552
had played a bit M 549
has caused a long M 548
has neither a nor M 546
has seemed a long M 544
has created a bad M 544
had missed a year M 544
has proved a long M 542
has created a far M 536
had reached a deal M 536
has become a few M 528
had learned i had M 526
had arisen a few M 526
has created a fear M 525
had proved a real M 524
has fallen a long M 518
had picked a man M 518
had bought a long M 518
has created a man M 517
had thought i did M 516
had become a year M 516
has become a fit M 513
has become a being M 512
had created a far M 512
has landed a job M 510
has cleared a path M 508
has caught a bad M 504
has played a long M 502
had shared a long M 500
had gained a long M 500
had seemed a man M 499
had caught a fly M 499
had gotten a real M 498
had bought a bag M 498
had become a job M 498
hath formed a god M 492
has become a dry M 492
has created a god M 490
had something a bit M 490
had changed a war M 487
has issued a long M 486
has framed a new M 486
had closed a few M 484
had chosen a way M 484
has become a son M 481
had signed a law M 481
has sought a way M 480
has helped a few M 480
had looked a long M 480
had filled a gap M 480
has fallen a few M 478
had thought a bit M 476
has chosen a few M 474
had needed a lot M 474
had before i had M 472
had reached a near M 470
had gained a lead M 470
had created a web M 470
had pulled a long M 468
had caught a far M 465
has wasted a lot M 464
had signed a few M 464
had bought a map M 464
has opened a lot M 462
has chosen a way M 462
had walked a bit M 462
had signed a six M 462
had created a way M 462
had opened a year M 461
has reached a few M 460
has proved a big M 460
has placed a lot M 460
has become a song M 460
had closed a long M 460
had become a few M 460
has shaped a new M 458
had before i got M 458
has seemed a bit M 457
has lasted a year M 457
had walked a lot M 456
had proved a bad M 456
had become a dry M 452
has become a pet M 450
had lifted a bit M 448
had burned a lot M 448
had opened a long M 444
had seemed a far M 442
had paused a few M 442
has raised a cry M 440
has become a dim M 440
has changed a few M 438
had raised a man M 436
has placed a few M 434
had called a man M 434
has opened a few M 432
has caused a real M 432
had poured a cup M 432
had learned a way M 432
had created a long M 430
had barely a year M 428
had chosen a day M 427
had already a son M 426
has spoken a few M 424
had chosen a long M 424
has learned a set M 423
had stayed a year M 423
had missed a meal M 422
had caused a death M 422
has gained a real M 420
has become a dog M 420
had created a man M 419
had bought a dog M 418
has bought a few M 416
had become a lie M 416
had wanted a big M 414
had stated a few M 414
had always a few M 414
had parted a few M 410
had played a man M 402
had issued a law M 402
had always a bad M 402
had issued a long M 400
had turned a man M 398
had become a mad M 398
had caused a near M 396
has become a sin M 394
had played a bad M 394
has turned a few M 392
has killed a bear M 392
has played a lot M 390
had wasted a year M 390
had reached a sum M 390
had fought a lot M 390
had become a dog M 390
has created a one M 389
had stolen a bag M 388
has passed a year M 386
has become a heap M 386
has opened a law M 385
had slowed a bit M 385
has become a mad M 384
had gained a far M 384
had bought a seat M 384
has become a bar M 382
has become a toy M 378
had gotten a long M 378
had created a two M 378
had become a bar M 378
had formed a law M 376
has itself a long M 374
had landed a big M 374
had copied a few M 374
had neither a bad M 373
had lifted a few M 372
has placed a man M 371
has reached a pre M 370
had wasted a day M 370
had spoken a lot M 370
had placed a sum M 370
had fallen a year M 370
had thought i saw M 368
had risked a lot M 368
had needed a job M 368
had hidden a few M 368
had become a cat M 368
has passed i can M 362
has fallen a bit M 362
had caused a bit M 362
had bought a red M 361
had helped a few M 360
has formed a long M 358
had reached a mean M 358
had proved a far M 356
had opened a big M 356
has slowed a bit M 355
has through a long M 354
had worked a bit M 354
had through a long M 354
had raised a dead M 354
has passed a bad M 352
has issued a few M 352
had issued a ban M 352
has served a year M 350
has caught a new M 350
had treated a few M 350
had gained a big M 350
had dreamed i was M 350
had become a seat M 350
has caused a man M 349
has created a bias M 348
had needed a man M 348
had served a six M 346
had helped a bit M 344
had become a too M 344
has joined a new M 342
had breathed a new M 342
had neither a real M 341
has reached a near M 340
had proved a weak M 340
had caused a real M 340
had caused a long M 340
has turned a bit M 339
had created a near M 339
has formed a key M 338
had formed a big M 338
has forced a way M 336
has edited a new M 336
has caused a deal M 336
had shaped a new M 336
had missed a big M 336
had engaged a box M 336
has become a going M 334
had something i was M 334
has killed a few M 332
had wished i had M 332
had forced a war M 332
had created a one M 332
has walked a few M 330
has proved a bad M 330
had broken a new M 330
has created a low M 328
has caught a few M 328
had gotten a man M 328
has hardly a year M 326
has caused a bit M 326
had wanted a job M 326
has chosen a bad M 324
had become a head M 324
has become a poem M 322
had played a real M 322
had created a war M 321
has chosen a set M 320
had worked a deal M 320
had gained a son M 320
had become a song M 320
had broken a man M 319
has filled a real M 318
had rested a day M 318
had raised a big M 318
had formed a bad M 318
has missed a few M 316
had passed a lie M 316
had chosen a red M 316
had buried a man M 316
had turned a key M 314
has become a boy M 312
had poured a few M 312
had fitted a new M 312
had fallen a day M 312
had always a way M 312
has breathed a new M 310
had wanted a few M 310
had pulled a lot M 310
hath opened a way M 309
had passed i saw M 308
had become a toy M 307
had reached a real M 306
had broken a lot M 306
had bought a bit M 306
has missed a meal M 304
had treated a man M 304
had sensed a new M 304
had poured a lot M 304
has rained a lot M 303
has become a path M 302
had needed a few M 302
had broken a way M 302
had become a bye M 302
has indeed a long M 300
has created a bit M 300
had proved i was M 300
had prayed a lot M 300
had gained a year M 300
has caught a big M 298
had thought a man M 295
has treated a man M 294
has proved a sad M 294
has engaged a new M 294
had buried a few M 294
had bought a six M 294
had seemed a real M 292
had tasted a few M 290
has listed a few M 288
had learned a song M 288
had become a fit M 288
has varied a lot M 286
has bought a big M 286
had wanted a real M 286
had become a dying M 286
has learned a bit M 284
has caused a death M 284
had raised a red M 284
had joined a year M 284
had barely a few M 284
has gained a bit M 282
has become a dying M 282
had opened a bar M 282
has become a too M 279
had neither a job M 279
has played a real M 278
has learned a way M 278
had proved a sad M 278
had engaged a few M 278
had created a fear M 278
had spared a few M 276
had wanted a war M 274
had spoken i had M 274
had pushed a few M 274
had passed a sad M 274
had placed a cup M 272
had placed a bar M 272
had passed a death M 272
had helped a man M 272
has formed a few M 270
has created a non M 270
had raised a cup M 270
had argued a few M 270
had caused a run M 269
has formed a team M 268
has closed a deal M 268
had signed a death M 268
had proved a bit M 268
had posted a few M 268
had landed a new M 268
had caused a law M 268
has spoken a lot M 266
had opened a dry M 266
has evoked a new M 264
has caught a lot M 264
had called a dog M 263
had spoken a bit M 262
had joined a team M 262
has placed a bet M 260
had hardly a day M 260
had failed a year M 260
has quoted a few M 258
has opened a gap M 258
had stolen a box M 258
had gained a head M 258
had caused a war M 258
has raised a son M 256
has created a law M 254
had spoken a long M 254
had lasted a bit M 254
had seized a man M 253
has turned a lot M 252
had seemed a year M 251
had become a pre M 251
has wronged a man M 250
has caused a net M 250
had marked a few M 250
had formed a path M 250
has always a new M 248
has reached a sum M 246
has quoted a long M 246
has helped a man M 246
has fooled a lot M 246
has engaged a man M 246
had taught a year M 246
had played a year M 246
had indeed a long M 246
had become a sin M 246
has called a man M 245
has stolen a lot M 244
has become a cry M 244
had become a bear M 244
has taught a few M 242
has reached a long M 242
has played a few M 242
has gotten a few M 242
had pulled a big M 242
has become a seat M 241
has seized a man M 240
has created a poem M 240
had taught a new M 240
had proved a long M 240
had landed a man M 240
had killed a son M 240
had hardly a man M 240
had sought a job M 238
had caught a bear M 238
had arisen a man M 238
had neither a long M 237
has dreamed a sad M 236
had become a box M 236
had quoted a few M 234
had issued a death M 234
had become a joy M 234
had bought a can M 233
has broken a cup M 232
had rained a few M 232
had played a new M 232
had passed a lot M 232
had buried a lot M 232
had bought a ten M 232
had become a rear M 232
had gained a near M 229
has worked a year M 228
has reached a red M 228
had worked a day M 228
has created a being M 227
had created a god M 227
has formed a bar M 226
has caught a man M 226
has become a web M 226
had traced a path M 226
had learned a year M 226
had kicked a man M 226
had evoked a new M 226
had broken a path M 226
had broken a cup M 226
had created a bit M 225
had chosen a low M 225
had bought a toy M 225
has worked a few M 224
has caused a bad M 224
has become a head M 224
has always a real M 224
had reached a sad M 224
had played a weak M 224
had filled a big M 224
had picked a new M 222
had broken a vow M 222
had lasted a day M 221
had tasted a bit M 220
had phoned a few M 220
has stolen a sum M 218
has broken a new M 218
had spoken i was M 218
had placed a bag M 218
had caught a bit M 218
has created a near M 217
hath joined a man M 216
has stolen a few M 216
has neither a long M 216
has needed a new M 216
has evoked a lot M 216
had smiled a lot M 216
had seemed a new M 216
had caused a bad M 216
has rested a few M 214
has become a lay M 214
had wanted a long M 214
had bought a team M 214
had caused a gap M 213
has placed a red M 212
had wanted a lot M 212
had stolen a sum M 212
had something a lot M 212
had raised a fit M 212
had filled a few M 212
had created a job M 212
had bought a job M 212
has called a few M 210
hang around a long M 210
had played a lead M 210
has created a team M 209
had missed a key M 209
has placed a big M 208
had except a few M 208
has proved a key M 206
has issued a law M 206
had tested a new M 206
had agreed a few M 206
has opened a can M 205
has formed a set M 205
had placed a low M 205
has traced a path M 204
has ruined a lot M 204
has cleared a way M 204
had stored a lot M 204
had stolen a long M 204
had placed a two M 204
had placed a dead M 204
had failed a lie M 204
has helped a bit M 203
has taught a new M 202
has placed a low M 202
has created a net M 202
has caused a gap M 202
had tasted a new M 202
had stolen a bit M 202
had served a ten M 202
has served a few M 200
had warned a few M 200
had become a six M 199
has poured a lot M 198
has missed a day M 198
has hardly a man M 198
has broken a long M 198
had raised a war M 198
had become a run M 198
has served a two M 196
has raised a hue M 195
had placed a bid M 195
hath become a man M 194
has marked a long M 194
has become a box M 194
had seemed a way M 194
had placed a bit M 194
had formed a year M 194
had almost a two M 194
has proved a bit M 192
has indeed a far M 192
has become a cat M 192
had passed a set M 192
had created a weak M 192
had become a pit M 192
had formed a man M 191
had formed a far M 191
has faults i can M 190
had chosen a boy M 190
had opened a day M 189
had created a being M 189
has reached a top M 188
has missed a beat M 188
has gained a day M 188
had walked a day M 188
had stayed a bear M 188
had seized a new M 188
had prayed a long M 188
had opened a lot M 188
had forced a few M 188
had fallen i was M 188
had become a cry M 188
has reached a set M 186
has become a mean M 186
had reached a big M 186
had issued a plea M 186
had gotten a deal M 186
has taught a lot M 185
has passed a day M 184
had seemed a weak M 184
had marked a path M 184
had gotten a key M 184
had filled a cup M 184
had devils a long M 184
had argued a lot M 184
has proved a weak M 182
has killed a dog M 182
had sought a seat M 182
had joined a long M 182
had gotten a law M 182
had filled a long M 182
had fallen i had M 182
has bought a set M 181
has raised a big M 180
has missed a key M 180
had washed a lot M 180
had opened a real M 180
had learned a set M 180
had become a path M 180
had closed a year M 179
had become a being M 179
has surely a use M 178
has killed a cat M 178
has cleared a bit M 178
had warmed a bit M 178
had reached a year M 178
had reached a top M 178
had neither a son M 178
had chosen a box M 178
hath gotten a lot M 176
hath bought a new M 176
has tested a new M 176
has proved a new M 176
has gained a big M 176
has always a few M 176
had wasted a few M 176
had seemed a dead M 176
had forgot i was M 176
has signed a two M 174
has gotten a big M 174
has gained a seat M 174
has formed a real M 174
has closed a long M 174
has broken a lot M 174
had upheld a law M 174
has created a war M 173
has become a pro M 173
had upheld a new M 173
has raised a man M 172
had played a low M 172
had indeed a poet M 172
had gotten a seat M 172
had buried a son M 172
had become a web M 172
had become a bag M 172
had always a sum M 172
had stolen a nun M 171
had shared a cup M 170
had served a man M 170
had seemed a big M 170
had learned a big M 170
had killed a red M 170
had indeed a few M 170
had cleared a lot M 170
had caused a two M 170
had thought a year M 168
had stated a year M 168
had sensed i was M 168
had lifted a bar M 168
had killed a kid M 168
had chased a man M 168
has signed a non M 167
had chosen a non M 167
has stayed a long M 166
has proved a bar M 166
has become a mix M 166
had solved a lot M 166
had reached a man M 166
had caught a boy M 166
has proven a far M 164
has lasted a day M 164
has created a path M 164
had turned a cat M 164
had turned a big M 164
had stayed a bit M 164
had passed i got M 164
had created a path M 164
had chosen a job M 164
has edited a few M 162
had stated i was M 162
had hidden a bag M 162
had fought a man M 162
had buried a dead M 162
had gotten a lead M 161
had created a law M 161
has needed a lot M 160
has fallen a dead M 160
had spoken a year M 160
had played a cat M 160
had parted a year M 160
had caught a real M 160
has stayed a year M 158
has proved i was M 158
has gained a far M 158
had picked a lot M 158
had hidden a lot M 158
had dreamed a man M 158
had bought a bad M 158
had become a wet M 158
had always a fear M 158
has caused a near M 157
has raised a set M 156
had sought a few M 156
had proved a death M 156
had placed a set M 156
had placed a seat M 156
had chosen a big M 156
had caused a net M 156
had become a mean M 156
had always a lot M 156
had agreed a year M 156
has thought i was M 154
has merely a few M 154
has dawned a new M 154
has created a job M 154
has become a bag M 154
had stolen a man M 154
had pulled a man M 154
had needed a way M 154
had formed a non M 154
had forced a man M 154
had engaged a team M 154
had called a big M 154
had always a long M 154
has broken a toy M 152
has become a six M 152
had traced a few M 152
had stored a few M 152
had copied a real M 152
had bought a real M 152
had joined a law M 151
had called a day M 151
had walked a beat M 150
had stolen a heap M 150
had risked a war M 150
had fought a year M 150
had chosen a set M 150
had chosen a real M 150
had posted a man M 149
has proven a real M 148
has passed a set M 148
has needed a long M 148
has chosen a job M 148
has broken a few M 148
has always a dry M 148
has already a few M 148
had missed a bet M 148
had formed a set M 148
had filled a bag M 148
had caught a red M 148
has formed a low M 147
has arisen a set M 147
had become a ten M 147
has taught a man M 146
has proved a myth M 146
has issued a ban M 146
has formed a law M 146
has created a map M 146
had passed a far M 146
had opened a bit M 146
had chased a cat M 146
has played a pre M 145
has pulled a few M 144
has played a mean M 144
has become a sun M 144
had reached a pre M 144
had bought a cup M 144
had bought a bar M 144
had before i read M 144
had almost a new M 144
had gotten a dog M 143
had formed a two M 143
hath gotten a new M 142
has neither a head M 142
had wanted a way M 142
had turned a poet M 142
had stolen a day M 142
had sought a man M 142
had sought a long M 142
had sought a bit M 142
had looked i had M 142
had indeed a far M 142
had fooled a lot M 142
had chosen a far M 142
had broken a big M 142
has chosen a low M 141
has framed a set M 140
has chosen a non M 140
has become a ten M 140
hang around a day M 140
had indeed a new M 140
had formed a key M 140
had become a fly M 140
hath passed a due M 138
has reached a fit M 138
has played a bad M 138
has neither a real M 138
has bought a box M 138
has become a map M 138
has always a way M 138
had spoken a new M 138
had picked a big M 138
had hardly a few M 138
had dreamed i had M 138
had chosen a song M 138
had broken a bit M 138
hath opened a new M 137
has something a bit M 137
has something i can M 136
has shared a lot M 136
had seized a long M 136
had kicked a dog M 136
hath chosen a few M 134
has waited a year M 134
has signed a ten M 134
has placed a sum M 134
has indeed a lot M 134
has caused a low M 134
had served a real M 134
had lasted a lot M 134
had chosen a weak M 134
had broken a year M 134
has edited a two M 133
has become a fear M 133
had burned a man M 133
has forced a lot M 132
has created a weak M 132
has become a tag M 132
has become a com M 132
hang around a bar M 132
had stolen a dog M 132
had served a meal M 132
had passed a big M 132
had fought a rear M 132
had created a map M 132
had caught a bug M 132
had already a year M 132
has bought a dog M 131
had passed a two M 131
had become a singing M 131
has listed a set M 130
has filled a big M 130
has always a long M 130
had wronged a man M 130
had traced a long M 130
had proved a man M 130
had needed a long M 130
had learned a sad M 130
had formed a singing M 130
had forced a path M 130
had fallen a dead M 130
had chosen a fit M 130
had changed a year M 130
had become a shy M 130
had argued a year M 130
had always a weak M 130
has become a bear M 129
had created a non M 129
has stated a few M 128
has joined a long M 128
has cleared a few M 128
has called a big M 128
had taught a lot M 128
had served a lot M 128
had raised a boy M 128
had marred a man M 128
had killed a she M 128
had dreamed a long M 128
had begged a few M 128
had barely a day M 128
had signed a pre M 127
had reached a set M 127
had played a set M 127
had gotten a year M 127
has turned a man M 126
has proved a lot M 126
has played a man M 126
has created a bar M 126
has broken a path M 126
has bought a seat M 126
had walked a path M 126
had voiced a few M 126
had voiced a fear M 126
had served a one M 126
had fought a two M 126
had filled a box M 126
had dawned a new M 126
had bought a run M 126
had agreed i was M 126
had placed a one M 125
had become a sun M 125
has played a new M 124
has played a low M 124
has placed a bid M 124
has passed a death M 124
has already a new M 124
had stolen a new M 124
had shared a box M 124
had opened a cut M 124
had needed a bit M 124
had formed a mean M 124
had engaged a seat M 124
has caused a war M 123
had placed a ten M 123
has dimmed a bit M 122
has arisen a man M 122
had worked i had M 122
had wished i was M 122
had turned a lot M 122
had turned a bad M 122
had stolen a set M 122
had lodged a few M 122
had cheated a bit M 122
had gotten a two M 121
has solved a lot M 120
has raised a sum M 120
has learned a song M 120
has always a bias M 120
had without a long M 120
had wanted a cat M 120
had quoted a long M 120
had passed i did M 120
had cleared a gap M 120
had burned a long M 120
has upheld a law M 118
has traced a long M 118
has spoken a lie M 118
had stolen a big M 118
had pushed a long M 118
had passed a dead M 118
had marked a long M 118
had issued a year M 118
had indeed a real M 118
had forgot i had M 118
had arisen a year M 118
had created a year M 117
has posted a new M 116
has opened a big M 116
has killed a big M 116
has issued a map M 116
has chosen a two M 116
had reached a plea M 116
had pushed a bit M 116
had pulled a real M 116
had burned a path M 116
had burned a dead M 116
had become a mix M 116
had stolen a can M 115
had formed a pro M 115
had created a team M 115
has proven a weak M 114
has issued a plea M 114
has cleared a lot M 114
has arisen a long M 114
had taught a man M 114
had prayed a few M 114
had picked a day M 114
had halted a day M 114
had gotten a fix M 114
had fought a big M 114
had dimmed a bit M 114
had caused a deal M 114
had become a meal M 114
had always a bit M 114
has signed a one M 113
had joined a war M 113
hath opened a pit M 112
has passed a lot M 112
has opened a long M 112
has become a don M 112
had traced a man M 112
had pushed a man M 112
had passed a too M 112
had passed a real M 112
had opened a map M 112
had framed a few M 112
had fought a way M 112
had cleared a new M 112
has issued a one M 111
had opened a war M 111
had formed a war M 111
has stolen a man M 110
has reached a non M 110
had wanted a red M 110
had solved a long M 110
had signed a plea M 110
had missed a real M 110
had indeed a son M 110
had edited a new M 110
had created a song M 110
has gained a key M 109
had pulled a red M 109
has varied a bit M 108
has issued a two M 108
has formed a bad M 108
had showed a lot M 108
had proved a myth M 108
had passed a ten M 108
had passed a red M 108
had myself a real M 108
had looked a year M 108
had indeed a bad M 108
had gotten a low M 108
had failed i had M 108
had backed a few M 108
had already a new M 108
has caused a far M 107
has reached a real M 106
has placed a set M 106
has placed a seat M 106
has missed a big M 106
has killed a boy M 106
has arisen a real M 106
has almost a year M 106
had quoted a poem M 106
had proved a bar M 106
had neither a head M 106
had lifted a long M 106
had landed a year M 106
had helped a new M 106
had gotten a box M 106
had caused a low M 106
had become a don M 106
has reached a mean M 105
had bought a day M 105
has pulled a lot M 104
has lifted a bit M 104
has gained a son M 104
has caught a bit M 104
has become a pit M 104
had warned a year M 104
had proved a too M 104
had played a song M 104
had marked a real M 104
had learned a day M 104
had gained a two M 104
had formed a bar M 104
had dreamed a lot M 104
had dreamed a few M 104
had created a poem M 104
has proved a two M 103
had wanted a pet M 103
has served a real M 102
has eluded a law M 102
has broken a vow M 102
had worked a way M 102
had worked a real M 102
had washed a few M 102
had signed a big M 102
had shared a seat M 102
had proven i was M 102
had posted a new M 102
had created a low M 102
had almost a day M 102
had agreed a new M 102
had agreed a long M 102
has become a lead M 101
had opened a one M 101
has signed a death M 100
has scared a lot M 100
has placed a real M 100
has marked a real M 100
has forced a few M 100
had walked a way M 100
had seemed a bad M 100
had played a two M 100
had indeed a lot M 100
had called a year M 100
had become a poem M 100
had always a low M 100
had bought a pet M 99
has played a weak M 98
has placed a long M 98
has obeyed a law M 98
has gained a long M 98
has created a win M 98
had thought a new M 98
had ruined a man M 98
had ruined a lot M 98
had rested a long M 98
had killed a fly M 98
had gained a man M 98
had filled a real M 98
had filled a new M 98
had chosen a year M 98
had called a team M 98
had buried a box M 98
had broken a gap M 98
had already a dim M 98
has become a meal M 97
had seemed a near M 97
has spared a few M 96
has opened a bar M 96
had without a new M 96
had stolen a boy M 96
had solved a few M 96
had reached a seat M 96
had pulled a job M 96
had played a pre M 96
had learned a deal M 96
had killed a long M 96
had hidden a box M 96
had changed a man M 96
had bought a cat M 96
had always a seat M 96
had already a bad M 96
has created a pre M 95
has become a run M 95
had reached a non M 95
had learned a key M 95
hath become a new M 94
has wanted a new M 94
has upheld a ban M 94
has solved a few M 94
has opened a box M 94
has lifted a ban M 94
has created a not M 94
has caused a run M 94
had tested a few M 94
had pulled a leg M 94
had placed a wet M 94
had placed a bug M 94
had picked a long M 94
had marked a man M 94
had hunted a long M 94
had chosen a poem M 94
had bought a man M 94
had already a big M 94
had signed a pro M 93
has reached a deal M 92
has placed a bar M 92
has copied a few M 92
had reached a bit M 92
had pushed a way M 92
had loaded a few M 92
had lifted a ban M 92
had joined a big M 92
had caught a long M 92
had become a dot M 92
had become a cut M 92
had placed a too M 91
has shared a meal M 90
has raised a red M 90
has raised a long M 90
has fallen a lot M 90
has endued a man M 90
has burned a long M 90
has agreed a new M 90
had traced a new M 90
had spoken a lie M 90
had shared a year M 90
had rained a bit M 90
had proved a new M 90
had proved a lot M 90
had listed a few M 90
had hunted a bit M 90
had fought a real M 90
had dreamed a bad M 90
had caught a dim M 90
has looked a bit M 89
had stolen a lead M 89
had called a son M 89
has walked a path M 88
has shared a long M 88
has proven a bit M 88
has passed a man M 88
has killed a son M 88
has created a song M 88
has chosen a far M 88
had whilst i was M 88
had tasted a lot M 88
had smiled a bit M 88
had shared a two M 88
had shared a bit M 88
had reached a key M 88
had raised a year M 88
had proved a big M 88
had paused a long M 88
had opened a bag M 88
had learned a poem M 88
had lasted i can M 88
had gotten a son M 88
had changed a law M 88
had before a new M 88
had already a lot M 88
had almost a man M 88
had gotten a set M 87
had framed a set M 87
has solved a long M 86
has placed a death M 86
has picked a man M 86
has indeed a real M 86
has gifted a man M 86
has framed a law M 86
had turned a long M 86
had scarce a map M 86
had proved a two M 86
had passed a pro M 86
had chosen a lot M 86
had changed i was M 86
had caused a seat M 86
had buried a long M 86
had before i saw M 86
had arisen a poet M 86
has proven a key M 85
hath raised a new M 84
has treated a few M 84
has traced a few M 84
has proven a long M 84
has proved a man M 84
has picked a few M 84
has passed a wet M 84
has opened a real M 84
has neither a job M 84
has needed a war M 84
has gained a lead M 84
had risked a few M 84
had pulled a bit M 84
had nursed a long M 84
had neither a dog M 84
had missed a man M 84
had learned a man M 84
had forced a gap M 84
had created a top M 84
had cleared a big M 84
had cheated a lot M 84
had called a long M 84
had become a plea M 84
had always a due M 84
has rested a bit M 82
has learned a poem M 82
has gained a head M 82
has edited a set M 82
has became a new M 82
had topped a low M 82
had thought a heap M 82
had raised a real M 82
had pushed a lot M 82
had posted a long M 82
had placed a poem M 82
had neither a seat M 82
had needed a war M 82
had marked a big M 82
had killed a day M 82
had breathed a few M 82
has stated a new M 80
has seemed a man M 80
has pushed a lot M 80
has created a top M 80
has become a plea M 80
had turned a dead M 80
had raised a long M 80
had poured a can M 80
had placed a death M 80
had passed a not M 80
had myself a few M 80
had killed a real M 80
had hinted a few M 80
had fallen a lot M 80
had engaged a boy M 80
had edited a few M 80
had copied a poem M 80
had become a zen M 61
had gained a net M 60
has caused a set M 58
had opened a two M 54
had chosen a two M 51
had killed a two M 49
had stolen a key M 48
has almost a one M 47
had played a one M 47
had killed a six M 47
had formed a net M 47
had caused a set M 47
had called a one M 47
has bought a one M 46
had issued a pro M 46
had caused a six M 45
has formed a non M 44
has bought a put M 44
has always a two M 44
had reached a then M 44
had issued a non M 44
had become a meat M 44
had gotten a one M 43
had formed a one M 43
has caused a one M 42
has become a zen M 42
had wanted a set M 42
had shared a one M 41
had neither a man M 41
had formed a red M 41
had chosen a ten M 41
had almost a one M 41
has scarce a day M 40
had gained a key M 40
had become a mid M 40
had reached a peak D 17848
had turned a deaf D 10806
has become a hot D 8112
had struck a deal D 5824
had talked a lot D 5643
has reached a peak D 4364
had rented a car D 4036
had bought a car D 3720
had scored a hit D 3561
has turned a deaf D 3290
had become a hot D 3269
had pulled a gun D 2722
has become a fad D 2652
had shared a bed D 2379
had stolen a car D 2290
had driven a car D 2212
had forged a new D 2210
had killed a cow D 2036
had levied a tax D 1986
has coined a new D 1658
had driven a few D 1628
had struck a new D 1600
had sailed a few D 1540
has struck a new D 1462
had become a den D 1454
had talked a few D 1448
had broken a rib D 1402
had become a fad D 1398
had killed a pig D 1370
has talked a lot D 1358
had ridden a long D 1344
had packed a few D 1304
had driven a long D 1302
had killed a lion D 1297
had ridden a few D 1280
had packed a bag D 1226
has forged a new D 1214
had become a mob D 1210
has become a den D 1176
had bought a gun D 1176
has bought a car D 1134
had talked a long D 1028
has become a hub D 1020
had become a fan D 974
had become a spy D 970
had called a cab D 954
had cooked a meal D 942
had become a thin D 920
had cooled a bit D 918
had talked a bit D 906
had joined a gang D 904
had become a hit D 903
had struck a man D 872
had bought a cow D 862
has struck a deal D 856
had killed a fat D 842
had downed a few D 812
has levied a tax D 792
had struck a raw D 789
has driven a car D 786
had scored a big D 784
had caused a riot D 784
had coined a new D 762
had struck a few D 760
has killed a lion D 744
had hailed a cab D 744
had gotten a raw D 706
had driven a team D 702
has cooled a bit D 700
had become a cop D 700
has become a thin D 692
had gotten a tip D 690
had formed a thin D 648
had become a hub D 648
has blazed a new D 632
has become a sub D 610
had donned a new D 594
has become a hit D 590
had booked a seat D 584
had stolen a cow D 572
had staged a sit D 564
had before i met D 564
had lingered a few D 556
had scored a few D 538
had rented a two D 538
had rented a big D 536
had dinner a few D 534
had struck a bad D 532
had hooked a big D 526
has struck a far D 513
has become a cog D 513
has become a tax D 510
has become a pop D 507
had rented a new D 486
had robbed a man D 476
had rolled a few D 474
had bitten a man D 466
had become a fat D 458
had formed a gang D 452
had packed a lot D 446
has boiled a few D 442
had bought a pig D 437
has gotten a bum D 436
has scored a hit D 433
had brewed a pot D 428
had become a bed D 426
had become a tax D 421
had cooked a big D 420
had bought a hat D 416
had broken a hip D 404
has killed a cow D 394
had danced a few D 394
had thinned a bit D 392
had placed a gun D 381
had stolen a gun D 378
had killed a fox D 378
had become a lion D 373
had reached a bay D 372
had rented a few D 368
had caught a spy D 368
has struck a man D 366
had become a sex D 366
had stolen a pig D 364
had penned a long D 362
had become a sub D 360
had killed a seal D 356
had blazed a path D 356
had placed a row D 354
had always a tun D 354
had tapped a new D 352
had placed a tax D 352
had driven a man D 350
had blazed a new D 350
has radius a and D 340
had smoked a few D 340
had sailed a long D 340
had smoked a lot D 338
had camped a few D 334
has become a gas D 332
had kissed a few D 330
had killed a cop D 328
had rented a one D 325
had kissed a boy D 324
had caught a bus D 324
had struck a rib D 322
has stolen a car D 320
has become a bed D 317
has become a sex D 316
had tossed a few D 316
had kissed a man D 316
has become a fan D 314
had rolled a long D 314
had caught a rat D 312
had parked a few D 310
had carved a new D 310
had gotten a hit D 308
had parked a car D 306
had shrunk a bit D 304
had driven a cab D 304
had struck a death D 302
had packed a box D 296
has become a pan D 294
has blazed a path D 292
had killed a hog D 291
has become a lion D 286
had gleaned a few D 286
had rented a van D 284
had danced a jig D 280
had ridden a bus D 278
had engaged a bed D 278
had scored a real D 276
had opened a tin D 276
had become a riot D 276
had become a gay D 276
has shrunk a bit D 269
had donned a red D 266
had become a pan D 265
has become a fat D 262
had placed a pot D 262
had become a cog D 262
had already a thin D 262
had staked a lot D 260
has joined a gang D 256
has formed a thin D 254
had lately a bad D 254
had scored a run D 253
had penned a few D 252
had become a rat D 250
had placed a hot D 248
had passed a tax D 247
has become a liar D 245
had hardly a rag D 240
has become a mob D 236
had donned a long D 236
had carved a path D 236
had sailed a day D 232
has packed a lot D 230
has tapped a new D 228
had cooked a pot D 228
had become a raw D 227
had struck a boy D 226
had abated a bit D 226
had missed a cue D 224
had become a pop D 224
has become a fun D 220
had joined a gym D 220
has bought a cow D 216
had traded a few D 216
had forged a path D 214
had stolen a fox D 212
had formed a trio D 212
had driven a lot D 212
has created a sub D 211
has become a car D 210
had bought a bed D 209
has rented a car D 208
had logged a lot D 208
had caught a seal D 208
had roused a new D 206
had ridden a lot D 206
had driven a new D 206
has scored a big D 204
had routed a mob D 204
had neither a car D 204
had placed a spy D 202
had caught a cab D 202
has signed a tax D 201
has become a raw D 200
had struck a big D 200
had killed a guy D 198
had gotten a car D 198
had danced a lot D 198
has struck a death D 196
has become a spy D 196
had scored a try D 195
had killed a hen D 194
had bidden a long D 194
has caught a rat D 193
has become a gay D 192
has bitten a man D 190
has become a cue D 190
had milked a cow D 190
had caught a ray D 188
had bought a tin D 188
has struck a bad D 186
had bought a bus D 186
had become a bog D 186
had bought a pen D 184
had become a trio D 184
has placed a seal D 182
had struck a real D 182
had struck a lead D 182
had seized a gun D 181
had issued a ringing D 181
had kissed a lot D 180
had become a car D 180
had copped a plea D 178
had become a liar D 178
had become a dean D 178
had killed a rat D 177
had wangled a job D 176
had jumped a few D 176
had hidden a gun D 174
had formed a tie D 172
had become a row D 172
has placed a tax D 170
had sinned a sin D 170
had neither a bed D 170
had become a mud D 170
had become a gang D 170
had rented a box D 167
hath sinned a sin D 166
had beheld a man D 166
had stolen a hog D 165
had grazed a few D 164
has created a tax D 163
hat without a rim D 162
has killed a pig D 162
has formed a bed D 162
had snowed a lot D 162
had pumped a lot D 162
had lagged a bit D 160
had caused a leak D 160
had gotten a gun D 159
had gotten a bum D 158
had dumped a lot D 158
has issued a neat D 156
has driven a few D 156
had sailed a year D 156
had rented a pew D 156
had placed a cap D 156
has become a hip D 154
had rubbed a raw D 154
had staged a one D 153
has cooked a meal D 152
had struck a long D 152
had sneaked a few D 152
had lingered a long D 152
had formed a dam D 152
has forged a path D 150
has caught a seal D 150
has broken a rib D 150
had stared a few D 150
had shared a cab D 150
had scored a lot D 150
had rented a lot D 150
had issued a fiat D 150
has driven a day D 149
had rolled a big D 148
had rented a bus D 148
had lingered a bit D 148
had bagged a few D 148
has carved a path D 146
had snowed a few D 146
had placed a car D 146
had opened a hot D 146
had melted a bit D 146
has driven a lot D 144
has donned a new D 144
has killed a seal D 142
has become a fox D 142
had struck a log D 142
had robbed a gas D 142
had caught a fox D 142
has become a rat D 141
had scored a beat D 140
had formed a bed D 139
had formed a sub D 138
had driven a bus D 138
had become a lean D 138
has killed a fox D 136
has fueled a new D 136
had placed a thin D 136
had placed a seal D 136
had placed a pan D 136
had raised a tax D 135
had wanted a bath D 134
had popped a few D 134
had bitten a boy D 134
has funded a new D 132
had turned a dingy D 132
had passed a car D 132
had caused a row D 132
has scored a few D 130
has proved a liar D 130
has carved a new D 130
has blazed a way D 130
had stolen a hen D 130
had speared a man D 130
had fasted a long D 130
has created a fun D 129
has molded a new D 128
had pinned a map D 128
had opened a jar D 128
had hardly a gun D 128
had become a neat D 128
had wedded a man D 126
had stared a long D 126
had killed a cub D 126
had carved a way D 126
had broken a dam D 126
had become a cow D 126
had booked a two D 125
has sinned a sin D 124
has become a lung D 124
has always a tang D 124
had raised a row D 124
had placed a tin D 124
had bought a van D 124
had become a rag D 124
had become a dingy D 124
has bought a gun D 123
has pulled a gun D 122
had struck a bit D 122
had scored a hat D 122
had played a gig D 122
had driven a van D 122
has proved a tax D 120
had seized a leaf D 120
had bought a pew D 120
has stolen a ham D 118
had wanted a car D 118
had created a riot D 118
had blazed a way D 118
had neither a gun D 117
hat without a head D 116
has struck a few D 116
has stolen a cow D 116
had shoved a gun D 116
had shared a car D 116
had shaken a few D 116
had ripped a seam D 116
had proved a dud D 116
had pinned a lot D 116
had packed a big D 116
had killed a ram D 116
had jotted a few D 116
had bought a gas D 116
had become a bum D 116
has robbed a man D 114
has placed a cap D 114
has driven a man D 114
had knifed a man D 114
had fanned a new D 114
had bought a jar D 114
had become a bus D 114
has become a riot D 113
has picked a neat D 112
has become a neat D 112
had staged a big D 112
had ridden a two D 112
had opened a tap D 112
had coffee a few D 112
had booked a car D 112
had become a tug D 112
has shared a bed D 111
had booked a box D 111
has penned a few D 110
has missed a cue D 110
has milked a cow D 110
has become a con D 110
had termed a few D 110
had struck a low D 110
had sipped a few D 110
had broken a tie D 110
had become a tad D 109
has retold a myth D 108
had raided a few D 108
had passed a hot D 108
had hardly a tinge D 108
had bagged a big D 108
had bought a fur D 107
has termed a new D 106
has dumped a lot D 106
has driven a long D 106
had tucked a few D 106
had stolen a tin D 106
had stolen a fat D 106
had scarce a rag D 106
had placed a hat D 106
had penned a poem D 106
had opened a car D 106
had missed a bus D 106
had engaged a car D 106
had bought a pot D 106
had become a fur D 105
has seemed a lion D 104
has cooled a few D 104
had struck a wax D 104
had stolen a hat D 104
had scored a new D 104
had pulled a rug D 104
had pinned a big D 104
had opened a shoe D 104
had lobbed a few D 104
had lifted a lid D 104
had cancer i was D 104
hath caught a fox D 102
had vented a few D 102
had talked i had D 102
had raised a mob D 102
had fought a lion D 102
had ensued a long D 102
had become a zoo D 101
had become a con D 101
has become a bus D 100
had wanted a gun D 100
had staged a few D 100
had robbed a few D 100
had ripped a long D 100
had ridden a bit D 100
had pinned a red D 100
had loaded a gun D 100
has proved a hit D 99
has killed a rat D 99
has lagged a long D 98
has killed a ram D 98
had shaved a few D 98
had neither a cow D 98
had hummed a few D 98
had caught a tinge D 98
had carved a few D 98
had carved a big D 98
had bought a rug D 98
had bought a hot D 98
had become a tom D 98
has become a pot D 96
has always a tinge D 96
had struck a path D 96
had driven a big D 96
had become a fun D 96
had caused a bed D 95
had become a gun D 95
has scored a real D 94
has ridden a few D 94
has formed a sub D 94
has become a sac D 94
had thought a gem D 94
had hacked a path D 94
had flowed a long D 94
had cooked a few D 94
had bought a fat D 94
has lagged a bit D 92
had worked a gun D 92
had sipped a cup D 92
had sagged a bit D 92
had placed a gem D 92
had opened a seam D 92
had fitted a tin D 92
had caught a lion D 92
had bribed a man D 92
had beheld a being D 92
has bought a pig D 91
had placed a bed D 91
has ridden a long D 90
has driven a new D 90
has created a neat D 90
had tapped a few D 90
had shaken a lot D 90
had fished a lot D 90
had dulled a bit D 90
had downed a lot D 90
had created a dam D 90
had caught a fat D 90
had broken a jar D 90
had become a sot D 90
had scored a near D 89
has staked a lot D 88
has funded a few D 88
has bought a hat D 88
has become a tug D 88
has become a cop D 88
had turned a tap D 88
had lately a long D 88
had formed a mob D 88
had draped a red D 88
had called a car D 88
had always a thin D 88
has abated a bit D 87
had tipped a few D 86
had hacked a way D 86
had driven a red D 86
had cooked a lot D 86
had bended a real D 86
has gotten a raw D 85
had struck a gong D 84
had robbed a hen D 84
had felled a few D 84
had carved a long D 84
had cancer a few D 84
had become a fog D 84
had become a bat D 84
had turned a gun D 83
has formed a bee D 82
has always a pen D 82
had steamed a few D 82
had smoked a bit D 82
had placed a tap D 82
had pinned a few D 82
had etched a few D 82
had coaxed a few D 82
had bought a cap D 82
had booked a long D 82
has rented a new D 80
has gleaned a few D 80
has created a pan D 80
has broken a hip D 80
has become a tad D 80
had stolen a ham D 80
had proved a hit D 80
had formed a neat D 80
had forged a way D 80
had bribed a few D 80
had booked a few D 80
had become a lad D 80
had become a pig D 63
has learned a bead D 52
had raised a riot D 51
had killed a teal D 45
had placed a jug D 44
has gotten a hit D 43
has reached a sub D 42
had created a tax D 42
had become a cue D 42
has become a pig D 41
had booked a one D 41
has become a moth D 40
had reached a per D 40
