have had a chance M 147207
have had a better M 70267
have had a little M 43171
have had a greater M 42277
hand for a moment M 38969
have had a number M 38664
have had a special M 36939
have had a letter M 33956
have had a common M 27398
have not a moment M 25762
have had a direct M 23814
have had a pretty M 17217
have got a little M 16184
have had a serious M 15959
have had a marked M 15556
have not a chance M 15088
have had a higher M 13834
have had a larger M 11377
have had a fairly M 10824
have not i always M 10602
have had a second M 10466
have had a severe M 10461
have not a little M 9714
have not a friend M 9485
hard for a moment M 9362
have had a couple M 9360
having had a chance M 9122
have but a little M 9099
have not a shadow M 9046
have had a slight M 8382
have had a narrow M 8145
hair was a little M 7828
have had a strange M 7494
have but a slight M 7336
have not a minute M 7078
have had a double M 6981
have for a number M 6885
have got a better M 6108
have but a moment M 5968
halt for a moment M 5932
have had a course M 5875
hard for a person M 5852
hand for a second M 5841
have had a moment M 5762
have for a moment M 5746
have had a family M 5545
hard that i should M 5514
have had a choice M 5288
have led a number M 5240
have read a little M 5162
have got a letter M 4936
have had a proper M 4692
having for a moment M 4688
have had a deeper M 4620
have had a secret M 4485
hand for a minute M 4453
have had a friend M 4374
have had a further M 4333
have had a harder M 4290
have had a curious M 4180
have had a normal M 4179
have had a lovely M 4150
have had a passion M 4121
have had a unique M 4015
have not a thought M 3940
hand with a little M 3929
have read a number M 3764
hand and a little M 3667
have had a highly M 3539
have had a desire M 3454
hair and a little M 3404
have not i chosen M 3352
have not i already M 3342
have had a clearer M 3324
have but a feeble M 3304
have both a direct M 3251
have won a battle M 3238
having had a little M 3233
have not a common M 3226
hall for a moment M 3222
have for a friend M 3213
have had a lesson M 3204
have had a sudden M 3186
have you a little M 3132
have not a better M 3092
hard for a minute M 3078
hard that i thought M 3070
have had a degree M 3067
have put a little M 3012
have had a measure M 2963
have had a lively M 2943
have had a thought M 2934
have all a common M 2888
have had a brother M 2824
hair for a moment M 2809
hand was a little M 2776
have not a proper M 2760
have had a system M 2707
have got a pretty M 2688
have had a decent M 2488
have had a public M 2462
have set a record M 2450
have had a grudge M 2434
have got a number M 2415
have you a family M 2396
have had a varied M 2379
have had a formal M 2359
have got a chance M 2339
have had a battle M 2322
have had a violent M 2320
have had a purely M 2320
have read a letter M 2307
have had a simple M 2306
hard for a little M 2272
have had a crucial M 2269
have had a divine M 2264
have had a record M 2243
have had a mental M 2118
have and i always M 2106
have had a school M 2064
have but a minute M 2036
have had a vested M 2031
have had a closer M 2022
have you a better M 2011
have not a second M 1987
have put a strain M 1984
hair and a slight M 1976
have had a mighty M 1964
hand for a little M 1963
hand with a pointing M 1957
having got a little M 1942
have had a report M 1920
having had a severe M 1896
have had a useful M 1896
have had a modest M 1844
having had a number M 1836
have had a tragic M 1834
have not a prayer M 1822
have won a number M 1818
hair with a little M 1793
have had a sister M 1784
hair and a pretty M 1762
hair and a bright M 1752
hand with a sudden M 1750
have had a return M 1739
hard for a couple M 1732
have had a genius M 1693
have had a doctor M 1686
have not i taught M 1666
hand with a slight M 1666
have but a remote M 1619
hair and a square M 1608
hard for a modern M 1600
have not a greater M 1584
have had a horror M 1584
have you a letter M 1567
have now a better M 1532
have had a fearful M 1511
hand that i should M 1510
have had a training M 1509
have had a wooden M 1484
have both a higher M 1478
have had a stable M 1468
have had a creator M 1456
have each a special M 1450
have got a couple M 1444
hard and a little M 1426
have had a church M 1425
hard for a second M 1408
have not a direct M 1406
have had a future M 1388
hard for a parent M 1385
having had a letter M 1366
have for a person M 1356
have not a decent M 1332
hangs for a moment M 1332
hand with a gentle M 1332
have now a little M 1326
having had a common M 1323
hand with a double M 1307
having had a serious M 1306
have had a broken M 1278
have you a brother M 1268
have you a moment M 1264
having had a better M 1260
have for a little M 1259
have had a lesser M 1249
have not i proved M 1248
hand him a letter M 1246
hair with a gentle M 1246
hard that i almost M 1240
have you a friend M 1238
have not i enough M 1212
have had a parent M 1204
have had a market M 1202
have had a prayer M 1191
hair and a lovely M 1184
hall for a minute M 1181
have you a sister M 1179
having but a slight M 1174
have set a higher M 1173
hand and a number M 1172
hand and i thought M 1169
hand and a candle M 1168
have had a garden M 1166
have had a damaging M 1155
hanging for a moment M 1147
have had a female M 1145
have had a master M 1140
hair and a narrow M 1134
hard for a teacher M 1130
have set a better M 1115
having had a couple M 1109
have had a reaction M 1109
have had a teacher M 1102
have had a guilty M 1102
hall and a number M 1094
have had a design M 1084
hand with a wooden M 1084
hair was a bright M 1084
have had a volume M 1080
have put a severe M 1072
hand with a desire M 1072
hand was a letter M 1072
having for a number M 1066
have had a source M 1050
have not i thought M 1044
have lit a candle M 1042
having but a little M 1040
hair and a matching M 1032
have got a special M 1031
hand and a wooden M 1011
having had a special M 1008
having had a moment M 1000
have got a friend M 994
hair and a gentle M 984
having won a battle M 975
have not a choice M 974
have had a talent M 974
hair and a yellow M 969
having had a narrow M 964
have each a little M 964
have had a minute M 960
have had a temple M 958
have had a tedious M 958
have yet a chance M 948
hand and a couple M 945
hand for a couple M 941
have run a little M 940
hate with a passion M 940
have had a vastly M 937
have had a fighting M 935
have now a chance M 930
have had a hidden M 923
having had a family M 920
hard for a number M 912
having had a pretty M 907
have now a number M 906
have all i wanted M 906
having had a slight M 903
having had a second M 897
hand with a greater M 896
have had a summer M 895
hard for a better M 895
have put a number M 894
have had a bright M 893
hard for a writer M 892
have won a greater M 890
have had a mission M 890
have had a weight M 880
have yet a little M 878
have with a person M 874
hand and a second M 870
have but a narrow M 868
have had a famous M 866
have you a minute M 863
hall was a member M 862
hair and a serious M 860
have had a fright M 850
have you a special M 847
have had a regard M 842
have had a potent M 839
have had a remedy M 838
have things a little M 824
have cut a figure M 820
have had a disease M 816
have had a secure M 813
having had a course M 809
have had a subtle M 808
have had a clearly M 806
have with a friend M 804
have had a standing M 799
have had a person M 796
have thus a double M 795
have not a special M 794
having had a proper M 790
have had a rotten M 788
have had a modern M 782
hair and a deeply M 782
hand out a little M 776
hand and a letter M 775
have but a shadow M 774
have set a course M 770
have had a profit M 767
have them a little M 766
have both a greater M 758
have had a horrid M 754
have had a decade M 751
have read a report M 748
have both a family M 747
having read a number M 746
have had a belief M 742
have him a little M 736
hair with a slight M 734
have not i worked M 732
hair and a figure M 731
have had a mutual M 730
have had a glance M 730
have now a greater M 725
hand and i looked M 720
hall for a public M 720
having read a letter M 718
have got a second M 718
have had a lonely M 717
hard for a fellow M 717
have now a double M 716
have had a supply M 716
hall was a little M 716
have had a goodly M 712
hand for a number M 710
have had a square M 709
have had a deeply M 708
have had a camera M 708
have for a decade M 703
have had a fellow M 702
have had a crossing M 701
have put a greater M 696
have you a garden M 692
have both a common M 691
have now a pretty M 690
having had a greater M 686
having now a little M 684
have had a sacred M 682
having had a direct M 681
having read a little M 680
have not i myself M 678
have got a fairly M 670
have had a priest M 668
have both a public M 662
have had a crisis M 659
have not i warned M 656
hand with a special M 654
have not i learned M 648
have had a wholly M 648
having had a brother M 646
hand with a degree M 645
have run a number M 644
have had a kindly M 644
hard and i thought M 644
have had a sample M 641
have you a doctor M 640
have now a letter M 640
have not a desire M 638
have both a formal M 636
have won a measure M 634
half that i waited M 630
have won a second M 628
have now a fairly M 626
have had a shared M 625
hand with a belief M 624
hand with a strength M 622
have had a global M 621
have had a causal M 621
hand and a branch M 620
having had a friend M 618
have yet a further M 614
hand and a desire M 614
halt for a couple M 612
have led a normal M 608
have had a member M 606
have for a brother M 606
have with a client M 605
hand with a strange M 605
have not a spirit M 604
have not a number M 604
hand with a number M 604
hard for a family M 601
have had a memory M 598
have but a fleeting M 598
have had a united M 594
hand and a prayer M 593
have now a second M 588
have not i waited M 586
hair was a darker M 586
have let a little M 584
have had a remote M 584
have had a mentor M 582
hard with a wooden M 579
have had a speech M 576
hand and a slight M 576
have had a window M 570
hair and a kindly M 568
have run a course M 566
hand you a letter M 563
hair for a second M 563
hall for a little M 562
hair was a symbol M 562
have you a secret M 560
have had a fleeting M 560
have for a couple M 560
have got a higher M 559
have had a debate M 558
having but a feeble M 556
hall with a little M 556
have had a latent M 553
have you a permit M 552
have you a desire M 552
have got a lovely M 548
have had a triple M 547
have put a serious M 546
half and a bottom M 546
have that i should M 544
hall for a couple M 544
have read a volume M 538
having with a friend M 536
having had a sister M 534
have for a better M 533
hall for a second M 533
have won a little M 528
have thus a common M 526
have had a client M 526
have each a number M 524
have put a couple M 522
have got a system M 522
hanging out a window M 520
hand and a goblet M 520
hair and i thought M 518
have had a strict M 516
hard for a doctor M 516
hand and a broken M 515
have led a fairly M 514
have each a church M 511
hall with a wooden M 507
have had a gentle M 506
have each a double M 506
have set a number M 504
have not a simple M 500
having had a fairly M 497
have but a second M 497
have had a castle M 496
have not i treated M 494
have had a limiting M 492
hair with a wooden M 492
hand with a higher M 488
hair for a minute M 487
hall and a church M 486
have had a signal M 485
have had a winter M 484
have led a double M 482
hard that a person M 482
have but a simple M 480
hand and a gentle M 480
having had a violent M 478
have not a secret M 478
have got a report M 478
hand her a letter M 478
have had a scheme M 474
hand and a double M 474
hall with a number M 474
having not a little M 472
having for a friend M 472
have had a branch M 472
have read a couple M 468
have had a spirit M 468
have yet a higher M 467
have had a furious M 467
have put a higher M 466
hand with a simple M 464
having had a formal M 462
have had a slower M 462
have had a lawful M 461
have not a brother M 456
have had a younger M 456
hand and a bright M 456
have they a common M 454
have led a person M 454
have had a strain M 454
hand and a member M 454
have but a choice M 452
halt for a little M 452
have put a special M 448
have cut a better M 446
hand with a kindly M 446
hand and a loaded M 446
have got a common M 445
hate and a desire M 445
hair and a broken M 445
having had a normal M 444
have got a greater M 444
hall was a raised M 444
have not a square M 443
have had a building M 443
have got a lesson M 442
have got a decent M 440
have not a letter M 437
having had a lesson M 436
have had a former M 436
have got a proper M 436
have for a sister M 436
have got a secret M 434
have but a common M 434
have put a second M 432
have with a little M 430
have got a family M 429
have had a visual M 428
hand with a pretty M 425
have not a larger M 424
have got a larger M 424
hand with a letter M 423
have led a lonely M 422
have had a middle M 422
hand and a mighty M 422
have not a pretty M 420
have read a lesson M 418
have for a future M 417
have now a larger M 416
have got a slight M 416
harm than a little M 416
halt for a second M 416
have had a credit M 410
have got a double M 410
hair and a turned M 410
have not a church M 408
have all a lively M 408
have for a common M 400
have had a custom M 398
hall with a raised M 398
hall and a public M 398
hand with a curious M 397
have had a twenty M 394
hair had a slight M 394
hair and a double M 393
have had a figure M 392
have for a second M 388
hall and a couple M 386
hand and i pulled M 385
hair with a special M 384
hand with a marked M 383
have not a family M 382
have had a handle M 382
halt for a minute M 382
have for a teacher M 378
have had a unifying M 377
hair and a couple M 376
have not i gotten M 375
hall with a double M 375
have not a system M 374
hand and a yellow M 374
have all a direct M 372
having but a narrow M 370
have for a belief M 370
have got a scheme M 369
have not a talent M 368
have all a family M 368
hand and a square M 368
have now a secret M 366
hard for a novice M 366
have you a second M 364
have had a shadow M 364
hair and a purple M 363
have now a system M 362
have now a common M 362
have not a double M 362
have had a widely M 360
have had a version M 360
have both a normal M 358
have won a signal M 354
have won a secure M 354
have had a result M 354
hand with a bright M 354
hand was a common M 354
having had a return M 353
have now a special M 352
have not i served M 352
have had a ground M 352
have for a master M 352
have got a master M 351
have not a supply M 350
having had a disease M 349
have not i helped M 348
have led a pretty M 348
hate him a little M 348
hand for a better M 348
having had a desire M 346
hall for a number M 346
hall and a little M 346
have you a couple M 344
hand for a further M 344
hand and a volume M 344
hair was a lovely M 344
having had a thought M 343
have got a supply M 343
have had a merely M 342
hand him a little M 342
hair and a lively M 342
have but a finite M 340
hair was a wonder M 340
have had a poorer M 339
have thus a simple M 338
have had a silent M 338
have had a gloomy M 338
hall are a number M 338
have run a better M 337
have got a direct M 337
have all a better M 335
hand with a further M 335
hand with a broken M 334
hand and a system M 334
hand and a camera M 334
have now a clearer M 332
have had a strength M 332
have both a special M 332
having had a secret M 330
have had a feeble M 329
have run a serious M 328
have put a better M 328
have got a serious M 327
hand with a couple M 327
have won a couple M 326
have not a jealous M 326
hand and a strange M 326
hand and a kindly M 326
have not a higher M 325
having had a sudden M 324
have had a joyous M 324
have for a system M 324
have cut a pretty M 324
have got a strange M 323
having had a double M 322
have you a system M 322
have then a double M 322
hand and a vessel M 322
half and a little M 321
hand with a second M 319
have yet a friend M 318
have not i looked M 318
hard for a chance M 318
hall and a school M 317
have not a genius M 316
having but a shadow M 314
have had a mortal M 314
have led a wicked M 312
have had a charge M 312
hand with a system M 311
have read a speech M 310
have not a garden M 310
have both a larger M 310
hair with a yellow M 310
have yet a greater M 308
have won a degree M 308
have not i proven M 308
have not a sister M 308
have had a covering M 308
hast not a friend M 308
hard for a member M 308
hall with a friend M 308
have had a rebirth M 307
have not a record M 306
hard and i wanted M 306
hair and a manner M 306
hand with a return M 305
hate being a burden M 304
have but a couple M 302
hand and a simple M 302
hair for a couple M 302
having had a mental M 300
having had a choice M 300
have got a fright M 299
having had a teacher M 298
have won a higher M 298
having had a mentor M 296
have won a special M 296
have thus a direct M 296
have got a spirit M 296
have not i turned M 294
hall was a common M 294
have yet a better M 293
hand that a person M 293
hand and a folded M 293
have had a vessel M 292
have both a mental M 292
hair was a fright M 292
have had a raised M 291
have got a degree M 290
have but a modest M 290
hand with a brother M 290
hate her a little M 289
have thus a greater M 288
have got a sister M 288
hand with a glance M 288
hall with a letter M 288
hall was a building M 288
hand was a measuring M 287
have had a notice M 286
hate for a parent M 286
hair and a severe M 286
have you a school M 284
have not i changed M 284
have had a wasted M 284
have had a backup M 284
have cut a strange M 284
have are a number M 284
hanging out a little M 284
hair and a strange M 284
have had a starting M 283
have got a mighty M 283
having put a little M 282
have had a stupid M 282
have for a fellow M 282
have each a simple M 282
hair was a source M 282
have won a larger M 280
have thus a special M 280
have both a visual M 280
have not a public M 278
have had a greatly M 277
have won a friend M 276
hall for a special M 276
hard for a normal M 275
have you a pretty M 274
have now a direct M 274
have had a murder M 274
hand was a symbol M 274
have one a little M 272
have had a deadening M 272
have got a grudge M 272
hand and a garden M 272
have all a little M 271
have not a memory M 270
have had a corner M 270
have all i desire M 270
harm can a little M 270
hand and i wanted M 270
hand and a closed M 270
have got a return M 269
have had a humble M 268
have for a normal M 268
have but a wooden M 268
hand with a highly M 268
hand and a greater M 268
have for a family M 267
having got a letter M 266
have had a clause M 266
hand and i walked M 266
hair was a matter M 266
hair cut a little M 266
hair and a simple M 266
having had a public M 265
having had a higher M 265
hard with a little M 265
having had a parent M 264
hand and a better M 264
have you a thought M 263
having had a decent M 262
have thus a second M 262
have put a notice M 262
have led a united M 262
have had a joyful M 262
hard for a mortal M 262
hand and i turned M 261
half with a little M 261
have not i killed M 260
have both a number M 260
hand and a moment M 260
have put a double M 259
have had a milder M 259
have now a choice M 258
half with a strange M 257
having lit a candle M 256
have had a legend M 256
hard being a parent M 256
halt for a number M 256
hair and a medium M 256
have had a defect M 254
hand with a serious M 254
hand was a matter M 254
hand and a larger M 254
have had a legacy M 253
have read a second M 252
have not a future M 252
have for a course M 252
have both a better M 252
hard for a simple M 252
hand has a higher M 251
hate you a little M 250
have had a column M 249
hast had a narrow M 249
have not a divine M 248
have got a clearer M 248
harm that a person M 248
hand and a person M 248
hand and a battle M 248
have now a higher M 247
hand you a little M 247
have they a greater M 246
have not a person M 246
have led a simple M 246
have had a colour M 246
hand with a lovely M 246
hair for a little M 246
have not i prayed M 244
have both a starting M 244
hand yet a second M 244
hand with a violent M 244
hand him a couple M 244
having won a number M 242
having had a master M 242
having each a special M 242
having but a remote M 242
have not a corner M 242
have had a heavier M 241
hand and a highly M 241
having had a larger M 240
have they a special M 240
have had a timely M 240
have had a burden M 240
hard for a speaker M 240
have you a record M 238
have got a brother M 238
have for a special M 238
have for a modern M 238
hair with a bright M 238
have you a stable M 236
have thus a number M 236
have run a greater M 236
have had a circle M 236
hall with a couple M 236
having for a little M 234
have him a friend M 234
have had a prince M 234
have for a client M 234
hard for a common M 234
hair and a heavily M 234
have for a parent M 232
have cut a curious M 232
hand with a better M 232
half was a little M 232
have that a person M 230
have not i caught M 230
have her a common M 230
have had a rooted M 230
hand with a mighty M 230
hall than a church M 230
hair and a laughing M 230
hard for a friend M 229
have now a further M 228
have had a finite M 228
hall and a moment M 228
have was a curious M 226
have had a plenty M 226
hand and a purely M 226
hand and a minute M 225
have now a strength M 224
have not a couple M 224
have her a little M 224
have had a closed M 224
hand had a slight M 224
hand and a remote M 224
have had a random M 223
have got a severe M 223
hand with a passion M 223
have had a street M 222
have both a unique M 222
hand with a friend M 222
have with a member M 220
have set a phrase M 220
have had a verbal M 220
hard for a worker M 220
hand and a measuring M 220
hall with a square M 220
hall and i thought M 220
having run a course M 218
have not a serious M 218
have led a strange M 218
have had a touching M 218
hand was a branch M 218
hand and a special M 218
have got a broken M 216
hard for a public M 216
hair and a wicked M 216
hand for a closer M 215
hair and a deeper M 215
have with a parent M 214
have run a chance M 214
have read a demand M 214
have not a deeper M 214
have had a prompt M 214
have had a deciding M 214
hand and a narrow M 214
hair and a darker M 213
having read a report M 212
having had a unique M 212
having both a direct M 212
have got a record M 212
half and a second M 212
having had a mortal M 210
have put a sudden M 210
have not i become M 210
have had a mention M 210
hard that i became M 210
having all a common M 208
have then a system M 208
have them a pretty M 208
have had a fitter M 208
have had a failed M 208
have got a choice M 208
hand was a wooden M 208
hair and a curious M 208
hand are a number M 207
have put a burden M 206
have had a wicked M 206
have had a safety M 206
have both a summer M 206
harm that i should M 206
having had a marked M 205
have got a simple M 205
have with a family M 204
have not i raised M 204
have not i played M 204
hard for a decent M 204
hand with a camera M 204
hand and i opened M 204
hard for a school M 203
having but a moment M 202
have now a simple M 202
have had a weekly M 202
have all a marked M 202
hard that a little M 202
hard and a wicked M 202
hand with a silent M 202
hand with a larger M 202
hand and i should M 201
having had a design M 200
have you a remedy M 200
have led a better M 200
have had a yellow M 200
have cut a little M 200
hard for a larger M 200
hand was a simple M 200
have got a fellow M 199
have they a better M 198
have put a person M 198
have had a learned M 198
hand with a weakening M 198
hall and a narrow M 198
hair had a little M 198
have had a darker M 197
hate for a person M 196
hand and a handle M 196
having had a deeper M 194
have led a serious M 194
have had a weakening M 194
have had a margin M 194
have not a merely M 192
have had a defining M 192
have are a result M 192
have and a little M 192
hard that i forgot M 192
hard for a client M 192
hair going a little M 192
have won a record M 191
having had a former M 190
have thus a system M 190
have then a common M 190
have each a spirit M 190
hand for a formal M 190
hall and a second M 190
hair was a folded M 190
having read a system M 188
have had a twelve M 188
have had a reward M 188
have had a mainly M 188
hanging for a second M 188
hand with a common M 188
hand and a glance M 188
hall was a narrow M 188
hall was a gloomy M 188
have read a better M 186
have now a church M 186
have had a mystic M 186
hand and a serious M 186
have won a better M 185
having set a record M 184
have you a lively M 184
have with a number M 184
have read a notice M 184
have had a centre M 184
have got a priest M 184
have got a handle M 184
hall with a window M 184
hair with a couple M 184
have not i spoken M 183
having run a little M 182
have had a proven M 182
hand was a member M 182
hair with a broken M 182
hard for a return M 181
have sat a little M 180
have each a narrow M 180
have all a greater M 180
having won a second M 178
having got a learned M 178
have with a system M 178
have put a larger M 178
have not i passed M 178
have not a doctor M 178
hand that i seemed M 178
have now a public M 177
have they a chance M 176
have him a member M 176
have had a demand M 176
have both a stable M 176
hair with a matching M 176
hair with a centre M 176
having thus a common M 174
have this a little M 174
have now a unique M 174
have led a charge M 174
have had a permit M 174
have had a nature M 174
have had a follow M 174
hand with a feeble M 174
hand with a demand M 174
hand that i thought M 174
hand her a little M 174
hand was a folded M 173
hand and a higher M 173
having read a couple M 172
have you a proper M 172
have not a return M 172
have had a screen M 172
have had a matter M 172
have for a reward M 172
have both a source M 172
hand and a symbol M 172
hair and a passion M 172
have had a swimming M 171
hand with a secret M 171
having got a pretty M 170
have got a curious M 170
hard and i should M 170
hand was a figure M 170
hall was a former M 170
hair was a medium M 170
hair was a common M 170
hair not a little M 170
hair has a little M 170
have thus a further M 169
hard for a system M 169
hair was a pretty M 169
have not a passion M 168
have not a lively M 168
have both a global M 168
hand and a tablet M 168
hair was a strange M 168
hard for a female M 167
have run a fairly M 166
have not i called M 166
have not i bought M 166
have had a printing M 166
have had a grudging M 166
have got a person M 166
have each a common M 166
hall was a window M 166
hair with a narrow M 166
have both a degree M 165
have won a famous M 164
have all a chance M 164
hand and a pretty M 164
hand and a measure M 164
hair out a little M 164
have now a school M 163
having had a school M 162
having had a report M 162
have not i should M 162
have not a stupid M 162
have got a disease M 162
have cut a number M 162
hall was a wooden M 162
hair and a letter M 162
having got a better M 161
have had a candle M 161
have got a school M 161
hand him a twenty M 161
have run a second M 160
have run a couple M 160
have put a pretty M 160
have not a priest M 160
have not a permit M 160
have led a curious M 160
have got a doctor M 160
have each a proper M 160
hand with a deeper M 160
hand and a chance M 159
have run a normal M 158
have not a degree M 158
have had a jealous M 158
have each a window M 158
have and i should M 158
have all a special M 158
have all a parent M 158
hand with a modest M 158
hand using a simple M 158
hand and a wrench M 158
hand and a demand M 158
hall was a changed M 158
half and a female M 158
hair with a simple M 158
have got a sudden M 156
have each a course M 156
hand was a tedious M 156
having had a battle M 154
have put a further M 154
have not a teacher M 154
have got a further M 154
have each a prayer M 154
have but a verbal M 154
hard that i failed M 154
hard that a couple M 154
hard for a priest M 154
hand and i reached M 154
hand and a modern M 154
have got a famous M 153
having had a square M 152
having both a family M 152
have set a unique M 152
have had a worrying M 152
have had a mature M 152
have had a center M 152
have got a female M 152
have had a stress M 151
hair and a button M 151
have not a nature M 150
have had a something M 150
have for a simple M 150
have both a highly M 150
hard for a modest M 150
hand with a spirit M 150
hand was a sacred M 150
hand has a number M 150
hall and a member M 150
hair got a little M 150
hair and a modest M 150
hand with a poorly M 149
hand with a closed M 149
hand and a raised M 149
having not a moment M 148
having had a shadow M 148
having had a highly M 148
have you a report M 148
have you a choice M 148
have yet a lively M 148
have then a number M 148
have him a common M 148
have had a vicious M 148
have had a gender M 148
have had a combat M 148
have for a school M 148
have but a family M 148
hard for a critic M 148
hand with a folded M 148
hand him a loaded M 148
hand but a little M 148
hall hung a richly M 148
have each a marked M 147
hall and a swimming M 147
have put a slight M 146
have got a measure M 146
have for a decent M 146
hard for a reward M 146
hand was a bright M 146
hand and a friend M 146
hair and i wanted M 146
hair and i looked M 146
halt with a sudden M 145
having had a lovely M 144
have you a member M 144
have had a prison M 144
have got a training M 144
have got a future M 144
have each a second M 144
have both a simple M 144
hard for a greater M 144
hand and i placed M 144
hand and a further M 144
hall was a friend M 144
have not a school M 143
hand with a square M 143
having had a closer M 142
have won a narrow M 142
have then a simple M 142
have not a strict M 142
have had a script M 142
have for a proper M 142
have for a fairly M 142
hand was a strange M 142
hand and a common M 142
hall was a second M 142
having for a second M 141
hand with a formal M 141
having had a fright M 140
have thus a curious M 140
have then a second M 140
have then a greater M 140
have run a school M 140
have read i should M 140
have had i should M 140
have had a monthly M 140
have had a heroic M 140
have got a wooden M 140
have got a result M 140
have each a square M 140
have both a desire M 140
hall has a double M 140
hard for a higher M 139
hand was a yellow M 139
hand out a couple M 139
hand and a return M 139
having won a little M 138
having had a female M 138
have yet a common M 138
have won a mighty M 138
have with a beggar M 138
have read a tragic M 138
have put a clause M 138
have not i begged M 138
have all a double M 138
hall with a strange M 138
having had a tedious M 136
having had a church M 136
have then a better M 136
have got a violent M 136
have got a standing M 136
have got a bright M 136
have both a master M 136
hand for a special M 136
hall and a building M 136
hair with a purple M 135
hair and a number M 135
having won a signal M 134
have was a little M 134
have not a report M 134
have had a reality M 134
have got a colour M 134
hard for a special M 134
hair for a covering M 134
hand that a little M 133
having had a mission M 132
have not a lawful M 132
have got a goodly M 132
hate and a defiant M 132
hand with a strict M 132
hand for a fleeting M 132
hand and a female M 131
having sat a little M 130
having had a strange M 130
having each a little M 130
have you a public M 130
have that a little M 130
have read a record M 130
have put a speech M 130
have not i something M 130
have and i thought M 130
hard for a brother M 130
hand him a second M 130
hand are a little M 130
hand and a source M 130
hall and a garden M 130
half for a couple M 130
hand with a wrench M 129
having now a greater M 128
having had a training M 128
having had a charge M 128
having both a divine M 128
have you a number M 128
have you a decent M 128
have had a helper M 128
have got a church M 128
have but a gloomy M 128
have but a desire M 128
have all i needed M 128
hard for a younger M 128
hard for a vessel M 128
hard for a pretty M 128
hangs for a second M 128
hand with a proper M 128
hand for a proper M 127
having had a guilty M 126
having got a supply M 126
have with a teacher M 126
have with a larger M 126
have put a direct M 126
have not a stable M 126
have had a bleeding M 126
have got a remedy M 126
have got a garden M 126
have cut a narrow M 126
hard and i worked M 126
hand was a second M 126
hair was a yellow M 126
hand with a narrow M 125
half for a second M 125
having had a famous M 124
having for a common M 124
have you a camera M 124
have thus a chance M 124
have set a greater M 124
have had a voyage M 124
have got a volume M 124
have got a lively M 124
have both a double M 124
hard that a common M 124
hand and i helped M 124
hand that i wanted M 123
hand and a severe M 123
having yet a little M 122
having led a useful M 122
having had a glance M 122
having had a further M 122
have you a passion M 122
have you a mission M 122
have you a common M 122
have yet a second M 122
have thus a better M 122
hating him a little M 122
hand for a common M 122
hand and i passed M 122
hand and a sudden M 122
hand and a stable M 122
hair has a slight M 122
having had a record M 121
hand with a person M 121
having not a shadow M 120
having had a temple M 120
having had a simple M 120
having had a prince M 120
having had a mutual M 120
have not a remote M 120
have had a gospel M 120
have had a corpse M 120
have each a garden M 120
have both a narrow M 120
have are a couple M 120
hand was a serious M 120
hand and i almost M 120
hall with a candle M 120
hair and a wooden M 120
hand with a normal M 119
hand with a lively M 119
hair with a pretty M 119
having things a little M 118
having had a stable M 118
have you a degree M 118
have then a chance M 118
have set a little M 118
have for a member M 118
have both a verbal M 118
have both a divine M 118
hard for a master M 118
hand has a greater M 118
hand and a public M 118
hall has a volume M 118
hall and i looked M 118
hand for a signal M 117
hand for a chance M 117
hand and a record M 117
having had a sample M 116
having had a divine M 116
have read a curious M 116
have now a narrow M 116
have now a lively M 116
have now a favour M 116
have not a belief M 116
have had a simply M 116
have had a mildly M 116
have had a costly M 116
have had a cellar M 116
have had a blessing M 116
have got a horrid M 116
have both a little M 116
hard for a middle M 116
hand with a candle M 116
hand that a moment M 116
hand has a chance M 116
hall and a common M 116
hair with a sudden M 116
have you a double M 115
have got a notice M 115
hall and a market M 115
having bid a formal M 114
have set a useful M 114
have not a member M 114
have had a hatred M 114
have each a greater M 114
hard for a decade M 114
hand with a vicious M 114
hand was a candle M 114
hand has a special M 114
hand but i pulled M 114
hand and a circle M 114
hair and a shadow M 114
have had a doubly M 113
have got a yellow M 113
have for a minute M 113
have both a middle M 113
have you a candle M 112
have had a wingspan M 112
have had a factor M 112
have got a plenty M 112
have but a chance M 112
have are a little M 112
hard that i barely M 112
hand was a curious M 112
hand for a simple M 112
hand and a wicked M 112
hand and a belief M 112
hair with a curious M 112
hair and a highly M 112
have thus a higher M 111
have had a loaded M 111
hand with a widening M 111
hand and a family M 111
hair with a second M 111
having set a course M 110
have put a lesser M 110
have now a supply M 110
have led a useful M 110
have had a sorrow M 110
have got a vessel M 110
have both a proper M 110
have both a market M 110
have both a female M 110
hard that i wanted M 110
hand and a degree M 110
hall with a sudden M 110
hall with a screen M 110
hair was a burden M 110
have won a double M 109
have had a slowly M 109
have had a medium M 109
have got a public M 109
have got a divine M 109
hair with a center M 109
having had a varied M 108
having had a speech M 108
having both a higher M 108
have set a special M 108
have led a modern M 108
have had a sadder M 108
have had a mostly M 108
have had a becoming M 108
have got a former M 108
have for a younger M 108
have for a stable M 108
hand for a friend M 108
hand and a master M 108
hair and a middle M 108
hair and a killer M 108
hard for a degree M 107
have yet a future M 106
have read a wicked M 106
have not a unique M 106
have not a purely M 106
have not a normal M 106
have not a master M 106
have not a candle M 106
hand with a forced M 106
hand using a special M 106
hand him a folded M 106
hand and a strict M 106
hand and a silent M 106
hall was a double M 106
hair and a stupid M 106
hair and a feeble M 106
have not a clearer M 105
have had a stated M 105
hall was a square M 105
having read a volume M 104
have with a couple M 104
have thus a unique M 104
have them a second M 104
have put a letter M 104
have not i toiled M 104
have got a rotten M 104
have cut a second M 104
hate that i missed M 104
hard with a kindly M 104
hard and i always M 104
hand and a sacred M 104
hand and a fairly M 104
hair and a fairly M 104
hair and a direct M 104
hand with a reform M 103
hand for a greeting M 103
half had a family M 103
have you a prayer M 102
have you a grudge M 102
have run a pretty M 102
have now a friend M 102
have had a speaker M 102
have had a gathering M 102
have got a camera M 102
hate them a little M 102
hard that i wonder M 102
hand with a supply M 102
hand him a wrench M 102
hand and a corner M 102
hair and a second M 102
have you a church M 101
having had a becoming M 100
having each a common M 100
have you a chance M 100
have won a glance M 100
have put a modern M 100
have not a charge M 100
have led a secret M 100
have led a decent M 100
have hid a little M 100
have had a creation M 100
have had a carrying M 100
have but a purely M 100
have both a measure M 100
hand with a fearful M 100
hand for a younger M 100
hand and a clearer M 100
hall with a narrow M 100
hall with a bright M 100
hair with a safety M 100
hair had a strange M 100
hair being a lovely M 100
hair and a safety M 100
have had a blinding M 99
hand and a twenty M 99
half with a narrow M 99
having had a secure M 98
having had a minute M 98
having for a decade M 98
have not a regret M 98
have not a grudge M 98
have got a passion M 98
have got a charge M 98
have for a finite M 98
have each a unique M 98
have each a market M 98
harm was a result M 98
hard for a direct M 98
hanging for a couple M 98
hand was a weight M 98
hand for a gentle M 98
hand but i learned M 98
hand and a spirit M 98
hall than a temple M 98
hall had a special M 98
half for a future M 98
hair has a higher M 98
having for a fellow M 97
having then a design M 96
having put a couple M 96
having had a spirit M 96
have won a direct M 96
have thus a fairly M 96
have then a volume M 96
have set a bright M 96
have put a charge M 96
have now a mighty M 96
have not i brains M 96
have led a varied M 96
have led a spirit M 96
have led a purely M 96
have had i stayed M 96
have had a winner M 96
have had a relief M 96
have had a liquid M 96
have for a greater M 96
hard for a pardon M 96
hand was a mighty M 96
hand that a number M 96
hand for a blessing M 96
hand and i caught M 96
hand and i became M 96
hand and a curious M 96
hall was a highly M 96
hair that i thought M 96
have led a highly M 95
have had a forced M 95
half and i thought M 95
having now a special M 94
having had a passion M 94
have you a shadow M 94
have you a sample M 94
have not i walked M 94
have not a remedy M 94
have her a moment M 94
have had a border M 94
have got a unique M 94
have each a larger M 94
have cut a poorer M 94
have but a glance M 94
hard for a serious M 94
hand was a source M 94
hand was a narrow M 94
hand her a couple M 94
hand for a letter M 94
hand for a battle M 94
hand and i pushed M 94
hall with a simple M 94
have not a marked M 93
have had a cleansing M 93
hard for a formal M 93
hand was a broken M 93
hand and a school M 93
hall was a centre M 93
having had a strict M 92
having had a harder M 92
having had a doctor M 92
having both a public M 92
have you a strange M 92
have you a person M 92
have won a unique M 92
have won a pardon M 92
have with a fellow M 92
have thus a record M 92
have then a special M 92
have now a record M 92
have not a bright M 92
have had a button M 92
have got a teacher M 92
have both a system M 92
have both a finite M 92
have and i wanted M 92
hate for a moment M 92
hard for a victim M 92
hand and i smiled M 92
hand and i called M 92
hand and a direct M 92
hall was a public M 92
hall was a better M 92
hall and a temple M 92
hair with a violent M 92
have put a thought M 91
having now a pretty M 90
having had a notice M 90
having got a strange M 90
have put a hyphen M 90
have now a horror M 90
have now a family M 90
have now a desire M 90
have got a window M 90
have got a wholly M 90
harm and a serious M 90
hard and i looked M 90
hand and a priest M 90
hand and a normal M 90
hand and a market M 90
hall had a wooden M 90
half with a wooden M 90
hair and a younger M 90
hate with a hatred M 89
hard for a church M 89
hand with a severe M 89
hand was a double M 89
having thus a couple M 88
having but a second M 88
have won a serious M 88
have thus a little M 88
have now a goodly M 88
have not a window M 88
have not a camera M 88
have let a couple M 88
have led a lesser M 88
have had a wisdom M 88
have had a manner M 88
have had a hugely M 88
harm and i should M 88
hard for a twenty M 88
hand with a pleased M 88
hand with a blessing M 88
hand and a marked M 88
hand and a bleeding M 88
hall was a closed M 88
hall for a school M 88
hair was a couple M 88
have for a pretty M 87
hand with a modern M 87
hand with a direct M 87
hand had a double M 87
hall for a further M 87
having them a little M 86
having had a broken M 86
having got a number M 86
have thus a measure M 86
have read a version M 86
have now a proper M 86
have not a volume M 86
have not a closed M 86
have let a letter M 86
have had a delaying M 86
have had a caller M 86
have got a blessing M 86
have for a result M 86
have each a degree M 86
hard and i needed M 86
hanging for a little M 86
hand was a signal M 86
hand using a wooden M 86
hand for a person M 86
hand for a decade M 86
hand but i wished M 86
hand and a speech M 86
hand and a scared M 86
hand and a mental M 86
hall has a number M 86
half with a special M 86
hair was a result M 86
hair was a curious M 86
hair and a handle M 86
hard that a fellow M 85
hand and a proper M 85
hair and a female M 85
having with a client M 84
having had a wooden M 84
having got a permit M 84
having got a couple M 84
having for a couple M 84
having both a greater M 84
have you a safety M 84
have you a priest M 84
have you a guilty M 84
have won a modest M 84
have won a debate M 84
have with a simple M 84
have with a school M 84
have that i wanted M 84
have put a marker M 84
have not i dreamed M 84
have not a lovely M 84
have not a battle M 84
have had a symbol M 84
have had a realizing M 84
hand them a letter M 84
hand and a united M 84
hall with a special M 84
hair has a spiral M 84
have had a spoken M 83
have had a dwelling M 83
have got a custom M 83
hard for a proper M 83
hair for a better M 83
having read a notice M 82
having now a better M 82
having had a crucial M 82
have yet a building M 82
have now a demand M 82
have now a closed M 82
have not a violent M 82
have not a vessel M 82
have not a strength M 82
have her a mortal M 82
have got a legacy M 82
have for a prince M 82
have both a school M 82
hate being a sister M 82
hast put a sudden M 82
hangs out a little M 82
hand with a barely M 82
hand was a special M 82
hand and i raised M 82
hand and a vicious M 82
hand and a figure M 82
hall with a pretty M 82
hall and i waited M 82
hall and a further M 82
hair for a special M 82
hand out a simple M 81
having thus a double M 80
having had a modest M 80
having got a slight M 80
having cut a number M 80
having both a larger M 80
have yet a larger M 80
have now a speech M 80
have not i agreed M 80
have not a hermit M 80
have led a little M 80
have had a buffer M 80
have got a permit M 80
have each a direct M 80
have cut a couple M 80
have all a strange M 80
hard and i played M 80
hand was a highly M 80
hand and a supply M 80
half being a simple M 80
hair with a lovely M 80
hair was a deeper M 71
have had a labour M 68
hard for a future M 66
hand her a twenty M 65
hast but a little M 63
half that i wanted M 62
have both a checking M 61
hand and i hasten M 60
hand with a crisis M 57
half that i wished M 56
hate that i should M 55
half that i should M 55
hand with a twenty M 53
hand was a square M 53
have let a fellow M 51
have had a favour M 51
hall was a fellow M 51
hanging out a signal M 48
hand has a better M 48
have all a higher M 47
hard for a twelve M 47
hand with a fairly M 47
having won a record M 46
have each a school M 46
hard for a further M 46
half and a square M 46
have had a matching M 45
have had a manual M 45
have both a shared M 45
hand with a greeting M 45
have had a trauma M 44
have got a square M 44
hard for a united M 44
hanging was a common M 44
hand out a second M 44
have not a broken M 43
have had a bottom M 43
hand for a double M 43
hand and a button M 43
hall was a simple M 43
have not a street M 42
hand with a market M 42
hand and a future M 42
halt with a broken M 42
have won a public M 41
have won a further M 41
have with a female M 41
have then a further M 41
have had a checking M 41
hand with a deeply M 41
have for a public M 40
have for a larger M 40
hanging was a public M 40
hand with a yellow M 40
hand with a stress M 40
hand with a purely M 40
hand for a direct M 40
have had a stroke D 13878
have had a recent D 9952
have had a series D 9090
have had a motive D 6401
hand and a bottle D 5939
have met a number D 5898
have had a career D 5645
hand and a pistol D 4524
have had a sexual D 3405
have had a singular D 3315
have put a bullet D 3220
hand and a shield D 3041
have had a charming D 2911
have not a shilling D 2757
have had a sobering D 2660
have not a dollar D 2560
have had a bitter D 2494
have had a policy D 2475
hair was a tangled D 2370
have had a bigger D 2337
hair with a golden D 2300
hand and a dagger D 2249
have had a striking D 2218
have had a million D 2202
have had a partial D 2175
hand and a bundle D 2121
hand and a pencil D 2075
have had a chilling D 2016
having had a stroke D 1998
have put a damper D 1804
have but a partial D 1781
hand and a basket D 1673
have had a ritual D 1634
have had a stormy D 1581
have you a pencil D 1548
hair and a goatee D 1536
hand and a hammer D 1398
have both a career D 1334
have but a scanty D 1316
having had a sexual D 1308
have had a shrewd D 1306
hand with a hammer D 1285
have had a french D 1255
hand with a needle D 1247
have met a person D 1184
hand and a bucket D 1156
have met a violent D 1148
have had a tender D 1104
hall and a chapel D 1104
have had a fairer D 1094
have set a target D 1030
have not a morsel D 1017
hair and a sallow D 1002
have had a fuller D 998
hand with a pencil D 977
hair was a golden D 962
have had a dinner D 944
hair with a ribbon D 914
have had a shower D 912
have had a statue D 896
hair and a drooping D 891
have had a portion D 883
hair and a swarthy D 858
have had a dismal D 849
hair and a golden D 845
hair and a florid D 844
have had a keener D 842
have met a friend D 841
hand and a quiver D 840
have not a tittle D 836
hair and a boyish D 830
hand and a rosary D 828
hair and a pencil D 824
have had a warmer D 816
having had a series D 814
hand with a cordial D 810
hand and a silver D 810
hair with a silver D 808
hand and a mirror D 805
have set a fashion D 802
hand and a rattle D 792
have for a series D 768
hand and a flower D 765
have had a palace D 759
have had a lawyer D 756
hand was a silver D 750
hair and a silver D 750
have had a bloody D 748
have not a copper D 739
have but a trifling D 729
hand and a bullet D 726
have had a native D 722
hawk war i fought D 717
hair and a tanned D 712
have had a golden D 706
have had a bottle D 704
have had a morbid D 700
hand was a pistol D 698
have had a height D 694
hand and a scroll D 674
have had a shocking D 672
have not a stitch D 670
have but a portion D 666
have now a redder D 658
hand and a golden D 658
have had a cardiac D 650
hand and a shovel D 644
hand and a trowel D 642
hard with a hammer D 641
have had a richer D 636
have had a firmer D 632
hair and a temper D 620
have hit a plateau D 615
have had a patent D 614
have had a liaison D 612
have read a review D 606
hand was a bottle D 604
have had a hollow D 603
have had a bishop D 602
hand with a sickle D 600
having had a recent D 594
have got a bigger D 594
hand with a fierce D 592
have had a nobler D 589
have had a chapel D 587
have run a series D 574
hard for a layman D 568
hand with a policy D 567
have had a pension D 566
have got a bottle D 564
have had a bullet D 562
have had a hectic D 560
hand with a pistol D 559
have put a speedy D 556
hair was a trifle D 556
have had a kidney D 554
have thus a series D 550
have read a portion D 546
have had a drinking D 546
hand with a series D 546
hall with a marble D 546
hair and a fuller D 544
have had a section D 542
hand and a bloody D 534
have met a couple D 532
have had a solemn D 530
have had a silver D 530
have got a ticket D 526
hair and a shaggy D 517
hand with a tender D 515
hand with a charming D 515
having but a scanty D 511
have now a series D 504
have had a cordial D 504
have you a pistol D 491
hand with a mortar D 490
having had a career D 489
hast thou a friend D 487
harp with a solemn D 486
have had a benign D 483
hair and a tattoo D 476
hair and a ragged D 473
hand and a musket D 472
hair and a sparse D 472
have had a superb D 470
have got a bullet D 469
having met a number D 468
have had a nuclear D 468
hair and a receding D 464
have won a million D 462
hair and a charming D 458
have had a shrine D 456
have got a patent D 454
have read a french D 450
hair and a hooked D 450
have had a status D 443
have had a pistol D 443
have had a strike D 440
hair was a glossy D 440
hand and a coffee D 439
have had a tumble D 435
hair and a fierce D 434
hand with a rubber D 433
have had a fierce D 432
have you a ticket D 431
hand and a laurel D 428
hair with a pocket D 428
hand with a shovel D 426
have had a spinal D 424
have had a heyday D 424
hand was a golden D 422
hand and a series D 418
have had a cancer D 417
hand and a portion D 411
have had a crushing D 410
hand with a diamond D 408
hand with a chisel D 406
hard for a french D 405
have you a pocket D 404
hark got a ladder D 399
have had a station D 398
have had a patron D 398
hand with a dagger D 396
have won a series D 394
have had a picnic D 394
have had a survey D 386
hair and a dazzling D 386
have had a dollar D 385
hair and a dimple D 385
have both a singular D 382
hand with a solemn D 378
hand and a packet D 377
hall was a native D 376
have not a bloody D 372
have had a tussle D 371
have met a better D 370
hair and a droopy D 370
have each a salary D 366
hall for a series D 366
hare and a rabbit D 363
hand her a tissue D 361
hand him a dollar D 360
have had a clever D 358
have met a lovely D 356
have had a casual D 356
have dug a trench D 354
have got a shilling D 350
hand and a mallet D 349
have read a section D 348
have put a pistol D 345
hand and a cocked D 343
have beat a retreat D 342
hair with a fillet D 342
have put a girdle D 340
have not a kopeck D 340
have had a damned D 340
have fed a family D 340
hall with a series D 340
have had a stirring D 338
hand and a diamond D 338
have had a ripple D 337
have had a sermon D 336
have had a deluge D 336
have bet a million D 336
hand and a pocket D 336
have but a dollar D 335
hand and a banner D 334
having read a portion D 330
hand and i kissed D 330
hair was a matted D 329
have you a lawyer D 328
have had a mutiny D 328
have had a ticket D 326
have you a ruffian D 324
hawk with a broken D 323
have dug a little D 322
hand and a sickle D 322
have read a sermon D 320
have had a thrilling D 320
have had a police D 319
have had a stunning D 318
have had a faulty D 318
have met a pressing D 316
hand with a silver D 315
have each a portion D 314
hart was a member D 312
having for a series D 310
have had a bumper D 309
have then a series D 308
have not i talked D 308
have both a spatial D 306
have had a coarse D 304
have bet a nickel D 304
hall and a museum D 304
have run a career D 302
have had a timber D 301
hand and a helmet D 301
have led a revolt D 300
have led a colony D 300
have put a bridle D 298
have had a shilling D 298
hair and a rugged D 298
have had a steadying D 297
have had a bridge D 297
hand with a napkin D 293
having met a friend D 292
have got a charming D 292
hair with a rubber D 292
have not a pistol D 288
have had a nibble D 288
have had a kinder D 288
hair and a craggy D 288
have you a mirror D 286
have had a driver D 286
hair and a paunch D 286
have not a ticket D 284
have had a lovers D 284
have had a budget D 284
have got a million D 284
hand with a french D 284
hand was a diamond D 284
hair and a diamond D 284
have had a faster D 283
hair and a squint D 283
have got a parcel D 282
hair and a radiant D 282
have had a salary D 280
have not a damned D 279
have read a recent D 278
have read a series D 276
hand him a bottle D 276
hall was a pioneer D 276
have had a flight D 275
hair and a walrus D 275
have had a session D 274
hair with a tender D 274
hair and a ribbon D 272
having had a morsel D 270
have had a squint D 270
have had a sequel D 270
have dug a tunnel D 270
hand and a potato D 270
hale was a member D 270
hair and a stocky D 270
hand and a rolled D 267
having had a portion D 266
have had a tremor D 266
hand with a coarse D 266
hand was a scroll D 266
hair and a striking D 266
hair was a silver D 265
have not a warmer D 264
hand and a switch D 264
have won a partial D 262
hair and a serene D 262
have had a bronze D 261
have had a dubious D 260
have had a banner D 260
have got a french D 260
hand and a cookie D 260
hall was a marble D 260
have had a dazzling D 258
hand with a paddle D 258
hand with a bloody D 258
hair was a tumble D 258
hard for a lawyer D 257
have put a golden D 256
have not a golden D 256
have got a dollar D 251
hand and a ballot D 251
have each a chapel D 250
hand was a bloody D 250
have had a radius D 248
hall with a carved D 248
have had a theology D 246
hard for a dollar D 246
hand with a polite D 246
have had a temper D 245
having both a career D 244
have got a pencil D 244
hand and a scalping D 244
have put a bottle D 242
have had a speedy D 242
harp and a guitar D 242
have led a rambling D 241
hall and a shrine D 241
hand and a policy D 240
hand and a needle D 240
have met a tragic D 238
hand was a bundle D 238
have got a cousin D 237
have put a million D 236
have not a nickel D 236
have met a watery D 236
have led a sinful D 236
have had a softer D 236
have had a rubber D 236
have had a litter D 236
hand and a shopping D 236
hair with a shower D 236
have led a casual D 234
hand and a napkin D 234
hand and a fierce D 234
having met a person D 230
having had a partial D 230
have had a spouse D 230
have had a sporting D 230
have had a rabbit D 230
have both a prefix D 228
hair had a golden D 228
have had a sweeping D 227
have had a pelvic D 226
have met a member D 224
have had a relish D 224
have had a lesbian D 224
have had a copious D 224
have had a closet D 224
hand with a golden D 224
hand and a chisel D 224
hair was a striking D 224
hard for a farmer D 223
have had a potato D 222
hate with a bitter D 222
have not i sailed D 220
have had a ringside D 220
have had a pressing D 220
have had a chorus D 220
hand and a dripping D 220
have set a policy D 218
have but a trifle D 218
hand and a canvas D 218
have met a greater D 216
have had a review D 216
hard for a player D 216
hand with a potato D 216
have had a gallop D 214
hand and a curved D 214
hall and a parlor D 214
have had a robust D 212
have got a series D 212
hard for a policy D 212
have won a sweeping D 210
have had a tribal D 210
hand and a cheery D 210
have had a mishap D 208
have had a brutal D 208
hair and a guitar D 208
have had a beastly D 207
hair and a finely D 207
have not a pencil D 206
have had a marine D 206
hand with a bottle D 206
hair and a pointy D 206
have had a marble D 205
have had a sketch D 204
having read a review D 202
having met a violent D 202
hand was a pencil D 202
have had a spotty D 201
have had a dental D 201
having had a cousin D 200
have led a career D 200
have had a rugged D 200
have had a nephew D 200
have had a barrel D 200
hard with a coarse D 199
having had a retreat D 198
have had a vacuum D 198
have had a colony D 198
have had a target D 197
hall with a cupola D 197
have put a hotter D 196
have had a quieting D 196
hard for a native D 196
having had a tender D 194
have met a sudden D 194
have had a flower D 194
have got a lawyer D 194
have are a series D 194
hall and a series D 194
have had a leveling D 193
having had a policy D 192
have met a second D 192
hand and a waiter D 192
have you a bottle D 190
have met a fellow D 190
have had a pocket D 190
have had a farther D 190
hard that i winced D 190
hand and a drinking D 190
hair and a coarse D 189
have had a longish D 186
have had a census D 186
have not a million D 184
have both a static D 184
hand and a bridle D 184
have had a mirror D 182
have got a policy D 182
hard for a bishop D 182
hand with a menacing D 182
hair and a sullen D 182
having had a shower D 180
have had a painting D 180
have had a packet D 180
having had a french D 178
have had a breeze D 178
have aye a chance D 178
hard for a scanty D 178
hand and a pewter D 178
hair with a brooch D 178
hair and a leathery D 178
have had a fainting D 177
have got a trifle D 177
hair and a flower D 177
have not a series D 176
have had a bucket D 176
have had a bilious D 176
have for a career D 176
hand and a cordial D 176
haze for a moment D 175
hand and a crutch D 175
have now a golden D 174
have met a little D 174
hand with a singular D 174
hair and a solemn D 174
hand with a sweeping D 173
have had a cousin D 172
hand with a bucket D 172
hair and a flashing D 172
hair with a turban D 171
have then a paltry D 170
have had a static D 170
have had a reunion D 170
hand was a dagger D 170
have had a parcel D 169
hand you a ticket D 169
hand out a leaflet D 169
have put a pillow D 168
have had a malign D 168
hard and a bitter D 168
hand with a splash D 168
hand him a packet D 168
hair was a frizzy D 168
hair and a skinny D 168
have got a stewed D 167
hand and a kettle D 167
have put a dollar D 166
have had a terror D 166
hand and a stylus D 166
have met a warmer D 164
have met a bloody D 164
hand him a shilling D 164
hand and a bamboo D 164
having had a liaison D 162
have had a trivial D 162
have got a steamer D 162
have got a monkey D 162
hand with a shilling D 162
hand with a bullet D 162
hand and a trough D 162
half and a million D 162
hair and a sturdy D 162
having read a french D 161
have had a stifling D 161
having had a bitter D 160
have had a mobile D 160
have got a coffin D 160
have each a series D 160
hand with a packet D 160
have had a tariff D 158
harp and a golden D 158
hand and a rubber D 158
have got a pension D 157
hair with a pencil D 157
have now a motive D 156
have had a monkey D 156
have had a domino D 156
hand and a charming D 156
hair and a petite D 155
have had a parade D 154
have had a juster D 154
have but a languid D 154
hand with a mallet D 154
hand for a pillow D 154
hand and a thermos D 154
hall with a bottle D 154
half being a mirror D 154
hair and a velvet D 154
have had a peptic D 153
have read a million D 152
have met a martyr D 152
have led a recent D 152
have hit a little D 152
have had a ladder D 152
hand was a charming D 152
hair and a piercing D 152
hair and a girdle D 152
have not a denier D 150
hand was a pocket D 150
hair and a stubby D 150
hand and a ticket D 149
hand and a banana D 149
hays was a member D 148
have had a covert D 148
have got a barrel D 148
hats for a moment D 148
hand was a basket D 148
hand and a brandy D 148
halo with a radius D 148
hair with a coarse D 148
hair and a tangled D 148
hair and a sweeping D 148
hair and a superb D 148
hair and a hoyden D 148
having for a colony D 146
have met a severe D 146
have dug a mighty D 146
hand and a sphere D 146
hair and a dagger D 146
have got a temper D 145
have met a demand D 144
have had a saddle D 144
have had a decree D 144
hand her a flower D 144
hand and a rudder D 144
hand and a halter D 144
have got a pistol D 143
hate being a lawyer D 143
hair and a barrel D 143
having won a barren D 142
have now a sketch D 142
have got a speeding D 142
haul out a future D 142
hand and a tennis D 142
hand and a bitter D 142
hall was a lawyer D 142
have had a cannon D 141
having hit a tailor D 140
have you a ladder D 140
have yet a singular D 140
have thus a tenure D 140
have had a pastor D 140
have had a partly D 140
have got a bloody D 140
hand and a trophy D 140
hand and a saucer D 140
have had a reducing D 139
have not a speedy D 138
have had a trifle D 138
have had a quaver D 138
hand with a velvet D 138
hand with a mutter D 138
hand with a firmer D 138
hand with a ballot D 138
hand for a morsel D 138
hail with a volley D 138
hand was a banana D 137
have had a martyr D 136
have had a glacial D 136
hare and a bottle D 136
hank was a little D 136
hand for a bottle D 136
hand and a cudgel D 136
hand and a clutch D 136
hall with a chapel D 136
hale had a moment D 136
hair and a fleshy D 136
hand her a bottle D 135
hand and a tender D 135
hand and a monkey D 135
having put a speedy D 134
have you a vacant D 134
have put a blight D 134
have not a feature D 134
have but a million D 134
have bet a dollar D 134
hard for a peasant D 134
hand with a shrill D 134
hand with a rosary D 134
hall with a statue D 134
hand for a dollar D 133
having for a dazzling D 132
having dug a trench D 132
have not a lawyer D 132
have had a hideous D 132
have had a copper D 132
have had a bruise D 132
have but a chilly D 132
hard for a casual D 132
hand with a lordly D 132
hand and a willow D 132
hand and a pillow D 132
hair and a sleepy D 132
hair and a portion D 132
hair and a cheeky D 132
hair and a bottle D 132
having had a drinking D 131
have sex a couple D 131
have yet a farther D 130
have won a nobler D 130
have won a barren D 130
have not a bottle D 130
have led a retreat D 130
have had a soviet D 130
have got a silver D 130
have but a casual D 130
hand for a series D 130
hand and a ladder D 130
hair and a cheery D 130
hand with a stylus D 129
have had a thicker D 128
have had a sturdy D 128
hard with a pencil D 128
hand with a fervor D 128
hand and a wallet D 128
hall for a dinner D 128
hair and a shrewd D 128
hair and a scanty D 128
hair and a matted D 128
hair and a marble D 128
have won a crushing D 126
have hit a target D 126
have had a tattoo D 126
have had a relaxing D 126
have for a cousin D 126
hard for a clever D 126
hand and a ledger D 126
hand and a guitar D 126
hair and a pallid D 126
hair and a french D 126
have but a silver D 125
have yet a shilling D 124
have met i notice D 124
have had a polish D 124
have had a hybrid D 124
hand with a pestle D 124
hand and a kindling D 124
hand and a carton D 124
half with a series D 124
hair and a mobile D 124
hawk was a symbol D 122
having but a partial D 122
have you a surgeon D 122
have set a series D 122
have had a virgin D 122
have for a million D 122
have but a flight D 122
hard for a driver D 122
hall was a frozen D 122
hair with a cotton D 122
hair and a chubby D 122
hand and a gallon D 121
having had a charming D 120
have sung a little D 120
have met a series D 120
have met a brother D 120
have had a revolt D 120
have had a gallon D 120
have cut a series D 120
hand with a dollar D 120
hand with a crushing D 120
hand was a quaint D 120
hand using a mortar D 120
hand for a cordial D 120
hall and a police D 120
hair and a vacant D 120
hand and a police D 119
hand and a mailed D 119
having set a bottle D 118
having had a strike D 118
having had a statue D 118
have met a charming D 118
have had a votive D 118
have had a surgeon D 118
have had a cranial D 118
have had a canopy D 118
have had a bundle D 118
have got a dinner D 118
have but a stormy D 118
hats with a little D 118
hand with a murmur D 118
hair and a fairer D 118
hair and a copper D 118
half with a diamond D 117
have you a flower D 116
have you a dollar D 116
have hit a dollar D 116
have had a reflex D 116
have had a haunting D 116
have had a famine D 116
have had a dagger D 116
have had a curved D 116
have cut a striking D 116
hast thou a symbol D 116
hand you a million D 116
hand him a pencil D 116
hand and a missal D 116
hand and a french D 116
hand and a citron D 116
hair with a diamond D 116
hair was a ragged D 116
hair and a collar D 116
have had a cosmic D 115
hast thou a desire D 115
having had a dinner D 114
have put a statue D 114
have not a motive D 114
have led a series D 114
have led a french D 114
have had a trifling D 114
have had a ramble D 114
have had a bypass D 114
have got a ladder D 114
have but a dismal D 114
hard that i jumped D 114
hand with a taster D 114
hand with a radiant D 114
hand was a bucket D 114
hand for a caress D 114
hand and i jumped D 114
hand and a carrot D 114
hart was a native D 113
having for a device D 112
have you a pension D 112
have had a torrid D 112
have had a cheering D 112
have got a picket D 112
hats with a narrow D 112
hare and a couple D 112
hand with a tissue D 112
hair with a fluffy D 112
hair was a shocking D 112
hair and a comely D 112
hair and a benign D 112
have had a variant D 111
having won a series D 110
having led a revolt D 110
have put a series D 110
have not a pension D 110
have hit a number D 110
have had a sickly D 110
have had a plague D 110
have had a moiety D 110
have both a sexual D 110
hast thou a better D 110
hand with a switch D 110
hand and a squirt D 110
hand and a florin D 110
hall for a trifle D 110
hall and a saloon D 110
hair and a stunning D 110
have had a thrashing D 109
have got a fashion D 109
hand with a casual D 109
hand with a bitter D 109
having set a fashion D 108
having had a bullet D 108
have put a halter D 108
have met a serious D 108
have had a supper D 108
have had a shield D 108
have had a deputy D 108
have each a section D 108
hand with a holder D 108
hall was a chapel D 108
hall and a cinema D 108
half with a cleaver D 108
hair and a turban D 108
hair and a peaches D 108
have had a cleaner D 107
hand you a ballot D 107
hand was a rosary D 107
hand and a dollar D 107
hand and a cotton D 107
having put a bullet D 106
have you a shilling D 106
have put a bounty D 106
have had a whipping D 106
have had a kernel D 106
have had a feudal D 106
have had a canvas D 106
have each a million D 106
have but a morsel D 106
hard for a patriot D 106
hand him a mirror D 106
hand her a mirror D 106
hall with a golden D 106
hair and a skimpy D 106
hair and a silken D 106
hair and a floppy D 106
hair and a clever D 106
have hit a better D 105
hand and a copper D 105
hawk and a number D 104
having but a knight D 104
have had a sonnet D 104
have had a mansion D 104
have for a native D 104
have both a motive D 104
hats and a little D 104
hanging off a bridge D 104
hand for a hammer D 104
hand and a powder D 104
hand and a plough D 104
hand and a hangman D 104
hand and a curled D 104
hand and a cheese D 104
hall with a sweeping D 104
hall was a series D 104
hall and i kissed D 104
hair and a bloody D 104
have for a dollar D 103
hall with a mosaic D 103
have rung a little D 102
have not a pocket D 102
have not a hammer D 102
have not a dinner D 102
have had a shooting D 102
have for a section D 102
have both a native D 102
hast thou a little D 102
hand with a warmer D 102
hand with a caress D 102
hand him a ticket D 102
hand and a radiant D 102
hand and a censer D 102
hall for a shower D 102
half for a dollar D 102
hair and a cowboy D 102
hair and a chorus D 102
hair and a bluish D 102
have had a dressing D 101
hair with a flower D 101
have you a needle D 100
have met a million D 100
have had a spatial D 100
have had a roller D 100
have had a rectal D 100
have got a decree D 100
have got a clever D 100
hank and i looked D 100
hand lay a bundle D 100
hand and a wicker D 100
hair and a million D 100
hand and a rabbit D 99
hawing for a moment D 98
have put a terror D 98
have put a collar D 98
have not i logged D 98
have had a refuge D 98
have had a polite D 98
have had a patchy D 98
have had a flashing D 98
have had a fetish D 98
have had a felony D 98
have had a dragon D 98
have had a caucus D 98
have both a policy D 98
hand with a dazzling D 98
hair with a gloved D 98
hair and a patchy D 98
hair and a creased D 98
have won a silver D 97
hare was a couple D 97
hand with a cotton D 97
hand out a ticket D 97
hand him a flower D 97
hair and a blonde D 97
having had a bottle D 96
having got a breeze D 96
have now a portion D 96
have not a temper D 96
have met a family D 96
have hit a pothole D 96
have had a thunder D 96
have had a retail D 96
have had a refining D 96
have had a device D 96
have had a coffee D 96
have had a cheaper D 96
have for a banker D 96
have both a turkey D 96
haul off a little D 96
hank and i walked D 96
hand was a shield D 96
hand and a solemn D 96
hand and a poncho D 96
hand and a polite D 96
hand and a murmur D 96
hand and a benign D 96
have had a warped D 95
have had a turkey D 95
having had a casual D 94
have you a basket D 94
have set a ransom D 94
have had a knight D 94
have had a diagram D 94
have got a shovel D 94
have got a bushel D 94
hand and a parcel D 94
hand and a forked D 94
hand and a dragon D 94
hair with a receding D 94
hair and a robust D 94
have had a county D 93
have had a colder D 93
have cut a groove D 93
hard with a mallet D 93
hard for a hunter D 93
hair and a forked D 93
have now a million D 92
have had a smashing D 92
have had a gabled D 92
have had a drubbing D 92
have had a bustling D 92
have got a packet D 92
have got a knight D 92
have both a nuclear D 92
hard that a hammer D 92
hard and a trifle D 92
hand with a sturdy D 92
hand with a pocket D 92
hand with a clumsy D 92
hand for a stroke D 92
hand and a triangle D 92
hand and a target D 92
hand and a fiddle D 92
hall with a chorus D 92
hall and a sports D 92
hair was a sodden D 92
hair and a smudge D 92
hair and a hoarse D 92
have had a billion D 91
hand and a section D 91
having had a swelling D 90
have thus a striking D 90
have sex a second D 90
have not a magnet D 90
have met a strange D 90
have met a cordial D 90
have had a desert D 90
hart was a little D 90
hard with a needle D 90
hand with a retreat D 90
hand with a portion D 90
hand for a refill D 90
hand and a soiled D 90
hair was a shaggy D 90
hair and a shrill D 90
hair and a rakish D 90
hair and a curved D 90
have put a pencil D 89
have you a salary D 88
have met a priest D 88
have had a tension D 88
have had a stroll D 88
have had a sorter D 88
have had a sinful D 88
have had a kitten D 88
hand with a career D 88
hand was a soiled D 88
hand and a forearm D 88
hall with a serene D 88
hair was a riotous D 88
have not a french D 87
have had a sphere D 87
have but a scurvy D 87
hair and a soiled D 87
hawk for a priest D 86
hawk and a salmon D 86
having had a stormy D 86
having had a golden D 86
having beat a parley D 86
have put a portion D 86
have put a freeze D 86
have led a strike D 86
have had a tailor D 86
have had a snappy D 86
have had a hammer D 86
have dug a series D 86
have but a sparse D 86
hand with a savage D 86
hand was a trifle D 86
hand using a needle D 86
hair with a bottle D 86
hair was a dazzling D 86
hair and a longish D 86
hand them a bottle D 85
hawk with a bloody D 84
have not i kissed D 84
have had a thyroid D 84
have had a rustic D 84
have had a readier D 84
have had a newton D 84
have had a galaxy D 84
have had a carpet D 84
have got a status D 84
have got a golden D 84
have for a trifle D 84
have but a paltry D 84
hand you a bottle D 84
hand him a tissue D 84
hand and a cleaver D 84
hand and a carafe D 84
hair was a silken D 84
hair was a brassy D 84
hair and a shower D 84
hair and a basket D 84
have won a stunning D 82
have set a budget D 82
have not a portion D 82
have not a fuller D 82
have had a diamond D 82
have dug a number D 82
hand beat a tattoo D 82
hand and a duffel D 82
half for a bushel D 82
hair with a casual D 82
hair with a bullet D 82
hair had a bluish D 82
having read a recent D 80
having now a breeze D 80
have you a kitten D 80
have put a stigma D 80
have not a palace D 80
have met a slight D 80
have had a quaint D 80
have had a medley D 80
have had a lumbar D 80
have had a garage D 80
have had a fashion D 80
have had a banker D 80
have got a native D 80
hand him a pistol D 80
hall and a flight D 80
hair and a splash D 80
hair and a dapper D 80
have had a floating D 79
hand and a watering D 72
hack for a moment D 64
have had a parish D 62
hand with a bamboo D 59
have put a silver D 58
hall with a barrel D 58
hand and a laptop D 55
hand for a shilling D 54
have had a screaming D 53
hair and a bronze D 53
have met a pretty D 52
have got a scolding D 52
hand was a flower D 52
having won a silver D 51
have had a mosaic D 51
have had a looser D 50
have got a damned D 50
have both a floppy D 48
hard that a musket D 48
halt for a breather D 47
have led a passer D 45
have had a quorum D 45
have got a thrashing D 45
hand with a cheery D 45
have had a leavening D 44
hast thou a thought D 44
hair and a suntan D 44
hast thou a brother D 43
have not a quorum D 42
have had a denser D 42
hard for a career D 42
have not a flower D 41
have had a pauper D 41
have got a fairer D 41
hand her a napkin D 41
hand and a parrot D 41
hair was a copper D 41
have had a cramping D 40
hand with a striking D 40
hand with a cradle D 40
hand with a cleaver D 40
hall and a gambling D 40
hale was a native D 40
hair and a brooding D 40
