hands out of the M 22420
hands and in the M 10944
hands out to the M 10298
hands are in the M 7777
hands and on the M 7446
hands are on the M 7332
hands are to be M 7044
hands had to be M 6648
hands one of the M 6062
happy not to be M 6039
hated man in the M 5632
hands them to the M 5460
hands and at the M 5402
happy for me to M 5242
happy that it is M 4852
hands and of the M 4414
hands off of me M 4364
halls and in the M 4326
hands and sing in M 4272
hands with me in M 4142
halls and on the M 4100
happy that he is M 3828
happy day in the M 3244
hands out of my M 3178
hands than in the M 3080
hands and by the M 2950
hands not of the M 2938
haunt him in the M 2754
haste out of the M 2612
happy lot of the M 2608
hands and it is M 2590
happy and to be M 2562
hated being in the M 2545
hands out as if M 2524
hands with us in M 2444
hands with the king M 2424
happy end of the M 2320
hanged him on the M 2274
hands and to the M 2268
happy are we if M 2263
hands with me as M 2262
hated going to the M 2200
hands lying on the M 2162
happy for us to M 2126
hands out on the M 2126
hands that it is M 2117
hands are at the M 2108
hands for me to M 2047
hands and go to M 2024
happy use of the M 2014
happy man in the M 2010
harsh cry of the M 1980
habit and in the M 1972
hands lay on the M 1970
hands with me at M 1910
hated him as the M 1902
hands and to be M 1840
hands and so on M 1824
happy and at the M 1810
habit with me to M 1798
hands them to me M 1772
happy all of the M 1736
happy for us if M 1728
habit was to be M 1726
happy man is he M 1704
happy idea of the M 1678
happy end to the M 1676
hated men in the M 1668
hands was to be M 1662
happy man is the M 1654
hands out to me M 1631
hands out in the M 1616
haunt you in the M 1606
happy for it to M 1592
happy one in the M 1444
hands let go of M 1442
haunt them in the M 1406
habit that it is M 1394
hands both of the M 1392
habit and of the M 1390
hanged out of the M 1372
hands and he is M 1368
hanged him in the M 1362
hands off of the M 1344
happy and in the M 1310
hands but in the M 1282
happy are we to M 1256
habit and by the M 1238
happy now to be M 1224
happy she is to M 1210
habit was to go M 1204
happy than in the M 1202
hands and in my M 1202
hands and do the M 1192
habit has to be M 1192
hands due to the M 1130
hands off to the M 1118
hands than it is M 1116
happy that in the M 1114
happy lot to be M 1112
hands with me on M 1110
hands that he is M 1103
happy and it is M 1100
happy with it as M 1059
hanged them on the M 1036
haste and in the M 1031
hands may be the M 1012
hasty cup of tea M 1008
hands for us to M 1002
hated him as an M 1000
hands and on my M 982
hands are on my M 974
happy man as he M 970
hands are of the M 970
halls are to be M 956
happy than to be M 954
haunt him to the M 952
halls had to be M 944
haste now to my M 939
hanged man in the M 930
happy day of my M 920
habit and it is M 920
hated him at the M 912
hands off in the M 903
hated him to the M 888
happy was he to M 888
happy day of the M 866
harsh than in the M 858
hands going to the M 834
hands that in the M 828
hanged them in the M 824
happy out of the M 822
halls and at the M 818
happy with me as M 814
happy men in the M 812
happy are we in M 810
hated all of it M 806
hands all of the M 806
happy man if he M 792
hands out of it M 782
habit for me to M 778
hands and as he M 768
hands owing to the M 762
hands them on to M 760
haunt her in the M 758
happy was he in M 756
halls and so on M 746
hanged one of the M 742
happy than it is M 740
hanged him by the M 736
hands are in my M 736
hands but by the M 730
haunt him as he M 729
hanged for it in M 726
hated being on the M 724
hands off on the M 724
habit and to the M 722
hates for me to M 716
hands was in the M 712
happy and he is M 710
hands with us as M 705
habit not to be M 700
hated him in the M 698
hated him as he M 690
habit may be the M 690
happy day to me M 680
happy age of the M 678
hands out to it M 676
harming any of the M 672
happy and on the M 662
happy now in the M 660
happy day in my M 660
hands off of it M 659
happy day at the M 652
hands not to be M 652
halls and up the M 652
hands and as the M 650
harsh but it is M 646
halls and by the M 646
happy out of it M 642
hands and do it M 638
harsh that it is M 632
happy with me at M 630
hands off of my M 627
hands and go on M 618
happy man to be M 614
hanged two of the M 610
haste and go to M 604
happy one of the M 600
happy being in the M 592
hands out to us M 586
happy but in the M 584
hands and to sing M 580
harsh law of the M 576
hands was on the M 568
happy death of the M 566
happy era in the M 564
hands and sing the M 564
hasty meal in the M 562
hands out at the M 560
hated for me to M 558
happy one to me M 556
happy for me if M 550
hands any of the M 550
habit with us to M 548
hands but it is M 546
hanged him to the M 544
hands going up to M 544
hated both by the M 542
happy all at the M 542
hands and is in M 538
hands and eat it M 538
hates all of us M 532
happy day to the M 532
hands with me he M 532
hands off me or M 530
happy one to the M 528
hands each of us M 528
hands than to be M 524
habit had to be M 516
harsh lot of the M 514
happy song of the M 510
hands has to be M 510
halls and to the M 508
hands than on the M 506
haunt him if he M 504
hands with us to M 502
hands off at the M 501
haven and in the M 500
happy but by the M 500
hands are to the M 498
hands out in an M 492
haunt all of us M 490
haven and to the M 488
hated all of the M 488
habit that is the M 486
happy than he is M 482
hands than by the M 482
happy and to do M 476
hands with me to M 476
hands let go the M 474
hands him to the M 472
hated all of us M 470
happy day on the M 470
happy use of it M 468
hands that do the M 468
hands one to me M 468
habit out of it M 468
hated being at the M 466
hands and in an M 464
happy man on the M 462
happy lot it is M 462
happy with me in M 460
happy with me if M 460
hands led to the M 454
hands and to do M 454
happy with it at M 452
hanged man of the M 452
hands with it in M 452
hands fly up to M 452
hates going to the M 450
habit out of the M 450
happy man of the M 448
hands may be in M 446
hands had to do M 446
happy that we do M 444
happy era of the M 444
habit than it is M 442
happy end to it M 440
haven was to be M 436
hated them as the M 436
hands one to the M 436
habit are to be M 436
habit due to the M 434
hated her at the M 432
happy who is in M 432
hands and if the M 430
hands cling to the M 429
hated not to be M 428
happy but at the M 428
halls are of the M 428
hands lie on the M 425
harsh things of the M 424
happy was to be M 424
hands and the king M 422
happy then is the M 421
halls are in the M 414
hasty use of the M 408
habit and at the M 408
hasty meal at the M 406
habit may be so M 406
hanged him at the M 400
hanged them by the M 398
hands and up to M 398
happy and so is M 396
harsh use of the M 392
happy who is the M 384
happy that the king M 384
hands being in the M 384
haste and on the M 380
hated both of us M 376
hates being in the M 372
hands and go in M 372
happy with it or M 370
hanged for it the M 368
hands with us at M 368
hated for it to M 366
happy one at the M 366
hands for up to M 366
habit that is so M 364
hands two of the M 361
hands had to go M 358
hated man on the M 357
haunt him at the M 354
hands for the king M 354
hands but of the M 354
hated him to be M 348
hated her as the M 348
happy out in the M 348
happy for me as M 347
hands now on the M 346
hated them in the M 344
harsh things to me M 344
hated man of the M 340
happy not to go M 338
hanged him on an M 338
haste for me to M 336
happy but it is M 336
hands than to the M 336
haven out of the M 334
hated her to the M 332
happy and so on M 332
hands and to go M 332
haunt you to the M 330
haste not to be M 330
happy one if he M 330
habit one of the M 330
hands one on the M 329
haste was of the M 328
habit that is to M 328
habit and to be M 326
hands with me so M 323
habit for us to M 322
haste and by the M 320
haven and at the M 318
hands this to the M 318
hands are by no M 318
hands out to be M 317
happy with it in M 316
hands are on me M 316
hands and if he M 314
hands this is the M 313
happy with in the M 308
hands them to us M 308
hands and so he M 306
haste out of it M 304
happy than on the M 304
harsh heat of the M 300
happy too in the M 300
haunt him as the M 298
habit was in the M 296
hasty end to the M 294
happy one on the M 294
hands are in an M 292
happy that at the M 290
hands that the king M 290
hands and so to M 290
haste had to be M 288
happy than if he M 288
happy she is in M 288
hanged for it at M 286
hands can be the M 286
halls and of the M 286
harming them in the M 284
happy and so am M 284
hands low on the M 284
happy day of it M 282
hands lying in the M 282
hands dry on the M 282
hands was at the M 280
happy day to be M 278
habit led to the M 278
happy both in the M 276
haste and at the M 274
hands one in the M 274
hands being on the M 274
hanged out at the M 272
hands with me up M 272
hacking out of the M 272
hated men of the M 270
happy with the king M 270
happy due to the M 270
hands can do it M 270
hands and we do M 270
hands and on to M 270
happy and if he M 268
happy and go to M 268
happy lot in the M 266
hands was of the M 266
harms are to be M 262
haven had to be M 260
haste was to be M 260
happy year in the M 260
happy with us in M 260
happy but to be M 260
hanged man is the M 260
hands are at my M 260
hands and is the M 260
hands and do as M 259
hands than of the M 258
happy man at the M 256
hands with me or M 256
hands and at my M 254
habit than of the M 254
habit than in the M 254
hated them at the M 252
hated her as he M 252
happy mean in the M 252
harsh and at the M 250
happy with us at M 250
happy one is to M 248
hands and in so M 248
happy and as if M 246
hands lying on it M 246
halls are on the M 246
happy that he no M 245
happy may he be M 245
happy things in the M 244
hands with me the M 244
hands beat on the M 244
habit has to do M 244
haste that it is M 242
happy may we be M 242
hands may be of M 240
hands and if it M 240
hands and eat the M 240
happy way to the M 238
happy end in the M 238
hanged them to the M 238
hands with us on M 236
hands now in the M 236
habit but it is M 236
hands put it on M 234
habit that he is M 234
habit and so on M 234
happy who is of M 232
hands may be so M 232
hands lay in the M 232
hands can do the M 232
hands and so the M 232
hands out as he M 230
habit than by the M 230
hated them as he M 228
habit and on the M 228
haunt one of the M 226
happy was he or M 226
hands than at the M 226
hands are up in M 226
habit was of the M 226
hated one of the M 225
hated her in the M 224
happy now as he M 224
habit may be of M 224
happy one to us M 222
hanged them up by M 222
hands being at the M 222
hands are up to M 222
happy with us as M 219
happy death on the M 218
hands was by no M 216
hands not on the M 216
hands but at the M 216
habit has me by M 216
hated than to be M 214
harsh for me to M 214
hands may be as M 214
happy than he in M 212
hanged than to be M 212
hands both in the M 212
haven and of the M 210
hated them to the M 210
hasty act of the M 210
harsh and it is M 210
happy that on the M 210
hands that is the M 210
hands lie in the M 210
hands but on the M 210
habit may be an M 210
happy for us we M 208
happy and in no M 208
hanged him up by M 208
happy one in my M 206
happy idea of an M 206
hands that we do M 206
hands can be an M 206
hated and at the M 204
happy idea on the M 204
happy few in the M 204
happy all of us M 204
hands that if the M 204
hands and so it M 204
habit that is in M 204
hands off by the M 202
hands are of no M 202
hands all at the M 202
halls but in the M 202
hanged man on the M 201
happy not to do M 200
happy going to the M 200
happy death in the M 200
happy was he at M 198
happy may be the M 198
habit than to the M 198
haven and on the M 196
hands may be an M 196
hands each of the M 196
hands can be as M 196
halls than in the M 196
hands that on the M 194
haunt one in the M 192
hated for it by M 192
haste one of the M 192
harsh sun of the M 192
happy with me or M 192
happy day it is M 192
hands and be the M 192
habit that in the M 192
haven was in the M 190
haste with it as M 190
hands with in the M 190
hands with at the M 188
hands them up to M 188
haste was he to M 186
happy one as it M 186
hands may be at M 186
hates him as the M 184
harsh and as if M 184
happy too is he M 184
hands off on my M 184
hands not of an M 184
hands but to the M 184
hated head of the M 182
harming one of the M 182
happy that he or M 182
happy but as he M 182
hated him if he M 180
haste and in an M 180
hands ran to the M 180
habit was on the M 180
haunt her to the M 178
harsh end of the M 178
happy she is at M 178
happy one if it M 178
happy day to us M 178
hanged him if it M 178
hands one thing or M 178
habit then is the M 178
habit has on the M 178
happy that in my M 176
happy one as the M 176
hands cut by the M 176
hands and if we M 176
hates them as he M 174
happy with it the M 174
hands can do to M 174
haste and go up M 173
hates him as he M 172
hated her to be M 172
haste was of no M 172
happy and by the M 172
hands fly up in M 172
halls lead to the M 172
hands out to my M 171
haunt was in the M 170
harsh and to the M 170
happy things to do M 170
happy then in the M 170
happy and if it M 170
hanged him up in M 170
hands with by the M 170
haste you to the M 168
harsh than it is M 168
harsh song of the M 168
happy with it if M 168
happy way to go M 168
happy now as to M 168
happy man by the M 168
happy but he is M 168
hands got in the M 168
hands each on the M 168
habit was to do M 168
hands can do in M 167
haven one of the M 166
halving each of the M 166
hasty path to the M 164
hands with it to M 164
hands easy on the M 164
habit may be in M 164
hands and in no M 162
hates both of us M 160
hands who is the M 160
hands put on the M 160
hands can be of M 160
hands and up my M 160
hands and sing to M 160
hands and as we M 160
habit that is of M 160
happy and so in M 158
hands put in the M 158
happy man is an M 156
happy boy in the M 156
hands with me if M 156
hands not in the M 156
halting now on the M 156
hacking off of the M 156
harsh god of the M 154
happy day to my M 154
hanged them at the M 154
hanged out on the M 154
hands and up the M 154
hated all of my M 152
hasty way up the M 152
hands than in my M 152
habit and is the M 152
hated things to be M 151
happy may it be M 151
hated sin in the M 150
hated and to be M 150
harms any of the M 150
happy and we do M 150
happy and if the M 150
hands than if it M 150
hands set up the M 149
harsh cry of an M 148
harsh air of the M 148
harming him in the M 148
happy way in the M 148
happy end of it M 148
hanged him if he M 148
hands set to the M 148
hands can be so M 148
hands and to my M 148
habit was to eat M 148
happy singing of the M 146
happy out of my M 146
hands that by the M 146
hands that at the M 146
hands are in no M 146
hands and as if M 146
halting use of the M 146
habit was by no M 146
happy that by the M 144
happy let us be M 144
happy and by no M 144
habit may be to M 144
haste and it is M 143
haunt you at the M 142
happy now as we M 142
happy man or no M 142
happy day as the M 142
happy air of the M 142
hands ran up the M 142
habit but in the M 142
hated him on the M 140
hated any of the M 140
harsh due to the M 140
happy year of my M 140
happy mean of the M 140
happy man he is M 140
hands with the ring M 140
hands lying in my M 140
halls and in an M 140
happy one of my M 138
happy and so he M 138
hands with on the M 138
hands than is the M 138
hands for it to M 138
hands and be in M 138
habit that we do M 138
hasty way to the M 136
happy was in the M 136
happy thus to be M 136
happy one to be M 136
happy one is in M 136
happy for us in M 136
happy air of an M 136
hands with it as M 136
hands six of the M 136
haven was on the M 134
haven than in the M 134
haunt them to the M 134
happy one it is M 134
happy and do the M 134
hands who in the M 134
hands hung in the M 134
hands and so is M 134
habit owing to the M 134
habit can be so M 134
haste due to the M 132
haste and of the M 132
happy one by the M 132
hands got to be M 132
happy then is he M 131
haste than do the M 130
harms one of the M 130
happy men of the M 130
happy end of an M 130
hands sat on the M 130
hands now as he M 130
hands each to the M 130
hands add to the M 130
habit than is the M 130
harms all of us M 129
haunt him on the M 128
hated you at the M 128
hasty meal on the M 128
haste that in the M 128
happy than if the M 128
happy one if the M 128
happy one as he M 128
happy being on the M 128
hanged six of the M 128
hanged for it by M 128
hands fly to my M 128
hands are on it M 128
habit can be in M 128
hated them as if M 126
happy that is the M 126
happy few of the M 126
happy and be the M 126
hands get in the M 126
habit but as an M 126
haste and to the M 125
happy for us as M 125
hates him as an M 124
hated was to be M 124
hated man at the M 124
harsh things to the M 124
harsh may be the M 124
harsh and in the M 124
happy owing to the M 124
happy for me or M 124
happy for me in M 124
hands with it on M 124
hands thus as it M 124
hands now at the M 124
hands her to me M 124
hands for the thing M 124
hands and of my M 124
hands and as it M 124
hands out by the M 123
haunt him as it M 122
hated them to be M 122
hated him as if M 122
hated for us to M 122
harsh things in the M 122
happy and he so M 122
hands that is to M 122
hands set in the M 122
hands now as if M 122
hands going up in M 122
hands can do so M 122
hands can do is M 122
hands both to the M 122
hands beat at the M 122
happy year of the M 120
happy man is to M 120
happy and is the M 120
happy and go on M 120
hands near to the M 120
hands going up the M 120
hands and by me M 120
hands and be on M 120
halls led to the M 120
hates for us to M 118
hated lying to my M 118
haste and do it M 118
happy with me the M 118
happy with me on M 118
happy now at the M 118
happy each of the M 118
happy and do it M 118
happy age in the M 118
hands then to me M 118
hands and so be M 118
hands they do so M 117
hands that go up M 117
happy out on the M 116
hanged her in the M 116
hands had on the M 116
hands can be in M 116
hands and be at M 116
haven for me in M 114
hated lying to the M 114
hated him in my M 114
happy and to go M 114
happy and of the M 114
hanged her by the M 114
hands with us he M 114
hands sat in the M 114
hands hung on the M 114
hands but to be M 114
hands and go up M 114
habit and of an M 114
haunt them as the M 112
haste with it to M 112
happy with us or M 112
happy way to be M 112
hanged ten of the M 112
hands are by the M 112
halting way to the M 112
halting him on the M 112
halls and up to M 112
habit can be the M 112
habit and is an M 112
hated not to go M 110
harsh saw of the M 110
happy song in the M 110
happy man in my M 110
hands than if he M 110
hands off me in M 110
hands for it is M 110
habit and go to M 110
habit and as an M 110
habit may be as M 109
happy they do so M 108
happy one is the M 108
happy day is to M 108
happy and to the M 108
hands way up in M 108
hands off me at M 108
hands but the king M 108
haunt them at the M 106
happy with us if M 106
happy not in the M 106
happy lying in the M 106
happy boy as he M 106
hanged out of it M 106
hands off of us M 106
hands and is an M 106
halve each of the M 106
halting them in the M 106
habit are in the M 106
haste and do as M 104
happy man if my M 104
happy man if it M 104
happy for it is M 104
happy day as we M 104
hands goes to the M 104
hands due to an M 104
hands and is to M 104
hands and go at M 104
haste and in so M 102
harsh key in the M 102
happy with is the M 102
happy for us it M 102
hands did it go M 102
hands and as an M 102
haunt all of the M 101
hated you up to M 100
happy man to the M 100
hands and to eat M 100
hands him the ring M 99
hands him on to M 99
hasty meal of the M 98
harsh eye of the M 98
happy things in my M 98
happy for me at M 98
hanged than in the M 98
hands thus to be M 98
hands red in the M 98
hands may be on M 98
hands got on in M 98
hands bring on the M 98
hands and up at M 98
habit than on the M 98
habit and as to M 98
hands with the so M 97
haven for me to M 96
happy one if we M 96
happy cry of the M 96
happy but on the M 96
hands than he at M 96
hands off is the M 96
hands lie in my M 96
hands are in it M 96
hands are as if M 96
hands and is of M 96
halting him in the M 96
hasty run to the M 94
haste now to the M 94
happy and so we M 94
hands lay on my M 94
hands are we to M 94
halls was to be M 94
habit that is at M 94
habit now is to M 94
habit and we do M 94
hates being on the M 92
haste and be the M 92
harsh for us to M 92
happy that in an M 92
happy pay to the M 92
happy man is at M 92
happy end to an M 92
happy are to be M 92
hanged than go to M 92
hands now is the M 92
hands can it be M 92
hands and is no M 92
habit each of the M 92
hanged man at the M 91
haven and on to M 90
harsh red of the M 90
harms way in the M 90
happy was to do M 90
happy man as the M 90
happy being on my M 90
happy are in the M 90
hands that go to M 90
hands now of the M 90
hands not to do M 90
hands led me to M 90
hands fly to the M 90
halls run by the M 90
habit that is as M 90
habit can be of M 90
habit and as the M 90
hated doing it to M 88
happy mean is to M 88
happy end of so M 88
happy end is to M 88
happy and at my M 88
hanged out in the M 88
hands than we do M 88
hands out of an M 88
hands one of my M 88
hands but he is M 88
hands and the ring M 88
halting him at the M 88
habit with me in M 88
habit was at the M 88
hates all of the M 86
hasty death in the M 86
harsh than on the M 86
harming you in the M 86
harming all of us M 86
happy that if he M 86
happy lying on the M 86
happy for me is M 86
happy day go in M 86
hands than he is M 86
hands nor by the M 86
hacks led to the M 86
hated had to be M 84
harsh owing to the M 84
harsh cry as it M 84
happy than to the M 84
happy for us is M 84
happy for the king M 84
happy end is the M 84
happy ease in the M 84
happy and in an M 84
hanged them up in M 84
hands set on the M 84
hands each in the M 84
hands dear to me M 84
halving one of the M 84
hands set at the M 83
hates sin in the M 82
hates not to be M 82
hated lot in the M 82
hated her as an M 82
haste then to the M 82
harming her in the M 82
happy year to me M 82
happy then as he M 82
happy than at the M 82
hanged that in my M 82
hanged her on the M 82
hands had in the M 82
hands but as the M 82
hands both at the M 82
halve one of the M 82
halls and it is M 82
habit both of the M 82
happy way of the M 80
happy that the thing M 80
happy end by the M 80
happy earth sing in M 80
happy and so at M 80
happy and is in M 80
hands wet in the M 80
hands hung on to M 80
hands can be at M 80
hands any thing in M 80
halting them at the M 80
habit that is no M 80
habit and do it M 80
hanged men in the M 73
hands and be as M 68
hands him to me M 64
hands her to the M 55
happy with it so M 49
hated man by the M 46
hands with us so M 46
hands her the ring M 43
hands east of the M 43
hated men on the M 42
haste for the king M 42
haste and go on M 42
hanged men on the M 42
habit can be as M 42
haste with me to M 41
happy and be so M 40
happy are ye if D 7801
handing them to the D 7386
hailing him as the D 3786
harry was in the D 3282
handing them to me D 3190
hauling them to the D 3004
hatch out in the D 2858
hatch out of the D 2833
hairs out of the D 2492
harry out of the D 1738
harry was on the D 1714
hails him as the D 1590
handing one of the D 1578
handing out of the D 1483
handing them on to D 1342
hardy men of the D 1316
hadst thou to do D 1297
hairs are to be D 1272
hauling out of the D 1174
harry was at the D 1132
harry was to be D 1046
harry sat on the D 966
handing out to the D 960
hairs out of my D 950
handy man of the D 856
hairs are in the D 834
hairs and in the D 822
harry sat in the D 816
harry and me to D 800
haste thee to the D 792
hairs are on the D 792
hauling her up to D 772
hands met in the D 742
handing one to me D 710
harry had to be D 670
hardy was in the D 650
haled him to the D 650
haled off to the D 646
handing them up to D 640
handing one to the D 624
hatch them in the D 621
hailing one of the D 618
hairs are of the D 606
hands met on the D 602
handing each of us D 600
halts had to be D 600
handy for me to D 576
harry had to go D 560
handing him at the D 548
hatch out at the D 547
hailing them as the D 538
handing them to us D 506
haled out of the D 502
hairs and on the D 500
hares are to be D 497
hardy son of the D 496
hauling one of the D 494
hares out of the D 494
handing her to the D 470
handy way to do D 468
hardy goes on to D 462
hauling him to the D 459
hauling them up the D 456
hatch had to be D 456
harry sat at the D 448
hauls them to the D 446
hadst thou in thy D 446
handy man in the D 444
hairy man of the D 438
hailing her as the D 428
handing him to the D 426
hatch out on the D 410
handing them in to D 404
hauling her to the D 400
hauling them up to D 388
harry got to the D 374
hardy was at the D 372
harry was in no D 366
harry had to do D 354
hailing him as king D 348
harry that he is D 342
handing off to the D 340
handy man at the D 338
hairy than in the D 338
hauls out of the D 334
hauling ore to the D 333
hater may do to D 330
handy use of the D 330
hairs are on my D 326
hauling out on the D 324
harry was up to D 324
harry ran up to D 324
hairs out by the D 320
hanger out of the D 317
harry goes to the D 316
handing each of the D 316
hairs and of the D 314
haiku poet of the D 312
harry ran to the D 310
harry hung up the D 308
hauling him up to D 306
hauling her up on D 300
hatch out of an D 300
hasty zeal of the D 300
harry got up to D 300
hands met at the D 300
hardy was to be D 294
harry did as he D 292
hands tug at the D 291
hauling had to be D 290
harry lee of the D 290
handy for us to D 290
hades and of the D 286
hairy men to be D 282
handing him the ring D 278
hardy was on the D 274
hauling end of the D 271
hauling him up the D 270
hatch was in the D 269
harry was by no D 266
hairy area of the D 266
harem and of the D 260
hardy and in the D 258
hairs than in the D 258
hails her as the D 256
hailing him as an D 256
hairs and at the D 254
harry and me in D 250
hangings are to be D 246
hauling them up on D 244
hairs had to be D 244
harry that if he D 240
harsh caw of the D 238
harry was to go D 238
hatch out of it D 237
harem and in the D 236
hawking them in the D 232
haunt thee in the D 232
handing this to the D 232
hairy head of the D 228
harry let go of D 226
handing out at the D 224
harry lay on the D 220
hawks out of the D 216
harry that the king D 210
hardy put it in D 210
handy with an ax D 210
handy men of the D 208
hardy and of the D 207
harry was in an D 206
hazel was in the D 204
hands and in thy D 203
harsh ringing of the D 202
hairs and by the D 198
hardy that it is D 196
hairy men of the D 194
havoc both on the D 192
harry goes on to D 192
hades and to the D 192
hangar had to be D 190
hauling out to the D 188
hauling him up by D 188
hauling her up the D 184
hardy men in the D 184
handy man to the D 182
hauling hay to the D 180
hatch aft of the D 180
hardy out of the D 180
handing out in the D 180
hawks are in the D 178
hairs cling to the D 178
hairs and so on D 178
harry was of the D 176
hands aft to the D 176
handy man on the D 174
havoc both in the D 172
hangings are of the D 172
hazel nut in the D 170
hatch tab of the D 167
havoc than in the D 166
harsh beam of the D 166
harry one of the D 166
harry lee in the D 166
hairs and to the D 166
harry out to the D 164
hardy him so to D 164
hairs out of it D 162
handy tip is to D 160
hangings and so on D 158
handy man to do D 158
hades was in the D 158
hauling off to the D 156
happy hit at the D 156
hades was to be D 156
hatch and eat the D 155
hands with the ex D 155
hatch set in the D 154
handing out to us D 154
handing him to me D 154
hands and the sea D 152
hailing him in the D 152
handy that it is D 150
handy map of the D 150
handing them to an D 150
handing them in at D 150
hairs may be the D 150
harry sat up in D 148
hangar and on the D 146
handing him on to D 146
hairs and it is D 146
hailing you as the D 146
handing her to me D 144
hairy man in the D 144
hairs may be so D 144
harry has to be D 140
hawks are on the D 138
hawking them on the D 138
hatch cut in the D 138
hangar bay of the D 138
hails them as the D 138
hatch them by the D 136
hatch act in the D 136
happy art of the D 136
haled off by the D 136
hazel out of the D 134
hangings had to be D 134
handy way is to D 134
hairy arm of the D 134
havoc that it is D 132
harry met me at D 132
harry has to go D 132
hairy men in the D 132
hardy one of the D 131
hauling them up by D 130
haste thee to thy D 130
hardy and it is D 130
hardy air of the D 130
haply any of it D 130
hands fiat on the D 130
hairy paw of the D 130
hairy ape at the D 130
hailing you in the D 130
hares and so on D 129
hands with the sea D 129
harry set up the D 128
haloed head of the D 128
hades and in the D 128
hauling her on the D 126
hands met in an D 126
hauls out on the D 124
harry and me at D 124
harem was to be D 124
hangings and in the D 124
handing her on to D 124
harps are of the D 122
handy men in the D 122
hatch and in the D 121
harps hung on the D 121
hazel rod in the D 120
hauling them up in D 120
harry are in the D 120
hardy was of the D 120
happy hum of the D 120
handing off of the D 120
hairs due to the D 120
hazel sat on the D 118
hauls him to the D 118
harry put on the D 118
harem are to be D 118
handy and at the D 118
handing things to the D 118
harry got on the D 116
harry and me on D 116
hails one of the D 116
hales them to an D 115
hawks hung in the D 114
hawks are to be D 114
hauling him by the D 112
hared off to the D 112
handing out to an D 112
haled them to the D 112
hairs may be of D 112
hails him as an D 112
hatch out in an D 111
hauling them in by D 110
hatch was on the D 110
hardy was by no D 110
happy man at sea D 110
hairy ape in the D 110
hauls and in the D 108
hauling them in the D 108
hauling hay in the D 108
hatch them in an D 108
harry was in my D 108
handing them to my D 108
hailing two of the D 108
hazel was to be D 106
hasps put to the D 106
harem than on the D 106
harem out of the D 106
hairs both on the D 106
havoc with it in D 104
harry got in the D 104
handy boy in the D 104
handing her up to D 104
hairs are at the D 104
hailing him at the D 104
hazel run to the D 102
hauling them in as D 102
hatch act on the D 102
hasty sip of the D 102
hardy sat on the D 102
hardy had to be D 102
hated tax on tea D 100
harry can do it D 100
happy hit in the D 100
happy art in the D 100
hangar was to be D 100
hairs set in the D 100
hazel was on the D 98
havoc was in the D 98
hauling out in the D 98
hauling all of the D 98
hater was he of D 98
hatch led to the D 98
harry our king is D 98
harry lying on the D 98
hauling was to be D 96
hauling them in to D 96
harry not to be D 96
harry may be the D 96
harry lay in the D 96
hares run by me D 96
hardy sit in the D 96
handy and it is D 96
handing her up the D 96
hauls are to be D 94
hauling him up on D 94
hatch has to be D 94
hatch act is the D 94
harry that it is D 94
harry not to go D 94
hardy had to do D 94
happy near the sea D 94
hangar and in the D 94
hairs lie in the D 94
hailing him on the D 94
hailing him as he D 94
hatch and on the D 93
hazed out of the D 92
harry going to do D 92
harry and to be D 92
hardy man of the D 92
handing out to me D 92
hairy paw on the D 92
hauling things to the D 91
hatch out by the D 91
hauling her up by D 90
harry and to the D 90
happy hit of the D 90
handing them on in D 90
hairs are up to D 90
hades god of the D 90
hazel and me to D 88
hauling them on the D 88
hatch was at the D 88
harsh din of the D 88
harry ran up the D 86
handy was in the D 86
hairs and as the D 86
hailing them on the D 86
hands raw on the D 84
hands met as he D 84
hands dug in the D 84
halts are to be D 84
hairy ape is the D 84
hairs that be of D 84
hailing this as the D 84
hardy sat in the D 82
hardy man in the D 82
handy key to the D 82
handy for me as D 82
handy and in the D 82
handing her the ring D 82
hails him as king D 82
hatch and up the D 80
hasty rap at the D 80
harry has to do D 80
harps are to be D 80
hands met as we D 80
hairs that it is D 80
hairs out of an D 80
hauls her to the D 45
harry and me as D 45
hauls out to the D 43
hatch and to the D 42
hauling off of the D 41
hadst set me an D 40
