habits of mind " M 3112
habits of life " M 954
happen to have " M 816
happen to know " M 752
handling of these " M 282
habits of these " M 238
habits of living " M 234
habits of work " M 222
harder to find " M 208
hardly be more " M 194
hardly be said " M 188
handle the truth " M 162
hatred of these " M 160
happen to their " M 134
hatred of those " M 126
handle the word " M 126
happen to call " M 124
happen to meet " M 118
habits of their " M 118
happen to these " M 112
hardly the only " M 110
happen to live " M 110
handling of such " M 110
happen to like " M 104
hatred of life " M 102
habits of those " M 96
happen to your " M 90
hatred of their " M 88
hardly the time " M 88
happen in life " M 88
handle the case " M 86
happen to those " M 84
happen to fall " M 80
