happen a lot . M 1494
happen a lot ? M 1246
hardly a man . M 880
hardly a year . M 646
harmed a fly . M 560
handle a job . M 473
handle a man . M 332
hardly a sin . M 298
hardly a boy . M 270
handle a dog . M 257
handle a team . M 251
handle a bow . M 192
handle a lot . M 178
halted a day . M 178
hardly a day . M 170
harmed a man . M 152
hardly a kid . M 142
hardly a cry . M 142
habits a bit . M 126
hardly a lie . M 112
hardly a poet . M 106
handling a job . M 106
handle a saw . M 106
handling a team . M 96
hardly a war . M 94
handling a dog . M 92
harmed a fly ! M 86
