act otherwise . " M 2463
act mentioned . " M 372
act properly . " M 315
act provided . " M 280
act unjustly . " M 208
act likewise . " M 200
act normally . " M 194
act entirely . " M 194
act ethically . " M 128
act occurred . " M 127
act otherwise ? " M 125
act proceeding . " M 112
act directly . " M 111
act whatever . " M 108
act yourself . " M 107
act stupidly . " M 106
act straight . " M 106
act strangely ? " M 100
act requires . " M 98
act purposes . " M 96
act violently . " M 84
act innocent . " M 48
act strangely . " M 43
