action may be a M 7746
acted out of a M 7724
acted out in a M 7616
action and as a M 5828
action led to a M 5060
action can be a M 4820
acted both as a M 4610
actor and as a M 4018
action that is a M 2862
acted out on a M 2772
acted not as a M 2526
action and in a M 2377
action was on a M 2230
action out of a M 2032
action and is a M 2026
acted out by a M 1968
action but as a M 1904
action due to a M 1871
action and to a M 1749
action may as a M 1572
action and of a M 1525
actor who is a M 1514
action was of a M 1498
acted out as a M 1474
actor but as a M 1164
action was by a M 1060
action than as a M 1024
action this is a M 966
actor may be a M 926
action was in a M 924
action and by a M 920
action not as a M 895
acids and is a M 824
actor than as a M 800
action than in a M 776
actor can be a M 774
action was at a M 658
acids may be a M 658
action but of a M 631
action but in a M 624
actor out of a M 592
acids one at a M 584
action are in a M 578
acids and to a M 548
acids are in a M 540
action are of a M 538
action but by a M 534
actor was in a M 478
acids and as a M 464
acted all in a M 462
action but to a M 455
action but is a M 450
action not of a M 442
action lead to a M 398
action lay in a M 390
action and on a M 358
action that in a M 352
action than to a M 350
acted thus as a M 342
action being of a M 332
action set up a M 318
acute than in a M 314
action than is a M 314
action and at a M 304
action set in a M 300
action was to a M 288
action that of a M 288
acids and of a M 288
action than by a M 280
action but on a M 278
acute and in a M 272
action both as a M 266
acids act as a M 261
acids and in a M 258
acted but as a M 254
acute and of a M 252
acted out at a M 252
acted not in a M 252
action than of a M 246
action are to a M 240
acids are of a M 234
action owing to a M 228
acute and as a M 226
acids led to a M 226
action and be a M 216
acids due to a M 210
acids and by a M 204
action are at a M 198
acids can be a M 186
action was as a M 182
acted now as a M 182
acids out of a M 182
action led by a M 180
acted but in a M 180
acids act in a M 180
action and if a M 174
actor but by a M 160
action one at a M 157
actor than to a M 156
action than on a M 146
action set is a M 146
actor that is a M 142
action can to a M 140
acids lead to a M 140
actor has in a M 136
acted then as a M 134
acute fear of a M 132
actor who in a M 132
action then is a M 132
action lie in a M 132
acids that is a M 132
acted thus in a M 128
action and if i M 126
actor does in a M 124
actor can do a M 124
actor and of a M 124
actor and is a M 124
action who is a M 124
actor put on a M 120
acted out to a M 120
acute due to a M 116
action has as a M 116
action can go a M 114
action and so a M 114
acorn meal in a M 113
action but at a M 112
action not in a M 110
action are as a M 108
acids are to a M 108
acids are as a M 106
acute eye of a M 104
action that as a M 104
action has to a M 102
action being on a M 100
acids and the d M 100
action has in a M 98
action not by a M 96
action nor to a M 96
action going at a M 92
actor was at a M 86
acute and is a M 84
actor who as a M 84
actor was on a M 84
actor and in a M 84
action being in a M 82
action are on a M 82
action and so i M 82
acted then as i M 82
action can do a M 80
acids with the d M 43
acids and the a M 41
acres out of a D 4800
acres and is a D 858
acres are in a D 658
acres may be a D 243
acres lying in a D 168
acres each at a D 154
acres and in a D 136
acres and at a D 106
acres each in a D 92
acres lying on a D 82
