according to law . M 234419
account of them . M 87909
according to age . M 43484
according to them . M 29547
account of him . M 28097
according to him . M 26207
account of this . M 24814
account at all . M 14317
account of age . M 11623
account of her . M 7943
account of you . M 7461
according to god . M 7008
account of that . M 6889
according to use . M 6450
according to her . M 6238
account of sin . M 5572
accused of doing . M 5260
according to you . M 5106
according to law ? M 4808
account of things . M 4623
account to god . M 4024
achieve the end . M 3820
according to this . M 3656
according to you ? M 3604
accused of being . M 3470
according to that . M 3330
achieve an end . M 3256
account to him . M 3176
accrued to him . M 2934
account of both . M 2780
accepting the job . M 2632
account of them ? M 2429
account of each . M 2364
accrued to them . M 2336
account or not . M 2328
accused of lying . M 2096
account of god . M 2060
according to can . M 2014
according to area . M 2006
according to his . M 1898
account of all . M 1839
accused of that . M 1754
achieve the aim . M 1590
accused of this . M 1502
account of him ? M 1499
achieving the end . M 1488
account to you . M 1388
account of death . M 1349
account in man . M 1340
accepting of them . M 1332
account of man . M 1328
account to them . M 1320
account of his . M 1264
accused of bias . M 1250
account of war . M 1210
account of this ? M 1210
achieving an end . M 1166
accrues to him . M 1157
according to man . M 1116
according to them ? M 1054
account so far . M 945
according to law ! M 912
account of law . M 879
accrues to them . M 878
according to one . M 838
account of him ! M 810
account of fear . M 766
accessing the web . M 738
account of one . M 731
achieving the aim . M 724
account at all ? M 719
according to him ? M 700
according to both . M 700
accused to death . M 692
accused of doing ? M 692
accepting of him . M 672
accepting the new . M 664
accepting the idea . M 662
account of that ? M 656
account to her . M 636
account in them . M 630
according to lot . M 594
accepts the job . M 574
account of being . M 556
according to who ? M 538
account as this . M 536
according to job . M 526
achieve at all . M 510
account to use . M 507
account is due . M 506
accepting of her . M 500
according to app . M 498
accused or not . M 480
according to all . M 474
achieve an aim . M 472
account of its . M 470
achieve on earth . M 464
according to age ? M 464
achieve my aim . M 446
account by them . M 444
accused of them . M 438
account of you ? M 437
achieve so far . M 436
according to year . M 418
account of heat . M 416
account is this . M 412
academy on aging . M 402
account by him . M 401
account of you ! M 392
account of them ! M 392
achieve by this ? M 384
account is not . M 368
according to who . M 368
according to god ? M 368
account of her ? M 364
account of sin ? M 352
account as this ? M 340
academy at all . M 334
accepting it all . M 332
accused no one . M 330
accused by him . M 328
according to each . M 324
according to act . M 316
accepting my death . M 314
academy of law . M 310
according to its . M 308
accused at all . M 306
according to men . M 298
achieve by that ? M 296
according to key . M 290
account of men . M 278
accrued to her . M 276
accused of being ? M 270
accepting of this . M 270
account as yet . M 268
achieve my end . M 266
accepting the deal . M 266
accepting the bid . M 266
accepts the deal . M 260
according to may . M 256
accepts the idea . M 256
account of her ! M 252
acquire it all . M 250
according to our . M 246
accused of sin . M 244
account by god . M 244
according to man ? M 240
acquire the new . M 238
according to you ! M 238
accepting the lot . M 238
accused of both . M 234
account at all ! M 234
according to being . M 234
according to air . M 234
accepting the cup . M 234
accepting of death . M 232
account or not ? M 230
account of any . M 226
accepting the law . M 226
accepting of that . M 226
accepts it all . M 220
account to you ? M 216
accepts or not . M 216
accepting of you . M 216
account is easy . M 213
acquire at all . M 210
achieve it now . M 206
according to him ! M 198
according to hue . M 194
accepts the bid . M 194
account in this . M 192
accepting the plea . M 192
accused by them . M 190
according to max . M 188
accepting the job ? M 188
account of use . M 186
account of things ? M 186
accepts the lot . M 186
accepts as real . M 186
account is low . M 184
accepts the bet . M 184
achieve it all . M 180
according to myth . M 178
accepting it now . M 178
account it was . M 173
accused of that ! M 172
accepting my arm . M 172
according to them ! M 166
according to pay . M 166
accepting or not . M 166
account to god ? M 165
accused by you . M 164
according to long . M 164
acquire the air . M 161
achieve by them . M 160
accused of using . M 158
acquire it now . M 150
account of that ! M 150
according to zen . M 148
achieve in war . M 146
account of how . M 146
accused of this ? M 144
according to use ? M 144
according to that ? M 144
according to day . M 144
accrued to him ? M 142
according to this ? M 142
account we can . M 141
achieve by war . M 140
account is this ? M 139
acquiring the new . M 136
achieve the way . M 132
accrues to you . M 132
according to her ? M 132
account of job . M 130
achieve or not . M 128
accused of lying ? M 128
accepts it now . M 128
academy or not . M 126
account is that ? M 125
academy of them . M 124
according to don . M 122
accepting of things . M 122
academy of war . M 122
account to man . M 120
account or both . M 120
account is read . M 120
accepting an idea . M 120
accused the man . M 118
account of bias . M 116
achieving an aim . M 114
achieve the end ? M 114
accused the old . M 114
account of pay . M 114
acquire it too . M 112
accrued on them . M 112
account of sin ! M 112
accepting the end . M 112
academy of singing . M 110
account in law . M 109
account to pay . M 108
account of myth . M 108
account in men . M 108
account as now . M 108
accepting the death . M 108
accused to end ? M 106
account or two . M 106
account of this ! M 106
academy of old . M 106
achieve by this . M 104
according to things . M 104
accepting of all . M 104
academy in may . M 104
acquire the area . M 102
accused of things . M 102
accrued at death . M 98
accessing the net . M 98
accepts the new . M 98
accepting the war . M 98
achieve in them . M 96
account is for . M 96
accepting the bit . M 96
account in war . M 95
achieve it too . M 94
according to mad . M 94
accepting the act . M 94
account to them ? M 93
account do not ! M 92
accepting it then . M 92
accused of now ? M 90
accrued to you . M 90
accepts the end . M 90
accepting the seat . M 90
accepting of both . M 90
accrued so far . M 88
account at that . M 88
acquire by war . M 86
account to his . M 86
accepting the bag . M 86
account as his . M 85
acutely of all . M 84
accused of one . M 84
accepts the plea . M 84
accepts it too . M 84
accepting the key . M 84
accused of that ? M 82
account to god ! M 82
account of why . M 82
account of age ? M 82
academy of wit . M 82
achieving my aim . M 80
account to read . M 80
account of god ? M 80
account by you . M 61
account by all . M 47
account by now . M 42
