academic world , " M 875
actually wrote : " M 741
accident facts , " M 691
academic women , " M 640
actually wrote , " M 626
accident prone , " M 594
actually exist , " M 508
accounting method , " M 484
actually asked , " M 430
academic study , " M 414
academic press , " M 390
actually works , " M 378
accepted sense , " M 364
accounting guide , " M 336
academic writing , " M 280
acoustic space , " M 275
actually thinking , " M 272
activist noted , " M 266
accounting rules , " M 257
academic learning , " M 197
accounting period , " M 193
accident cases , " M 190
accurate words , " M 186
actually blind , " M 176
actually lived , " M 172
actually working , " M 170
academic field , " M 158
achieved anything , " M 154
actually occur , " M 148
actually thinks , " M 146
actually begun , " M 136
actually asked : " M 136
accounts agree , " M 134
actually cried , " M 124
accepted rules , " M 124
academic paper , " M 124
academic world : " M 122
academic terms , " M 122
academic style , " M 122
accounting fraud , " M 120
actually exist : " M 116
actually write , " M 114
activist wrote , " M 114
accident today , " M 114
academic sense , " M 112
accepted today : " M 110
activist group , " M 99
actually playing , " M 96
accurate today : " M 96
academic games , " M 96
accurate terms : " M 94
academic voice , " M 94
accurate proxy , " M 92
academic essay , " M 92
accurate count , " M 88
accurate terms , " M 86
actually thinking : " M 82
actually began , " M 82
actually added , " M 80
academic terms : " M 80
acquired habit , " M 51
accident costs , " M 50
accepted maxim , " M 48
