aim here is not M 16189
air from the air M 7419
air will do you M 6694
air during the day M 4571
air from the top M 4398
air into the air M 2698
air moving in and M 2074
air from the east M 2052
air from the bag M 2006
aid during the war M 2004
air when it was M 1969
air over the top M 1830
air from an air M 1807
air over my head M 1766
air when he was M 1746
aid from the new M 1690
air from the earth M 1614
aid when he was M 1589
air into or out M 1524
aid when it was M 1442
aim must be not M 1331
air over the earth M 1321
air flow is not M 1293
air make the area M 1282
air like he was M 1206
air when the sun M 1148
air will do her M 1136
aid from the east M 1132
air into the bag M 1068
air coming in and M 946
air flow in and M 916
air like it was M 912
air over the wings M 892
air will do him M 878
aim will be not M 870
air along the path M 858
aim must be that M 814
air from the heat M 807
air into the eye M 803
air from the two M 797
air when the air M 779
air from the rear M 764
air into the top M 748
air into the area M 714
air flow so that M 704
air when he saw M 700
air base in new M 700
air prior to its M 696
air into the mix M 692
air from the low M 684
air ahead of him M 682
air like an old M 676
air upon the earth M 653
air into it and M 644
air like the wings M 642
air from the end M 640
aid during the year M 636
aim must be for M 624
aid from the red M 623
air during the war M 622
air ahead of them M 618
aid from the two M 613
air over the head M 606
air left in his M 606
air into the box M 588
air from the box M 580
air from the one M 531
air when he had M 530
air must be dry M 530
aid came to him M 522
air into it with M 514
air pass in and M 504
air came in and M 498
air when it has M 490
air till it was M 490
air just as they M 490
air next to her M 489
air trying to get M 478
air came in with M 470
air fare to and M 468
air next to his M 463
air next the earth M 461
air flow to and M 460
air over the area M 458
aim here is for M 440
air left in her M 436
air when the two M 434
air from the can M 434
air from the dead M 425
air mass is not M 424
air during the long M 422
aid from no one M 410
aid only if they M 407
air from an area M 406
aid when we are M 406
air from the area M 396
air there is not M 385
aid from the old M 385
air some of his M 380
air time to all M 376
air over the wet M 376
air from the old M 374
air into the low M 372
aim here is that M 372
air during the dry M 366
air from the far M 363
air will do for M 362
air five or six M 356
air move in and M 353
aim will be for M 352
aid only of his M 352
air during the act M 350
air blow on his M 348
air used in this M 346
aid came to them M 344
air flow in this M 341
air here is not M 340
aid from the law M 339
air came to him M 338
air into the earth M 337
air gets in and M 334
air during the heat M 334
aid along the way M 329
air must be let M 324
aid will be cut M 322
aid from the kings M 316
aim will be that M 315
air from the new M 313
air when we are M 310
air next to him M 310
air from the dry M 310
air flow at low M 310
air will be too M 304
aid such as that M 295
air came to her M 294
air will be set M 292
air next to them M 292
air from it and M 288
air rush in and M 284
aid from the men M 278
air such as that M 277
air will go out M 275
air were it not M 274
air flow is then M 274
air come to our M 274
air into the ash M 268
air told me that M 267
air from the sky M 262
air will be all M 258
air over an area M 258
air into an air M 258
air from the long M 256
aid even if they M 256
air from the head M 252
aid when he had M 252
air along the earth M 250
aid from the arm M 250
air flow to each M 248
air when he got M 244
air line is not M 243
air mass an air M 242
air come in and M 242
air into an area M 240
air over the two M 238
air into the two M 237
air from an old M 236
air till he was M 234
air from the red M 234
aim only at being M 233
aid from the god M 232
air sent to his M 230
air over the dry M 228
air from the cup M 228
air flow in each M 227
air mail or air M 226
air like the song M 222
air into the old M 222
air till it has M 220
air upon the top M 219
air from the wings M 218
air from the pit M 218
air from the sun M 216
aim only at our M 214
air will do them M 210
air mass is being M 210
aim only at one M 209
air felt on his M 208
air flow is too M 206
air came up and M 206
air coming in off M 205
aim high or low M 205
air past the wet M 204
air down to him M 204
air must be set M 202
air cool on his M 202
air moving up and M 201
aid from the non M 201
air here is too M 198
air from the man M 198
air back to its M 198
air went in and M 196
air from the wet M 196
air from an ill M 196
air cool on her M 196
air just as you M 194
air ahead of her M 192
aid from the one M 191
air into the head M 190
air came to them M 190
air from the ash M 188
air came to his M 188
aim only at its M 188
air over the heat M 184
air full of its M 184
aid from the air M 182
air only by two M 180
air along the way M 180
aid some of his M 179
air when the heat M 178
air prior to use M 178
air just as she M 178
air into the can M 178
aid such as this M 177
air over it and M 176
aid used in this M 176
air from the day M 175
air moving in all M 174
air flow is low M 174
air till we are M 172
air over the old M 172
air coming in with M 172
aid sent to him M 172
aim only at that M 171
air till the end M 170
air flow in one M 170
air during the year M 170
air flow at all M 169
air back to her M 168
air when we got M 166
air prior to being M 166
air from the die M 165
air into the sky M 164
aid those of our M 164
aim when he was M 163
air told us that M 162
air even if they M 162
air blow on her M 162
air base in east M 162
aid even if you M 162
air from the big M 160
air into the dry M 158
aim such as this M 158
air from the mid M 157
air into the long M 156
air from the mix M 156
aid sent to them M 156
air like he had M 154
air base to air M 154
aid will be for M 154
air when in its M 152
air time at all M 152
aim only to get M 152
aid their king and M 152
air fare to new M 148
air over the low M 147
aid from the man M 147
air full of them M 146
air flow at any M 146
air into the man M 145
air from the year M 145
aim here is thus M 144
air such as one M 143
aim only at his M 143
air mass in its M 142
air into it for M 142
air back to his M 142
aid during the day M 142
air into the rear M 140
air fell on her M 140
air back in his M 140
air some of her M 139
air till the dead M 138
air once it has M 138
air move to try M 138
air mass is dry M 138
air like the cry M 138
air down to its M 138
aid from the dead M 138
air during the two M 137
air upon the head M 136
air only as long M 136
air next to its M 136
air mass is one M 136
air left in them M 136
air cold on his M 136
air along the top M 136
aid when he goes M 136
aim must be one M 135
aid those of his M 135
air into the pit M 134
air flow at each M 134
aid must be had M 134
aid will be too M 132
air leave no long M 130
air flow or air M 130
air will be that M 128
air when he did M 128
air flow to all M 128
aid from the few M 128
aid from the big M 127
air must be got M 126
air into the boy M 126
air here in this M 126
air even as she M 126
air when it can M 124
air when he has M 124
air here is bad M 124
air full of that M 124
air fell on his M 124
air base is being M 124
air base in this M 124
aim must be set M 124
aid will be put M 124
air will be dry M 122
air base on one M 122
air arms of both M 122
aim during the war M 122
aid will go but M 122
aid from us and M 122
air time to one M 120
air moving to and M 120
air even in its M 120
air coming in was M 120
air cold on her M 120
air came at them M 120
aid from the war M 120
air such as they M 119
air when the sky M 118
air used to dry M 118
aid from the use M 118
air along the air M 117
air such as this M 116
air such as are M 116
air next to our M 116
air flow at this M 116
aid from the head M 116
air time on all M 115
air mail to all M 114
air gets to them M 114
air from the meat M 114
air deals so you M 114
aim were to get M 114
aim high if you M 114
aid when he saw M 113
air will do that M 112
air there is too M 112
air flow on both M 112
air even in his M 112
aim high in his M 112
aim here is both M 112
aid make of all M 112
aid from the then M 111
air over it with M 110
air like the air M 110
air into the end M 110
air down the long M 110
aid lies in its M 110
aid coming to them M 110
air over the east M 109
aim here to try M 109
aid only if you M 109
air when it goes M 108
air time is not M 108
air made me long M 108
air flow is set M 108
air flow is due M 108
air like the one M 107
aim there is not M 107
air only so long M 106
air mail to and M 106
air just to see M 106
air into the wet M 106
air flow is cut M 106
air clear as this M 106
aid from it and M 106
aid when he has M 105
air when the dry M 104
air time to any M 104
air into the heap M 104
air into the gap M 104
air from the eye M 104
air from the arc M 104
air even at that M 104
ail whom it may M 104
aid some of our M 104
air when no one M 102
air flow is one M 101
air when the man M 100
air when in this M 100
air some of its M 100
air made us both M 100
air into the cup M 100
air from it with M 100
air flow in all M 100
aim will be both M 100
aid over the cut M 100
aid much to end M 100
air time to get M 99
air only if they M 99
air from the cut M 99
air flow in both M 99
air used is not M 98
air past the wings M 98
air over the end M 98
air lift is not M 98
air lies on top M 98
air ahead of and M 98
aid much in this M 98
air mass so that M 97
air when he can M 96
air time to run M 96
air play on her M 96
air mail is not M 96
air just the way M 96
air into the red M 96
air base to see M 96
air into the mid M 95
aim when it was M 95
air moving in one M 94
air mass is now M 94
air into the new M 94
air coming up out M 94
air clinging to his M 94
air clinging to her M 94
air came to our M 94
air burn in her M 94
air time to each M 93
air will be let M 92
air when we had M 92
air upon the wings M 92
air such as may M 92
air moving at all M 92
air just to get M 92
air held in its M 92
air coming in that M 92
air base in his M 92
aim much at this M 92
aid into the area M 92
aid from an old M 92
air into the dead M 91
air prior to and M 90
air made us all M 90
air from it was M 90
air from as far M 90
air flow to any M 90
air even if you M 90
air mass is then M 89
air moving in any M 88
air like it had M 88
air from my own M 88
air fare to get M 88
air even as they M 88
air during the run M 88
aid came to her M 88
air into the heat M 87
air when we saw M 86
air must be too M 86
air move to and M 86
air made up for M 86
air like my own M 86
air full in his M 86
air from my eye M 86
air fare if you M 86
aid from the poet M 86
air time to this M 84
air like the heat M 84
air free of all M 84
aim when it has M 84
aim when he had M 84
aid over the long M 84
aid from the eye M 84
air during the six M 83
air when the war M 82
air over the boy M 82
air over it was M 82
air left in him M 82
air from the men M 82
air come to him M 82
air born of being M 82
air base in that M 82
air flow is thus M 80
air even at this M 80
aim only if they M 80
air lock so that M 59
air line so that M 54
aid from the rear M 53
air time so that M 52
air into the arc M 52
aid during the two M 51
air will be one M 50
air ratio is not M 50
aid some of them M 50
air ratio is too M 48
aid from the aid M 48
aim into the air M 47
aim when we are M 45
air over the rear M 44
aid many of them M 44
air time on one M 43
air mass is that M 43
air some of our M 41
air over the sun M 41
air life he had M 41
air used in air M 40
air show in new M 40
air life of our M 40
air base is not M 40
air from the fan D 2872
air from the lung D 2236
air into the lung D 1938
air into the vial D 1213
air from the hot D 1126
air into the gas D 1088
air from the ice D 1054
air into the car D 882
aid from the oil D 808
air into the hot D 784
air over the ice D 717
air from the jar D 688
air from the bay D 680
air stung us and D 592
air from the gas D 589
air from the oil D 570
air over the hot D 558
air during the hot D 536
air from the car D 520
air into the oil D 493
air from the jet D 486
aid will be met D 476
air leaving the air D 454
air bags in all D 446
air into the jar D 428
air leaving the fan D 392
air pump is not D 369
air from the tip D 360
air into the sac D 354
air into the bed D 322
air into the ice D 304
air heats up and D 298
air when he dug D 288
air blew on her D 284
air leaving the heat D 269
aid from the earl D 258
air blew in and D 252
air past the jet D 248
air into the jet D 248
air raid in may D 238
air into the fan D 238
air leaving the bed D 236
air over the bed D 230
air blew in his D 226
air clung to her D 214
air blew on his D 214
air over the bay D 212
air into the leaf D 209
air leaving the top D 205
air into the bath D 204
air from the gun D 204
air over the seas D 200
air into the egg D 200
air raid on our D 198
air raid on may D 196
air raid of may D 194
air sacs in his D 192
air raid on his D 184
air bags in new D 182
air when the gas D 172
air sacs do not D 170
air clung to him D 170
air among the thin D 168
air must be fed D 166
air from the bed D 164
air blew up her D 164
air pump so that D 162
air from the vial D 160
air drying is not D 157
air when the car D 156
air clung to his D 156
air into the ears D 154
air blew in with D 152
air when it hit D 150
air over the leaf D 148
air from the seas D 148
air blew in her D 148
air raid on that D 144
air tank on his D 142
air sacs on each D 142
air pump or air D 141
air from the leaf D 141
air bringing the dew D 138
aid from the gun D 132
air into the sub D 131
air raid on this D 130
air bags on all D 130
aid fell on deaf D 130
air tore at his D 128
air pump of his D 128
air into the cab D 128
air bags do not D 126
air raid the day D 124
air from the mud D 124
air raid or not D 122
air from the sub D 119
aid lent by them D 118
air when the hot D 116
air gets so hot D 116
aid from the art D 116
air from the pan D 114
air when the fan D 112
air vent on top D 112
air leaking in and D 111
air into the jug D 110
air into the gun D 108
air bore to him D 106
air pump is then D 104
air over the ears D 104
aid from the mob D 104
air sacs in its D 100
air raid we had D 100
air into the pan D 100
air film is not D 100
air bags or seat D 98
air toss to and D 96
air raid on new D 96
air hose in his D 96
air full of fog D 96
air pump is one D 93
air over the oil D 93
air over the tip D 92
air leaks in and D 92
air from the peak D 92
air bags on both D 92
air when he hit D 90
air like an axe D 89
air sacs in each D 88
air blew in our D 88
air base at tan D 88
air from the lip D 84
air biting at his D 84
air base at cam D 84
air there is thin D 82
air sacs is not D 82
air past the hot D 82
air like the hum D 82
air from the egg D 82
aid from my art D 82
air take to bed D 80
air raid of any D 80
air blew on him D 80
air bears to its D 80
air heating or air D 70
air into the fat D 67
air from an oil D 56
air vent so that D 52
air duct so that D 51
air sacs so that D 48
air over the gas D 42
air duct is not D 41
