as if i had M 1021198
as if i was M 388622
as if a man M 105798
as if i did M 91846
as if a new M 39861
as of a man M 32270
as in a few M 23357
as if i can M 20560
as to a man M 17917
as if i saw M 15516
as to a god M 12541
as to a new M 11265
as in a real M 10018
as in a new M 9686
as in a man M 8236
as to a few M 7488
as on a map M 7346
as if a long M 6534
as if a few M 6528
as in a net M 6200
as in a long M 6007
as in a way M 5873
as in a and M 5787
as in a map M 5707
as if a big M 5636
as of a new M 5508
as at a and M 5406
as if a real M 5110
as in a poem M 5033
as in a war M 4642
as in a bad M 4469
as in a day M 4335
as is a man M 4309
as the a and M 4242
as of a few M 4144
as by a man M 4071
as if i too M 4000
as in a two M 3930
as if a lot M 3806
as by a new M 3654
as if a red M 3592
as if a dog M 3568
as if a god M 3547
as do a few M 3517
as if a war M 3303
as by a law M 3226
as in a one M 2975
as if a dead M 2942
as on a day M 2939
as if a bit M 2864
as by a few M 2822
as in a non M 2804
as in a dry M 2771
as to a real M 2474
as if a fly M 2412
as in a low M 2388
as to a dog M 2357
as of a being M 2318
as on a new M 2210
as to a being M 2159
as in a fit M 2073
as in a box M 2073
as if t had M 1984
as in a big M 1982
as to a law M 1969
as if i see M 1942
as to a long M 1938
as in a cup M 1874
as of a dead M 1868
as in a death M 1789
as if i got M 1766
as if i and M 1764
as of a god M 1721
as if i may M 1710
as if a boy M 1690
as to a son M 1631
as is a new M 1619
as on a few M 1605
as in a set M 1600
as if a cat M 1594
as in a song M 1546
as of a real M 1540
as in a law M 1532
as in a but M 1509
as of a long M 1460
as on a long M 1438
as in a year M 1428
as if i lay M 1408
as by a long M 1388
as if a law M 1383
as to a set M 1375
as of a dog M 1367
as at a new M 1359
as in a job M 1331
as if a had M 1314
as on a man M 1312
as to a non M 1285
as if a being M 1283
as if a bad M 1272
as at d and M 1254
as if i now M 1242
as of a year M 1234
as if a death M 1216
as in a web M 1200
as in a bag M 1186
as to a way M 1168
as of a day M 1167
as of a far M 1150
as to a plea M 1122
as in a lot M 1115
as if a and M 1086
as if a mad M 1084
as in a dog M 1058
as if i read M 1048
as of a low M 1045
as in a bar M 1044
as of a boy M 1042
as in a dead M 1040
as the s and M 1032
as if a bear M 1000
as to a dear M 990
as if a year M 988
as if a day M 985
as in a wet M 981
as in i and M 972
as if a poet M 956
as at a cup M 954
as to a dying M 950
as if i sat M 924
as if a son M 919
as if i owe M 902
as if i say M 900
as by a sun M 896
as on a real M 894
as in d and M 890
as if i put M 878
as of a poet M 872
as in a dim M 872
as if i hear M 872
as of a dying M 870
as if a key M 866
as in a dying M 852
as in a red M 849
as if i bad M 848
as the t and M 844
as in a heat M 838
as in a far M 832
as if a two M 814
as in a head M 812
as if a set M 812
as if a net M 798
as of a son M 794
as if a poem M 794
as the i and M 790
as in a pre M 777
as to a and M 759
as to a war M 758
as if a bar M 758
as if a low M 717
as at a man M 714
as at a low M 705
as of a cat M 696
as of a red M 692
as of a big M 692
as if i let M 684
as if a sun M 684
as to a day M 682
as in a team M 664
as to a boy M 656
as to a sum M 654
as the d and M 650
as in a cut M 642
as in a pit M 638
as at a few M 620
as of a law M 615
as of a bad M 596
as in a near M 591
as to a dead M 589
as to a bad M 582
as is a set M 576
as in a with M 575
as in a cat M 572
as if a team M 572
as in a bear M 566
as in i kings M 556
as to a poet M 554
as if i mean M 550
as is a real M 544
as if a wet M 542
as of a set M 541
as in a son M 537
as if i ran M 534
as if a log M 524
as in a heap M 521
as an a and M 520
as if a way M 510
as do a lot M 503
as by a set M 500
as in a log M 497
as on a god M 494
as if i set M 494
as if i get M 490
as in a boy M 482
as if a song M 482
as by a low M 480
as of a bear M 476
as in a god M 471
as in a weak M 470
as by a real M 462
as in a for M 461
as is a dead M 459
as on a web M 454
as at a real M 454
as on a dry M 452
as is a long M 452
as in a bow M 452
as if a dim M 426
as if a bet M 426
as on a set M 421
as if a box M 421
as to a one M 420
as if a ten M 418
as if a dear M 418
as in a myth M 415
as if a head M 412
as if a fit M 408
as if a non M 406
as if a far M 406
as to a seat M 404
as in a sky M 403
as at a being M 400
as of a key M 396
as in a six M 395
as to a two M 390
as if i own M 390
as if a map M 378
as if a dry M 374
as by a fear M 374
as if a bag M 372
as if a path M 368
as to a big M 366
as if a deal M 366
as of a weak M 364
as of a sun M 364
as if a cry M 364
as in a not M 362
as do i and M 361
as in a sun M 360
as in a poet M 360
as on a low M 354
as of a dry M 352
as of a non M 349
as if a saw M 349
as to a far M 348
as if a one M 343
as the i that M 342
as if a lead M 340
as in a sad M 338
as on a one M 336
as an i and M 336
as to a due M 332
as in a lead M 332
as in a plea M 326
as by a poet M 324
as on a heap M 322
as to a low M 321
as is a low M 320
as at i and M 320
as if i fit M 316
as do a and M 313
as to a pre M 312
as of a poem M 312
as to a may M 311
as by a non M 306
as on a dead M 303
as on a bad M 302
as at a bad M 302
as in i was M 301
as to a poem M 294
as if i buy M 294
as at a death M 294
as to i and M 292
as to a ten M 290
as it i had M 284
as is a non M 282
as by a fly M 282
as if a pre M 281
as as i was M 281
as if a cup M 280
as by a vow M 278
as if a pit M 276
as in i can M 273
as if a toy M 273
as if a ban M 272
as at a bar M 270
as of a and M 268
as in a fly M 268
as if a nun M 268
as if a gap M 266
as on a non M 263
as if a heat M 262
as if a bug M 262
as if a weak M 260
as to a head M 258
as on a big M 257
as if a dying M 257
as as i lay M 256
as to a job M 254
as of a dear M 252
as is a one M 252
as if a kid M 252
as at a long M 252
as on a two M 251
as in a key M 248
as in i saw M 244
as in a saw M 243
as of a bow M 240
as in a bud M 238
as by a red M 238
as to a lot M 236
as if i ate M 236
as on a may M 235
as on a plea M 234
as on a path M 234
as if a sum M 229
as to a fear M 226
as to a path M 224
as if i then M 224
as is a dog M 222
as in a toy M 222
as by a bad M 220
as if a near M 219
as of a way M 218
as of a too M 217
as on a dying M 216
as of a fly M 212
as king a man M 212
as if a web M 210
as of a sum M 208
as if a plea M 208
as in a top M 207
as the i who M 206
as of a sin M 206
as of a box M 206
as if s had M 206
as as i can M 206
as in a ease M 205
as on a wet M 204
as in a meat M 204
as if a meal M 204
as by a leap M 204
as in a bit M 203
as if a six M 202
as by a dog M 202
as at a dead M 202
as if a pet M 201
as of a not M 200
as of a lay M 200
as by a two M 200
as it i was M 198
as is a bit M 198
as by a bar M 198
as by a too M 197
as of a death M 196
as in a seat M 196
as is a son M 193
as in a run M 193
as on a and M 192
as is a fly M 192
as in a leg M 192
as if a top M 192
as if a leg M 192
as of a mad M 190
as at a big M 190
as of a war M 188
as in a rear M 187
as to a death M 186
as on a poem M 186
as in a mean M 184
as of a two M 183
as at a red M 182
as to a year M 181
as of a song M 180
as in i did M 180
as if i won M 180
as if d had M 180
as by a cut M 180
as to a song M 178
as if a sad M 178
as the t who M 176
as on a job M 176
as to a too M 174
as in i pet M 174
as on a law M 173
as by a death M 173
as in a mad M 172
as if a job M 172
as is a two M 167
as in a die M 167
as to a cat M 166
as do i that M 165
as the i can M 164
as at s and M 164
as in a ten M 162
as if a lie M 162
as in a sit M 160
as if a heap M 160
as to a near M 159
as to a fit M 159
as to a lie M 158
as by a weak M 158
as at a meal M 158
as is a law M 157
as by a son M 157
as if i run M 156
as by a god M 156
as to a for M 154
as is a map M 154
as as a man M 154
as in a too M 153
as in a zen M 152
as of a one M 151
as of a saw M 150
as or a bit M 148
as by a big M 148
as is a red M 146
as in a sin M 146
as in a path M 146
as in a mid M 146
as if s and M 146
as if i don M 146
as is a way M 144
as is a bar M 144
as in a being M 144
as if i war M 144
as if i sit M 144
as if a cut M 144
as at a bit M 144
as on a box M 143
as on a being M 143
as to a not M 142
as to a map M 142
as of a mean M 142
as in i had M 142
as in a can M 142
as if i cut M 142
as if a fear M 142
as by a due M 142
as at a god M 140
as at a bear M 140
as if a too M 139
as on a bear M 138
as is a boy M 138
as if i yet M 138
as the t that M 137
as of a bag M 136
as is a poem M 136
as if i ask M 136
as to a key M 135
as of a lot M 134
as is a cat M 134
as to a use M 132
as on a dog M 132
as on a death M 132
as of a head M 132
as is a lot M 132
as in d but M 132
as if a bud M 132
as by a bit M 132
as to a weak M 130
as if i not M 130
as to a red M 129
as in a singing M 128
as in a sum M 127
as in s and M 126
as in i but M 126
as if a bow M 126
as if i both M 124
as by a key M 124
as on a son M 123
as if a can M 123
as in a dear M 121
as the s does M 120
as at a job M 120
as of a pre M 119
as in a meal M 119
as on a dim M 118
as to a bit M 116
as of a dim M 116
as in i see M 116
as if a gear M 116
as on a cup M 114
as in a cry M 114
as if a vow M 114
as if a sin M 114
as by a boy M 114
as in i got M 112
as in a fear M 112
as if a was M 112
as he a few M 112
as in a see M 111
as in a read M 111
as in a gear M 111
as by a wet M 111
as to a sin M 110
as of a cup M 110
as if a joy M 110
as by a saw M 109
as am i and M 109
as to a team M 108
as in a lie M 108
as if a not M 108
as by a dead M 108
as on a war M 107
as on a team M 106
as on a pre M 105
as on a far M 105
as king a son M 104
as if i try M 104
as if a seat M 104
as by a song M 104
as an s and M 104
as of a may M 103
as by a war M 103
as in t and M 102
as in a dot M 102
as if a has M 102
as of a sad M 100
as if i use M 100
as an t and M 100
as by a poem M 99
as in a leap M 98
as in a are M 98
as by a map M 98
as of a bar M 96
as in a was M 96
as by a way M 96
as by a net M 96
as by a head M 96
as of a near M 95
as to a pro M 94
as on a red M 94
as if i fear M 94
as at a dog M 94
as to d and M 92
as on a boy M 92
as in a math M 92
as do d and M 92
as at a boy M 92
as to a dry M 90
as in a dip M 90
as if i for M 90
as on a lot M 88
as if i lie M 88
as he i was M 88
as is a weak M 87
as if i led M 86
as on a seat M 84
as on a log M 84
as in a yes M 84
as in a going M 84
as by a dry M 84
as as i had M 84
as is a bad M 83
as if i hid M 82
as if i beat M 82
as by a team M 82
as to t lie M 80
as if i hung M 80
as he i did M 80
as at a far M 73
as if a sky M 66
as to a mean M 54
as in a pro M 53
as an i that M 52
as by a far M 51
as on a ten M 49
as to a cut M 48
as on a sun M 48
as of a cut M 48
as if a then M 47
as to a lay M 45
as the a key M 45
as in a now M 45
as if a pro M 44
as if a mean M 44
as at a year M 43
as to a six M 41
as in a pay M 41
as in a may M 41
as do a man M 41
as on a par D 12595
as if a dam D 5824
as in a gas D 4923
as if a hot D 3869
as in a car D 3729
as in a fog D 3115
as in a hot D 2944
as in a bed D 2781
as on a bed D 2663
as if a thin D 2374
as if a ray D 2357
as in a vial D 2181
as on a hinge D 1940
as to a bed D 1751
as in a bath D 1688
as in a beam D 1614
as if a gun D 1586
as if a fog D 1580
as if a ton D 1328
as if a lion D 1308
as if a bee D 1298
as of a lion D 1233
as on a hot D 1078
as if a tear D 1052
as if a car D 1004
as to a tax D 972
as if a pin D 894
as in a thin D 851
as in a sling D 822
as if a tap D 822
as if i met D 796
as of a hot D 681
as in a row D 677
as if a fat D 630
as if a beam D 630
as if a rod D 614
as tho i had D 610
as in a pot D 604
as if a rat D 591
as in a zoo D 588
as if a lid D 570
as in a tug D 564
as in a swing D 562
as in a bus D 562
as in a leaf D 545
as if a cow D 538
as in a tax D 531
as if a gang D 528
as to a deaf D 518
as in a jet D 510
as if a tax D 509
as of a fox D 492
as if a mob D 492
as of a leaf D 481
as by a seal D 476
as if a row D 470
as of a thin D 468
as if a fox D 464
as in a mob D 463
as of a gun D 460
as of a cow D 418
as in a gun D 409
as if a riot D 404
as in a nut D 402
as by a dam D 392
as on a bus D 382
as on a seal D 380
as in a fan D 380
as tho i was D 378
as in a neon D 372
as in a jig D 366
as by a thin D 364
as if a hen D 362
as on a car D 358
as if a sob D 358
as by a hot D 358
as if a leaf D 352
as in a lab D 350
as in a pen D 348
as in a hut D 348
as in a cow D 348
as on a beam D 346
as on a peg D 342
as on a per D 341
as if a pig D 340
as is a tax D 332
as of a seal D 322
as if a jet D 322
as if a seal D 318
as if a rug D 312
as in a riot D 306
as in a fun D 299
as if a moth D 298
as in a peat D 296
as in a bee D 294
as on a dial D 292
as in a den D 292
as in a bog D 284
as by a peal D 276
as by a fan D 270
as if a spy D 262
as if a pen D 261
as of a hen D 260
as in a lap D 258
as in a dam D 257
as if a pot D 256
as an i beam D 252
as in a pan D 246
as on a lion D 244
as if a guy D 238
as if a cap D 235
as is a thin D 234
as in a tub D 234
as in a rat D 234
as if a gas D 234
as in a pun D 232
as in a lion D 229
as in a bay D 229
as to a car D 228
as in a pin D 228
as by a ray D 227
as if a gong D 224
as if a bat D 223
as in a pie D 222
as by a rub D 214
as of a rat D 212
as in a jar D 212
as to a gas D 211
as if a flea D 208
as of a cur D 205
as if a gay D 204
as in a fee D 200
as if i hit D 198
as if a bed D 198
as in a hinge D 195
as on a swing D 192
as in a hen D 186
as by a mob D 186
as in a fat D 185
as if a bus D 182
as in a van D 180
as in a shoe D 178
as by a hinge D 178
as in a hip D 176
as on a thin D 174
as of a sob D 170
as in a ray D 168
as if a dean D 166
as of a fee D 165
as of a fat D 164
as of a bee D 164
as if a tin D 164
as if a rib D 164
as in a sac D 162
as in a neat D 160
as in a fig D 158
as if a raw D 158
as on a gas D 157
as if i wad D 156
as in a seal D 154
as in a gang D 154
as to a fee D 153
as of a bat D 152
as by a tax D 151
as to a gun D 150
as on a leaf D 150
as by a beam D 150
as if a fin D 146
as if a fan D 146
as by a fog D 144
as if a jar D 142
as if a hinge D 138
as of a car D 136
as in a rod D 136
as if a shoe D 136
as if a boa D 134
as is a hot D 131
as to a cow D 130
as in a pub D 130
as at a fig D 130
as of a jet D 128
as of a row D 126
as of a pot D 126
as of a pig D 126
as in a hat D 126
as in a mud D 125
as is a car D 124
as in a tin D 124
as if a pang D 124
as is a cow D 122
as by a fiat D 122
as if a thaw D 120
as by a pen D 120
as if i wear D 118
as if a neon D 117
as of a spy D 116
as of a pen D 116
as in a fox D 116
as if a bath D 116
as in a bean D 115
as to a gang D 114
as of a gem D 114
as in a gym D 114
as if a wad D 114
as of a ray D 113
as if a gem D 112
as if a deaf D 112
as by a tap D 112
as of a fan D 110
as in a gay D 110
as in a dial D 110
as by a lion D 110
as in a gel D 109
as of a bed D 108
as in a wax D 108
as in a pig D 108
as if a tub D 108
as by a sling D 108
as in a spy D 106
as of a jar D 104
as in a gin D 104
as in a tie D 103
as to a pun D 102
as of a pin D 102
as by a jet D 102
as on a peak D 100
as of a sub D 100
as in a sub D 100
as by a rod D 100
as is a row D 99
as to a lion D 98
as if a seam D 98
as if a cur D 98
as at a bus D 98
as to a row D 96
as of a mob D 96
as in a ton D 96
as to a seal D 94
as on a sob D 94
as in a rug D 94
as in a hay D 94
as in a deaf D 94
as at a zoo D 94
as in a trio D 93
as to a bath D 92
as on a rod D 92
as is a beam D 92
as in a sty D 92
as in a lung D 92
as by a gas D 92
as by a bath D 92
as the i beam D 90
as if a leak D 90
as if a cog D 90
as by a sting D 90
as on a gem D 88
as in a lean D 88
as if a jug D 88
as by a tie D 87
as is a hen D 86
as in a hug D 86
as in a con D 86
as of a iamb D 84
as in a viol D 84
as in a vat D 84
as on a bee D 82
as if i sung D 80
as by a row D 80
as at a wag D 80
as of a gas D 55
as on a gun D 54
as in a fur D 52
as of a raw D 47
as in a ski D 46
as to a sub D 44
as in a pop D 44
as in a jam D 43
as if a hog D 43
as of a tax D 42
as is a hat D 41
as by a gun D 41
