ask a great many M 2990
ask a young lady M 1040
ask a very great M 804
ask a good many M 742
ask a young girl M 650
ask a third time M 578
ask a wide range M 462
ask a much more M 378
ask i will give M 360
ask a girl like M 330
ask a sign from M 310
ask a very high M 304
ask a fish will M 266
ask a word from M 256
ask a health care M 226
ask a room full M 188
ask a very good M 182
ask a girl what M 155
ask a pass from M 146
ask a gift from M 134
ask i will tell M 122
ask a good word M 120
ask a great time M 118
ask a lady such M 106
ask a half play M 102
ask a fair trial M 102
ask a more open M 98
ask i will take M 96
ask a nice girl M 96
ask a very young M 88
ass i have been D 751
ask a boon from D 388
ask a loan from D 382
ass i must have D 380
ask a toad what D 302
ass i have ever D 261
ask a kirk from D 166
ask a cent from D 104
ass i have made D 97
ask a like boon D 82
