sign that read " M 13294
side with this " M 380
sick and dying " M 334
side and say " M 311
side with his " M 291
sign off with " M 272
side and that " M 255
site for his " M 239
sign that they " M 179
single out one " M 171
side that read " M 152
site was not " M 146
side and his " M 137
sick with fear " M 136
sick old man " M 134
side with them " M 133
site that was " M 132
sick and die " M 132
sign that his " M 130
sign and say " M 130
site for its " M 126
sick and weak " M 124
site for this " M 120
size and its " M 119
sign does not " M 102
side that was " M 102
side and its " M 101
side does not " M 98
side was that " M 94
size has its " M 92
site and its " M 92
sign that her " M 92
sick man was " M 86
sign that she " M 85
sign that this " M 82
sign and its " M 82
side with its " M 82
side with him " M 44
side with her " M 44
