since , " he M 13498
sides , " he M 7896
since , " the M 4526
sides , " the M 4280
signs , " he M 3610
signs , " the M 3525
signs , " in M 2833
sitting , " he M 2334
since , " as M 2267
since , " in M 1956
sixty , " he M 1927
sites , " the M 1784
sites , " in M 1783
since : " the M 1691
signs , " as M 1597
sides , " as M 1543
signs , " or M 1370
since , " it M 1261
sides : " the M 1186
sides , " to M 1144
since , " if M 1129
sides , " or M 992
sitting , " the M 978
sites , " he M 970
signs : " the M 935
signs , " no M 804
sides , " it M 780
signs , " to M 740
sides , " is M 738
sides , " in M 734
sixty , " the M 718
sides , " we M 702
since , " we M 620
since , " to M 582
sitting , " as M 574
signs , " we M 566
since , " or M 540
sitting , " or M 510
signs : " no M 506
signs , " by M 448
since : " it M 442
sites : " the M 406
signs , " is M 404
sides : " we M 400
since : " we M 394
since : " if M 382
sites , " or M 366
since , " is M 362
since , " by M 360
sides , " so M 360
signs , " of M 358
signs , " it M 330
sides : " it M 322
signs : " we M 310
sitting , " in M 306
sites , " as M 303
signing , " he M 292
since : " in M 286
sixty , " in M 256
signs : " it M 254
sides : " if M 252
signs : " do M 244
sides , " of M 216
sitting , " is M 211
sites , " by M 200
signs , " so M 199
since , " so M 187
since , " my M 180
signs , " do M 179
signs , " on M 168
sitting , " it M 164
signs : " if M 162
sites , " to M 158
sides : " in M 158
since : " he M 156
sides , " an M 152
sides , " by M 146
since : " my M 144
signs : " in M 143
since , " on M 138
sitting : " the M 136
sides : " he M 136
sixty , " as M 130
sides : " my M 130
signs , " an M 129
sitting , " to M 125
sitting , " we M 122
since , " of M 122
sides , " if M 116
sides , " do M 114
since , " an M 110
sides , " on M 110
sites , " is M 108
since , " no M 108
since , " at M 108
signing , " the M 108
sixty , " or M 106
sites : " we M 100
since : " as M 99
signs : " to M 97
sites , " we M 92
sites , " it M 92
since : " to M 92
since : " do M 92
signs , " if M 92
sides , " oh M 90
sides : " to M 88
signs : " he M 85
sixty , " my M 84
signing : " it M 84
signing , " or M 50
