chop away the end M 168
chop down the big M 153
chop down the oak M 135
chop down an oak M 126
chop down the old M 122
chop wood to heat M 96
cheat when he can M 96
chop wood to get M 87
chin sunk on his D 3110
cheap cuts of meat D 2002
chin came up and D 1728
chip away at his D 1434
chin into the air D 1328
chin lift or jaw D 1230
chip away at our D 1183
chin went up and D 1148
chin down on his D 1066
chip away at this D 1006
chin sunk in his D 813
chip away at that D 787
chin down to his D 774
chip away at its D 747
chip away at her D 680
chin sank on his D 636
chip away at them D 628
chin fell on his D 588
chip into the pot D 564
chin fell to his D 540
chin over the bar D 505
chin sank to his D 496
chip from the old D 404
chin down on her D 391
chin high as she D 374
chin over the top D 351
chin down to her D 351
cheap sort of top D 338
chin when he was D 334
chip away the ice D 316
cheap sort of way D 316
chin sunk on her D 292
chap when he was D 288
chip from the bag D 286
chin fall on his D 282
chat along the way D 275
chin leaning on her D 274
chin rest on his D 258
chin drop to his D 256
chin came up with D 254
chin shot up and D 252
chin sink on his D 248
chew your ear off D 241
chin like he was D 240
chin sunk to his D 239
chin sank to her D 238
chin leaning on his D 218
chat room is not D 214
chip away at any D 209
chap told me that D 203
chip over the bug D 202
chum whom he had D 196
chip away at each D 195
cheap rate of two D 195
chip away at one D 191
chin like an old D 190
chap came up and D 183
chin fell on her D 176
chin sunk in her D 175
cheap food is not D 174
chin fell to her D 172
chin well up and D 170
chin moving up and D 166
cheap wish of his D 166
chin deep in his D 164
chat over tea and D 164
chin went up with D 162
chap next to you D 162
cheap when it was D 161
chap next to him D 161
chef told me that D 156
chip away at all D 155
cheap ones at that D 154
chin down in his D 153
chin rose as she D 152
chap came in and D 152
chin fall to his D 150
chin back on his D 148
cheap when no one D 148
chip used in this D 142
chin into the cup D 142
chin chow at his D 142
chip away at and D 138
chin rest on her D 138
chap talk up that D 136
cheap even at that D 132
chap came in with D 132
chip away at him D 130
chin down so that D 130
chat when he was D 129
chit will do then D 126
chin when he got D 124
chip away at you D 123
chin rest so that D 123
chin into the top D 123
chap said it was D 123
chat during the day D 121
chin over the rim D 120
chap said he was D 117
cheap shot to say D 116
chin held in her D 114
chin held up and D 112
cheap when he was D 112
cheap jack so long D 111
cheap wine in his D 110
chat over it with D 107
chin when the head D 106
chew away at them D 106
chin high in air D 105
chop away the ice D 104
chin fall to her D 104
cheap shot at him D 104
chat room so that D 104
chat room to see D 103
chin free of his D 102
chin drop to her D 102
chew what we are D 102
cheap here as they D 100
chip told me that D 99
chin drop on his D 98
chin upon the top D 97
chip flew up and D 96
chin back in his D 96
chap tell the gal D 96
chap like me can D 96
chin down as far D 95
chef when he was D 95
chow test is that D 93
chop wood or dig D 93
chin leading the way D 90
chat there as with D 90
cheap wine he had D 88
cheap shot at you D 88
cheap shot at his D 88
cheap ones do not D 88
cheap north sea gas D 86
chip when it was D 82
chew over an idea D 82
chub like me and D 80
chin sink to his D 80
chin come up and D 80
cheap shot at her D 80
chat over the old D 60
chip from the top D 50
chin back so that D 47
chat room to get D 45
chat over the day D 42
