choose a set of M 17282
changed a lot in M 9998
changed a lot of M 7300
choosing a set of M 7126
chance i had to M 5938
chance i had of M 4684
choose a way of M 4680
choose a man to M 2898
changed a bit in M 2826
choose a way to M 2527
choose a few of M 2514
choose a path of M 2202
choose a man of M 2174
choosing a way of M 2130
chosen a set of M 2008
choose a new king M 1936
charge a lot of M 1668
chance i get to M 1635
chosen a path of M 1480
chosen a way of M 1376
choose a mix of M 1349
checking a box on M 1271
chance i got to M 1243
choice i had to M 1167
chosen a man of M 1006
changes a lot of M 962
choosing a path of M 952
choosing a way to M 914
choose a path to M 912
chosen a few of M 870
changed a few of M 790
choosing a new king M 782
choosing a man of M 716
choose a job in M 702
choose a day on M 662
choose a day to M 656
choosing a man to M 634
choose a few to M 632
church i saw the M 598
choose a seat in M 590
changed a war of M 590
choose a path in M 574
changes i had to M 568
choosing a job or M 558
church i was in M 547
church a lot of M 532
chance i may be M 528
chased a lot of M 516
changes i see in M 516
choose a day of M 512
changes i saw in M 511
church a set of M 510
chosen a man to M 490
choice d can be M 490
chores i had to M 448
choose a bit of M 446
choose a job or M 442
choose a poem or M 428
choose a team of M 422
choice a can be M 421
choose a lot of M 420
chance i put my M 412
church i mean the M 398
chosen a way to M 392
changed a lot as M 389
choose a man as M 383
chosen a seat in M 382
choose a man in M 380
choosing a path to M 376
changed a lot by M 372
choosing a few of M 366
checking a set of M 364
charge a sum of M 356
choose a song to M 354
chance a man of M 354
choose a man or M 340
chance i had at M 337
choose a day in M 336
charge a man as M 334
changed a bit to M 328
choose a seat on M 312
charge a set of M 312
choose a seat at M 308
chance i was in M 308
choosing a head of M 306
church i had to M 304
choosing a mix of M 296
chance i see is M 288
changed a bit as M 280
chance i had the M 280
changes a lot in M 279
chance i saw the M 279
choose a boy or M 276
choose a boy to M 270
church a year or M 266
choose a head of M 260
changed a bit by M 256
chosen a new king M 254
choose a poem to M 254
chosen a path to M 250
church i had no M 240
chance i had in M 238
choosing a path in M 234
chance a lot of M 231
cheated a bit in M 230
choosing a job in M 226
chance i can do M 224
chance i was the M 218
checking a lot of M 216
charge a man of M 212
choose a team to M 204
chosen a path in M 201
church a man of M 200
checking a box or M 200
changed a way of M 198
checking a box in M 196
cheated a lot of M 196
chance a few of M 196
charge a man on M 190
church i had the M 186
chance i can to M 186
cheated a bit by M 184
choosing a seat in M 180
choose a way in M 180
choosing a bit of M 176
choosing a seat on M 174
church a way of M 172
choose a law to M 172
charge a lot to M 168
choose a toy to M 166
choice a lot of M 166
charge i had to M 166
choosing a team of M 164
chance a bit of M 164
chosen a lot of M 162
charge a few of M 161
choose a few at M 160
checking a few of M 160
chance i see of M 159
church a man is M 158
church i saw in M 156
choose a box of M 156
changed a lot the M 156
changes a bit in M 155
charge i was to M 154
choose a man by M 152
changes a few of M 152
choosing a job is M 150
changes a set of M 150
chosen a day of M 148
chance a year to M 148
changed a bit of M 146
chased a cat up M 145
choosing a day of M 142
choice a man is M 142
changed a lot at M 142
church a day in M 140
chosen a few to M 140
cheated a bit on M 140
charge a man to M 140
charge a man in M 140
church i saw an M 136
chosen a year in M 136
choose a toy or M 136
choose a cup of M 136
chosen a seat at M 134
charge i had so M 134
church i was to M 132
choose a job to M 130
charge i was at M 128
chance i saw of M 126
checking a box to M 124
church a sum of M 122
chosen a mix of M 122
chance i was on M 121
chance i get or M 120
chance a man is M 120
chance i can be M 119
chance a day or M 118
choose a path at M 116
chance i was at M 116
chosen a law to M 114
choose a poet to M 114
choice a set of M 114
choice a may be M 114
chased a man in M 114
choosing a seat at M 112
choose a year of M 110
choose a key to M 110
checks a set of M 110
chased a few of M 110
chance i saw it M 110
chance i got at M 110
chains a man to M 110
choose a seat by M 108
chosen a seat so M 106
choose a poem of M 106
choose a new or M 106
choose a lot in M 106
choice a man of M 106
chance i see at M 106
chance i can go M 106
choose a year in M 104
chosen a seat on M 102
choose a song or M 102
chance i got in M 102
choice a bit of M 101
chosen a man in M 100
chores i can do M 100
choosing a new or M 100
choose a path by M 100
changed a year or M 100
choosing a man or M 98
choosing a dog to M 98
choose a path or M 98
church i was so M 96
changed a day of M 96
changes i had in M 95
church i was at M 94
chosen a son of M 94
choosing a box of M 94
choose a son of M 94
changed i may be M 94
changed a lot on M 94
chance i was to M 94
church a heap of M 92
chance i get of M 92
chance i and my M 92
choosing a lot of M 90
choose a job on M 90
chance i get in M 90
chance a set of M 90
chance i saw an M 89
chosen a team of M 88
chosen a man so M 88
choosing a team to M 88
choose a man at M 88
choose a job as M 88
choice i had in M 88
chased a cat or M 88
chance i had no M 88
church a day of M 86
choosing a man as M 86
choose i may be M 86
changed a lot to M 86
church i see the M 84
choice i had no M 84
cheated a man in M 84
changed a set of M 84
changed a lot or M 84
changed a bit at M 84
chance i had my M 84
church i sat in M 83
choosing a day to M 82
choose a red or M 82
chance i got the M 82
changed a bit on M 80
choice d may be M 59
changes a year in M 57
chance i got of M 57
changes a way of M 56
choice a has the M 53
checks a year to M 50
choice d has the M 48
chosen a man as M 46
choose a boy as M 43
checks a box on M 43
choose a man so M 42
charge i was in M 41
changes a man as M 41
changes a bit as M 40
charge a fee to D 7385
charge a fee of D 6630
charging a fee to D 1942
charging a fee of D 1462
charge a fee or D 1207
chanting a song of D 1182
charge a fee if D 865
charge a fee in D 820
chewed a bit of D 722
charge a fee on D 580
church i met my D 524
charge a tax on D 479
chewed a wad of D 430
chanting a song in D 376
charging a fee or D 366
chance i met the D 364
chewed a lot of D 354
charming a man as D 281
choked a bit on D 276
charge a fee as D 264
chants a song of D 261
charging a tax on D 260
charging a lot of D 256
charting a path to D 240
charge a fee at D 225
charging a fee in D 220
charge a mob of D 197
charging a fee is D 196
chafed a bit at D 194
churns a war of D 188
charming a bit of D 176
chanting a song to D 174
chased a gang of D 154
charging a set of D 152
charging a fee on D 148
chance i met an D 148
charging a jar or D 144
charge a tax of D 143
chanting a song as D 142
charts a path to D 140
choose a row or D 138
charging a with the D 130
choose a car or D 116
chants a poem in D 116
chopping a man to D 114
chance a ray of D 114
charging a tax of D 112
church i met the D 110
chanting a bit of D 110
charting a path of D 108
chewed a cud of D 106
charts a path of D 106
chapel i saw the D 106
choose a row of D 104
charting a map of D 104
choosing a car or D 102
charming a way of D 100
charge a fee is D 96
chosen a bed of D 94
chopping a lot of D 92
choked a man to D 92
chopping a bit of D 90
choosing a car to D 90
choose a hat or D 90
charming i can be D 90
charge a jar of D 89
choose a row in D 88
chests a year in D 88
chewed a bit on D 84
charting a way to D 84
charging a fee at D 84
changed a jot in D 84
chapel i had the D 83
choked a bit at D 82
