choose to call " M 4756
changed the word " M 4092
chosen the term " M 3506
chosen to call " M 3416
choose the word " M 2154
chosen the word " M 2145
changed my life " M 1796
charge of having " M 1695
choose the term " M 1532
chosen the name " M 1140
changed my mind " M 1084
changed the term " M 988
choosing the word " M 966
changes in their " M 890
changed the name " M 890
choosing the term " M 872
changes the word " M 788
chance on love " M 672
changed it into " M 664
church on time " M 648
choice of life " M 624
choose the name " M 616
choose to live " M 576
choose the good " M 572
chance in life " M 562
choosing the name " M 556
chance to play " M 522
changes in these " M 454
choose or lose " M 449
choice of means " M 444
choice of these " M 422
charge of their " M 420
chance to make " M 411
choose the most " M 402
choose the best " M 388
chains of love " M 386
chance to live " M 383
charge of these " M 382
chance to meet " M 371
chance to talk " M 367
chance at love " M 364
church the word " M 330
choose to have " M 322
church the term " M 308
chance in hell " M 308
chance of rain " M 288
chance of saying " M 284
chance to speak " M 278
changed it from " M 270
choice of saying " M 260
chance to learn " M 254
chance of seeing " M 252
chance to show " M 250
charge of making " M 246
chance to have " M 243
chance of making " M 240
choose to make " M 236
choose to play " M 234
church as having " M 226
choice is made " M 220
chosen to live " M 216
chance to work " M 214
choice of such " M 210
chance of having " M 208
chosen to make " M 206
changes the term " M 205
choosing the most " M 200
chosen to play " M 198
choose to term " M 198
church is also " M 194
choose to take " M 188
charge of such " M 182
changes of mind " M 182
changed so much " M 178
chance of loss " M 172
chance to find " M 170
charge is made " M 168
chosen to term " M 166
changed by adding " M 166
charge of some " M 164
chance to take " M 160
choice of three " M 158
choice of their " M 158
choice to make " M 156
chosen to give " M 152
chosen as their " M 150
changes of heart " M 144
choose the more " M 142
choice by saying " M 142
changed the line " M 134
chance to grow " M 134
chance of their " M 134
chance to yell " M 132
choose to think " M 128
changes in such " M 126
church in their " M 124
choose the same " M 124
chance at life " M 122
choosing the best " M 120
chance of life " M 118
choice of some " M 116
charge of your " M 116
chance to help " M 116
changes in time " M 115
choice of word " M 112
chance to tell " M 110
choose to give " M 108
choose by show " M 106
changed to make " M 106
changed to just " M 106
church to have " M 102
changes in your " M 102
chosen the best " M 100
changes of form " M 96
chance to think " M 95
choose to stay " M 94
changes in form " M 94
changed in form " M 94
church as their " M 92
chosen to speak " M 92
choose to tell " M 92
chance to gain " M 91
choosing to live " M 90
changed my name " M 90
choosing to save " M 88
choice of mate " M 88
church or other " M 86
chosen the most " M 84
chance to feel " M 83
chosen to have " M 82
chance to rest " M 82
chance in your " M 82
church no more " M 80
changes it into " M 57
changes of meaning " M 49
changes the name " M 43
