chooses not to . M 4046
choices for us . M 1578
chances with it . M 1500
choices they do . M 996
choices for me . M 916
channel for it . M 902
chances with me . M 654
chooses for us . M 644
chapter for me . M 504
chained him up . M 490
choices may be . M 478
charity with me . M 458
checked with me . M 438
chapter with me . M 416
charity for me . M 346
chances with us . M 340
choices can be . M 332
chapter for it . M 304
checked for it . M 298
chooses for me . M 292
charity for us . M 278
chapter for us . M 272
checked them up . M 244
channel with me . M 214
chances for it . M 208
chapter with it . M 206
chances for us . M 198
choices for it . M 194
chooses not to ? M 190
chooses for it . M 174
checked his id . M 166
chances for me . M 162
checked for me . M 154
chooses any thing . M 150
choices they do ? M 140
chained them up . M 130
chooses with it . M 128
channel for us . M 122
channel for me . M 109
choices you do . M 104
charity for it . M 104
chapter with us . M 104
chronic with me . M 101
checked out of . M 98
checked with it . M 96
chapter goes on . M 96
chances may be . M 88
choices for us ? M 84
charity can do . M 84
chained her up . M 80
