job without a lot M 354
job before i was M 328
job before i got M 282
job before i had M 202
job before i can M 166
job unless i was M 152
job lasted a year M 121
job almost a year M 112
job before i did M 108
job unless i had M 104
job unless a man M 104
joy before i die M 96
job through a job M 96
job unless i can M 94
job offers i had M 88
job before i get M 86
job without a map M 80
job without a car D 136
joy repaid a long D 108
