job of building a M 5436
job to become a M 4430
job of managing a M 1774
job is called a M 1172
joy of watching a M 1052
joy of becoming a M 860
job is simply a M 646
job of becoming a M 528
job to pursue a M 496
job of covering a M 480
job of planning a M 462
job is always a M 452
job or starting a M 434
job of handling a M 434
job of choosing a M 426
job is merely a M 386
job of devising a M 374
joy of building a M 356
job in building a M 356
job to design a M 338
job of training a M 332
job to obtain a M 316
job of carrying a M 314
job of removing a M 284
job to accept a M 278
job of starting a M 272
joy at becoming a M 266
joy in watching a M 250
job of securing a M 236
job of printing a M 226
joy is always a M 194
job as merely a M 188
job of defining a M 186
job to secure a M 184
job or through a M 184
job or obtain a M 184
job to ensure a M 182
job to attend a M 182
job or become a M 182
job is mainly a M 180
joy or sorrow i M 176
job is itself a M 172
job to manage a M 164
joy in becoming a M 152
job to follow a M 152
job of fighting a M 148
job to remove a M 142
job of guarding a M 142
job of catching a M 140
job is indeed a M 140
joy of touching a M 138
job to select a M 138
job is something i M 138
job to choose a M 134
job is almost a M 134
job or should i M 132
job or pursuing a M 130
job is becoming a M 126
job is through a M 122
joy of starting a M 120
job or suffer a M 120
job he became a M 120
job is clearly a M 116
job to devise a M 114
job of ensuring a M 114
job or accept a M 112
job of measuring a M 112
job as simply a M 108
job of applying a M 106
joy of catching a M 104
job of offering a M 100
joy to become a M 98
job to direct a M 96
job or pursue a M 96
job of founding a M 96
job by applying a M 94
job by offering a M 92
joy is itself a M 90
job in handling a M 90
job the moment i M 88
job of tackling a M 88
joy of carrying a M 86
job is managing a M 86
job to arrange a M 84
joy of planning a M 82
job to repair a M 82
job of adapting a M 82
joy in building a M 80
job of drafting a D 692
job of painting a D 422
job of erecting a D 238
job of arranging a D 214
job of locating a D 206
joy of spending a D 204
job to strike a D 190
job of steering a D 140
job or entering a D 114
job of planting a D 108
job to launch a D 106
job of drilling a D 100
job of mounting a D 96
job of striking a D 92
joy we hooked a D 90
job of electing a D 90
job of piloting a D 86
job of crafting a D 86
job of reducing a D 84
job of policing a D 84
