fear of death . M 174226
few of them . M 167560
fear of god . M 102662
fear of him . M 29274
fear of them . M 23378
fear of man . M 16612
fear of that . M 15316
fear of dying . M 15033
fear of war . M 11780
fear of death ? M 9842
fear at all . M 9560
fear to die . M 6918
fear of god ? M 5836
fear of her . M 5779
fear of men . M 5683
fear in them . M 5274
fear of you . M 4935
fear in him . M 4614
fear no one . M 3587
few of them ? M 3230
fear of fear . M 3056
few do not . M 2894
fear of sin . M 2667
fear no man . M 2607
fear in her . M 2527
fear of that ! M 2434
fear to die ? M 2227
fear me not . M 2056
fear of death ! M 1960
fear it not . M 1921
few of you . M 1912
fear of god ! M 1906
few of them ! M 1792
fear of this . M 1613
few if any . M 1552
few as two . M 1524
fear of aging . M 1324
fear is real . M 1283
fear in you . M 1243
fear of all . M 1181
fear the law . M 1063
fear of him ? M 969
fear or joy . M 955
fear or awe . M 953
few of each . M 946
fear to him . M 882
few as one . M 824
fear in death . M 766
fear of dying ? M 742
fear is not . M 703
fear of eating . M 628
fear of kings . M 596
fear of man ? M 579
fear is fear . M 538
few as six . M 534
fear the dead . M 532
fear it now . M 513
fear to die ! M 508
fear of one . M 506
fear no ill . M 502
few as ten . M 488
fear or both . M 485
fear of man ! M 468
fear to see . M 466
fear to her . M 464
few at that . M 454
few to read . M 442
fear at all ? M 432
fear on him . M 426
few so far . M 420
fear of war ? M 412
few as yet . M 404
fear of them ? M 403
fear of you ? M 402
fear it has . M 400
fear of law . M 398
fear of him ! M 397
fear of both . M 390
fear it was . M 390
fear on earth . M 388
fear or not . M 381
few we are . M 358
fear to sin . M 354
fear to them . M 352
fear we then ? M 347
few of his . M 346
fear the end . M 342
few on earth . M 338
fear of you ! M 330
few or one . M 314
fear to god . M 314
fear to fear . M 313
fear or death . M 313
few do this . M 312
fear in man . M 310
fear is death . M 307
fear it does . M 305
fear in men . M 304
fear of men ? M 296
fear of being . M 295
fear is this . M 295
fear of math . M 291
fear the man . M 287
fear of them ! M 287
fear of any . M 286
few he had . M 280
few to see . M 278
fear the sun . M 265
fear it may . M 265
fear on all . M 262
fear to all . M 260
fear or wit . M 260
fear in you ? M 260
fear to say . M 257
fear he did . M 251
fear in god . M 248
fear in all . M 248
fear of age . M 246
fear as now . M 244
fear no man ! M 242
few of you ? M 236
fear in that . M 234
fear of that ? M 233
fear the law ? M 230
fear me not ! M 230
fear to act . M 226
few of both . M 222
fear at all ! M 217
fear to ask . M 215
fear to joy . M 212
fear in that ? M 212
fear we are . M 210
fear it too . M 192
fear is bad . M 191
fear of bias . M 190
few we had . M 188
few of him . M 188
fear of things . M 184
fear no one ! M 182
few on top . M 180
fear of his . M 178
few to try . M 176
fear of her ? M 173
fear no death . M 173
few do both . M 170
fear of dying ! M 168
fear in him ? M 164
fear on you . M 163
few do that . M 160
few do now . M 160
fear to you . M 159
fear of this ? M 159
fear on her . M 158
fear he was . M 157
fear he had . M 154
fear in his . M 153
few to buy . M 152
fear of heat . M 151
few in each . M 148
fear on them . M 146
fear of war ! M 146
fear of going . M 146
fear in death ? M 144
fear so too . M 143
fear in them ? M 143
fear of sin ? M 141
fear the war . M 140
fear the dog . M 138
fear to try ? M 137
few to death . M 136
fear to try . M 136
fear of ill . M 136
fear to lie . M 135
few to him . M 134
fear the dead ? M 134
few to you . M 132
fear by now . M 127
fear of foes . M 126
fear an oath . M 125
few of you ! M 124
fear it now ? M 124
fear as that . M 124
fear is god . M 123
few to them . M 122
fear in her ? M 122
fear in this . M 121
fear the new . M 120
few at all . M 118
fear the heat . M 118
fear he does . M 118
fear is this ? M 117
few as now . M 116
few to act . M 114
fear to use . M 111
fear of joy . M 110
fear my god . M 109
fear at him . M 108
few in all . M 106
fear the bear . M 104
fear is sin . M 104
few of her . M 102
few to hear . M 100
fear of her ! M 100
few to die . M 98
few in both . M 98
fear the day . M 98
few by now . M 96
fear me now ? M 96
few to all . M 88
fear of men ! M 86
fear of doing . M 86
fear of all ! M 84
fear my own . M 84
fear as this . M 82
fear he has . M 60
fear as yet . M 54
fear to hear . M 46
fear in this ? M 45
fear to fly . M 44
fear in war . M 43
fear is dead . M 41
