few things that i M 13490
fear was that i M 5291
fear not that i M 3571
few who had a M 3560
fear was that a M 3402
few men and a M 2820
few men had a M 2128
fear you are a M 2033
few men with a M 1956
fear and with a M 1899
fear but that i M 1698
fear was not a M 1646
few things that a M 1532
few things and i M 1316
few men that i M 1296
fear not for i M 1256
few things for a M 846
fear but with a M 672
fear you and i M 663
few that had a M 598
fear that for a M 596
fear now that i M 566
few men for a M 546
fear that not a M 521
fear that with a M 500
fear that was a M 454
fear not but i M 429
fear you had a M 388
fear they are a M 384
few things with a M 382
few that for a M 374
few and for a M 364
fear and not a M 341
fear him with a M 338
fear and for a M 333
few had had a M 318
fear and that i M 316
few things and a M 302
fear you than i M 299
fear that all i M 297
fear she has a M 295
few men and i M 272
few that has a M 266
fear that being a M 260
few who for a M 256
fear and then a M 255
fear but that a M 248
few that are a M 242
few things but i M 240
few who saw a M 220
few can buy a M 220
fear was now a M 218
few and then i M 202
fear that now i M 199
few and then a M 192
fear had for a M 192
few who has a M 190
few who are a M 186
few and not a M 186
few and but a M 186
fear that has a M 184
few and had a M 174
fear for you a M 171
fear being that a M 171
fear and was a M 150
fear god with a M 148
fear she was a M 142
fear all that i M 141
fear death but i M 140
fear god that i M 139
fear him and i M 138
few men but a M 136
fear has had a M 135
few who get a M 134
few who got a M 132
few who own a M 128
fear god and i M 128
fear that had a M 127
fear was but a M 118
fear and then i M 117
fear and had a M 117
few things are a M 116
fear they had a M 115
few and with a M 114
few are doing a M 112
fear them with a M 112
fear and yet i M 110
fear and awe i M 108
fear this was a M 107
few that bear a M 102
fear then that i M 101
fear that but a M 101
few men who i M 98
fear and that a M 98
few saw that a M 96
few and that a M 96
few rings and a M 94
few men led a M 94
fear that are a M 90
few things can a M 88
fear him for a M 88
few who was a M 86
fear had not a M 86
fear she had a M 51
fear and get a M 50
fear too that i M 47
fear that had i M 42
fed him with a D 2094
fed them with a D 1918
fed him for a D 1168
fed her with a D 1092
fee was not a D 978
fee and not a D 758
fed them for a D 638
fed and had a D 550
fee for using a D 512
fee and then a D 336
fed you with a D 316
fed and with a D 314
fee and get a D 300
fed and has a D 240
fear thou art a D 225
fed man with a D 221
fed her for a D 218
fee and for a D 212
fee was but a D 206
feat was not a D 180
few peas and a D 166
fee for being a D 152
fed them each a D 148
fee and with a D 141
fee was for a D 140
fee and has a D 140
fed one meal a D 136
fez cap with a D 118
fed them and i D 110
fee for doing a D 108
fed him and i D 108
fee you are a D 106
few year wot i D 102
fee you pay a D 102
fee and had a D 94
fee you get a D 92
fed you for a D 92
fee than for a D 90
fed cow has a D 87
fez cap and a D 84
few bob for a D 80
fee and that a D 80
fee and that i D 41
