on the other . M 5091390
on the road . M 1180546
on the left . M 1111661
on the door . M 661188
on the beach . M 647069
on the back . M 633162
on the line . M 620068
on the land . M 478963
on the page . M 381620
on the list . M 376490
on the side . M 349810
on the move . M 303635
on the site . M 284208
on the body . M 283401
on the west . M 281393
on the hill . M 280904
on the moon . M 267401
on the south . M 249657
on my part . M 242302
on my mind . M 230922
on my face . M 216669
on the north . M 188179
on the case . M 186683
on the rise . M 172237
on the lake . M 167595
on the face . M 159718
on the fire . M 152051
on the bank . M 148115
on the ship . M 146940
on my back . M 135903
on my side . M 135752
on the form . M 125112
on the eyes . M 121002
on the work . M 110449
on the heart . M 107694
on the tree . M 105831
on the mind . M 105574
on the wane . M 104074
on the town . M 103215
on the wind . M 98011
on the test . M 96685
on the edge . M 96633
on the ocean . M 95698
on the city . M 93410
on my feet . M 89890
on the trip . M 87692
on the other ? M 87220
on the past . M 85015
on the book . M 72275
on the snow . M 69596
on the base . M 67082
on the plan . M 64611
on the show . M 63794
on the poor . M 63616
on the range . M 61011
on the data . M 60326
on my life . M 60102
on my heart . M 52408
on the text . M 50897
on the third . M 49192
on the road ? M 47173
on the same . M 45921
on the hand . M 43785
on the next . M 43502
on the game . M 43247
on the ward . M 42944
on the cake . M 42550
on my door . M 41216
on the stem . M 40322
on my left . M 39294
on the lord . M 38759
on the note . M 36958
on the tour . M 35778
on the unit . M 35446
on the step . M 35404
on the rest . M 33660
on at once . M 33282
on my body . M 33276
on the wood . M 32622
on in life . M 32441
on the exam . M 31954
on the feet . M 31210
on the debt . M 30958
on the maps . M 30755
on the mark . M 30600
on the word . M 30014
on my list . M 29840
on the cloth . M 29166
on my hand . M 28926
on the moon ? M 28896
on the self . M 28814
on my work . M 28470
on the gate . M 28152
on the make . M 28148
on the tail . M 28050
on the host . M 27472
on the truth . M 27260
on the beach ? M 27066
on the play . M 27010
on the trial . M 26674
on the girl . M 25594
on the hour . M 25186
on the mend . M 24610
on the army . M 24074
on the file . M 24052
on the hunt . M 23906
on the ends . M 22234
on the keys . M 22066
on the young . M 21500
on the baby . M 21346
on the list ? M 20450
on at home . M 20223
on the post . M 20002
on the will . M 19925
on the food . M 19896
on the line ? M 19624
on the nest . M 19168
on as well . M 18958
on the main . M 17632
on the pile . M 17366
on the cell . M 17090
on the road ! M 16917
on the bone . M 16696
on the last . M 16676
on the left ? M 16292
on the part . M 16182
on the dash . M 15646
on the walk . M 15582
on the name . M 15568
on the rich . M 15292
on the user . M 15156
on the verb . M 15018
on the room . M 14750
on in there . M 14656
on the arms . M 14646
on it here . M 14558
on in years . M 14495
on the union . M 14443
on the side ? M 14414
on in there ? M 14104
on my arms . M 14036
on the fish . M 14006
on the living . M 13737
on the item . M 13728
on the hill ? M 13706
on the other ! M 13628
on the turn . M 13354
on the home . M 12850
on the fifth . M 12814
on the kids . M 12796
on the tomb . M 12596
on the time . M 12580
on the link . M 12490
on the boys . M 12440
on the land ? M 12332
on the take . M 12224
on my word . M 12020
on the tenth . M 11930
on in here ? M 11741
on the door ? M 11738
on the sign . M 11346
on the page ? M 11246
on the bell . M 10864
on the deep . M 10839
on the hair . M 10794
on the breath . M 10734
on the bark . M 10724
on the theory . M 10696
on my tail . M 10632
on my case . M 10438
on my land . M 10416
on the test ? M 10396
on the cast . M 10386
on the ship ? M 10326
on the rule . M 10262
on the sixth . M 10144
on up there . M 9998
on the goal . M 9660
on the good . M 9540
on the fact . M 9426
on it went . M 9370
on the case ? M 9314
on the load . M 9272
on up there ? M 9242
on so well . M 9188
on the body ? M 9156
on we went . M 9146
on the flag . M 9140
on the type . M 9080
on my coat . M 9030
on my part ? M 8880
on the view . M 8746
on the mask . M 8710
on the fold . M 8690
on my hair . M 8682
on my book . M 8678
on the band . M 8664
on the jump . M 8586
on an exam . M 8470
on the cost . M 8450
on the back ? M 8364
on the ninth . M 8360
on my face ? M 8354
on the beach ! M 8312
on the draw . M 8302
on the core . M 8254
on my eyes . M 8254
on the video . M 8246
on the date . M 8230
on the moon ! M 8199
on the lock . M 8148
on the port . M 8070
on the sick . M 7954
on my side ? M 7882
on the spring . M 7798
on in here . M 7797
on the loop . M 7764
on an edge . M 7564
on the mass . M 7539
on the copy . M 7512
on the male . M 7498
on the gods . M 7322
on the root . M 7258
on the deed . M 7196
on my time . M 7196
on the size . M 7172
on the bird . M 7134
on the coat . M 7030
on the call . M 6936
on the flow . M 6862
on the gain . M 6742
on my back ? M 6738
on the line ! M 6614
on to life . M 6392
on the site ? M 6306
on up here . M 6292
on the pass . M 6234
on the left ! M 6224
on the mine . M 6216
on the pain . M 6140
on the icon . M 6096
on the code . M 5962
on the lake ? M 5950
on an angle . M 5934
on the dogs . M 5926
on the trip ? M 5836
on he went . M 5692
on no other . M 5648
on the seed . M 5484
on the logs . M 5466
on to work . M 5453
on the hole . M 5418
on the lady . M 5344
on my trip . M 5318
on the tree ? M 5294
on the reading . M 5236
on my mind ? M 5224
on the back ! M 5202
on my ship . M 5196
on the well . M 5186
on the youth . M 5130
on the thread . M 5126
on my back ! M 5124
on the arch . M 5096
on the meaning . M 5018
on the ocean ? M 5014
on the hill ! M 4990
on the role . M 4984
on the move ! M 4950
on the rate . M 4918
on my health . M 4862
on the west ? M 4832
on in town . M 4818
on the move ? M 4794
on the need . M 4788
on the peace . M 4676
on my side ! M 4580
on the south ? M 4562
on my name . M 4510
on my cell . M 4488
on an item . M 4476
on so much . M 4404
on the gift . M 4384
on the north ? M 4376
on the means . M 4352
on the hall . M 4352
on the faith . M 4346
on the paths . M 4334
on at will . M 4269
on the show ? M 4228
on the fire ? M 4146
on the term . M 4130
on the ways . M 4114
on the kill . M 4094
on my face ! M 4086
on the list ! M 4078
on the best . M 4072
on by hand . M 4017
on the bearing . M 4010
on the tops . M 3998
on the cage . M 3994
on the span . M 3906
on the feed . M 3832
on the drop . M 3832
on the town ? M 3768
on the rise ? M 3740
on the door ! M 3728
on my part ! M 3706
on my life ? M 3616
on my line . M 3574
on the dream . M 3534
on the pair . M 3530
on the beast . M 3528
on at last . M 3509
on my show . M 3498
on the lift . M 3492
on my breath . M 3388
on in time . M 3387
on the hero . M 3376
on at length . M 3370
on the risk . M 3356
on the rain . M 3258
on the note ? M 3218
on my road . M 3190
on the heart ? M 3172
on the break . M 3136
on the heads . M 3118
on the bank ? M 3116
on my mind ! M 3114
on to make . M 3111
on my word ! M 3070
on the down . M 3066
on my heart ! M 3042
on in peace . M 2990
on the past ? M 2988
on the poets . M 2980
on the book ? M 2938
on to speak . M 2922
on to rain . M 2916
on the blue . M 2886
on the teams . M 2868
on the life . M 2850
on the poems . M 2830
on the angle . M 2830
on the hide . M 2822
on the fall . M 2812
on the trap . M 2810
on the aged . M 2794
on it once . M 2776
on the mind ? M 2748
on the hearing . M 2740
on the ether . M 2738
on the land ! M 2734
on to help . M 2721
on my reading . M 2714
on the threat . M 2686
on the bait . M 2668
on so fast . M 2660
on the exam ? M 2614
on the drag . M 2612
on the health . M 2606
on the shop . M 2570
on the mail . M 2570
on at work . M 2556
on the fire ! M 2554
on the ties . M 2532
on the noun . M 2522
on the great . M 2516
on the ideal . M 2510
on the ware . M 2504
on the ratio . M 2496
on the side ! M 2488
on to ruin . M 2473
on the twig . M 2468
on the gale . M 2464
on my feet ! M 2460
on my life ! M 2440
on the most . M 2434
on the wind ? M 2432
on the many . M 2422
on the tale . M 2412
on us here . M 2398
on the wane ? M 2384
on the sets . M 2384
on the form ? M 2382
on the depth . M 2374
on the jobs . M 2370
on me here . M 2344
on the edge ? M 2288
on the ship ! M 2276
on the knot . M 2274
on the range ? M 2266
on the ideas . M 2262
on the safe . M 2258
on at home ? M 2254
on the loss . M 2248
on the work ? M 2238
on the face ? M 2230
on the bend . M 2224
on my feet ? M 2220
on my land ? M 2218
on the lots . M 2196
on my walk . M 2196
on the tree ! M 2184
on the burn . M 2150
on my mark . M 2134
on the bows . M 2128
on the felt . M 2114
on it also . M 2114
on the dark . M 2104
on my will . M 2068
on my plan . M 2056
on to play . M 2055
on the length . M 2050
on to mine . M 2044
on my door ? M 2036
on the lord ! M 2004
on the leads . M 1998
on it there . M 1998
on my tour . M 1968
on the ready . M 1952
on my tomb . M 1940
on in turn . M 1937
on the high . M 1936
on to land . M 1934
on the poor ? M 1914
on the wrong . M 1886
on no load . M 1884
on it hard . M 1882
on as such . M 1878
on the sore . M 1864
on the mode . M 1840
on the three . M 1826
on an icon . M 1826
on to town . M 1822
on the bank ! M 1792
on the lord ? M 1772
on my trial . M 1770
on no more . M 1766
on the worm . M 1756
on the songs . M 1754
on my heart ? M 1750
on the acts . M 1746
on the void . M 1742
on the forth . M 1738
on the game ? M 1708
on my view . M 1700
on my luck . M 1672
on to hope . M 1668
on to what ? M 1655
on the base ? M 1648
on the plan ? M 1638
on the tour ? M 1634
on up here ? M 1631
on to blow . M 1620
on the tags . M 1610
on the cost ? M 1602
on an ocean . M 1602
on the lake ! M 1596
on the wind ! M 1564
on my game . M 1562
on the ward ? M 1530
on the page ! M 1522
on my home . M 1518
on my kids . M 1456
on the till . M 1452
on to show . M 1446
on the jail . M 1432
on by land . M 1429
on the unit ? M 1422
on my body ? M 1420
on my list ? M 1418
on in life ? M 1416
on my past . M 1412
on the epic . M 1404
on the swap . M 1390
on the odds . M 1384
on my faith . M 1384
on the girl ? M 1372
on so many . M 1369
on the truth ? M 1364
on my food . M 1364
on the cure . M 1358
on the data ? M 1356
on the shed . M 1352
on me there . M 1350
on my fate . M 1344
on the cake ! M 1342
on the city ? M 1340
on the take ? M 1334
on the ocean ! M 1334
on the come . M 1322
on the town ! M 1316
on in here ! M 1307
on the tears . M 1290
on the snow ? M 1286
on my theory . M 1284
on the week . M 1276
on my ideas . M 1272
on the cake ? M 1270
on the thorn . M 1258
on the ending . M 1258
on the cold . M 1256
on to these . M 1239
on the cave . M 1222
on the duty . M 1220
on my ship ? M 1220
on the fill . M 1218
on my hand ? M 1218
on my case ? M 1218
on my break . M 1210
on the dies . M 1206
on the maid . M 1200
on my love . M 1184
on the face ! M 1182
on the case ! M 1178
on the tread . M 1162
on the trial ? M 1160
on the gate ? M 1150
on the exit . M 1142
on the sons . M 1140
on the tell . M 1136
on an hour . M 1134
on me once . M 1132
on the font . M 1130
on to nothing . M 1129
on the cuts . M 1126
on the month . M 1112
on the open . M 1110
on the baby ? M 1110
on the fair . M 1096
on the stem ? M 1090
on no airs . M 1086
on the talk . M 1084
on it soon . M 1084
on the acid . M 1080
on the sage . M 1078
on the third ? M 1076
on at once ! M 1076
on the vest . M 1072
on my youth . M 1070
on the test ! M 1058
on the buds . M 1056
on my help . M 1046
on so fast ? M 1042
on the show ! M 1024
on my sons . M 1024
on or upon . M 1019
on the same ? M 1018
on my page . M 1014
on in there ! M 1014
on the crib . M 1012
on my play . M 1008
on the heir . M 1006
on my baby . M 1004
on the sign ? M 994
on at once ? M 990
on us fast . M 974
on the nine . M 972
on the fare . M 972
on the next ? M 970
on the beats . M 968
on the most ? M 966
on me also . M 964
on the play ? M 962
on the mice . M 958
on the gray . M 956
on in vain . M 956
on it more . M 954
on my eyes ! M 950
on my site . M 944
on the dawn . M 938
on the four . M 936
on the evil . M 928
on my work ? M 928
on the fell . M 920
on in hope . M 918
on up here ! M 914
on the rise ! M 914
on the rating . M 912
on the fine . M 912
on an exam ? M 906
on to talk . M 902
on up ahead . M 901
on the norm . M 898
on the cult . M 894
on as ever . M 894
on the width . M 892
on my dream . M 892
on the trim . M 888
on in faith . M 888
on the main ? M 886
on my left ? M 886
on the heart ! M 884
on to love . M 882
on the young ? M 882
on the mist . M 876
on my hand ! M 876
on the realm . M 872
on the acting . M 872
on the what ? M 870
on the kids ? M 868
on the rush . M 866
on the hand ? M 866
on the flag ? M 862
on the pull . M 858
on the just . M 856
on to reading . M 855
on the edge ! M 854
on the make ? M 848
on the wild . M 842
on so forth . M 823
on the hunt ? M 822
on to teach . M 814
on the debt ? M 814
on my gate . M 812
on the snow ! M 810
on the rest ? M 808
on the will ? M 806
on my coming . M 802
on my body ! M 802
on the idol . M 798
on he came . M 796
on to stay . M 794
on in town ? M 793
on to meet . M 789
on the video ? M 786
on to truth . M 784
on the hard . M 784
on my tail ! M 784
on my list ! M 784
on my lord . M 780
on my room . M 770
on the rich ? M 764
on the oaks . M 764
on to nice . M 762
on it came . M 760
on the fast . M 758
on my word ? M 758
on my tree . M 758
on the mind ! M 756
on the hint . M 756
on the flip . M 750
on the hope . M 748
on up there ! M 746
on the zero . M 746
on so well ! M 742
on my ship ! M 742
on us there . M 728
on to trial . M 726
on the bits . M 722
on the nuns . M 720
on my anger . M 720
on my maps . M 718
on the range ! M 716
on the ruin . M 710
on the five . M 708
on the text ? M 706
on it much . M 704
on to face . M 700
on us also . M 698
on the monk . M 698
on the runs . M 694
on my ward . M 692
on my tears . M 690
on the heading . M 688
on the areas . M 686
on the deep ! M 682
on us soon . M 676
on the years . M 672
on my land ! M 672
on the poor ! M 662
on the feet ? M 662
on the file ? M 660
on my duty . M 654
on the stop . M 648
on my test . M 646
on the pain ? M 644
on the exam ! M 640
on the dots . M 640
on to fill . M 634
on us kids . M 632
on the angel . M 632
on my goal . M 632
on it fast . M 630
on the trip ! M 624
on the loop ? M 620
on the mark ! M 618
on the birth . M 618
on my girl . M 616
on the held . M 614
on the save . M 612
on the kiss . M 612
on the eyes ? M 610
on to know . M 606
on my cake . M 606
on the maps ? M 604
on the army ? M 602
on the stay . M 600
on no side . M 600
on the body ! M 598
on to date . M 592
on my coat ? M 592
on the echo . M 590
on of late . M 587
on or what ? M 586
on it some . M 586
on to term . M 582
on an army . M 582
on the find . M 578
on so hard . M 578
on the toys . M 576
on an ideal . M 576
on the mate . M 574
on the deed ? M 574
on my file . M 574
on the kind . M 570
on the deals . M 570
on to more . M 568
on the wake . M 568
on to live . M 566
on the true . M 566
on the word ! M 562
on the theft . M 562
on the walk ? M 560
on the mend ? M 560
on an arch . M 560
on the rash . M 556
on to give . M 554
on the less . M 554
on as well ? M 554
on the mile . M 552
on me fast . M 552
on the wane ! M 542
on the self ? M 542
on the more . M 542
on my name ? M 540
on to treat . M 538
on to third . M 536
on to snow . M 534
on the baby ! M 534
on the single . M 532
on my post . M 532
on the grey . M 530
on the fool . M 526
on the boys ? M 524
on the word ? M 522
on the wars . M 520
on the help . M 520
on my mask . M 516
on my faith ! M 516
on the mark ? M 514
on me next . M 512
on the living ? M 508
on an onion . M 508
on the post ? M 506
on the keep . M 504
on my note . M 502
on my hill . M 500
on the food ? M 496
on my unit . M 496
on the kick . M 494
on to those . M 490
on my copy . M 490
on my form . M 488
on as true . M 488
on my fears . M 486
on of life . M 485
on the tenth ? M 484
on the lady ? M 484
on the cloth ? M 482
on the look . M 480
on my wits . M 480
on an ally . M 480
on to pray . M 479
on my time ? M 478
on my left ! M 478
on the what . M 476
on the hold . M 476
on the union ? M 474
on the hour ? M 474
on the site ! M 472
on the anger . M 472
on in back . M 472
on by many . M 471
on to ours . M 470
on the cheat . M 470
on the book ! M 470
on by faith . M 469
on the game ! M 468
on my pain . M 468
on at trial . M 464
on the wood ? M 462
on the love . M 462
on the fish ? M 462
on my lady . M 462
on so soon . M 460
on to hell . M 458
on the full . M 458
on the half . M 456
on the good ? M 456
on in envy . M 455
on the clue . M 454
on my text . M 454
on the webs . M 450
on the prior . M 450
on the step ? M 446
on the past ! M 446
on the home ? M 446
on my self . M 446
on my poems . M 446
on my mail . M 446
on my boys . M 446
on up north . M 444
on an other . M 444
on to tell . M 442
on me more . M 442
on at dawn . M 441
on my tail ? M 438
on my debt . M 438
on at work ? M 435
on or stop . M 434
on my door ! M 434
on me soon . M 434
on me hard . M 434
on by mail . M 433
on my eyes ? M 432
on my beach . M 432
on the know . M 430
on the city ! M 430
on the item ? M 428
on the girl ! M 426
on the blow . M 426
on the wash . M 420
on to food . M 418
on it well . M 418
on my show ? M 416
on the mass ? M 412
on the healing . M 412
on or back . M 412
on my vest . M 412
on an hill . M 412
on the wrap . M 410
on my rest . M 410
on my date . M 408
on to youth . M 406
on the deaths . M 406
on the date ? M 406
on in full . M 406
on in mine . M 405
on by name . M 401
on to faith . M 400
on so much ? M 400
on my third . M 400
on the days . M 398
on the step ! M 396
on the spring ? M 396
on the bids . M 394
on an edge ? M 394
on as root . M 393
on to next . M 392
on the tomb ? M 392
on to last . M 388
on the reach . M 388
on the grow . M 388
on it wrong . M 386
on the name ? M 384
on my call . M 382
on at life . M 381
on the work ! M 380
on the main ! M 380
on my range . M 380
on to here . M 374
on the holy . M 374
on me back . M 374
on the free . M 372
on the draw ? M 370
on in life ! M 370
on to obey . M 366
on at nine . M 366
on the same ! M 364
on the next ! M 364
on it early . M 364
on the user ? M 362
on my cast . M 362
on the part ? M 360
on my hair ? M 360
on the turn ? M 358
on the call ? M 356
on my ways . M 356
on my hill ! M 354
on by road . M 354
on the push . M 352
on the ages . M 352
on so well ? M 349
on the hour ! M 348
on my role . M 348
on the pick . M 346
on me here ? M 344
on my coat ! M 342
on the fact ? M 340
on so fast ! M 339
on the truth ! M 338
on the flaw . M 338
on the cell ? M 338
on an angel . M 338
on us next . M 336
on he said . M 336
on the time ? M 334
on the idiot . M 332
on the twig ? M 330
on the west ! M 328
on the help ! M 328
on by love . M 328
on to anger . M 327
on to take . M 326
on to warm . M 325
on we must . M 324
on to hope ! M 324
on the gods ? M 324
on my book ! M 324
on the pits . M 322
on my ruin . M 322
on to home . M 320
on the south ! M 320
on the goal ? M 320
on the nest ? M 318
on my book ? M 318
on to rule . M 316
on the fifth ? M 316
on my fire . M 316
on the tail ? M 314
on it less . M 314
on the join . M 312
on the hunt ! M 312
on the hair ? M 312
on the sixth ? M 310
on the feet ! M 310
on my hide . M 310
on to game . M 309
on the myths . M 308
on the living ! M 308
on to leave . M 306
on the walk ! M 306
on the fold ? M 306
on the ends ? M 306
on to life ? M 304
on my days . M 304
on in spring . M 302
on the ninth ? M 300
on the hurt . M 300
on to move . M 298
on the coding . M 298
on my loss . M 298
on the young ! M 292
on the keys ? M 292
on the eyes ! M 292
on the bets . M 292
on the make ! M 288
on of tail . M 288
on the seeing . M 284
on the lost . M 284
on the onion . M 282
on my hair ! M 282
on the load ? M 280
on my work ! M 280
on is gone . M 280
on my case ! M 278
on by cold . M 277
on the host ? M 274
on the even . M 274
on or over . M 274
on my pass . M 274
on my breath ? M 274
on in years ? M 273
on the pile ? M 272
on the koan . M 272
on the jump ! M 272
on my birth . M 272
on the hand ! M 270
on as fact . M 267
on the bins . M 266
on my love ! M 266
on at three . M 266
on at need . M 264
on us fast ! M 262
on the gaps . M 262
on my site ? M 262
on my mark ! M 262
on to evil . M 260
on the third ! M 260
on at five . M 260
on us here ? M 258
on the said . M 258
on my care . M 258
on the gate ! M 256
on to work ? M 254
on the sick ? M 254
on the saying . M 254
on the pose . M 254
on my data . M 254
on at four . M 254
on as much . M 254
on to duty . M 252
on to draw . M 252
on the meals . M 252
on to lose . M 251
on to health . M 250
on my talk . M 250
on the play ! M 248
on me only . M 248
on by young . M 248
on the treat . M 244
on the pros . M 244
on my exam . M 244
on my bank . M 244
on to jobs . M 243
on to good . M 242
on the mend ! M 242
on the bone ? M 242
on my leave . M 242
on to high . M 239
on the food ! M 238
on the very . M 236
on the luck . M 236
on no plan . M 236
on the post ! M 234
on the gain ? M 234
on the coat ? M 234
on the chop . M 234
on the tail ! M 232
on the bell ? M 232
on it here ? M 232
on to wood . M 230
on the dogs ? M 230
on my songs . M 230
on my acting . M 230
on of time . M 229
on to there . M 228
on the vice . M 228
on the hanging . M 228
on the bird ? M 228
on my dogs . M 228
on my baby ? M 228
on in pain . M 228
on an heir . M 228
on the calm . M 226
on so late . M 224
on to mark . M 223
on to kill . M 222
on the breath ? M 222
on my army . M 222
on to sons . M 221
on the urge . M 220
on the last ? M 220
on the weaving . M 218
on the boys ! M 218
on my arms ? M 218
on the weave . M 216
on the rich ! M 216
on the pass ? M 216
on the making . M 216
on the kids ! M 216
on the bark ? M 216
on my rest ? M 216
on me here ! M 216
on an acid . M 216
on the maps ! M 214
on the care . M 214
on the name ! M 212
on my base . M 212
on it only . M 212
on the wise . M 210
on the well ? M 210
on the flag ! M 210
on the beating . M 210
on the base ! M 210
on my step . M 210
on by love ? M 210
on the form ! M 208
on the draw ! M 208
on the theory ? M 206
on the tour ! M 204
on the take ! M 204
on the mine ? M 204
on the deep ? M 204
on the arms ? M 204
on my line ! M 204
on me face . M 204
on to note . M 202
on my name ! M 202
on me mind . M 202
on in ours . M 201
on by post . M 201
on the many ? M 200
on an idol . M 200
on to three . M 198
on the reading ? M 198
on the feed ! M 198
on the bold . M 198
on by fire ? M 198
on is fine . M 197
on to learn . M 196
on the wood ! M 196
on the wealth . M 196
on the dull . M 196
on the ageing . M 196
on at home ! M 195
on the role ? M 194
on the like . M 194
on the aids . M 194
on to angel . M 192
on the view ! M 192
on the life ? M 192
on the fade . M 192
on the drop ? M 192
on my hearing . M 192
on my best . M 192
on to help ? M 190
on the health ? M 190
on my threat . M 190
on is clear . M 190
on to rest . M 189
on by fire . M 189
on the nest ! M 188
on the mixing . M 188
on the hash . M 188
on my fish . M 188
on my arms ! M 188
on at birth . M 187
on the soft . M 186
on the curl . M 186
on my view ! M 186
on my stay . M 186
on is lost . M 186
on the meaning ? M 184
on the fits . M 184
on the aether . M 184
on my time ! M 184
on my gift . M 184
on us hard . M 182
on the lock ! M 182
on the gale ! M 182
on the cast ? M 182
on no other ? M 182
on my host . M 182
on an ending . M 182
on by time . M 181
on the wish . M 180
on the rest ! M 180
on the fish ! M 180
on my line ? M 180
on it next . M 180
on by anger . M 180
on the rule ? M 178
on the flying . M 178
on the able . M 178
on no maps . M 178
on it meant . M 178
on the keys ! M 176
on me feet . M 176
on an item ? M 176
on the vows . M 174
on the room ? M 174
on the lock ? M 174
on or stop ? M 174
on my teams . M 174
on my page ? M 174
on in anger . M 174
on is mine . M 173
on us boys . M 172
on my trip ? M 172
on my jobs . M 172
on to come . M 170
on the swim . M 170
on the pure . M 170
on the grab . M 170
on the dips . M 170
on it most . M 170
on in hell . M 170
on by love ! M 170
on to pass . M 169
on to cloth . M 168
on the sell . M 168
on the evil ? M 168
on the char . M 168
on ring road . M 168
on my sign . M 168
on my last . M 168
on the meek . M 166
on the dash ? M 166
on the beast ! M 166
on so much ! M 166
on no less . M 166
on my cell ? M 166
on in depth . M 166
on so loud . M 165
on is used . M 165
on the saving . M 164
on the north ! M 164
on the link ? M 164
on the lest . M 164
on the bent . M 164
on by fate . M 164
on the band ? M 162
on is done . M 162
on at will ? M 162
on the ugly . M 160
on my road ? M 160
on my plan ? M 160
on me anew . M 160
on is true . M 159
on in love . M 159
on the late . M 158
on or what . M 158
on the teams ? M 156
on my kids ? M 156
on to test . M 155
on to spring . M 155
on to jail . M 155
on my health ? M 154
on by dogs . M 153
on us here ! M 152
on the seen . M 152
on the lies . M 152
on my tomb ! M 152
on it anew . M 152
on to fire . M 150
on the toil . M 150
on the skip . M 150
on the cite . M 150
on my flag . M 150
on my fate ? M 150
on in reading . M 150
on in tears . M 149
on in hiding . M 149
on the verb ? M 148
on the aide . M 148
on my peace . M 148
on my half . M 148
on the wait . M 146
on the down ? M 146
on the dogs ! M 146
on the code ? M 146
on the beast ? M 146
on my home ? M 146
on to four . M 145
on to sell . M 144
on to plead . M 144
on to make ? M 144
on the meet . M 144
on the fake . M 144
on the cloth ! M 144
on me some . M 144
on by some . M 144
on in jail . M 143
on so many ? M 142
on my wealth . M 142
on my taking . M 142
on my city . M 142
on so hard ? M 141
on in fact . M 141
on up town ? M 140
on the slow . M 140
on the flow ! M 140
on the bend ? M 140
on the bell ! M 140
on my trial ? M 140
on us three . M 138
on the steal . M 138
on the bare . M 138
on my size . M 138
on my means . M 138
on my bone . M 138
on by hope . M 138
on to have . M 137
on the time ! M 136
on the mode ! M 136
on my road ! M 136
on it last . M 136
on by life . M 136
on an angle ? M 136
on to time . M 135
on the dare . M 134
on in three . M 134
on in pity . M 133
on to tears . M 132
on the rate ? M 132
on the fool ! M 132
on my leads . M 132
on my baby ! M 132
on me next ? M 132
on me heavy . M 132
on it were . M 132
on is wrong . M 132
on by aids . M 132
on to these ? M 131
on to cure . M 131
on to halt . M 130
on the mask ? M 130
on the duty ? M 130
on the axiom . M 130
on the alias . M 130
on the aims . M 130
on or into . M 130
on my show ! M 130
on in peace ! M 130
on to ruin ? M 128
on the safe ? M 128
on the gift ? M 128
on or died . M 128
on my love ? M 128
on in years ! M 128
on by means . M 128
on the losing . M 126
on my healing . M 126
on my flying . M 126
on my crib . M 126
on the shop ? M 124
on the fifth ! M 124
on the bash . M 124
on ring size . M 124
on my bird . M 124
on me early . M 124
on it grew . M 124
on is holy . M 124
on to think . M 123
on to ideas . M 123
on to peace . M 122
on the jump ? M 122
on the boring . M 122
on is good . M 122
on as truth . M 121
on us once . M 120
on the send . M 120
on the risk ? M 120
on the idle . M 120
on the copy ? M 120
on the bone ! M 120
on the bird ! M 120
on so loud ? M 120
on or leave . M 120
on me wrong . M 120
on me there ! M 120
on is face . M 120
on to video . M 119
on to some . M 118
on to mine ? M 118
on the uses . M 118
on the liars . M 118
on no list . M 118
on my rage . M 118
on my meaning . M 118
on an exit . M 118
on an epic . M 118
on to rise . M 117
on is over . M 117
on by spring . M 117
on to form . M 116
on the tomb ! M 116
on the sign ! M 116
on the root ? M 116
on the puts . M 116
on the lift ? M 116
on the lazy . M 116
on the kill ? M 116
on the edit . M 116
on the debt ! M 116
on or kept . M 116
on my hunt . M 116
on my girl ? M 116
on an axiom . M 116
on at last ! M 115
on the wars ! M 114
on the fact ! M 114
on the best ? M 114
on me wait . M 114
on it self . M 114
on he says . M 114
on an idiot . M 114
on to full . M 113
on as well ! M 113
on the means ? M 112
on my youth ! M 112
on my hall . M 112
on me tail . M 112
on to pain . M 111
on the youth ? M 110
on the ward ! M 110
on the sums . M 110
on the spring ! M 110
on the seed ? M 110
on the plan ! M 110
on the giving . M 110
on the fall ! M 110
on my turn . M 110
on my bets . M 110
on it even . M 110
on to life ! M 109
on the sort . M 108
on the feel . M 108
on or quit . M 108
on my video . M 108
on my food ? M 108
on my exit . M 108
on by vice . M 108
on of work . M 107
on us wealth . M 106
on the part ! M 106
on the idiot ! M 106
on my pain ! M 106
on my cuts . M 106
on the hero ? M 104
on the hall ? M 104
on the gods ! M 104
on the blue ? M 104
on my acts . M 104
on is zero . M 103
on in five . M 103
on the lore . M 102
on the gale ? M 102
on the faith ? M 102
on the core ? M 102
on my cage . M 102
on he face . M 102
on to five . M 101
on to boys . M 101
on or from . M 101
on the gray ! M 100
on up ahead ? M 99
on or nothing . M 99
on us anew . M 98
on to doom . M 98
on the well ! M 98
on the text ! M 98
on the rage . M 98
on the lull . M 98
on the here . M 98
on the cool . M 98
on the asking . M 98
on my tale . M 98
on my pile . M 98
on my mine . M 98
on my beach ? M 98
on it will . M 98
on it died . M 98
on is made . M 98
on in need . M 98
on by fish . M 98
on we will . M 96
on we came . M 96
on the rain ? M 96
on the plus . M 96
on the crying . M 96
on the best ! M 96
on no more ! M 96
on my kind . M 96
on my find . M 96
on by what ? M 96
on an echo . M 96
on to back . M 95
on in kind . M 95
on the sick ! M 94
on the port ? M 94
on the logs ? M 94
on the hits . M 94
on my lake . M 94
on it there ? M 94
on to feed . M 93
on we move . M 92
on us food . M 92
on the sixth ! M 92
on the goal ! M 92
on the aged ? M 92
on of airs . M 92
on my town . M 92
on my tomb ? M 92
on my shop . M 92
on my port . M 92
on my fate ! M 92
on by work . M 92
on by pain . M 92
on an ocean ? M 92
on as ours . M 91
on to next ? M 90
on the video ! M 90
on the threat ? M 90
on the sets ? M 90
on the note ! M 90
on my load . M 90
on me there ? M 90
on me also ? M 90
on it says . M 90
on in arms . M 90
on he other . M 90
on he back . M 90
on an evil . M 90
on us feed . M 88
on the omen . M 88
on the luck ! M 88
on the logs ! M 88
on the leave . M 88
on the dream ? M 88
on the angry . M 88
on the angle ? M 88
on no good . M 88
on my sets . M 88
on my date ? M 88
on the stem ! M 86
on the ends ! M 86
on my toil . M 86
on my luck ! M 86
on my bait . M 86
on me ever . M 86
on it fast ? M 86
on by want . M 86
on we dash ! M 84
on the male ? M 84
on the loss ? M 84
on the lift ! M 84
on the hate . M 84
on my runs . M 84
on my breath ! M 84
on my boys ! M 84
on my bell . M 84
on it side . M 84
on he died . M 84
on by rule . M 84
on us fall ! M 82
on the turn ! M 82
on the tenth ! M 82
on the size ? M 82
on the sage ? M 82
on the last ! M 82
on the harm . M 82
on the dons . M 82
on my walk ? M 82
on my stem . M 82
on my fare . M 82
on my dash . M 82
on it ever . M 82
on an alias . M 82
on of spring . M 81
on the term ? M 80
on the tens . M 80
on the shed ! M 80
on the hearing ? M 80
on the great ? M 80
on my wealth ! M 80
on my test ? M 80
on my play ? M 80
on me much . M 80
on at length ? M 80
on to grow . M 77
on so early . M 75
on to hold . M 73
on to fish . M 70
on to whom ? M 69
on so soon ? M 68
on in time ? M 68
on to stop . M 65
on to dawn . M 65
on at rest . M 65
on to will . M 62
on in line . M 62
on as mate . M 62
on to port . M 59
on to hunt . M 57
on to dark . M 56
on as fast . M 56
on in truth . M 55
on to healing . M 54
on to fail . M 53
on at meals . M 52
on to nine . M 51
on to acid . M 51
on in work . M 51
on at left . M 51
on so late ? M 50
on to base . M 49
on is nothing . M 49
on to whom . M 47
on to hall . M 47
on to aids . M 47
on to wealth . M 46
on in mind . M 46
on up home . M 45
on up town . M 44
on to meaning . M 44
on to many . M 44
on on land . M 44
on in play . M 44
on in fury . M 44
on at best . M 44
on to ruin ! M 43
on to list . M 43
on to keep . M 43
on so good . M 42
on is love . M 42
on in theory . M 42
on in part . M 42
on to fury . M 41
on by boys . M 41
on to fall . M 40
on so early ? M 40
on in town ! M 40
