on a thing like M 5636
on a no less M 1088
on i the other M 580
on t he other M 562
on a as well M 540
on a thing when M 506
on a ring from M 500
on t as well M 466
on i am sure M 440
on a no gain M 414
on i am your M 412
on a ring base M 394
on a so much M 352
on a ring road M 278
on t he part M 267
on a thing void M 252
on a ring made M 222
on a tea break M 219
on a is said M 188
on a ring core M 178
on i as well M 176
on t he left M 156
on a no cure M 154
on t he same M 152
on a in such M 150
on a ring main M 148
on i the part M 146
on a to give M 144
on a the same M 134
on s is said M 126
on a king size M 124
on a is zero M 119
on s as well M 118
on a no more M 117
on i go into M 114
on a is also M 114
on i am very M 110
on i am just M 102
on a to show M 100
on a no cost M 98
on a to make M 96
on s we have M 94
on d as well M 92
on i am glad M 90
on a ring worn M 90
on a ring will M 90
on a by means M 90
on i am ready M 88
on a it will M 86
on t he side M 84
on a ring over M 84
on a thing from M 82
on a ring like M 82
on i he other M 80
on i am more M 69
on i am only M 48
on a go slow M 43
on a is less M 41
on a sea beach D 916
on a sea trip D 818
on a sea wall D 680
on a tea tray D 658
on a sea like D 320
on a ring foot D 286
on a pa view D 273
on a tea cart D 254
on a pa film D 242
on a sea rock D 204
on a sea full D 172
on a sea trial D 156
on a via media D 132
on a sea view D 114
on a tea gown D 104
on a sea star D 96
on a sea loch D 94
on a sea life D 92
on a hoe over D 84
