one afternoon , " M 8136
one exclaimed , " M 3719
one explained , " M 2983
one commented , " M 2931
one paragraph : " M 1502
one statement : " M 1490
one conclusion : " M 1356
one generation , " M 1346
one exclaimed : " M 1288
one interview , " M 1268
one foundation , " M 1244
one gentleman , " M 1232
one responded , " M 1222
one substance , " M 1140
one character , " M 1128
one expression , " M 1034
one suggested , " M 985
one commented : " M 920
one afternoon : " M 904
one statement , " M 858
one yesterday , " M 828
one definition , " M 806
one explained : " M 778
one professor , " M 720
one principle , " M 717
one community , " M 692
one continued , " M 607
one paragraph , " M 574
one principle : " M 551
one continued : " M 538
one advantage , " M 533
one conclusion , " M 526
one somewhere , " M 504
one remembers , " M 443
one volunteer , " M 431
one specialist , " M 404
one candidate , " M 365
one principal , " M 356
one considers , " M 356
one interview : " M 352
one suggestion : " M 350
one possessed , " M 350
one definition : " M 344
one complaint , " M 343
one traveller , " M 342
one suggestion , " M 342
one complaint : " M 327
one viewpoint , " M 312
one especially , " M 310
one available , " M 308
one announced , " M 300
one assistant , " M 286
one responded : " M 282
one possessed : " M 271
one objective : " M 267
one important , " M 240
one character : " M 236
one objective , " M 232
one expression : " M 224
one addressed , " M 224
one complains , " M 223
one suggested : " M 218
one sacrifice , " M 218
one commander , " M 212
one applicant , " M 194
one ourselves , " M 193
one impression , " M 176
one confessed , " M 163
one dictionary , " M 158
one adjective , " M 158
one concluded , " M 155
one encounter , " M 146
one discussion , " M 144
one discovery , " M 144
one concerned , " M 144
one criticism : " M 142
one presently , " M 136
one architect , " M 136
one reference , " M 134
one protested , " M 134
one admonition : " M 134
one professor : " M 132
one gentleman : " M 132
one advantage : " M 127
one sometimes , " M 122
one described , " M 116
one connection , " M 114
one candidate : " M 112
one community : " M 110
one hypothesis , " M 106
one attribute , " M 106
one spiritual , " M 102
one announced : " M 102
one narrative , " M 100
one concludes , " M 97
one altogether , " M 97
one component , " M 96
one revolution , " M 92
one production , " M 90
one different , " M 88
one profession , " M 86
one principal : " M 86
one encounter : " M 84
one altogether : " M 84
one confession , " M 82
one continues , " M 51
one conditions , " M 49
one possesses , " M 40
one certainly , " M 40
