em on the run M 2414
em in the old M 1911
em in the eye M 1670
em on the head M 1616
em as if they M 1608
em in the head M 1162
em on the way M 952
em we do not M 532
em to do that M 506
em in the act M 504
em in the air M 492
em in the end M 457
em at the end M 434
em to me and M 388
em up at all M 384
em to the old M 366
em if he had M 302
em up if you M 288
em or do not M 284
em up to you M 268
em if we can M 264
em to go out M 263
em up in that M 234
em up if they M 234
em in my own M 230
em up at this M 226
em in the way M 224
em to me for M 218
em if it was M 218
em so we can M 214
em we is not M 210
em it is not M 204
em do as they M 204
em up in his M 202
em in the box M 202
em up so they M 184
em in the bag M 180
em on the end M 178
em as he did M 178
em in the rear M 177
em in the sun M 175
em in my head M 172
em as he saw M 168
em on to you M 166
em to do things M 144
em in the long M 142
em to the end M 140
em up the way M 138
em on the top M 138
em in to see M 138
em by the way M 138
em in the war M 136
em in my day M 136
em as we see M 136
em up in her M 134
em in the big M 134
em he is not M 130
em as we can M 128
em to go and M 126
em up to see M 124
em to the boy M 124
em as if you M 122
em in an old M 118
em as we did M 118
em up in this M 112
em on the job M 112
em up as they M 108
em on the war M 108
em on at all M 108
em it do not M 108
em up in one M 106
em if he can M 106
em up to dry M 105
em up on that M 104
em on my own M 104
em if he does M 104
em if we had M 102
em at the head M 100
em on as far M 98
em go on this M 98
em do it with M 98
em up to her M 96
em if it had M 96
em to us now M 94
em to do any M 94
em by the end M 94
em up to his M 92
em is the mean M 90
em in the new M 90
em in the bar M 86
em if we did M 86
em he do not M 86
em to go with M 84
em to do this M 84
em to do but M 84
em up as you M 80
em up on top M 48
em to the east M 43
em in the car D 620
em in the ass D 615
em is the peak D 446
em on the ice D 252
em by the ears D 234
em in my lap D 232
em on the bed D 207
em on the ass D 202
em in the pot D 200
em in the jaw D 174
em in the gut D 134
em in the mud D 132
em in the inn D 130
em in the pan D 118
em on the hop D 110
em in the tub D 110
em in the van D 104
em on the sly D 101
em in the ice D 87
em on the raw D 85
em in my hat D 82
em go to bed D 43
