em once in a M 552
em down to a M 358
em down in a M 302
em back in a M 266
em over to a M 238
em dash is a M 202
em hold on a M 138
em along in a M 132
em give me a M 126
em much of a M 118
em away in a M 118
em back to a M 110
em just as i M 90
em speak to a M 86
em home in a M 80
em wave in a D 128
em quad is a D 116
