em as long as M 1530
em if they do M 1380
em up for the M 1178
em as far as M 904
em up with the M 724
em to get the M 704
em if you do M 674
em to bring it M 632
em up for me M 508
em up out of M 484
em on top of M 396
em in with the M 390
em to see the M 382
em so they do M 378
em to let me M 358
em in all the M 336
em is going to M 331
em up and we M 320
em on all the M 306
em as big as M 306
em the way to M 290
em up off the M 262
em to put on M 262
em in one of M 256
em as they is M 256
em to you to M 250
em to get my M 248
em to see if M 242
em or you do M 240
em to put it M 238
em to put the M 224
em to you in M 220
em it was the M 200
em as they go M 186
em in for the M 180
em the way he M 178
em up and go M 176
em to see me M 172
em up one on M 168
em to get to M 168
em to set up M 164
em to get on M 164
em so far as M 164
em do not do M 164
em in one by M 160
em as easy as M 160
em to one of M 158
em to get up M 158
em to get it M 150
em as you do M 150
em to buy it M 148
em up all the M 144
em in all my M 142
em to use the M 140
em to let us M 138
em the way we M 138
em to get in M 136
em so long as M 136
em is that it M 134
em as they do M 132
em is not so M 128
em to bring me M 126
em to fly is M 124
em up and the M 118
em up and eat M 118
em by and by M 116
em is that the M 114
em to you if M 112
em to set the M 112
em to bring the M 112
em to try to M 110
em to see us M 108
em to put in M 108
em as bad as M 106
em up with my M 102
em so long to M 102
em up and do M 100
em in off the M 98
em if they is M 98
em as old as M 98
em the use of M 96
em do that to M 96
em by way of M 96
em to get me M 94
em as how he M 94
em to bring in M 91
em as you go M 90
em on with the M 88
em is all in M 88
em at one of M 88
em to put up M 86
em in and we M 86
em do not go M 86
em as may be M 86
em to buy the M 84
em by him in M 84
em up for us M 82
em to all the M 82
em in one at M 82
em up and be M 80
em to try it M 80
em to dry up M 80
em to arm the M 80
em as low as M 80
em to hang on M 47
em is not no M 45
