pa used to say D 1411
pa said it was D 1023
pa said he was D 528
pa told me that D 403
pa when he was D 365
pa said he had D 278
pa said he did D 244
pa came in and D 212
pa said to him D 132
pa went to see D 112
pa told us that D 107
pa held up his D 104
pa said in his D 88
pa says he can D 86
pa came in with D 84
pa says we can D 82
