path that leads to M 83702
pay for work of M 29152
pay for what he M 24596
pay any heed to M 18139
pay any debt or M 17514
pay any part of M 13744
pay for some of M 12552
pay his debt to M 10853
pay off some of M 10399
pay for part of M 9230
pay for what we M 8678
path and name of M 8094
pay for most of M 7972
path and into the M 7532
pay not only the M 6570
pay him back in M 5982
pay one half of M 5374
pay for such an M 5322
pay for jobs of M 5017
pay him what he M 4935
pay you back in M 4934
pay for what it M 4728
pay for what is M 4482
pay his duty to M 4326
path led from the M 4218
pay off part of M 4085
pay them back in M 4064
pay for half of M 3916
path that must be M 3788
pay that kind of M 3742
pay them over to M 3630
path you want to M 3616
pay for living in M 3596
pay you back the M 3160
pay one third of M 3138
pay his fare to M 3049
pay for what the M 3016
pay for much of M 2938
pay for half the M 2914
pay any mind to M 2881
path that will be M 2636
pay our debt to M 2610
path that leads up M 2544
pay for work on M 2495
pay and lack of M 2399
pay its debt to M 2316
pay them into the M 2302
path led down to M 2292
pay for many of M 2276
path can also be M 2248
pay his debt of M 2218
path lay along the M 2192
pay due heed to M 2171
pay you back as M 2089
pay his debt in M 2014
pay him back the M 1964
path that leads us M 1934
pay for having the M 1886
pay her debt to M 1862
pay for loss of M 1860
pay off most of M 1792
pay for life to M 1792
path was open to M 1762
pay for only the M 1746
pay for work in M 1730
pay that part of M 1723
path ran along the M 1712
path led along the M 1706
pay for some or M 1662
pay for even the M 1646
pay any kind of M 1618
pay for care in M 1596
pay out more in M 1577
pay this debt of M 1574
pay too much in M 1559
pay off when the M 1548
pay his part of M 1546
pay one half the M 1509
pay for more of M 1481
pay her back in M 1474
pay any fine or M 1474
path led into the M 1474
pay him when he M 1432
pay you well to M 1424
pay and what the M 1392
path and over the M 1340
pay her duty to M 1304
pay this kind of M 1298
path and onto the M 1286
pay for trying to M 1258
pay them from the M 1252
pay him back by M 1244
path cut into the M 1238
path and came to M 1224
pay for having it M 1220
pay his debt by M 1208
path they were on M 1201
path can only be M 1189
pay for food or M 1135
pay our duty to M 1106
path was full of M 1052
path that ends in M 1050
pay too much to M 997
path led down the M 964
pay for part or M 960
pay for work at M 958
pay each month to M 942
pay for cost of M 941
path and there is M 930
pay one tenth of M 924
pay and must be M 922
path and down the M 922
path may also be M 916
pay him half the M 910
pay for peace of M 891
path that leads the M 882
path they were to M 870
pay you back by M 862
pay for making the M 862
pay you well if M 860
pay any sort of M 859
path you wish to M 858
pay off over the M 852
pay you when we M 848
pay off only if M 848
pay that much to M 831
pay out most of M 830
pay any duty or M 830
pay off down the M 827
pay you what is M 826
pay them back by M 812
path and along the M 798
pay for loss or M 797
pay our debt of M 776
pay off what he M 776
pay far more in M 775
pay and length of M 763
pay any more of M 750
path not only of M 728
path and what is M 725
pay out some of M 718
pay her fare to M 716
pay any debt of M 712
pay for taking the M 710
pay her back the M 708
pay and what he M 698
path lay open to M 692
pay off only in M 691
path you need to M 690
pay his fine of M 688
pay off during the M 686
pay for these in M 684
path and reach the M 676
pay may also be M 674
pay his fare or M 674
pay each other the M 664
path has been the M 656
pay him half of M 638
pay him part of M 634
path you have to M 634
pay him what is M 630
path and back to M 630
pay and there is M 627
path led back to M 626
pay his duty at M 624
path and rate of M 622
pay for years of M 620
pay them back the M 618
pay him back as M 618
path and make the M 614
pay him well to M 612
pay you back if M 610
pay out part of M 610
pay you back at M 602
path and will be M 602
pay them when the M 600
path that went up M 600
pay one fifth of M 596
pay him well if M 594
path and take the M 594
pay for leave to M 592
path and come to M 592
pay off debt or M 588
pay any mark of M 588
pay his fare on M 576
pay his debt or M 574
pay for those of M 574
pay him from the M 572
pay this debt to M 570
path for most of M 568
pay his vows to M 564
pay her back by M 560
path and went to M 560
pay you what it M 556
path not only to M 556
pay you back on M 555
pay too much or M 554
pay this mark of M 552
pay but also the M 552
path you take to M 552
path that leads me M 552
pay all sums of M 548
pay for care of M 546
path and from the M 546
pay any bank or M 544
path and must be M 544
pay them during the M 542
pay his half of M 542
pay this debt in M 537
pay them what he M 534
path led over the M 534
pay for those in M 532
path that ends at M 532
pay for lack of M 531
pay his debt at M 526
pay you what he M 518
pay that sort of M 516
pay out more of M 516
pay his fine or M 514
pay any part or M 514
pay any duty on M 514
pay for length of M 513
pay for food in M 513
pay any form of M 512
pay her half of M 510
pay his breath to M 506
pay and feed the M 504
pay them well to M 502
pay him back at M 502
path led past the M 500
path and went on M 500
pay can only be M 498
path ran from the M 496
pay than those in M 492
pay not only in M 487
pay any call or M 484
path going down to M 484
pay its debt of M 482
pay has been the M 482
pay off when it M 480
pay for land in M 480
path out into the M 480
path going from the M 478
pay you what we M 476
pay him back if M 470
pay him when the M 464
path goes from the M 462
path was along the M 460
path that leads in M 456
path and make it M 456
pay her part of M 452
pay our vows to M 448
pay you when the M 446
pay him what it M 446
path was lost in M 446
path lay over the M 446
pay off much of M 444
path they have to M 442
pay off what we M 440
pay any rate of M 440
pay out from the M 437
pay its debt in M 436
pay can also be M 436
pay and went to M 436
pay for help in M 435
path and made it M 434
pay not only to M 432
path and also the M 432
pay him only the M 430
pay any aids or M 430
pay off well in M 429
pay each month on M 425
pay two sets of M 424
pay off from the M 418
pay her debt of M 418
path was clear to M 418
pay and also the M 416
path but also the M 416
pay his debt is M 414
pay off half the M 412
pay out during the M 408
pay this sort of M 407
pay you half the M 406
pay for life in M 405
path they want to M 404
pay but also to M 398
pay you just as M 397
pay too much of M 397
pay you half of M 396
pay was tied to M 396
pay for daring to M 395
pay out less in M 394
pay its part of M 394
path was made by M 394
pay you what the M 392
pay them back as M 390
pay out over the M 390
pay you part of M 388
pay him when we M 388
pay off when he M 387
pay you when he M 386
pay for having an M 386
pay any sums of M 386
path and find the M 386
pay them back to M 384
pay his debt on M 384
path and past the M 384
pay for loss to M 383
pay and cost of M 383
pay for three or M 382
pay for these by M 382
pay for making it M 382
pay any more in M 382
path goes along the M 382
pay his vows at M 380
pay any more to M 380
path and goal of M 380
pay her back as M 378
pay and what is M 378
path set forth by M 378
pay god what is M 376
pay far less in M 375
path for data to M 374
pay and will be M 372
pay that will be M 371
path was used to M 370
pay him what we M 368
path you want the M 368
path has been to M 368
path and when the M 368
path and made the M 368
path they came to M 366
pay them will be M 364
path that went to M 364
pay off more of M 362
pay him half so M 360
pay for food at M 358
pay and nothing to M 358
path that used to M 358
pay this debt by M 354
pay that debt in M 354
pay they were to M 352
path may have to M 352
pay them back at M 350
pay for such as M 350
pay for work or M 348
pay due from the M 348
path that lies in M 348
pay for time on M 345
path they wish to M 344
path had been the M 344
pay for their tea M 343
pay him what the M 342
pay that debt to M 341
path and walk in M 338
pay and what it M 336
path goes down to M 336
pay for just the M 335
pay far more to M 334
path has been so M 334
pay her what he M 332
path you will be M 332
pay you just the M 330
pay had been in M 327
pay them what is M 324
pay for when he M 322
pay all cost of M 322
path may well be M 322
path and leave the M 322
pay for work to M 318
path and keep it M 318
pay that debt of M 316
pay for when it M 316
pay any loss or M 316
pay and term of M 315
pay for saving the M 314
pay for from the M 314
pay this part of M 313
pay his fare in M 313
pay him best to M 312
pay that debt by M 311
pay for even if M 310
pay for want of M 309
pay all over the M 308
path that most of M 308
path are said to M 308
pay out sums of M 306
pay and also to M 306
path and also to M 306
pay off even if M 304
pay his note at M 304
pay and have the M 304
path ran down the M 304
path and have the M 304
pay that much in M 303
pay each month in M 303
path and name in M 302
path led only to M 300
path and leads to M 300
pay and loss of M 299
pay for moving the M 298
pay any rate or M 298
path you come to M 298
pay for care at M 297
pay her when he M 296
pay for when the M 296
pay each other in M 296
path was used by M 296
pay them when he M 294
pay off many of M 293
pay for when we M 293
path ran into the M 292
pay one unit of M 291
pay for same in M 288
path out from the M 288
pay you when my M 286
pay you more if M 286
pay and take the M 286
path that brings us M 286
path and when he M 286
pay out more to M 285
pay but half the M 285
path may seem to M 284
pay him some of M 282
pay her debt in M 282
pay and leave the M 282
pay him during the M 280
pay for five or M 280
pay out only the M 278
pay for care or M 278
pay for years to M 276
pay and have to M 276
path was made to M 274
path for much of M 274
pay them even if M 272
pay any call on M 272
pay any other or M 270
path was hard to M 270
path that leads my M 270
pay them half the M 268
pay and left the M 268
pay how much to M 266
pay his fine in M 266
pay has gone up M 266
path that uses the M 266
path set forth in M 266
pay his fine to M 264
path and some of M 264
pay for having to M 262
path had been so M 262
path but also to M 262
path and trying to M 262
path all along the M 262
pay for most or M 261
pay for meals in M 261
pay off half of M 260
pay for years by M 260
pay out when the M 259
pay any type of M 258
pay you from the M 257
pay for coming to M 256
path and left the M 256
pay for land or M 254
pay are among the M 254
pay them back if M 252
pay his call on M 252
pay him more to M 252
path far from the M 252
pay you just to M 250
pay than those of M 250
pay off part or M 250
pay any duty to M 250
path had come to M 250
pay you lots of M 248
path was made of M 248
path are used to M 248
pay them just as M 246
path has come to M 246
pay off what is M 245
pay you some of M 244
pay them more to M 244
pay its cost of M 244
pay but also in M 244
path was like the M 244
pay and when the M 243
path and stay on M 243
pay was made by M 242
pay our fare to M 242
pay may well be M 242
path that leads by M 242
pay off some or M 240
pay off debt in M 240
pay for seeing the M 240
path for some of M 240
pay his fine he M 238
pay his fare by M 238
path going into the M 238
path for many of M 238
pay for living on M 237
pay his toll of M 236
pay and years of M 235
pay them half of M 234
pay any more on M 234
path you take is M 234
path that runs to M 232
pay and what to M 230
pay for food to M 229
pay that mark of M 228
pay off even the M 228
path and heard the M 228
pay for lots of M 227
pay and most of M 227
pay them well if M 226
pay any debt to M 226
path you take in M 226
path was more or M 226
path that many of M 226
path ran down to M 226
path and down to M 226
pay them what the M 224
pay off debt at M 224
pay its cost in M 224
pay his debt he M 224
pay his army in M 224
pay him back on M 224
pay was made up M 223
pay and pick up M 223
pay them what we M 222
pay goes into the M 222
pay for care is M 222
path that runs by M 222
pay was seen as M 220
pay was made to M 220
path that went by M 220
pay had gone up M 219
pay them away to M 218
path set down by M 218
pay for meals at M 217
pay was sent to M 216
pay but also on M 216
pay and food to M 216
pay that must be M 214
pay one sixth of M 214
path for those of M 214
path and went up M 214
path and time of M 214
pay off when we M 212
pay for meals or M 212
pay and some of M 212
pay has nothing to M 210
path that runs up M 210
path that made the M 210
path and want to M 210
pay for loss in M 209
pay you more in M 208
pay for lost or M 208
pay for having my M 208
path lit only by M 208
pay was made in M 207
pay for what my M 207
pay for more or M 207
pay his debt as M 206
path and open the M 206
pay and send it M 204
path you were on M 204
path has been in M 204
path for flow of M 204
pay and many of M 203
pay his note to M 202
pay for jobs in M 201
pay each month is M 201
pay you more to M 200
pay for peace in M 200
pay any heed at M 200
path they will be M 200
path for such an M 200
path and those of M 200
pay was meant to M 199
pay for nothing of M 199
pay and have no M 199
pay you back to M 198
pay them back on M 198
path with heart is M 198
path that leads on M 198
path may need to M 198
pay and living in M 197
pay and half of M 197
pay that much on M 196
pay for life or M 196
path than along the M 196
path and keep to M 196
pay for giving up M 195
pay too great an M 194
pay them just the M 194
pay may have to M 194
pay and food of M 194
path and taking the M 194
path and name to M 194
pay our part of M 192
pay how much of M 192
pay for four or M 192
pay for during the M 192
pay but half of M 192
pay and when he M 192
pay with those of M 191
pay has been in M 191
pay them only in M 190
pay each other to M 190
pay you when it M 188
pay for help to M 188
path and making the M 188
pay her such an M 187
pay had been the M 187
pay for loss by M 186
pay any cost to M 186
path that some of M 186
path but there is M 186
path and gave me M 186
pay was part of M 185
pay you will be M 184
pay them part of M 184
pay them away in M 184
pay and type of M 184
path and help us M 184
path and have to M 184
pay was much in M 183
path and move in M 183
pay you well in M 182
pay them best to M 182
path going down the M 182
pay that rate of M 180
pay him well in M 180
pay him over the M 180
pay for making me M 180
pay each other by M 180
pay and when to M 180
path was from the M 180
pay for these as M 179
pay any loss of M 179
pay you back or M 178
pay one back in M 178
pay for what in M 178
pay for will be M 177
pay our four or M 176
pay off what the M 176
pay and from the M 176
pay this cost in M 174
pay them well in M 174
pay him only to M 174
pay and make it M 174
path was clear of M 174
path that left the M 174
path than those of M 174
pay for land by M 173
pay for land at M 173
pay two lots of M 172
pay this type of M 172
pay this over to M 172
pay cut when he M 172
pay and give to M 171
pay him down the M 170
pay for land to M 170
pay for food on M 170
path was deep in M 170
path they take is M 170
path cut from the M 170
path with some of M 168
path was eased by M 168
path they need to M 168
path and mode of M 168
path and join the M 168
pay too well to M 167
pay was said to M 166
pay its debt by M 166
path then leads to M 166
path that from the M 166
path led from it M 166
path goes down the M 166
path and among the M 166
pay that much of M 165
pay for none of M 164
pay and keep the M 164
path one step at M 164
path cut along the M 164
pay her half the M 163
pay them only if M 162
pay his fare he M 162
path with lots of M 162
path was seen as M 162
path can make the M 162
path and when it M 162
path and over to M 162
path and keep the M 162
path and amid the M 162
pay for same at M 161
pay and take up M 161
pay them only the M 160
pay his fine if M 160
pay for half an M 160
path you used to M 160
path and leads us M 160
pay this duty to M 159
pay and went on M 159
pay not only an M 158
pay all sums the M 158
path was over the M 158
path they take to M 158
path had been in M 158
path and said to M 158
path and only the M 158
pay was used to M 157
pay each month as M 157
pay with length of M 156
pay was held to M 156
pay off debt to M 156
pay his debt if M 156
pay for your tea M 156
path that made it M 156
path and look at M 156
pay for work is M 155
pay you back is M 154
pay off will be M 154
pay him lots of M 154
pay for work he M 154
pay any more or M 154
path men turn to M 154
path for half an M 154
path each time he M 154
pay his debt so M 153
pay for such of M 153
pay them till the M 152
pay off more in M 152
pay for wars in M 152
pay for land of M 152
path and angle of M 152
pay them more in M 150
pay our debt in M 150
pay him even the M 150
pay and sent to M 150
path goes into the M 150
path and length of M 150
pay this rate of M 148
pay them more or M 148
pay off those of M 148
pay his fare at M 148
pay for room on M 148
pay are used to M 148
path that runs the M 148
pay that much if M 147
pay for those on M 147
pay his note in M 146
pay and keep of M 146
path was part of M 146
path was able to M 146
path now leads to M 146
path and seek to M 146
pay for land on M 145
pay and lots of M 145
pay them back is M 144
pay him more if M 144
pay him just to M 144
pay cut from the M 144
pay any fine the M 144
path was leading to M 144
path not only in M 144
path and held up M 144
pay for care to M 143
pay for care by M 143
pay two years of M 142
pay not just the M 142
pay his toll to M 142
pay for even an M 142
path that runs in M 142
path for what is M 142
path each time it M 142
path but also in M 142
pay for hire of M 141
pay out will be M 140
pay for these at M 140
pay for lots in M 140
pay for beating us M 140
path out over the M 140
path and told me M 140
path and making it M 140
path and made my M 140
pay its debt as M 139
pay for acting as M 139
pay them over the M 138
pay her from the M 138
pay and make the M 138
pay for same by M 137
pay for only as M 137
pay for land is M 137
pay out half of M 136
pay off debt by M 136
pay him only in M 136
pay for taking it M 136
pay for over the M 136
path and upon the M 136
path and give the M 136
pay for three of M 135
pay for those he M 135
pay for losing the M 135
pay way over the M 134
pay was kept in M 134
pay them when we M 134
pay them only by M 134
path you want it M 134
path has nothing to M 134
path goes over the M 134
path and pass the M 134
pay them away at M 132
pay how much in M 132
pay for peace is M 132
path was seen to M 132
path was made in M 132
pay him just as M 131
pay but also by M 131
pay with tears of M 130
pay out much of M 130
pay his fine at M 130
pay has come to M 129
pay this back in M 128
pay his note on M 128
pay her back at M 128
pay for these on M 128
pay for must be M 128
pay and what we M 128
pay and none of M 128
path and went in M 128
path and take it M 128
pay any duty at M 127
pay and upon the M 127
pay you from my M 126
pay off even in M 126
pay for taking up M 126
pay for meals on M 126
pay each time he M 126
pay any sums to M 126
pay any duty of M 126
pay any cost of M 126
path and give it M 126
pay for those at M 125
pay for nothing in M 125
pay them from my M 124
pay our fare on M 124
pay and work in M 124
pay and even the M 124
path that even the M 124
path she came to M 124
path and even to M 124
path that went in M 123
pay you only the M 122
pay you even if M 122
pay this debt is M 122
pay them what it M 122
pay them nothing at M 122
pay them back or M 122
pay that debt is M 122
pay off only the M 122
pay for care on M 122
pay any other of M 122
pay and leave of M 122
path you plan to M 122
path too well to M 122
path that came up M 122
path lay along by M 122
path for part of M 122
path and show the M 122
pay for three to M 121
path and just as M 121
pay them when it M 120
pay out only if M 120
pay day when the M 120
pay and keep on M 120
path was said to M 120
path was leading me M 120
path for years to M 120
path and come up M 120
pay and shut up M 119
pay was from the M 118
pay off what it M 118
pay her fare on M 118
pay are part of M 118
path was free of M 118
path that brings the M 118
path and learn to M 118
pay for these or M 117
path and came up M 117
pay them next to M 116
pay his cost of M 116
pay him till the M 116
pay for means of M 116
pay and some do M 116
pay act made it M 116
path each time the M 116
path and turn it M 116
path and send it M 116
path and most of M 116
path and meet the M 116
pay both sets of M 115
pay too much at M 114
pay too high an M 114
pay this from the M 114
pay his fare if M 114
pay for time so M 114
pay for food is M 114
pay any fine at M 114
pay any duty in M 114
pay and kids to M 114
path that ends up M 114
path are able to M 114
path and pick up M 114
pay you only if M 113
pay was nothing to M 113
pay for same as M 113
pay for more if M 113
pay for making up M 113
path was worn in M 113
pay was slow in M 112
pay off such of M 112
pay its toll to M 112
pay him such of M 112
pay has been an M 112
pay for acts of M 112
pay are made to M 112
pay and work of M 112
path not only by M 112
path has been an M 112
path for making the M 112
path can help us M 112
path and take to M 112
path and stop at M 112
path and even the M 112
pay who come to M 111
pay was used as M 111
pay that much or M 111
pay not only on M 111
pay his fare as M 111
pay any fine to M 111
pay that cost in M 110
pay one half in M 110
pay him back or M 110
pay for work by M 110
pay for having so M 110
path they used to M 110
path and form of M 110
pay you back so M 109
pay one half to M 109
pay and those of M 109
pay and live in M 109
pay that debt or M 108
pay our vows in M 108
pay one rate of M 108
pay his vows in M 108
pay for ever to M 108
pay due care to M 108
path they tread is M 108
path than many of M 108
path and part of M 108
path and need to M 108
path and make my M 108
pay you have to M 107
pay off just as M 107
pay for half or M 107
path was just as M 107
pay you half in M 106
pay this note at M 106
pay off debt is M 106
pay his debt the M 106
pay him will be M 106
pay for food if M 106
path that only the M 106
path that heads up M 106
path lying along the M 106
path but also on M 106
path and turn to M 106
path and leave it M 106
pay off best in M 105
pay for time or M 105
pay them half as M 104
pay off debt of M 104
pay had been so M 104
pay for time to M 104
pay for these the M 104
pay for moving it M 104
path with only the M 104
path was sure to M 104
path she used to M 104
path goes back to M 104
path and tread the M 104
path and drag it M 104
pay set forth in M 103
pay too much on M 102
pay this much in M 102
pay them more if M 102
pay out less to M 102
pay her vows at M 102
pay for seeing it M 102
pay for land as M 102
pay for birth as M 102
pay any heed or M 102
path out onto the M 102
path lay down the M 102
path can best be M 102
path and type of M 102
path and laid the M 102
pay was held up M 101
pay and when it M 101
path was made so M 101
path and kept on M 101
pay you till the M 100
pay with part of M 100
pay them must be M 100
pay them lots of M 100
pay them even the M 100
pay that duty in M 100
pay out only on M 100
pay her like an M 100
pay for what an M 100
pay for past or M 100
pay for living the M 100
pay for here in M 100
path lay ahead of M 100
path and fell to M 100
pay and over the M 99
pay this form of M 98
pay this debt at M 98
pay this back to M 98
pay off debt as M 98
pay him when it M 98
pay him such an M 98
pay him nothing at M 98
pay him more in M 98
path for lack of M 98
path and made to M 98
path and coming to M 98
pay his fine by M 97
pay for their so M 97
pay for only so M 97
pay for giving the M 97
pay are tied to M 97
pay and rate of M 97
pay our vows at M 96
pay its half of M 96
pay for health or M 96
pay each month if M 96
pay and half the M 96
path that came to M 96
path goes past the M 96
path and uses the M 96
pay with loss of M 95
pay and came to M 95
pay you soon as M 94
pay this rate on M 94
pay them well as M 94
pay them over on M 94
pay them just to M 94
pay out what is M 94
pay out line to M 94
pay may only be M 94
pay gap will be M 94
pay for laying the M 94
path you will go M 94
path with those of M 94
path was used as M 94
path was taking us M 94
path that leads it M 94
path lead from the M 94
path and find it M 94
path and ends up M 94
path and draw the M 94
pay too much by M 93
pay and told to M 93
pay you five or M 92
pay with years of M 92
pay was owed to M 92
pay was good in M 92
pay this into the M 92
pay that debt at M 92
pay out tens of M 92
pay not only of M 92
pay his duty in M 92
pay him from my M 92
pay for buying the M 92
pay all heed to M 92
path that only he M 92
path going along the M 92
path and make an M 92
path and help me M 92
path and give up M 92
path and gave the M 92
path and fell on M 92
pay that back in M 91
path you have so M 91
pay you half as M 90
pay you during the M 90
pay this rate in M 90
pay than some of M 90
pay off such an M 90
pay off debt on M 90
pay now made to M 90
pay his theory the M 90
pay his fine is M 90
pay him three or M 90
pay each month the M 90
path you walk is M 90
path with more or M 90
path that leads at M 90
path lay among the M 90
path are sure to M 90
path and take up M 90
path and save the M 90
path all over the M 90
pay too much if M 88
pay this much to M 88
pay them upon the M 88
pay one third the M 88
pay her well to M 88
pay each even the M 88
path you tread is M 88
path was worn by M 88
path they take in M 88
path that were so M 88
path are part of M 88
path and means of M 88
path and into my M 88
pay with some of M 87
pay out when it M 87
pay and less to M 87
pay all sums so M 87
pay them over as M 86
pay one part of M 86
pay his fare the M 86
path was trod by M 86
path that runs at M 86
path that brings it M 86
path few take the M 86
path can reach the M 86
path and sent it M 86
path and have no M 86
pay than many of M 85
path has been as M 85
pay was coming to M 84
pay two bits to M 84
pay this fine he M 84
pay her fare in M 84
pay for love go M 84
path was such as M 84
path they were in M 84
path they know the M 84
path she knew so M 84
path ran past the M 84
path ran over the M 84
path ran along by M 84
path led into an M 84
path can shun in M 84
path and size of M 84
path and save it M 84
path and give us M 84
pay that over to M 83
pay out what it M 83
pay for time in M 83
pay them into my M 82
pay one hell of M 82
pay off once the M 82
pay its debt or M 82
pay for these if M 82
pay for half we M 82
pay and want of M 82
path was leading us M 82
path now open to M 82
path not open to M 82
path and when we M 82
path and walk it M 82
path and none of M 82
path and line of M 82
path and leading the M 82
path and keep me M 82
path and hide in M 82
path and having to M 82
pay this cost of M 80
pay them much in M 80
pay him till he M 80
pay her what is M 80
pay for mine to M 80
pay each week to M 80
path you seem to M 80
path was along up M 80
path than most of M 80
path far into the M 80
pay was left to M 70
pay they have to M 70
pay for work as M 66
pay and move on M 66
pay and make up M 65
pay him back so M 63
pay for food as M 61
pay and give the M 60
pay for those we M 59
pay for just as M 59
pay and said he M 59
pay and even to M 59
pay and save the M 58
pay they will be M 57
pay and only the M 55
path you came in M 55
pay was left in M 54
pay that back to M 53
pay for life as M 53
pay for care as M 53
pay are some of M 53
pay had nothing to M 52
pay each week or M 52
path was made up M 52
pay for coming in M 50
pay for clean up M 50
pay but also of M 50
pay may take the M 49
pay for life is M 49
pay but there is M 49
pay but only to M 49
pay and work to M 49
pay and take it M 49
pay and give it M 49
pay that debt as M 48
pay are able to M 48
pay and having to M 48
pay and gave it M 48
pay for five to M 47
pay day will be M 47
pay and what do M 47
pay that there is M 46
pay for having no M 46
path and come in M 46
pay for these is M 45
pay for taking on M 45
pay for days on M 45
pay each week in M 45
pay and leave to M 45
pay than what the M 44
pay for taking my M 44
pay for making an M 44
pay are just as M 44
path and move on M 44
pay with nothing to M 43
pay not only as M 43
pay and size of M 43
pay and ready to M 43
pay and more to M 43
pay and made it M 43
pay has been to M 42
pay and live on M 42
pay and have it M 42
path and name as M 42
pay was next to M 40
pay one third in M 40
pay for arms in M 40
pay can best be M 40
par with those of D 26659
pan and bake in D 9760
pan and cook the D 7951
pan and into the D 6384
pan and bake at D 6181
par with those in D 5159
pan and stir in D 3437
pat each other on D 3293
pan and pour in D 3291
pay any fees or D 2620
pan and cool on D 2560
par with some of D 2219
pan and pour the D 2196
pan for gold in D 2162
pay his dues to D 2112
pay his rent in D 1880
pay per unit of D 1878
pay his rent to D 1822
pay tax only on D 1627
pay his bill at D 1552
pan and turn the D 1283
pay his rent or D 1260
pan and stir to D 1254
pan and line the D 1213
pay any rent at D 1184
pan and cook in D 1175
pat was able to D 1122
pan and cook on D 1121
pay its dues to D 1084
pay his rent on D 1082
pan and leave to D 1079
pas non plus la D 996
pay with cash or D 977
par with most of D 892
pan and when it D 848
pay any fees to D 785
pay any rent to D 783
pan with some of D 745
pan with half the D 740
pay out cash to D 738
pay our dues to D 722
pay one cent of D 707
par with what is D 694
par with gold by D 694
pan and bake it D 694
par with many of D 693
pan and cook it D 689
pan and line it D 684
pay his bill in D 654
pay his rent at D 650
pay his dues in D 650
pan and fill the D 648
pan and keep it D 624
pay any rent or D 618
pay his wife the D 564
pad and held it D 564
pan and bake the D 552
path and took the D 538
pad may also be D 524
path that took us D 514
path they took to D 512
par with what the D 493
pay and rank of D 478
par with those at D 476
pan and tilt the D 476
path you took to D 460
pad can also be D 458
pat was trying to D 438
pan and fill it D 438
path and glen of D 436
pat had gone to D 436
pan and leave the D 432
pay one cent to D 416
pay his rent by D 413
path and pace of D 404
pay his wife an D 402
pan for gold at D 400
pad and into the D 400
pan with half of D 399
pad and went to D 398
pay his bill on D 394
pan was full of D 394
pay out gold in D 392
pay per hour of D 388
par with what we D 383
pan and leave it D 382
path that took me D 376
par with gold in D 374
pan can also be D 370
pan and bake on D 365
pan and stir the D 362
pay tax upon the D 360
pay his fees at D 358
pas non plus en D 357
pay his bill of D 356
pat had told me D 356
pat had come to D 356
pan and onto the D 356
pan and boil it D 356
pan and cook at D 354
pay out gold to D 352
pan and stir it D 348
pan was able to D 344
pay her rent on D 342
pay for rent or D 337
pad and gave it D 336
pat had been in D 334
pat was born in D 326
pay per hour is D 324
path that hugs the D 314
par with gold at D 314
pan and pour it D 314
pan and sweat the D 307
pan and held it D 306
pan and toss to D 305
pay out gold or D 304
pay all fees of D 302
pan and melt the D 302
pan and melt it D 302
pan and dust it D 298
pay his rent he D 296
pad was used to D 294
path that took it D 286
pay his dues or D 284
par with what he D 284
pan for gold or D 284
pan was used as D 281
pay any dues to D 280
pan and toss the D 280
paw and held it D 278
pang she felt at D 276
pan and when the D 276
pan and steam the D 276
pan was used to D 274
pay for seats in D 273
pay our bill at D 270
par all over the D 270
pan and tilt to D 270
pay his bill or D 268
pay her dues to D 268
pay her bill at D 268
pan and trim the D 268
pan and keep the D 268
pan and pour on D 267
pan and zoom in D 266
pan for gold on D 265
pay for bringing it D 264
pan and went to D 264
pay per hour or D 262
pay for bringing the D 262
pan that held the D 260
pan with foil or D 256
pan and zoom the D 256
pay for rent of D 255
pay per month to D 252
pay his rent as D 252
paw and laid it D 252
pay his bill to D 249
pay any dues or D 244
par with gold or D 244
pan may also be D 242
pay for fixing the D 240
pap was able to D 240
pay any fees in D 234
paw had what the D 232
pan and turn it D 232
pan and drop in D 232
pay her rent or D 230
path and timing of D 230
pan and warm it D 230
pal was born in D 230
pat and speak to D 228
pay his rent of D 224
pay his dues on D 224
pay her rent in D 224
pan and toss in D 223
par with much of D 220
pay per month in D 218
pan and threw it D 218
pay out cash in D 216
pay his fees in D 216
pay his dues at D 216
pay all cash to D 216
pat sat down on D 214
pan with just the D 214
pad and laid it D 214
par with trying to D 213
path she took to D 212
pan was said to D 212
pay for seats at D 211
pan and bake as D 211
pay his dues by D 210
pad and slid it D 210
pan and cool it D 208
pay out gold on D 206
pay our rent on D 202
pay for fuel at D 202
path and took to D 200
pan and from the D 200
pay any fees at D 199
pay our rent in D 198
pay its dues in D 198
pat was ready to D 198
pat does want to D 196
pan was made of D 196
pay her rent to D 193
pat his life in D 192
pay one cent in D 191
pan and roll the D 190
pan and boil to D 190
pad and threw it D 188
par with those he D 187
pan and tilt of D 187
pan for half an D 186
pay for leaving the D 184
pay his rent the D 182
pay his bill he D 182
pan and boil the D 182
path and took up D 180
pay per hour in D 179
pay for paving the D 179
pay for fuel to D 179
pay his bill by D 178
paw and gave it D 178
pat has told me D 178
par with those to D 178
pad and tore it D 178
pay per unit is D 176
pay all rent in D 176
path and leaving the D 176
par with those on D 175
pay all dues to D 172
par with what it D 172
pay tax when the D 171
pay his tithe to D 170
path and threw it D 170
pat had been the D 170
pad for some of D 170
pay per month of D 168
pay this bill in D 167
pan and cook to D 167
pay and took the D 166
pan and gave it D 166
pad and hold it D 166
pad for many of D 164
pay all cash or D 162
pan and slid it D 162
pay per cent of D 161
pay our rent by D 160
pay was paid to D 158
pat her hand in D 158
pay you cash to D 156
pay any rent in D 156
pan and zoom to D 156
pan and turn on D 156
pat his back or D 155
pay his rent if D 154
pay his fees is D 154
pay big fees to D 154
pat them into the D 153
pat and left the D 152
pan with foil to D 152
pan and note the D 152
pay for fixing it D 151
pay was paid in D 150
pay his fees to D 150
pay him rent or D 150
pay for rent in D 150
pat had left the D 150
pad and held in D 150
pan with lots of D 148
pan with only the D 146
pan and turn to D 146
pad and told me D 146
pay this bill or D 144
pay one cent on D 142
pat was glad to D 142
pat and some of D 142
pan and over the D 142
pad and took it D 142
pal with whom he D 140
pay her rent of D 138
pay for gold in D 138
pan you used to D 138
pan and take the D 138
path that took the D 136
pap has been in D 136
pan hung from the D 136
pad she kept in D 136
pay his dues as D 135
pay for heating the D 135
pay this bill by D 134
pan and left it D 134
pan and coat the D 134
pat had been so D 132
pat her hand as D 131
pan with part of D 130
pay this rent to D 128
path that clung to D 128
path and took it D 128
path and facing the D 128
pat had seen the D 128
par with those we D 128
pan was born in D 128
pan and hold it D 128
pad and onto the D 128
pat and mike in D 126
pan and wrap in D 126
pan and move the D 126
pan and flip the D 126
par with even the D 125
pay per view or D 124
pay out cash on D 124
pay tax from the D 123
pay for milk on D 123
pan and turn up D 123
pay our dues in D 122
pay her fees at D 122
par for cash to D 122
pan and wipe it D 122
pan and make it D 122
pad set into the D 122
pay any rent on D 120
pat was sent to D 120
pat and went to D 120
pan and took it D 120
par and sold at D 119
paw and part of D 118
pan and drop the D 118
pay for coal to D 117
pay for bringing in D 117
pan out over the D 117
pay her rent at D 116
pay for coal in D 116
pay any dues in D 116
pay any bill or D 116
pan and tilt it D 115
pay our rent to D 114
pay one chip to D 114
pat put down the D 114
pat had said to D 114
pat had made the D 114
pat and envy it D 114
pan and cool to D 114
pay per month is D 113
par see also ca D 113
pay out cash or D 112
pay our rent or D 112
pay his suit to D 112
pat had been on D 112
pan and make the D 112
pat was used to D 110
pat was eager to D 110
pad was made of D 110
pad was full of D 110
pay his fees or D 108
pay any firm to D 108
pat had been to D 108
pay you guys to D 106
pay her bill in D 106
pat him when he D 106
pat and talk to D 106
pang that made me D 106
pat his hand on D 105
pay its rent or D 104
pay his boat to D 104
pay his bill the D 104
pay any cash or D 104
pay all fees in D 104
pan and lift the D 104
pan and keep in D 104
pad are used to D 104
pay tax when he D 102
pay his rent is D 102
pay him rent in D 102
path per unit of D 102
pat was back in D 102
par and were to D 102
pay bus fare to D 101
pay its bill on D 100
pay for riding in D 100
pat and slap of D 100
pan and leave in D 100
pan and heating it D 100
pan and coat it D 100
pay its rent in D 98
pay his bill if D 98
paw each other in D 98
pat him upon the D 98
pan and take it D 98
pan and cool the D 98
pay two lacs of D 96
pay this bill to D 96
pay for bringing up D 96
path they took in D 96
pat his back to D 96
pan for three or D 96
pan and puts it D 96
pan and left to D 96
pad and took the D 96
pad and left the D 96
pay his wife as D 95
pay its rent to D 94
pay and rank in D 94
paw was said to D 94
pan has been the D 94
pad all over the D 94
pay for leasing the D 93
pay with visa or D 92
pay ten lacs of D 92
pay for your ad D 92
pay all fees by D 92
pas are told in D 92
pan that will be D 92
pan and roll it D 92
pad may have to D 92
pad for much of D 92
pay our meed of D 90
pay our bill in D 90
pay his wife if D 90
pay for beef on D 90
paw and hurl it D 90
path and tend to D 90
pan and there is D 90
pan and melt in D 90
pad out into the D 90
pad lying over the D 90
pay any rent as D 89
par with what an D 89
pay this bill on D 88
pay that rent to D 88
pay that bill in D 88
pay his dues of D 88
pay her rent by D 88
pay for fuel or D 88
pay for fuel in D 88
pat had been at D 88
pan was laid to D 88
pan and wrap it D 88
pan and sets it D 88
pan and dust the D 88
pal who came to D 88
pad she kept on D 88
pad she held in D 88
pay tax when it D 87
pat her hair in D 87
pay this bill at D 86
pay for coal by D 86
paw for ants in D 86
path and drew up D 86
pat had gone on D 86
pat got into the D 86
pan was used in D 86
pan has come to D 86
pan and wash it D 86
pan and those of D 86
pad was left in D 86
pad that will be D 86
pad and take the D 86
pay any poll or D 84
pan and fire at D 84
pad and have the D 84
pad and draw the D 84
pay tax only at D 83
pay for fixing up D 82
pan and toss it D 82
pad that must be D 82
pad that acts as D 82
pay his meed of D 80
pat and rose to D 80
pan who wont to D 80
pan was full to D 80
pan and told me D 80
pad that sits on D 80
pay per hour to D 69
pay per week to D 59
pas was able to D 55
par with boys in D 52
pan and cook as D 52
pay was only rs D 50
par with gold as D 50
pad and went on D 50
pay per month on D 48
par with life in D 47
par with coin by D 47
par with gold the D 45
par with gold is D 45
pan and zoom on D 45
pay for rent on D 44
pay per month as D 43
pay his bill as D 43
pan out into the D 43
par with those the D 42
pay per hour as D 41
par with acts of D 41
pan out from the D 41
pan and threw the D 41
pay out gold at D 40
par with such as D 40
pan all over the D 40
