with him when i M 24870
with this view i M 23826
with not even a M 21932
with too great a M 21225
with you when i M 20382
with him into a M 18368
with him like a M 15666
with not only a M 14016
with him only a M 13226
with her when i M 12170
with them when i M 11956
with each other a M 11783
with too high a M 11566
with him over a M 10032
with them came a M 9778
with them like a M 9700
with that from a M 9419
with them into a M 9232
with one hand i M 8023
with you what i M 7756
with him from a M 7736
with this went a M 7434
with her like a M 7366
with this came a M 7336
with him were a M 7302
with joy when i M 7208
with them only a M 6748
with him came a M 6466
with them were a M 6328
with them over a M 5974
with his help i M 5952
with them from a M 5788
with this view a M 5648
with each step i M 5614
with her into a M 5534
with him upon a M 4994
with one hand a M 4815
with each having a M 4748
with him during a M 4740
with too heavy a M 4623
with him such a M 4452
with this book i M 4450
with them went a M 4386
with you like a M 4342
with one from a M 4302
with them such a M 4096
with him went a M 4068
with one whom i M 4022
with one having a M 4018
with any luck i M 3986
with that view i M 3814
with not having a M 3548
with that came a M 3412
with him once a M 3395
with his hand a M 3253
with her only a M 3072
with him when a M 3026
with her over a M 2994
with them upon a M 2938
with him till i M 2772
with his eyes a M 2722
with but half a M 2652
with her from a M 2648
with him also a M 2638
with air from a M 2578
with him will i M 2558
with his face a M 2545
with how great a M 2476
with him what i M 2470
with them during a M 2460
with him half a M 2452
with you till i M 2438
with him whom i M 2422
with how much i M 2337
with each other i M 2301
with them what i M 2298
with you over a M 2234
with and have a M 2210
with not just a M 2140
with you into a M 2136
with fear when i M 2122
with them once a M 2100
with her during a M 2012
with how well a M 1922
with you only a M 1916
with two meals a M 1868
with her help i M 1824
with her till i M 1812
with her came a M 1804
with each breath i M 1798
with him just a M 1769
with wings like a M 1746
with them till i M 1746
with him many a M 1726
with them when a M 1720
with that when i M 1712
with her once a M 1712
win and hold a M 1710
with them also a M 1646
with too wide a M 1619
with this hope i M 1614
with her hair a M 1556
with for many a M 1534
with this work i M 1504
wit you well i M 1502
with his arms a M 1500
with and made a M 1480
with his mind a M 1469
with you upon a M 1452
with for over a M 1450
with this when i M 1442
with her when a M 1442
with them have a M 1426
with them unto a M 1408
with you from a M 1400
with her what i M 1386
with them made a M 1362
with her upon a M 1344
with him made a M 1284
with them many a M 1226
with all these i M 1226
with how good a M 1213
with her whom i M 1212
with too deep a M 1210
with her were a M 1210
with her eyes a M 1204
with and make a M 1172
with him down a M 1118
with how much a M 1100
with how deep a M 1100
with men whom i M 1094
with you just a M 1086
with her hand a M 1082
with joy like a M 1072
with his feet a M 1065
with god into a M 1064
with each step a M 1062
with his having a M 1044
with them half a M 1030
with and what i M 1026
win out over a M 1026
with her just a M 1025
with god when i M 996
with men from a M 990
with how well i M 984
with this girl i M 980
with too fine a M 974
with you once a M 973
with her face a M 964
with one blow i M 962
with its help i M 952
with being only a M 940
with its help a M 932
with ease into a M 932
with her such a M 928
with joy when a M 920
win and keep a M 906
with heat from a M 904
with all those i M 904
with him have a M 898
with men like a M 894
with him till a M 884
with you during a M 874
with too good a M 862
with this hand i M 856
with doing what i M 854
with you such a M 850
with fear like a M 848
with his life a M 847
with one word i M 842
with air over a M 838
with his army a M 824
with ease from a M 822
with him like i M 820
with this work a M 818
with and form a M 818
with aid from a M 810
with using such a M 808
with her having a M 806
with how clear a M 800
with its half a M 798
with air like a M 796
with too full a M 791
with her half a M 790
with age from a M 784
with too hard a M 774
with being just a M 774
with all whom i M 768
with them form a M 764
with that word i M 752
with that view a M 750
with this case i M 748
with each word i M 738
with how such a M 737
wings and made a M 734
with how vast a M 732
with fear lest i M 726
with his name a M 716
with him along a M 716
with its having a M 696
with his body a M 696
with had been a M 696
with him what a M 694
with men having a M 690
with for such a M 688
with too keen a M 680
with them like i M 680
with them have i M 680
with long life i M 678
with things like a M 670
with our having a M 670
with you like i M 650
with her like i M 650
with his hair a M 647
with being such a M 647
with him even a M 646
with and when i M 640
with ease over a M 632
with her went a M 626
with too free a M 622
with how heavy a M 622
with his making a M 616
with this book a M 608
with his help a M 602
with this from a M 600
with you whom i M 598
with them just a M 592
with both type i M 592
with our eyes a M 574
with awe when i M 570
with you will i M 564
with too slow a M 564
with this note i M 564
with you here i M 554
with him there a M 554
with age into a M 554
with too nice a M 548
with them make a M 548
with joy over a M 548
with this plan a M 540
with that much i M 536
with any luck a M 535
with her arms a M 534
with that went a M 532
with each taking a M 530
with you half a M 524
with this term i M 524
with any other i M 522
with this help i M 520
with him died a M 518
wit that ever i M 514
with her many a M 504
with this plan i M 502
with any such a M 500
with and only a M 498
with air having a M 496
with you have a M 490
with them will i M 484
with her down a M 484
with his left a M 482
with one when i M 480
with him once i M 478
with and whom i M 476
with you having a M 472
with one side a M 472
with and take a M 472
with him having a M 470
with them even a M 460
with has been a M 460
with being made a M 460
with and from a M 458
with too bold a M 456
with and having a M 454
with each book i M 452
with this word i M 448
wings and making a M 440
with each breath a M 438
with that hope i M 434
with that said i M 432
with his work a M 431
with too rich a M 428
with this lady i M 428
with her also a M 428
with too loud a M 425
with too rash a M 421
win with such a M 417
with this were a M 416
with his tail a M 415
with you when a M 414
with them till a M 410
with this body i M 406
with for half a M 406
with not such a M 404
with them down a M 402
with one hour a M 402
with not making a M 400
wings and make a M 400
with fear when a M 398
with him save a M 394
wings and tail a M 394
with that girl i M 388
with this wish i M 386
with god like a M 386
with this kiss i M 380
with one blow a M 380
with his leave i M 380
with death from a M 380
with going into a M 374
with you there i M 372
with her till a M 372
with his book a M 370
with using only a M 368
with her feet a M 368
with both having a M 368
with that name a M 366
with this time a M 364
with her mind a M 364
with was from a M 362
with but also a M 362
wit and such a M 362
with too sure a M 358
with meat from a M 356
with earth from a M 356
with this will i M 354
with his taking a M 354
with may have a M 352
with men when i M 351
with you once i M 350
with this theory i M 350
with one spring i M 350
with him meant a M 350
with this faith i M 344
with red like a M 342
with this high a M 336
wings and gave a M 336
with her made a M 332
with each side a M 332
with them having a M 330
with and love a M 330
with add have a M 328
with his name i M 326
with and into a M 326
with was only a M 324
with too ready a M 324
with his coming a M 322
with meat once a M 318
with too clear a M 314
with his half a M 314
with that name i M 312
with being like a M 312
with all have a M 312
with this note a M 310
with that book i M 308
with and give a M 306
with not half a M 304
with his work i M 302
with and find a M 300
with air into a M 300
with his heart a M 298
with god from a M 298
with all these a M 298
wings was like a M 298
wings and take a M 298
with him form a M 296
with each time a M 296
with awe upon a M 294
with and even a M 294
wings are like a M 294
with that high a M 292
with them means a M 288
with that when a M 288
with age like a M 288
with too warm a M 284
with this clue i M 282
with this test a M 280
with one like a M 280
with death when a M 280
with and into t M 280
win with only a M 279
with that love i M 278
with how many a M 278
with each word a M 278
with this such a M 276
with near half a M 276
with god over a M 276
with for only a M 276
win not only a M 276
with his back a M 275
with too fast a M 274
with them only i M 274
with her body a M 274
with each hand a M 274
with can have a M 274
with and also a M 274
with mean rate a M 273
with him sent a M 272
with each making a M 272
with you many a M 271
with how glad a M 270
with and gave a M 270
with too soft a M 268
with them gave a M 268
with one half a M 268
with them once i M 266
with her taking a M 264
with its base a M 262
with him gave a M 260
with was just a M 258
with this what i M 258
with them come a M 258
with joy will i M 258
with this type a M 256
with his eyes i M 256
with both type a M 256
with that over a M 254
with two days a M 252
with too dark a M 252
with this name i M 252
with them whom i M 252
with her along a M 250
with heat like a M 250
with out saying a M 248
with his breath a M 248
with any girl i M 248
with its tail a M 247
with this last i M 242
with him making a M 242
with her once i M 242
with both arms a M 240
with them what a M 238
with and feel a M 238
with you what a M 236
with you making a M 236
with them held a M 234
with how fine a M 234
with can make a M 234
with you taking a M 232
with that look i M 232
with how high a M 232
with his ship a M 232
wings for such a M 232
with you here a M 230
with who have a M 230
with her find a M 230
with each other s M 229
with this fact i M 228
with them along a M 228
with him left a M 228
with each owning a M 228
with being what i M 228
with how wise a M 226
with god have a M 224
wings and have a M 224
with one bearing a M 222
with him gone i M 222
with her hand i M 222
with ash from a M 222
with any save a M 220
with and those i M 220
win and lose a M 219
with him whom a M 218
with being from a M 218
with and making a M 218
with this life i M 216
with him taking a M 216
with things when i M 214
with one look i M 214
with men into a M 214
with going from a M 214
with each move i M 214
with but only a M 214
with this many a M 212
with being born a M 212
with lead from a M 210
with how keen a M 210
with her making a M 210
with death when i M 210
with and help a M 210
with you even a M 208
with him fell a M 206
with too vast a M 204
with not taking a M 204
with how just a M 204
with his food a M 204
with him held a M 204
with her died a M 204
wings that form a M 204
with this also a M 202
with how fast a M 202
with age over a M 202
with her there a M 200
with all such a M 199
with him make a M 198
with him have i M 198
with this name a M 196
with his good i M 196
with him also i M 196
with how hard i M 194
with him unto a M 194
with death only a M 194
with both whom i M 194
with this like a M 192
with his hand i M 192
wings with only a M 192
with singing like a M 190
with this hint i M 188
with that made a M 188
with death during a M 188
wings with such a M 188
with this fact a M 186
with them find a M 186
with man from a M 186
with and keep a M 186
with you down a M 184
with that such a M 184
with his host a M 184
with her have a M 184
with this form a M 182
with now only a M 182
with you have i M 180
with things from a M 180
with that have a M 180
with one upon a M 180
with his angle a M 180
with ease when a M 180
with them give a M 178
with but when i M 178
with too eager a M 176
with this when a M 176
with that during a M 176
with men have a M 176
win him such a M 176
with god upon a M 175
with you were a M 174
with was what i M 174
with that along a M 174
with men type i M 174
with him wore a M 174
with going till i M 174
with and among a M 174
with was like a M 172
with this rule a M 172
with this case a M 172
with them meant a M 172
with all having a M 172
win him from a M 172
with joy upon a M 170
with him there i M 170
with god during a M 170
win and make a M 170
with not over a M 168
with fear lest a M 168
wit may have a M 168
with them there a M 166
with him come a M 166
with her more i M 166
with her left a M 166
with and such a M 166
with was also a M 164
with this till i M 164
with that wish i M 164
with that fact a M 164
with his mate a M 164
with god means a M 164
with each time i M 164
with each part a M 164
wit than ever i M 164
wings that have a M 164
win not just a M 164
with this theory a M 162
with his reading a M 162
with each link a M 162
win and have a M 162
with them play a M 160
with its edge a M 160
with him among a M 160
with eating many a M 160
win her from a M 160
with and some i M 159
with not giving a M 158
with new eyes i M 158
with his feet i M 158
with him means a M 158
with her even a M 158
with due care a M 158
with this gift i M 156
with him heard a M 156
with death into a M 156
wit was like a M 156
with that having a M 154
with her meant a M 154
with far from a M 154
with each item a M 154
with both eyes a M 154
wings that made a M 154
with you only i M 152
with this make a M 152
with this love i M 152
with one whom a M 152
with him felt a M 152
with ease upon a M 152
with this made a M 150
with that half a M 150
with that done i M 150
with her baby a M 150
with dim eyes i M 150
with too many a M 148
with too cold a M 148
with her save a M 148
with fear from a M 148
wings may have a M 148
with too early a M 146
with this heart i M 146
with that mine a M 146
with joy such a M 146
with its name a M 146
with his sons a M 146
with his like a M 146
with head like a M 146
with god were a M 146
with each paying a M 146
wit but also a M 146
with her life a M 144
with and obey a M 144
with this word a M 142
with this runs a M 142
with one making a M 142
with how pure a M 142
with any work i M 142
with joy from a M 140
with going half a M 140
with any other a M 139
with its hero a M 138
with him onto a M 138
with him here a M 138
with each cell a M 138
with awe have i M 138
with you made a M 136
with our help a M 136
with how good i M 136
with his giving a M 136
with ease like a M 136
with are only a M 136
with you gone i M 134
with with such a M 134
with each line a M 134
with that only a M 132
with that into a M 132
with that faith i M 132
with out making a M 132
with joy what i M 132
with its ends a M 132
with her there i M 132
with dry eyes i M 132
with and what a M 132
with was having a M 130
with this over a M 130
with this data a M 130
with that upon a M 130
with one mind a M 130
with men were a M 130
with his pick a M 130
with god when a M 130
with and used a M 130
win had been a M 130
with that word a M 129
with using just a M 128
with too poor a M 128
with too kind a M 128
with this part i M 128
with this line i M 128
with that look a M 128
with one only a M 128
with his wish i M 128
with him past a M 128
with this only a M 126
with this girl a M 126
with her eyes i M 126
with any whom i M 126
with and were a M 126
with too open a M 125
with that body a M 124
with one angle a M 124
wit can give a M 124
with you lest i M 122
with out having a M 122
with out even a M 122
with our taking a M 122
with one word a M 122
with how sure a M 122
with her heart a M 122
with each adding a M 122
with but what i M 122
with all else i M 122
with you were i M 120
with was less a M 120
with lead into a M 120
with his love a M 120
with his bank a M 120
with each mile i M 120
win and play a M 120
with was such a M 118
with this into a M 118
with them among a M 118
with man have a M 118
with him bearing a M 118
with too pure a M 116
with this text i M 116
with them show a M 116
with them left a M 116
with his life i M 116
with fear over a M 116
with earth like a M 116
with each face a M 116
with and learn a M 116
with was when i M 114
with this sign i M 114
with this last a M 114
with this lady a M 114
with this host i M 114
with this army i M 114
with one over a M 114
with her tears a M 114
with all save a M 114
wings that were a M 114
wings that make a M 114
with all three a M 113
with too just a M 112
with one ship a M 112
with one made a M 112
with near upon a M 112
with how hard a M 112
with his earning a M 112
with him were i M 112
with her what a M 112
with each other t M 112
with too late a M 110
with this term a M 110
with this army a M 110
with them rage a M 110
with new eyes a M 110
with men over a M 110
with each unit a M 110
with each trip i M 110
with you make a M 108
with wet eyes i M 108
with this also i M 108
with them sent a M 108
with them making a M 108
with that work a M 108
with one breath i M 108
with how poor a M 108
with his will a M 108
with fear during a M 108
with each page i M 108
with being half a M 108
with and upon a M 108
with and gain a M 108
wings are only a M 108
with how many i M 107
with use over a M 106
with that time i M 106
with her help a M 106
with each page a M 106
wit and even a M 106
with his flag a M 105
with long hair a M 104
with joy into a M 104
with but such a M 104
with and when a M 104
with and play a M 104
with air when a M 104
wit has been a M 104
win than lose a M 104
with you last i M 102
with this fire i M 102
with our making a M 102
with one till i M 102
with one taking a M 102
with one step i M 102
with its eyes a M 102
with her reading a M 102
with each giving a M 102
with and been a M 102
win this case i M 102
with you also a M 100
with they were a M 100
with that lady i M 100
with one jump i M 100
with men taking a M 100
with how fast i M 100
with his into a M 100
with had only a M 100
with fear upon a M 100
with each bearing a M 100
with this upon a M 98
with this step i M 98
with one just a M 98
with his body i M 98
with him more a M 98
with death like a M 98
with but just a M 98
with air form a M 98
with this much i M 96
with red hair i M 96
with how true a M 96
with how slow a M 96
with his days a M 96
with him ever a M 96
with doing such a M 96
with any book i M 96
wings but what a M 96
with both feet a M 95
with with whom i M 94
with this move i M 94
with this have a M 94
with this acid a M 94
with things like i M 94
with them more a M 94
with sin like a M 94
with rings like a M 94
with one such a M 94
with both arms i M 94
with and like a M 94
with them save a M 92
with red from a M 92
with men only a M 92
with how wide a M 92
with how rich a M 92
with her onto a M 92
with her love i M 92
with god brings a M 92
with each name a M 92
with any lady i M 92
with war only a M 91
with man into a M 90
with his over a M 90
with his case i M 90
with her lest i M 90
with ease such a M 90
with any part i M 90
with any ideas i M 90
with and know a M 90
with you said i M 88
with too young a M 88
with six meals a M 88
with how bold a M 88
with his fall a M 88
with his book i M 88
with his band a M 88
with him less a M 88
with her name a M 88
with her giving a M 88
with her book a M 88
with each reading i M 88
with being told i M 88
with and kept a M 88
with and felt a M 88
with air have a M 88
win her when i M 88
with had made a M 87
with this list i M 86
with that theory i M 86
with men during a M 86
with meat like a M 86
with his when i M 86
with her back a M 86
with head bent a M 86
with has made a M 86
with each turn a M 86
with each name i M 86
with each copy a M 86
with each blow i M 86
with air during a M 86
wings and find a M 86
with two kids i M 84
with this play i M 84
with this during a M 84
with this baby i M 84
with they have a M 84
with them been a M 84
with that help i M 84
with that hand i M 84
with red upon a M 84
with him giving a M 84
with for just a M 84
with death have a M 84
with but whom i M 84
with and over a M 84
wit can make a M 84
wings and felt a M 84
with them lest i M 82
with that till i M 82
with than such a M 82
with our help i M 82
with our feet a M 82
with him reading a M 82
with her love a M 82
with each wish i M 82
with each reading a M 82
with any theory i M 82
with and show a M 82
with and giving a M 82
with all three i M 82
wit for such a M 82
wings out like a M 82
wings and give a M 82
win his love i M 82
with too true a M 80
with this tale i M 80
with not paying a M 80
with how full a M 80
with her past a M 80
with her name i M 80
with going over a M 80
with awe from a M 80
with age when a M 80
with age were i M 80
with age came a M 80
with her breath a M 53
with this wind a M 47
with all other a M 42
win and form a M 40
with thee will i D 5162
with his wife a D 4457
with oil from a D 2634
with his finger a D 2160
with his foot a D 1811
with pus from a D 1768
with his mouth a D 1372
with his teeth a D 1359
with gas from a D 1236
with his legs a D 1088
with one foot a D 1052
with his fist a D 878
with her mouth a D 860
with his lips a D 850
with his spear a D 836
with mud from a D 820
with his cane a D 764
wit thou well i D 714
with one finger i D 700
with them rose a D 656
with her lips a D 649
with this boat a D 616
with this task a D 608
with her finger a D 599
with ink from a D 562
with her foot a D 560
with ears like a D 554
with his wife i D 552
with too fond a D 538
with this belt i D 526
with wax from a D 518
with him took a D 518
with too thick a D 492
with ice from a D 452
with this news i D 448
with his nose a D 448
with and took a D 444
with one finger a D 430
with oil having a D 426
with how firm a D 412
with his whip a D 408
with new york a D 370
with too firm a D 368
with him rode a D 330
with each node a D 322
with her wearing a D 318
with her teeth a D 315
with one foot i D 314
with his thumb a D 310
with his bill a D 310
with dad when i D 310
with each node i D 304
with ice during a D 288
with fat from a D 270
with his chin a D 258
with ink upon a D 256
with him wearing a D 256
with them took a D 254
with mom when i D 252
with this tool i D 234
with her took a D 234
with mud like a D 232
with fur like a D 232
with too rude a D 226
with sir john a D 222
with his knee a D 222
with thee have i D 220
with two guys i D 212
with her nose a D 204
with ale from a D 204
with them rode a D 202
with its teeth a D 200
with this rope i D 194
with thee when i D 192
with mud into a D 190
with one shot i D 188
with and sank a D 188
wings and took a D 186
with zeal into a D 178
with thee till i D 176
with this gold i D 170
with oil into a D 170
with his hook a D 168
with thee what i D 164
with ice like a D 164
with gas having a D 162
with fur from a D 162
with oil like a D 160
with its mouth a D 160
with zeal have i D 154
with ink over a D 154
with ice when i D 154
with her aunt a D 152
with gas like a D 152
with its axis a D 151
with this tool a D 150
with not wearing a D 150
with mud during a D 148
with her legs a D 146
with and loving a D 142
with this task i D 140
with his finger i D 138
with this bill i D 134
with its bill a D 134
with ions from a D 132
with you guys i D 130
with ore from a D 130
with his club a D 130
with his pipe a D 129
with oil once a D 128
with ions having a D 128
with his wand a D 128
with gad have a D 128
with sap from a D 126
with his fork a D 124
with his beard a D 124
with too flat a D 120
with its nose a D 120
with his heel a D 120
with gay heart i D 120
with too avid a D 118
with its foot a D 118
with his pace i D 118
with wax into a D 116
with rum from a D 116
wings and flew a D 116
with its jaws a D 114
with thee like a D 112
with gum from a D 112
with this film i D 110
with her fork a D 110
wings and wearing a D 110
with this vote a D 108
with new clay a D 108
with pad have a D 106
with one wearing a D 106
with her jaws a D 104
with one wall a D 100
with its veil a D 100
wig had made a D 100
wig and wearing a D 100
with you guys a D 98
with tom when i D 98
with one dose a D 98
with mud when i D 98
with our lips a D 96
with ivy like a D 96
with his mace a D 96
with his crew a D 96
wings and wears a D 96
with art from a D 94
with that gold i D 92
with his paws a D 92
with his palm a D 92
with his mouth i D 92
with his lisp a D 92
with hay from a D 92
with that took a D 90
with his boss a D 90
with sex once a D 88
with one crop a D 88
with oil when a D 88
with his soul i D 88
with you wearing a D 86
with out leaving a D 86
win this race i D 86
with one pill a D 85
with zeal from a D 84
with this wine i D 84
with this diet i D 84
with men wearing a D 84
with his skin a D 82
with fur over a D 82
wig was like a D 82
with this mess i D 80
with this card i D 80
with one shot a D 80
with his soul a D 46
with ice cream a D 41
with her chin a D 41
