within reach . " M 5860
winning side . " M 2717
within call . " M 2094
within range . " M 2020
wiped away . " M 1916
wiped clean . " M 1662
within hearing . " M 1448
within days . " M 1104
willing mind . " M 1096
winding road . " M 1004
winding down . " M 978
wishing well . " M 738
within hail . " M 644
willing heart . " M 630
winning hand . " M 581
wider range . " M 506
wiser sort . " M 468
within reach ? " M 466
winning ways . " M 456
within time . " M 396
within note . " M 386
winning plan . " M 300
within hearing ? " M 272
willing hand . " M 272
winning side ? " M 262
within there ! " M 258
winning game . " M 258
within also ? " M 238
winning edge . " M 222
wiser heads . " M 216
winning post . " M 206
within range ? " M 202
within reach ! " M 194
wider view . " M 188
within life . " M 184
within there . " M 174
wishing well ? " M 164
within there ? " M 160
winning goal . " M 160
within view . " M 158
winning side ! " M 136
wishing away . " M 134
wiped clean ? " M 134
wiser part . " M 132
wider self . " M 132
winning teams . " M 130
willing feet . " M 118
within mine . " M 114
winding paths . " M 110
within self . " M 108
within call ? " M 106
wider meaning . " M 106
wider areas . " M 102
willing game . " M 98
winding ways . " M 96
within range ! " M 94
winning book . " M 90
within here ? " M 86
wiser book . " M 86
within door . " M 82
willing mind ! " M 80
wider life . " M 80
