away the sin of M 88852
away as far as M 32438
away so that the M 25688
away in one of M 21614
away so that he M 17108
away as long as M 14781
away on one of M 12740
away the key of M 10358
away to see the M 9862
away by one of M 9557
away to one of M 8311
away so that it M 8064
away the fear of M 7788
away the end of M 6637
away to get the M 6463
away if you do M 6300
away the use of M 6260
away the idea of M 6216
away to die in M 5939
away so that we M 4626
away at one of M 4366
away of all the M 4280
away the head of M 4250
away to see if M 4081
away the top of M 3961
away the heat of M 3930
away to hear the M 3916
away so long as M 3423
away to try to M 3311
away on top of M 3269
away so far as M 2926
away so that no M 2734
away in all the M 2664
away of them be M 2619
away by all the M 2560
away he saw the M 2556
away to get to M 2395
away as one of M 2302
away the things of M 2296
away in fear of M 2236
away to let the M 2232
away the day in M 2218
away is not the M 2204
away the key to M 2140
away the day of M 2111
away is one of M 2008
away the law of M 1968
away the joy of M 1960
away by act of M 1942
away of one of M 1883
away he goes to M 1850
away it may be M 1760
away as due to M 1756
away if they do M 1752
away at all the M 1690
away to set up M 1645
away to put on M 1597
away to bring the M 1588
away to see it M 1542
away to get it M 1540
away to put the M 1502
away the one thing M 1482
away he ran to M 1446
away by any of M 1411
away to read the M 1410
away to get at M 1409
away or try to M 1364
away to all the M 1361
away as not to M 1320
away in two or M 1294
away we saw the M 1260
away by way of M 1241
away is that the M 1214
away the cup of M 1168
away as with the M 1111
away to see to M 1102
away the sky is M 1096
away it was the M 1073
away up near the M 1047
away to sit on M 1047
away he had to M 1022
away the earth in M 1014
away as they do M 979
away or out of M 890
away in one or M 866
away the earth to M 864
away at them as M 852
away as did the M 848
away on wings of M 842
away by one or M 836
away of sin by M 833
away by two of M 825
away by using the M 810
away by death in M 796
away to read it M 794
away as does the M 792
away so they do M 789
away to pay the M 768
away or that the M 768
away so you do M 756
away is not an M 730
away to use the M 724
away to beat the M 720
away the son of M 712
away to see my M 698
away is not to M 698
away at him as M 698
away is that of M 690
away the men of M 683
away my fear of M 680
away by them to M 676
away to see me M 672
away to hear it M 672
away by him in M 672
away to hear me M 670
away the bit of M 664
away to sit in M 662
away the web of M 662
away he was in M 654
away to win by M 650
away the way he M 650
away as being the M 650
away by him to M 648
away by them as M 646
away of any of M 642
away as you do M 640
away the air of M 638
away the earth on M 632
away at war or M 632
away by and by M 626
away by fear of M 624
away the act of M 618
away it can be M 614
away is going to M 614
away to act as M 612
away he may be M 602
away as she is M 601
away the things he M 598
away we had to M 588
away to get an M 588
away the box of M 576
away to get on M 575
away the things in M 564
away in any of M 560
away to get my M 554
away at him in M 550
away the god of M 544
away as that of M 542
away at them in M 538
away we see the M 530
away the things we M 530
away so that in M 519
away to die of M 512
away or put it M 510
away to him in M 508
away the sum of M 508
away to put it M 504
away to aid in M 504
away the being of M 502
away to set the M 498
away by them in M 496
away to bring it M 494
away to see or M 492
away by him as M 492
away or may be M 484
away to lead the M 482
away it was as M 482
away if any of M 474
away at him to M 472
away to let me M 468
away so that if M 468
away at all of M 468
away to get in M 466
away the bag of M 462
away as was the M 460
away is that it M 457
away the arm of M 456
away in fear or M 456
away so that my M 454
away an area of M 453
away the key in M 452
away the day on M 452
away if she is M 448
away the seat of M 444
away the earth at M 442
away as can be M 442
away to fit the M 441
away or put to M 440
away by men in M 440
away of sin is M 438
away he and the M 438
away as you go M 436
away to put up M 432
away is due to M 430
away to one or M 428
away by death or M 426
away it was to M 422
away to buy the M 418
away as things of M 418
away the leg of M 412
away the myth of M 408
away on all the M 408
away to add to M 404
away the heap of M 404
away as may be M 403
away by going to M 396
away to him as M 395
away the heat so M 395
away to use as M 394
away in his or M 392
away at dead of M 390
away of one or M 388
away he had the M 386
away in may of M 382
away the key or M 380
away up out of M 378
away so long in M 378
away or put up M 376
away is not so M 376
away to put in M 375
away by her to M 374
away or not at M 372
away so that at M 370
away so far to M 370
away in each of M 370
away at them to M 368
away or put in M 365
away he had no M 364
away to win the M 362
away to any of M 361
away to ask the M 360
away the heat as M 356
away of them is M 356
away the wings of M 352
away or that he M 352
away the dead in M 348
away to bring up M 346
away he was to M 346
away to die on M 344
away as being of M 344
away the age of M 342
away so far by M 338
away the earth as M 336
away my head to M 336
away at one or M 334
away he was the M 332
away the men in M 330
away the day he M 330
away so that by M 330
away at both the M 330
away to use in M 329
away to hang up M 329
away to ease the M 328
away at her in M 327
away to get us M 324
away as easy as M 323
away the death of M 322
away up one of M 320
away to god in M 320
away if you go M 320
away the sun is M 318
away the air in M 318
away is out of M 318
away at two in M 318
away to war in M 316
away to see an M 316
away to rot in M 316
away to lie in M 314
away to dry in M 314
away as all the M 314
away to see us M 312
away or that it M 312
away in all of M 312
away the old to M 310
away by that of M 310
away or use in M 308
away is that he M 308
away he goes in M 306
away to put an M 304
away to end the M 304
away the man in M 304
away it all is M 304
away by all of M 304
away at all if M 302
away or add to M 300
away as they go M 300
away or can be M 299
away to bring in M 298
away on one or M 297
away to read in M 296
away to her in M 295
away the eye of M 294
away we may be M 292
away to let it M 292
away the key on M 292
away the earth of M 292
away so that an M 292
away at her as M 291
away to let us M 290
away so long he M 290
away by both the M 290
away to try the M 288
away the man of M 288
away if one of M 288
away as one in M 288
away at each of M 286
away the key if M 284
away to them in M 282
away of sin in M 282
away the heat in M 280
away it goes to M 280
away to not be M 278
away to let in M 278
away on two or M 278
away to run the M 276
away it was no M 276
away to death in M 275
away to fix it M 274
away if this is M 272
away the one he M 270
away he goes at M 268
away to that of M 267
away by use of M 267
away by him on M 263
away to them as M 260
away to sit by M 260
away to hear us M 260
away by men of M 260
away to sit at M 258
away the day the M 252
away or not to M 252
away by two or M 252
away by fear or M 252
away of one thing M 250
away to lie on M 248
away the two of M 248
away to get me M 246
away to die or M 242
away of all of M 242
away is apt to M 242
away to bear the M 240
away it was so M 240
away he goes on M 238
away by this or M 238
away my day of M 236
away he was on M 236
away as out of M 236
away of law in M 235
away to him at M 234
away to cry in M 234
away or use it M 234
away by far the M 232
away at them at M 232
away the two go M 228
away so long at M 228
away to lay the M 226
away if that is M 226
away to die at M 224
away so far in M 224
away at his or M 224
away at both of M 224
away is not as M 223
away the job of M 222
away it goes on M 222
away as are the M 221
away to try it M 220
away to get up M 220
away it had to M 220
away is one thing M 220
away at end of M 220
away or near at M 219
away at six in M 218
away on any of M 216
away we did go M 214
away the area of M 212
away by his or M 212
away as for the M 208
away the dead or M 204
away or put on M 204
away in fear at M 204
away go all the M 204
away by death at M 204
away the old in M 203
away or let it M 202
away if one is M 199
away it was in M 198
away is not in M 198
away in both the M 198
away as had the M 198
away the ash of M 196
away it was an M 196
away is that we M 196
away in awe of M 196
away he has to M 196
away at war in M 196
away of things in M 195
away we hear the M 192
away we had the M 192
away by her in M 192
away the day by M 190
away the boy to M 190
away he was so M 190
away to all of M 189
away to hear of M 188
away to death by M 188
away the one in M 186
away the bar of M 186
away the day at M 182
away the day as M 182
away by death on M 182
away at all it M 182
away as being in M 182
away by one is M 180
away at one thing M 180
away to end in M 178
away the things it M 178
away the plea of M 178
away to fix the M 176
away the way we M 176
away the fear in M 176
away me and my M 176
away in fear to M 176
away the idea as M 175
away the heat by M 174
away of two or M 174
away the way it M 172
away so did the M 172
away he was as M 171
away we are in M 170
away to cut the M 170
away of heat by M 170
away my all of M 170
away at two or M 170
away the men at M 168
away by man in M 168
away to ask if M 166
away my head as M 166
away my box of M 166
away the earth so M 165
away to death the M 164
away the meat of M 164
away so long on M 164
away or was it M 164
away on both the M 164
away it has to M 164
away by them or M 164
away by them on M 164
away by each of M 164
away or going to M 162
away of this is M 162
away up and up M 161
away to you on M 160
away to hear my M 160
away or for the M 159
away of both the M 159
away to sit up M 158
away it was or M 158
away to aid the M 156
away so long it M 156
away he saw an M 156
away to her as M 155
away to use it M 154
away the things on M 154
away so long to M 154
away at all in M 154
away or one of M 153
away the cry of M 152
away the awe of M 152
away is but the M 152
away in two to M 152
away by any thing M 152
away the way the M 151
away the day we M 151
away we all go M 150
away to hear or M 150
away the meat to M 150
away of two of M 150
away in this or M 150
away in fear as M 150
away at one in M 150
away the aid of M 148
away no end of M 148
away he was at M 148
away he got up M 148
away by all my M 148
away to earn the M 146
away the set of M 146
away the can of M 146
away is all the M 146
away if they so M 146
away by him or M 146
away to die by M 144
away is that in M 144
away he saw it M 144
away he ran as M 144
away at any of M 144
away as any of M 143
away the air is M 142
away or that we M 142
away by them of M 142
away by god to M 142
away the net of M 140
away the earth or M 140
away he got the M 140
away at him so M 139
away to this or M 138
away to run to M 138
away the two or M 138
away the men to M 138
away the ash or M 138
away at this thing M 138
away to bring me M 136
away or die or M 136
away we goes up M 135
away so long the M 134
away or die in M 134
away he run to M 134
away he can be M 134
away by air or M 134
away to death or M 132
away the dead to M 132
away or had to M 132
away to earn my M 130
away or die of M 130
away of all my M 130
away as this is M 130
away an idea of M 130
away my bag of M 129
away the war in M 128
away the song of M 128
away or hang up M 128
away it was he M 128
away at you in M 128
away to war or M 126
away to see in M 126
away as being no M 126
away to hang in M 124
away to cry by M 124
away the men by M 124
away the head as M 124
away on one wing M 124
away he had me M 124
away at him on M 124
away at him at M 124
away to you at M 122
away to near the M 122
away to lead an M 122
away to hang the M 122
away by being so M 122
away to say to M 120
away to man the M 120
away to lay it M 120
away or are in M 120
away in that of M 120
away to each of M 118
away the head to M 118
away is not it M 118
away by then to M 118
away by death the M 118
away to war as M 117
away on and on M 117
away as being an M 117
away or let the M 116
away or let go M 116
away in out of M 116
away by him at M 116
away by day or M 116
away as one by M 116
away on each of M 115
away to him to M 114
away the sin in M 114
away the path of M 114
away the bow of M 114
away in two of M 114
away by god in M 114
away so that as M 113
away to war to M 112
away the box in M 112
away or they do M 112
away in this thing M 112
away by now to M 112
away or dry up M 111
away to you in M 110
away to two or M 110
away to try on M 110
away the year of M 110
away the web on M 110
away the things the M 110
away the sin by M 110
away the key so M 110
away the heat is M 110
away it was my M 110
away in ten or M 110
away if you or M 110
away at you to M 110
away as out we M 110
away my joy in M 109
away to bring an M 108
away in one go M 108
away at them on M 108
away to set it M 106
away to read at M 106
away to end up M 106
away so not to M 106
away is for the M 106
away by war or M 106
away or hung on M 105
away by doing so M 105
away to say the M 104
away to both the M 104
away of things by M 104
away he has no M 104
away go all my M 104
away by them is M 104
away by day in M 104
away at ten at M 104
away the key as M 103
away to head the M 102
away the one of M 102
away the key is M 102
away or get up M 102
away or did he M 102
away or cut up M 102
away on how to M 102
away we saw an M 100
away the men on M 100
away or hung up M 100
away he did go M 100
away an heap of M 100
away or who is M 99
away or near by M 99
away to them to M 98
away to die as M 98
away the dead on M 98
away or use the M 98
away we run up M 96
away to him the M 96
away to ask me M 96
away the woes of M 96
away the man he M 96
away or bring it M 96
away if things do M 96
away if you so M 95
away to hang it M 94
away the one or M 94
away the fear he M 94
away the cup in M 94
away the real thing M 92
away the man is M 92
away the bar at M 92
away or you do M 92
away or set up M 92
away or not in M 92
away or does it M 92
away on all of M 92
away he did so M 92
away at all at M 92
away to you as M 91
away the lie of M 90
away in her to M 90
away at this or M 90
away at any thing M 90
away as two of M 90
away as far to M 90
away to use on M 88
away the red of M 88
away the one to M 88
away the meat in M 88
away the heat at M 88
away the earth by M 88
away the cup he M 88
away or with the M 88
away on his or M 88
away he put the M 88
away to pay my M 86
away to him by M 86
away to cry no M 86
away the rear of M 86
away the one we M 86
away the map of M 86
away the bag in M 86
away or any of M 86
away it was on M 86
away in rear of M 86
away he was an M 86
away as one or M 86
away to death if M 84
away the man on M 84
away the lead in M 84
away the joy in M 84
away so that on M 84
away on this thing M 84
away on that of M 84
away by death to M 84
away by air to M 84
away at all is M 84
away we are to M 82
away the earth he M 82
away so does the M 82
away of one so M 82
away in one to M 82
away if all the M 82
away he was by M 82
away at you if M 82
away to use at M 80
away to read or M 80
away to bring us M 80
away the real or M 80
away the man at M 80
away the lot of M 80
away the head in M 80
away in them to M 80
away he saw me M 80
away by using an M 80
away by ten or M 80
away the fear as M 46
away to read on M 44
away in them as M 43
away he sat up M 43
away he ran in M 43
away on them as M 42
away of sin as M 42
away to act on M 40
away the things as M 40
away the sting of D 7560
away the fog of D 1724
away the ark of D 1014
away by car or D 706
away the tear of D 660
away the ass of D 634
away the tip of D 576
awed by all the D 523
away the ice on D 504
away the sap of D 452
away the fun of D 412
away the bed of D 406
away the rim of D 380
away the ice in D 360
away by bus or D 346
away the fog in D 338
awed to see the D 308
away on his ear D 300
away the art of D 284
awning of one of D 276
away by car to D 276
away the fat of D 272
away to lean on D 268
away or fed to D 266
away the mud of D 264
away the earl of D 238
away the ears of D 236
away the dew as D 224
away the dean of D 220
away the dam of D 212
away the cap of D 210
away the pang of D 206
away in his ear D 204
awed by being in D 202
away the pot of D 202
away or tear it D 202
away to bed in D 190
away the lid of D 187
away to hit the D 186
away the mud in D 186
away to bed by D 184
away the peak of D 178
away the dew of D 178
away the gun of D 176
away to bed as D 175
away the jar of D 175
awed at being in D 174
away the oil of D 174
away do thou or D 172
awed by both the D 164
away the fin of D 160
away the ice to D 154
away by car in D 154
awed by and to D 148
away the lip of D 146
away the lad on D 146
away the fat in D 144
away by ice in D 142
away to bed he D 140
away the ice of D 138
away in bed in D 136
awed me with the D 126
away an iota of D 126
awed by all of D 124
away the ace of D 124
away by his ear D 124
awed by him as D 122
away the seal of D 120
away by car is D 120
away to dig in D 118
away the tin of D 118
away the oil in D 118
away the ice at D 118
away the hat of D 118
away to bed at D 116
away the urn of D 116
away the rod on D 116
away the gun in D 116
away the car in D 116
away the sting in D 114
away my pen in D 114
away to dig up D 112
away the mud on D 112
away to bed if D 108
away the toes of D 106
away the pin of D 106
away by ice or D 106
away the pen he D 104
away in her ear D 104
away the fat on D 102
awes us with the D 100
away the din of D 100
away the cow by D 100
awed by fear of D 98
away the wad of D 97
awns as long as D 96
away to tie the D 95
away in his sea D 95
away the zeal of D 94
away the mud or D 94
away to tie up D 92
away the hem of D 92
away to his ear D 90
away to dab at D 88
away the wax to D 88
away the row of D 88
away the wax at D 86
away the gun he D 86
away the dung of D 86
away to spy on D 84
away the sting by D 84
away the mud to D 84
away to bed to D 82
away the tinge of D 82
away the pig by D 82
away the bead of D 82
awed the men of D 80
awed by one of D 80
away the gang of D 80
away as doth the D 80
away the fog so D 59
away the gas as D 46
away the ice as D 45
away the tear on D 40
