away with him , M 87806
away with them , M 44648
away with you , M 40892
away with her , M 27593
away with this , M 20517
away with him ; M 11821
away with that , M 9629
away his head , M 8872
away her head , M 8713
away too long , M 7775
away all day , M 7406
away with them ; M 6483
away and say , M 4923
away long ago , M 4512
away and die , M 3920
away with her ; M 3441
away and then , M 3342
away that day , M 3340
away with you ; M 2637
away with things , M 2570
away they are , M 2434
away one day , M 2412
away with him : M 2395
away for you , M 2241
away for long , M 1964
away for him , M 1750
away all sin , M 1390
away our sin , M 1355
away his son , M 1294
away with war , M 1284
away she goes , M 1273
away for them , M 1240
away she ran , M 1189
away you are , M 1160
away all fear , M 1130
away with them : M 1119
away for her , M 1096
away and that , M 1084
away his sin , M 1068
away each year , M 1056
away they ran , M 1045
away with one , M 1040
away for now , M 997
away and ran , M 984
away his head ; M 950
away with age , M 920
away her head ; M 919
away his things , M 900
away with god , M 898
away than that , M 890
away and say : M 880
away this year , M 867
away with long , M 862
away each day , M 844
away with fear , M 798
away and die ; M 790
away his arm , M 776
away and hid , M 776
away and run , M 752
away with ease , M 699
away her things , M 684
away her son , M 651
away with sin , M 642
away his own , M 618
away all this , M 606
away with this ; M 604
away for that , M 598
away for fear , M 593
away all things , M 592
away long ago ; M 590
away they fly , M 585
away with her : M 561
away his cup , M 534
away her arm , M 534
away too long ; M 516
away all day ; M 504
away and now , M 503
away and cry , M 498
away its head , M 497
away all that , M 476
away she was , M 464
away that long , M 462
away with that ; M 458
away too far , M 458
away her fear , M 451
away that day ; M 448
away his men , M 448
away but one , M 448
away his bow , M 444
away his fear , M 443
away his sin ; M 434
away with you : M 431
away being set , M 418
away and dying , M 416
away they run , M 414
away with now , M 408
away with and , M 408
away with joy , M 402
away with death , M 398
away this day , M 386
away with song , M 382
away and who , M 382
away than this , M 372
away that year , M 362
away for use , M 358
away far off , M 352
away our own , M 326
away and all , M 318
away and yet , M 314
away with use , M 312
away that way , M 305
away for him ; M 305
away any one , M 294
away all sin ; M 294
away and she , M 292
away old man , M 282
away with this : M 272
away with both , M 262
away this long , M 252
away all fear ; M 252
away his job , M 250
away and read , M 250
away for two , M 248
away with two , M 240
away his head : M 236
away did fly , M 236
away our sin ; M 230
away his wings , M 230
away you get , M 228
away for any ; M 228
away for fear ; M 226
away its heat , M 222
away and dim , M 221
away with fear ; M 216
away for long ; M 216
away with all , M 212
away his all , M 208
away and was , M 208
away and ask , M 206
away his own ; M 205
away her head : M 205
away for this , M 203
away with lying , M 202
away for them ; M 202
away with age ; M 200
away her long , M 200
away our fear , M 197
away this man , M 196
away that fear , M 196
away that sin , M 194
away and near , M 194
away his gear , M 191
away this fear , M 190
away that easy , M 186
away they say , M 184
away one year , M 182
away his eye , M 182
away and sat , M 182
away with law , M 180
away with men , M 178
away his god , M 178
away and this , M 178
away for sin , M 176
away and out , M 176
away two men , M 174
away her own , M 173
away and you , M 166
away her eye , M 164
away that idea , M 160
away with things ; M 156
away you see , M 151
away our things , M 150
away they got , M 148
away for one , M 148
away all lying , M 148
away and they , M 146
away and long , M 146
away with his , M 144
away for fear : M 144
away for die , M 144
away his dog , M 141
away this idea , M 140
away that man , M 140
away but now , M 140
away his old , M 138
away but then , M 138
away but that , M 136
away our woes , M 134
away does not , M 134
away was that , M 132
away things are , M 130
away for her ; M 130
away too long : M 129
away with ease ; M 128
away are you , M 128
away for that ; M 126
away and had , M 126
away you say , M 124
away with kings , M 124
away any earth , M 124
away and why , M 124
away and are , M 124
away this heat , M 122
away are they , M 122
away and not , M 122
away his sin : M 120
away for you ; M 120
away they did , M 118
away and die : M 117
away too far ; M 116
away that was , M 116
away his leg , M 116
away her cup , M 116
away and thus , M 116
away this sin , M 114
away for now ; M 114
away this one , M 112
away and saw , M 112
away and hid ; M 112
away with that : M 110
away our men , M 110
away with old , M 106
away his bag , M 106
away for six , M 106
away any sin , M 106
away his key , M 104
away with war ; M 102
away with joy ; M 102
away this man ; M 102
away our joy , M 102
away his age , M 102
away they are ; M 100
away can not , M 100
away and how , M 100
away she did , M 98
away her job , M 98
away her age , M 98
away does fly , M 98
awry with things , M 96
away his toy , M 96
away for joy , M 94
away with man , M 92
away one leg ; M 92
away this way , M 90
away his men ; M 90
away for use ; M 90
away she got , M 88
away due east , M 88
away and new , M 88
away with was , M 86
away with one ; M 86
away our fly , M 84
away for dead , M 84
away that day : M 83
away her sin , M 83
away that one , M 82
away its sin , M 82
away and see , M 82
away with sin ; M 80
away old age , M 80
away now and , M 80
away did not , M 80
away and far , M 80
away was this : M 49
away its own , M 44
away any day , M 44
away his man , M 43
