our own country . M 198940
out for himself . M 96645
our own society . M 38590
our own culture . M 30454
our own language . M 28862
out for herself . M 25668
our own species . M 23684
our own efforts . M 21488
our own century . M 20866
our own history . M 19846
our own thoughts . M 19518
our own destiny . M 18036
out with friends . M 13800
our own affairs . M 13590
our own country ? M 10050
out his purpose . M 9801
our own borders . M 9588
our own devices . M 9368
our own account . M 8856
our own desires . M 7952
our own position . M 7390
out this function . M 6868
our own benefit . M 6804
our own conduct . M 6610
our own control . M 6534
our own research . M 6418
our long journey . M 6392
out this project . M 5938
out too quickly . M 5937
our own opinions . M 5876
our own choices . M 5188
out his mistake . M 5186
our old friends . M 5158
out his thoughts . M 5073
out for trouble . M 4928
out his designs . M 4917
out his promise . M 4816
our own company . M 4752
our own natures . M 4700
our own pleasure . M 4686
our own beliefs . M 4518
out this program . M 4450
our own freedom . M 4388
our new friends . M 4272
our own masters . M 4144
our own persons . M 4106
our own stories . M 4092
our own religion . M 4056
our own weakness . M 3992
out this problem . M 3977
out her thoughts . M 3964
our new releases . M 3824
out his project . M 3691
our dear country . M 3632
our own emotions . M 3596
out for justice . M 3582
our being together . M 3524
our top priority . M 3502
our own defence . M 3488
our own parents . M 3362
our own defense . M 3352
out its mandate . M 3298
out its function . M 3247
our own friends . M 3234
out this purpose . M 3231
out our website ! M 3216
out this process . M 3149
our act together . M 3080
out his program . M 2942
our own country ! M 2938
out this research . M 2916
our own spirits . M 2916
out for certain . M 2893
out with success . M 2890
our way forward . M 2882
out its program . M 2878
our own success . M 2874
out and removed . M 2850
our own schools . M 2758
our own members . M 2684
our own volition . M 2682
out its purpose . M 2671
out his destiny . M 2639
out for oneself . M 2619
out any details . M 2529
out that purpose . M 2524
our own suffering . M 2500
our long history . M 2388
our own purpose . M 2342
out for himself ? M 2337
out with pleasure . M 2332
out all together . M 2321
out his welcome . M 2240
out for balance . M 2240
our dear friends . M 2238
out and weighed . M 2216
our own studies . M 2204
our own motives . M 2192
our own society ? M 2176
our own creations . M 2154
out his position . M 2136
our new country . M 2130
out for comment . M 2050
our own vessels . M 2046
our own results . M 1986
out with company . M 1980
our own futures . M 1974
out its destiny . M 1950
our new society . M 1932
our own comfort . M 1930
out this weekend . M 1923
our own gardens . M 1864
out for support . M 1850
out and everything . M 1848
out for adoption . M 1836
out with violence . M 1807
our own program . M 1790
our own problem . M 1776
our own shadows . M 1766
our own decision . M 1760
out with delight . M 1753
our own service . M 1728
out and applied . M 1633
out his schemes . M 1627
out her purpose . M 1626
out his problem . M 1613
our new position . M 1600
our own present . M 1596
our own material . M 1580
out for repairs . M 1566
out for service . M 1561
our own consent . M 1560
out his message . M 1550
out for marriage . M 1532
our own prayers . M 1526
our new location . M 1522
out its details . M 1511
out for freedom . M 1503
our own writers . M 1500
out and explore . M 1469
our own passions . M 1450
our own culture ? M 1440
our new address . M 1438
our own species ? M 1432
our own dignity . M 1422
our own answers . M 1420
out his decision . M 1413
out its welcome . M 1412
out that function . M 1396
our own language ? M 1380
out with himself . M 1375
our own reactions . M 1366
out this chapter . M 1361
our own counsel . M 1358
our own climate . M 1354
our aging society . M 1348
out this decision . M 1320
our own ability . M 1310
our own produce . M 1306
our own example . M 1296
out his command . M 1286
out that decision . M 1272
our two friends . M 1272
out its defects . M 1262
out and escaped . M 1261
our own records . M 1246
our own liberty . M 1228
our old position . M 1228
our own journey . M 1220
out for pleasure . M 1216
our long absence . M 1202
out for display . M 1198
out that promise . M 1184
our things together . M 1176
out this mandate . M 1170
our real problem . M 1170
out this promise . M 1162
out for himself ! M 1159
out his desires . M 1154
our own designs . M 1152
our own customs . M 1128
out his affairs . M 1126
our own essence . M 1126
out and useless . M 1115
out her mistake . M 1110
out and planned . M 1097
our new masters . M 1097
out his partner . M 1087
out with dignity . M 1075
out for quarter . M 1070
out for herself ? M 1063
out his reforms . M 1062
our own origins . M 1052
out and stopped . M 1045
our own history ? M 1030
our own failure . M 1016
our real enemies . M 1002
our own brothers . M 996
out its effects . M 985
out his request . M 985
our own systems . M 984
our own neglect . M 980
our own grounds . M 978
our own capital . M 976
out and destroy . M 969
our new product . M 964
out his research . M 961
our real concern . M 958
our web service . M 956
out and pointed . M 955
out his company . M 946
out and planted . M 945
out with friends ? M 936
out its objects . M 934
out for solution . M 932
out his lighter . M 919
out for enemies . M 913
out and exposed . M 909
out with anybody . M 908
our team members . M 902
out our destiny . M 900
out with anxiety . M 896
out our welcome . M 895
our own product . M 894
out this picture . M 893
our way together . M 892
our own project . M 892
out for clarity . M 890
our own teachers . M 884
our own marriage . M 880
out for answers . M 878
out and studied . M 876
our day together . M 874
our new members . M 868
out his address . M 863
our own defects . M 862
our real friends . M 860
out his friends . M 851
out our position . M 850
out for everything . M 844
our own process . M 840
our own workers . M 826
our old writers . M 826
our being friends . M 826
out that program . M 825
our own subject . M 824
out and injured . M 823
our being married . M 820
out for decades . M 815
our new century . M 812
out for comfort . M 810
our own strengths . M 810
our real purpose . M 804
our own destiny ? M 804
our own measures . M 802
our own concern . M 802
our own classes . M 800
out its designs . M 798
out its message . M 796
out her emotions . M 796
out and defined . M 794
our own sources . M 792
out its secrets . M 782
out and laughed . M 779
our own virtues . M 772
our own forests . M 772
our own affairs ? M 770
out and measured . M 768
our new pledges . M 768
out and adopted . M 761
our own enemies . M 760
our own thoughts ? M 758
our law schools . M 756
out and emptied . M 750
our own numbers . M 748
our two parties . M 744
our own meanness . M 744
our new project . M 740
out his enemies . M 735
our own efforts ? M 730
our new program . M 730
out for traffic . M 728
our own animals . M 724
out this command . M 719
out its position . M 708
out this question . M 705
out her welcome . M 704
out and ignored . M 699
out his country . M 692
out his emotions . M 690
out its history . M 682
our own talents . M 674
our aging parents . M 670
out his question . M 668
out new material . M 665
out and counted . M 665
our own religion ? M 658
our old enemies . M 656
out for company . M 655
out each problem . M 653
our new beginning . M 652
out his mandate . M 650
our own despite . M 650
our own circles . M 648
our own wounded . M 646
out her promise . M 642
our own solution . M 638
our few belongings . M 632
out for tonight . M 630
out her destiny . M 627
out her address . M 625
our new catalog . M 624
out with everything . M 622
our real position . M 618
our own library . M 618
our war efforts . M 616
our own borders ? M 616
out this passage . M 612
our own experts . M 606
our own imagining . M 604
our own congress . M 604
out his secrets . M 594
out that process . M 593
our god forever . M 592
out her problem . M 591
out and explain . M 588
out that problem . M 586
out his function . M 586
our dear parents . M 586
our own college . M 584
out this weekend ? M 583
our own criteria . M 582
out with clarity . M 578
out our mistake . M 572
out this pattern . M 571
our two samples . M 570
our own command . M 568
our own pattern . M 566
out our program . M 563
out his account . M 562
our singing country . M 562
our own desires ? M 560
out this instant . M 556
out our purpose . M 552
our own account ? M 542
out her pleasure . M 538
out its decision . M 537
out his opinions . M 535
out that mandate . M 534
out for success . M 530
out and forward . M 530
out its missions . M 528
our own question . M 528
our old customs . M 528
out and returning . M 527
out and arranged . M 524
out this position . M 523
our own secrets . M 516
out her secrets . M 512
out for victory . M 511
our big problem . M 506
out her request . M 502
out this request . M 500
our new freedom . M 500
out his defects . M 499
out with herself . M 498
our own ideology . M 498
our new company . M 498
our own conceit . M 496
our own burdens . M 496
out for anybody . M 492
our way upwards . M 492
out his lantern . M 490
out and checked . M 488
our own anxiety . M 488
our new visitor ? M 488
out his answers . M 485
out and drowned . M 484
our own benefit ? M 480
our old friends ? M 478
out her company . M 476
our own remorse . M 476
out this solution . M 475
out her designs . M 474
our own chapter . M 474
out and watched . M 471
out with tonight ? M 470
our own witness . M 468
our own together . M 468
our own poverty . M 468
out its promise . M 464
out her question . M 462
our own parties . M 462
out her project . M 460
out and retired . M 458
our own despair . M 458
out for college . M 457
out his picture . M 455
out her compact . M 452
our own frailty . M 452
our own century ? M 452
our old routine . M 452
our own pleasure ? M 450
our new religion . M 450
our own division . M 448
out her message . M 446
out this example . M 444
our men wounded . M 444
out this concept . M 441
our year together . M 440
our own windows . M 440
our own insight . M 440
our own fortune . M 440
our aid program . M 440
our own demands . M 438
out with disgust . M 435
our own figures . M 434
our old beliefs . M 434
our own buildings . M 432
out for liberty . M 430
our own clients . M 430
our old country . M 430
out its solution . M 428
out this message . M 426
our two species . M 426
our own defence ? M 426
our new culture . M 424
out her decision . M 422
our own machine . M 418
our own sorrows . M 416
out for silence . M 415
out his fortune . M 410
our way outside . M 410
out this instant ! M 408
out its location . M 406
our meal together . M 406
out his studies . M 404
our own slavery . M 404
out that question . M 402
out his bargain . M 402
out this service . M 399
out her position . M 399
our own letters . M 398
our own privacy . M 394
our new buildings . M 394
our dead friends . M 394
out this material . M 392
our own lessons . M 392
our age demands . M 390
out his letters . M 388
our own network . M 388
our new arrival . M 388
out its essence . M 386
out and discard . M 386
our day schools . M 386
out his uniform . M 384
out its members . M 382
out this article . M 380
our own request . M 380
out its results . M 379
out our research . M 378
out and cracked . M 374
our real motives . M 374
out for sympathy . M 371
our own worship . M 370
out two letters . M 368
out his beliefs . M 368
out for research . M 368
out and renewed . M 365
our own element . M 364
our own creators . M 364
our new language . M 364
out his belongings . M 362
our own support . M 360
out this problem ? M 358
our own language ! M 358
our own victory . M 356
our own fellows . M 356
our new library . M 356
out its content . M 352
out and perform . M 350
out that project . M 349
out this mystery . M 348
our own wrongdoing . M 348
out all details . M 347
out this account . M 346
our war program . M 346
out his stories . M 344
out his demands . M 344
out and survive . M 344
our own silence . M 344
our own conduct ? M 344
out his compass . M 343
out this project ? M 342
out that weekend . M 340
out its reforms . M 340
our own position ? M 340
out its affairs . M 337
out her journal . M 336
out and touched . M 334
out his weakness . M 331
out and searched . M 331
out our thoughts . M 330
out his parents . M 329
out his material . M 329
out with clients . M 328
our own ambition . M 328
out his freedom . M 327
out for pursuit . M 326
our two systems . M 326
our sin problem . M 326
our own violence . M 326
out his journal . M 322
out for removal . M 321
our own objects . M 320
our new partner . M 320
out and secured . M 319
our own arrival . M 318
out this function ? M 316
out new designs . M 316
out and returns . M 316
our own vocation . M 316
out his history . M 315
out this concern . M 314
out ten minutes . M 314
out and decided . M 313
our war machine . M 312
out too hastily . M 311
out this analogy . M 310
out its pledges . M 310
our own prisons . M 310
our own control ? M 310
out any problem . M 308
out his measures . M 305
out its virtues . M 301
out our project . M 300
out our problem . M 298
out his victims . M 298
out her affairs . M 298
out for parties . M 298
out for herself ! M 298
our two studies . M 298
our own justice . M 298
out our enemies . M 297
out and printed . M 297
out his pledges . M 296
our own location . M 296
out its weakness . M 294
out for friends . M 294
out for signals . M 293
our big mistake . M 292
out his solution . M 290
out and defeated . M 290
out her friends . M 288
out for payment . M 288
out that message . M 286
our new addition . M 286
out its desires . M 284
out his sorrows . M 284
our own devices ? M 284
out and dropped . M 283
our own company ? M 282
our new product ? M 282
out and written . M 280
our own exertion . M 280
our dear friends ! M 280
our being together ? M 280
out our country . M 279
out for shelter . M 279
our two natures . M 278
our team together . M 278
our air service . M 278
out and observe . M 277
out and develop . M 276
our own devotion . M 276
our old masters . M 276
our long winters . M 276
our gear together . M 276
out for revision . M 275
out for trouble ! M 274
out two figures . M 272
out this relation . M 272
out that command . M 272
out its enemies . M 272
our own blessings . M 272
out his motives . M 269
out with abandon . M 268
out this program ? M 268
out his vocation . M 268
our own sisters . M 268
our own remarks . M 268
our own mistake . M 268
our air attacks . M 268
out too strongly . M 267
out but suicide . M 267
out his ambition . M 266
out for counsel . M 266
our own picture . M 266
our ill fortune . M 266
out our windows . M 265
out for certain ? M 264
our own variety . M 264
our own mystery . M 264
our own destiny ! M 264
out old friends . M 263
out with suffering . M 262
out his protest . M 262
our way eastward . M 262
our red brothers . M 262
out with animals . M 261
out and protest . M 260
our own message . M 260
out with details . M 258
our real desires . M 258
our new teachers . M 258
out its demands . M 257
out his profile . M 257
out for control . M 257
out and replace . M 255
out its measures . M 254
out his grounds . M 254
out her sorrows . M 254
our real opinions . M 252
our old religion . M 252
out his defence . M 251
out new friends . M 250
out all thoughts . M 250
our own vehicle . M 250
our long silence . M 250
our two vessels . M 248
our own renewal . M 248
our own freedom ? M 248
our own baptism . M 248
our own balance . M 248
our old teachers . M 248
our air defense . M 248
out and divided . M 247
our men together . M 246
out our designs . M 245
our own chances . M 244
out that picture . M 243
out his matches . M 243
out for victims . M 243
our real history . M 242
our own concept . M 242
our own censors . M 242
our being sisters . M 242
out its product . M 241
our own inaction . M 240
out our secrets . M 239
our real thoughts . M 238
our own symbols . M 238
our own schemes . M 238
out this weakness . M 237
out its project . M 236
out her desires . M 234
our own priests . M 234
our own affairs ! M 234
our old buildings . M 234
our dear country ! M 234
our new sisters . M 232
out and examine . M 231
out for charity . M 230
out and entered . M 230
out and cleansed . M 230
out and nervous . M 229
out his purpose ? M 228
out his objects . M 228
out her schemes . M 228
out and conquer . M 228
our ill success . M 228
our own columns . M 226
our dry climate . M 226
our bad choices . M 226
out and managed . M 225
out this century . M 224
our own trouble . M 224
our own anymore . M 224
our new chapter . M 224
out all weekend . M 222
our own worries . M 222
our old question . M 222
our bad example . M 222
out his analogy . M 220
out her history . M 220
our own persons ? M 220
our own critics . M 220
our new student . M 220
out this country . M 219
out and listening . M 219
out her despair . M 218
out things together . M 216
out our desires . M 216
out his profits . M 216
out his pleasure . M 216
out and realized . M 216
our way shortly . M 216
our own passage . M 216
our own beliefs ? M 216
our new alliance . M 216
our aging process . M 216
out her parents . M 215
out his remarks . M 214
out his disgust . M 214
out for slavery ? M 214
our own choices ? M 214
our new recruit . M 214
out his trouble . M 213
out was suicide . M 212
out and shouted . M 212
our own weakness ? M 212
our dear sisters . M 212
out with anybody ? M 211
out and enjoyed . M 211
out its windows . M 210
our war history . M 210
our own belongings . M 210
out and unhappy . M 209
our own victims . M 208
our old records . M 208
out each function . M 206
our new routine . M 206
out its victims . M 204
out her research . M 204
our own routine . M 204
our own matters . M 204
our own madness . M 204
our new problem . M 204
out two numbers . M 202
our real parents . M 202
our own content . M 202
out his windows . M 201
out her belongings . M 201
out for chances . M 201
our eye contact . M 200
out its summons . M 198
out his defense . M 198
our own opinions ? M 198
our long marriage . M 198
our being present . M 198
out his religion . M 197
out his concern . M 197
out for contact . M 197
out and compete . M 197
out its workers . M 196
out his product . M 196
our own shelter . M 196
our own natures ? M 196
our own advance . M 196
our new captain . M 196
out with tonight . M 195
out with marriage . M 194
out that purpose ? M 194
out our decision . M 194
out his promise ? M 194
our real subject . M 194
our real freedom . M 194
our own spirits ? M 194
our own regrets . M 194
our own delight . M 194
our new brothers . M 194
out and pursued . M 193
out its verdict . M 192
out its outline . M 192
out for suffering . M 192
out and released . M 192
our real journey . M 192
our new machine . M 192
out for workers . M 191
out and upwards . M 191
our real friends ? M 190
our own tragedy . M 190
out that solution . M 189
out that quickly . M 189
out and revised . M 189
out and destroy ? M 188
out her command . M 186
our own stories ? M 186
our own parents ? M 186
our own endeavor . M 186
our old culture . M 186
out our belongings . M 185
out its mistake . M 185
out his triumph . M 185
our own species ! M 184
our own history ! M 184
our new service . M 184
out his defiance . M 183
out this mistake . M 182
out its lessons . M 182
out his tablets . M 182
out his records . M 182
out his figures . M 182
out her protest . M 182
out and correct . M 182
our own versions . M 182
out this element . M 181
out any trouble . M 181
our weak moments . M 180
our own centers . M 180
out for results . M 179
out new clients . M 178
out for objects . M 178
our two criteria . M 178
our own forever . M 178
our own account ! M 178
our old address . M 178
our new process . M 178
our men arrived . M 178
out that position . M 177
out and connect . M 177
out our beliefs . M 176
out our affairs . M 176
out his signals . M 176
out all enemies . M 176
our real religion . M 176
our new project ? M 176
out this subject . M 175
out our numbers . M 175
out her picture . M 174
out for teachers . M 174
out for prayers . M 174
our real essence . M 174
our old library . M 174
our old friends ! M 174
out our friends . M 173
out his results . M 173
out its origins . M 172
out her program . M 172
out for animals . M 171
out our freedom . M 170
out new members . M 170
out his purpose ! M 170
out his location . M 170
out for justice ! M 170
our own domains . M 170
our new schools . M 170
our new marriage . M 170
out too plainly . M 169
out two tablets . M 168
our two classes . M 168
our real beliefs . M 168
our own efforts ! M 168
our going together . M 168
our going forward . M 168
our big country . M 168
our act together ? M 168
out his outline . M 166
out any repairs . M 166
out any promise . M 166
out and labeled . M 166
our own tonight . M 166
our own descent . M 166
our new species . M 166
our law demands . M 166
our dear invalid . M 166
out her worries . M 165
out for clients . M 165
our own decline . M 164
our old parents . M 164
our new writers . M 164
our end product . M 164
out for details . M 163
out any answers . M 162
our way onwards . M 162
our own sadness . M 162
out his despair . M 161
out our choices . M 160
out new editions . M 160
out his blessings . M 160
out his anxiety . M 160
out her letters . M 160
out and trained . M 160
our own success ? M 160
our own crosses . M 160
our old members . M 160
our new results . M 160
our long stories . M 160
our all depends . M 160
out her account . M 159
out new tactics . M 158
our own praises . M 158
our own comfort ? M 158
our new friends ? M 158
our lot together . M 158
our god forever ! M 158
our air support . M 158
out and worried . M 157
out this omission . M 156
out his talents . M 156
our own defense ? M 156
our own colours . M 156
our new material . M 156
our new clients . M 156
out this paradox . M 154
out this division . M 154
out his pattern . M 154
out her answers . M 154
out and painful . M 154
our two brothers . M 154
our own schools ? M 154
our own despite ! M 154
out this product . M 153
out was forward . M 152
our two schools . M 152
our real destiny . M 152
our own fortune ? M 152
out that pattern . M 151
out our history . M 151
out war material . M 150
out bad spirits . M 150
out and repeated . M 150
out all insects . M 150
our new destiny . M 150
our being friends ? M 150
out for worship . M 149
out and receive . M 149
out our religion . M 148
out his success . M 148
out for baptism . M 148
out and grabbed . M 148
out and escapes . M 148
our way somehow . M 148
our own suffering ? M 148
our bad fortune . M 148
out with congress . M 147
out for defense . M 147
out his passage . M 146
out all dissent . M 146
our poet himself . M 146
our own treasure . M 146
our own travels . M 146
our own suicide . M 146
our air defence . M 146
out her stories . M 145
out for profits . M 145
out and withered . M 145
out his praises . M 144
our own missions . M 144
our own guesses . M 144
our own designing . M 144
our boy friends . M 144
out and debated . M 143
out with despair . M 142
out our stories . M 142
out our emotions . M 142
out his reactions . M 142
our red friends . M 142
our new enemies . M 142
our new crusade . M 142
out and quickly . M 141
out any program . M 140
out and covered . M 140
our own tactics . M 140
our own awakening . M 140
our old stories . M 140
our air quality . M 140
out with jealousy . M 139
out his prayers . M 139
out for quality . M 139
out and avoided . M 139
out and admired . M 139
out our prayers . M 138
out our message . M 138
out its schemes . M 138
out his treasure . M 138
out for tragedy . M 138
out for marriage ? M 138
out all profits . M 138
our own creations ? M 138
our own conduct ! M 138
our own beginning . M 138
our mean affairs . M 138
out for justice ? M 137
out this research ? M 136
out his missions . M 136
out her uniform . M 136
our own honesty . M 136
our own friends ? M 136
our new society ? M 136
our new journey . M 136
out our address . M 135
out had arrived . M 135
out and execute . M 135
out and discuss . M 135
out two letters ? M 134
out this verdict . M 134
out this journey . M 134
out this history . M 134
out his efforts . M 134
out any project . M 134
out and hardening . M 134
out all together ? M 134
our war stories . M 134
our team captain . M 134
our real natures . M 134
our own default . M 134
our old schools . M 134
our old language . M 134
our old history . M 134
out and rewrite . M 133
out with squares . M 132
out real defects . M 132
out his subject . M 132
our own masters ? M 132
our own filters . M 132
our bad moments . M 132
out was blocked . M 131
out his virtues . M 131
out for insects . M 131
out and revived . M 131
out this website . M 130
out his details . M 130
out for defence . M 130
out and limited . M 130
our own research ? M 130
our own example ? M 130
our new preacher . M 130
out his choices . M 129
out and withdraw . M 129
out this quality . M 128
out this purpose ? M 128
out that service . M 128
out new schemes . M 128
out his package . M 128
out his capital . M 128
out her sympathy . M 128
out each project . M 128
our own repairs . M 128
our own motives ? M 128
our own loyalty . M 128
our dear brothers . M 128
out this process ? M 127
out and succeed . M 127
out and altered . M 127
out with freedom . M 126
out them letters . M 126
out that concept . M 126
out his tactics . M 126
out his brothers . M 126
out but himself . M 126
out any secrets . M 126
our war vessels . M 126
our own keepers . M 126
our own infancy . M 126
our own diseases . M 126
our own captain . M 126
out this endeavor . M 125
out that request . M 125
out its pattern . M 125
out its inferior . M 124
out and collect . M 124
out and allowed . M 124
our real weakness . M 124
our own purpose ? M 124
our own profits . M 124
our new systems . M 124
our era onwards . M 124
our big brothers . M 124
out her windows . M 123
out for congress . M 123
out our marriage . M 122
out our mandate . M 122
out his phrases . M 122
out her treasure . M 122
out and lowered . M 122
out and forgive . M 122
out all religion . M 122
our way tonight . M 122
out for renewal . M 121
out with parents . M 120
out one himself . M 120
out his visitor . M 120
out his suicide . M 120
out for violence . M 120
our song together . M 120
our real problem ? M 120
our own problem ? M 120
our own phrases . M 120
our own emotions ? M 120
our own devices ! M 120
our dear country ? M 120
our dead friends ? M 120
out this episode . M 119
out that research . M 118
out one example . M 118
out new gardens . M 118
out its material . M 118
out his support . M 118
out his consent . M 118
out her trouble . M 118
our son together . M 118
our own volition ? M 118
our own pathways . M 118
our own masters ! M 118
our own council . M 118
our new friends ! M 118
out new thoughts . M 116
out its channel . M 116
out for attacks . M 116
out any research . M 116
out and widened . M 116
our way stopped . M 116
our top choices . M 116
our own disposing . M 116
our new visitor . M 116
our dying moments . M 116
out for culture . M 115
out our demands . M 114
out any letters . M 114
out any insects . M 114
out and recover . M 114
our own members ? M 114
our own function . M 114
our own century ! M 114
out our account . M 113
out for tonight ? M 113
out this deficit . M 112
out our promise . M 112
out his effects . M 112
out her opinions . M 112
out and recruit . M 112
our own thinkers . M 112
our key witness . M 112
out her beliefs . M 111
out this decision ? M 110
out this address . M 110
out that destiny . M 110
out our request . M 110
out her anxiety . M 110
out any windows . M 110
out and control . M 110
our way anymore . M 110
our sad affairs . M 110
our own verdict . M 110
our own illness . M 110
our men started . M 110
our few virtues . M 110
our age bracket . M 110
out its subject . M 109
out its mystery . M 109
out her partner . M 109
out and unloved . M 109
out new sources . M 108
out her motives . M 108
out for failure . M 108
out any defects . M 108
out and logical . M 108
our two volumes . M 108
our two parents . M 108
our own liberty ? M 108
our new writers ? M 108
our new emperor . M 108
our key results . M 108
our being related . M 108
out his worries . M 107
out her delight . M 107
out for capture . M 107
out and witness . M 107
out and improve . M 107
out with justice . M 106
out this passage ! M 106
out this marriage . M 106
out his delight . M 106
out his chances . M 106
out her enemies . M 106
out for society . M 106
our real language . M 106
our own society ! M 106
our own bravery . M 106
our old example . M 106
our new patient . M 106
our being cautious . M 106
our bad conduct . M 106
our age affords . M 106
out with concern . M 105
out its sources . M 105
out this routine . M 104
out our company . M 104
out his replies . M 104
out his counsel . M 104
out her prayers . M 104
out for religion . M 104
out each process . M 104
out both circles . M 104
our own journal . M 104
our own illusion . M 104
our own enemies ? M 104
our own effects . M 104
our own attempt . M 104
our new relation . M 104
our long journey ! M 104
our dead brothers . M 104
out was limited . M 103
out for exchange . M 103
out for decision . M 103
out with numbers . M 102
out two thousand . M 102
out our wounded . M 102
out its function ? M 102
out his verdict . M 102
out his present . M 102
out any solution . M 102
out and confess . M 102
our own shadows ? M 102
our own shadows ! M 102
our own prayers ? M 102
our own leisure . M 102
our own delusion . M 102
our own anatomy . M 102
out with respect . M 101
out and weakened . M 101
out and subdued . M 101
out and preached . M 101
out and noticed . M 101
out with silence . M 100
out two studies . M 100
out this impulse . M 100
out his penance . M 100
out for posters . M 100
out for oblivion . M 100
out and started . M 100
out and praised . M 100
out and married . M 100
our own samples . M 100
our own rewards . M 100
our own idealism . M 100
our near relation . M 100
our low spirits . M 100
our dry summers . M 100
out our location . M 99
out his journey . M 99
out her lantern . M 99
out each element . M 99
out and colored . M 99
out with letters . M 98
out that history . M 98
out new species . M 98
out its quality . M 98
out its falsity . M 98
out his madness . M 98
out his address ? M 98
out each quarter . M 98
out any figures . M 98
our real purpose ? M 98
our own respect . M 98
our own designs ? M 98
our own charity . M 98
our old natures . M 98
our old letters . M 98
our new college . M 98
our men escaped . M 98
out this trouble . M 97
out our picture . M 97
out his balance . M 97
out with wandering . M 96
out that freedom . M 96
out for privacy . M 96
out for oneself ! M 96
out and scatter . M 96
out and qualify . M 96
our top concern . M 96
our real emotions . M 96
our own utility . M 96
our own thoughts ! M 96
our own average . M 96
our old society . M 96
our new endeavor . M 96
our new beliefs . M 96
our meal tonight . M 96
out was measured . M 95
out his abdomen . M 95
out her function . M 94
out her concern . M 94
out each picture . M 94
out bad thoughts . M 94
out and erected . M 94
out and embrace . M 94
out and compare . M 94
our way outward . M 94
our two stories . M 94
our sad history . M 94
our own offerings . M 94
our own monarch . M 94
our own imagery . M 94
our own debates . M 94
our own culture ! M 94
our own address . M 94
our old grounds . M 94
our new function . M 94
our big concern . M 94
out too quickly ? M 93
out and rounded . M 93
out and ashamed . M 93
out two objects . M 92
out this comment . M 92
out our missions . M 92
out new devices . M 92
out its purpose ? M 92
out its program ? M 92
out its marvels . M 92
out its borders . M 92
out his process . M 92
out his machine . M 92
out for traffic ! M 92
out few details . M 92
out any reforms . M 92
our two factors . M 92
our path together . M 92
our own traffic . M 92
our own torment . M 92
our own producing . M 92
our own desires ! M 92
our own absence . M 92
our long neglect ? M 92
our dear friends ? M 92
our being married ? M 92
out with exertion . M 90
out this company . M 90
our path forward . M 90
our own passions ? M 90
our own futures ? M 90
our own consent ? M 90
our own brothers ! M 90
our men friends . M 90
our god together . M 90
our day started . M 90
out that matters . M 89
out its fallacy . M 89
out her profile . M 89
out for members . M 89
out are limited . M 89
out with trouble . M 88
out with gardens . M 88
out with benefit . M 88
out her fortune . M 88
out her demands . M 88
out any function . M 88
out and honored . M 88
our own quality . M 88
our own everything . M 88
our new purpose . M 88
our new country ! M 88
our men retired . M 88
out its problem . M 87
out her freedom . M 87
out with urgency . M 86
out with triumph . M 86
out with anymore . M 86
out our answers . M 86
out its absence . M 86
out his routine . M 86
out for revival . M 86
out but forward . M 86
out and relieve . M 86
out and achieve . M 86
out all desires . M 86
our wit affords ? M 86
our new history . M 86
our new country ? M 86
out his marriage . M 85
out his example . M 85
out and confirm . M 85
out two hundred . M 84
out this outline . M 84
out this balance . M 84
out our measures . M 84
out our liberty . M 84
out new effects . M 84
out both together . M 84
our weak efforts . M 84
our two buildings . M 84
our sad failure . M 84
our own company ! M 84
our own boredom . M 84
our new general . M 84
our men withdrew . M 84
our long inaction . M 84
our god himself . M 84
our dying friends . M 84
out his victory . M 83
out and inquire . M 83
out and annoyed . M 83
out with purpose . M 82
out with decision . M 82
out this insight . M 82
out his lessons . M 82
out his apology . M 82
out for oneself ? M 82
out all harmony . M 82
our top priority ? M 82
our own valleys . M 82
our own factors . M 82
our own attacks . M 82
our new masters ! M 82
our dying agonies . M 82
out its surface . M 81
out with slavery . M 80
out this revision . M 80
out any profits . M 80
our two writers . M 80
our real success . M 80
our own editors . M 80
our own depends . M 80
our own channel . M 80
our old quarter . M 80
our old company . M 80
our being depends . M 80
out and visible . M 70
out and everything ? M 65
out that passage . M 64
out for parents . M 64
out and together . M 61
out and trembling . M 59
out was illegal . M 58
out for adoption ? M 57
out and expired . M 57
out and revealed . M 52
out and complex . M 52
out and sniffed . M 51
out and pressed . M 51
out and matured . M 51
out for example . M 49
out and handled . M 49
out for repairs ? M 48
out for novelty . M 48
out are correct . M 47
out and withdrew . M 47
out and rewriting . M 47
out her virtues . M 46
out and unified . M 46
out for vessels . M 45
out and display . M 45
out was useless . M 44
out and decayed . M 44
out and damaged . M 44
out war program . M 43
out that instant . M 43
out and spoiled . M 43
out and claimed . M 43
out and blossom . M 43
out was correct . M 42
out its utility . M 42
out both windows . M 42
out and support . M 42
out and respond . M 42
out and exploring . M 42
out and clarify . M 42
out was perfect . M 41
out his concept . M 41
out and groaned . M 41
out and enacted . M 41
out our journey . M 40
out long division . M 40
out its support . M 40
out its partner . M 40
out its command . M 40
out are removed . M 40
out and refused . M 40
