out between them . M 24948
out against him . M 23495
out against them . M 21592
our present day . M 5624
our present age . M 5382
out towards him . M 4731
our present one . M 4282
out against her . M 3435
out against you . M 3139
out towards her . M 3129
our present era . M 2372
our parents did . M 2352
out towards them . M 2272
our research team . M 2108
out between you . M 2056
our greatest men . M 1758
our country too . M 1750
our gracious god . M 1530
our friends are . M 1482
our organic law . M 1360
our present law . M 1332
our country now . M 1296
our greatest poet . M 1240
our present being . M 1174
out certain things . M 1166
our wounded men . M 1098
out against this . M 1072
our enemies are . M 1060
our machine age . M 984
out against him ? M 976
out exactly why . M 892
our greatest joy . M 778
our ancient kings . M 734
our service area . M 730
our natural being . M 728
our northern sky . M 698
our objects are . M 692
our youngest son . M 686
out against them ? M 675
our thoughts are . M 660
out against that . M 653
our primary aim . M 650
our present lot . M 636
our message out . M 622
out against war . M 617
our parents had . M 610
out against god . M 609
our general use . M 604
our deepest being . M 592
our present use . M 574
our chances are ? M 560
our present earth . M 558
our greatest fear . M 552
our current era . M 552
our research area . M 550
our problem now . M 544
our position was . M 544
our honored dead . M 542
our passage out . M 530
our highest aim . M 530
out several things . M 524
out decades ago . M 519
our concern now . M 516
our parents are . M 508
out towards you . M 505
our present aim . M 504
our current one . M 496
our friends too . M 474
our private use . M 464
our company area . M 460
our country has . M 450
our society now . M 438
our supreme law . M 436
our position now . M 436
out between them ? M 432
out against you ? M 424
our friends now . M 420
our current age . M 420
our purpose now . M 416
out exactly how . M 414
our ancient law . M 412
our present path . M 406
our friends say ? M 406
our friends did . M 406
our problem too . M 404
our problem was . M 392
our sorrows heal . M 372
our language use . M 372
our present one ? M 352
our supreme end . M 350
our chances are . M 342
out towards god . M 341
our glorious dead . M 340
our written law . M 338
our subject area . M 338
our desired end . M 336
our marriage day . M 334
our greatest man . M 330
our faithful god . M 326
our enemies too . M 320
our complex being . M 318
our contact fear ! M 316
our website www . M 314
our eternal joy . M 312
our eternal being . M 308
our mystery man . M 298
our present head . M 292
our present woes . M 284
our highest joy . M 284
our culture does . M 284
our glorious god . M 282
our central sun . M 280
our beliefs are . M 280
our exceeding joy . M 278
our culture now . M 276
our bravest men . M 274
our country now ? M 272
our project team . M 270
our eternal god . M 268
our supreme head . M 266
out against that ? M 262
our journey out . M 260
our adopted son . M 260
out between you ? M 257
our present age ? M 254
our motives are . M 254
our detecting him . M 252
our declining age . M 248
our present day ? M 238
our pilgrim way . M 236
our choices are . M 236
out against sin . M 234
our certain death . M 232
out against her ? M 230
our greatest sin . M 230
our general area . M 230
our observing them . M 228
our marriage now . M 228
our current path . M 228
our country men . M 228
our greatest war . M 220
our society does . M 216
our patient doing ? M 216
our enemies say . M 216
our endless being . M 214
our product mix . M 210
our material being . M 210
our present war . M 206
our society has . M 204
our position now ? M 204
our highest end . M 204
our friends doing ? M 204
our natural man . M 202
our devotion are ? M 202
our results are . M 198
our country then ? M 198
our society too . M 196
our history too . M 196
our brothers dear . M 196
our control now . M 194
our language too . M 192
our subject now . M 190
our friends say . M 190
our country then . M 190
our rational being . M 188
out against them ! M 187
our present job . M 186
our outward man . M 186
our desires are . M 186
our deepest joy . M 186
out against you ! M 184
our soldier dead . M 184
our marriage was . M 184
our purpose was . M 182
our country yet . M 180
our journey east . M 174
our highest law . M 174
our country does . M 174
our climate now . M 174
our present area . M 172
our parents too . M 172
our natural end . M 172
our clients are . M 172
our blessed god . M 172
our freedom now . M 170
our species being . M 168
our present way . M 168
our precious son . M 168
our organic being . M 168
our friends die . M 168
our project area . M 166
our journey now . M 166
our culture too . M 166
our private law . M 164
our present joy . M 164
our present fix . M 164
our position then ? M 164
our general idea . M 164
our parents die . M 162
our primary key . M 160
our enemies now . M 160
our endless war . M 160
our northern men . M 158
our parents did ? M 156
our glorious head . M 156
our general law . M 156
our youngest boy . M 154
our receiving them . M 154
our rational age . M 154
our marriage too . M 152
our marriage law . M 152
our greatest foes . M 152
our freedom goes . M 152
our country was . M 152
our closest kin . M 150
our operating area . M 148
our northern air . M 148
our journey lay . M 148
our cynical age . M 148
our current law . M 146
our wounded man . M 144
our marriage day ? M 144
our freedom too . M 144
our decision then . M 144
out together now . M 142
our unhappy lot . M 142
our spirits fly . M 142
our society are . M 142
our service men . M 142
our private one . M 142
our culture goes . M 142
out against both . M 140
our spirits too . M 140
our country are . M 140
our schools now . M 138
our healthier air . M 138
our forward path . M 138
out against him ! M 137
our journey yet . M 136
our friends off . M 136
our support team . M 134
our primary one . M 134
our language does . M 134
our problem area . M 132
our following them . M 132
our current day . M 132
out against this ? M 130
our question now . M 130
our language yet . M 130
our passions die . M 128
our history now . M 128
our success now . M 126
our company law . M 126
out trapped air . M 124
our thoughts too . M 124
our precious things . M 124
our precious boy . M 124
our emotions are . M 124
our country now ! M 124
out between them ! M 122
our parents say ? M 122
our following him . M 122
our concern too . M 122
our ancient earth . M 122
our teachers are . M 120
our language now . M 120
our respect too . M 118
our primary job . M 118
our position too . M 118
our eternal death . M 118
our complex age . M 118
our southern sun . M 116
our greatest kings . M 116
our fifteen men . M 116
our fellows are . M 116
our efforts are . M 116
our decision now . M 116
our religion too . M 114
our parents say . M 114
out quickly now . M 112
our western way . M 112
our visitor was . M 110
our perfect man . M 110
our private war . M 108
our natural way . M 108
our gracious god ! M 108
our company does . M 108
out against death . M 106
our mystery man ? M 106
our friends now ? M 106
our passions are . M 104
our advance man . M 104
our accepting them . M 104
out against that ! M 102
our thoughts now . M 102
our peculiar way . M 102
our masters now . M 102
our chances now ? M 102
our program now . M 100
our opinions are . M 100
our efforts now . M 100
our college year . M 100
our believing them . M 100
our precious dead . M 98
our prayers too . M 98
our perfect day . M 98
our limited way . M 98
our affairs now ! M 98
our supreme aim . M 96
our friends had . M 96
our strengths are . M 94
our supreme being . M 92
our sources say . M 92
our schools are . M 92
our natures are . M 92
our mistake now . M 92
our country and . M 92
our contact man . M 92
our company was . M 92
our brothers too . M 92
out intense heat . M 90
our society going . M 90
our regular job . M 90
our position then . M 90
our natural head . M 90
our natural eye . M 90
our listening area . M 90
our increasing age . M 90
our friends are ? M 90
our country dear . M 90
our trouble was . M 88
our selfish way . M 88
our present sun . M 88
our prayers are . M 88
our natural one . M 88
our marriage going . M 88
our familiar one . M 88
our enemies are ? M 88
our country too ? M 88
our trouble now . M 86
our history too ! M 86
out together then . M 85
our stories out . M 84
our partner does . M 84
our marriage vow . M 84
our deepest fear . M 84
our current woes . M 84
our counsel die ? M 84
our company now . M 84
our wildest joy . M 82
our unaided eye . M 82
our talents lie . M 82
our society now ? M 82
our purpose too . M 82
our present day ! M 82
our heavenly one . M 82
our glorious death . M 82
our current job . M 82
our country one . M 82
our affairs for ? M 82
our trained men ? M 80
our service now . M 80
our present lot ? M 80
our present era ? M 80
our friends see . M 80
out against his . M 40
