our daily life . M 54233
our loved ones . M 22100
out right away . M 20014
our front door . M 15868
out after dark . M 12591
our whole life . M 11900
our inner life . M 9892
our first date . M 9866
our daily living . M 8992
our every move . M 7764
out quite well . M 7395
our moral life . M 6642
our human life . M 6466
our daily work . M 6368
our money back . M 5896
our earthly life . M 5784
our every need . M 5768
out every time . M 5354
our right hand . M 5154
our world view . M 5054
our hands full . M 4272
our spare time . M 4032
our later years . M 3940
our first stop . M 3790
our whole heart . M 3788
our front line . M 3756
our first home . M 3650
our inner self . M 3644
our scope here . M 3578
our daily food . M 3562
our worst fears . M 3274
our small town . M 3270
out rather well . M 2970
our lives here . M 2960
our first love . M 2844
out really well . M 2742
our daily life ? M 2642
our focus here . M 2586
out right here . M 2443
our minds work . M 2436
our whole body . M 2400
our first kiss . M 2262
out every week . M 2258
our field work . M 2148
out anything else . M 2132
our people here . M 2130
our first book . M 2092
our price range . M 2076
our civic life . M 2074
our lives away . M 2066
our sitting room . M 2064
our first duty . M 2044
our final goal . M 1992
our first baby . M 1986
our daily walk . M 1952
out right there . M 1948
our risen lord . M 1904
our mother died . M 1900
our first step . M 1890
our lives there . M 1882
our first trip . M 1876
our guard down . M 1846
our whole line . M 1826
our happy home . M 1824
out every month . M 1794
our father died . M 1770
our people there . M 1766
our moral ideas . M 1764
our adult life . M 1744
our people live . M 1676
our every step . M 1638
our front gate . M 1634
out every word . M 1604
our whole army . M 1576
our loved ones ? M 1566
our joint work . M 1558
our lives meaning . M 1508
our first game . M 1490
our civil wars . M 1472
our first time . M 1468
our moral code . M 1442
out after work . M 1302
out anything more . M 1271
our front room . M 1268
our mother said . M 1252
our short stay . M 1224
our hands free . M 1192
our later work . M 1176
our first date ? M 1174
our naked eyes . M 1150
out about even . M 1144
our every word . M 1140
out still more . M 1110
out again soon . M 1071
our happy union . M 1070
our daily fare . M 1062
our drawing room . M 1054
our whole duty . M 1030
our adult years . M 1028
our guest room . M 1026
out under fire . M 1025
our study here . M 998
our hearts glad . M 994
our whole land . M 986
our happy land . M 982
our first goal . M 972
our visit there . M 962
our moral duty . M 924
our money away . M 908
our hands here . M 908
out right away ? M 901
our meeting here . M 900
our point here . M 896
our daily meals . M 878
our morning walk . M 858
our first care . M 848
our first talk . M 846
our first case . M 844
our plans were . M 822
our outer life . M 806
our whole trip . M 804
our civil code . M 798
our money back ? M 794
out until dark . M 786
our field trip . M 784
our working life . M 782
our right side . M 774
our whole self . M 770
out until spring . M 768
out anything else ? M 766
our money back ! M 762
our inner peace . M 748
our earthly home . M 746
out under arms . M 744
our minds open . M 744
our lives also . M 744
our final home . M 742
out looking good . M 736
our lives back . M 724
our people cold . M 722
our topic here . M 720
our study areas . M 718
our every wish . M 716
our hands clean . M 710
our human kind . M 696
our visit here . M 694
our sides hurt . M 690
our hearts beating . M 688
our first line . M 684
our first years . M 682
our father said . M 682
our brave boys . M 682
our meeting room . M 670
our people need . M 662
our house down . M 662
our first show . M 662
our guide said . M 660
our first test . M 658
our cares away . M 656
our human body . M 650
our hands tied . M 648
our first clue . M 642
our dreaming mind . M 638
our first part . M 620
our civil life . M 618
out right away ! M 614
our party work . M 614
our whole case . M 606
our first breath . M 606
our first break . M 606
out until dawn . M 601
our people well . M 598
our costs down . M 590
our phone call . M 588
our mother land . M 586
out after dark ? M 584
our whole mind . M 582
our story ends . M 582
our lives were . M 582
our usual time . M 580
our story here . M 576
our lives anew . M 572
our whole plan . M 570
our spare room . M 570
our human eyes . M 570
our final rest . M 568
our front hall . M 566
our drive home . M 560
our daily acts . M 556
our study site . M 552
our people were . M 550
our inner life ? M 550
our daily toil . M 548
our daily living ? M 542
our worthy host . M 538
our house here . M 538
out quite soon . M 534
our later days . M 534
our human form . M 534
our right mind . M 528
our quiet life . M 528
our brief stay . M 528
our evening walk . M 524
our usual fare . M 520
our point clear . M 520
our mother says . M 520
our inner beings . M 520
our house there . M 518
out within days . M 514
our later life . M 510
our false self . M 506
our waiting list . M 504
our first call . M 504
our needs here . M 500
our first reading . M 500
out every hour . M 499
out really good . M 498
our small army . M 490
our power away . M 488
our hearts also . M 488
our group life . M 488
our first halt . M 488
our people have . M 486
our utter ruin . M 480
our total life . M 474
our front page . M 474
our civic duty . M 472
our hearts open . M 470
our happy days . M 470
our people back . M 464
our hands upon . M 464
our human mind . M 462
our place here . M 460
our royal hand . M 456
our quiet home . M 456
our growth rate . M 454
out about what ? M 453
out first hand . M 452
our people want . M 450
our plain duty . M 448
our waiting room . M 442
our every want . M 442
our voice heard . M 440
our human past . M 436
our first born . M 434
our older years . M 432
out anything more ? M 428
our whole tour . M 426
our hearts away . M 424
our coast line . M 424
our first move . M 422
our sense data . M 420
our first tour . M 420
our whole stay . M 418
our father says . M 418
our people down . M 416
our first step ? M 416
our first love ? M 416
our blood fail ? M 414
our quiet time . M 412
our first week . M 408
our whole work . M 406
our front door ? M 404
our loved ones ! M 402
our first trial . M 402
our people died . M 400
out weaker ones . M 399
out about life . M 398
our whole beings . M 398
our first rule . M 398
our abode there . M 398
our hearts upon . M 396
out human life . M 393
our local bank . M 390
our final hour . M 390
our working days . M 388
our first date ! M 382
our minds also . M 380
our inner truth . M 378
our house once . M 378
our hearts good . M 378
our basic ideas . M 378
out which ones . M 375
our legal code . M 370
our spare time ? M 368
our lower self . M 366
our human life ? M 366
our daily life ! M 366
out every other . M 364
our small talk . M 364
our lives work . M 364
our field data . M 364
our human will . M 362
our growing years . M 362
our lives take . M 358
our every breath . M 358
our thinking here . M 356
our front walk . M 356
our whole life ? M 354
our usual hour . M 354
our small arms . M 354
our first coming . M 354
our daily work ? M 354
out lower down . M 352
our minds only . M 352
our major goal . M 352
our inner work . M 352
our first name . M 352
our stand here . M 350
our working years . M 348
our meeting there . M 348
our first plan . M 348
our final word . M 348
our front door ! M 346
our evening meals . M 346
out either side . M 344
our people know . M 344
our guest here . M 342
our class work . M 342
our moral worth . M 340
our people free . M 338
our lives well . M 338
out every spring . M 337
our lives over . M 336
our human love . M 336
our every move ? M 336
our basic data . M 336
our ships there . M 334
our usual work . M 332
our staying here . M 332
our elder poets . M 332
our brave army . M 332
out which half . M 331
our whole life ! M 330
our small room . M 330
our happy life . M 330
our guest book . M 330
our final exam . M 330
our total self . M 324
our shell fire . M 322
our hearts pure . M 322
our action plan . M 322
our guide here . M 320
our getting there . M 320
our names down . M 318
our moral life ? M 318
our usual walk . M 316
our usual health . M 316
out again here . M 315
our moral theory . M 314
our getting away . M 314
our first work . M 314
out false hope . M 312
our guest list . M 312
our human need . M 310
our total ruin . M 306
our words nothing ! M 304
out after rain . M 301
our thinking life . M 300
out every time ! M 299
our later poets . M 298
our inner core . M 298
out after game . M 297
our gross eyes . M 296
our first term . M 296
out every step . M 295
out quite early . M 294
our whole past . M 294
our money there . M 294
our first poets . M 292
our earthly life ? M 292
our small size . M 290
our lives away ? M 290
our agent there . M 290
our after life . M 290
our whole time . M 286
our danger lies . M 286
our price list . M 284
out really fast . M 283
our lives hell . M 282
our evening fire . M 282
our hearts warm . M 280
our hungry eyes . M 278
our final good . M 278
our daily need . M 278
our learning there ? M 276
our earthly body . M 276
our running game . M 274
our major poets . M 274
our helping hand . M 274
out right ahead . M 270
our total wealth . M 270
our lives here ? M 270
our change come . M 270
out field work . M 267
out front here . M 266
our small home . M 266
our landing site . M 266
our first play . M 266
our first need . M 266
out first best . M 264
our final days . M 264
our party here . M 262
our moral ideal . M 262
our naked feet . M 260
our first birth . M 260
our usual life . M 258
our first walk . M 258
out comes back . M 256
our party life . M 256
our hunting trip . M 256
our growing city . M 256
out until late . M 254
out every move . M 254
our sitting down . M 252
our power base . M 252
our moral health . M 252
our lives upon . M 252
our first page . M 252
our first lady . M 252
out quite clear . M 250
our first jobs . M 250
our earthly years . M 250
our daily paths . M 250
out right here ! M 249
our first snow . M 248
out really nice . M 246
our first kiss ? M 246
our daily jobs . M 246
out right here ? M 244
our reason upon . M 244
our group work . M 244
our final hope . M 244
out human beings . M 243
out every drop . M 242
our small means . M 242
our inner eyes . M 242
out under load . M 238
our truer self . M 238
our hearts clean . M 238
our meeting time . M 236
our later years ? M 236
our holding here . M 236
our heaven here . M 236
our first youth . M 236
our first stop ? M 236
our first move ? M 236
our final game . M 236
our model here . M 234
our minds clear . M 234
our first jump . M 234
our class trip . M 234
our working time . M 232
our short list . M 232
our nursing care . M 232
our breaths away . M 232
our place there . M 230
our abode here . M 230
out rather late . M 228
our small city . M 228
our first pass . M 228
our earthly days . M 228
our small band . M 226
our parts well . M 226
our mother also . M 226
our money here . M 226
our hopes high . M 226
our final stop . M 226
our bones here . M 226
our people also . M 224
our happy ending . M 224
our whole city . M 222
our people home . M 222
our people here ? M 222
our first port . M 222
our dreams away . M 222
out about nine . M 220
out about jobs . M 220
our stand there . M 220
our solid body . M 220
our power back . M 220
our people away . M 220
our guard here . M 220
our power lies . M 218
our music room . M 218
our final breath . M 218
our older poets . M 216
our hands also . M 216
our front step . M 216
our first breath ? M 216
our class play . M 216
out quite loud . M 215
out nursing care . M 214
our short life . M 214
our party there . M 214
our human ways . M 214
our hands warm . M 214
out every stop . M 212
our traps shut . M 212
our running away . M 212
our party line . M 212
our human heart . M 212
our group here . M 212
our first fire . M 212
our final test . M 212
our every deed . M 212
out feeling good . M 210
out after nine . M 210
our older ones . M 210
our moral code ? M 210
out about these . M 209
our human reach . M 208
our first view . M 208
our final fate . M 208
our blind side . M 208
our world anew . M 206
our parting word . M 206
our bowed heads . M 206
our needs well . M 204
our input data . M 204
our hearts feel . M 204
our house clean . M 202
our frail bark . M 202
our first word . M 202
our final list . M 202
out rather early . M 200
our human living . M 200
our house away . M 200
out about here . M 198
our heroes gone ? M 198
our elder years . M 198
our bones there . M 198
our quiet town . M 196
our nursing home . M 196
our first loss . M 196
our engine room . M 196
our right hand ? M 194
our needs best . M 194
our moral acts . M 194
our final years . M 194
our crime rate . M 194
our author says . M 194
out cutting wood . M 192
our world view ? M 192
our cause here . M 192
out every game . M 191
out right well . M 190
our whole town . M 190
our power there . M 190
our moral will . M 190
our lives good . M 190
our action here . M 190
our whole theory . M 188
our turning back . M 188
our stuff back . M 188
our house also . M 188
our final ends . M 188
our father also . M 188
out large sums . M 187
out quite clean . M 186
our search there . M 186
our needs were . M 186
our lives more . M 186
our happy home ! M 186
our happy band . M 186
our error lies . M 186
out twice over . M 185
out first rate . M 184
our thinking mind . M 184
our party soon . M 184
our field trip ? M 184
our false gods . M 184
our daily talk . M 184
our walking tour . M 182
our plans here . M 182
our passing game . M 182
our basic unit . M 182
our tough luck . M 180
our period ends . M 180
our people gone ? M 180
our growing youth . M 180
our first month . M 180
our first days . M 180
our whole faith . M 178
our sleep time . M 178
our hopes rest . M 178
our hearts free . M 178
our hands full ! M 178
our hands away . M 178
out takes time . M 177
our world tour . M 176
our total health . M 176
our stuff away . M 176
our study time . M 176
our names were . M 176
our local life . M 176
our legal work . M 176
our after years . M 176
out after such ? M 174
our money went . M 174
our growing list . M 174
our daily reading . M 174
our daily duty . M 174
out looking great . M 172
our small fire . M 172
our human side . M 172
our first type . M 172
our first army . M 172
our earthly eyes . M 172
out front door . M 171
out after dark ! M 171
our whole heart ? M 170
our lasting home . M 170
our lasting good . M 170
our grief work . M 170
out anything there . M 169
our human self . M 168
our hearts more . M 168
out after wood . M 166
our world work . M 166
our table talk . M 166
our route home . M 166
our lives last . M 166
our human fate . M 166
our first fish . M 166
our first duty ? M 166
our close call . M 166
out quite late . M 164
out after more . M 164
our minds here . M 164
our knowing more ? M 164
our child away . M 164
our first flag . M 162
our father land . M 162
our daily ways . M 162
our child died . M 162
our watch list . M 160
our train left . M 160
our people think . M 160
our missing link . M 160
our lives past . M 160
our leader said . M 160
our father left . M 160
our evening reading . M 160
our basic goal . M 160
out quite wrong . M 158
our small ones . M 158
our field site . M 158
our blind eyes . M 158
our worst evil . M 156
our junior high . M 156
our moral ends . M 154
our lucky break . M 154
our human worth . M 154
our house soon . M 154
our hearts break . M 154
our basic theory . M 154
out twice more . M 153
our works here . M 152
our waiting arms . M 152
our people work . M 152
our people safe . M 152
our people feel . M 152
our mother ship . M 152
our grand tour . M 152
our first mate . M 152
our first list . M 152
our final doom . M 152
our cleaning lady . M 152
out winning teams . M 151
our story line . M 150
our right arms . M 150
our local areas . M 150
our hired girl . M 150
our final move . M 150
out small fish . M 148
out since dawn . M 148
out after food . M 148
our watch word . M 148
our voice mail . M 148
our people there ? M 148
our people came . M 148
our outer work . M 148
our first kill . M 148
our earthly realm . M 148
our civic life ? M 148
our people bold . M 146
our whole book . M 144
our white flag . M 144
our later ones . M 144
our inner pain . M 144
our hearts were . M 144
our error term . M 144
our class room . M 144
our books away . M 144
out about four . M 143
out getting laid . M 142
our world here . M 142
our whole meaning . M 142
our terms here . M 142
our goods away . M 142
our feeling life . M 142
our cause well . M 142
our brave army ! M 142
out after birth . M 141
out small ones . M 140
our state bird . M 140
our right road . M 140
our meeting hall . M 140
our house back . M 140
our given word . M 140
our first text . M 140
our first single . M 140
our final ruin . M 140
our every need ? M 140
our class time . M 140
our blood type . M 140
our order form . M 138
our major wars . M 138
our local union . M 138
our later time . M 138
our inner self ? M 138
our happy youth . M 138
our hands clean ? M 138
our guide book . M 138
our getting lost . M 138
our evening walk ! M 138
our small part . M 136
our risen lord ? M 136
our party also . M 136
our noble work . M 136
our minds busy . M 136
our meeting here ? M 136
our enemy also . M 136
our earthly love . M 136
our check list . M 136
out about love . M 135
out every angle . M 134
out about aids . M 134
our worst days . M 134
our world gone ? M 134
our story lies . M 134
our space ship . M 134
our reason only . M 134
our opening game . M 134
our meeting here ! M 134
our lands back . M 134
our hearts sick . M 134
out large areas . M 133
out while reading . M 132
our usual luck . M 132
our stuff there . M 132
our state life . M 132
our short trip . M 132
our paper work . M 132
our morning break . M 132
our hearts anew . M 132
our fourth date . M 132
our final leave . M 132
our cause there . M 132
out again soon ? M 130
out after work ? M 130
our plans ready . M 130
our plane home . M 130
our phone book . M 130
our local time . M 130
our lives here ! M 130
our human ills . M 130
our human birth . M 130
our hearts heavy . M 130
our glory days . M 130
our empty nest . M 130
out every time ? M 129
our space here . M 128
our house down ? M 128
our guide says . M 128
our first taking . M 128
our every hope . M 128
our basic plan . M 128
out first time . M 126
our thinking self . M 126
our sunny land . M 126
our right eyes . M 126
our place here ? M 126
our people good . M 126
our older boys . M 126
our minds upon . M 126
our human ends . M 126
our human duty . M 126
our hearts here . M 126
our goals were . M 126
our drive back . M 126
out until five . M 124
out every show . M 124
our women here . M 124
our vision clear . M 124
our pages even . M 124
our outer self . M 124
our noble host . M 124
our major ally . M 124
our local hero . M 124
our inner mind . M 124
our floor plan . M 124
our first life . M 124
our final step . M 124
our blood bank . M 124
our basic text . M 124
out front there . M 123
out forty years . M 122
our sweet will . M 122
our moral ones . M 122
our minds work ? M 122
our first hour . M 122
our first blow . M 122
our earthly home ! M 122
out quite pure . M 120
out months ahead . M 120
our willing feet . M 120
our usual game . M 120
our stuff here . M 120
our staying there . M 120
our noble hero . M 120
our mother went . M 120
our joint life . M 120
our happy home ? M 120
our hands hurt . M 120
our first hunt . M 120
our cries heard . M 120
our cause lost . M 120
out quite what . M 118
our whole debt . M 118
our people live ? M 118
our large room . M 118
our landing there . M 118
our hearts clean ? M 118
our hands tied ? M 118
our first hearing . M 118
our final plan . M 118
our earthly joys . M 118
our daily care . M 118
our asset base . M 118
out equal areas . M 116
our whole realm . M 116
our usual ways . M 116
our usual rate . M 116
our state here . M 116
our right feet . M 116
our reason also . M 116
our mother left . M 116
our minds free . M 116
our hands down . M 116
our daily food ? M 116
our basic faith . M 116
out every fire . M 115
our usage here . M 114
our study hall . M 114
our plans some . M 114
our mother away . M 114
our hired help . M 114
our drive down . M 114
our blind date . M 114
out seven years . M 112
our plans fail . M 112
our morning rest ? M 112
our hearts cold . M 112
our first ones . M 112
our every need ! M 112
our blood flow . M 112
out really late . M 111
out paper work . M 110
out fully here . M 110
out forty days . M 110
out about work . M 110
our water hole . M 110
our total cost . M 110
our small town ? M 110
our small self . M 110
our prime duty . M 110
our moral duty ? M 110
our human ideal . M 110
our honor clean . M 110
our hearts among . M 110
our first love ! M 110
our first look . M 110
our first hope . M 110
our alter egos . M 110
out every view . M 108
out about those . M 108
our story told . M 108
our moral self . M 108
our money down . M 108
our group there . M 108
our force there . M 108
our final goal ? M 108
our daily walk ? M 108
our cause harm . M 108
our sweet home . M 106
our money away ? M 106
our large city . M 106
our human realm . M 106
our hearts fell . M 106
our frail bark ! M 106
our final rest ? M 106
our final exit . M 106
our earthly life ! M 106
our cloak also . M 106
out about nothing . M 105
out until fall . M 104
out sitting down . M 104
out rather wrong . M 104
our views were . M 104
our passing away . M 104
our moral good . M 104
our minds back . M 104
our lives have . M 104
our human ones . M 104
our guilt away . M 104
our first years ? M 104
our first time ? M 104
our first ideas . M 104
our daily ways ? M 104
our working theory . M 102
our usual form . M 102
our sworn duty . M 102
our sitting room ? M 102
our people will . M 102
our music making . M 102
our lived life . M 102
our lines were . M 102
our input file . M 102
our first theory . M 102
our enemy here . M 102
our daily mail . M 102
our basic aims . M 102
out every fall . M 100
our words good . M 100
our whole heart ! M 100
our water clean . M 100
our trail once . M 100
our thinking also . M 100
our point home . M 100
our parting hour . M 100
our noble game . M 100
our noble army . M 100
our night halt . M 100
our morning swim . M 100
our landing here . M 100
our growing edge . M 100
our goods there . M 100
our first making . M 100
our backs upon . M 100
our author here . M 100
out sitting here . M 99
out every week ? M 98
our usual food . M 98
our times only . M 98
our strong arms . M 98
our quiet days . M 98
our period also . M 98
our people only . M 98
our noble ship . M 98
our modem life . M 98
our inner fears . M 98
our grand army . M 98
our false ideal . M 98
our every move ! M 98
our debts there . M 98
our beauty rest . M 98
out older ones . M 97
out really great . M 96
out quite full . M 96
out after five . M 96
our study room . M 96
our story time . M 96
our solid food . M 96
our river trip . M 96
our print shop . M 96
our power ends . M 96
our moral anger . M 96
our lives turn . M 96
our getting home . M 96
our father died ? M 96
our every cell . M 96
our action plan ? M 96
out quite nice . M 94
out about these ? M 94
our worst time . M 94
our upper room . M 94
our uneasy heads . M 94
our start line . M 94
our pride gone . M 94
our people said . M 94
our noble city . M 94
our names wrong . M 94
our legal theory . M 94
our legal life . M 94
our later love ? M 94
our goals here . M 94
our getting along . M 94
our first ship . M 94
our equal here ! M 94
our daily walk ! M 94
our daily breath . M 94
our bones clean . M 94
our black youth . M 94
our action there . M 94
out anything here . M 93
out eight years . M 92
our waiting eyes . M 92
our usual ones . M 92
our train fare . M 92
our times also . M 92
our state flag . M 92
our opening show . M 92
our lives rest . M 92
our lives much . M 92
our lives down . M 92
our house down ! M 92
our hearts speak . M 92
our goods here . M 92
our first kiss ! M 92
our first food . M 92
our empty room . M 92
our count there . M 92
our closing time . M 92
our class book . M 92
our child back . M 92
out weeks ahead . M 90
out about mine . M 90
our usual plan . M 90
our trips there . M 90
our state room . M 90
our rules here . M 90
our river fish . M 90
our night rest . M 90
our money well . M 90
our major aims . M 90
our loose ends . M 90
our lands here . M 90
our human ideas . M 90
our human acts . M 90
our happy hour . M 90
our first tree . M 90
our first ally . M 90
our basic need . M 90
out quite good . M 89
our train trip . M 88
our terms clear . M 88
our story says . M 88
our route here . M 88
our power here . M 88
our plant life . M 88
our phone line . M 88
our people nothing . M 88
our people left . M 88
our people hurt . M 88
our people face . M 88
our mother come ? M 88
our minds more . M 88
our local boys . M 88
our large game . M 88
our human life ! M 88
our front view . M 88
our first union . M 88
our first rest . M 88
our first meet . M 88
our first load . M 88
our earthly date . M 88
our deadly fire . M 88
our daily uses . M 88
out daily life . M 86
our train home . M 86
our quiet ways . M 86
our money gone . M 86
our major mode . M 86
our house next . M 86
our house like ? M 86
our given name . M 86
our black list . M 86
out until three . M 85
out seven more . M 84
out right soon . M 84
out every part . M 84
out about mark . M 84
our short walk . M 84
our ships were . M 84
our plans there . M 84
our people pass . M 84
our morning talk . M 84
our moral view . M 84
our lives move . M 84
our later ages . M 84
our hopes upon . M 84
our fourth army . M 84
our father dies . M 84
our black hole . M 84
out under there . M 82
out sweet land . M 82
our white ones . M 82
our study also . M 82
our store room . M 82
our stand clear . M 82
our royal line . M 82
our route back . M 82
our right also . M 82
our point well . M 82
our names there . M 82
our morning wash . M 82
our moral side . M 82
our minds away . M 82
our lives safe . M 82
our lives lack . M 82
our large self . M 82
our human years . M 82
our house door . M 82
our hearts yearn . M 82
our guiding line . M 82
our goods over . M 82
our first post . M 82
our first home ! M 82
our favor here . M 82
our evening fire ! M 82
our blood ties . M 82
out every room . M 80
our words away . M 80
our views here . M 80
our story there . M 80
our staying here ? M 80
our search here . M 80
our mother back . M 80
our miles deep . M 80
our longer stay . M 80
our large army . M 80
our human time . M 80
our hearts jump . M 80
our guest book ? M 80
our group said . M 80
our getting back . M 80
our every care . M 80
our earthly time . M 80
our basic food . M 80
our abode here ? M 80
out hunting game . M 65
out every line . M 58
out seven days . M 51
out raising hell . M 50
out action plan . M 50
out civil wars . M 45
out getting food . M 41
