psalm is one of D 2219
psalm or song of D 462
psalm is that the D 286
psalm is not the D 270
psalm is that of D 226
psalm is sung by D 220
psalm is not to D 210
psalm as one of D 205
psalm is sung in D 190
psalm is that it D 164
psalm to read to D 96
psalm we read of D 86
