eat at one time M 2578
eat at any time M 2328
eat it with your M 2218
eat of any tree M 2132
eat of that tree M 1875
eat of this tree M 1851
eat it with their M 1786
eat up all your M 1684
eat up all their M 1494
eat if you want M 1450
eat at that time M 1298
eat at this time M 1270
eat it with great M 1183
eat the meat from M 1158
eat up too much M 1078
eat in his room M 912
eat in her room M 882
eat in two days M 856
eat if you have M 752
eat to his heart M 742
eat or how much M 708
eat if they were M 700
eat of this food M 622
eat if you were M 614
eat at this hour M 609
eat in each other M 544
eat the dog food M 536
eat it you will M 522
eat of his food M 494
eat of his body M 494
eat at that hour M 492
eat up each other M 482
eat the new food M 478
eat in his life M 466
eat at any hour M 455
eat it with some M 424
eat at all during M 424
eat on one side M 420
eat it and like M 412
eat in this town M 377
eat it any more M 374
eat at any other M 364
eat at each other M 350
eat it and have M 334
eat the dead body M 330
eat my own food M 330
eat it with much M 329
eat as they were M 326
eat in this room M 322
eat of any food M 320
eat it and live M 320
eat or you will M 317
eat if you like M 316
eat at his home M 306
eat at all when M 306
eat in any case M 305
eat if they have M 292
eat or are eaten M 291
eat it that says M 290
eat it and make M 286
eat it too fast M 281
eat in our room M 278
eat in any other M 262
eat in one week M 260
eat to our heart M 250
eat of one tree M 250
eat it they will M 244
eat of any other M 236
eat in his home M 234
eat up our food M 232
eat it for your M 230
eat it and said M 230
eat if you wish M 220
eat the big fish M 218
eat if you will M 216
eat up not only M 215
eat of that food M 214
eat of this fair M 208
eat if they want M 208
eat the meat when M 206
eat in this part M 202
eat in one room M 202
eat as they gave M 196
eat of our food M 194
eat is not only M 193
eat it with such M 192
eat of each other M 190
eat at her hand M 190
eat so you will M 188
eat at our next M 186
eat it and will M 184
eat so that your M 182
eat it and give M 182
eat to her heart M 180
eat in this life M 180
eat as they want M 180
eat of that fish M 176
eat it with good M 176
eat up all those M 174
eat as you like M 171
eat no meat during M 170
eat it any time M 166
eat as they wish M 166
eat as they went M 166
eat is not good M 164
eat in that time M 162
eat at meal time M 162
eat at you like M 159
eat to get your M 158
eat it and find M 156
eat it and went M 154
eat if she were M 154
eat up our time M 152
eat it and when M 150
eat as they like M 150
eat it and take M 148
eat at any rate M 148
eat or sit down M 145
eat do not have M 144
eat by that time M 144
eat to his fill M 138
eat it any other M 138
eat the dead fish M 136
eat it this time M 135
eat it too when M 134
eat as you want M 134
eat the dry food M 132
eat on that side M 132
eat or lie down M 130
eat of this body M 130
eat in this city M 130
eat at him like M 130
eat up his time M 129
eat the bad food M 128
eat or they will M 128
eat it and keep M 128
eat the real body M 122
eat the lead pair M 122
eat it than those M 122
eat it and thank M 120
eat it and feel M 120
eat on this side M 118
eat at her home M 118
eat up his body M 116
eat the east wind M 116
eat the cat food M 116
eat of any kind M 116
eat it with less M 116
eat in our home M 116
eat by his side M 116
eat as they walk M 116
eat of all those M 114
eat to his single M 112
eat it for just M 112
eat it and leave M 112
eat up his food M 110
eat of that over M 110
eat of all winged M 110
eat in her home M 110
eat is far more M 109
eat up her food M 108
eat on this trip M 108
eat me with your M 108
eat it for their M 108
eat as you wish M 108
eat of that kill M 107
eat of this fish M 106
eat it you must M 106
eat in that room M 106
eat at his heart M 106
eat as any other M 106
eat so that their M 105
eat the old ones M 104
eat or how many M 104
eat it you have M 104
eat it and there M 104
eat in her life M 104
eat as you have M 104
eat the bad ones M 102
eat no meat these M 102
eat it with fish M 102
eat it out here M 102
eat it for days M 102
eat it but once M 102
eat it and think M 102
eat in this land M 102
eat as and when M 102
eat of any living M 100
eat of them till M 99
eat to get well M 98
eat my own heart M 98
eat it too soon M 98
eat it and also M 98
eat in his hand M 98
eat if you feel M 98
eat up all these M 94
eat it with tears M 94
eat it and those M 94
eat as you walk M 94
eat up our land M 92
eat so they will M 92
eat up this town M 90
eat me you will M 90
eat it with other M 90
eat or get eaten M 88
eat as they have M 88
eat it and what M 86
eat it all week M 84
eat it with more M 83
eat it for three M 83
eat if they feel M 83
eat the red ones M 82
eat the big ones M 82
eat or bring food M 82
eat it and even M 82
eat in our food M 82
eat if you dare M 82
eat at this rate M 82
eat is not very M 81
eat of all these M 80
eat it and some M 80
eat in all those M 80
eat by this time M 80
eat of this bread D 14638
eat of that bread D 9062
ear to his mouth D 2608
eat the ice cream D 2574
ear on each side D 2066
ear to all their D 1852
ear to his lips D 1800
ear on one side D 1749
ear to hear what D 1716
ear to her mouth D 1708
eat an ice cream D 1697
eat of his bread D 1607
ear to her lips D 1348
ear to all these D 1342
ear on that side D 1322
ear in his hand D 1026
ear to all such D 988
ear is not heavy D 884
ear to his heart D 866
eat my own bread D 700
ear up and back D 651
ear to her heart D 644
ear of his wife D 640
ear to his suit D 632
ear to his chin D 626
ear to his pleas D 604
ear to any such D 592
eat an egg laid D 580
ear is not only D 575
ear to one side D 562
ear of his sons D 550
eat in new york D 542
ear is not very D 514
ear to his wife D 486
ear of his heart D 482
ear to his left D 474
eat of one bread D 440
ear as they were D 438
eat it with milk D 434
ear to hear their D 434
eat my ice cream D 390
eat it with salt D 388
ear in his mouth D 388
ear or any other D 384
ear to her pleas D 378
eat at her desk D 377
ear in one hand D 374
ear in his teeth D 366
eat it with bread D 362
ear of all their D 362
eat at his desk D 358
ear is not able D 354
ear of red corn D 346
ear at any time D 340
ear to any bell D 334
ear is far more D 331
ear to any other D 326
ear of that side D 324
ear as they went D 320
ear of his soul D 316
eat of our bread D 312
ear in this case D 312
ear at this time D 310
eat it with rice D 300
ear of our lord D 298
ear in each hand D 282
ear to all other D 278
ear at that time D 268
ear of his young D 264
ear of rye will D 258
ear as his hand D 256
eat my own lamb D 252
ear as she bent D 252
ear to all those D 248
ear at any rate D 244
ear of his mind D 232
ear in her hand D 231
ear to her door D 230
eat of her bread D 224
ear to his nose D 224
ear in her mouth D 222
ear as she went D 220
ear as she said D 220
ear of his host D 218
ear as she took D 218
eat the dry bread D 215
ear of one side D 212
ear as they came D 210
ear of his next D 208
ear as they made D 208
ear to her chin D 204
ear as she held D 200
eat of one dish D 198
ear to each other D 198
eat the new yams D 196
eat the hot dogs D 196
ear to that hole D 196
eat of one loaf D 192
ear the one word D 192
ear of our hero D 192
eat in one bite D 190
ear as she came D 190
eat the new corn D 188
ear to hear your D 186
ear is too great D 186
ear do not seem D 186
ear of that great D 184
eat my dry bread D 182
ear to her neck D 182
ear to her good D 180
eat the new rice D 174
ear is not shut D 170
ear on his left D 168
ear of our heart D 168
ear in two ways D 168
ear at one time D 168
ear to this call D 166
ear to his door D 166
ear on its back D 162
ear to all pleas D 160
ear as they left D 160
eat the new crop D 158
ear of his mate D 158
eat it with cream D 156
eat of this dish D 154
ear is not good D 154
ear to this poor D 152
ear on this side D 152
ear by its dull D 150
eat of that dish D 148
ear of dry corn D 145
eat is not bread D 144
ear if you have D 144
ear to her back D 143
ear is not well D 142
ear is far from D 142
ear if you want D 142
eat the hot food D 140
ear so that only D 140
ear or eye pain D 140
ear of sir john D 140
ear he had been D 136
eat of any dish D 132
ear is cut into D 132
ear to her nose D 130
eat in this dump D 128
ear to our pleas D 128
ear as you talk D 126
eat the meat loaf D 125
ear to each side D 124
ear so that none D 124
ear of this aged D 124
ear in his left D 123
ear to his tale D 122
eat in our mess D 120
eat at his hearth D 120
ear to this kind D 120
ear to see what D 120
ear in this room D 120
ear to his call D 118
ear to his back D 118
eat it one bite D 116
ear to his face D 114
ear to all your D 112
ear of oak knew D 112
ear of any other D 112
ear at its base D 112
ear as she made D 112
ear as she left D 112
ear is far less D 111
eat it raw when D 110
ear in her teeth D 110
eat in our dining D 108
ear of his corn D 108
eat the raw fish D 106
eat the fat from D 106
ear to its mouth D 106
ear of that sick D 106
ear as his lips D 106
ear as his arms D 106
ear is not more D 105
ear or his nose D 104
ear of this young D 104
ear in that sage D 104
eat the one bread D 102
eat at his soul D 102
ear to his word D 102
ear to hear these D 102
ear of his time D 100
ear it has been D 100
ear as she gave D 100
ear as she felt D 100
ear of our host D 98
ear of one type D 98
ear as his mouth D 98
ear is not like D 96
ear by his wife D 96
ear at this early D 96
ear at him from D 96
eat the fat ones D 94
ear so that when D 94
ear or his heart D 94
ear is not just D 94
ear at each word D 94
ear as she rose D 94
eat up our bread D 92
eat of this herb D 92
eat it for bringing D 92
ear of raw corn D 92
ear if they were D 92
eat it and throw D 90
ear of his great D 90
ear of new york D 89
eat as they rode D 88
ear to her face D 88
ear or his tail D 88
ear of her heart D 88
eat it raw like D 86
eat at his club D 86
ear to any tale D 86
ear on his heart D 86
ear is not pure D 86
ear is not dull D 86
ear as his eyes D 86
ear by its very D 85
ear so that there D 84
eat up with rust D 82
eat at this feast D 82
ear to his talk D 82
ear to any idle D 82
ear of man heard D 82
ear by this time D 82
eat the raw heart D 80
eat the bad bugs D 80
ear to that part D 80
ear at all nice D 80
ear up and down D 51
ear to her left D 51
ear is for hearing D 51
ear is not much D 50
eat or wear away D 44
ear to hear more D 41
