earth round the sun M 17103
east coast of new M 14813
each stage of its M 14482
earth about the sun M 14041
each stage of his M 13252
each stage of this M 10970
earn money to buy M 9874
earn money to pay M 9334
earth turns on its M 7594
east coast as far M 5801
each drawn by six M 5692
each entry in this M 5660
each point in this M 5230
each group of two M 5105
each party to this M 4952
each point on this M 4888
each stage in this M 4758
each equal to one M 4688
each phase of this M 4484
each point of this M 4472
each issue of this M 4464
each stage of our M 4286
each point of its M 4234
each group of ten M 4201
east river in new M 4025
each group of six M 3981
each phase of his M 3808
each class of things M 3784
each class of its M 3632
each piece of meat M 3591
each group of men M 3590
earth moves in its M 3506
each child in his M 3382
each drawn by two M 3360
each group is then M 3356
earth which is not M 3286
easy place to get M 3268
each group in its M 3252
each group in each M 3236
each phase of its M 3144
east where the sun M 3132
each group so that M 3128
each party in each M 3060
each stage in its M 2920
earth which he had M 2909
each period of ten M 2838
each party to pay M 2772
each morning to see M 2600
earth where the sun M 2543
each group is not M 2490
each stage of her M 2488
each point in its M 2448
each child so that M 2404
each holding in his M 2356
each state on any M 2288
each group to read M 2244
each child in each M 2212
each child of god M 2181
each issue on its M 2178
each child in her M 2168
east coast of this M 2150
east after the war M 2139
each morning at six M 2115
each state in its M 2102
each period of his M 2072
each ruled by its M 1988
each party to bear M 1982
each morning to get M 1964
each stage in his M 1902
each state in this M 1892
easy chair in his M 1888
earth which he has M 1882
each reader of this M 1882
each thrust of his M 1860
each child to bring M 1856
earn money so that M 1854
eating anything at all M 1852
each group at each M 1800
each class in each M 1794
each headed by its M 1776
each plant to each M 1742
each party in its M 1714
each tried to get M 1708
each essay in this M 1708
each group on each M 1704
each cause of death M 1700
each period of its M 1698
east coast of that M 1696
each piece of real M 1668
each stage of that M 1636
earth where it was M 1632
each based on one M 1630
each share by its M 1626
each class of men M 1596
each night so that M 1590
each morning he was M 1590
each night in his M 1574
each piece so that M 1554
each stage so that M 1550
each morning in his M 1540
each morning as she M 1506
earth where he had M 1504
each child to read M 1504
each tries to get M 1480
each phase of our M 1466
each piece in its M 1460
each working in his M 1442
each morning so that M 1440
each piece of this M 1426
each headed by one M 1423
each state of its M 1422
each state to set M 1418
east where it was M 1416
easy grace of his M 1408
each share of its M 1406
earth after it has M 1400
earth until the end M 1374
each morning the sun M 1374
each child to use M 1370
each point on its M 1358
each share of old M 1356
each point in each M 1356
each story in this M 1354
each state by its M 1352
each layer to dry M 1328
each woman in her M 1324
each guest to bring M 1306
each piece of his M 1304
each touch of his M 1300
east where he had M 1298
each child in this M 1292
earth where he was M 1290
each party to its M 1284
each morning on his M 1276
each child to his M 1272
each morning as they M 1270
each point in his M 1264
each phase of each M 1264
each group to see M 1248
each morning it was M 1238
each group in this M 1236
each party in this M 1220
each pupil in his M 1218
each block is then M 1204
each stage of each M 1196
each piece is then M 1196
each state of this M 1194
each group to use M 1194
each night as she M 1190
each piece of new M 1188
each period of six M 1184
each point on each M 1180
each state is not M 1178
each night it was M 1176
each night he had M 1164
each party to any M 1160
earth turning on its M 1154
each value of each M 1152
each group of them M 1152
each class is then M 1142
earn money by doing M 1130
each party is not M 1130
each period so that M 1126
each point of his M 1122
each change of one M 1119
each stage is not M 1110
each night as they M 1110
each state in each M 1102
each night he was M 1092
each class so that M 1092
each group to its M 1086
each working in its M 1084
each state to its M 1076
each pupil in each M 1074
each morning he had M 1070
east where he was M 1065
each point to its M 1064
each class in its M 1056
each morning to his M 1040
earth equal to that M 1035
each period of use M 1018
each morning at ten M 1009
earth until it was M 1002
earth stand in awe M 1000
each child at his M 996
each author in this M 996
each point of law M 992
each event in its M 992
each state of our M 990
each group as they M 990
east river at new M 988
each party at any M 986
each point in one M 984
each based on its M 980
each night to see M 976
each state so that M 975
earth until the day M 960
earn money in this M 960
east river to new M 957
each child is not M 954
each value of this M 952
earth which is our M 944
each group do not M 944
each phase of her M 940
each child in our M 940
earth meets the sky M 936
each child is doing M 936
each evening at six M 934
each woman as she M 932
each group to get M 926
each child on his M 920
each about as big M 904
each group of new M 900
each field in each M 900
each piece as you M 898
earn anything at all M 894
each child to see M 894
each point of that M 893
each child at each M 890
each holds in his M 886
each point of one M 878
each piece is cut M 876
earth belong to god M 874
easy smile on his M 860
each class is not M 854
each action of his M 854
easy grace of her M 850
each class of them M 850
earth where we are M 842
each topic in this M 834
east which he had M 832
each table so that M 830
each child on each M 830
each block so that M 828
each count as one M 824
each period of our M 820
each issue of each M 818
each force by its M 818
each woman of you M 816
each eight or ten M 813
easy method to use M 812
earth where it had M 808
each point is then M 808
each point so that M 806
each value in this M 804
easy until he had M 800
earn money to get M 800
each night to his M 798
each party of its M 796
each class of each M 790
each value of one M 786
earth where we can M 782
each class of non M 782
each drawn by one M 780
each child as they M 774
earn money by his M 772
each stand in his M 770
each seems to say M 768
each morning as you M 768
each child of his M 768
each state is its M 764
each paper in this M 754
east until the end M 753
earth which he hath M 751
east since the end M 743
each point on one M 740
each layer so that M 736
each point on that M 732
each morning we had M 732
each valid in its M 720
each group to one M 720
each piece in this M 718
each child to say M 718
easy about my new M 716
earth belong to all M 712
each floor of each M 710
each plant so that M 708
each point in that M 706
each morning the men M 704
each class in this M 702
each state is then M 700
each period of two M 700
each change in his M 700
east point of new M 697
each ruled by one M 697
each stage in our M 696
each actor on his M 694
earth after it had M 693
earth which it has M 692
each point of each M 692
each frame so that M 692
each point in our M 690
easy words to say M 688
each holding an end M 688
each group to act M 686
each motion of his M 678
each group of one M 678
each entry of this M 678
earth which is now M 676
each night in her M 676
each verse of this M 672
each piece of her M 672
each about as long M 665
east river to long M 664
each state to all M 664
each point of our M 662
each ended up with M 660
each block in this M 660
earth while he was M 659
each state at each M 658
each period of one M 657
east sides of this M 654
each child is then M 654
each focus on one M 652
east coast is not M 650
each evening to his M 650
each woman in this M 648
each evening to see M 648
each child in its M 646
each plant in each M 642
each piece of gear M 639
each working on his M 638
each piece to its M 638
each entry in each M 638
each child to put M 634
each night we had M 626
each meeting so that M 624
each issue of his M 624
each state to act M 620
each night he goes M 620
each period is not M 618
each child to get M 616
earth shall eat and M 614
each holding the end M 614
each group the mean M 614
east coast to new M 612
each value by its M 612
each group by its M 612
easy entry of new M 610
each group is led M 606
earth while the earth M 601
each holding an arm M 601
each field so that M 600
each layer of this M 598
each point of use M 594
earth where it has M 591
each group is going M 590
easy people to get M 586
each might do for M 586
earth which we can M 585
ease which he had M 584
each value is mean M 584
each period of each M 584
east coast by way M 582
earth until he has M 582
each evening so that M 578
each night at ten M 577
earn money in any M 574
each point as you M 574
each phase so that M 574
each equal to two M 574
easy method of doing M 570
east coast it was M 570
earth opens up and M 570
each party is both M 570
each morning to read M 570
earth after he had M 566
each child as she M 564
each study in this M 562
each party to act M 560
each layer is then M 560
each state of each M 558
east until it was M 556
earth beneath or that M 552
each party in his M 552
easy chair in her M 548
each touch of her M 548
each phase is not M 548
earth while it was M 546
each point is one M 546
each event in this M 546
each pupil so that M 544
each lives in his M 542
each author is not M 542
east after the death M 541
each state in our M 540
each speaking in his M 540
each party is then M 540
each author in his M 538
each cycle so that M 536
each state on its M 534
each phase in this M 534
each morning at his M 534
earth which do not M 524
earth under the sky M 524
each state in that M 522
each pupil to read M 522
each child in that M 519
ease until he had M 516
each party to get M 516
each equal to that M 516
each proud of its M 514
earth since it was M 512
each holding in her M 512
each topic so that M 508
each place he was M 508
east point of this M 506
each people in its M 506
each point is not M 504
each point is mean M 504
each plant in its M 504
each layer as you M 504
each holding in its M 504
earth where the dead M 501
east where it had M 500
each state to pay M 500
each night of his M 500
each child in one M 496
earth where he can M 494
each cycle of this M 494
each night on his M 490
each morning on her M 490
each block of ten M 490
earth where he has M 486
earth until he had M 486
each group of its M 484
each floor so that M 484
each field of each M 484
each state as its M 482
each house in his M 482
each guest as they M 482
each evening in his M 482
each morning the two M 479
each willing to pay M 478
each evening as they M 478
easy people to deal M 476
each state to see M 476
each state or for M 476
each night as you M 476
each group to each M 476
each event in our M 476
earth which we now M 474
each stage we are M 474
each pupil in one M 473
east about the year M 472
each state to deal M 472
each field in this M 472
earth given to him M 470
each party to see M 470
each breed of dog M 470
each working on its M 468
each state to fix M 468
each color in each M 466
each night to get M 464
each group is doing M 464
each motion of her M 462
each piece of our M 460
each power of ten M 458
each order is for M 458
each morning in her M 458
each group is now M 458
each twice as long M 455
each issue of its M 454
each group on its M 454
earth after the death M 452
each tried to put M 452
each entry in that M 452
each actor in this M 452
each party to use M 450
each morning he and M 450
easy until he has M 448
each party or his M 448
easy method of dog M 446
earth where it can M 446
each wants to get M 446
each house to put M 446
each cycle of its M 446
each class to its M 446
each morning to hear M 442
each working at his M 440
each house to see M 440
easy chair to read M 438
earth under the sun M 435
earth where the air M 434
each power to its M 434
each evening it was M 432
each party to bring M 428
each morning by her M 428
ease which it had M 424
each state to use M 424
each state as being M 424
each phase of that M 422
each belong to one M 422
each topic is not M 420
each entry so that M 420
eating alone or with M 418
each input to each M 418
each evening he was M 418
earth breaks up and M 416
each period in each M 416
each lived in his M 416
east until he was M 414
each pupil to bring M 414
each class at each M 414
each child in all M 414
each aware of his M 414
easy though it may M 413
east coast to see M 412
each value of and M 412
each party to put M 412
each alone in his M 412
east coast of our M 410
earth could it mean M 408
each visit so that M 408
each layer of each M 408
each joint of each M 408
each holding in one M 408
each action of our M 408
each season in its M 406
each party of his M 406
each house in its M 404
each owned by one M 402
each piece on its M 400
each house so that M 400
each evening as she M 400
each block of this M 400
each seeking to get M 398
each image so that M 398
each class of his M 398
east river of new M 396
earth which it had M 396
each power in its M 396
each point of any M 396
each color in its M 396
earth where no one M 394
each night in one M 393
each pupil in her M 392
each night in our M 392
each event to its M 392
each resting on its M 390
each thinks of his M 388
each plant in this M 388
each keeping to his M 388
each evening on his M 388
each change in its M 388
each period in its M 386
each morning to buy M 386
east after the end M 385
each night the sun M 383
each stage in each M 382
each morning to her M 382
easy price to pay M 380
each visit to his M 380
each piece to fit M 380
each period of this M 380
each party on its M 380
each night the men M 378
ease until he has M 376
earth which he was M 376
each thinks he has M 376
each group is thus M 376
each block of six M 376
each stage of man M 375
east river as far M 374
each equal to and M 374
easy grace of one M 370
each pupil on each M 370
each issue so that M 370
each group to try M 370
each block is not M 370
earth until it has M 368
each tried to win M 368
each layer in this M 368
earth moves on its M 367
each sound as you M 366
each place he had M 366
each point on his M 364
earth shall be but M 362
earth nearer the sun M 362
earth gives up its M 362
each event in each M 362
each block of each M 362
each group as one M 361
each stage is then M 360
each stage in that M 360
each stage in her M 360
each point in any M 360
each party so that M 360
eating until he was M 359
earth which we are M 358
each group of this M 358
each change in one M 358
east where it has M 356
each season so that M 356
each image in this M 356
eats alone or with M 354
easy place to see M 354
each value in each M 354
each table in this M 354
each sitting in his M 354
earth where it lay M 353
each topic in its M 352
each strong in its M 352
each story is not M 352
each share of each M 352
each morning to bring M 352
each morning of his M 352
each house in this M 352
each evening we had M 352
easy chair he had M 350
each pupil to use M 350
each point by its M 350
each morning by his M 350
each drawn by its M 350
each child by his M 350
each stage as they M 348
each night of our M 348
earth mixed up with M 347
each night to her M 346
each model in this M 346
each layer is not M 346
each group in our M 346
each cycle is not M 346
easy motion of his M 344
each piece of earth M 344
each party to that M 344
each joint so that M 343
east which is not M 342
each method so that M 342
each group to put M 342
earth until he was M 340
each fixed in its M 340
each varying in its M 338
each stage we can M 338
each party is now M 338
each layer of air M 338
each class by its M 338
each evening the sun M 337
each floor of this M 336
each pupil is doing M 334
each night he sat M 334
each keeps to its M 334
each keeping to its M 334
easy since it was M 332
each verse of his M 332
each party on each M 332
each comes to its M 332
each piece is one M 331
each state in any M 330
each party in that M 330
each evening to hear M 330
each evening he had M 330
earth which is his M 328
earth shall be all M 328
each phase is then M 328
each phase in its M 328
each issue of our M 328
each block in its M 328
each color to dry M 327
each pupil to see M 324
earth could do for M 322
each stage to see M 322
each stage as you M 322
each sitting on his M 322
each share of this M 322
each issue in this M 322
earth tells us that M 321
each working on one M 321
east coast of east M 320
each stage it was M 320
each share is now M 320
each shall do his M 320
each cover an area M 320
earth floor of his M 319
earth appear to him M 318
each works in its M 318
each waiting to see M 318
each piece is not M 318
each night in this M 318
each frame is then M 318
each field is then M 318
each child as his M 318
easy chair to his M 316
each party in any M 316
each image is then M 316
earth which it was M 315
easy style of his M 314
each option on each M 314
each night to read M 314
easy since he was M 312
earn money to put M 312
each party as they M 312
earn money in that M 310
each seated on his M 310
each paper is read M 310
each morning in our M 310
each block in each M 310
each tends to see M 308
each event is not M 308
each stage of any M 306
each period is then M 306
each order of being M 306
east since the war M 305
earth while we are M 304
earth could he get M 304
each state is now M 304
each state do not M 304
each group of not M 304
each event is then M 304
each entry on this M 304
each calling to his M 304
each value of that M 303
easy smile on her M 302
easy keeping up with M 302
ease until he was M 302
each tries to win M 302
each party at each M 302
each group is too M 302
each entry is not M 302
earth where he lay M 300
each story is read M 300
each state of being M 300
easy broke as they M 298
easy after the war M 298
earth moved in its M 298
each topic in each M 298
each piece in his M 298
each order of things M 298
each group or each M 298
each action in each M 298
each story so that M 297
east front of this M 296
each track so that M 296
each piece of that M 296
each party in all M 296
earn money to bring M 294
each story or poem M 294
each morning to ask M 292
each group it was M 292
each event in his M 292
each eight to ten M 292
each drawn by ten M 292
each child to try M 292
earn money so they M 290
each thinking of his M 290
each story is set M 290
each night of her M 290
each house as they M 290
each child to one M 290
earth fault on one M 289
east coast in new M 288
east coast at this M 288
earth where no man M 288
earth could he mean M 288
each woman to her M 288
each pupil on his M 288
earn money by her M 286
each value of its M 286
each party to try M 286
each morning he got M 286
each child in both M 286
earth which we see M 285
earth which we had M 284
earth which is its M 284
each class on each M 284
each class of new M 284
east coast do not M 282
earth could he say M 282
earth could do that M 282
each leader in his M 282
each house in each M 282
each group we can M 282
each fails to see M 282
each cycle of each M 282
each count to run M 282
each block is one M 282
earth since the day M 281
eating alone in his M 280
each value in one M 280
each thinking in his M 280
each reader in each M 280
each place in its M 280
each known by its M 280
each field of law M 280
each value in its M 278
each relying on his M 278
each point we can M 278
each party by its M 278
each model in each M 278
each group by using M 278
each child to cut M 278
each agree to pay M 278
earth shall be one M 277
eating alone is not M 276
easy chair or two M 276
east coast of both M 276
earn money by singing M 276
each state at its M 276
each seeking to win M 276
each input to its M 276
each entry is its M 276
each change in our M 276
each arising by two M 276
east coast so that M 275
easy today to see M 274
earth beneath us and M 274
earth after it hath M 274
each story of this M 274
each looking to his M 274
each class to see M 274
each thinking he was M 272
each stage of one M 272
each party in both M 272
each morning to let M 272
each group is one M 272
each child of this M 272
each group or team M 271
each share or each M 270
each option to see M 270
each method is not M 270
each meeting of each M 270
each house in two M 270
each group of his M 270
earth where we now M 269
easy chair in one M 268
each share of new M 268
each house is set M 268
each agent in each M 268
each based on two M 267
eats anything at all M 266
easy since he had M 266
easy proof of this M 266
earth shall be his M 266
each table is set M 266
each shall be for M 266
each phase in each M 266
each entry in its M 266
each color so that M 266
easy chair to sit M 264
each state or each M 264
each point to one M 264
each field in its M 264
each could be read M 264
eating until he had M 263
ease which it has M 262
earth after it was M 262
each state of all M 262
each night at this M 262
each holding to his M 262
each group in one M 261
east coast in may M 260
earth beneath it and M 260
earn money at all M 260
each point to each M 260
each meeting of that M 260
each group to set M 260
ease about my dear M 258
each works in his M 258
each takes as its M 258
each period in this M 258
each morning to put M 258
each guest to his M 258
each child is now M 258
each event so that M 257
earn money is not M 256
earn money in his M 256
each verse in this M 256
each piece is put M 256
each piece is now M 256
each period of her M 256
each owner of any M 256
each night on her M 256
each morning we are M 256
east while he was M 255
each place on earth M 255
earth which no man M 254
each woman in our M 254
each visit he was M 254
each stand on its M 254
each shall be both M 254
each plant is then M 254
each image in its M 254
easy chair by his M 252
earth mother in her M 252
each sitting on its M 252
each proud of his M 252
each party to his M 252
each party is apt M 252
each method in each M 252
each loves to hear M 252
each child is one M 252
easy issue of his M 250
easy habit to get M 250
earth beneath the sun M 250
earth belong to him M 250
each thrust of her M 250
each state to lay M 250
each piece of each M 250
each party as its M 250
east river is not M 249
east parts of this M 248
earth moved on its M 248
earth after the long M 248
each round of this M 248
each owner of each M 248
each night he and M 248
each meeting of this M 248
each class of our M 248
each block is cut M 248
east coast at that M 246
each shift so that M 246
each people to its M 246
each motion of this M 246
each input so that M 246
each holding up one M 246
each group as you M 246
each child as you M 246
east until he had M 244
each turns on its M 244
each story in its M 244
each period it has M 244
each night he lay M 244
each night at one M 244
each group as being M 244
each evening to her M 244
each draft of this M 244
each class do not M 244
earth beneath the sky M 243
earth stood up and M 242
earn money by any M 242
each tries to put M 242
each state so far M 242
each morning he has M 242
each frame in this M 242
east coast is one M 241
east coast in his M 240
earth could be going M 240
earn money on his M 240
each sharing the earth M 240
each resting on one M 240
each method in this M 240
each keeps to his M 240
each house to its M 240
each entry in his M 240
each child to its M 240
earth beneath me and M 239
earth opening up and M 238
earn money if they M 238
each wanting to get M 238
each state as they M 238
each point on any M 238
each point at each M 238
each piece to see M 238
each night he read M 238
each night at his M 238
each nearly as big M 238
each holding up his M 238
each group is set M 238
each child or each M 238
each change in her M 238
each actor in his M 238
eating alone in her M 236
each state is thus M 236
each state in all M 236
each pause in his M 236
each evening in her M 236
each evening he and M 236
each evening at this M 236
each child of man M 236
each block of two M 236
east which is now M 235
each shape so that M 235
each model so that M 235
easy chair of his M 234
earth where we all M 234
earth shall in his M 234
each stuck to his M 234
each pulling in its M 234
each night to hear M 234
each layer in each M 234
each field is not M 234
each exist in two M 234
each change of this M 234
easy about the way M 232
east right in our M 232
each power of two M 232
each class in our M 232
each child to add M 232
each layer of meat M 231
each group is that M 231
each state of things M 230
each stage the new M 230
each seeks to get M 230
each place to see M 230
each night to sit M 230
each morning at her M 230
each model is then M 230
each equal to each M 230
easy poetry is that M 229
each woman on her M 228
each state on each M 228
each point to all M 228
each plant on earth M 228
each place is set M 228
each party to each M 228
each morning in this M 228
each house it was M 228
each frame of each M 228
each evening the men M 228
each class as they M 228
each appear in two M 228
easy plane to fly M 226
easy chair on one M 226
each visit to this M 226
each judge to this M 226
each could do for M 226
each child is being M 226
easy terms to all M 225
east coast of long M 225
easy terms to buy M 224
earth moves or not M 224
earn money if you M 224
each value of log M 224
each plant to its M 224
each layer of earth M 224
each hoped to get M 224
each group of things M 224
each group in both M 224
each equal in area M 224
each cried to his M 224
each color as you M 224
each class of use M 224
each woman if she M 222
each share of his M 222
each pupil in this M 222
each point to see M 222
each party at its M 222
each house is not M 222
each guest in his M 222
each agent at each M 222
each seeks the death M 220
each seeking to use M 220
each pupil to his M 220
each leader to his M 220
each issue in each M 220
each group to sit M 220
each child is and M 220
each change of job M 220
each season in each M 218
each phase of any M 218
each period in his M 218
each morning he goes M 218
each group to bring M 218
each group of each M 218
each class of this M 218
earth could be his M 216
each visit to her M 216
each track on each M 216
each class or each M 216
each board so that M 215
easy until we get M 214
east began to get M 214
earth after he has M 214
earth above the top M 214
each visit to each M 214
each shift in each M 214
each seems to vie M 214
each running in its M 214
each night the two M 214
each moves in its M 214
each event of our M 214
each child to sit M 214
each child is going M 214
each agent is not M 214
east where the sky M 213
east since the mid M 213
ease while he was M 213
each place so that M 213
east walls of this M 212
earth beneath it was M 212
each tried to use M 212
each shift or day M 212
each season is not M 212
each piece as they M 212
each ought to bear M 212
each night in that M 212
each actor in each M 212
east coast is that M 211
each group in that M 211
eats holes in our M 210
each piece of its M 210
each cause in its M 210
ease which is not M 209
each nearly as long M 209
easy grace in his M 208
ease which he has M 208
earth holds in its M 208
each stage it has M 208
each refer to one M 208
each ought to pay M 208
each night of this M 208
each morning to say M 208
each group on one M 208
each class in his M 208
each child in any M 208
each began to see M 208
each asset in each M 208
earth where we may M 206
earth until it had M 206
each taken in its M 206
each reader in his M 206
each pupil of his M 206
each plant is set M 206
each makes of his M 206
each floor in each M 206
each child of each M 206
each action of each M 206
east nearly as far M 205
earth which the sun M 205
each tried to out M 205
easy chair in our M 204
ease cured the man M 204
earth gives me its M 204
each state to get M 204
each pupil at his M 204
each point in her M 204
each period in our M 204
each house of this M 204
each hoped to win M 204
each group at its M 204
each event of his M 204
each equal to this M 204
each block of one M 204
earth while the sun M 203
easy words of one M 202
east river on long M 202
east after the six M 202
earth which is then M 202
each woman or man M 202
each table to see M 202
each style in one M 202
each period to its M 202
each party to win M 202
each holding to its M 202
each field of this M 202
each child on its M 202
each entry is that M 201
easy though it was M 200
easy steps to get M 200
earn money by going M 200
each value to its M 200
each relying on its M 200
each claim on its M 200
each built on top M 200
eating cares of earth M 198
easy about it and M 198
east which do not M 198
ease which is now M 198
earth takes up him M 198
earth comes to her M 198
each thinking he had M 198
each stood up and M 198
each resting on two M 198
each model is not M 198
each layer of our M 198
each color to its M 198
each action as you M 198
each round so that M 197
each owner of one M 197
each night at six M 197
easy reply to this M 196
earth under the dead M 196
each stage to its M 196
each image to its M 196
each group is for M 196
each group in all M 196
each evening to get M 196
each entry to see M 196
each crime is not M 196
each child is his M 196
each change in this M 196
each point is that M 195
earth which he can M 194
earn money of her M 194
each value is then M 194
each thinking it was M 194
each sitting at his M 194
each season to see M 194
each night to say M 194
each morning the old M 194
each house the act M 194
each group the two M 193
each change of key M 193
eats anything it can M 192
easy chair by her M 192
each state the law M 192
each state in one M 192
each sound is its M 192
each place he has M 192
each method in its M 192
each input to use M 192
each group on both M 192
each group of our M 192
each found in one M 192
each child at all M 192
each piece in two M 191
each morning by one M 191
eating until it was M 190
easy growing up with M 190
earth shall be for M 190
earth beneath my head M 190
earn money of his M 190
each season of our M 190
each joint in its M 190
eating holes in them M 188
east coast he had M 188
ease equal to that M 188
earth moves in her M 188
each stage he was M 188
each model at each M 188
each issue in its M 188
each house of two M 188
each growing in its M 188
each entry as you M 188
each class to each M 188
each class is its M 188
each child to each M 188
each child if they M 188
each child at any M 188
each block as you M 188
each option so that M 187
easy until he was M 186
easy trick it was M 186
easy books to read M 186
earth where the old M 186
each stage of both M 186
each frame is not M 186
each based on his M 186
each piece or lot M 185
easy spoil of wit M 184
earth belong to one M 184
each topic as you M 184
each piece of lead M 184
each option in each M 184
each night is not M 184
each group if they M 184
each class of net M 184
each change of its M 184
earth which is but M 183
each space so that M 183
each track of each M 182
each state is set M 182
each party to set M 182
each owner to pay M 182
each night to put M 182
each morning is not M 182
each group to all M 182
each group in any M 182
eating until he has M 180
easy woman to get M 180
east coast the east M 180
east blows in its M 180
each stage of team M 180
each stage is thus M 180
each shell of air M 180
each price by all M 180
each place it was M 180
each piece on both M 180
each period is set M 180
each lives in its M 180
each event of this M 180
each event by its M 180
earth makes the sun M 178
each which is not M 178
each state of that M 178
each stage of all M 178
each night of its M 178
each layer of her M 178
each layer at each M 178
each house of all M 178
each evening to read M 178
each child of that M 178
each award is for M 178
each author of this M 178
easy smile of his M 176
earth under the new M 176
each wound up with M 176
each takes on its M 176
each stage do not M 176
each share of one M 176
each order so that M 176
each morning to our M 176
each model of each M 176
each group as its M 176
each class of being M 176
each change in each M 176
each value in that M 174
each state is one M 174
each stage of ego M 174
each morning at this M 174
each group at any M 174
each could go out M 174
each class to get M 174
each class is set M 174
each child he has M 174
earth which we all M 173
each party is that M 173
east coast it has M 172
earth where it may M 172
earn money by using M 172
each writing in his M 172
each point by using M 172
each place in each M 172
each phase at any M 172
each paper in its M 172
each layer of his M 172
each keeping an eye M 172
each holds in her M 172
each first of may M 172
earth began to dry M 171
each under the eye M 171
ease again in his M 170
earth beneath us was M 170
each stage at each M 170
each space as you M 170
each sound in its M 170
each shape as you M 170
each round of new M 170
each plant is not M 170
each night he has M 170
each morning so they M 170
each morning in all M 170
each looking to see M 170
each group to lead M 170
each group on this M 170
each close to its M 170
each block to its M 170
each night the man M 169
eats alone in his M 168
easy words of two M 168
easy chair at his M 168
easy about it all M 168
each world in its M 168
each turning on its M 168
each state to bring M 168
each sense of each M 168
each period by using M 168
each party of ten M 168
each layer is one M 168
each image is not M 168
each guest as she M 168
each front wing and M 168
each class in any M 168
each class by using M 168
each agent by his M 168
each action in its M 168
eating birds do not M 167
earth first of all M 167
easy money he had M 166
each which he does M 166
each value is read M 166
each story to its M 166
each sound as they M 166
each share by him M 166
each party to run M 166
each order in each M 166
each morning on our M 166
each group of non M 166
each equal to his M 166
each child to ask M 166
each child of earth M 166
each built on its M 166
each begin to cry M 166
each party to one M 165
each eight by ten M 165
each point is now M 164
each point is for M 164
each plane so that M 164
each place is ten M 164
each night so they M 164
each change of his M 164
each stage is one M 163
each issue to one M 163
each evening in one M 163
ease about the way M 162
earth after the sun M 162
earth above the being M 162
each tried to see M 162
each tells of his M 162
each takes up his M 162
each option in this M 162
each night by his M 162
each judge on each M 162
each issue is not M 162
each input of each M 162
each guest on his M 162
each group to add M 162
each field to see M 162
each color on each M 162
each child to act M 162
earth amend by being M 161
each study so that M 161
each scale so that M 161
easy issue to deal M 160
east while the sun M 160
ease about it all M 160
earth above it and M 160
earn money in one M 160
each until it was M 160
each stood on its M 160
each state or area M 160
each pupil is not M 160
each plant as you M 160
each party or its M 160
each night on its M 160
each morning to sit M 160
each issue of that M 160
each house of each M 160
each group to say M 160
each comes to see M 160
earth close to its M 159
each season or year M 159
each paper so that M 159
each feeding so that M 159
east river on one M 158
earth which is being M 158
earth still on them M 158
earth could the man M 158
earth alone is not M 158
each where it was M 158
each place as they M 158
each place as long M 158
each piece as she M 158
each paper in each M 158
each order in its M 158
each occur in two M 158
each looking to its M 158
each judge is then M 158
each group on all M 158
each action is not M 158
each child at age M 157
easy while he was M 156
easy smile as she M 156
easy place to put M 156
easy method to get M 156
easy chair or lie M 156
east which the two M 156
east keeps the wet M 156
earth shall ring with M 156
earth could he not M 156
earn money if she M 156
each woman of her M 156
each sound in each M 156
each seeming to vie M 156
each point in both M 156
each place we had M 156
each morning he set M 156
each looking at his M 156
each house of his M 156
each group or for M 156
each group is its M 156
each cause to its M 156
each agent in this M 156
eating while he was M 154
east began to try M 154
earth people do not M 154
earn money on her M 154
each under the new M 154
each shift of his M 154
each sending up its M 154
each season of his M 154
each model in its M 154
each input by its M 154
each group if you M 154
each force in its M 154
each class of all M 154
each class in all M 154
each aware of its M 154
each author by his M 154
easy terms as they M 152
each woman in his M 152
each store so that M 152
each place on his M 152
each night as long M 152
each meeting it was M 152
each joint of his M 152
each child as being M 152
each brave foe was M 152
each aimed at one M 152
ease under the new M 151
each period is that M 151
each group in two M 151
each class to one M 151
easy chair on his M 150
east coast to that M 150
earth which he saw M 150
earn money as they M 150
each wants to see M 150
each sound of her M 150
each period as they M 150
each house by its M 150
each guest at his M 150
each group an area M 150
each found in his M 150
each evening to sit M 150
each class we may M 150
each child as far M 150
each change as you M 150
earth after the war M 149
each group at one M 149
easy entry to and M 148
east began to say M 148
earth warms the air M 148
earth seems to him M 148
earth looks at god M 148
earth appear in you M 148
each where he had M 148
each taken up with M 148
each story on its M 148
each ruler in his M 148
each point in all M 148
each piece in each M 148
each period of low M 148
each morning if you M 148
each entry in one M 148
each change in any M 148
each piece of cut M 147
each agent so that M 147
easy money in this M 146
east coast to get M 146
each story of each M 146
each seated in his M 146
each season it was M 146
each night in its M 146
each morning of our M 146
each morning in one M 146
each input in each M 146
each house in that M 146
each field by its M 146
each color on its M 146
each acted on his M 146
each cycle of two M 145
easy quiet of his M 144
earth shall be our M 144
each point of her M 144
each night or day M 144
each morning on its M 144
each house to each M 144
each group or set M 144
each frame in its M 144
each could go his M 144
each class by one M 144
each change is not M 144
each alone in her M 144
east where he has M 143
each event in one M 143
each evening at ten M 143
eating after the men M 142
earth until we are M 142
earth about it and M 142
each which do not M 142
each under the head M 142
each state the set M 142
each point on our M 142
each place is not M 142
each place in that M 142
each party of this M 142
each party of them M 142
each layer is set M 142
each holds to its M 142
each field in that M 142
each event on its M 142
each class of one M 142
earth turns on her M 141
easy money is not M 140
easy chair at one M 140
east sides of both M 140
earth which in its M 140
earth agree to ask M 140
each wants to use M 140
each point of real M 140
each period is one M 140
each party of any M 140
each order is not M 140
each child is using M 140
each piece to one M 139
easy terms to his M 138
east coast is low M 138
earn eight or ten M 138
each works at his M 138
each thinks he can M 138
each takes up its M 138
each state to each M 138
each state to any M 138
each state on this M 138
each running on its M 138
each point of cut M 138
each morning to set M 138
each morning of her M 138
each layer to set M 138
each image on its M 138
each group by age M 138
each evening in our M 138
each drawing on its M 138
each child to her M 138
each night the one M 137
each action so that M 137
east coast of his M 136
earth close to his M 136
each wants to win M 136
each vowel in each M 136
each story in each M 136
each shape to its M 136
each pupil is then M 136
each pupil in all M 136
each point he had M 136
each plant of each M 136
each plane of being M 136
each place in this M 136
each party is going M 136
each morning to try M 136
each marks the end M 136
each looks to his M 136
each joint as you M 136
each house on its M 136
each group as are M 136
each field to its M 136
each feels he has M 136
each evening at his M 136
each entry by its M 136
each draft of each M 136
each class is that M 135
easy terms of his M 134
easy method of using M 134
earth within the area M 134
earth which is all M 134
earth until he saw M 134
earth stuck to his M 134
earth plane at this M 134
earth keeps up her M 134
earth echoing the sky M 134
earth appear to man M 134
each verse he did M 134
each tries to use M 134
each stage is now M 134
each place it has M 134
each party to deal M 134
each ought to get M 134
each nurse on day M 134
each morning so she M 134
each house or each M 134
each headed by two M 134
each group the sum M 134
each group is due M 134
each group is being M 134
each gives to each M 134
each field as you M 134
each child at this M 134
each change to see M 134
each above the old M 134
earth since the earth M 133
each entry is one M 133
easy under the idea M 132
east until the mid M 132
east river to cut M 132
earth where the earth M 132
earth began to bring M 132
each woman to bring M 132
each tried to bring M 132
each study is not M 132
each strong in his M 132
each season as they M 132
each pupil to put M 132
each point we are M 132
each piece of bad M 132
each piece in one M 132
each piece in her M 132
each party or each M 132
each paper to its M 132
each night on our M 132
each night if you M 132
each force in this M 132
each drawing so that M 132
each class in one M 132
each class as being M 132
each board at each M 132
each stage is that M 131
each child is that M 131
easy cross to bear M 130
east point of his M 130
each topic is then M 130
each state we can M 130
each state to one M 130
each stage to get M 130
each route in each M 130
each plant by its M 130
each model is that M 130
each group in his M 130
each group he has M 130
each field of his M 130
each evening to our M 130
each carry in our M 130
each began to try M 130
each aware of how M 130
each added to his M 130
earth about the year M 129
each value so that M 129
earth which is dry M 128
earth sends up its M 128
earth plane is not M 128
each visit he had M 128
each store in each M 128
each state by using M 128
each state at any M 128
each scale in each M 128
each resting on his M 128
each price we add M 128
each point is its M 128
each party of each M 128
each option as you M 128
each night by her M 128
each morning at two M 128
each joint in each M 128
each issue of all M 128
each guest so that M 128
each gives up his M 128
each event at each M 128
each evening to bring M 128
each essay in its M 128
each equal to its M 128
each could go her M 128
each comes up with M 128
each class we can M 128
each child to set M 128
each child on all M 128
each beauty of her M 128
each alone in its M 128
each after it had M 128
easy grace of its M 126
ease after he had M 126
earn money by being M 126
each which he had M 126
each under an arm M 126
each style in each M 126
each sound of each M 126
each reader to see M 126
each point of all M 126
each piece or each M 126
each party is thus M 126
each offer as long M 126
each group is using M 126
each field on each M 126
each class of real M 126
each child is thus M 126
easy child to rear M 125
easy chair so that M 125
each share is one M 125
each child at one M 125
easy since it can M 124
easy grace to his M 124
easy either to get M 124
east today is not M 124
earth turns in its M 124
earth gives up her M 124
earth cover us all M 124
earth appear to that M 124
each wrote to him M 124
each woman at her M 124
each trick is won M 124
each share of that M 124
each point as they M 124
each plant to one M 124
each plant at each M 124
each period to get M 124
each period at each M 124
each party is doing M 124
each order is then M 124
each morning he sat M 124
each method to see M 124
each later in this M 124
each image in each M 124
each holding the one M 124
each holding it with M 124
each group we may M 124
each evening on her M 124
each could be set M 124
each child be his M 124
each block is read M 124
each agent to act M 124
each actor is not M 124
earth until the earth M 123
eating until we are M 122
easy today to get M 122
easy learning of this M 122
earth which is one M 122
earth until the sun M 122
each verse in its M 122
each tried to read M 122
each tried in his M 122
each study to its M 122
each reader to read M 122
each plant is cut M 122
each piece so you M 122
each period it was M 122
each party of all M 122
each night we sat M 122
each morning he read M 122
each makes to all M 122
each looks at his M 122
each lives in all M 122
each group it has M 122
each frame to see M 122
each frame by using M 122
each child to pay M 122
each child of any M 122
each block to one M 122
east where the new M 121
eats anything he can M 120
easy woman to deal M 120
easy sharing of our M 120
easy merit of all M 120
earth which is god M 120
earth which he did M 120
earth where the sky M 120
earth today is not M 120
earth moved or not M 120
earth could be put M 120
each working in her M 120
each value on each M 120
each stood on one M 120
each stand on one M 120
each season he had M 120
each phase in his M 120
each people in this M 120
each owner of real M 120
each makes up for M 120
each layer in its M 120
each grows in its M 120
each group to run M 120
each cycle of use M 120
each could do his M 120
each block is set M 120
easy place to run M 118
east under the new M 118
east since the death M 118
ease which he was M 118
earth which we may M 118
earth where the two M 118
earth until in one M 118
earth stand up and M 118
each voice in its M 118
each value of for M 118
each table in its M 118
each state to that M 118
each stage by using M 118
each shape on its M 118
each season at each M 118
each pupil to try M 118
each pupil to get M 118
each piece to his M 118
each period as long M 118
each people in each M 118
each order or lot M 118
each morning in that M 118
each meeting of his M 118
each judge in each M 118
each issue is read M 118
each group at all M 118
each feels he can M 118
each essay is read M 118
each entry of each M 118
each cycle in each M 118
each could go its M 118
each color in one M 118
each child at its M 118
each change so that M 118
each cause is not M 118
each after the death M 118
east since it was M 117
easy since we are M 116
east which he can M 116
ease which is one M 116
earth might be but M 116
earth began to get M 116
earth above the earth M 116
each table of ten M 116
each style in its M 116
each state of one M 116
each resting in its M 116
each phase at each M 116
each night to hang M 116
each morning to run M 116
each morning to beg M 116
each morning or each M 116
each method of each M 116
each layer is put M 116
each joint is then M 116
each input is not M 116
each image as you M 116
each gives of its M 116
each given by one M 116
each event on each M 116
each class to use M 116
each calling on and M 116
each author is thus M 116
each share of all M 115
each belong to two M 115
earth worthy of being M 114
earth which is too M 114
earth which is thus M 114
earth where my own M 114
earth since the end M 114
earn money in two M 114
each waste is then M 114
each stage by its M 114
each share in each M 114
each reader to his M 114
each putting in his M 114
each point it was M 114
each point is set M 114
each plant to see M 114
each place of his M 114
each night to our M 114
each night to god M 114
each house to act M 114
each group to deal M 114
each feeling in his M 114
each could be put M 114
each class of job M 114
each class is one M 114
each agent in his M 114
east today is that M 113
each state is that M 113
eating parts of his M 112
easy humor in them M 112
earth which at all M 112
earth known to him M 112
earth could we get M 112
earth comes to its M 112
earth again in one M 112
earth above my head M 112
earn anything in any M 112
each twice as big M 112
each story as you M 112
each stood in its M 112
each season in this M 112
each place to its M 112
each passing on its M 112
each party on this M 112
each parts of one M 112
each night to try M 112
each night to bring M 112
each morning the man M 112
each morning so you M 112
each house on his M 112
each house of that M 112
each could do with M 112
each color of each M 112
each class of meat M 112
each child or for M 112
each action to its M 112
each acted on its M 112
earth falling in and M 111
east began to use M 110
earth where he may M 110
earth truly as far M 110
earth stand by his M 110
earth needs the sun M 110
earth holds in her M 110
earth beneath us lie M 110
each under the lead M 110
each topic as they M 110
each story is that M 110
each stood on his M 110
each stand on his M 110
each sitting on one M 110
each shift of her M 110
each shape in its M 110
each seeming to say M 110
each season of her M 110
each season in new M 110
each plant or each M 110
each period to pay M 110
each party do not M 110
each option of each M 110
each house of one M 110
each entry in our M 110
each chain is not M 110
each phase of one M 109
each phase in one M 109
easy times as they M 108
easy terms to its M 108
easy grasp of all M 108
east which it has M 108
east which he was M 108
east point of that M 108
earth moves in one M 108
earth known to man M 108
earth below it and M 108
earn money so she M 108
each topic to its M 108
each state to try M 108
each state it was M 108
each stand up and M 108
each stage is both M 108
each shift on each M 108
each season to its M 108
each piece by its M 108
each period to see M 108
each night we see M 108
each night so she M 108
each moves to its M 108
each morning to this M 108
each morning the day M 108
each issue to see M 108
each group as far M 108
each floor in this M 108
each essay is not M 108
each class as you M 108
each child he had M 108
each change of sum M 108
earth where he and M 107
eating holes in our M 106
easy putting up with M 106
ease since it was M 106
earth mother as she M 106
earth eight or ten M 106
earth beneath me was M 106
earth after he was M 106
each worthy of each M 106
each while he was M 106
each visit it was M 106
each track in each M 106
each tends to get M 106
each table in each M 106
each state as one M 106
each sound of war M 106
each route is not M 106
each reader of his M 106
each point is read M 106
each plant on its M 106
each piece so they M 106
each phase we can M 106
each phase is that M 106
each phase is both M 106
each people of its M 106
each night is that M 106
each morning to earn M 106
each morning he put M 106
each morning as his M 106
each joint is one M 106
each group at this M 106
each finds in his M 106
each class it was M 106
each began to ask M 106
each occur in one M 105
easy until he got M 104
earth where the heat M 104
earth shows us that M 104
earth after my death M 104
each within the area M 104
each stage on each M 104
each shall go his M 104
each season of each M 104
each pupil in our M 104
each point of them M 104
each point as long M 104
each piece up and M 104
each piece is being M 104
each party to them M 104
each morning we set M 104
each morning we got M 104
each morning to fix M 104
each method at each M 104
each house in one M 104
each frame is being M 104
each field at each M 104
each entry is for M 104
each close to one M 104
each class on its M 104
each child so they M 104
each child if you M 104
each change of her M 104
each change of gear M 104
each asset is not M 104
easy motion of our M 102
east gives up its M 102
ease after the day M 102
earth where we had M 102
earth under me and M 102
earth could do any M 102
earth belong to this M 102
earth above it was M 102
each study it was M 102
each state to aid M 102
each state is out M 102
each stage of being M 102
each power of our M 102
each point at any M 102
each piece on one M 102
each phase to its M 102
each phase do not M 102
each period in all M 102
each night to let M 102
each night if they M 102
each night he saw M 102
each morning to pay M 102
each morning the boy M 102
each morning if they M 102
each holds to his M 102
each gives up that M 102
each frame as you M 102
each floor as they M 102
each color in this M 102
each class or for M 102
each child is put M 102
each child by using M 102
easy terms so that M 101
earth again in this M 101
easy under the new M 100
easy tasks in this M 100
easy state at his M 100
easy motion of one M 100
east tells us that M 100
east river to see M 100
easing words so long M 100
earth known to them M 100
earth began to fly M 100
earth again in its M 100
earn eight to ten M 100
each woman to get M 100
each woman he had M 100
each visit to that M 100
each verse is read M 100
each tends to use M 100
each table is not M 100
each swore an oath M 100
each study in its M 100
each state is being M 100
each state in both M 100
each stage we may M 100
each stage of new M 100
each stage is set M 100
each speaking as any M 100
each sitting on top M 100
each shall be set M 100
each seeks to bring M 100
each point on both M 100
each period do not M 100
each period by its M 100
each party to say M 100
each party to lay M 100
each party is set M 100
each party in one M 100
each model do not M 100
each issue on one M 100
each hopes to get M 100
each group we are M 100
each floor of all M 100
each equal to ten M 100
each crack of his M 100
each class he had M 100
each class by each M 100
each child on her M 100
each action in this M 100
eating house at one M 99
ease under the sun M 99
earth today is that M 99
eats twice so that M 98
eating until we had M 98
eating after he has M 98
easy price of one M 98
easy lives do not M 98
easy grace as she M 98
easy child to bring M 98
earth under the old M 98
earth stops in its M 98
each worthy of his M 98
each working at its M 98
each where he was M 98
each waits to see M 98
each value the mean M 98
each topic on its M 98
each thrust as she M 98
each stage we see M 98
each shift of each M 98
each seems to act M 98
each season to get M 98
each scale of its M 98
each point do not M 98
each order to its M 98
each night we are M 98
each night to ask M 98
each night of that M 98
each moved up one M 98
each morning to one M 98
each field or area M 98
each field of its M 98
each event is both M 98
each color is not M 98
each child by its M 98
each change is for M 98
each change in that M 98
each brave as his M 98
each agree to buy M 98
each action at each M 98
each takes up one M 97
each issue of new M 97
eating right is not M 96
easy place to lay M 96
easy place to cut M 96
earth which no one M 96
earth stays in its M 96
earth floor of this M 96
earn money by them M 96
earn money at this M 96
each woman is her M 96
each topic to see M 96
each stage he has M 96
each sitting in its M 96
each seated at his M 96
each power in war M 96
each place in our M 96
each piece or set M 96
each period we can M 96
each period to bring M 96
each period of war M 96
each period is now M 96
each party at his M 96
each order of men M 96
each motion of each M 96
each morning to all M 96
each might be led M 96
each landing to get M 96
each group so they M 96
each group on how M 96
each group by one M 96
each graph is for M 96
each frame of this M 96
each entry on its M 96
each could do and M 96
each click of her M 96
each child on this M 96
each based in one M 96
each asked if they M 96
each appear in one M 96
eating every thing that M 95
earth floor of her M 95
earth after the earth M 95
each piece on top M 95
each method is that M 95
eats until he can M 94
eating parts of them M 94
easy sleep of age M 94
easy motion of her M 94
easy grasp of his M 94
easy chair or lying M 94
easy chair as she M 94
easy author to read M 94
easy again as any M 94
east which he has M 94
earth yield at all M 94
earth where it does M 94
earth where he saw M 94
earth under the law M 94
earth seems to you M 94
earn money so you M 94
earn money in her M 94
earn anything by his M 94
each worthy of its M 94
each woman to see M 94
each wishing to get M 94
each visit to see M 94
each verse on its M 94
each tries to see M 94
each state at that M 94
each stage in one M 94
each sound so that M 94
each reacting in his M 94
each pupil by his M 94
each point on earth M 94
each plant on each M 94
each plant at its M 94
each night we set M 94
each night the boy M 94
each night in all M 94
each night by ten M 94
each mother in her M 94
each issue of any M 94
each guest to put M 94
each group to ask M 94
each frame of his M 94
each floor at one M 94
each feels in his M 94
each event in that M 94
each evening so far M 94
each evening in its M 94
each class is too M 94
each child to earn M 94
each child by each M 94
east coast to near M 93
each stage of god M 93
each morning at one M 93
easy until it has M 92
easy today to say M 92
easy since the two M 92
easy resting of one M 92
east after he had M 92
ease under the eye M 92
ease after the long M 92
earth below to that M 92
earn money by its M 92
earn money at odd M 92
earn anything to pay M 92
each within an easy M 92
each wanting to see M 92
each visit to our M 92
each turns to his M 92
each state the seat M 92
each state as far M 92
each sound by one M 92
each seeking to read M 92
each ruled in his M 92
each river to its M 92
each rests on its M 92
each plant he had M 92
each place in his M 92
each period to that M 92
each period of any M 92
each period is thus M 92
each party at that M 92
each order in this M 92
each morning of that M 92
each model to its M 92
each method on each M 92
each meeting of its M 92
each layer of its M 92
each joint is not M 92
each hoped to use M 92
each group as she M 92
each feeding on and M 92
each evening to say M 92
each evening to ask M 92
each evening as her M 92
each entry is then M 92
each entry in any M 92
each child we bring M 92
each built by one M 92
each agent is then M 92
east about as far M 91
eats others of its M 90
easy reply is that M 90
easy method of being M 90
east coast as they M 90
earth where we put M 90
earth shall be rid M 90
earth might be due M 90
earth below we two M 90
earth appear to them M 90
earth again to see M 90
earth about it run M 90
each worthy of being M 90
each woman by her M 90
each still in his M 90
each season or each M 90
each scale is not M 90
each point he was M 90
each period of that M 90
each paper is then M 90
each obeys the law M 90
each night to this M 90
each night to its M 90
each layer is cut M 90
each group to that M 90
each equal to all M 90
each class at any M 90
each blind in one M 90
each alone is not M 90
east coast in mid M 89
each point to that M 89
easy where we are M 88
easy sleep of men M 88
easy getting in and M 88
east round the earth M 88
east river to get M 88
ease since he had M 88
earth yield to our M 88
earth mother of all M 88
earth comes up with M 88
earth belong to her M 88
earn money or not M 88
each train at each M 88
each touch of sin M 88
each thinks it has M 88
each taken on its M 88
each stage in all M 88
each pupil or each M 88
each point it has M 88
each point by two M 88
each piece at each M 88
each phase by its M 88
each party is its M 88
each night to owe M 88
each night to one M 88
each night at her M 88
each layer is dry M 88
each guest is put M 88
each fitting in its M 88
each evening the day M 88
each evening of our M 88
each comes in for M 88
each color to use M 88
each class is now M 88
each class in that M 88
each child to fit M 88
each block to fit M 88
each action of one M 88
east people do not M 87
each under an area M 87
each lived in one M 87
easy house to run M 86
east which it had M 86
east river at its M 86
east coast to its M 86
ease about the old M 86
ease about it and M 86
earth which is cut M 86
earth which at this M 86
earth comes to men M 86
earth belong to men M 86
earn money is one M 86
each value is not M 86
each until he had M 86
each under the law M 86
each track is then M 86
each style to see M 86
each stood in his M 86
each state to say M 86
each stage in any M 86
each share is not M 86
each seeks to win M 86
each scale at each M 86
each pupil to pay M 86
each praying in his M 86
each place of any M 86
each piece of one M 86
each morning the way M 86
each lived in its M 86
each layer on one M 86
each joint to its M 86
each issue is then M 86
each image to see M 86
each image of each M 86
each holding to one M 86
each gives to its M 86
each frame to its M 86
each found in two M 86
each field is set M 86
each evening as you M 86
each entry to its M 86
each class on all M 86
each class is being M 86
each class at its M 86
each chose the one M 86
each board in its M 86
each author to use M 86
each asked to bring M 86
each action of man M 86
eating tiger in his M 84
eating holes in his M 84
eating holes in her M 84
easy words to use M 84
easy under the old M 84
easy since we had M 84
easy since it has M 84
easy route to get M 84
easy method of his M 84
easy grace of all M 84
east walls of both M 84
east river on its M 84
east coast at all M 84
ease where he was M 84
ease until we had M 84
earth today do not M 84
earth repeat the long M 84
earth given by god M 84
earth after we had M 84
earth after the heat M 84
each writing on his M 84
each woman in that M 84
each visit to one M 84
each visit to its M 84
each valid on its M 84
each treating of one M 84
each stood in awe M 84
each shift at each M 84
each shall be not M 84
each reacting in its M 84
each pupil in any M 84
each picking up his M 84
each party in our M 84
each party at all M 84
each night on one M 84
each model on its M 84
each meeting of our M 84
each meeting he had M 84
each layer on top M 84
each layer as they M 84
each judge of this M 84
each house or lot M 84
each house on each M 84
each field in one M 84
each evening the two M 84
each child in two M 84
each alike in its M 84
each pupil in that M 83
easy while we are M 82
easy terms to any M 82
easy passing of one M 82
easy chair of her M 82
easy chair he was M 82
ease within the old M 82
earth which to this M 82
earn money he had M 82
each where he can M 82
each thinks in his M 82
each story as they M 82
each stood at his M 82
each staying in its M 82
each stage in both M 82
each seeks to use M 82
each point the two M 82
each point in real M 82
each place as you M 82
each option is for M 82
each method on its M 82
each lived by and M 82
each leader of each M 82
each floor of our M 82
each event to see M 82
each event in her M 82
each evening to put M 82
each evening by his M 82
each could be run M 82
each class is put M 82
each claim on that M 82
each cause in each M 82
each asked to read M 82
each actor at each M 82
each action of this M 82
east until the age M 81
earth under the earth M 81
easy until he saw M 80
easy lines of her M 80
easy getting to this M 80
easy either to lead M 80
east coast is now M 80
earth which is man M 80
earth which he does M 80
earth might be one M 80
earth hides my bad M 80
earth below it was M 80
earth again it was M 80
each state is doing M 80
each state by each M 80
each stage the air M 80
each stage on its M 80
each plant in his M 80
each party is using M 80
each party if they M 80
each method as you M 80
each lasting as long M 80
each house on may M 80
each floor as you M 80
each field to each M 80
each event or each M 80
each evening he read M 80
each class of that M 80
each class in both M 80
each class he may M 80
each board is cut M 80
each block in two M 80
earth which is near M 70
east rises the sun M 57
ease until the end M 57
each class of fit M 56
each route so that M 55
each house by two M 55
each action by one M 55
ease about it that M 53
each class the mean M 51
ease which he did M 50
each point the mean M 50
easy items so that M 49
each chair so that M 49
earth again so that M 48
each shell so that M 48
east until the sun M 46
earth after the end M 46
each phase is one M 46
each class or year M 46
earth could be that M 45
each engine so that M 44
each claim so that M 44
east river so that M 43
east equal to that M 43
each style so that M 43
each party of two M 43
eating which is not M 42
east point to red M 42
earth under it was M 42
each value of mean M 42
each keeping as near M 42
each evening at one M 42
each cycle is one M 42
eating place in this M 41
each point in two M 41
each group of end M 41
each group is read M 41
easy though the non M 40
ease until it was M 40
earth could be out M 40
each check so that M 40
east china sea and D 10512
earth spins on its D 4394
each level of each D 4240
each pound of dry D 2904
each level of this D 2782
each pound of meat D 2283
each nation in its D 2258
each piece of art D 2064
each pound of air D 1869
each level of real D 1734
each curve in fig D 1685
earth would be too D 1622
each grade in each D 1562
each curve is for D 1434
each pound of fat D 1330
each title in this D 1226
east china sea are D 1202
each level in this D 1108
each scene or act D 1058
each point in fig D 961
each level of our D 894
each level of one D 892
each level of being D 874
each facet of this D 844
ears while he was D 810
each sperm or egg D 793
each level so that D 764
each pixel is then D 750
east coast of van D 740
each level of its D 722
each level in each D 704
each digit by its D 702
ears close to his D 674
each level of his D 668
each pixel in each D 656
east china sea was D 640
each strip is then D 633
each slice of ham D 620
each region so that D 614
each piece of veal D 612
each night in bed D 609
earth would be one D 608
each nation to its D 602
each would do his D 600
earth shook to its D 594
each tribe in its D 594
each slice of meat D 592
each facet of his D 580
ears shall be deaf D 572
each region in each D 570
east china sea has D 562
each verse is sung D 560
each level is not D 552
each region is then D 550
earth exult in its D 542
ears sharp to hear D 534
ears still ring with D 528
each batch of new D 528
each tract or lot D 524
each pound of this D 524
ears swept us out D 512
each plate so that D 510
each score by its D 508
each stone of this D 506
each brush of his D 500
east china sea with D 490
each nation is not D 490
each pixel in this D 488
each pound of oil D 474
each ounce of this D 474
earth would be far D 472
each grade of each D 472
each would go his D 470
earth dries up and D 466
east shore of this D 462
each scene so that D 462
ears which do not D 458
each region is not D 456
east china sea near D 455
each stone in its D 454
earth tilts on its D 451
each strip so that D 448
earth would be all D 446
each level of that D 444
each flows as one D 442
each sheet so that D 437
earth falls to our D 436
each pound of his D 432
each nation in this D 426
each model of car D 422
earth would be but D 416
each rowed an oar D 414
each sweep of his D 412
each pound of its D 410
each entry in row D 406
ears after he had D 400
each grace of art D 394
ears ought to hear D 386
earth faces the sun D 384
each slice is then D 384
each curve of fig D 381
each curve of her D 380
each curve in this D 380
ears prick up and D 376
each pixel of each D 372
east china sea area D 370
earth would he say D 370
eating lunch in his D 366
each region or area D 366
each nation or each D 364
east china sea for D 362
each piece of pie D 358
each slice of veal D 356
each pound of gas D 356
each piece of ice D 355
earth shook to see D 354
each grade or age D 353
earth flock to that D 352
each nation of its D 352
each score in each D 346
each organ to its D 346
earth piled on top D 343
each piece of gum D 340
each breast at each D 336
each plate is then D 332
each borne by two D 332
each would be too D 330
each stock in each D 330
each spoke in his D 330
each theater of war D 329
each panel of fig D 329
each block in fig D 327
earl stood up and D 326
each level is then D 326
ears until he was D 324
each speaks in his D 322
each sheet is then D 322
each serving an area D 322
each panel of this D 320
ears after the man D 318
each region of this D 318
ears would be cut D 314
each color of ink D 314
each flank of this D 310
earth orbit the sun D 307
eating lunch at his D 305
each pound of ice D 304
each region of each D 302
each pound of wax D 302
each nation on its D 300
each grade so that D 300
each state to tax D 297
each liter of air D 292
earth which is dug D 290
each trait in each D 290
each nation to use D 290
easy berths to men D 288
each spoke in her D 288
each locus in each D 288
each fauna is not D 286
each strip is cut D 284
each facet of our D 284
eating lunch at her D 280
each level of use D 278
each flask is then D 278
each flank of his D 278
eating flesh of any D 275
ears stood up and D 274
ears began to pop D 272
each slide so that D 271
each would be his D 270
earth thrown up out D 265
each spoke of his D 264
each batch of each D 264
each elbow of his D 262
east flank of this D 260
each piece of leaf D 260
each nation in each D 258
each scene is set D 256
each tuned to one D 253
ears willing to hear D 252
each level of per D 252
each would be one D 250
each scene as you D 250
each grade or year D 250
each level of all D 248
each pulse so that D 246
each batch of raw D 246
ears which he had D 244
each pound of raw D 244
each facet of its D 244
each setting up its D 242
each pulse of his D 242
each pixel is read D 242
each night at bed D 242
each digit in this D 242
each valve in its D 240
each cheek as she D 240
earth thrown up for D 238
each serving of meat D 237
each pixel to its D 236
each grade at each D 236
east china sea off D 235
easy rhythm of his D 234
ears close to her D 234
each listing in this D 234
each flick of his D 234
each brand in each D 234
each class of car D 233
each shift in bed D 232
each scoop of ice D 232
each class or sub D 232
each piece of ham D 231
each level do not D 230
each facet of her D 230
each bound up with D 230
each pound of that D 229
each level of job D 229
easy charm of his D 228
east slope of this D 228
earth quake to its D 228
each region at each D 228
each level of age D 228
each score in one D 226
each nation by its D 226
each cheek of her D 226
each group or sub D 225
each bound to each D 224
ears boxed by his D 222
each would be for D 222
each scene in its D 222
each ounce of meat D 222
earth would he get D 220
each baron in his D 220
east shore of long D 217
east china sea that D 216
each grain of this D 216
each pound of her D 214
each panel so that D 212
each genus is but D 212
each batch or lot D 212
each sieve is then D 210
each oxide by its D 210
each block of ice D 208
each pixel is one D 207
east until it met D 206
earth dried up and D 206
each grade is not D 206
each batch of ten D 206
each score so that D 204
each would be doing D 202
each trade in each D 202
each slide as you D 202
each level as you D 202
each bound to its D 202
east shore of that D 200
earth would we get D 200
each scene in this D 200
each nation to two D 200
each grade of being D 200
eating lunch at one D 199
ears until it was D 198
earth would be his D 197
each grade of ore D 197
each style of shoe D 196
each slice of pie D 196
each nerve of his D 196
each group of ions D 196
earth winds the hot D 192
each horse or cow D 192
each genus of things D 192
east winds of this D 190
ears until he had D 190
each would do this D 190
each child to wear D 190
each cheek of his D 190
each shout by its D 188
each sheet of this D 188
each sheet as you D 188
each region of our D 188
each pound of hay D 188
each pixel is not D 188
each chief in his D 188
each slice so that D 187
each stick to our D 186
each voter in his D 184
easy sweep of his D 182
east china sea can D 182
earth shook in six D 182
earth shook as they D 182
earth darts on and D 182
each tending to his D 182
each organ in its D 182
each liter of this D 182
each level we can D 182
each level in any D 182
each facet of each D 182
each split in two D 181
earth shook as with D 180
ears since he had D 180
ears alert to any D 180
each slice he ate D 180
each layer of ice D 180
each group in fig D 180
east china sea may D 178
each pound of wet D 178
each nation so that D 178
each digit in each D 178
each brand on each D 178
each blank so that D 178
each blank in this D 178
each region in this D 176
each nation is its D 176
each level in its D 176
each grade of oil D 176
each flank by his D 176
eating fresh or for D 174
east would be cut D 174
each sheep in his D 174
each curve at any D 174
each tribe or each D 172
each pixel to one D 172
each piece of raw D 172
each stone to its D 170
each sprang to his D 170
ears would be ringing D 168
each strip as you D 168
each stick to his D 168
each slide to one D 168
each serving of this D 168
each pixel in one D 168
each graph in fig D 168
each pixel so that D 167
earl sprang to his D 166
each region do not D 166
each nation to act D 166
ease talking to him D 164
east winds do not D 162
earth reels to and D 162
each organ or each D 162
each morning in bed D 162
east would be one D 160
each tribe by its D 160
each stone is set D 160
each seizing an arm D 160
each score to get D 160
each score on each D 160
each horse in each D 160
each class of raw D 160
eats lunch at his D 158
earth would be dead D 158
each tribe of men D 158
each scene of this D 158
each level of both D 158
each stone so that D 157
each region or sub D 157
ears shall ye hear D 156
each scene of his D 156
each curve so that D 156
earth would be that D 154
ears where he had D 154
earl wrote to his D 154
each grape to his D 154
east shore of new D 150
ears began to hum D 150
earl speaking in sir D 150
each sheet of two D 150
each pixel in that D 150
each nation to set D 150
each liable to pay D 150
each grade in this D 150
easy talking to him D 148
earth thrown up and D 148
earth shown in fig D 148
earth caved in and D 148
ears tuned to any D 148
earn wages to pay D 148
each region or each D 148
each piece of tin D 148
each nation to try D 148
each nation to pay D 148
each loyal to his D 148
easy weapon to use D 146
easy horse to get D 146
earth round the fun D 146
each stone is cut D 146
each plate in its D 146
each level on each D 146
each flank by way D 146
each piece of sod D 145
east winds of new D 144
earth would be then D 144
each trade in its D 144
each tract of real D 144
each marking the end D 144
each epoch of its D 144
easy sight of each D 142
earth rolls on its D 142
each scene in his D 142
each phase of art D 142
each level as they D 142
each graph of fig D 142
earth which is deaf D 140
each title in each D 140
each sheet of his D 140
each scene of each D 140
each pound of mean D 140
each nation to get D 140
easy point of art D 138
easy novel to read D 138
ears nearly as long D 138
each slice is cut D 138
ears tingled to hear D 136
each sheep of his D 136
each nation on earth D 136
each breast in his D 136
earth would do that D 135
ears shall be cut D 134
each slice on both D 134
each pulse of her D 134
each mound of earth D 134
east would be far D 133
earth would be god D 132
ears would ring with D 132
each tribe to its D 132
each pound of lead D 132
each period of art D 132
each organ is not D 132
each level of any D 132
each grade of this D 132
each class of ore D 132
each spark of earth D 131
easy twist of his D 130
east gable to lay D 130
ears until the day D 130
earn funds to pay D 130
each season at bath D 130
each panel in fig D 129
east china sea had D 128
ears begin to hear D 128
ears began to hear D 128
each would be but D 128
each region on its D 128
each level by using D 128
each house or hut D 128
each horse in his D 128
each grade in all D 128
each field of art D 128
each craft in each D 128
each level of war D 127
easy rhythm of her D 126
earth beneath the seas D 126
each would go its D 126
each sheet of each D 126
each sewed in his D 126
each nation to see D 126
each metal in each D 126
each liter of gas D 126
each lapel of his D 126
each house in art D 126
each grade on each D 126
easy about thy son D 124
earth would be for D 124
earth thrown in and D 124
earth heaved up and D 124
each twist of his D 124
each strip of meat D 124
each saint as she D 124
each region by its D 124
each pixel by using D 124
each panel is not D 124
each nation to bear D 124
each wheel so that D 123
ease shown in fig D 122
each region to its D 122
each level at each D 122
each cased in his D 122
easy shrug of his D 120
ears while the van D 120
ears drank in her D 120
earn wages or not D 120
each sweep of her D 120
each sheet to its D 120
each quart of this D 120
each pilot of each D 120
each caste or sub D 120
eating lunch in her D 119
each skill so that D 119
ease talking to her D 118
each metal at that D 118
each level to see D 118
each bound by its D 118
easy talking to you D 116
ears would ring for D 116
ears tuned to hear D 116
each tribe on its D 116
each stage in fig D 116
each child an egg D 116
each batch is not D 116
east would be for D 114
earth would be two D 114
ears waiting to hear D 114
ears might be cut D 114
each would be set D 114
each twist of her D 114
each sugar is one D 114
each region on each D 114
each point of fig D 114
each loyal to its D 114
each guest to wear D 114
each brush of her D 114
each batch so that D 114
each batch of them D 114
each batch of men D 114
easy talking to her D 112
ears drank in his D 112
each score is then D 112
each rowed by two D 112
each nation is now D 112
each group by sex D 112
each flick of her D 112
each flank of them D 112
each digit in its D 112
each batch of six D 112
easy rider is not D 111
east winds of our D 110
earth stirs in her D 110
ears which he was D 110
ears began to get D 110
each skill as you D 110
each sealed in its D 110
each pulse is not D 110
each novel in its D 110
each level to men D 110
each level in our D 110
each digit of each D 110
each curve is not D 110
each flask so that D 109
earth where the dew D 108
ears close to its D 108
earn wages to put D 108
each would be read D 108
each wiped the tear D 108
each value in row D 108
each stone in his D 108
each sheet in this D 108
each setting up his D 108
each scene as they D 108
each region or for D 108
each region in its D 108
each pixel on each D 108
each nation do not D 108
each level of net D 108
each holding an egg D 108
each flock of them D 108
eats lunch at her D 106
eating chips of lead D 106
easy sight of them D 106
earth shall to thee D 106
earth float in our D 106
ears would ring and D 106
ears above the din D 106
earn wages to buy D 106
each sheet is cut D 106
each region at any D 106
each glass so that D 106
each donor to each D 106
each court in each D 106
each breach of this D 106
easy would it not D 104
easy slide in his D 104
east cliff the new D 104
earth would be new D 104
earth thrown on top D 104
earth spoke to him D 104
each shake of his D 104
each serving in its D 104
each serving as both D 104
each region as they D 104
each pixel is set D 104
each motor is not D 104
each level in all D 104
each fired at one D 104
each charm of gay D 104
each blast of air D 104
each arrow in this D 104
each title so that D 103
each nation at war D 103
each level is that D 103
east would be too D 102
ears since the day D 102
each tribe of this D 102
each swipe of his D 102
each slide is then D 102
each quart of oil D 102
each pulse of this D 102
each pixel of this D 102
each pixel at each D 102
each level we are D 102
each level by its D 102
each level as being D 102
each caste to its D 102
each bound to one D 102
eating flesh is not D 100
easy sweep of its D 100
ears growing on one D 100
each would go off D 100
each scene to its D 100
each organ of his D 100
each nation to one D 100
each grain of earth D 100
each grade is then D 100
each level in that D 99
easy flick of his D 98
earth piled on them D 98
each troop in its D 98
each surge of his D 98
each stone in this D 98
each stock in our D 98
each piece in wax D 98
each level to its D 98
each horse in its D 98
each facet of that D 98
each digit is read D 98
each curve of his D 98
eating lunch in one D 96
earth could be dug D 96
each would do for D 96
each would be led D 96
each wafer is then D 96
each voter in each D 96
each tuned to its D 96
each pound of ham D 96
each level is both D 96
each grain in its D 96
each would be far D 95
each slice in two D 95
eating scene in tom D 94
earth split in two D 94
ears stand up and D 94
ears quick to hear D 94
each white of egg D 94
each level of sex D 94
each horse as they D 94
each grade by its D 94
each feather of its D 94
ears within the bed D 93
each would be all D 93
earth would be dry D 92
ears longed to hear D 92
ears either to hear D 92
each would be both D 92
each wheel of one D 92
each serving at his D 92
each score of each D 92
each plays in our D 92
each plate to its D 92
each pixel in its D 92
each patch of sky D 92
each level it was D 92
each fiber of his D 92
easy march of our D 90
east paved the way D 90
earth burial is not D 90
earth began to thaw D 90
ears stand on end D 90
each would in all D 90
each wheel in its D 90
each squad of ten D 90
each sheep by its D 90
each score in this D 90
each scene of joy D 90
each scene in one D 90
each scene in each D 90
each saint in his D 90
each quart of hot D 90
each plays in its D 90
each plate or bar D 90
each panel in this D 90
each metal ion and D 90
each fruit in its D 90
each digit is then D 90
each curve at its D 90
each arrow in fig D 90
earth would do her D 88
earth tones of his D 88
earth thrown on them D 88
ears where it was D 88
ears moved up and D 88
ears close to them D 88
ears bobbing up and D 88
each wheel of each D 88
each serving as his D 88
each piece of wax D 88
each petal or leaf D 88
each petal of each D 88
earth beneath the ice D 87
earth shook so that D 86
ears until we are D 86
ears drink in his D 86
ears boxed if they D 86
each would be due D 86
each tries to rob D 86
each trait of that D 86
each stone is then D 86
each scene to all D 86
each sally of wit D 86
each region to one D 86
each region by using D 86
each level to get D 86
each epoch of our D 86
each curve of this D 86
each brand of car D 86
earth about the pot D 84
each title in its D 84
each stage is fed D 84
each spoke to her D 84
each share of par D 84
each scene to his D 84
each longed to see D 84
each level is set D 84
each level in fig D 84
each horse at his D 84
each epoch of his D 84
each canto of his D 84
each arrow to its D 84
easy would it then D 82
easy chair or bed D 82
ears tuned to his D 82
ears begin to pop D 82
each would do with D 82
each would do and D 82
each tribe by lot D 82
each stick to its D 82
each speaks of his D 82
each pound or ton D 82
each panel of his D 82
each organ of its D 82
each nation to put D 82
each nation in any D 82
each level of her D 82
each layer of gas D 82
each grade or each D 82
each curve is then D 82
east river at kip D 80
earth under the hot D 80
earth sighing in her D 80
ears after the death D 80
earl while he was D 80
each would be met D 80
each value of row D 80
each shake of her D 80
each panel is then D 80
each organ of each D 80
each cabin to see D 80
each batch of this D 80
each tonne of ore D 69
east shore of big D 66
each level as one D 62
each pulling an oar D 60
each batch of dye D 57
each piece of ore D 49
each patch of earth D 47
each nation is that D 47
each tribe is that D 46
each class of tax D 46
each valve so that D 45
each horse so that D 45
each curve is one D 45
each child an ice D 44
earth would be out D 43
earth heaped on top D 42
each coating to dry D 42
east theater of war D 41
each sweep so that D 40
