easily forget it . M 2528
easily broken up . M 2294
easily afford it . M 1884
easily picked up . M 1718
easily through it . M 1588
easily summed up . M 1584
easily relate to . M 1308
easily cleared up . M 1034
easily become so . M 948
easily mislead us . M 798
easily remove it . M 712
easily filled up . M 662
easily without it . M 578
easily manage it . M 568
easily follow it . M 566
easily access it . M 512
easily obtain it . M 488
easily pulled up . M 478
easily handle it . M 444
easily cleaned up . M 364
easier without it . M 364
easily accept it . M 360
easily ignore it . M 356
easily remedy it . M 352
easily passed by . M 306
easily escape us . M 304
easily verify it . M 296
easily arrange it . M 284
easily agreed to . M 276
easily delete it . M 262
easily become king . M 262
easily inform us . M 248
easily detect it . M 246
easily master it . M 244
easily around it . M 240
easily passed on . M 238
easily judged of . M 224
easily worked on . M 218
easily supply it . M 212
easily thought of . M 208
easily recall it . M 200
easily permit it . M 198
easily modify it . M 172
easily absorb it . M 170
easily repair it . M 162
easily damage it . M 154
easily worked up . M 152
easily excuse me . M 150
easily defend it . M 150
easily betray us . M 150
easily across it . M 148
easily reject it . M 144
easily gotten at . M 144
easily effect it . M 142
easily conceal it . M 140
easily betray me . M 140
easily regain it . M 138
easily folded up . M 138
easily endure it . M 138
easily caught it . M 138
easily turned on . M 134
easily escape it . M 134
easily lifted up . M 126
easily pardon it . M 124
easily caught up . M 120
easily notice it . M 118
easily looked up . M 114
easily called up . M 114
easily missed it . M 112
easily attain to . M 112
easily agreed on . M 112
easily forget me . M 110
easily attain it . M 108
easily beside me . M 102
easily warmed up . M 98
easily attack it . M 98
easily spoken of . M 92
easily backed up . M 92
easily without me . M 90
easily subdue it . M 90
easily killed me . M 90
easily finish it . M 88
easily answer it . M 86
easily resist it . M 84
easily bought up . M 82
easily measure it . M 80
