me to follow him M 62998
me to realize that M 42984
me to inform you M 41763
me to remind you M 36952
me to assure you M 31372
me to follow her M 22628
me to figure out M 13363
me it appears that M 12958
me as someone who M 12556
me to comply with M 11984
me to assist him M 11894
me to remark that M 11680
me to remain with M 11611
me to assume that M 11536
me to answer that M 11204
me to advise you M 10784
me the strength and M 10512
me to accept this M 9906
me to finish this M 9656
me to accept that M 9080
me to pursue this M 9030
me to expect that M 8944
me to escort you M 8860
me to invite you M 8748
me to become his M 8328
me in return for M 8162
me it seemed that M 8102
me to follow them M 7922
me no choice but M 7882
me of something that M 7748
me to assist you M 7732
me to follow you M 7656
me to forget that M 7606
me to return with M 7282
me to accept his M 7020
me to mention that M 6841
me to arrange for M 6692
me no matter how M 6658
me to assert that M 6574
me to follow his M 6322
me to return and M 6284
me so deeply that M 5760
me to realize how M 5742
me to travel with M 5598
me in carrying out M 5593
me an excuse for M 5346
me is greater than M 5284
me in another way M 5272
me to wonder why M 5110
me to wonder how M 5092
me no better than M 5028
me as strange that M 4990
me to report that M 4844
me to inform him M 4808
me to return you M 4580
me to become one M 4542
me to notice that M 4422
me to follow that M 4279
me to affirm that M 4178
me to decide that M 4108
me to school and M 4044
me to attend his M 3978
me to answer you M 3962
me the letter and M 3936
me the belief that M 3800
me to remind him M 3762
me do something for M 3662
me the moment you M 3660
me to advise him M 3650
me the minute you M 3628
me to answer this M 3600
me to attend him M 3520
me to forget all M 3501
me to invite him M 3436
me to confer with M 3352
me to expect you M 3348
me to ensure that M 3256
me to excuse him M 3062
me to handle this M 3012
me to mention them M 3002
me in prison for M 2964
me the reasons for M 2952
me by pointing out M 2934
me to myself and M 2930
me to recall that M 2914
me to answer them M 2896
me by letter that M 2894
me to someone who M 2880
me to answer for M 2868
me to remain and M 2858
me to answer him M 2854
me to assist her M 2850
me an honest man M 2814
me to attend her M 2810
me to remain for M 2780
me to report for M 2756
me to defend him M 2748
me to insist that M 2732
me no injury for M 2720
me to assist them M 2690
me the better for M 2688
me the thought that M 2660
me to attend this M 2630
me the number and M 2598
me to follow and M 2582
me to forget you M 2576
me as curious that M 2563
me to listen and M 2532
me to return for M 2526
me to accept them M 2516
me to mention this M 2452
me to follow this M 2402
me to escort her M 2394
me to choose one M 2371
me to meddle with M 2338
me so little that M 2332
me he thought that M 2328
me the proper way M 2260
me the letter you M 2224
me to accept and M 2214
me to praise him M 2184
me to invite her M 2144
me to regard him M 2142
me in detail how M 2090
me to accept any M 2078
me to forget her M 2072
me to accept her M 2072
me at school and M 2060
me to prison for M 2054
me to return his M 2034
me no further than M 2026
me to mention his M 2000
me to attend you M 1998
me to accept him M 1996
me to mention one M 1981
me to desire that M 1974
me to decide how M 1972
me to forget him M 1968
me to excuse her M 1966
me to answer all M 1962
me to church and M 1930
me to permit him M 1920
me be honest with M 1902
me the credit for M 1898
me to supply him M 1884
me the nearest way M 1882
me the wisdom and M 1878
me the reasons why M 1862
me we should not M 1822
me to revise and M 1822
me in person and M 1822
me to realize this M 1812
me to answer his M 1810
me to regret that M 1802
me to suffer for M 1792
me to pieces with M 1792
me in school and M 1756
me the person who M 1750
me by someone who M 1742
me go through this M 1738
me the letter that M 1730
me to travel and M 1722
me to choose this M 1716
me as something that M 1710
me in charge and M 1698
me to caution you M 1688
me to decide for M 1684
me to pardon him M 1664
me is better than M 1664
me an answer that M 1660
me to mention all M 1640
me to assure him M 1632
me to release for M 1628
me to release you M 1622
me to refuse you M 1596
me of someone who M 1594
me the moment she M 1588
me to release him M 1586
me to remove them M 1582
me to desire you M 1572
me in prison and M 1560
me to regard this M 1558
me in public and M 1540
me to myself for M 1530
me up before you M 1523
me to regard them M 1518
me to answer her M 1518
me to remain any M 1516
me the honour and M 1516
me he should not M 1508
me to demand that M 1506
me to pieces and M 1502
me so greatly that M 1499
me to rethink and M 1498
me to return them M 1490
me to obtain for M 1488
me to attend and M 1484
me an answer now M 1460
me in common with M 1452
me to attend one M 1447
me to record that M 1436
me to invite them M 1428
me to listen for M 1422
me to another man M 1413
me is something that M 1412
me to regard you M 1408
me to advise them M 1404
me go through all M 1386
me to notify you M 1378
me to inform her M 1362
me to afford him M 1358
me the papers and M 1354
me to defend you M 1350
me to follow with M 1348
me up behind him M 1346
me to school for M 1344
me to direct you M 1344
me he thought you M 1344
me the desire for M 1306
me go through with M 1294
me to become her M 1286
me to inform them M 1276
me the answer that M 1268
me to rescue her M 1266
me to notice how M 1262
me to punish him M 1258
me to punish you M 1250
me so kindly and M 1244
me to defend them M 1232
me to decide who M 1230
me to choose for M 1214
me to retire and M 1208
me to remove all M 1208
me to school with M 1194
me to forget them M 1194
me to answer any M 1186
me my clothes and M 1184
me to remain long M 1180
me to church with M 1178
me to return her M 1174
me to expect him M 1174
me the number for M 1166
me no credit for M 1158
me as ironic that M 1153
me of sleeping with M 1148
me if something was M 1138
me to devote all M 1130
me to release her M 1128
me to forget this M 1126
me to admire her M 1126
me to endure this M 1122
me to stress that M 1121
me to remove him M 1116
me to decide this M 1110
me to finish and M 1096
me to supply them M 1078
me to advise her M 1074
me the minute she M 1064
me to rescue you M 1060
me to attack him M 1058
me to arrest you M 1058
me to listen with M 1054
me to regard with M 1050
me to commit this M 1048
me it should not M 1048
me to submit this M 1044
me to return this M 1040
me to remind them M 1040
me to attend any M 1034
me do something that M 1028
me to design and M 1026
me to accept all M 1024
me to escape and M 1022
me to praise you M 1018
me in prayer for M 1012
me so clearly that M 1007
me as someone with M 1002
me to assure them M 1000
me the moment they M 998
me to something that M 994
me to follow out M 992
me to remind her M 990
me in prayer and M 976
me to expect any M 970
me to extend his M 966
me to manage this M 962
me the lesson that M 960
me in spirit and M 959
me to reject this M 948
me to behold you M 942
me the strength not M 942
me to assure her M 940
me to resign and M 938
me so strange that M 933
me to travel all M 932
me to pursue that M 931
me to escape with M 930
me to defend her M 930
me to differ with M 928
me on monday and M 928
me to rescue him M 926
me to charge you M 924
me so obvious that M 911
me to notice him M 906
me to attend them M 906
me to accept you M 906
me the nature and M 906
me to reward him M 902
me to become its M 902
me to retire with M 898
me to pursue and M 898
me to assist with M 898
me to supply you M 896
me to pursue them M 896
me to arrange with M 896
me so deeply and M 894
me to excuse his M 892
me to arrest him M 892
me no ground for M 892
me the doctor had M 888
me to obtain this M 882
me in person that M 879
me in horror and M 878
me the strength that M 876
me the desire and M 868
me to summon you M 866
me to admire him M 866
me to modify this M 862
me to travel for M 858
me to supply his M 854
me to inform his M 852
me to mention any M 848
me to betray him M 848
me to advise with M 844
me to admire his M 844
me to accuse you M 844
me of myself and M 842
me to another and M 840
me so kindly that M 840
me to praise god M 839
me to repent and M 838
me the second day M 838
me to refuse him M 836
me to recall how M 836
me to ignore them M 832
me in sorrow and M 832
me in pieces with M 830
me to manage him M 828
me to handle all M 828
me the favour not M 828
me to suffer and M 818
me to regard his M 814
me no grudge for M 814
me in person for M 810
me to mention her M 806
me to select one M 801
me is filled with M 800
me to answer with M 799
me to remove this M 798
me to expect this M 796
me to attend with M 796
me to arrange them M 796
me the entire day M 796
me in wonder and M 796
me the energy and M 794
me to direct him M 786
me to finish with M 784
me to report this M 780
me to admire and M 780
me to arrange this M 778
me to handle them M 772
me to forget how M 772
me to accept one M 771
me to notice them M 770
me my brother was M 770
me to tackle this M 762
me to arrange that M 756
me up beside him M 754
me of something you M 754
me to mention him M 752
me to forget and M 752
me to manage that M 750
me the chance and M 748
me the answer was M 744
me my rights and M 738
me he worked for M 736
me in secret that M 735
me to handle and M 734
me to verify that M 732
me he called out M 732
me in charge for M 728
me he thought his M 726
me to remove her M 722
me to retain him M 720
me to answer and M 714
me to finish that M 712
me to manage her M 708
me the second you M 708
me the person you M 706
me the effect was M 706
me to record them M 702
me to pursue any M 702
me to forget his M 702
me so strange and M 702
me he raised his M 698
me to suffer this M 696
me to endure them M 696
me to deduce that M 696
me the letter with M 696
me to pieces for M 694
me to grieve for M 694
me as strange and M 694
me the strength for M 692
me to oppose him M 690
me to select and M 688
me to remain near M 688
me to relate them M 686
me to accept with M 686
me to labour for M 684
me to direct them M 680
me the letter she M 680
me go without him M 680
me the letter for M 678
me to return him M 676
me to behave with M 676
me to notice her M 674
me to extend this M 672
me to revise this M 668
me to admire you M 668
me an answer and M 664
me to advise that M 662
me go through that M 661
me or whether you M 660
me to pardon you M 658
me to expand and M 658
me to submit for M 656
me an excuse not M 656
me to notice this M 654
me to defend this M 654
me to reside with M 652
me to permit you M 652
me the moment that M 652
me as something new M 652
me to attend that M 649
me to occupy his M 648
me to direct her M 644
me the script and M 644
me he thought they M 644
me to select for M 642
me by letter and M 642
me to expect them M 640
me to afford you M 640
me to another one M 639
me the signal that M 639
me the chance for M 638
me to finish him M 634
me to assume this M 630
me no excuse for M 630
me to finish off M 626
me the ground with M 624
me to escort him M 620
me to choose you M 620
me to manage his M 618
me to relate how M 616
me to attack them M 616
me in return that M 616
me in detail his M 616
me in effect that M 615
me to record this M 612
me to prison and M 612
me to excuse them M 612
me to wonder who M 610
me to permit them M 608
me to choose and M 608
me of another and M 608
me he smiled and M 608
me to retire for M 606
me to borrow his M 606
me the fellow was M 606
me to forget for M 604
me to depart with M 604
me in detail all M 600
me to obtain any M 598
me to commit them M 598
me the entire way M 598
me so furious that M 597
me to endure all M 594
me go inside and M 594
me to relate all M 593
me the little one M 593
me to record his M 592
me the favour and M 592
me to ignore him M 590
me to supply her M 586
me to choose him M 586
me to handle that M 584
me the matter was M 582
me of another one M 582
me to prefer this M 580
me to arrange and M 578
me is simply that M 576
me in regard for M 576
me to secure this M 574
me to anyone who M 570
me the secret that M 570
me in church and M 570
me we should get M 568
me to praise her M 568
me to myself with M 568
me to figure that M 568
me the person that M 566
me to release them M 564
me to punish her M 564
me it turned out M 564
me to favour him M 560
me to direct his M 560
me if anyone had M 560
me to become who M 558
me as better than M 558
me up pretty bad M 556
me to behold this M 556
me the easiest way M 556
me to suffer with M 554
me an honest and M 554
me to recall this M 552
me to handle him M 552
me so simple and M 552
me to secure for M 550
me to recall and M 550
me to handle her M 550
me to betray you M 550
me the number that M 550
me the advice that M 550
me go further and M 550
me an entire day M 550
me to return that M 549
me to ignore her M 548
me to refuse this M 546
me to mention two M 546
me he turned and M 546
me he thought she M 544
me to admire them M 542
me of strength and M 542
me to select this M 540
me to oppose any M 540
me to follow any M 540
me in pointing out M 538
me to perish for M 536
me to arrange his M 536
me the minute they M 536
me in searching for M 536
me in detail and M 536
me to ignore that M 534
me in something that M 534
me to recall him M 532
me in almost all M 532
me the excuse for M 530
me at school that M 530
me to relate that M 528
me to report you M 526
me to recall all M 526
me to choose any M 526
me in prison with M 526
me to endure and M 524
me my faults and M 524
me to recall them M 522
me to expose you M 522
me of something out M 522
me to remain one M 518
me to escape this M 518
me in thought and M 518
me the wisdom that M 516
me do something with M 516
me to branch out M 515
me to follow its M 514
me to handle things M 512
me to handle his M 512
me or whether they M 512
me as something real M 512
me to define and M 510
me the better way M 510
me in adopting this M 510
me to remove his M 508
me so heavily that M 507
me to charge them M 504
me so anxious that M 504
me to notice and M 502
me in prayer that M 502
me to relate this M 500
me to depart for M 500
me to attend all M 500
me in return with M 500
me he wanted his M 500
me on notice that M 499
me to refuse his M 498
me to defend his M 498
me as strange was M 498
me to occupy this M 496
me to reject all M 492
me to expect her M 492
me in secret and M 490
me to remain his M 488
me to punish them M 488
me to follow all M 488
me to obtain that M 486
me the letter was M 486
me to retain this M 484
me to rescue them M 484
me to refuse any M 484
me to oppose them M 484
me to burden you M 484
me the doctor was M 484
me on monday that M 484
me to assure his M 482
me is whether you M 482
me to accuse him M 480
me an object for M 480
me to retain that M 476
me to praise and M 476
me to notice his M 476
me to murder him M 476
me in assuming that M 476
me to choose that M 475
me to recall you M 474
me of something and M 474
me to remain all M 472
me the camera and M 472
me to ignore this M 470
me to embark with M 470
me to regard her M 466
me to pursue her M 466
me in safety and M 466
me to finish his M 462
me to arrange things M 462
me or anyone who M 462
me to record and M 460
me to obtain his M 460
me to embark for M 460
me be honest and M 460
me to induce you M 458
me to better things M 454
me he agreed with M 454
me to submit them M 452
me to remark how M 452
me to permit any M 452
me to assume any M 452
me to select him M 450
me the little that M 450
me to desire this M 448
me to decide and M 448
me no chance for M 448
me he thought this M 448
me to caution him M 446
me the street and M 442
me or whether she M 442
me in chains and M 442
me in return and M 440
me to oppose this M 438
me to advise and M 438
me to suffer her M 436
me to murder you M 436
me so gently and M 436
me of course that M 436
me to reject them M 434
me to pieces but M 434
me to expose him M 432
me by myself and M 432
me as freely and M 432
me to escape them M 430
me up before him M 428
me to select any M 428
me to regard all M 428
me to pardon them M 428
me of another man M 427
me to refuse them M 426
me to assist and M 426
me to resume our M 424
me to manage for M 424
me to reward you M 422
me in praising god M 422
me to report any M 420
me to direct this M 420
me be filled with M 420
me to compel you M 418
me be buried with M 418
me so clearly and M 416
me as before and M 416
me to figure this M 414
me to desire and M 412
me to become all M 412
me to attain this M 412
me if someone had M 412
me to suffer them M 410
me to verify this M 408
me to secure him M 408
me to resist this M 408
me to charge him M 408
me to accept for M 408
me he wanted you M 408
me he opened his M 408
me an answer yet M 408
me to remove that M 407
me to debate with M 406
me to attack you M 406
me to answer yes M 406
me the spirit and M 406
me on another day M 406
me to remove you M 404
me to obtain them M 404
me to retain them M 402
me to remain out M 402
me to prefer that M 402
me to praise his M 402
me to choose her M 402
me to divide thus M 400
me to import but M 398
me the number you M 398
me up inside and M 396
me to commit any M 396
me he always had M 396
me an answer for M 396
me to assert with M 392
me to wonder and M 390
me to record all M 390
me to import them M 390
me to ignore all M 388
me no matter who M 388
me to refuse her M 386
me to mention things M 386
me to measure out M 386
me to honour and M 386
me to finish out M 386
me or something and M 386
me no malice for M 386
me to revise them M 384
me to divide this M 384
me to decide with M 384
me to school that M 383
me to direct and M 382
me to attach any M 382
me of murder and M 382
me in renewing and M 382
me to wonder that M 381
me to supply this M 380
me to suffer all M 380
me to pursue him M 380
me to notice one M 380
me to ignore his M 380
me to borrow one M 379
me to obtain and M 378
me to escape death M 374
me as something not M 374
me to decide not M 372
me the choice was M 372
me in battle and M 372
me to invite all M 370
me to defend and M 370
me to choose them M 370
me to battle with M 370
me so deeply with M 370
me to remove one M 369
me to report his M 368
me to realize and M 368
me to conceal his M 368
me to another way M 368
me the number one M 368
me in applying for M 368
me as likely that M 365
me to extend and M 364
me go without any M 364
me go before you M 364
me by nature and M 364
me to answer one M 361
me to suffer you M 360
me to reduce them M 360
me to finish her M 360
me to conceal that M 360
me to behold them M 360
me to arrive with M 360
me the secret and M 360
me be silent and M 360
me as someone they M 360
me as absurd and M 360
me to forget one M 359
me to resist you M 358
me to escort them M 358
me to direct that M 358
me to detect any M 358
me to report them M 356
me to remove any M 356
me to perish with M 356
me to figure things M 356
me of little use M 356
me he dreamed that M 356
me to pursue with M 354
me to behave that M 354
me to assist his M 354
me in return was M 354
me if anyone was M 354
me to suffer any M 352
me to mature and M 352
me to assume his M 350
me the signal and M 350
me to manage all M 348
me to finish all M 348
me to endure with M 348
me is someone who M 348
me up better than M 346
me to accept was M 346
me the little boy M 346
me my reasons for M 346
me to cancel all M 344
me to anoint you M 344
me the excuse that M 344
me of course and M 344
me at church and M 344
me an entire new M 344
me to suffer him M 342
me to recall his M 342
me to modify and M 342
me to inform our M 342
me to finish them M 342
me to expand this M 342
me to divide them M 342
me the papers you M 342
me my brother had M 342
me the volume and M 340
me he already had M 340
me at school for M 340
me to submit that M 338
me to depart and M 338
me so loudly that M 337
me to manage and M 336
me to extend our M 336
me the answer you M 336
me to resist them M 334
me to expect and M 334
me to attend its M 334
me the prince was M 334
me is whether this M 334
me in reward for M 334
me be myself and M 334
me to mention how M 332
me to accept its M 332
me the answer and M 332
me the amount you M 332
me to safety and M 330
me the little things M 330
me is beyond all M 330
me in school that M 330
me he turned his M 330
me to wander off M 328
me to resist and M 328
me the papers for M 328
me in without any M 328
me to realize she M 326
me to another area M 326
me my eldest son M 326
me in offering our M 326
me as curious and M 326
me to manage them M 324
me to attack with M 324
me to assess how M 324
me to afford any M 324
me the longest and M 324
me by replying that M 323
me to punish this M 322
me to detect and M 322
me the affair was M 322
me to release this M 320
me to another job M 320
me the events that M 320
me go without her M 320
me the papers that M 318
me to select that M 316
me to report and M 316
me to handle any M 316
me to detail them M 316
me to borrow and M 316
me the little box M 316
me my papers and M 316
me to misery and M 314
me to afford them M 314
me the latter was M 314
me go through them M 314
me to become that M 313
me to release all M 312
me so curious that M 312
me if something goes M 312
me the effect that M 311
me to supply all M 310
me to recall her M 310
me the purest and M 310
me the lights are M 310
me the ground was M 310
me of course but M 310
me in public for M 310
me as friend and M 310
me to select them M 308
me to notify him M 308
me to enable him M 308
me to become too M 308
me it seemed but M 308
me it appears not M 308
me is deeper than M 308
me is enough for M 306
me to return all M 304
me to occupy one M 304
me to listen any M 304
me the desire that M 304
me in strength and M 304
me in pieces and M 304
me to pardon her M 302
me to oppose you M 302
me to cancel our M 302
me the strange and M 302
me the script for M 302
me so absurd that M 302
me he stated that M 302
me to studying how M 300
me to recall with M 300
me to forget our M 300
me to behave and M 300
me no answer but M 300
me in answer that M 300
me to secure his M 298
me to reject his M 298
me to expose them M 298
me the family had M 298
me as guides and M 298
me to stress this M 296
me to report all M 296
me to desist and M 296
me to attend for M 296
me the rights and M 296
me my sister was M 296
me to enable you M 294
me to direct all M 294
me the church and M 294
me it seemed all M 294
me in wisdom and M 294
me in planning and M 294
me to attain that M 293
me the virtue that M 293
me of almost all M 292
me we should all M 291
me to reject that M 291
me to notice you M 290
me to accept things M 290
me is whether god M 290
me to escape that M 289
me to prefer his M 288
me to desire but M 288
me to church for M 288
me the simple and M 288
me of speech for M 288
me in detail that M 288
me as someone you M 288
me to follow one M 287
me to permit her M 286
me to expose her M 286
me to effect this M 286
me to adjust and M 286
me my orders and M 286
me to regard that M 284
me to obtain all M 284
me to notice any M 284
me to forbid you M 284
me to assign him M 284
me the favour that M 283
me to resume his M 282
me to realize all M 282
me to escape out M 282
me to someone and M 280
me of something she M 280
me by another man M 280
me be thought too M 280
me an answer this M 280
me to school this M 278
me to myself now M 278
me to honour him M 278
me as something far M 278
me to resign all M 276
me to further his M 276
me the passion for M 276
me the moment was M 276
me in honour and M 276
me as stupid and M 276
me to summon him M 274
me to relate with M 274
me to record for M 274
me to pursue was M 274
me to answer but M 274
me the report and M 274
me go around with M 274
me as another man M 274
me to lament that M 273
me by implying that M 273
me as implying that M 273
me to retain all M 272
me to church this M 272
me to betray her M 272
me the result was M 272
me the proper and M 272
me in school was M 272
me to finish you M 270
me to devote two M 270
me to depart this M 270
me to assign them M 270
me the little bit M 270
me he lifted his M 270
me to endure that M 269
me up without any M 268
me to resist all M 268
me to excuse you M 268
me is something you M 268
me to relate one M 267
me to select two M 266
me to resist him M 266
me to borrow this M 266
me to assume you M 266
me it seemed not M 266
me to induce him M 264
me to endure any M 264
me the clothes and M 264
me my prayer that M 264
me as curious was M 264
me so gently that M 263
me we should see M 262
me to clearly see M 262
me to assure all M 262
me the feelings that M 262
me up beside her M 260
me to mention with M 260
me to commit that M 260
me the truest and M 260
me it showed that M 260
me in planning for M 260
me to second him M 258
me to school each M 258
me to oppose her M 258
me to arrange all M 258
me the values that M 258
me the remark that M 258
me no larger than M 258
me to desire his M 256
me so wisely and M 256
me as honest and M 256
me to secure that M 255
me to revise that M 255
me to record with M 254
me to record our M 254
me to design this M 254
me to accept two M 254
me the second one M 254
me my family and M 254
me in person with M 254
me in choosing for M 254
me by revealing that M 254
me as teacher and M 254
me up before this M 252
me to secure you M 252
me to realize why M 252
me to obtain one M 252
me to expose this M 252
me to detail how M 252
me the signal for M 252
me the basics and M 252
me the advice and M 252
me to remain two M 250
me to pardon his M 250
me to assure that M 250
me the spirit that M 250
me the orders and M 250
me so slowly that M 250
me my little boy M 250
me in deeper and M 250
me go through his M 250
me by chance and M 250
me to submit with M 248
me to retire out M 248
me to reject any M 248
me to devote any M 248
me as simple and M 248
me an entire year M 248
me an earnest and M 248
me up before they M 246
me to summon them M 246
me to resist any M 246
me to report him M 246
me to detail all M 246
me to depart out M 246
me to arrange her M 246
me the prince who M 246
me the prince and M 246
me the little you M 246
me in pursuing this M 246
me to something new M 244
me to govern them M 244
me to borrow her M 244
me to betray them M 244
me to attack and M 244
me to accept than M 244
me my chance and M 244
me in dismay and M 244
me the speech that M 243
me to secure them M 242
me to retain her M 242
me to refuse all M 242
me to forget who M 242
me to expect too M 242
me to awaken him M 242
me the easiest and M 242
me no wonder that M 242
me up behind you M 240
me to simply say M 240
me to retain one M 240
me to reject him M 240
me to accuse them M 240
me the origin and M 240
me the amount and M 240
me is simply this M 240
me he should die M 240
me to report with M 238
me to remove and M 238
me in school for M 238
me to return one M 236
me to record her M 236
me to finish our M 236
me the longest day M 236
me the building was M 236
me in return all M 236
me in little things M 236
me in clothes and M 236
me at school was M 236
me so softly that M 235
me to travel out M 234
me to myself but M 234
me to arrive and M 234
me the garden and M 234
me so little and M 234
me in charge with M 234
me in beside him M 234
me to school but M 232
me to answer now M 232
me to accept god M 232
me the second and M 232
me as bright and M 232
me we should try M 230
me to secure her M 230
me to praise them M 230
me to assign you M 230
me the surest way M 230
me the reasons that M 230
me the initial idea M 230
me so mighty and M 230
me in praising him M 230
me to submit and M 228
me to rethink this M 228
me to pursue you M 228
me to modify that M 228
me to combat with M 228
me the person may M 228
me he called you M 228
me to tackle him M 226
me to enable her M 226
me the report was M 226
me on almost all M 226
me in another one M 226
me to travel far M 224
me to prefer him M 224
me to obtain her M 224
me to ignore you M 224
me to extend that M 224
me to defend that M 224
me to defend our M 224
me to arrest her M 224
me the candle and M 224
me so deeply was M 224
me on something that M 224
me of hatred and M 224
me as brother and M 224
me to praise this M 222
me the number was M 222
me so keenly that M 222
me he changed his M 222
me to recall our M 220
me to realize they M 220
me to embody all M 220
me to desire for M 220
me to define this M 220
me to decide was M 220
me the values and M 220
me the proper use M 220
me is larger than M 220
me as simply and M 220
me an honest one M 220
me to retain you M 218
me to choose two M 218
me to afford and M 218
me the report that M 218
me the fellow who M 218
me so curious and M 218
me an emotion that M 217
me to recall any M 216
me to handle with M 216
me to borrow them M 216
me the church was M 216
me so simple that M 216
me no desire for M 216
me to update and M 214
me to occupy her M 214
me to measure and M 214
me to manage with M 214
me to devote this M 214
me to decide now M 214
me to conceal this M 214
me to become ill M 214
me on through this M 214
me of something but M 214
me if something had M 214
me he thought him M 214
me as something out M 214
me to square with M 212
me to sorrow for M 212
me to sorrow and M 212
me to labour this M 212
me to grieve with M 212
me to finish one M 212
me to escape for M 212
me to effect his M 212
me to depart now M 212
me to assert this M 212
me the changes that M 212
me of energy and M 212
me is inside and M 212
me if anyone has M 212
me as killed for M 212
me to verify his M 210
me to prefer one M 210
me to grieve and M 210
me to accuse her M 210
me to accept but M 210
me the talent and M 210
me the record and M 210
me so openly and M 210
me so nicely and M 210
me of another old M 210
me as someone she M 210
me to revise his M 208
me to resume all M 208
me to invite his M 208
me to direct our M 208
me to banish all M 208
me to arrest them M 208
me so stupid that M 208
me no course but M 208
me an object that M 207
me to school one M 206
me to rights and M 206
me to return now M 206
me to meetings and M 206
me to finish things M 206
me to desire death M 206
me to advise any M 206
me the credit and M 206
me so sudden and M 206
me on monday with M 206
me my orders for M 206
me by sleeping with M 206
me as forced and M 206
me as editor and M 206
me an injury and M 206
me to oppose his M 204
me to mention but M 204
me to labour with M 204
me to induce her M 204
me to follow god M 204
me in behind and M 204
me in another year M 204
me by family and M 204
me at eleven and M 204
me to violate that M 202
me to retain any M 202
me to escape his M 202
me to conceal her M 202
me the thought and M 202
me in public with M 202
me in memory and M 202
me go around and M 202
me by another way M 202
me to supply our M 200
me to repair his M 200
me to pursue his M 200
me the fellow had M 200
me in prison that M 200
me by myself for M 200
me to nature and M 198
me to higher things M 198
me to choose his M 198
me to awaken you M 198
me so scared that M 198
me he wanted her M 198
me up through all M 196
me to virtue and M 196
me to expose his M 196
me to deepen and M 196
me to betray his M 196
me to become this M 196
me the orders for M 196
me the future was M 196
me so highly that M 196
me so anxious for M 196
me as clearly and M 196
me as absurd that M 196
me in future new M 195
me to notice all M 194
me to honour you M 194
me to charge for M 194
me the matter has M 194
me of someone but M 194
me of anyone who M 194
me in before him M 194
me at almost any M 194
me as someone not M 194
me to summon all M 192
me to rethink how M 192
me to resist doing M 192
me to remedy this M 192
me to master them M 192
me to favour this M 192
me to assess his M 192
me the surest path M 192
me the spoils and M 192
me the favour you M 192
me so afraid that M 192
me of various things M 192
me in secret for M 192
me as strange for M 192
me to resist her M 190
me to remain but M 190
me to relate his M 190
me to hasten our M 190
me to govern this M 190
me to arrest and M 190
me the second she M 190
me the answer now M 190
me my oldest son M 190
me my family was M 190
me it seemed too M 190
me he sought his M 190
me do stupid things M 190
me an honour and M 190
me to secure all M 188
me to market and M 188
me to favour them M 188
me to extend her M 188
me to demand this M 188
me to conceal them M 188
me to betray any M 188
me to always put M 188
me to absorb and M 188
me the various things M 188
me the friend and M 188
me of course for M 188
me it always has M 188
me in carrying them M 188
me the charge that M 187
me to school was M 186
me to resist its M 186
me to repair this M 186
me to reform and M 186
me to realize who M 186
me to measure how M 186
me to defend its M 186
me the remedy for M 186
me in prison was M 186
me he denies his M 186
me as silent and M 186
me to second his M 184
me to realize you M 184
me to perish thus M 184
me to forbid him M 184
me to doctor his M 184
me to compel him M 184
me the amount due M 184
me so simply and M 184
me so rarely that M 184
me or someone who M 184
me no answer for M 184
me it stands for M 184
me in carrying off M 184
me to forbid them M 182
me to cancel this M 182
me to attack her M 182
me to affirm this M 182
me the passion and M 182
me the amount for M 182
me so clearly how M 182
me or something for M 182
me to submit all M 180
me to realize for M 180
me to pursue all M 180
me to nature for M 180
me to manage one M 180
me to devise and M 180
me the school was M 180
me the little red M 180
me the course and M 180
me of another way M 180
me my strength and M 180
me if someone was M 180
me as something you M 180
me my little one M 179
me up bright and M 178
me to report her M 178
me to remain her M 178
me to mention you M 178
me to honour them M 178
me to finish eating M 178
me to desire her M 178
me to define his M 178
me to arrange our M 178
me the regret that M 178
me the proofs and M 178
me the pieces for M 178
me so sorely that M 178
me up around six M 177
me to define that M 177
me to violate his M 176
me to update this M 176
me to threaten you M 176
me to suffer that M 176
me to resist his M 176
me to reject her M 176
me to manage our M 176
me to defend all M 176
me it appears far M 176
me it always was M 176
me in middle age M 176
me in anguish and M 176
me up beside you M 174
me to shreds and M 174
me to retain for M 174
me to occupy that M 174
me to inform that M 174
me to hasten and M 174
me to follow our M 174
me to detach him M 174
me to commit all M 174
me to attack this M 174
me the answer she M 174
me on behind him M 174
me my friend and M 174
me in relating this M 174
me in offering you M 174
me up gently and M 172
me to secure and M 172
me to regret his M 172
me to notice things M 172
me to myself was M 172
me to meetings with M 172
me to forget things M 172
me to escape being M 172
me to divide its M 172
me to demand her M 172
me to church one M 172
me to behave this M 172
me the design for M 172
me my passion for M 172
me in searching out M 172
me in another man M 172
me be ruined for M 172
me as obvious that M 172
me to reward them M 170
me to retain his M 170
me to remark with M 170
me to reduce this M 170
me to realize now M 170
me to impart any M 170
me to expect his M 170
me to escort his M 170
me to enlist and M 170
me the burden and M 170
me so absurd and M 170
me of course you M 170
me is whether they M 170
me in summer and M 170
me in earnest and M 170
me an absurd and M 170
me of another day M 169
me to reject you M 168
me to handle you M 168
me to conceal any M 168
me to behold him M 168
me to another old M 168
me to absorb all M 168
me my choice and M 168
me he should see M 168
me an escort and M 168
me to repent that M 167
me to travel any M 166
me to summon her M 166
me to glance with M 166
me to always try M 166
me the entire sum M 166
me the clothes you M 166
me the answer for M 166
me so freely and M 166
me on report for M 166
me in charge this M 166
me an effort and M 166
me of events that M 165
me to itself and M 164
me to ignore any M 164
me to honour his M 164
me to design for M 164
me to behold her M 164
me to another set M 164
me to accept death M 164
me to accept being M 164
me the vanity and M 164
me the amount that M 164
me so serious that M 164
me so little for M 164
me my papers with M 164
me in future and M 164
me he thought our M 164
me to behold that M 163
me by assuming that M 163
me to supply that M 162
me to select you M 162
me to retire now M 162
me to reside for M 162
me to rescue his M 162
me to prayer and M 162
me to murder her M 162
me to invite one M 162
me to charge with M 162
me to become head M 162
me to become and M 162
me to always see M 162
me the letter had M 162
me the credit with M 162
me is merely one M 162
me in nature and M 162
me in future not M 162
me in carrying this M 162
me by prayer and M 162
me an answer with M 162
me to remedy that M 161
me to devote one M 161
me so lovely that M 161
me up before she M 160
me to recall one M 160
me to pardon and M 160
me to greater things M 160
me to follow was M 160
me to extend you M 160
me to demand and M 160
me to assume all M 160
me the church had M 160
me of course not M 160
me no answer and M 160
me in before you M 160
me be serious for M 160
me as kindly and M 160
me to divine that M 159
me be always near M 159
me to resume this M 158
me to cancel his M 158
me to attach too M 158
me to another seat M 158
me the family was M 158
me so bright and M 158
me in gathering and M 158
me in desiring that M 158
me go without you M 158
me as always with M 158
me the chance that M 157
me to supply any M 156
me to submit his M 156
me to screen him M 156
me to mention our M 156
me to induce them M 156
me to desire any M 156
me to choose how M 156
me to assign this M 156
me to always say M 156
me the reality that M 156
me it proves that M 156
me in defining this M 156
me to refuse that M 155
me the window seat M 155
me to wonder for M 154
me to suffer death M 154
me to remind this M 154
me to regard and M 154
me to pursue our M 154
me to manage things M 154
me to hasten with M 154
me to divide with M 154
me to commit you M 154
me to caution and M 154
me to affirm with M 154
me the mental and M 154
me the fellow that M 154
me the duties and M 154
me the choice and M 154
me it pleased her M 154
me by marrying his M 154
me by little and M 154
me the reward that M 153
me of plants that M 153
me to verify and M 152
me to release his M 152
me to relate any M 152
me to inform all M 152
me to define them M 152
me to combat this M 152
me to attack his M 152
me the reality and M 152
me the defect was M 152
me the battle was M 152
me so filled with M 152
me is whether she M 152
me in chains for M 152
me he wanted this M 152
me he should get M 152
me by offering not M 152
me an excuse and M 152
me to signal that M 151
me to prompt you M 150
me to inform this M 150
me to devise this M 150
me to assume and M 150
me to answer each M 150
me to accept our M 150
me the wisest and M 150
me or anyone for M 150
me on course and M 150
me my sister had M 150
me it seemed they M 150
me in return his M 150
me in realizing this M 150
me in myself and M 150
me he always did M 150
me at school one M 150
me to realize one M 149
me to admire that M 149
me to submit any M 148
me to shreds with M 148
me to return but M 148
me to notify all M 148
me to notice but M 148
me to labour and M 148
me to detach any M 148
me to battle and M 148
me to accept both M 148
me the secret for M 148
me the person was M 148
me the measure and M 148
me the matter had M 148
me the active and M 148
me so nicely that M 148
me on course for M 148
me of something one M 148
me it appears one M 148
me in carrying you M 148
me he wished that M 148
me do battle with M 148
me by carrying out M 148
me as unfair that M 148
me to someone with M 146
me to slight him M 146
me to report how M 146
me to relate and M 146
me to regard any M 146
me to refuse lying M 146
me to recall things M 146
me to pursue new M 146
me to greater and M 146
me to exceed all M 146
me to escape him M 146
me to depend for M 146
me to assess her M 146
me to almost all M 146
me the sorrow that M 146
me the manner and M 146
me the guilty one M 146
me the demand for M 146
me so stupid and M 146
me in morals now M 146
me in another and M 146
me go further than M 146
me as larger than M 146
me to violate one M 145
me to resist that M 145
me by bursting out M 145
me to wander and M 144
me to verify them M 144
me to travel that M 144
me to thought and M 144
me to remind our M 144
me to mislead you M 144
me to defend not M 144
me to assume for M 144
me to arrest his M 144
me the clothes she M 144
me the chance not M 144
me the better that M 144
me the better man M 144
me so gentle and M 144
me no clearer than M 144
me my brother and M 144
me in greeting and M 144
me in beside her M 144
me as number one M 144
me as always and M 144
me an animal that M 144
me to regard our M 142
me to prefer her M 142
me to occupy for M 142
me to impose this M 142
me to defend two M 142
me the source and M 142
me the issues are M 142
me the honour that M 142
me the feelings you M 142
me no greater than M 142
me in horror for M 142
me in greeting you M 142
me in battle not M 142
me in almost any M 142
me as someone that M 142
me as proper for M 142
me to someone she M 140
me to remain that M 140
me to release any M 140
me to reduce all M 140
me to recall now M 140
me to recall its M 140
me to detect this M 140
me to define with M 140
me to attend but M 140
me to another idea M 140
me to admire this M 140
me the figure was M 140
me so softly and M 140
me on studying how M 140
me of another who M 140
me my friend was M 140
me in future with M 140
me in fighting this M 140
me at school with M 140
me as secret and M 140
me to expand that M 139
me up earlier than M 138
me to remind all M 138
me to pursue both M 138
me to notice two M 138
me to impose any M 138
me to further and M 138
me to follow has M 138
me to extend them M 138
me to enable them M 138
me to borrow two M 138
me to awaken her M 138
me to advise his M 138
me to access and M 138
me to absorb this M 138
me the honour you M 138
me in prison too M 138
me he wished you M 138
me he reached out M 138
me be silent for M 138
me as vulgar and M 138
me to choose out M 137
me to repair with M 136
me to record how M 136
me to notify them M 136
me to higher and M 136
me to handle for M 136
me to enlist them M 136
me to borrow for M 136
me to assess and M 136
me to assert one M 136
me to affirm and M 136
me the latest and M 136
me the advice you M 136
me so without you M 136
me or spoken with M 136
me of always being M 136
me in fright and M 136
me in advising you M 136
me if anyone can M 136
me by letter with M 136
me to betray that M 135
me the wonder that M 135
me the master key M 135
me the letter out M 135
me to tackle them M 134
me to something and M 134
me to retain and M 134
me to prompt him M 134
me to master this M 134
me to behold and M 134
me to answer was M 134
me the twenty and M 134
me the thought has M 134
me the letter now M 134
me the further use M 134
me the dangers and M 134
me of speech long M 134
me of another odd M 134
me it seemed she M 134
me in return but M 134
me in misery and M 134
me in detail why M 134
me in combat and M 134
me he pulled out M 134
me he already has M 134
me by offering them M 134
me an answer but M 134
me the second year M 133
me he seemed all M 133
me to violate this M 132
me to threaten him M 132
me to resume any M 132
me to record one M 132
me to mention and M 132
me to forget god M 132
me to forget any M 132
me to endure his M 132
me to divide his M 132
me to defend any M 132
me to banish you M 132
me to answer two M 132
me to admire its M 132
me the wonder and M 132
me the course that M 132
me on monday for M 132
me is simply not M 132
me in public was M 132
me in behind her M 132
me in another ten M 132
me he worked with M 132
me go before him M 132
me as unique and M 132
me as little and M 132
me to advise one M 131
me the minute that M 131
me so special that M 131
me to wander for M 130
me to resign for M 130
me to remark his M 130
me to prefer you M 130
me to invite any M 130
me to hasten its M 130
me to family and M 130
me to endure for M 130
me to emerge with M 130
me to desire him M 130
me to design his M 130
me to commit sin M 130
me to anyone but M 130
me to afford her M 130
me to affect any M 130
me to accept who M 130
me the sooner you M 130
me the papers with M 130
me the curious and M 130
me of vanity and M 130
me of sorrow and M 130
me no thought can M 130
me my little son M 130
me my lesson and M 130
me in visions and M 130
me in speech and M 130
me in opposing this M 130
me in mortal fear M 130
me go through and M 130
me do better than M 130
me by something that M 130
me be always and M 130
me as greater than M 130
me an unjust war M 130
me the blessing that M 129
me my second son M 129
me to travel this M 128
me to sample his M 128
me to realize them M 128
me to finish for M 128
me to design her M 128
me to credit them M 128
me to attend two M 128
me to assure our M 128
me to assert and M 128
me to anyone you M 128
me to admire all M 128
me the proper aim M 128
me the meanest and M 128
me the little dog M 128
me on another job M 128
me my answer now M 128
me is realizing that M 128
me in school but M 128
me in praise and M 128
me in pieces for M 128
me as before with M 128
me to cancel that M 127
me of someone that M 127
me up toward him M 126
me to remove our M 126
me to refuse and M 126
me to redeem him M 126
me to realize his M 126
me to handle than M 126
me to expose and M 126
me to effect with M 126
me the school had M 126
me the safest way M 126
me the reward for M 126
me the greeting that M 126
me the forest was M 126
me the entire year M 126
me the chance with M 126
me of speech and M 126
me of course she M 126
me no further with M 126
me no better off M 126
me my little bit M 126
me my curious and M 126
me in school with M 126
me by lowering his M 126
me by letter for M 126
me we should put M 124
me up higher and M 124
me to revise all M 124
me to return any M 124
me to repair her M 124
me to record any M 124
me to realize god M 124
me to prison with M 124
me to matter that M 124
me to lament his M 124
me to lament and M 124
me to injure you M 124
me to extend its M 124
me to divert his M 124
me to direct for M 124
me to become any M 124
me to arrange how M 124
me to always use M 124
me the speech and M 124
me the regard and M 124
me the prince had M 124
me the little bag M 124
me the latter end M 124
me the energy for M 124
me no reasons for M 124
me my standing with M 124
me it always did M 124
me in before her M 124
me he should set M 124
me by offering him M 124
me by letter his M 124
me by allowing her M 124
me as deeply and M 124
me an obvious and M 124
me to unfold all M 122
me to regret this M 122
me to object that M 122
me to insist for M 122
me to expect all M 122
me to effect any M 122
me to define who M 122
me to commit him M 122
me to assume she M 122
me to arrest all M 122
me so slowly and M 122
me so greatly with M 122
me as useful and M 122
me as serious and M 122
me to secure one M 121
me is afraid that M 121
me to submit one M 120
me to reject both M 120
me to reduce his M 120
me to measure them M 120
me to listen now M 120
me to defend with M 120
me to assign one M 120
me to always ask M 120
me the safest and M 120
me the little man M 120
me the honour not M 120
me the gospel and M 120
me or showed any M 120
me of something new M 120
me it always had M 120
me is always and M 120
me if someone has M 120
me do something and M 120
me to regard yet M 118
me to measure his M 118
me to follow but M 118
me to define our M 118
me to cancel out M 118
me to assume them M 118
me to arrest this M 118
me to abound with M 118
me the secret you M 118
me the little old M 118
me the disease was M 118
me so pretty that M 118
me on trains and M 118
me on further than M 118
me on another path M 118
me no choice now M 118
me my sister and M 118
me in public that M 118
me in fighting for M 118
me go without one M 118
me by myself with M 118
me be treated with M 118
me at meetings and M 118
me as fitter for M 118
me an unjust man M 118
me as another one M 117
me to wonder not M 116
me to secure any M 116
me to school you M 116
me to sanity and M 116
me to reduce that M 116
me to realize its M 116
me to measure its M 116
me to lament her M 116
me to invite and M 116
me to insist long M 116
me to follow than M 116
me to attack that M 116
me to arrange any M 116
me to affect being M 116
me the hatred and M 116
me the doctor who M 116
me of removing this M 116
me of course was M 116
me in school one M 116
me in greater and M 116
me in future for M 116
me in church this M 116
me he wanted them M 116
me he waited for M 116
me by touching his M 116
me at school this M 116
me as strange how M 116
me as pretty and M 116
me an effort not M 116
me an active and M 116
me to release one M 115
me up behind her M 114
me up around two M 114
me to whoever was M 114
me to unfold its M 114
me to suffer one M 114
me to expand our M 114
me to endure its M 114
me to choose with M 114
me to button his M 114
me to always get M 114
me to accept how M 114
me the secret was M 114
me the sacred dead M 114
me the pledge that M 114
me the person and M 114
me the notice and M 114
me the newest and M 114
me the feelings and M 114
me the charge and M 114
me so signal and M 114
me so obvious and M 114
me or anyone with M 114
me on through all M 114
me of someone and M 114
me my desire for M 114
me in securing for M 114
me in mourning for M 114
me in manner and M 114
me in allowing you M 114
me he should ask M 114
me to relive that M 113
me to church that M 113
me to better see M 113
me in reality that M 113
me up before going M 112
me up around ten M 112
me to wisest men M 112
me to notify her M 112
me to honour her M 112
me to decide things M 112
me to become both M 112
me to attend our M 112
me the reasons you M 112
me the lovely one M 112
me or simply being M 112
me on little things M 112
me of quitting this M 112
me my family had M 112
me my clothes now M 112
me my chance for M 112
me it seemed then M 112
me is heavier than M 112
me is almost too M 112
me in person but M 112
me he wanted out M 112
me he always has M 112
me by repeating his M 112
me by advice and M 112
me as pointing out M 112
me as little for M 112
me as almost too M 112
me an answer then M 112
me to filter out M 111
me by desiring that M 111
me to unjust and M 110
me to school all M 110
me to resign this M 110
me to reduce our M 110
me to record him M 110
me to realize with M 110
me to notify his M 110
me to credit that M 110
me to charge all M 110
me to cancel them M 110
me to assist this M 110
me to another day M 110
me to afford one M 110
me the symbol and M 110
me the spirit for M 110
me the pretty things M 110
me the prayer that M 110
me the oldest and M 110
me the manner how M 110
me the church has M 110
me so silent and M 110
me on starting for M 110
me of strange and M 110
me in training for M 110
me in behind him M 110
me in amongst them M 110
me he thought was M 110
me go abroad with M 110
me as surety for M 110
me an animal and M 110
me the credit that M 109
me to suffer his M 108
me to revive this M 108
me to measure him M 108
me to forbid her M 108
me to behold his M 108
me to accept new M 108
me the summer was M 108
me the habits and M 108
me the course with M 108
me the animal was M 108
me so through and M 108
me or mortal man M 108
me of violating her M 108
me of renewing and M 108
me in carrying him M 108
me he thought one M 108
me go through her M 108
me do little things M 108
me an amused and M 108
me to rethink that M 107
me to summon one M 106
me to stress how M 106
me to rights with M 106
me to return too M 106
me to regret not M 106
me to purify and M 106
me to handle was M 106
me to favour his M 106
me to expand them M 106
me to ensure his M 106
me the simple way M 106
me the formal and M 106
me the chance you M 106
me the attack was M 106
me the answer with M 106
me so anxious and M 106
me so angrily that M 106
me or anyone that M 106
me no deeper joy M 106
me my reward for M 106
me my former being M 106
me is always dear M 106
me in meetings with M 106
me in itself and M 106
me in detail her M 106
me he missed his M 106
me to supply one M 105
me to enlist for M 105
me to unfold them M 104
me to relent and M 104
me to release that M 104
me to pursue its M 104
me to modify them M 104
me to modify any M 104
me to ignore one M 104
me to forget now M 104
me to doctor him M 104
me to desist for M 104
me to combat them M 104
me to choose not M 104
me to assume they M 104
me to advise all M 104
me to absorb that M 104
me the moment had M 104
me the clothes that M 104
me the chance now M 104
me so sacred and M 104
me so kindly with M 104
me of little things M 104
me my letter was M 104
me he wished his M 104
me he thought her M 104
me he placed his M 104
me he called her M 104
me as special and M 104
me an object and M 104
me so urgent that M 103
me on another one M 103
me in ensuring that M 103
me in deciding that M 103
me to verify all M 102
me to supply for M 102
me to relate her M 102
me to regain his M 102
me to reality and M 102
me to permit this M 102
me to pardon this M 102
me to obtain him M 102
me to follow for M 102
me to falter and M 102
me to detect them M 102
me to define its M 102
me to better deal M 102
me to assign any M 102
me the victim was M 102
me the thought was M 102
me the result and M 102
me the prices and M 102
me the nearest and M 102
me the better and M 102
me so serious and M 102
me so lonely and M 102
me no higher than M 102
me no answer all M 102
me my letter and M 102
me in humble and M 102
me in closer and M 102
me as should not M 102
me an oracle and M 102
me an humble and M 102
me an honour that M 102
me the legend that M 101
me he stands out M 101
me we should use M 100
me to rescue this M 100
me to repair and M 100
me to remove with M 100
me to remain off M 100
me to escape her M 100
me to enrich this M 100
me to direct its M 100
me to desire its M 100
me the vessel was M 100
me the unique and M 100
me the subtle and M 100
me the speaker was M 100
me the report for M 100
me the remark was M 100
me the reasons and M 100
me the moment has M 100
me the ladies are M 100
me the friend that M 100
me the figure and M 100
me so deeply for M 100
me on before you M 100
me of marrying her M 100
me no sooner had M 100
me my friend had M 100
me my errors and M 100
me in wishes for M 100
me in charge now M 100
me if something bad M 100
me he states that M 100
me as unborn and M 100
me as lovely and M 100
me an answer not M 100
me to effect that M 99
me to wander far M 98
me to subdue them M 98
me to strange and M 98
me to ignore and M 98
me to figure how M 98
me to endure than M 98
me to detail for M 98
me to behold all M 98
me to awaken and M 98
me to attain and M 98
me to answer both M 98
me to afford new M 98
me the wisest man M 98
me the second they M 98
me the papers they M 98
me the orders you M 98
me the master and M 98
me the lesson was M 98
me of accusing you M 98
me is another way M 98
me in direct and M 98
me in detail with M 98
me in deciding how M 98
me in blessing god M 98
me in another area M 98
me go through each M 98
me be square and M 98
me an injury you M 98
me to unfold his M 96
me to tackle her M 96
me to rethink our M 96
me to resume and M 96
me to remain this M 96
me to prefer any M 96
me to permit his M 96
me to occupy any M 96
me to modify his M 96
me to lament with M 96
me to inject you M 96
me to escape any M 96
me to define for M 96
me to credit you M 96
me to another who M 96
me to afford this M 96
me the secret way M 96
me the lowest and M 96
me the lights and M 96
me the honour this M 96
me the affair had M 96
me so furious with M 96
me my master has M 96
me it seemed one M 96
me it begins with M 96
me is surely not M 96
me in through his M 96
me in thought one M 96
me in pursuing them M 96
me in charge not M 96
me in blessing and M 96
me he smiled with M 96
me at school had M 96
me as myself and M 96
me as direct and M 96
me we should both M 94
me to wonder with M 94
me to retire too M 94
me to repair that M 94
me to remark this M 94
me to oppose that M 94
me to master all M 94
me to ground them M 94
me to design him M 94
me to choose who M 94
me to branch off M 94
me to become with M 94
me to battle for M 94
me to assume too M 94
me to assess its M 94
me the voyage was M 94
me the market was M 94
me the letter this M 94
me the ground and M 94
me so without any M 94
me on without any M 94
me on course with M 94
me of summer and M 94
me of strange things M 94
me of something with M 94
me of something bad M 94
me my prayer was M 94
me it seemed far M 94
me in return any M 94
me in desiring you M 94
me in before she M 94
me in allowing him M 94
me he called for M 94
me do without them M 94
me do another one M 94
me be envied and M 94
me at meetings with M 94
me as already dead M 94
me up enough that M 92
me up enough for M 92
me to sample her M 92
me to rethink things M 92
me to release and M 92
me to number them M 92
me to mention for M 92
me to invite two M 92
me to emerge out M 92
me to direct one M 92
me to credit him M 92
me to button her M 92
me to become not M 92
me to aspire for M 92
me the writer who M 92
me the sounds and M 92
me the secret she M 92
me the purest joy M 92
me the object for M 92
me the horror and M 92
me the design and M 92
me on visiting day M 92
me of something they M 92
me no choice then M 92
me in winter and M 92
me in return her M 92
me in reality and M 92
me in person this M 92
me in person than M 92
me in earnest that M 92
me he thought all M 92
me he caught her M 92
me be deemed mad M 92
me at church one M 92
me as something too M 92
me an honest day M 91
me to update you M 90
me to unfold and M 90
me to subdue this M 90
me to resign you M 90
me to repent for M 90
me to redeem them M 90
me to punish and M 90
me to phrase and M 90
me to notice its M 90
me to meddle now M 90
me to master and M 90
me to foster and M 90
me to forget she M 90
me to escape all M 90
me to commit one M 90
me to attend law M 90
me to ascend this M 90
me to affect its M 90
me to advise our M 90
me the teacher had M 90
me the pieces that M 90
me the matter and M 90
me sing another song M 90
me of pointing out M 90
me of course they M 90
me of carrying out M 90
me no tricks now M 90
me no spirit for M 90
me no amends for M 90
me in sudden and M 90
me in studying and M 90
me in another two M 90
me he looked for M 90
me go further with M 90
me by offering his M 90
me by another who M 90
me by always being M 90
me be humble and M 90
me at school but M 90
me as useful for M 90
me as unfair and M 90
me an honour far M 90
me an editor who M 90
me the number two M 89
me he agreed that M 89
me to summon his M 88
me to suffer its M 88
me to signal him M 88
me to regret any M 88
me to market with M 88
me to lengthen this M 88
me to design one M 88
me to define how M 88
me to decide why M 88
me to couple with M 88
me to conceal and M 88
me to combat and M 88
me to choose our M 88
me to ascend and M 88
me to another year M 88
me the unjust and M 88
me the reward you M 88
me the moment this M 88
me the doctor has M 88
me so wicked and M 88
me so simply that M 88
me or anyone but M 88
me of honour and M 88
me no options but M 88
me my prayer and M 88
me my belief that M 88
me is always with M 88
me in broken and M 88
me he wanted him M 88
me he paused and M 88
me do strange things M 88
me by repeating this M 88
me be direct with M 88
me be calmer yet M 88
me as something they M 88
me as family and M 88
me as another son M 88
me as always being M 88
me an advice for M 88
me to borrow that M 87
me he writes that M 87
me up before that M 86
me up before his M 86
me to suffer thus M 86
me to shadow him M 86
me to reward this M 86
me to resume that M 86
me to report our M 86
me to remark then M 86
me to remain thus M 86
me to pursue one M 86
me to intend and M 86
me to insist with M 86
me to figure them M 86
me to expect one M 86
me to detach one M 86
me to demand them M 86
me to debate him M 86
me to beware how M 86
me to attend both M 86
me to afford all M 86
me to affirm her M 86
me to admire how M 86
me to adjust this M 86
me the remote and M 86
me the relics and M 86
me the letter they M 86
me the garden was M 86
me the bright idea M 86
me the better one M 86
me the answer has M 86
me so eagerly that M 86
me on another and M 86
me of friend and M 86
me my future was M 86
me my brother has M 86
me in planning this M 86
me in mortal sin M 86
me in deeper than M 86
me he should lead M 86
me he cleared his M 86
me go beyond this M 86
me by quitting this M 86
me at twelve and M 86
me as writer and M 86
me as wholly new M 86
me as merely one M 86
me an escort for M 86
me an almost new M 86
me an absurd one M 86
me up unless you M 84
me up nicely for M 84
me to someone new M 84
me to result with M 84
me to resign her M 84
me to remain yet M 84
me to regard its M 84
me to realize our M 84
me to pursue god M 84
me to pledge you M 84
me to myself not M 84
me to mention each M 84
me to insist too M 84
me to expand his M 84
me to enlist with M 84
me to divine and M 84
me to cancel her M 84
me to banish him M 84
me to arrange one M 84
me the proper path M 84
me the lights out M 84
me the hidden things M 84
me the future and M 84
me the enigma that M 84
me the damage was M 84
me the carrying out M 84
me so greatly and M 84
me of another boy M 84
me no choice and M 84
me my second cup M 84
me my demand you M 84
me it worked out M 84
me it stands out M 84
me it appears too M 84
me is simply one M 84
me in various and M 84
me in toward him M 84
me in surety with M 84
me in simple and M 84
me in church one M 84
me in charge was M 84
me in battle with M 84
me in another job M 84
me he always was M 84
me by another old M 84
me as without any M 84
me to tackle that M 83
me to remove two M 82
me to prefer them M 82
me to perish and M 82
me to measure you M 82
me to measure her M 82
me to grieve you M 82
me to desire them M 82
me to attend was M 82
me to arrive for M 82
me to access this M 82
me to access his M 82
me the letter did M 82
me the former was M 82
me the causes and M 82
me so fearful that M 82
me of another that M 82
me no sooner than M 82
me is already dead M 82
me in meetings and M 82
me he should try M 82
me by jealous and M 82
me be better than M 82
me as slowly and M 82
me as obvious and M 82
me an answer one M 82
me an animal who M 82
me to wander with M 80
me to wander thus M 80
me to tackle and M 80
me to stands near M 80
me to resume them M 80
me to resign them M 80
me to repair them M 80
me to remain lying M 80
me to realize was M 80
me to obtain new M 80
me to invite for M 80
me to further them M 80
me to expect two M 80
me to detect its M 80
me to demand his M 80
me to delete this M 80
me to decide one M 80
me to commit for M 80
me to access new M 80
me to absorb his M 80
me the letter but M 80
me the friend who M 80
me the course was M 80
me the charge was M 80
me the blessing and M 80
me or another man M 80
me of wonder and M 80
me of thought and M 80
me of school and M 80
me no further and M 80
me my feelings are M 80
me it seemed for M 80
me is something for M 80
me in return how M 80
me in prison all M 80
me in favour with M 80
me in church with M 80
me in another lie M 80
me he should say M 80
me he killed her M 80
me he forgot his M 80
me he called his M 80
me he always sat M 80
me go through one M 80
me or something that M 71
me to denote that M 63
me to actions that M 62
me to detect that M 57
me in church that M 54
me in charge that M 54
me the relief that M 53
me in safety out M 52
me by myself that M 52
me to marvel that M 49
me at church that M 48
me to myself that M 47
me the powers that M 47
me the homage that M 47
me to divide that M 45
me the energy that M 45
me an earnest that M 45
me to notify that M 44
me the passion that M 43
me is always that M 43
me in clothes that M 43
me up inside that M 42
me to listen long M 42
me as waters that M 42
me in realizing that M 41
me he walked out M 41
me he turned off M 41
me he learned that M 41
me by repeating that M 41
me the proper one M 40
me or better yet M 40
me to dinner and D 7216
me to convey his D 5750
me to dinner with D 4148
me to strive for D 2776
me to detain you D 2574
me in opinion that D 2411
me to settle with D 2327
me the opinion that D 2296
me to reckon with D 2256
me to entreat you D 2104
me to settle for D 2032
me the recipe for D 1918
me to strike out D 1859
me no farther than D 1840
me to convey her D 1614
me to dinner that D 1502
me to convey this D 1346
me to render you D 1330
me the bottle and D 1322
me at dinner that D 1322
me in french and D 1316
me to tender you D 1284
me to accord with D 1280
me to render him D 1266
me to salute you D 1250
me to settle this D 1182
me to concur with D 1168
me at dinner and D 1140
me to review his D 1080
me to exhort you D 1064
me to dinner one D 1016
me as singular that D 966
me to dinner for D 954
me to employ him D 884
me to review and D 862
me an outlet for D 834
me the police had D 832
me to supper with D 812
me to oblige you D 810
me to employ them D 790
me to locate and D 764
me to render this D 756
me to places that D 754
me in smoothing them D 752
me to stroke her D 746
me in french that D 736
me to switch off D 729
me the creeps and D 724
me to caress her D 718
me as thunder and D 718
me to offend you D 716
me the ticket and D 716
me to strike you D 714
me my coffee and D 712
me of flirting with D 704
me to strike him D 702
me to alight and D 688
me to peruse his D 686
me to refine and D 682
me to supper and D 676
me to oblige him D 676
me to insert them D 662
me to sketch out D 658
me to follow thee D 653
me at dinner one D 643
me so damned mad D 642
me up bodily and D 628
me to seduce you D 620
me to render her D 612
me to ferret out D 610
me my ticket and D 606
me to render them D 576
me an office and D 576
me to review them D 564
me to review this D 552
me my portion and D 546
me to render any D 544
me so warmly that D 531
me in revenge for D 530
me in terror and D 508
me to bugger off D 499
me to launch out D 494
me the hammer and D 488
me to stroke his D 486
me to convey that D 484
me to settle our D 474
me in accord with D 472
me the finest and D 464
me to review all D 460
me to trifle with D 448
me so warmly and D 448
me to entreat that D 446
me to rejoin him D 442
me to desert you D 440
me in assuring you D 436
me to settle that D 431
me the french are D 430
me no bigger than D 426
me to insert this D 420
me to survey this D 418
me to recite them D 416
me the skills and D 408
me to settle all D 406
me to places and D 406
me to tamper with D 400
me to esteem and D 396
me to praise thee D 394
me to convey any D 390
me to dinner but D 384
me to dinner this D 382
me to convey them D 380
me to coffee and D 378
me in places that D 378
me by claiming that D 377
me the sights and D 376
me to settle his D 374
me to review with D 370
me my bonnet and D 370
me my salary for D 364
me the ticket for D 358
me to locate him D 356
me on campus and D 356
me the police are D 354
me to refute this D 352
me to review for D 350
me to employ this D 350
me of ghouls and D 348
me my dinner and D 348
me up hotter than D 346
me to anoint thee D 346
me the pencil and D 342
me in silver and D 342
me to shower and D 340
me the places that D 335
me to stroke him D 332
me the coffee and D 332
me be candid with D 332
me to unpack and D 330
me to locate her D 330
me the pistol and D 330
me to employ you D 328
me so firmly that D 326
me to salute her D 322
me up stairs and D 320
me to detain him D 318
me to puzzle out D 317
me in locating and D 316
me to esteem you D 306
me to accost you D 304
me an opinion that D 303
me to desert him D 302
me in bodily fear D 301
me to employ all D 300
me so coldly that D 300
me at dinner with D 300
me to convey him D 298
me to rejoin them D 296
me so sleepy that D 296
me of trifling with D 296
me to launch this D 294
me be clothed with D 294
me of spoiling him D 292
me to peruse them D 290
me the dearest and D 290
me so lovingly and D 286
me my gloves this D 284
me to settle them D 278
me the shores and D 278
me the recipe and D 278
me an asylum for D 278
me to resent any D 276
me to render his D 276
me in claiming that D 276
me to ponder his D 274
me at dinner was D 272
me he talked with D 268
me to hazard any D 266
me to ponder this D 264
me to strike thee D 263
me to ponder and D 260
me to pacify him D 260
me to sketch them D 258
me to forget thee D 258
me the target for D 258
me my supper and D 258
me to retreat with D 256
me to rejoin her D 256
me the brandy and D 256
me to insult you D 252
me to seduce her D 250
me in august and D 250
me the pillow you D 248
me to oxford and D 246
me to locate this D 246
me an orphan and D 246
me to strike her D 244
me to caress him D 244
me to salute him D 242
me the esteem and D 242
me the creeps with D 242
me to ponder how D 240
me to insult him D 238
me my jacket and D 238
me in shorts and D 238
me in figuring out D 238
me to render all D 236
me to shiver and D 234
me to resent this D 232
me the motive for D 232
me the horses and D 232
me the french for D 232
me at oxford and D 232
me to esteem him D 230
me thy favour and D 230
me of meddling with D 230
me of assuring you D 230
me by agreeing with D 230
me to movies and D 228
me to rejoin you D 224
me to accost him D 222
me the signet and D 222
me the needle and D 222
me the drawings and D 222
me in revising and D 222
me to locate you D 218
me to insert that D 218
me to detain them D 218
me at recess and D 218
me to insure that D 217
me to refute them D 216
me to prolong this D 216
me to peruse and D 216
me in opinion and D 216
me to convey you D 214
me the chiefs and D 214
me the blabbing lip D 214
me nae better than D 214
me at supper that D 214
me to review our D 212
me to review her D 212
me to insure him D 212
me to desert them D 212
me to desert her D 212
me to repose for D 210
me to pester you D 210
me it avails not D 210
me to inform thee D 208
me so morose and D 208
me my opinion and D 208
me to seduce him D 206
me to rebuke thee D 206
me to invest with D 206
me to refute his D 204
me the golden cap D 204
me to impute his D 202
me to employ any D 202
me to digest this D 202
me the silver and D 202
me to invest for D 200
me to strive with D 198
me to hinder you D 198
me to convey our D 198
me the basket and D 198
me the avowal that D 196
me the perils and D 194
me as quaint and D 194
me by alleging that D 193
me to strive and D 192
me to strike off D 192
me to botany bay D 192
me my scales and D 190
me in arranging for D 190
me as tigers and D 190
me to shield you D 186
me to locate them D 186
me to invade his D 186
me to mediate for D 184
me to entreat and D 184
me of spending too D 184
me to unveil this D 182
me to rejoin his D 182
me to recite for D 182
me to buckle with D 182
me as haunting him D 182
me to recite all D 180
me to oblige her D 180
me to strike them D 178
me to forget thou D 178
me to derive any D 178
me the bottle with D 178
me of dragging his D 176
me my salary and D 176
me be damned for D 176
me to stroke them D 174
me to settle and D 174
me to gamble with D 174
me to employ that D 174
me the opinion you D 174
me so striking and D 174
me by inches and D 174
me at staple inn D 174
me to shield him D 172
me to insert his D 172
me to harass her D 172
me to coughing and D 172
me so drowsy that D 172
me in revising this D 172
me in another car D 172
me to always wear D 171
me to employ her D 170
me the creeps too D 170
me my shield and D 170
me in office and D 170
me to unpack for D 168
me to inform yon D 168
me so coldly and D 168
me to bethink and D 166
me as deriving far D 166
me to disown them D 164
me to bespeak for D 164
me so readily and D 164
me on settling with D 164
me by refusing his D 164
me the office was D 162
me the jacket and D 162
me an office job D 162
me to hammer out D 160
me to detain her D 160
me the ransom thou D 160
me the guitar and D 160
me at oxford that D 160
me as coarse and D 160
me to insult and D 158
me to convey its D 158
me if impious war D 158
me to tender his D 156
me to settle him D 156
me to locate his D 156
me to digest them D 156
me to advise thee D 156
me the driver was D 156
me the dollar and D 156
me to strike for D 154
me to starve with D 154
me to oblige them D 154
me to gossip with D 154
me the jewels and D 154
me so lovingly that D 154
me to starve and D 152
me the troops are D 152
me the potions and D 152
me the canvas bag D 152
me by flirting with D 152
me as hollow and D 152
me as firmly and D 152
me to tickle her D 150
me to stroll with D 150
me to remind thee D 150
me to puzzle things D 150
me to convey all D 150
me the photos and D 150
me the flight was D 150
me of treason and D 150
me go shopping with D 150
me at dinner this D 150
me an exciting and D 150
me to recite and D 148
me to polish and D 148
me to offend him D 148
me the mirror and D 148
me the french had D 148
me by terror and D 148
me to snatch her D 146
me to accord him D 146
me the powder and D 146
me of solemn and D 146
me to shield her D 144
me to rattle off D 144
me to curdle and D 144
me to convey how D 144
me on entering this D 144
me of snakes and D 144
me in refusing this D 144
me in french for D 144
me in cigars for D 144
me to render thee D 143
me to tinker with D 142
me to enroll for D 142
me to dinner two D 142
me the shovel and D 142
me the rudest old D 142
me so tender and D 142
me by spelling them D 142
me by another pang D 142
me at oyster bay D 142
me to sketch for D 140
me to invent them D 140
me the packet and D 140
me the office and D 140
me the bucket and D 140
me to strike with D 138
me to shriek with D 138
me to review that D 138
me to poison all D 138
me to exhort and D 138
me the titles and D 138
me my dinner was D 138
me by arranging for D 138
me to fondle him D 136
me to desert and D 136
me the keener for D 136
me the graver for D 136
me so rudely that D 136
me in arranging and D 136
me as stuffy and D 136
me to survey and D 134
me to snatch you D 134
me to scenes and D 134
me to mediate with D 134
me to acquit him D 134
me in esteem and D 134
me be fodder for D 134
me an esteem for D 134
me to settle things D 132
me the island was D 132
me the fruits that D 132
me the french and D 132
me the finest that D 132
me the diamond cup D 132
me the artist who D 132
me in height and D 132
me to supper one D 130
me to invest all D 130
me to fasten her D 130
me the trifling sum D 130
me the thunder has D 130
me in oxford and D 130
me as singular was D 130
me an amulet that D 130
me to retort that D 128
me to refine this D 128
me to dances and D 128
me the singular and D 128
me my squire and D 128
me to unwind and D 126
me the tinder box D 126
me the dagger and D 126
me of office and D 126
me at supper with D 126
me at supper and D 126
me in therapy that D 125
me to render our D 124
me to remind yon D 124
me to ponder why D 124
me to dispel this D 124
me to desert this D 124
me so darned mad D 124
me no farther for D 124
me my gloves and D 124
me to saddle and D 122
me to review him D 122
me to retreat and D 122
me to prolong her D 122
me to poison you D 122
me to insult her D 122
me to hinder kings D 122
me to fondle her D 122
me to esteem its D 122
me to broach this D 122
me the wolves and D 122
me the creeps now D 122
me the cheese and D 122
me in theology and D 122
me by shouting and D 122
me as singular and D 122
me to quaint old D 120
me to plague you D 120
me to parley with D 120
me the skills that D 120
me the bridge was D 120
me my sweater and D 120
me in august that D 120
me up faster than D 118
me to thyself with D 118
me to resent her D 118
me to render that D 118
me to kidnap you D 118
me to invent new D 118
me to fasten his D 118
me to bestow one D 118
me thy blessing and D 118
me the places you D 118
me the pillow that D 118
me the basket with D 118
me in french with D 118
me an office with D 118
me to theorize that D 116
me to sketch him D 116
me to settle any D 116
me to rebuke you D 116
me the hurrying and D 116
me the chills and D 116
me the cancer had D 116
me of opinion that D 116
me is bigger than D 116
me he kissed her D 116
me an office for D 116
me to tumble off D 114
me to peruse this D 114
me to oyster bay D 114
me the parcel and D 114
me the flower and D 114
me the charts and D 114
me the bundle and D 114
me of seducing you D 114
me eat humble pie D 114
me to plough this D 112
me to pester them D 112
me to oxford for D 112
me to behold thee D 112
me the shopping bag D 112
me the extent and D 112
me my wallet and D 112
me in erecting this D 112
me an amiable and D 112
me to supper that D 111
me to employ one D 111
me to haggle with D 110
me to fasten them D 110
me to derive its D 110
me the portion that D 110
me the hangman and D 110
me the creeps all D 110
me in tracts for D 110
me to review one D 108
me to resent his D 108
me to rebuke him D 108
me to polish you D 108
me to polish off D 108
me to fiddle with D 108
me to crouch and D 108
me the tender and D 108
me the painting was D 108
me the creeps for D 108
me in inviting you D 108
me to unload and D 106
me to salute thee D 106
me to saddle him D 106
me to ordain him D 106
me to employ his D 106
me to dinner any D 106
me thy friend for D 106
me my ticket for D 106
me in settling all D 106
me by blurting out D 106
me an outfit for D 106
me to strike one D 105
me to sketch her D 104
me to review any D 104
me to locate that D 104
me to invent and D 104
me to gargle with D 104
me to dinner was D 104
me the dances and D 104
me so striking that D 104
me of thieves who D 104
me of refusing him D 104
me by satire and D 104
me an income for D 104
me an asylum now D 104
me to sketch you D 102
me to ravish you D 102
me to inhale and D 102
me to forbear old D 102
me to dinner too D 102
me to another guy D 102
me to accord them D 102
me the oranges and D 102
me on strange seas D 102
me my hammer out D 102
me in thunder and D 102
me in polish and D 102
me in midair and D 102
me by wrecking all D 102
me to summon tom D 100
me to saddle his D 100
me to invent this D 100
me to answer thee D 100
me to adduce any D 100
me the salary that D 100
me the cancer was D 100
me so tempting that D 100
me of thieves with D 100
me of marching and D 100
me my coffee for D 100
me go farther than D 100
me at dinner you D 100
me as trivial and D 100
me as ransom for D 100
me to stroke and D 98
me to shiver with D 98
me to invest and D 98
me to forbear any D 98
me to become eve D 98
me to appease him D 98
me in bodily and D 98
me go faster than D 98
me the bundle that D 97
me to strike that D 96
me to squire her D 96
me to inform sir D 96
me to entreat him D 96
me the honest bee D 96
me so singular that D 96
me my shirts with D 96
me go ashore and D 96
me an artist who D 96
me to strike his D 94
me to sketch that D 94
me to shrink with D 94
me to prolong our D 94
me to plough and D 94
me to appease our D 94
me to adduce one D 94
me the tiller and D 94
me the mortar and D 94
me the luxury and D 94
me the chariot and D 94
me or ferret out D 94
me my infant boy D 94
me my fiddle and D 94
me in dinner was D 94
me in claiming this D 94
me as thirsty and D 94
me by agreeing that D 93
me to scraping and D 92
me to recite one D 92
me to polish his D 92
me to offend thee D 92
me to grieve thee D 92
me to digest his D 92
me the salary you D 92
me the oddest and D 92
me the cutter can D 92
me the creeps but D 92
me the bottle was D 92
me so readily with D 92
me so languid and D 92
me my portion with D 92
me my helmet and D 92
me in painting was D 92
me in cigars and D 92
me as coldly and D 92
me an exciting new D 92
me to suffer thee D 90
me to stroke its D 90
me to revert for D 90
me to recite this D 90
me to recant and D 90
me to invest you D 90
me to forage for D 90
me to arrest lee D 90
me the violets and D 90
me the thunder was D 90
me the places and D 90
me the paddle and D 90
me the dinner was D 90
me my ticket was D 90
me go farther and D 90
me as clumsy and D 90
me as agreeing with D 90
me to sprout wings D 88
me to refill her D 88
me to recite that D 88
me to muster all D 88
me to insure her D 88
me to insult them D 88
me to insert one D 88
me to fondle and D 88
me to digest and D 88
me to another car D 88
me the scotch and D 88
me so firmly and D 88
me my salary was D 88
me my career was D 88
me in swarms and D 88
me in french how D 88
me by shouting out D 88
me by shooting you D 88
me by pressing his D 88
me at dinner how D 88
me to unload them D 86
me to settle her D 86
me to rework and D 86
me to retreat now D 86
me to recite his D 86
me to portion out D 86
me to employ for D 86
me to digest all D 86
me to adjure you D 86
me the wallet and D 86
me the female sex D 86
me or talked with D 86
me no plague him D 86
me in skinning and D 86
me go ashore with D 86
me an atheist and D 86
me the golden key D 85
me to recoil and D 84
me to invoke his D 84
me to freeze and D 84
me to forbear him D 84
me to detest and D 84
me the painting and D 84
me the device and D 84
me the cushion and D 84
me my nephew who D 84
me is sucked out D 84
me in opinion with D 84
me to tickle his D 82
me to therapy and D 82
me to resent him D 82
me to pardon thee D 82
me to bestow any D 82
me to barter for D 82
me the silver box D 82
me the gloves and D 82
me the coffee was D 82
me the bitter cup D 82
me so rudely and D 82
me so fondly that D 82
me on target and D 82
me of refining too D 82
me of laurel and D 82
me my brother sir D 82
me in sports and D 82
me in scraps and D 82
me in luxury for D 82
me to squint and D 80
me to sketch his D 80
me to repack and D 80
me to mediate and D 80
me to invest him D 80
me to caress them D 80
me to caress his D 80
me the lawyer was D 80
me the breeze was D 80
me on guitar and D 80
me my career and D 80
me be struck with D 80
me an artist and D 80
me to reckon that D 54
me the creeps that D 53
me an income that D 53
me to attest that D 49
me as claiming that D 49
me the flower that D 47
me to settle out D 46
me the dagger that D 45
me to bounce off D 44
me to ponder that D 43
me the bottle that D 43
me the wounds thou D 42
me to digest that D 41
me in french all D 40
