means that all the M 64558
meaning can not be M 53084
meaning and use of M 46797
means that for the M 34664
means that you do M 33760
meant was that the M 29886
means that they do M 28030
means that one is M 25562
means that all of M 25032
meaning that can be M 21802
meant that for the M 21108
means that she is M 20762
meant that all the M 20064
means that this is M 20053
means that one of M 19796
means that god is M 18808
means that both the M 18088
means and how it M 18055
means that can be M 17976
meet with him in M 16981
means that each of M 16772
meant they had to M 16108
meet with them in M 15935
means can not be M 15736
meet with one of M 14967
means for doing so M 14812
meant was that he M 14794
means and not an M 14147
means for them to M 13598
meant she had to M 13542
meaning and end of M 12557
means they can be M 12472
means that may be M 11922
meant for him to M 11582
meet with all the M 11366
meant for you to M 10984
meet with him at M 10578
meet him with the M 10498
meet with any of M 10348
meet with you to M 9030
means that with the M 8792
means for him to M 8784
meant for her to M 8550
means one who is M 8358
meet them with the M 8336
means that man is M 8250
means that one or M 7848
meet and get to M 7803
means that out of M 7786
means for you to M 7612
meant that one of M 7480
means for each of M 7275
meaning than that of M 7223
meet with any thing M 7172
meant for them to M 7140
meaning that they do M 6848
meant you had to M 6824
meaning may not be M 6808
meet him and to M 6606
meet with them to M 6487
meant was that it M 6418
meet with him to M 6360
meaning and can be M 6210
meet any one of M 6140
meant that all of M 6132
meet with you in M 6084
meet him for the M 5996
means than that of M 5970
means and how to M 5936
means they may be M 5884
meaning that all the M 5774
meet with them at M 5481
means and not the M 5398
meet with you at M 5298
meaning and that the M 5209
meant for use in M 5204
means that two or M 5190
meaning for each of M 5112
means and not as M 5078
means all that is M 4946
means they use to M 4866
meaning that may be M 4852
meet them and to M 4540
meet with them on M 4424
meaning and for the M 4300
meant that both the M 4188
meet with him on M 4183
means and end of M 4118
means may not be M 4075
meet him and he M 4066
meant was that we M 4044
meant was that if M 4043
meant that each of M 4018
meet his death in M 3954
means that for an M 3905
meant for him the M 3902
meet him and the M 3800
meant and how it M 3712
means and why it M 3688
means for her to M 3612
means and with the M 3606
means and that the M 3546
meaning and aim of M 3544
meet his death at M 3486
meaning was that the M 3384
means not that the M 3370
means you can be M 3304
meet with each of M 3285
means that lead to M 3229
meet you and to M 3140
means and not by M 3035
means you are in M 2953
meant for this to M 2942
meet with one or M 2934
meaning that this is M 2923
meant was that in M 2876
meant but one thing M 2856
means you may be M 2840
means she has to M 2832
meaning they can be M 2830
meet her with the M 2812
meet you with the M 2780
meaning for him as M 2780
means any one of M 2753
meant that with the M 2744
means you can do M 2738
meaning for all of M 2710
meet with her in M 2698
meet with all of M 2698
meet with him or M 2666
meaning and that it M 2641
means one that is M 2589
meet him with an M 2556
meet them for the M 2552
meant for all the M 2550
meet and try to M 2526
means one has to M 2504
means for god to M 2496
meet them head on M 2481
meaning that she is M 2461
means for all the M 2460
means you get to M 2434
meaning that you do M 2420
means they had to M 2392
meet you for the M 2370
meet with you on M 2365
meant for all of M 2342
means then that the M 2334
meaning and may be M 2329
means they had of M 2328
means they are in M 2325
means that any of M 2312
meaning that all of M 2303
meet with men of M 2268
means they are to M 2260
meaning set out in M 2259
meant one and the M 2248
means you can go M 2220
means one and the M 2216
meet with him as M 2200
meet with him the M 2160
means for man to M 2152
means are not the M 2147
meet her for the M 2146
meant for use by M 2144
means you and me M 2135
meaning and not the M 2129
means that both of M 2109
meet them all in M 2106
meals that can be M 2072
means that each is M 2056
meant war with the M 2040
meaning for all the M 1986
means that are in M 1980
meet them and the M 1976
means for doing it M 1972
means for all of M 1950
meet you all in M 1934
meant for one of M 1930
meet you and the M 1918
meet with two or M 1918
means for men to M 1908
meet with them as M 1894
meant they had no M 1884
meaning one who is M 1879
meet with her to M 1872
meet them with an M 1872
means but not the M 1871
means and for the M 1868
meaning that for the M 1865
means they can to M 1856
meant for them the M 1840
means that are at M 1836
meant she was in M 1835
meet with her at M 1824
means they are the M 1818
meaning for him in M 1818
meaning with that of M 1788
means but one thing M 1786
means that one in M 1785
means easy for the M 1785
means both that the M 1758
meaning and use in M 1756
meaning and that of M 1754
meaning that each of M 1748
meant not that the M 1732
meet for them by M 1731
meet his death by M 1724
meaning for both the M 1718
meaning that one is M 1707
means for him the M 1700
means all that the M 1692
meaning was not to M 1676
means that due to M 1661
meet his end in M 1660
means any act or M 1654
means any act by M 1634
meant all that he M 1620
means all things to M 1599
meet for him to M 1586
meaning for them as M 1580
means that two of M 1577
meet with one in M 1576
means for both the M 1570
meet him near the M 1568
means that heat is M 1566
means that death is M 1556
means can they be M 1556
means are all the M 1554
means and end is M 1547
meant she had no M 1540
meaning they may be M 1534
meant can not be M 1528
means you are to M 1514
meaning that god is M 1514
means are not to M 1513
meant all things to M 1510
means and that it M 1504
meant was that no M 1475
means that you no M 1475
meant death for the M 1468
meant and how to M 1468
means that now the M 1468
means that using the M 1465
meet one day in M 1454
means for you is M 1448
meet her and the M 1444
means you get the M 1438
meaning and not to M 1435
means and how the M 1434
meaning that one of M 1425
meet with you as M 1418
meet her and to M 1418
means that are to M 1402
meant that one or M 1394
meaning that both the M 1394
means get rid of M 1390
meet and beat the M 1384
meaning than that the M 1382
means any act of M 1379
meant that out of M 1372
meant that this is M 1370
means are all of M 1368
means all that it M 1366
means that all is M 1363
means that with an M 1359
meet them all at M 1352
meant than that the M 1336
meaning for them in M 1318
meant that they no M 1307
meaning and how it M 1304
means you use to M 1300
means and end in M 1294
meet with god in M 1286
meant that god is M 1276
means that that is M 1276
meals can not be M 1270
means you are the M 1268
means that you go M 1260
meaning was that he M 1259
means that use of M 1254
meet one who is M 1246
meet and sit at M 1238
meant not for the M 1238
meaning for both of M 1230
meant for that to M 1228
means let them be M 1219
means they had at M 1216
meaning was that of M 1201
means all that he M 1198
means are not at M 1197
meant that few of M 1194
meant for any of M 1186
means any one or M 1177
means that they go M 1165
means that his or M 1162
meaning and with the M 1162
meaning being that the M 1158
means and all the M 1157
meant for both of M 1154
meant one day to M 1152
meet his death on M 1150
meet with her on M 1140
meaning and that is M 1140
means they can do M 1136
meant that two of M 1134
means death for the M 1131
meaning for him or M 1124
means that they no M 1123
means and not to M 1123
meant one that is M 1112
meet with you or M 1110
meaning they had in M 1098
meet death with the M 1096
means going out of M 1088
means for using the M 1084
means and how we M 1082
meet with two of M 1072
meet with both of M 1072
meaning they had to M 1072
means not that he M 1071
meet any one in M 1046
meaning but not the M 1040
meant for him or M 1018
means let him do M 1015
means and can be M 1015
meant for use on M 1014
meaning that has to M 1013
meant one who is M 1010
meaning one and the M 1009
meant for man to M 1002
meet him and we M 996
means any area of M 996
meet and hear the M 992
means you end up M 992
means for doing the M 990
meaning and not in M 989
meet and act as M 978
meet with both the M 974
means for this is M 973
meant for things to M 970
meaning than can be M 969
meet and sit in M 967
means you are on M 964
means not that we M 964
meet with his or M 962
meant one had to M 956
means get out of M 952
meet them all the M 948
means not that it M 948
meant and why it M 942
meaning for him of M 939
meant they had the M 938
meaning and joy in M 938
meals and for the M 938
meals for all the M 936
means that that the M 933
meant for them in M 928
means are not in M 926
meet any one on M 924
meet them out of M 920
meet him and be M 920
meant for use as M 920
meet him out of M 916
meaning has led to M 910
means got rid of M 904
meant that now the M 894
means that are the M 894
means you can to M 892
means that one thing M 881
means and that he M 881
means she had to M 880
means for one thing M 874
meet her with an M 868
meaning and this is M 868
meant that they do M 858
meaning and all the M 856
means being out of M 852
means all that we M 848
meet death with as M 847
means that you as M 845
meant all that is M 844
means let them do M 844
means you are no M 843
meet you all at M 842
means are not so M 839
meet each one of M 836
meet him that he M 834
meant she was on M 834
meant for each of M 832
means that all we M 832
means god with us M 832
means too that the M 827
means they are no M 823
meet with for the M 818
meaning than does the M 818
meaning but for the M 807
meet him for an M 806
meant for them as M 802
meet with that of M 800
meant was not the M 798
meaning and how to M 797
meet you and we M 796
means you are at M 796
meant for him in M 794
meet with them the M 790
means one out of M 789
meet his end at M 786
meet him off the M 784
meaning and joy of M 784
means that led to M 780
meaning and use is M 780
means did all of M 776
means both for the M 776
meaning both for the M 776
meant was that my M 772
means that for us M 771
means that for me M 767
means can lead to M 767
meant that she is M 766
means they try to M 764
meant she was the M 762
meaning for him to M 762
meet each year to M 760
meant she was to M 760
meaning and that he M 759
means may lead to M 758
means and end to M 750
means let him be M 748
means and not of M 748
meant and that he M 746
means say that the M 744
means that being is M 743
meant for both the M 740
meaning and joy to M 740
meant two things to M 738
meaning and then to M 738
meet one set of M 736
meaning for you as M 733
means that few of M 731
means that all or M 731
means and way of M 731
meet and mix in M 730
meaning but not in M 730
meet with one to M 728
meet and act in M 728
meet her she is M 726
means that war is M 719
means you had to M 718
meant and how the M 716
meant all for the M 716
meals may not be M 716
meet for you to M 714
meant for him an M 714
means for one to M 714
means that now we M 713
meaning you and me M 712
meaning and thus to M 711
meant was that as M 708
means with all the M 708
meaning and that we M 708
meaning are not the M 705
meant for him as M 700
means fit for the M 699
meant and that the M 696
means for them the M 695
means did all the M 694
meaning and thus the M 694
means you can eat M 693
meaning can then be M 693
meant for men to M 690
meant not that he M 688
means that near the M 686
meaning was not the M 686
meaning for her in M 686
meals and all the M 684
means can this be M 683
meet this man in M 678
means that you or M 678
means that she or M 677
meaning has yet to M 676
meet him head on M 674
meet with them or M 672
meant for her the M 670
meet for them to M 668
meant that two or M 668
meet each year in M 666
meaning one that is M 665
meet her off the M 664
meant was that an M 662
means set out in M 660
meet and that the M 658
meant and not the M 658
meaning that one or M 656
means that and the M 654
meaning was that it M 653
meet him was to M 652
means and then to M 651
meant both that the M 650
means and that is M 650
means you got to M 648
means that not the M 648
meaning can lead to M 646
meaning that was in M 645
meant and why he M 644
meaning for him is M 640
means that they eat M 636
meaning for you in M 634
meaning than for the M 633
means war with the M 632
means can then be M 632
meaning but that of M 631
means was one of M 629
meaning that man is M 629
meet you out in M 628
means that air is M 628
means and this is M 628
means for you as M 626
meant going out of M 624
means this may be M 624
means for use in M 620
means two things to M 619
meant that man is M 616
meant him for the M 616
means let him go M 616
meaning for him at M 616
meaning than any of M 614
meet and act on M 610
means say that it M 610
means and that of M 608
meant them for the M 606
meet was that of M 604
meals for all of M 604
meet him but he M 602
meant for her in M 602
means that god in M 602
meaning was not at M 600
meaning for her as M 598
means that sin is M 595
meant that both of M 594
meant that she no M 592
meant that any of M 592
meant and how he M 592
meaning and try to M 592
meaning all things to M 588
meet with death in M 586
meet for one of M 586
means are for the M 586
meet for two or M 584
meet all that is M 584
means that owing to M 584
meaning and not as M 581
meet can not be M 580
meet with her the M 578
meals with them in M 578
means she had of M 576
means are due to M 576
means they are at M 575
meet you with my M 574
meet him eye to M 574
meaning for them of M 567
meet with one so M 566
meant who are in M 566
meant she had the M 566
meaning and use to M 566
meet for god to M 564
meant she was no M 564
meaning than they do M 564
meant for that of M 562
means you are an M 560
means are they the M 560
meet him and go M 558
meant that men of M 558
means and may be M 556
meet you both at M 548
means both that it M 545
meet him and do M 544
meet her out of M 544
means and out of M 542
meant that for an M 540
meaning can now be M 539
meaning not that the M 538
meant being out of M 534
meaning and not of M 532
meet with any in M 531
means that lay in M 531
means for easing the M 531
means are not as M 529
meet them one by M 528
meals and two or M 528
means two things in M 527
means going out to M 526
means that for at M 524
means you owe me M 523
means they get to M 522
meant was that by M 520
meant for one thing M 520
meant both for the M 520
meant going out to M 518
meet him was the M 516
meant for men of M 512
meaning and how the M 512
meet not with the M 510
meaning and use it M 510
meet for her to M 508
meet each year at M 508
meaning they are the M 508
meant any one of M 506
meet with may be M 502
meant was that at M 502
means that men do M 502
meant that now he M 500
means and not in M 499
means that god the M 497
meet you with an M 496
means that law is M 496
meaning with all the M 495
meet with and to M 494
meet them near the M 494
meaning was not so M 494
meaning may lead to M 494
means any set of M 493
meet with you if M 492
meet and how to M 492
means you and the M 492
meet you near the M 490
meet for man to M 490
means doing things in M 490
meet any day in M 488
meant for use at M 488
meant and that it M 488
means she may be M 487
meet with her as M 486
meet them both in M 486
meet all but the M 486
meant than that he M 486
meaning that with the M 486
meet his eye in M 484
means that man in M 483
meant too that the M 482
means you can no M 482
meant for him at M 480
means using all the M 480
meant that for me M 478
meaning and that in M 477
means for them in M 476
means any use of M 474
meaning for them to M 474
meaning but with the M 474
means and way to M 473
meaning than that in M 473
means are they to M 472
means and use of M 472
meant all that the M 470
means each one of M 470
meals and going to M 470
meaning and not on M 469
means for both of M 468
meaning and being in M 468
meet with men in M 466
means for any of M 466
meaning for any of M 464
meet him with my M 462
means and one of M 462
meaning than with the M 462
meet you out at M 460
meant that you do M 460
means they can go M 460
meaning not that it M 459
meet them and he M 458
meet him all the M 458
meaning for his or M 458
meant that one is M 456
means may yet be M 454
meals with all the M 454
meet with this in M 453
meet them and be M 452
meals and use of M 452
means but that of M 451
meant that one in M 450
meaning for them at M 450
meaning that two or M 449
means for this to M 448
meaning not that he M 447
meaning and not be M 447
meet with them so M 446
means they are of M 445
meet his son in M 444
means has led to M 444
means that men of M 442
meals and two to M 440
meet them and we M 438
meet and for the M 438
meant for her as M 438
means she has no M 437
means and had to M 437
meaning than this in M 436
meaning but that the M 436
means may then be M 435
meaning they had no M 433
meant was that to M 432
means that area of M 431
meet them and in M 430
means but with the M 430
meaning that was to M 430
meant than that it M 428
meant she was at M 428
means for one of M 428
meaning goes out of M 428
means they can no M 426
means end with the M 425
meet him who is M 424
means they had the M 424
meaning all that is M 423
means that how we M 421
means this can be M 420
means that both in M 420
meant for all to M 416
meet his death as M 415
means than with the M 415
meaning was one of M 413
meet with you so M 412
meet with are the M 412
meet them can be M 412
means and how he M 412
meaning and use as M 412
meaning but that it M 410
meaning and idea of M 410
meet and all the M 408
meant that use of M 408
means let them go M 408
meaning was not in M 408
meaning for them or M 408
meet for man in M 406
means saw eye to M 406
meet with any to M 404
meet and that he M 404
meant that all my M 404
meet her near the M 402
means any two or M 402
means and thus to M 402
meals and did the M 402
meaning but can be M 401
meaning can thus be M 400
meals with him in M 400
meet you both in M 398
meaning that are the M 398
meet each year on M 396
meals and doing the M 396
meaning that out of M 395
means that man as M 393
means for two or M 392
means they are so M 391
meet any one or M 390
means that had the M 390
means they are on M 389
means that all my M 389
means they use in M 387
meet them both at M 386
meet that man in M 386
means you use the M 385
meet one day as M 384
meet him out in M 384
meet and see if M 384
meant not that it M 384
meant for god to M 384
meaning and thus of M 384
meet and set up M 383
meant this was the M 382
means one day to M 382
meet with and be M 380
means all due to M 380
means are out of M 378
meaning now that the M 378
meet and had to M 376
means that one no M 376
meet her and he M 374
meet and pay the M 374
meant for you as M 374
meaning for you or M 374
means that then the M 373
meaning and being of M 373
meet her and we M 372
meaning they are in M 371
means and that we M 369
meet for one or M 368
meant you and me M 368
means are now at M 368
means they had no M 367
means can now be M 367
meet him one of M 366
meant that was the M 366
meant for her or M 366
means and why the M 366
meet with him so M 364
meet its end in M 364
meet you off the M 362
meet with few of M 362
meaning are not to M 361
meant was that of M 360
meals each day in M 360
meaning may then be M 358
meet him and in M 356
meaning for them is M 356
meet him but the M 352
meet him and so M 352
means she can to M 352
meaning and are in M 352
meals each day to M 352
meet this man of M 350
meant going all the M 350
means are apt to M 350
meaning than that it M 350
meaning for him if M 350
meaning and with it M 350
meet him and it M 348
meant all this to M 348
means that and so M 348
means and with no M 348
meet you out on M 346
meet with out of M 346
meet with both in M 346
meet them with my M 346
means but not an M 346
means any area in M 346
meaning that was the M 346
meaning for one of M 346
meaning was that if M 345
meaning that may or M 345
meet you and be M 344
means she has the M 344
means for them as M 343
meet them but the M 342
meant was not so M 342
meant that for at M 342
meant all that it M 342
means then that we M 342
means that are of M 341
meet god and to M 340
meaning that any of M 339
means than any of M 338
meaning and then the M 338
meaning does not in M 337
meet him and my M 336
meet death for the M 336
means for him or M 336
means that each thing M 335
means and men to M 335
meaning one has to M 335
meet his son at M 334
means was this the M 334
meaning for her to M 334
meals and may be M 334
means and end as M 333
meet with him if M 332
meet now for the M 332
means one set of M 332
means easy for us M 332
meals and how to M 332
meaning and are of M 331
means and then by M 330
meet him out at M 328
meet him for tea M 328
meet each day at M 328
meet this day at M 326
meet that one of M 326
means they had in M 326
means may fit us M 326
means for all to M 325
means but not as M 325
meet any man in M 324
means was that of M 324
meaning and lead to M 324
meals with them at M 323
meet his end by M 322
meet and see the M 322
means for her as M 322
means bring them to M 321
meet his eye as M 320
meant for them or M 320
means was out of M 320
means was all of M 320
means that they in M 320
meet our eye in M 318
meet his end on M 318
meant not that we M 318
means that with no M 317
meet with you is M 316
meaning and has no M 316
means and men of M 315
means you try to M 314
means going with the M 314
means being with the M 314
meaning may lie in M 314
means that you eat M 313
means not one of M 313
means both that he M 313
meet them all on M 312
meant was that on M 312
means that things do M 312
means that had to M 312
means any day on M 312
meals and one or M 312
means they end up M 311
meet her and be M 310
means for using it M 310
meaning may thus be M 310
meaning that has no M 309
meaning and use the M 309
meet with joy in M 308
meet this man at M 308
meet that day at M 308
means put out of M 308
meaning was and is M 308
means two things at M 307
meaning they bear in M 307
meet him with it M 306
meet any one at M 306
meant for you or M 306
means she has of M 306
means and try to M 306
meaning she had to M 306
meaning being that he M 306
meet with them if M 304
meet was one of M 304
means that now is M 304
meet with death at M 302
meet with and the M 302
meet them off the M 302
meet them may be M 302
meet his god in M 302
meet his and he M 302
meant his poem to M 302
means you see the M 302
means led him to M 302
meaning was for the M 302
means easy for me M 300
meaning than all the M 300
meals and try to M 300
means that now he M 299
meaning and put it M 299
meaning and myth in M 299
meet them was the M 298
meet you for an M 296
meet them that the M 296
meet her death at M 296
meet each day in M 296
means using all of M 296
means doing all the M 296
means she can be M 295
means and not at M 295
meet this with the M 294
meet and are in M 294
means that god as M 294
meaning are due to M 294
meaning and way of M 294
meet with them by M 293
meet this year in M 292
meet his eye on M 292
meaning that lay in M 292
meaning may now be M 292
meaning that had to M 290
means but for the M 289
meet him out on M 288
means bear out the M 288
meet one day on M 286
meant for them an M 286
means than can be M 286
meaning and how we M 286
meet you and he M 284
means she had at M 284
means and why we M 284
means and use it M 283
meet this set of M 282
meet our god in M 282
means not using the M 282
means any day of M 282
means not going to M 281
means not being in M 281
meet this man on M 280
meet her death in M 280
meet and can be M 280
means was due to M 280
means than this of M 280
meaning that they go M 279
meaning that each is M 279
meet and that is M 278
meals for each of M 278
means one can be M 277
meet him and at M 276
meet and may be M 276
meet and fix the M 276
meant she was as M 276
meant she had an M 276
means that are so M 276
meet with few or M 274
meet any one to M 274
meet and then to M 274
meant she got to M 274
means for you in M 273
meet one day at M 272
means then that in M 272
means that are as M 272
means for things to M 272
means are going to M 272
meaning was easy to M 272
meals for two or M 272
means that men in M 271
meaning for use in M 271
meet with that is M 270
meet any but the M 270
meant for you in M 270
meaning any one of M 269
meet you all on M 268
meet him with as M 268
meant death for me M 268
meant and had no M 268
means and use the M 268
meaning and are the M 268
meet them and go M 266
means going all the M 266
means both that we M 266
meaning than that he M 266
meals and can be M 266
meant two things in M 264
means may now be M 264
means you pay the M 263
meant his son to M 262
means and not on M 262
meaning led him to M 262
meals can lead to M 262
means that they be M 261
meaning man that is M 261
meaning for her at M 261
meet with her or M 260
meet this day in M 260
meet them and do M 260
meet her for tea M 260
meant with all the M 260
meant and why the M 260
means see eye to M 260
means for her the M 260
means and had no M 260
means all for the M 260
meet with but an M 258
meaning you had to M 258
meals and that the M 258
meet may not be M 256
meet each day to M 256
meant they had an M 256
meant for one or M 256
means for going to M 256
meaning that has the M 255
meaning for men of M 255
meet you two at M 254
meet them one at M 254
meet them and at M 254
meet him man to M 254
meant and mean to M 254
means with that of M 254
meaning for man in M 254
meaning and had to M 254
meaning and not by M 253
meet each day as M 252
meant was not to M 252
means but how it M 252
means and who is M 252
means and that in M 252
meet you for so M 250
meet you and my M 250
meet this year at M 250
means you get an M 250
means too that we M 250
means they get the M 250
meaning than did the M 250
means was put in M 249
means she had the M 249
meet with are of M 248
means for one or M 248
means for his or M 248
meaning one way or M 248
meant that that the M 246
means let her be M 246
meant for them no M 245
meaning for you at M 245
meaning and with no M 245
meet this day to M 244
meet her for an M 244
meant all that to M 244
meaning and using it M 244
meet with are in M 242
meet that day in M 242
means that being in M 242
meant this for the M 240
meant not going to M 240
means and thus the M 240
meaning they are to M 240
means yes and no M 239
means too old to M 239
meaning and has to M 239
meet him with me M 238
meet and not be M 238
meek man not at M 238
means that this thing M 238
meaning that led to M 238
meaning does not so M 238
meals each day at M 238
meaning and that no M 237
meant war and the M 234
meant that day to M 234
meant for you at M 234
meant all men to M 234
meaning for her of M 234
meals for both of M 234
meet them for an M 232
meet all six of M 232
meet all men on M 232
means they are as M 232
means any law in M 232
meaning and all of M 232
meals are low in M 232
means may they be M 231
means and using the M 231
meet you all the M 230
meet with you the M 230
meet with one at M 230
meant that due to M 230
means for him is M 230
means being one of M 230
means any real or M 230
meaning that they no M 230
meaning that one in M 229
meet this new foe M 228
meet them and it M 228
meet for him in M 228
means was not the M 228
meaning was that we M 228
means that let us M 227
meant you had no M 226
meant that men in M 226
means that lay to M 226
means but not in M 226
meaning and has the M 226
meals are not the M 226
means now that the M 225
means men use to M 225
means man has of M 225
means and does to M 225
meaning now that it M 225
meet her son in M 224
meet and then go M 224
meet and not to M 224
meant for both to M 224
means they got the M 224
means that now it M 224
means are now in M 224
meaning that his or M 224
meaning and are to M 224
meals are easy to M 224
meet with him is M 222
meet death with an M 222
meek was one of M 222
meant she was up M 222
means with all of M 222
means had all the M 222
means going out on M 222
means are put in M 222
meaning and thus is M 222
meals each day of M 222
means that how the M 221
meet them was to M 220
meant you had the M 220
meant this for an M 220
means you are so M 220
means and then the M 220
meet him and as M 219
meet them out in M 218
meet her end in M 218
meet any one he M 218
meant they may be M 218
meant she was an M 218
meant for two or M 218
meet and are at M 217
means was not to M 216
means for and the M 216
means cut off the M 216
meaning being that it M 216
meals for one or M 216
meals are one of M 216
meet with him by M 215
means death for me M 215
means all that to M 215
meaning and one of M 215
meet her out in M 214
meant that few if M 214
meaning that they eat M 214
meaning for you if M 214
meals are apt to M 214
means that she no M 213
meaning than are the M 213
mend them for me M 212
meant then that the M 212
meet you mean to M 210
meet you and me M 210
meet our eye at M 210
meet off and on M 210
meet but not to M 210
meaning but may be M 210
means see that the M 209
meet you out by M 208
meet and one of M 208
meant you got to M 208
means they are an M 208
means had they of M 208
meals are going to M 208
meals and with the M 208
meals and had to M 208
means thus and so M 207
means that has the M 207
means can all the M 207
mend this for me M 206
meet with death or M 206
meant you not to M 206
meant for use of M 206
means they had an M 206
means may both of M 206
means easy and the M 206
meaning that are in M 206
meaning and lay it M 206
meet with any so M 204
meant that all he M 204
meant and this is M 204
means that going to M 204
means for how we M 204
means for him an M 204
meaning and use by M 204
meals they had to M 204
meals may lead to M 204
means that not as M 203
meaning she had no M 203
meaning does not go M 203
meant for her at M 202
meant and had to M 202
means that fear of M 202
meaning that are at M 202
meaning but that we M 202
meaning are not in M 201
meet him with no M 200
meet for one to M 200
means you got the M 200
means too long to M 200
means not for the M 200
meals that may be M 200
meals and one to M 200
meet two men in M 198
meet his foes in M 198
meet and this is M 198
meant going out in M 198
meals for him in M 198
means one with the M 197
means any sum of M 197
means and not be M 197
meet this and the M 196
meet him now in M 196
meet him and on M 196
means has yet to M 196
meals with her in M 195
meet you out of M 194
meet are not the M 194
meant that they in M 194
means can not do M 194
meaning for men as M 194
means than did the M 193
meet you and go M 192
meet them and so M 192
meet him that is M 192
meet but one of M 192
meet and use the M 192
meant that had the M 192
meant that both he M 192
means you are my M 192
means with them as M 192
means that his is M 192
means easy for an M 192
meaning that death is M 192
meet her and do M 190
means for each to M 190
means all this to M 190
meaning was that in M 190
meals with him at M 190
means that things in M 189
means death and the M 189
meet you for tea M 188
meet with god at M 188
meant this and no M 188
meant them for me M 188
meant but that he M 188
means let this be M 188
means got out of M 188
means are put to M 188
means all things of M 188
means that thus the M 187
means and has the M 187
meaning for one or M 187
meant going out on M 186
meaning than that we M 186
means they use the M 185
means his use of M 185
meaning god with us M 185
meaning and are no M 185
meet with him he M 184
meet them man to M 184
meet one day the M 184
meet him and if M 184
meet and bear the M 184
means one has the M 184
meaning they had at M 183
meaning but one of M 183
meet with them of M 182
meet with one on M 182
meet his idea of M 182
meet his eye at M 182
meet her and my M 182
means that age is M 182
means can all of M 182
meaning lay not in M 182
meaning and each of M 182
meals was one of M 182
meals are not so M 182
meet this that the M 180
meet her eye to M 180
meant not for me M 180
meant for them is M 180
means she was in M 180
means say that he M 180
means death for us M 180
meaning you may be M 180
meaning and law of M 180
means that few if M 179
means not doing the M 179
meet his end as M 178
meet her and go M 178
means you run the M 178
means than war to M 178
means but not to M 178
means and with an M 178
meaning and set of M 178
meals and not to M 178
means that earth is M 177
means and they do M 177
meet you but the M 176
meet with things in M 176
meet his son on M 176
meet him two or M 176
meet and things to M 176
meet and that we M 176
meant war for the M 176
meant his act to M 176
means that not so M 176
means that all in M 176
means each man is M 176
means but not by M 176
means and all of M 176
meaning nor does it M 176
meals for him at M 176
means for fear of M 175
meaning being that of M 175
meet her death by M 174
meant for him is M 174
meant for him by M 174
meant all things of M 174
means that they or M 174
means and that no M 174
meet and bring in M 173
meet and put up M 172
meant that his or M 172
means was that the M 172
means was for the M 172
means for use of M 172
means but that the M 172
means and has to M 172
meaning that was at M 172
meals and does the M 172
means and has no M 171
meaning can not in M 171
meet one man in M 170
meant for one to M 170
meant all that we M 170
means than for the M 170
means see how he M 170
means and why he M 170
meaning that two of M 170
meaning now than it M 170
means one may be M 169
meaning for you to M 169
meet them now as M 168
meet them eye to M 168
meet him was so M 168
meet her one of M 168
meant two things by M 168
meant ere long to M 168
meant doing all the M 168
means she was the M 168
means put off the M 168
means are you to M 168
means any area or M 168
meant than that if M 167
meals are not as M 167
meet with but in M 166
meet for but to M 166
means for him as M 166
means but can be M 166
means any use in M 166
meaning for her if M 165
meet two men by M 164
meet this end the M 164
meet that day to M 164
meet god and be M 164
meet any one as M 164
meet and how the M 164
meant that all we M 164
means are not of M 164
means and set up M 164
meaning that are so M 164
meals are not to M 164
meals and one of M 164
means using one of M 163
means not being the M 163
means for this in M 163
meaning are not so M 163
meet them with as M 162
meet his eye or M 162
meet and then we M 162
meek are going to M 162
meant that six of M 162
meant for them at M 162
means not old in M 162
means are using to M 162
meaning that both of M 162
means that lie in M 161
means and that if M 161
means all can be M 161
meet with god on M 160
meet any one we M 160
meet and win the M 160
means that man by M 160
means going out in M 160
meaning and not at M 160
meet and sit on M 159
means then that if M 159
meaning and can no M 159
meals that are as M 159
meet them was by M 158
meet that they be M 158
meet that man on M 158
meet than that of M 158
meet one that is M 158
meet for fear of M 158
meet and how it M 158
meet and get the M 158
meet all his or M 158
meek and low in M 158
meant that they at M 158
meant that going to M 158
meant him and me M 158
means mean that the M 158
means but this to M 158
means and end at M 158
meaning and thus be M 158
means and aim of M 157
meet his and the M 156
meet her son at M 156
meet any set of M 156
meant that now we M 156
meant for them by M 156
meant but that the M 156
means you buy the M 156
means that was to M 156
means for them is M 156
meaning than has the M 155
meaning for men in M 155
meet was won by M 154
meet this with an M 154
meet them they go M 154
meet him ere he M 154
meet her son on M 154
meant are not the M 154
means this for the M 154
means they had so M 154
means doing things the M 154
means and let the M 154
meaning than this to M 154
meals with one of M 154
meaning that heat is M 153
meaning and one or M 153
meet you one of M 152
meet you but he M 152
meet was not to M 152
meet him that the M 152
meet him not in M 152
meet are going to M 152
meant too that he M 152
meant they got to M 152
means two out of M 152
means put them in M 152
means for him of M 152
means but not of M 152
meaning was not as M 152
meaning than was the M 152
means that six of M 151
means that fear is M 151
means one has no M 151
means doing one thing M 151
meaning for man of M 151
meaning for her is M 151
meet with them is M 150
meet two men on M 150
meet this aim by M 150
meet her head on M 150
meet each set of M 150
meet any two of M 150
meet and with the M 150
meet and read the M 150
means for them of M 150
meet you with as M 149
meet them and as M 149
meant was that so M 149
means that for no M 149
meaning for them if M 149
meaning for her or M 149
meet you may the M 148
meet you and do M 148
meet with all my M 148
meet men and to M 148
meet and that it M 148
means let her do M 148
means but that it M 148
means not all the M 147
means all real or M 147
meaning they use the M 147
meaning that she or M 147
meaning for this is M 147
meet you man to M 146
meet them with so M 146
meet them not in M 146
meet him and me M 146
meant that god the M 146
meant one set of M 146
meant both that it M 146
means that new or M 146
means that for as M 146
meaning that are of M 146
meaning for that of M 146
meals she had to M 146
means you own the M 145
means that being the M 145
means that and we M 145
meaning they bring to M 145
meet with joy the M 144
meet our idea of M 144
meet him for he M 144
meant with him the M 144
meant may not be M 144
meant being one of M 144
means was not so M 144
means than this is M 144
means going for the M 144
meals with them on M 144
meals that had to M 144
meals for them in M 144
meals are for the M 144
meals and that he M 144
means you get no M 143
meaning and with an M 143
mend that and my M 142
meet you with it M 142
meet them with no M 142
meant going with the M 142
meant for one as M 142
meant for him he M 142
meant for any thing M 142
meant death and the M 142
means was this an M 142
means was all the M 142
means that put an M 142
means him and me M 142
meaning that all is M 142
meaning for you of M 142
meaning for man as M 142
meaning they see in M 141
meaning and why it M 141
meet was going to M 140
meet them than to M 140
meet him was at M 140
meet for two to M 140
meant that both in M 140
meant that all or M 140
means who had to M 140
means they lead to M 140
meaning now that he M 140
meaning both that the M 140
meaning and bring it M 140
meals you can eat M 140
meals with them or M 140
meals and use the M 140
meals and for an M 140
means they did it M 139
means she has an M 139
meaning was that no M 139
meaning they had the M 139
meaning that that is M 139
meaning that due to M 139
meet with her by M 138
meet him with so M 138
meet her was to M 138
meant them all to M 138
meant that now it M 138
meant that for us M 138
meant than you or M 138
means who had the M 138
meaning was not an M 138
meaning and not an M 138
meals and all of M 138
meet them all as M 137
meaning that are to M 137
meaning and see the M 137
meet you two in M 136
meet two out of M 136
meet them and on M 136
meant you all my M 136
meant them not to M 136
meant get out of M 136
meant for him no M 136
means that using an M 136
means that for it M 136
means had not the M 136
means for him in M 136
means and does in M 136
meaning and yet be M 136
means you did it M 135
means one year or M 135
meet you and if M 134
meet two men of M 134
meet that year in M 134
meet his end of M 134
meet her eye as M 134
meant that they be M 134
means and are the M 134
meaning and add to M 133
meet with her if M 132
meet with but the M 132
meet them and if M 132
meet her was the M 132
meant him for an M 132
meant for dead or M 132
meant and how we M 132
means that are no M 132
means than all the M 132
means let any of M 132
means how long the M 132
meaning are apt to M 132
meals for him to M 132
means has all the M 131
meaning and being is M 131
mend all that is M 130
meet with one thing M 130
meet this idea in M 130
meet and say to M 130
meant but for the M 130
meant being with the M 130
means they act on M 130
means that any or M 130
means one year of M 130
means for any thing M 130
means but this is M 130
meaning all that he M 130
meals for you to M 130
meals and then to M 130
meek and low of M 129
means two things by M 129
means then that it M 129
means but may be M 129
meaning they put on M 129
meaning are not as M 129
meet with this or M 128
meet for all the M 128
meet and then the M 128
meet and bring me M 128
meant for but to M 128
meant all this in M 128
means who had no M 128
means was not in M 128
means using them as M 128
means that lie to M 128
means that day by M 128
means are put at M 128
means are all in M 128
meaning that was of M 128
meals each day is M 128
means that god or M 127
means one for the M 127
means for that is M 127
means can not in M 127
meaning that use of M 127
meet was not the M 126
meet them was in M 126
meet not then to M 126
meet for him by M 126
meet any day at M 126
meet and see in M 126
means yet out of M 126
means they can in M 126
means that being an M 126
means had yet to M 126
meals with one or M 126
meaning and they do M 125
meet with god to M 124
meet any man or M 124
meant you one of M 124
meant who are of M 124
meant using all the M 124
means you pay no M 124
means with them to M 124
means use them if M 124
means that has to M 124
means dead and the M 124
means and had the M 124
meaning and yet the M 124
meaning and ease of M 124
meet and get on M 123
means for them an M 123
means and you do M 123
meaning with each of M 123
meaning and yet is M 123
meaning and that to M 123
meet with any or M 122
meet was that the M 122
meet them one of M 122
meet our death in M 122
meet now with the M 122
meet its end by M 122
meet his own or M 122
meet his death if M 122
meet her with my M 122
meant was one of M 122
meant that had he M 122
meant for her an M 122
means you had the M 122
means they can eat M 122
means then that he M 122
means that one at M 122
means that all he M 122
means and are in M 122
meaning this was the M 122
meaning but not to M 122
meaning and act as M 122
meaning all that the M 122
meals for them to M 122
meet you and so M 121
means who may be M 121
means not lying to M 121
means for men of M 121
meaning than may be M 121
meet with six of M 120
meet its aim of M 120
meet him but to M 120
meet her and at M 120
meant you for me M 120
means our way of M 120
means not one thing M 120
means may thus be M 120
means ask him or M 120
means and can do M 120
meaning they are no M 120
meaning than one of M 120
meaning but they do M 120
meals fit for the M 120
meals and set the M 120
meet him now as M 119
means that may or M 119
means she was to M 119
means and men at M 119
means all but the M 119
meaning has for the M 119
meet with ere we M 118
meet them and my M 118
meet not for the M 118
meet its day to M 118
meet his own in M 118
meet him and no M 118
meet him and is M 118
meet her but he M 118
meet any real or M 118
meet and ask the M 118
meant they got the M 118
means you put the M 118
means that had it M 118
means than was the M 118
means she has at M 118
means how long it M 118
means being put in M 118
means are and the M 118
meals for both the M 118
means this was the M 117
means has all of M 117
meet that man at M 116
meet our end in M 116
meet one for me M 116
meet its end at M 116
meet death and to M 116
meet and fit to M 116
meant was for the M 116
meant this was an M 116
meant this not as M 116
meant and then to M 116
meant and that is M 116
means you are as M 116
means they act as M 116
means that are or M 116
means being led by M 116
means and thus is M 116
meaning was that so M 116
means she can do M 115
means now that we M 115
means for men in M 115
means and aid to M 115
meaning and thus no M 115
meet this idea of M 114
meet them day by M 114
meet that all the M 114
meet his eye he M 114
meet her and so M 114
meet her and it M 114
meek who are to M 114
meant than that we M 114
meant for man as M 114
meant death for us M 114
means that both he M 114
means one with an M 114
means how far the M 114
means for air to M 114
meaning may not at M 114
meaning had not the M 114
meaning but this is M 114
meaning being that in M 114
means with him the M 113
means they got to M 113
meaning and that an M 113
meaning and aim is M 113
meet with death by M 112
meet them that he M 112
meet them out at M 112
meet them had to M 112
meet his eye to M 112
meet death and the M 112
meet any man on M 112
meek had got to M 112
meant that god in M 112
meant she and the M 112
meant his going to M 112
meant and then he M 112
means that who we M 112
means that aid is M 112
means its lying in M 112
means can thus be M 112
means bring him to M 112
means are not an M 112
meaning that all or M 112
meaning but that is M 112
meals for use in M 112
meals for fear of M 112
meet that one so M 111
means you set the M 111
meaning you can do M 111
meaning that has an M 111
meet you eye to M 110
meet that dog of M 110
meet its end of M 110
meet him that we M 110
meet her but to M 110
meet for men of M 110
meant that man in M 110
meant for this or M 110
means with him to M 110
means that lead is M 110
meaning you see in M 110
means using one or M 109
means they see the M 109
means not all of M 109
means god may be M 109
means for you the M 109
means but one of M 109
meaning for you is M 109
meaning but has no M 109
meaning and who is M 109
meet you with so M 108
meet with them no M 108
meet this gap in M 108
meet things head on M 108
meet them and is M 108
meet one with the M 108
meet him now he M 108
meet her end at M 108
meet god and the M 108
meet and one is M 108
meet and bring the M 108
meant was not an M 108
meant that using the M 108
meant she was so M 108
meant all but the M 108
means you can in M 108
means was not an M 108
means that set of M 108
means that has no M 108
means not doing it M 108
means deal with the M 108
means and was in M 108
means all had the M 108
meaning they try to M 108
meaning can not of M 108
meaning but that he M 108
meaning are not at M 108
means you may at M 107
means that that it M 107
means for use by M 107
meaning both that it M 107
meaning being that if M 107
meaning and led to M 107
meet his men in M 106
meet his men at M 106
meet him not at M 106
meet her and in M 106
meet and put the M 106
meet and mix at M 106
meant you had an M 106
meant you for an M 106
meant this for me M 106
meant that death is M 106
meant but that it M 106
meant and not to M 106
meant and did the M 106
means than war of M 106
meaning for them by M 106
meals for them at M 106
meals and see to M 106
means for going on M 105
means ask him to M 105
means and see if M 105
meaning and for an M 105
mend them and to M 104
mend that net of M 104
meet you and it M 104
meet them that we M 104
meet them for tea M 104
meet that year at M 104
meet ere long in M 104
meet and hear of M 104
meant that with my M 104
means you get it M 104
means war and the M 104
means use one of M 104
means that you at M 104
means that way of M 104
means that they at M 104
means does not in M 104
meaning for him the M 104
meaning does not of M 104
meaning does not at M 104
meals that are so M 104
meals and had no M 104
means god and the M 103
meaning and out of M 103
mend and not to M 102
meet men for the M 102
meet him than he M 102
meet him but we M 102
meet him but in M 102
meet her you do M 102
meet her now on M 102
meet and end up M 102
meet all this by M 102
meek men may be M 102
meant that not the M 102
meant that day in M 102
meant not that of M 102
means using them to M 102
means they use or M 102
means that with us M 102
means may lead me M 102
means and then we M 102
meaning did not go M 102
meaning and let the M 102
meaning and has an M 102
meals and then go M 102
meet them and no M 101
means with them in M 101
meet who are in M 100
meet was how to M 100
meet this head on M 100
meet men with the M 100
meet and they do M 100
meant was for me M 100
meant this that the M 100
meant that aid to M 100
meant now that the M 100
meant long ago to M 100
means using them at M 100
means use them in M 100
means too that he M 100
means they put the M 100
means that not to M 100
means that myth is M 100
means get him to M 100
means easy and it M 100
means ask for it M 100
meaning does not do M 100
meaning and was the M 100
meals that they do M 100
meals that fit the M 100
meet with her so M 99
meant this was no M 99
means they get it M 99
means not being so M 99
means going off the M 99
means but with no M 99
means but that he M 99
meaning that then he M 99
meaning for fear of M 99
meaning both that he M 99
meet with god is M 98
meet them and by M 98
meet men who do M 98
meet him and an M 98
meet her that he M 98
meet and who is M 98
meet and set the M 98
meet and bring up M 98
meant you and the M 98
meant with all my M 98
meant two things at M 98
meant one out of M 98
meant her not to M 98
meant being out in M 98
means you had no M 98
means yet got to M 98
means this man is M 98
means them for me M 98
means that for my M 98
means than are at M 98
means she can no M 98
means now that it M 98
means had led to M 98
means for this by M 98
means are set at M 98
means are all at M 98
means any act the M 98
meaning you can be M 98
meaning you are in M 98
meaning and thus in M 98
meals that you eat M 98
means use all the M 97
means that lead us M 97
means being out in M 97
meaning you and the M 97
meaning they are of M 97
meaning and that if M 97
meaning all that it M 97
meet its death on M 96
meet him was in M 96
meet him now on M 96
meet him going to M 96
meet him and by M 96
meet for six to M 96
meet but few of M 96
meet and how we M 96
meant that way at M 96
means that one to M 96
means that god no M 96
means say this to M 96
means are that the M 96
means any one thing M 96
meaning then than it M 96
meaning than this is M 96
meals for him on M 96
meals are not on M 96
meant all this as M 95
means she can go M 95
means all things in M 95
meaning and thus it M 95
meaning and then we M 95
meet you now in M 94
meet with that the M 94
meet this son of M 94
meet them was an M 94
meet her but the M 94
meet death than to M 94
meet any act of M 94
meant with all of M 94
meant that few in M 94
meant for men in M 94
meant and can be M 94
means they can the M 94
means than does the M 94
means put him to M 94
means new and is M 94
means led them to M 94
means get all the M 94
means easy and is M 94
means doing all of M 94
means does all of M 94
means can any of M 94
meaning two things at M 94
meaning that can no M 94
meaning for him he M 94
meals that are to M 94
meals and eating in M 94
meet you head on M 93
meant that one no M 93
means you own it M 93
means she goes to M 93
means one can go M 93
means let that be M 93
meet with who is M 92
meet they who do M 92
meet her two or M 92
meet her out on M 92
meet and lay the M 92
meet and beat it M 92
meant that owing to M 92
meant that one thing M 92
meant that fear of M 92
meant not being in M 92
meant going for the M 92
meant and who the M 92
means that sum of M 92
means that cry of M 92
means pay for it M 92
means let all the M 92
means are yet to M 92
means are yet in M 92
means and was the M 92
meaning was due to M 92
meaning they are at M 92
meaning any ill to M 92
meals was not in M 92
meals for two to M 92
meals and run the M 92
means may all be M 91
meaning that they be M 91
meaning but with an M 91
meet this and to M 90
meet them now in M 90
meet him had to M 90
meet her bow to M 90
meet any men on M 90
meet and end in M 90
meant that with an M 90
meant that that is M 90
meant that men no M 90
meant god and the M 90
meant any one in M 90
means war for us M 90
means they own the M 90
means doing things to M 90
means are now to M 90
means and aid of M 90
meaning was all the M 90
meaning that that the M 90
meaning than any we M 90
meaning has all the M 90
meet them all by M 89
meaning that god the M 89
meaning his use of M 89
mend his way of M 88
meet you and at M 88
meet with you by M 88
meet with any on M 88
meet them with me M 88
meet them are the M 88
meet its death in M 88
meet his for the M 88
meet and say so M 88
meet and are to M 88
meant was not at M 88
meant she had at M 88
meant she got the M 88
meant going off to M 88
meant get rid of M 88
means you get up M 88
means thus put at M 88
means she had no M 88
means let her go M 88
means had now to M 88
meaning you put on M 88
meaning was out of M 88
meaning than that to M 88
meaning and this in M 88
meaning and then in M 88
meaning and had no M 88
meals that are the M 88
meals did you eat M 88
meals and act as M 88
meant they put in M 87
means then that an M 87
means that you in M 87
means that using it M 87
means that use is M 87
means that doing the M 87
means that doing so M 87
means say that we M 87
means and men as M 87
meaning that for an M 87
meaning one out of M 87
meet you and is M 86
meet with than the M 86
meet our men in M 86
meet but for the M 86
meet are for the M 86
meet and cling in M 86
meant was going to M 86
meant that for as M 86
meant that being in M 86
meant for all in M 86
meant but this by M 86
means you use it M 86
means that lay at M 86
means and that an M 86
meaning with use is M 86
meaning that had no M 86
meaning than with us M 86
meaning and set it M 86
meals and then he M 86
meals and saw to M 86
means that was in M 85
means new and in M 85
means and ease of M 85
meaning and was an M 85
meet with man in M 84
meet one for the M 84
meet and that if M 84
meet and put it M 84
meet and has to M 84
meet and aid the M 84
meant this had to M 84
meant they had at M 84
meant that you no M 84
meant that not so M 84
meant one with the M 84
meant for you is M 84
meant both that he M 84
meant being put in M 84
means who are in M 84
means too that it M 84
means that bring us M 84
meaning had yet to M 84
meaning and set up M 84
meals they had in M 84
meals and set up M 84
meet and sit as M 83
means they did to M 83
means that two to M 83
means than this to M 83
means mean that it M 83
means but they do M 83
meaning they did in M 83
meaning than was at M 83
meaning and using the M 83
meaning and one is M 83
meet you then at M 82
meet with god as M 82
meet was for me M 82
meet his men on M 82
meet him was an M 82
meet her all the M 82
meet each one in M 82
meet both with the M 82
meet are not in M 82
meet any day on M 82
meet and lead the M 82
meant than had the M 82
meant for you if M 82
meant doing things the M 82
means they got so M 82
means put out by M 82
means for that of M 82
meaning and see if M 82
meaning and his or M 82
meals with all of M 82
meals they ate at M 82
meals and not at M 82
meet with them it M 80
meet them not as M 80
meet his foes on M 80
meet her death on M 80
meet and thus to M 80
meet and then he M 80
meant not all of M 80
meant men had to M 80
meant and had the M 80
means using them in M 80
means had any of M 80
means fit for it M 80
means and for an M 80
meaning was put in M 80
meals was not the M 80
meals are not at M 80
meals and you do M 80
meaning with one of M 70
meals with them as M 67
meaning with one or M 63
means one has at M 62
means for this or M 62
means for and to M 62
meaning with any of M 58
means not being at M 57
meaning but not as M 56
meek who see the M 55
meant thus and so M 54
meaning that lead to M 54
meaning that goes on M 54
meaning but out of M 54
meaning that few of M 53
meaning for two or M 53
meaning too far to M 52
meaning one has in M 52
meant that not as M 51
means with each of M 50
means that and it M 50
means than they do M 50
means being for the M 50
meaning that now the M 50
means than are the M 49
means set out to M 49
means man has to M 49
means had they to M 49
meaning now that we M 49
meaning man who is M 49
meaning and being as M 49
meet was going on M 48
meet any one so M 48
means use them as M 48
means not being an M 48
means for all my M 48
means all that in M 48
meaning they add to M 48
meaning not being the M 48
meaning for him by M 48
meaning and not so M 48
means you may do M 47
means that they as M 47
means men may be M 47
means and all he M 47
means all men of M 47
meaning but one thing M 47
meaning and yet it M 47
means that was the M 46
means does not go M 46
means and who it M 46
means who are the M 45
means using two or M 45
means now for the M 45
means and who the M 45
meaning they saw in M 45
meals each day as M 45
mend and that the M 44
meant that men as M 44
means you may go M 44
means using both the M 44
means than that the M 44
means put him in M 44
means for use as M 44
means for two of M 44
means doing things on M 44
meaning not easy to M 44
meaning for all to M 44
means they use is M 43
means that meat is M 43
means that had no M 43
means being all the M 43
means bad for the M 43
meaning and that by M 43
meaning and how is M 43
meaning all that we M 43
means with him in M 42
means two things of M 42
means man was to M 42
means lead him to M 42
means doing all we M 42
meaning with them as M 42
meaning this has in M 42
meaning that lie in M 42
meaning for this or M 42
meaning and does so M 42
meet with him no M 41
meet with death as M 41
means you are up M 41
means too that in M 41
means this was to M 41
means they set up M 41
means that any thing M 41
means that all so M 41
means man has at M 41
means any way of M 41
means and that to M 41
meaning for him so M 41
meet her new in M 40
meant yes and no M 40
means who has the M 40
means was going to M 40
means that god so M 40
means one can do M 40
means can not go M 40
means can not by M 40
means but that we M 40
means being rid of M 40
meaning that are as M 40
meaning can not do M 40
meaning and are an M 40
meaning and aim to M 40
media can not be D 10386
media that can be D 7206
media may not be D 3776
menu bar and the D 3282
media are not the D 2588
menu that can be D 2130
media that may be D 2116
media for use in D 2104
media and can be D 1760
menu and use the D 1682
media and that the D 1674
media has led to D 1664
media and with the D 1610
menu and then the D 1598
menu and set the D 1494
media are going to D 1458
media and for the D 1418
media use and the D 1378
meant than met the D 1302
media can lead to D 1270
menu bar with the D 1196
media and how it D 1132
media and may be D 1120
media may lead to D 1104
media and all the D 1054
media and how to D 1040
mess she was in D 1039
media was one of D 1036
menu bar for the D 950
media are not as D 934
meant for his ear D 932
means that art is D 887
menu can not be D 858
media are one of D 850
media was that the D 836
mere idea that the D 786
mesh with that of D 776
mess with any of D 756
media can and do D 754
meals per day in D 736
menu with all the D 728
meals per day to D 690
means that sex is D 676
media and how the D 638
menu bar near the D 634
mesh can not be D 632
mess with one of D 628
mere idea that he D 628
mess you are in D 612
media but not in D 604
mere man can do D 600
media are doing to D 598
menu and can be D 596
media are not so D 596
meals per day is D 594
media can not do D 586
meals per day at D 576
menu bar can be D 574
media are not in D 572
media was going to D 558
mesh that can be D 555
mess that was the D 554
melt can not be D 549
menu for each of D 542
means any tax on D 537
menu box for the D 518
mess with all the D 515
mess this one up D 514
media can then be D 514
media can act as D 512
meet for thee to D 508
media than they do D 500
media and that it D 488
media and that of D 478
mess they are in D 467
melt one ton of D 460
media and not the D 460
media bias and the D 454
means met with the D 450
mess was going to D 444
mess for you to D 440
meats can not be D 438
media and not to D 428
meet thee not in D 426
menu and set it D 424
media that are in D 424
menu may not be D 420
mere man can be D 418
media was that of D 406
menu and then on D 404
media has yet to D 394
media use can be D 391
mess you got us D 388
menu bar that is D 388
media and try to D 384
media was not the D 382
media can now be D 382
media and led to D 380
mess you got me D 378
media with that of D 376
menu and all the D 374
menu and how to D 370
means and art of D 370
mess and how we D 354
menu for you to D 354
menu for one of D 354
media did not do D 354
mealy wings but to D 352
menu and add the D 350
meals per day of D 344
media for all the D 342
mess and that the D 336
media but can be D 334
media and use of D 334
melt and can be D 332
menu bar using the D 328
media but not to D 328
media are apt to D 322
media and thus the D 322
menu has all the D 320
meaning and art of D 320
mess and had to D 318
media are not to D 318
media are easy to D 314
mere idea that it D 312
menu that has the D 310
media and this is D 302
media and then the D 302
melt and rot it D 300
media that are the D 300
media are for the D 298
media are due to D 296
menu and put it D 294
media for each of D 294
menu and using the D 292
media and all of D 292
media that are to D 286
mesh and can be D 280
mere zeal for the D 280
media and not in D 280
media and fear of D 280
media use may be D 278
media than did the D 278
media deal with the D 278
mesh can then be D 276
media than that of D 276
media and that is D 276
meant for her ear D 276
meals per day or D 276
mess can not be D 274
meats that can be D 274
meats that are to D 274
menu and use it D 270
media has had an D 270
mess and that he D 268
menu and then to D 268
media can all be D 266
media was that it D 262
mess that was my D 260
menu and see if D 260
menu you use to D 254
media you use to D 254
media and then to D 254
media was out in D 250
media than are the D 250
menu bar are the D 248
media can thus be D 248
mess that had to D 246
menu and see the D 246
menu and read the D 246
media was due to D 246
menu you use the D 244
mess and get the D 240
media with all the D 240
mess with all of D 238
mess and put the D 238
melt and run in D 237
mete out death to D 236
meet this guy in D 236
mess that can be D 234
meant ere thou of D 234
media and thus to D 232
mess and all the D 230
media they use to D 230
media are not an D 230
means any tax or D 230
menu for all the D 228
media lab and the D 228
media for fear of D 228
media for both the D 226
media and use it D 226
media and not on D 226
media and are the D 226
mesh with one of D 225
media that this is D 224
media has had on D 224
media and one of D 224
mere idea that we D 222
mess and try to D 218
mess and that it D 218
media and not by D 218
melt that can be D 216
mere man who is D 212
meats and all the D 212
menu and that the D 210
media with one or D 210
media and has the D 210
melt and mix the D 209
mess for her to D 208
media for use by D 208
media can set the D 208
melt and that the D 206
means that oil is D 205
media they may be D 204
menu you see in D 202
mess things are in D 200
mesh with both the D 200
mess was one of D 198
media was not as D 198
media but not on D 196
media and how we D 196
mess and put it D 194
media that they do D 194
media that are of D 194
meats that may be D 194
mesh for use as D 192
melt with lying in D 192
melt and let the D 192
media and that he D 192
meting out death to D 190
media may act as D 190
meats may not be D 190
means for tying the D 190
mesh them with the D 188
menu bar and in D 188
media you see in D 188
media than with the D 188
menu and get the D 186
mess and get on D 184
meals per day on D 182
meals per day as D 182
means that tax is D 181
media can bring to D 180
media are run by D 180
meats are not so D 180
media but not the D 178
media and use the D 178
media may then be D 176
media are out of D 176
media and out of D 176
mesa top and the D 175
mess was not the D 174
menu that may be D 174
menu and all of D 174
memo that can be D 174
media was not an D 174
media than for the D 174
media set out to D 174
mess was that the D 172
mere man and the D 172
media may try to D 172
media but may be D 172
mess that was in D 170
mess has got to D 170
mesh with any of D 168
menu that has an D 168
menu and try to D 168
menu and one of D 168
media than does the D 168
media and lead to D 168
mess with you if D 167
mess with him or D 167
mere man but the D 166
menu bar and is D 166
menu and add it D 166
media does not do D 166
mesh for use in D 165
mews for all the D 164
means that gas is D 164
media and set up D 163
mere man that he D 162
menu for use in D 162
mess and that we D 160
menu using one of D 160
menu can then be D 160
media was not so D 160
media that has the D 160
media ran with the D 160
mesh may not be D 159
menu was one of D 158
media and was the D 158
menu bar may be D 156
memo and put it D 156
media and using the D 156
melt may not be D 155
melt and then to D 155
mere toy for the D 154
menu and run the D 154
melt and may be D 154
media that are at D 154
media mix for the D 153
mess for them to D 152
mess and you do D 152
media that are so D 152
media for all of D 152
media are now in D 152
media has had to D 150
means that ice is D 150
meet with thee in D 148
media that led to D 148
media did not go D 148
media but with the D 148
media are now the D 148
meats are not the D 148
mess for him to D 146
mess for all the D 146
menu for all of D 146
menu bar and to D 146
media are not at D 146
media and due to D 144
means any gas or D 144
means that dos is D 143
menu that you do D 142
memo was one of D 142
melt them with the D 142
menu with all of D 140
menu and not the D 140
media use for the D 140
menu bar and an D 138
media war and the D 138
means oil for the D 138
menu and set up D 137
media are now so D 137
mesh and that the D 136
meats are for the D 136
mesh with all the D 134
media was not to D 134
media had yet to D 134
meats for use in D 134
meats are low in D 134
mesh and for the D 132
menu and read it D 132
melt them for the D 132
melt him with the D 132
meant for thee to D 132
mealy bug and the D 132
mesh with his or D 131
mess kit and the D 130
melt and that of D 130
meet thee with the D 130
media was out of D 130
media law and the D 130
media are out to D 130
mesh and may be D 129
mess with her or D 128
mess was set up D 128
mess that has to D 128
meet and aye be D 128
media led him to D 128
media can use the D 128
means for art to D 128
mess with him if D 127
mesh than that of D 127
mess for both of D 126
mere plea that the D 126
melt can lead to D 126
media that use the D 126
media that set the D 126
media are all the D 126
media and then by D 126
means that fat is D 126
mesa was one of D 124
mere fear that the D 124
mere boy and the D 124
menu and you do D 124
memo pad out of D 124
media was that he D 124
media than was the D 124
media men and the D 124
melt and wet the D 123
melt and thaw the D 122
meet this guy at D 122
media are low in D 122
media are both the D 122
meats that are in D 122
means that ions of D 122
mewing moo that an D 120
mess was due to D 120
meet with ice so D 120
meed hath got me D 119
mess was going on D 118
mess that may be D 118
menu bar has the D 118
menu and for the D 118
media use and to D 118
media that lead to D 118
media are not of D 118
media and that in D 118
meaning than met the D 118
melt can then be D 117
mess with you in D 116
mess that was to D 116
mere boy with the D 116
menu and may be D 116
memo can not be D 116
memo and read it D 116
media say that the D 116
media may set the D 116
media for use on D 116
media for use as D 116
meats and meat by D 116
media are yet to D 114
mess with you or D 113
mess she had to D 112
mess and then the D 112
mess and for the D 112
menu bar for an D 112
menu and let the D 112
media that was in D 112
media than any of D 112
media may thus be D 112
media and then in D 112
mess with him in D 111
media that act as D 110
media are two of D 110
mesh and then the D 109
meld with that of D 109
menu and how it D 108
melt all but the D 108
media that try to D 108
media one has to D 108
media has had the D 108
mere man but as D 107
mess with them or D 106
media they can be D 106
media for them to D 106
mesh that may be D 105
melt ice and to D 105
mere man may be D 104
menu was going to D 104
menu was all in D 104
memo was that the D 104
memo pad with the D 104
media can use to D 104
media are key to D 104
media and put the D 104
media and are in D 104
melt and thus the D 103
mete thee with thy D 102
mess they had to D 102
mere man and no D 102
mere boy that he D 102
media and they do D 102
mess and then to D 100
mere old age is D 100
mere idea and the D 100
menu with one of D 100
memo was not the D 100
media you use in D 100
media was for the D 100
media mean that the D 100
media had set up D 100
media for doing so D 100
media does not in D 100
media are using the D 100
mess was out of D 98
mess fit for the D 98
mess and see if D 98
mere wit can go D 98
mere can not be D 98
melt and run to D 98
melt and die of D 98
media kit for the D 98
means you hit the D 98
means any oil or D 98
meals per day by D 98
mess was not so D 96
mess that you do D 96
mess and now he D 96
mere use for the D 96
mere man that the D 96
menu and saw the D 96
meld them with the D 96
media was out to D 96
media say and do D 96
media are put in D 96
media are all in D 96
media and now the D 96
media and not at D 96
meats are not as D 96
mealy bug can be D 96
mess and with the D 94
menu box and the D 94
menu and then go D 94
meet that guy in D 94
media use with the D 94
media than all the D 94
media and had to D 94
mesh can now be D 93
mess with him at D 92
mess that had the D 92
mess are you in D 92
mess and one of D 92
meet his sis on D 92
media that bring the D 92
media mix and the D 92
media may all be D 92
media had led to D 92
media for one or D 92
media did not so D 92
media are that the D 92
media are put to D 92
media and set the D 92
means any raw or D 92
mess with them in D 91
mess with them if D 91
mess and let the D 90
menu but can be D 90
meed and due of D 90
means our weal or D 90
mess with them on D 88
mess one way or D 88
mess kit with the D 88
mess and now it D 88
mere one out of D 88
menu with one or D 88
media was not in D 88
media that had the D 88
media but that the D 88
media and had the D 88
meant zeal for the D 88
melt and seal the D 87
mere idea that an D 86
menu area and the D 86
memo may not be D 86
media are doing the D 86
media and not be D 86
meats that are the D 86
mess for you if D 84
mess for all of D 84
mess and get to D 84
mend nor mar it D 84
media that may or D 84
meant that art is D 84
menu now that we D 82
memo for you to D 82
memo for him to D 82
media with one of D 82
media with all of D 82
media that one of D 82
media and with it D 82
media and who is D 82
mess and get it D 80
mere idea but an D 80
menu was not the D 80
meet thee with an D 80
media has for the D 80
media and one or D 80
means that lee is D 80
means that each ion D 80
meaning than that thy D 80
melt and lead to D 73
melt and all the D 73
melt and for the D 72
melt and then the D 61
mess that one up D 55
means and seal of D 52
mesh bag with the D 50
mesh and one of D 48
mesh and all the D 47
mess them all up D 45
mesh with one or D 45
melt and with the D 42
mesh may then be D 41
mesh and with the D 40
melt and this is D 40
