ere this i should M 1637
ere long a reform M 259
era saw a number M 190
ere are a number M 169
era was a result M 156
ere this a little M 154
ere long a letter M 143
era was a direct M 112
era was a serious M 108
era for a number M 100
era and a system M 98
era was a matter M 96
era was a crucial M 96
err for a moment M 90
ere this a severe M 87
era saw a marked M 86
ere long i should M 85
era and a return M 84
ere long a number M 80
era was a golden D 388
era and a series D 152
era with a series D 104
era was a series D 100
