night had fallen . M 18366
night has fallen . M 4054
night had passed . M 3068
night was silent . M 1716
night was through . M 1580
night was passed . M 1290
night for sleeping . M 1208
night has passed . M 1168
night and winter . M 900
night for safety . M 828
night law school . M 819
night all around . M 648
night was special . M 566
night and monday . M 516
night was enough . M 454
night but myself . M 408
night was lovely . M 332
night and waited . M 330
night and failed . M 324
night was broken . M 308
night are gathering . M 300
night was bright . M 298
night for prayer . M 298
nicer than before . M 268
night and always . M 261
night sky beyond . M 260
night and filter . M 260
night and beyond . M 253
night was better . M 246
night for worrying . M 238
night and killed . M 236
night but monday . M 232
night had changed . M 228
night with lights . M 226
night with horror . M 218
night and smiled . M 206
night was ruined . M 204
night and shadow . M 204
night that summer . M 200
night with anyone . M 198
night had cleared . M 198
night had become . M 198
night and listen . M 190
night and parted . M 187
night with someone . M 184
night with another . M 184
night and prayed . M 182
night than before . M 179
night all summer . M 170
night with safety . M 166
night sky itself . M 166
night this summer . M 162
night are common . M 162
night for sorrow . M 160
night that passed . M 154
night air deeply . M 148
night has chosen . M 146
night for adults . M 144
night with prayer . M 140
night they worked . M 140
night was chosen . M 136
night this winter . M 136
night and horror . M 136
night was strange . M 134
night for awhile . M 132
night and seasons . M 129
night you called . M 128
night they fought . M 124
night she called . M 124
night for meetings . M 124
night was killed . M 122
night they played . M 122
night they parted . M 122
night that winter . M 120
night has fallen ? M 120
night and escape . M 120
night long enough . M 116
night with credit . M 114
night she dreamed . M 112
night and retire . M 112
night all winter . M 106
night was fearful . M 104
night for anyone . M 104
night for murder . M 102
night was darker . M 100
night she worked . M 98
night with regret . M 96
night was gathering . M 96
night was another . M 96
night with melody . M 92
night you choose . M 90
night was normal . M 90
night for myself . M 90
night his praise . M 88
night had caused . M 88
night and another . M 88
night was abroad . M 86
night than another . M 86
night was reached . M 84
night had failed . M 84
night and engaged . M 84
night was gloomy . M 80
night for relief . M 80
