night and in the M 52281
night one of the M 20493
night out on the M 15261
night than in the M 14966
night and on the M 11835
night out in the M 10813
night out of the M 10489
night and of the M 9669
night was to be M 8774
night and go to M 7474
night out at the M 5730
night and at the M 5530
night long in the M 5353
night and it is M 5164
night and by the M 4716
night air of the M 4412
night had to be M 4346
night was in the M 3774
night and to the M 3226
night sky in the M 3063
night due to the M 2863
night that he is M 2714
night with the king M 2712
night was on the M 2708
night long on the M 2448
night two of the M 2363
night but in the M 2255
night with me in M 2140
night sky of the M 2068
night owing to the M 2008
night air in the M 1973
night lying on the M 1969
night and he is M 1913
night that it is M 1898
night sky as the M 1845
night one of my M 1838
night for me to M 1790
night and to be M 1740
night air on the M 1709
night they go to M 1704
night and as the M 1586
night was at the M 1502
night and go on M 1494
night air as the M 1490
night for up to M 1466
night and up to M 1410
night with me at M 1408
night and so on M 1383
night may be the M 1382
night out of my M 1380
night sky to the M 1342
night air as he M 1304
night all of the M 1197
night for us to M 1176
night with us at M 1168
night sky on the M 1144
night not to be M 1128
night song of the M 1125
night you go to M 1123
night with us in M 1106
night long at the M 1052
night than it is M 1040
night job at the M 1002
night all of us M 1001
night sky at the M 990
night and as we M 990
night was of the M 982
night but it is M 966
night than on the M 946
night are to be M 924
night air to the M 922
night has to be M 910
night sky is the M 882
night and if he M 879
night set in the M 860
night that the king M 855
night lying in the M 854
night long to be M 832
night sky as if M 814
night sky as it M 806
night long by the M 806
night and as he M 786
night that if he M 780
night long to the M 746
night going to the M 745
night that in the M 740
night with us on M 704
night and in my M 703
night was by no M 702
night one of us M 698
night and to go M 696
night and if the M 695
night and do the M 686
night and do it M 685
night lay on the M 652
night this is the M 628
night sky as he M 622
night nor in the M 600
night man at the M 599
night and be in M 590
night air on my M 590
night was to go M 580
night and so he M 577
night lit by the M 558
night that is the M 550
night out to the M 550
night long in my M 546
night air in my M 544
night was at an M 536
night air at the M 530
night set in we M 516
night and we do M 514
night with me on M 508
night air to be M 502
night sky by the M 500
night and if it M 497
night lit up by M 492
night each of the M 491
night two of us M 490
night and is in M 468
night and so we M 466
night and be on M 463
night air as if M 462
nicer than he is M 460
night and so the M 456
night air is so M 444
night sky or the M 442
night and go up M 442
night and is the M 440
night and if we M 432
night job in the M 430
night that on the M 429
night nor of the M 418
night and eat the M 412
night air as it M 408
night but on the M 406
night each of us M 403
night out by the M 401
night and go in M 400
night out of it M 398
night and in an M 395
night and on to M 390
night was it to M 384
night and as it M 384
night was to me M 380
night for it to M 380
night that is to M 378
night led to the M 368
night air as we M 368
night with me to M 362
night are of the M 362
night she is in M 352
night was in my M 350
night that if the M 348
night both of us M 342
night was as the M 336
night lay in the M 336
nicer than it is M 326
night she is to M 320
night was on us M 318
night put on the M 318
night air is the M 318
night off to go M 316
nicer than in the M 312
night for the king M 308
night air or the M 306
night that if we M 305
night had to do M 304
night long as the M 300
night was to the M 298
night sky to be M 298
night are in the M 298
night and be at M 298
night that we do M 292
night and to do M 292
night led me to M 288
night than we do M 287
night may be an M 284
night but by the M 283
night being in the M 278
night but at the M 277
night and so it M 277
night with me if M 274
night long of the M 274
night for it is M 264
nicer than to be M 262
night that is so M 260
night lit up the M 257
night cry of the M 257
night air by the M 254
night use of the M 253
night than by the M 250
night not in the M 250
night cup of tea M 250
night but of the M 250
night that at the M 248
night than at the M 248
night sky is so M 248
night off at the M 248
night and up the M 246
night can be as M 243
night and the king M 243
night near to the M 242
night sky is an M 240
night and is so M 240
night six of us M 239
night can be an M 238
night sky as we M 232
night sat in the M 232
night can be the M 228
night and of my M 226
night out is to M 220
night and to my M 220
night two of my M 219
night was by the M 218
night not to go M 217
night for me in M 216
night are on the M 216
night with me as M 214
night lying on my M 214
night long on my M 212
night sky in an M 208
night may be my M 206
night long if he M 206
night both in the M 206
night was to my M 204
night than to the M 204
night are on my M 200
night long in an M 198
night run on the M 197
night with it in M 196
night run to the M 196
night get on the M 196
night long as he M 195
night one or the M 192
night and sing to M 191
night and is to M 190
night air in an M 190
night but as the M 189
night for me is M 186
night that by the M 185
night and up at M 184
night and to eat M 182
night run at the M 181
night long as we M 181
night they go on M 178
night than of the M 178
night man in the M 177
night and in so M 176
nicer for us to M 176
night that of the M 175
night then in the M 174
night and at an M 173
night run of the M 170
night and on my M 169
night than go to M 168
night off in the M 168
night but to the M 168
night and in no M 168
night and eat up M 168
night and be up M 165
night was in no M 164
night she is the M 164
night sat on the M 164
night goes to the M 164
night far up the M 164
night but he is M 164
night man on the M 163
night now in the M 162
night long if we M 162
night east of the M 162
night and eat it M 162
night was of no M 160
night six of the M 160
nicer for me to M 160
night nor on the M 158
night long he is M 158
night was of an M 156
night out in an M 156
night had to go M 156
night and so to M 155
night set in it M 154
night and do my M 154
night air is as M 153
nicer not to be M 153
night and be as M 152
night far to the M 150
night than to go M 149
night and be the M 149
night set in he M 148
night she is on M 146
night put up at M 146
night are in my M 146
night going to be M 145
night that is at M 144
night lead me on M 144
night low in the M 142
night long it is M 142
night both on the M 142
night and is at M 142
night than to be M 140
night with me so M 139
night may be as M 138
night goes on the M 138
night ten of us M 136
night she is no M 136
night may be of M 136
night for me as M 134
nicer things to eat M 134
night that if it M 133
night and if so M 133
night with it on M 132
nicer things to do M 132
night that to the M 130
night song in the M 130
night and so do M 130
night that he or M 129
night and in it M 129
night with us to M 128
night was as if M 128
night got to do M 128
night due to an M 128
night and he be M 128
night and is on M 127
night was on me M 126
night may be in M 126
night long the king M 124
night sat at the M 122
night out on my M 122
night lay on my M 122
night but to no M 122
nicer way to do M 122
night and we go M 121
night was on an M 120
night set in on M 120
night long as if M 120
night has to do M 120
night and the thing M 120
night and is an M 119
night out of an M 118
night did he go M 118
night and up in M 118
night and as if M 118
night with us as M 117
night you to the M 116
night sky is to M 116
night add to the M 115
night singing at the M 114
night let me be M 114
night but go to M 114
night men of the M 113
night and sing the M 113
night than is the M 112
night ten of the M 112
night meal in the M 112
night hung in the M 112
night than if he M 111
night out at an M 110
night led us to M 110
night going up to M 110
night for me at M 110
night with me or M 108
night was the thing M 108
night off to be M 108
night got to the M 108
night end of the M 108
night and ring the M 108
night was in an M 106
night sky as an M 106
night heat of the M 106
night can be so M 106
night and as an M 106
night than he is M 104
night but if he M 104
night sky of my M 102
night sky is in M 102
night saw us as M 102
night and is as M 102
night and be my M 102
night singing in the M 101
night and on an M 101
night sat by the M 100
night run in the M 100
night got up to M 100
night all of my M 100
night sky is as M 99
night and the no M 99
night wet to the M 98
night that is in M 98
night and so is M 98
night any of the M 97
night things in the M 96
night out is the M 96
night for in the M 96
night sun in the M 95
night this is to M 94
night she is at M 94
night may be so M 94
night going up the M 94
night box at the M 93
night too in the M 92
night that we go M 92
night lay at the M 92
night few of the M 92
night that in my M 90
night put me in M 90
night can be in M 90
night all in the M 90
night she is so M 88
night lying in my M 88
night can do it M 88
night are to the M 88
night and eat in M 88
night that is as M 87
night with at the M 86
night set in to M 86
night read to me M 86
night hung on the M 86
nicer way to go M 86
nicer than on the M 86
night was the king M 84
night set in so M 84
night far in the M 84
night but we do M 84
night who is to M 82
night that we on M 82
night off to do M 82
night off on the M 82
night not to do M 82
night for us in M 82
night and of an M 82
night sky it is M 80
night any of us M 80
night air is no M 80
night with us so M 68
night then it is M 60
night let it be M 59
night dip in the M 59
night singing of the M 51
night let us be M 50
night you go on M 46
night meal at the M 46
night and so am M 42
night they go in M 41
night but to be M 41
night and the sea D 3027
niche cut in the D 1214
nipping them in the D 941
niece out of the D 728
night out at sea D 629
niece was to be D 594
niece was in the D 478
night hum of the D 391
niche out of the D 372
niche for it in D 338
night jet in the D 314
nicks cut in the D 286
night with the sea D 269
night long the sea D 260
nimby not in my D 250
night gig at the D 250
nipping out to the D 232
night sung at the D 228
nipping out of the D 225
niche and in the D 224
nines out of the D 212
niche and on the D 204
niece was on the D 197
niche for me in D 180
night bath in the D 178
niche set in the D 178
nipping air of the D 169
nicking one of the D 164
niece who is the D 162
niche was in the D 158
night owl in the D 154
ninths that of the D 152
nipping off to the D 150
niche was to be D 148
niece was at the D 144
nicks out of the D 138
niche and of the D 138
night dew on the D 136
niche had to be D 136
niece may do in D 134
nipping off of the D 133
nipping him in the D 130
nipping things in the D 128
night with an ax D 116
night out to sea D 116
niche and to the D 116
niche and at the D 110
niece and of the D 108
niece not to be D 104
niche for me to D 104
night cap in the D 102
niece had to be D 102
niche that it is D 102
niche for it to D 100
niece that is to D 99
niche has to be D 98
niece than of the D 96
niche and it is D 94
night near the sea D 92
niece who is in D 92
nicks cut in it D 92
niche and to be D 92
night fog of the D 90
nicking him in the D 90
nipping him on the D 84
niece are in the D 84
niece one of the D 83
niche that is in D 80
nisei out of the D 51
nicks one of the D 45
niece and so on D 43
