she was a student M 40626
she was a stranger M 32118
she was a perfect M 22846
she had a certain M 20432
she was a married M 20026
she was a natural M 18442
she was a regular M 17574
she had a problem M 17305
she had a natural M 16713
she had a perfect M 13600
she was a devoted M 13128
she has a problem M 13095
she was a creature M 11594
she had a history M 11490
she has a history M 10982
she had a pleasant M 10968
she has a certain M 9922
she was a patient M 9160
she was a faithful M 9132
she was a pleasant M 8530
she was a typical M 7864
she had a nervous M 7848
she was a founder M 7448
she had a thousand M 7088
she was a hundred M 7045
she was a failure M 7038
she had a glimpse M 6766
she had a hundred M 6650
she was a witness M 6630
she had a peculiar M 6630
she was a college M 6616
she had a message M 6528
she had a private M 6190
she has a natural M 6164
she was a picture M 5798
she had a similar M 5632
she has a perfect M 5626
she was a nervous M 5568
she was a country M 5538
she had a picture M 5454
she was a research M 5366
she was a genuine M 4864
she was a capable M 4778
she had a genuine M 4748
she saw a familiar M 4532
she was a product M 4517
she was a captive M 4492
she was a trained M 4443
she had a weakness M 4412
she had a visitor M 4408
she was a success M 4384
she was a distant M 4316
she saw a picture M 4030
she had a purpose M 3890
she had a question M 3796
she was a thorough M 3782
she got a divorce M 3630
she was a private M 3629
she was a thousand M 3547
she was a soldier M 3518
she was a familiar M 3516
she was a citizen M 3498
she was a partner M 3448
she had a regular M 3412
she was a spoiled M 3406
she was a visitor M 3338
she was a monster M 3292
she was a mystery M 3288
she got a glimpse M 3258
she had a dreadful M 3240
she was a general M 3232
she had a decided M 3160
she has a thousand M 3159
she had a relapse M 3062
she was a gracious M 2898
she and i together M 2886
she was a dutiful M 2852
she was a pattern M 2834
she was a welcome M 2829
she has a private M 2810
she had a general M 2764
she was a notable M 2748
she was a miracle M 2726
she was a sincere M 2662
she was a careful M 2628
she was a delight M 2618
she has a peculiar M 2610
she was a superior M 2568
she has a pleasant M 2556
she was a relation M 2503
she was a foolish M 2428
she was a scholar M 2416
she has a message M 2342
she was a lifelong M 2316
she had a quality M 2295
she was a retired M 2248
she had a fortune M 2227
she was a treasure M 2138
she saw a stranger M 2108
she had a massive M 2090
she was a convert M 2062
she was a fragile M 2026
she was a southern M 2022
she had a variety M 1996
she has a regular M 1964
she was a problem M 1926
she has a hundred M 1904
she was a subject M 1892
she has a genuine M 1892
she had a vocation M 1884
she was a selfish M 1878
she had a position M 1878
she had a limited M 1871
she was a capital M 1843
she was a fearless M 1835
she was a devotee M 1828
she had a thorough M 1798
she had a college M 1773
she had a sincere M 1752
she had a painful M 1736
she had a glorious M 1724
she was a totally M 1704
she has a masters M 1678
she was a chronic M 1668
she was a mixture M 1666
she has a similar M 1662
she was a precious M 1646
she was a dreadful M 1596
she has a limited M 1583
she had a partner M 1574
she has a general M 1564
she has a picture M 1544
she was a virtual M 1536
she has a weakness M 1532
she was a pleasure M 1498
she put a question M 1490
she had a stronger M 1453
she saw a certain M 1396
she had a present M 1382
she and i started M 1374
she has a fortune M 1367
she had a chronic M 1362
she has a position M 1356
she had a married M 1354
she had a handful M 1352
she was a complex M 1337
she was a quarter M 1327
she was a handful M 1318
she had a birthday M 1292
she has a variety M 1290
she has a question M 1290
she has a decided M 1234
she got a message M 1214
she had a lifelong M 1200
she had a decision M 1189
she and i decided M 1180
she has a nervous M 1148
she was a passive M 1146
she was a glorious M 1138
she has a purpose M 1138
she was a central M 1078
she was a primary M 1070
she has a college M 1063
she has a thorough M 1058
she was a comfort M 1056
she had a worried M 1044
she has a chronic M 1034
she had a package M 999
she saw a shadowy M 980
she was a fortune M 968
she has a partner M 962
she was a preacher M 948
she saw a glimpse M 948
she had a recurring M 946
she was a certain M 942
she had a distant M 942
she was a prophet M 934
she saw a soldier M 934
she was a peculiar M 930
she has a quality M 928
she had a familiar M 922
she was a colored M 918
she was a sixteen M 916
she had a patient M 916
she was a neutral M 896
she was a novelty M 895
she had a typical M 892
she had a respect M 890
she read a chapter M 886
she has a visitor M 880
she had a quarter M 875
she was a society M 874
she has a stronger M 867
she had a devoted M 867
she was a prudent M 866
she had a superior M 856
she got a position M 852
she had a country M 842
she has a dreadful M 832
she was a reliable M 818
she had a solution M 816
she was a machine M 808
she was a mistake M 802
she has a vocation M 802
she had a request M 788
she was a suicide M 786
she was a demanding M 780
she has a married M 758
she was a useless M 754
she read a passage M 740
she was a decided M 734
she was a concert M 734
she was a captain M 730
she had a routine M 730
she and a handful M 726
she was a stronger M 718
she and a partner M 708
she had a faithful M 702
she had a project M 697
she had a foolish M 688
she had a dignity M 686
she was a worrier M 683
she put a trembling M 672
she had a pattern M 670
she had a dislike M 664
she had a following M 646
she was a guardian M 644
she was a cautious M 640
she had a student M 640
she had a promise M 638
she had a complex M 634
she was a fifteen M 631
she had a pointed M 631
she was a trusted M 630
she was a history M 624
she had a marriage M 618
she had a capital M 612
she had a guardian M 608
she got a certain M 602
she put a handful M 600
she was a worldly M 595
she has a glorious M 594
she had a southern M 588
she was a century M 580
she had a command M 572
she was a truthful M 568
she has a present M 567
she was a logical M 562
she has a sincere M 562
she had a totally M 558
she was a willful M 556
she had a relation M 548
she had a balance M 546
she was a northern M 544
she lit a lantern M 542
she was a trainee M 538
she was a rational M 538
she was a happily M 538
she had a library M 536
she was a forward M 535
she has a birthday M 532
she get a divorce M 522
she had a strongly M 516
she did a thorough M 514
she was a wounded M 510
she had a witness M 506
she got a hundred M 505
she was a strongly M 504
she was a present M 504
she had a network M 498
she got a picture M 486
she had a company M 484
she was a ruthless M 472
she had a concert M 468
she had a gracious M 466
she did a perfect M 466
she has a pattern M 464
she had a magical M 458
she and i laughed M 458
she had a fragile M 456
she saw a thousand M 454
she was a helpful M 452
she was a blessed M 452
she has a superior M 448
she had a soldier M 440
she has a language M 439
she had a passage M 436
she was a heavenly M 435
she had a consuming M 434
she was a pilgrim M 432
she was a builder M 428
she was a withered M 426
she and i visited M 426
she saw a similar M 420
she has a chapter M 420
she had a contact M 420
she had a captive M 412
she was a massive M 408
she has a solution M 406
she had a notable M 406
she was a western M 405
she was a supreme M 401
she had a concern M 400
she has a complex M 396
she has a patient M 395
she had a machine M 395
she won a victory M 394
she had a dispute M 394
she had a central M 394
she was a paradox M 392
she had a precious M 392
she and i watched M 390
she has a totally M 388
she was a language M 387
she was a charity M 376
she had a treasure M 376
she had a mixture M 376
she has a guardian M 374
she has a capital M 372
she had a written M 372
she led a retired M 369
she had a trained M 369
she had a heavenly M 365
she saw a distant M 364
she had a renewed M 362
she was a limited M 360
she has a faithful M 358
she had a capable M 358
she did a certain M 358
she had a program M 356
she had a destiny M 354
she had a fifteen M 352
she and i enjoyed M 352
she has a concern M 350
she has a glimpse M 348
she had a visible M 346
she was a triumph M 344
she was a wayward M 342
she had a precise M 342
she was a magical M 338
she was a shadowy M 336
she saw a question M 336
she ran a nervous M 336
she has a relapse M 334
she was a control M 332
she saw a pattern M 332
she was a seventy M 330
she was a project M 330
she was a studious M 328
she was a compact M 326
she was a likeable M 322
she put a picture M 320
she goes a journey M 320
she has a library M 318
she had a broader M 314
she had a language M 312
she was a visible M 310
she was a lightning M 310
she had a subject M 310
she was a thirteen M 309
she was a likable M 308
she has a project M 308
she has a painful M 308
she had a compact M 305
she was a luscious M 304
she saw a company M 304
she did a variety M 304
she and i planned M 304
she has a broader M 302
she had a logical M 302
she had a lighter M 302
she has a primary M 299
she saw a glorious M 296
she has a dislike M 296
she had a weekend M 296
she ran a trembling M 294
she has a recurring M 293
she and i arrived M 292
she has a typical M 290
she had a support M 290
she saw a rainbow M 288
she has a country M 288
she had a benefit M 288
she was a material M 287
she has a dignity M 286
she did a hundred M 286
she has a central M 284
she got a handful M 284
she has a network M 282
she has a lifelong M 280
she was a fraction M 278
she had a correct M 278
she was a trembling M 276
she has a massive M 276
she had a supreme M 276
she was a trouble M 274
she saw a hundred M 273
she was a monarch M 272
she had a maximum M 272
she had a demanding M 272
she sings a defiance M 270
she had a seemingly M 270
she saw a creature M 266
she has a current M 266
she saw a monster M 264
she has a machine M 264
she had a mystery M 264
she ask a question M 262
she put a quarter M 260
she had a rounded M 260
she had a pleasure M 260
she was a hateful M 258
she put a hundred M 258
she and i usually M 258
she being a stranger M 256
she was a channel M 254
she has a devoted M 250
she has a strongly M 248
she had a lantern M 248
she was a traveling M 246
she saw a peculiar M 246
she had a colored M 246
she has a trained M 242
she has a liberty M 242
she had a passive M 242
she had a freedom M 241
she was a species M 240
she was a beginning M 239
she has a following M 239
she had a twofold M 236
she was a program M 234
she saw a lantern M 234
she being a married M 233
she had a careful M 232
she was a defeated M 230
she was a bargain M 228
she had a control M 228
she had a minimum M 227
she was a precise M 226
she was a believing M 226
she ran a private M 226
she had a bargain M 226
she was a happier M 224
she hung a picture M 224
she has a concept M 224
she had a reliable M 224
she has a written M 223
she has a freedom M 223
she has a service M 222
she has a gracious M 222
she had a success M 222
she had a cracked M 222
she and a certain M 220
she was a wandering M 218
she has a correct M 218
she had a religion M 218
she does a hundred M 218
she has a distant M 216
she had a trouble M 216
she had a charity M 216
she was a butcher M 213
she had a hopeful M 212
she had a divorce M 212
she got a dreadful M 212
she and i belonged M 212
she has a rational M 210
she has a balance M 209
she has a heavenly M 206
she ate a handful M 206
she saw a pleasant M 204
she had a deficit M 204
she got a promise M 204
she was a literal M 203
she has a quarter M 203
she has a research M 202
she had a lecture M 202
she and i climbed M 202
she was a hostile M 200
she has a minimum M 200
she has a support M 198
she had a sixteen M 198
she did a similar M 198
she was a vehicle M 194
she set a pattern M 194
she saw a dreadful M 194
she had a traveling M 194
she had a triumph M 192
she had a hostile M 192
she had a delight M 192
she did a thousand M 192
she has a marriage M 188
she had a virtual M 188
she goes a hundred M 188
she and i finally M 188
she was a nonstop M 187
she saw a perfect M 186
she has a package M 186
she had a surface M 186
she had a mandate M 186
she was a suffering M 184
she was a company M 184
she was a package M 182
she has a respect M 182
she has a magical M 182
she had a welcome M 180
she had a masters M 178
she has a mixture M 176
she and i realized M 176
she had a primary M 175
she saw a vehicle M 174
she has a pointed M 174
she saw a massive M 172
she had a shorter M 172
she had a current M 172
she saw a problem M 170
she let a silence M 170
she has a routine M 170
she has a relation M 170
she had a meaningful M 170
she and i managed M 170
she had a hurried M 169
she has a destiny M 168
she got a regular M 168
she saw a message M 166
she has a divided M 166
she was a designing M 164
she was a barrier M 164
she saw a student M 164
she saw a sadness M 164
she get a message M 164
she was a council M 162
she and i appeared M 162
she not a heavenly M 160
she saw a handful M 156
she does a certain M 156
she and i entered M 156
she was a trainer M 154
she has a demanding M 154
she had a century M 153
she put a reassuring M 152
she has a request M 152
she has a capable M 152
she got a perfect M 152
she read a message M 150
she has a captive M 150
she did a century M 150
she saw a display M 148
she had a research M 148
she saw a package M 146
she has a student M 146
she has a defense M 146
she has a legally M 144
she has a deficit M 144
she has a shorter M 142
she has a maximum M 141
she with a certain M 140
she was a support M 140
she saw a patient M 140
she saw a mixture M 140
she led a protest M 140
she has a reliable M 140
she had a minimal M 140
she had a defense M 140
she had a comment M 140
she and i stopped M 138
she has a mastery M 134
she has a logical M 134
she had a stranger M 134
she and i carried M 134
she had a service M 133
she was a recruit M 132
she was a crowned M 132
she saw a promise M 132
she has a realized M 132
she got a package M 132
she not a perfect M 130
she has a command M 130
she had a compass M 130
she was a quietly M 128
she does a thorough M 128
she was a torment M 127
she saw a lighted M 127
she let a stranger M 126
she has a witness M 126
she had a concept M 126
she had a butcher M 126
she has a decision M 125
she was a contact M 124
she has a monster M 124
she had a profile M 124
she got a thousand M 124
she read a certain M 122
she had a vaguely M 122
she had a selfish M 122
she put a lighted M 121
she had a sympathy M 120
she won a position M 118
she has a defined M 118
she had a journey M 118
she and i believe M 118
she and a student M 118
she was a quality M 117
she was a nominal M 116
she saw a visitor M 116
she saw a colored M 116
she had a happier M 116
she was a mourner M 114
she hath a lighter M 114
she has a company M 114
she had a monster M 114
she had a function M 114
she got a quarter M 114
she was a painful M 112
she had a lighted M 112
she had a chapter M 112
she did a picture M 112
she and i arranged M 112
she was a library M 110
she nor i doubted M 110
she had a withered M 110
she had a captain M 110
she does a thousand M 110
she saw a wounded M 109
she has a product M 108
she led a wandering M 106
she had a product M 106
she got a bargain M 106
she was a sceptic M 104
she has a success M 104
she has a meaningful M 104
she had a luscious M 104
she had a diseased M 104
she and i quickly M 104
she has a fifteen M 103
she had a wounded M 103
she has a function M 102
she has a climate M 102
she had a reassuring M 102
she had a printed M 102
she had a delusion M 102
she and i discuss M 102
she has a twofold M 101
she nor i realized M 100
she has a treasure M 100
she has a rounded M 100
she has a precise M 100
she has a passive M 100
she has a material M 100
she has a diverse M 100
she had a thirteen M 100
she had a delayed M 100
she got a lantern M 100
she was a systems M 98
she has a website M 98
she has a visible M 98
she has a defence M 98
she had a rational M 98
she got a similar M 98
she and i studied M 98
she and i married M 98
she has a worried M 97
she has a selfish M 96
she had a victory M 96
she had a trusted M 96
she had a shadowy M 96
she was a weekend M 94
she saw a variety M 94
she saw a heavenly M 94
she has a reduced M 94
she has a mandate M 94
she had a lightning M 94
she but a stranger M 94
she was a notably M 92
she was a hopeful M 92
she saw a genuine M 92
she has a supreme M 92
she has a southern M 92
she had a worldly M 92
she had a verdict M 92
she had a fraction M 92
she and i between M 92
she was a watcher M 90
she has a promise M 90
she has a program M 90
she has a handful M 90
she had a weathered M 90
she had a wandering M 90
she had a tragedy M 90
she with a pleasant M 88
she was a current M 88
she read a similar M 88
she put a thousand M 88
she put a certain M 88
she hath a creature M 88
she has a familiar M 88
she got a thorough M 88
she get a glimpse M 88
she was a trapped M 86
she ran a hundred M 86
she has a religion M 86
she had a devotion M 86
she had a collect M 86
she got a problem M 86
she die a thousand M 86
she did i noticed M 86
she got a college M 85
she wed a stranger M 84
she was a shorter M 84
she was a forgiving M 84
she that i imagine M 84
she saw a general M 84
she sat a quarter M 84
she has a delusion M 84
she had a silence M 84
she had a helpful M 84
she was a religion M 82
she was a priority M 82
she saw a program M 82
she has a minimal M 82
she had a vehicle M 82
she was a plainly M 80
she saw a miracle M 80
she read a lecture M 80
she has a revolving M 80
she had a council M 80
she was a damaged M 79
she had a uniform M 53
she was a counter M 51
she has a beginning M 51
she saw a worried M 48
she had a counter M 48
she was a freedom M 44
she was a forever M 44
she had a beginning M 44
she saw a machine M 42
she has a renewed M 41
she was a traffic M 40
she had a husband D 26918
she had a headache D 24818
she has a husband D 15148
she was a catholic D 14698
she was a goddess D 11131
she was a servant D 9644
she was a phantom D 9247
she was a slender D 7970
she was a popular D 6934
she has a headache D 6706
she was a toddler D 6090
she was a fighter D 5388
she was a staunch D 5008
she was a skilled D 4914
she saw a flicker D 4830
she was a charter D 4642
she was a heroine D 4220
she was a painter D 4070
she was a medical D 3404
she was a musician D 3090
she was a national D 2993
she was a champion D 2964
she was a heretic D 2865
she was a veteran D 2798
she was a gorgeous D 2730
she was a midwife D 2654
she was a traitor D 2580
she had a seizure D 2560
she was a refugee D 2546
she was a liberal D 2508
she was a runaway D 2486
she was a cripple D 2410
she saw a glimmer D 2267
she was a duchess D 2180
she had a previous D 2130
she was a classic D 2111
she had a slender D 2104
she was a vampire D 2075
she was a foreign D 2072
she was a pathetic D 1976
she was a radical D 1872
she was a suspect D 1805
she had a quarrel D 1784
she was a fervent D 1732
she had a faculty D 1722
she was a bastard D 1680
she was a paragon D 1651
she was a baptist D 1615
she was a seasoned D 1608
she was a gentile D 1595
she had a stomach D 1575
she had a servant D 1572
she was a stately D 1538
she was a pitiful D 1518
she was a carrier D 1500
she had a splitting D 1499
she was a naughty D 1442
she was a mulatto D 1416
she had a gorgeous D 1394
she was a trustee D 1392
she was a charmer D 1364
she was a fixture D 1350
she was a hostess D 1348
she was a tourist D 1328
she was a diabetic D 1318
she was a manager D 1306
she was a faculty D 1306
she was a beloved D 1304
she had a medical D 1302
she was a refined D 1298
she was a fanatic D 1294
she was a teenage D 1252
she was a longtime D 1251
she had a fantasy D 1240
she had a blanket D 1234
she was a motherly D 1226
she was a frigate D 1208
she was a lunatic D 1198
she was a stunner D 1197
she was a dynamic D 1194
she was a recluse D 1182
she had a hangover D 1158
she was a civilian D 1150
she was a godsend D 1146
she was a featured D 1136
she was a puritan D 1124
she was a lovable D 1118
she had a faraway D 1116
she was a barmaid D 1107
she was a creative D 1076
she was a prodigy D 1074
she was a gallant D 1065
she had a carriage D 1056
she was a boarder D 1052
she won a national D 1041
she was a mermaid D 1022
she had a mouthful D 1022
she has a medical D 1000
she was a hostage D 988
she was a foundling D 982
she had a puzzled D 980
she ran a fingertip D 976
she was a tigress D 957
she got a husband D 948
she was a magician D 942
she had a sickening D 934
she was a heavyset D 922
she was a kindred D 914
she was a village D 908
she had a plastic D 900
she was a soloist D 878
she was a vibrant D 876
she was a newborn D 868
she was a scrawny D 850
she was a promising D 848
she had a motherly D 842
she got a headache D 840
she had a youthful D 818
she had a cottage D 812
she had a bandage D 800
she was a factory D 796
she had a musical D 762
she had a classic D 758
she was a haughty D 742
she had a refined D 738
she was a gambler D 730
she had a bedroom D 714
she was a shallow D 713
she was a ravishing D 712
she had a license D 698
she was a strapping D 694
she had a twinkle D 694
she was a saintly D 689
she was a psychic D 688
she had a deadline D 688
she had a peaceful D 686
she was a smaller D 682
she saw a carriage D 676
she had a smaller D 676
she was a forlorn D 668
she was a flighty D 664
she was a quivering D 658
she had a foreign D 654
she was a glutton D 644
she was a shapely D 642
she had a swollen D 641
she was a trooper D 638
she was a changeling D 632
she saw a slender D 628
she was a sensual D 620
she was a courier D 618
she has a license D 616
she sang a lullaby D 612
she saw a twinkle D 607
she had a surplus D 606
she had a tantrum D 605
she was a musical D 600
she had a kitchen D 598
she had a crooked D 596
she has a smaller D 594
she was a cashier D 592
she had a hankering D 584
she has a diploma D 583
she had a pinched D 582
she had a national D 580
she was a pitiable D 578
she was a soprano D 576
she was a widowed D 574
she has a servant D 564
she was a convict D 562
she had a dentist D 560
she won a contest D 556
she put a blanket D 556
she was a winsome D 552
she had a promising D 552
she has a surplus D 543
she had a glimmer D 542
she was a figment D 538
she sings a lullaby D 538
she has a seizure D 538
she had a girlish D 537
she had a holiday D 534
she has a carriage D 530
she had a scarlet D 530
she was a neophyte D 529
she was a coaster D 528
she was a serpent D 527
she was a drinker D 524
she was a swimmer D 523
she was a chemist D 522
she has a stomach D 521
she was a trouper D 516
she had a radical D 516
she had a luncheon D 516
she had a romance D 514
she was a bohemian D 513
she was a senator D 512
she was a willowy D 510
she had a bicycle D 510
she was a comrade D 508
she was a youngish D 504
she had a startling D 504
she was a grownup D 503
she had a bouquet D 497
she was a mediocre D 494
she saw a cluster D 494
she has a foreign D 494
she had a womanly D 493
she was a reputed D 492
she had a sizable D 486
she had a playful D 486
she had a sparkle D 482
she was a sociable D 480
she had a teenage D 479
she was a venetian D 477
she saw a steeple D 474
she had a liberal D 473
she was a youthful D 472
she was a stylish D 468
she was a peaceful D 468
she had a wistful D 458
she had a haughty D 458
she had a shapely D 456
she was a startling D 452
she had a reserve D 452
she was a fantasy D 451
she has a previous D 450
she was a tallish D 448
she was a genteel D 444
she had a creative D 444
she was a chicken D 442
she met a certain D 440
she was a science D 436
she had a widowed D 435
she and i chatted D 430
she was a gourmet D 427
she has a national D 422
she was a replica D 420
she was a womanly D 419
she met a stranger D 416
she had a sparkling D 414
she was a dentist D 412
she was a solvent D 411
she was a clipper D 407
she was a sergeant D 406
she was a kitchen D 406
she had a queenly D 406
she had a bastard D 404
she was a giantess D 403
she had a ghastly D 402
she had a pitcher D 400
she was a wizened D 396
she had a funeral D 393
she has a slender D 392
she was a federal D 390
she was a hustler D 388
she got a faraway D 388
she was a schemer D 386
she had a newborn D 384
she has a gorgeous D 382
she had a vaginal D 380
she was a warship D 378
she has a cottage D 378
she was a cruiser D 376
she had a vacation D 376
she was a sparkling D 375
she has a tantrum D 372
she was a nursery D 368
she was a marketing D 367
she had a chicken D 367
she had a fervent D 366
she had a bizarre D 366
she had a blurred D 364
she got a papyrus D 364
she was a scandal D 360
she saw a serpent D 360
she has a teenage D 357
she had a crystal D 357
she had a scratch D 356
she had a pensive D 356
she had a panicky D 355
she had a blister D 354
she had a relaxed D 352
she was a colonel D 346
she was a gymnast D 342
she has a stately D 340
she had a spacious D 340
she was a wildcat D 336
she had a stately D 334
she was a screamer D 333
she was a fearsome D 333
she was a flapper D 332
she has a fantasy D 332
she was a ghastly D 330
she was a starlet D 329
she was a chattel D 326
she had a garment D 324
she had a shotgun D 322
she had a diploma D 322
she was a helluva D 320
she had a urinary D 318
she saw a servant D 316
she had a venereal D 316
she was a curator D 312
she had a vibrant D 310
she had a respite D 309
she had a battery D 308
she met a butcher D 306
she had a frantic D 306
she had a drunken D 306
she was a pioneering D 304
she had a shallow D 302
she saw a curtain D 300
she has a faculty D 300
she had a pathetic D 300
she had a charmed D 300
she got a blanket D 300
she was a volcano D 298
she ate a mouthful D 298
she had a misgiving D 296
she had a catholic D 296
she had a toddler D 294
she met a soldier D 292
she had a twisted D 292
she had a sensual D 292
she had a petition D 292
she was a peeress D 291
she was a conduit D 290
she was a stumbling D 289
she was a tenured D 288
she was a cabaret D 288
she had a haggard D 288
she was a graphic D 286
she has a genetic D 286
she got a mouthful D 286
she was a drunken D 285
she was a welfare D 283
she was a sponsor D 282
she was a skeptic D 281
she was a bigoted D 280
she was a protege D 278
she has a vaginal D 276
she was a sweetly D 274
she put a bandage D 272
she had a fibroid D 270
she was a consort D 269
she was a playful D 268
she has a musical D 267
she had a retinue D 266
she was a nutcase D 265
she was a queenly D 264
she has a youthful D 262
she had a handbag D 262
she was a preteen D 260
she had a profuse D 260
she has a blister D 259
she has a venereal D 258
she was a burglar D 257
she had a fixation D 256
she had a uterine D 254
she had a settled D 253
she had a naughty D 253
she dug a shallow D 252
she has a bedroom D 250
she has a bicycle D 248
she had a bladder D 247
she has a garland D 246
she got a recording D 244
she was a comical D 240
she was a favored D 239
she was a conniving D 236
she had a warrant D 236
she had a forlorn D 236
she was a usurper D 234
she had a parasol D 234
she had a radiance D 233
she had a disarming D 233
she saw a funeral D 232
she had a psychic D 232
she had a garland D 232
she was a planner D 230
she had a stuffed D 229
she was a voluble D 228
she was a regional D 228
she put a forkful D 227
she was a tactful D 226
she had a caustic D 225
she met a student D 224
she bring a gentler D 222
she had a tonnage D 220
she had a courage D 220
she was a brownie D 218
she was a painted D 217
she had a costume D 217
she was a bulwark D 216
she saw a village D 216
she saw a sparkle D 216
she has a blemish D 216
she saw a cottage D 210
she had a cluster D 210
she led a charmed D 209
she had a fertile D 206
she got a foothold D 204
shoe and a slipper D 202
she was a rancher D 202
she was a breeder D 202
she has a creative D 202
she was a keynote D 200
she had a vacancy D 200
she had a genetic D 200
she was a revered D 199
she was a solidly D 198
she was a scarlet D 198
she had a fistful D 198
she had a dynamic D 198
she has a urinary D 197
she has a quarrel D 196
she has a hangover D 196
she has a swollen D 195
she had a cesarean D 195
she has a fertile D 194
she had a febrile D 193
she was a cockney D 192
she had a sublime D 192
she had a champion D 192
she had a bruised D 191
she has a blanket D 190
she had a gallery D 190
she had a foothold D 190
she put a plastic D 189
she was a trollop D 188
she was a pivotal D 188
she was a colonial D 188
she met a company D 188
she was a spartan D 187
she was a climber D 186
she had a dilemma D 186
she had a bathroom D 186
she has a deadline D 184
she was a spinner D 182
she had a revenue D 182
she had a helluva D 182
she had a setback D 180
she had a modicum D 180
she with a shudder D 178
she saw a sparrow D 178
she met a servant D 178
she was a drifter D 176
she had a sizeable D 176
she was a stalker D 174
she had a stepson D 174
she had a manager D 174
she was a bleached D 172
she has a fixation D 172
she had a stunned D 172
she saw a ghostly D 171
she had a winsome D 170
she had a whistle D 169
she was a migrant D 168
she put a fingertip D 168
she was a wistful D 166
she had a pretext D 166
she had a massage D 166
she was a leftist D 162
she was a groupie D 162
she was a cowgirl D 162
she met a request D 162
she was a nominee D 160
she saw a railway D 158
she met a widower D 158
she has a mouthful D 158
she had a staunch D 158
she got a freight D 158
she was a stuffed D 156
she was a villain D 154
she set a platter D 154
she met a married D 153
she has a bladder D 151
she put a slender D 150
she was a quitter D 149
she was a vagrant D 148
she was a pervert D 148
she was a denizen D 146
she was a crybaby D 145
she was a kestrel D 144
she has a splitting D 144
she has a holiday D 144
she had a haunted D 144
she got a petition D 144
she and i settled D 144
shoe with a pointed D 142
she had a shocked D 142
she had a knitted D 142
she had a faintly D 142
she was a bourbon D 141
she was a fledgling D 140
she was a biggish D 140
she saw a softening D 139
she saw a smaller D 138
she sang a popular D 138
she had a stalker D 138
she had a boarder D 138
she being a catholic D 138
she was a sparrow D 137
she had a crimson D 136
she was a cracker D 135
she ran a slender D 134
she had a piquant D 134
she was a warlike D 132
she has a classic D 132
she saw a glitter D 130
she saw a blurred D 130
she had a roasted D 130
she had a pitiful D 130
she had a gastric D 130
she has a fibroid D 129
she was a unionist D 128
she was a socially D 128
she saw a trickle D 128
she saw a phantom D 128
she has a motherly D 128
she with a husband D 126
she was a harbinger D 126
she saw a stately D 126
she had a shivering D 125
she had a sharper D 125
she was a prefect D 124
she was a haggard D 124
she had a theoretic D 124
she was a textile D 122
she was a prickly D 122
she was a husband D 122
she saw a stretch D 122
she has a fervent D 122
she had a striped D 122
she had a recording D 122
she was a beauteous D 120
she had a harelip D 120
she got a license D 120
she has a settled D 119
she was a dolphin D 118
she was a balloon D 118
she saw a shimmer D 118
she had a rapidly D 118
she get a husband D 118
she saw a silvery D 116
she has a sparkling D 116
she had a notepad D 116
she had a gesture D 116
she had a caressing D 116
she was a smartly D 115
she was a pinched D 114
she was a doormat D 114
she had a forehead D 114
she had a dimpled D 114
she had a chipped D 114
she had a brittle D 114
she being a servant D 114
she was a brittle D 112
she saw a scorpion D 112
she saw a headline D 112
she has a plastic D 112
she had a stoical D 112
she had a receipt D 112
she had a hairpin D 112
she had a chamber D 112
she saw a burglar D 111
she was a settled D 110
she was a lustful D 110
she was a baggage D 110
she has a liberal D 110
she had a clipper D 110
she was a thickset D 109
she was a boatman D 108
she had a willowy D 108
she had a matinee D 108
she had a consort D 108
she hath a husband D 106
she had a roomful D 106
she ate a forkful D 106
she won a coveted D 105
she had a bemused D 105
she was a washout D 104
she was a fairest D 104
she was a druggie D 104
she has a gallery D 104
she had a charter D 104
she wed a gentile D 102
she was a riddled D 102
she was a colicky D 102
she was a cocaine D 102
she saw a footman D 102
she saw a crimson D 102
she had a raucous D 102
she had a railway D 102
she had a fistula D 102
she saw a puzzled D 101
she had a coronet D 101
she was a fascist D 100
she saw a plastic D 100
she has a dentist D 100
she had a surname D 100
she had a colonial D 100
she was a comedian D 98
she saw a huddled D 98
she has a flighty D 98
she had a rupture D 98
she had a pierced D 98
she was a sweetie D 96
she was a maddening D 96
she saw a workman D 96
she has a reserve D 96
she has a balcony D 96
she had a sponsor D 96
she had a handgun D 96
she ate a biscuit D 96
she was a nurturing D 94
she was a heartbeat D 94
she was a gangster D 94
she was a cellist D 94
she was a bereaved D 94
she saw a gorgeous D 94
she sang a variety D 94
she ran a caressing D 94
she has a warlike D 94
she had a tenuous D 94
she had a painter D 94
she had a convent D 94
she had a blowout D 94
she was a sublime D 92
she was a grandma D 92
she was a genetic D 92
she saw a mounted D 92
she saw a bicycle D 92
she has a sprouting D 92
she has a newborn D 92
she had a catheter D 92
she got a stomach D 92
she and a servant D 92
she met a funeral D 91
she had a featured D 91
she was a tightly D 90
she was a sociopath D 90
she was a hapless D 90
she was a deranged D 90
she was a bashful D 90
she saw a flutter D 90
she sang a service D 90
she has a playful D 90
she had a surfeit D 90
she had a soprano D 90
she had a sharply D 90
she had a furtive D 90
she had a buoyant D 90
she got a puzzled D 90
she get a medical D 90
she saw a sparkling D 89
she was a varsity D 88
she was a mediator D 88
she was a cartoon D 88
she saw a radical D 88
she saw a drunken D 88
she has a vacancy D 88
she has a uterine D 88
she has a sizable D 88
she has a faraway D 88
she had a hammock D 88
she had a grocery D 88
she had a daydream D 88
she had a checkup D 88
she was a hellcat D 87
she was a starter D 86
she was a ghostly D 86
she was a baronet D 86
she has a winsome D 86
she has a widowed D 86
she had a restful D 86
she had a martini D 86
she had a kindred D 86
she had a freshly D 86
she had a backlog D 86
she got a frantic D 86
she and i slipped D 86
she was a doughty D 85
she not a heretic D 85
she won a lottery D 84
she was a relaxed D 84
she was a dweller D 84
she has a hankering D 84
she had a replica D 84
she had a plaster D 84
she had a palette D 84
she had a genteel D 84
she had a federal D 84
she had a contest D 84
she got a haircut D 84
she had a serpent D 83
she had a flushed D 83
she was a mannish D 82
she was a hoarder D 82
she was a bookish D 82
she saw a heavyset D 82
she met a variety D 82
she has a queenly D 82
she has a promising D 82
she has a modicum D 82
she had a wizened D 82
she had a slipper D 82
she had a maddening D 82
she git a husband D 82
she was a mythical D 80
she was a meddler D 80
she saw a shallow D 80
she saw a padlock D 80
she ran a marathon D 80
she has a refined D 80
she had a tangible D 80
she had a fearsome D 80
she had a factory D 80
she had a cavalry D 80
she was a simpering D 57
she was a diviner D 56
she was a stoutly D 55
she was a collier D 53
she had a lunatic D 48
she had a burglar D 48
she was a typhoid D 47
she was a persona D 47
she had a memorial D 46
she wear a uniform D 45
she was a recording D 44
she was a shrinking D 42
she has a phallus D 42
she was a tertiary D 41
she has a girlish D 41
she was a flowering D 40
