she is a graduate M 28200
she is a beautiful M 22328
she is a daughter M 20910
she is a frequent M 7694
she is a powerful M 4400
she is a prisoner M 4382
she is a sensible M 3924
she is a brilliant M 3638
she is a constant M 3180
she is a complete M 3160
she is a lecturer M 3159
she is a terrible M 2928
she is a relative M 2862
she is a dangerous M 2824
she is a survivor M 2623
she is a valuable M 2206
she is a believer M 2016
she is a virtuous M 1766
she is a potential M 1750
she is a prolific M 1746
she is a religious M 1714
she is a favorite M 1492
she is a separate M 1462
she is a criminal M 1343
she is a practicing M 1312
she is a generous M 1158
she is a positive M 1146
she is a business M 1061
she is a personal M 1030
she is a suitable M 1004
she is a helpless M 996
she is a companion M 952
she is a cheerful M 930
she is a somewhat M 918
she is a murderer M 916
she is a graceful M 848
she is a reminder M 804
she is a disgrace M 796
she is a hopeless M 770
she is a cultural M 762
shy of a majority M 718
she is a computer M 714
she is a messenger M 704
she is a stubborn M 702
she is a disciple M 685
she is a follower M 648
she is a vigorous M 638
she is a distinct M 632
she is a solitary M 629
she is a neighbor M 606
she is a presence M 596
she is a divinity M 586
she is a straight M 580
she is a conscious M 578
she is a visionary M 562
she is a customer M 546
she is a cultured M 514
she is a worthless M 512
she is a horrible M 510
she is a possible M 498
she is a designer M 460
she is a finished M 454
she is a forceful M 434
she is a wretched M 432
she is a metaphor M 430
she is a challenge M 430
she is a composer M 424
she is a beginner M 414
she is a catalyst M 406
she is a curiosity M 404
she is a recovering M 396
she is a mountain M 392
she in a condition M 360
she is a wanderer M 352
she is a resource M 350
she is a harmless M 346
she is a critical M 346
she is a symbolic M 344
she is a credible M 338
she is a terribly M 330
she is a definite M 322
she is a colleague M 314
she is a nameless M 310
she is a careless M 304
she is a lifetime M 301
she is a profound M 286
she is a contrast M 286
she is a slightly M 285
she is a compound M 270
she is a multiple M 263
she is a wondrous M 258
she is a disturbing M 254
she is a traveler M 248
she is a sufferer M 248
she is a mystical M 238
she is a consenting M 235
she is a consulting M 219
she is a governor M 216
she is a disabled M 200
she is a surprising M 196
she is a marginal M 192
she be a daughter M 190
she is a negative M 188
she is a troubled M 174
she is a dominant M 170
she is a reformed M 162
she is a majestic M 154
she is a refreshing M 150
she be a prisoner M 140
she is a realistic M 138
she is a specific M 134
she is a relapsed M 133
she is a convincing M 130
she in a situation M 124
she is a moderate M 123
she is a delegate M 122
she is a listener M 119
she is a malicious M 118
she at a distance M 108
she is a devourer M 106
she is a property M 105
she is a defender M 104
she is a homeless M 101
she is a forsaken M 101
she is a confused M 101
she is a commanding M 101
shy of a complete M 100
she is a provider M 100
she is a hardened M 100
she is a fallible M 100
she is a children M 100
she is a somebody M 98
she is a deceiver M 98
she is a calendar M 96
she in a beautiful M 94
she is a detached M 92
she in a terrible M 90
she is a casualty M 88
she is a compelling M 87
she is a reckless M 86
she is a strangely M 84
she is a properly M 84
she is a narrator M 82
she be a companion M 82
she is a paradise M 80
she be a relative M 56
she is a dominating M 46
she is a recently M 42
she is a mischief M 42
she is a struggling M 41
she is a nineteen M 40
she be a graduate M 40
she is a christian D 10678
she is a princess D 8171
she is a splendid D 5810
she is a handsome D 5028
she is a licensed D 3477
she is a feminist D 3346
she is a resident D 3332
she is a talented D 2876
she is a director D 2648
she is a coquette D 2114
she is a mistress D 1790
she is a doctoral D 1766
she is a delicate D 1650
she is a novelist D 1504
she is a teenager D 1478
she is a clinical D 1464
she is a romantic D 1350
she is a physician D 1329
she is a democrat D 1222
she be a resident D 1208
she is a literary D 1194
she is a friendly D 1178
she is a spinster D 1155
she is a brunette D 1155
she is a countess D 1106
she is a nuisance D 997
she is a waitress D 993
she is a strumpet D 962
she is a terrific D 930
she is a reporter D 902
she is a domestic D 900
she is a divorcee D 884
she is a spirited D 854
she is a socialist D 835
she is a physical D 806
she is a minister D 768
she is a tireless D 756
she is a newcomer D 726
she is a librarian D 708
she is a divorced D 698
she is a feminine D 686
she is a freshman D 653
she is a renowned D 652
she is a fugitive D 652
she is a singularly D 609
she is a voracious D 604
she is a vivacious D 604
she is a virtuoso D 596
she is a notorious D 592
she is a historian D 592
she is a fountain D 574
she is a strikingly D 558
she is a skillful D 502
she is a producer D 491
she is a minority D 486
she is a passenger D 474
she is a diligent D 460
she is a sculptor D 458
she is a fictional D 458
she is a therapist D 452
she is a restless D 450
she is a heartless D 450
she is a devilish D 450
she is a financial D 444
she is a fabulous D 444
she is a stickler D 442
she be a princess D 426
she is a consumer D 415
she is a portrait D 402
she is a moralist D 400
she is a merchant D 400
she is a sexually D 392
she is a dramatic D 390
she is a monument D 376
she is a discreet D 366
she is a neurotic D 365
she is a parasite D 351
she is a ferocious D 344
she is a huntress D 340
she is a knockout D 338
she is a militant D 326
she is a madwoman D 326
she is a drunkard D 326
she is a specimen D 318
she in a hospital D 318
she is a headstrong D 314
she is a werewolf D 302
she be a christian D 298
she be a gadabout D 292
she is a military D 284
she is a barbarian D 283
she is a taxpayer D 282
she is a cannibal D 277
she is a pacifist D 272
she is a perverse D 270
she is a celestial D 266
she is a milliner D 264
she is a hospital D 262
she is a creditor D 262
she is a liability D 261
she is a republic D 260
she is a baroness D 258
she is a commoner D 252
she is a terrifying D 251
she is a bewitching D 242
she is a pensioner D 240
she is a reviewer D 238
she is a sweetheart D 232
she is a gardener D 226
she is a miniature D 224
she is a maternal D 220
she is a schooner D 217
she is a spiteful D 214
she is a curiously D 210
she is a battered D 208
she is a partisan D 206
she is a skeleton D 202
she is a botanist D 202
she is a biologist D 202
she is a nurturer D 185
she is a paradigm D 184
she is a fiercely D 184
she is a delicious D 184
shy as a teenager D 180
she is a resolute D 174
she is a perennial D 174
she is a pregnant D 172
she is a bigamist D 172
she is a loathsome D 168
she is a fiduciary D 162
she is a violinist D 160
she is a habitual D 158
she is a cottager D 158
she is a tiresome D 154
she is a province D 152
she is a humanist D 151
shoe to a distance D 144
she is a beautician D 142
she is a supplier D 130
she is a throwback D 128
she be a coquette D 124
she as a christian D 123
she is a medicine D 120
she is a flattering D 120
she is a qualifying D 118
she is a peerless D 118
she is a penitent D 117
she is a standard D 113
she is a satirist D 111
she is a suppliant D 110
she is a partaker D 109
she is a stripper D 107
she is a reserved D 106
she is a handmaid D 106
she is a gigantic D 106
shy at a likeness D 104
she is a fatalist D 104
shoe of a beautiful D 102
she is a vagabond D 102
she is a concrete D 102
she is a busybody D 102
shy as a youngster D 100
she is a renegade D 100
she is a matriarch D 100
she is a humorist D 100
she is a decadent D 100
she is a pushover D 99
she is a fanciful D 98
she is a castaway D 98
she is a slattern D 96
she is a receiver D 96
she is a lobbyist D 96
she as a waitress D 96
she is a suburban D 94
she is a toothless D 90
she is a sentient D 90
she is a mentally D 90
she is a despotic D 90
she is a bisexual D 89
she is a reformer D 88
she is a luminous D 88
she is a vocalist D 86
she is a sinister D 86
she is a protegee D 86
she is a marquise D 86
she is a venomous D 84
she is a helpmate D 84
she is a district D 84
she is a crusader D 84
she is a deserted D 83
shy of a bachelor D 82
she is a swindler D 82
she is a depraved D 82
she is a bachelor D 81
she is a fragment D 80
she is a juvenile D 64
shy as a squirrel D 52
she is a succubus D 44
she is a bourgeois D 41
