she married a man M 26522
she uttered a cry M 12346
she realized i was M 5084
she managed a weak M 4548
she noticed a man M 4229
she stopped a few M 3862
she laughed a lot M 3857
she started a new M 3326
she uttered a low M 3301
she sounded a bit M 2532
she arrived a few M 2226
she noticed a few M 1984
she released a long M 1932
she brought a new M 1806
she uttered a few M 1682
she carried a long M 1638
she noticed i was M 1620
she gathered a few M 1606
she decided i was M 1592
she carried a big M 1588
she assumed i was M 1496
she laughed a bit M 1381
she ordered a cup M 1302
she dropped a few M 1252
she secured a job M 1176
she entered a new M 1170
she carried a bag M 1168
she watched a man M 1154
she becomes a nun M 1114
she realized i had M 1082
she figured i was M 1058
she uttered a long M 1054
she worried a lot M 1014
she emerged a few M 1012
she noticed a new M 984
she married a non M 982
she worries a lot M 958
she pointed a long M 954
she travels a lot M 945
she founded a new M 924
she brought a cup M 924
she managed a few M 904
she enjoyed a long M 902
she brought a lot M 872
she adopted a new M 826
she sounded a lot M 806
she laughed a low M 806
she grabbed a few M 804
she carried a few M 784
she brought a big M 736
she invited a few M 720
she ordered a new M 696
she married a boy M 670
she emitted a low M 656
she planted a big M 654
she devised a way M 650
she becomes a man M 647
she becomes a new M 640
she noticed a red M 636
she appeared a few M 634
she appeared a bit M 630
she allowed a few M 628
she pressed a few M 626
she plucked a few M 624
she claimed i was M 620
she assumed a new M 618
she carried a cup M 606
she brought a few M 606
she watched a few M 590
she married a few M 582
she carried a lot M 568
she noticed a long M 564
she devised a new M 564
she noticed a big M 562
she assumed i had M 544
she carried a box M 540
she offered a few M 536
she married a year M 530
she becomes a real M 530
she retired a few M 522
she arrived i was M 522
she grabbed a cup M 514
she carried a red M 510
she replied a bit M 484
she grabbed a box M 480
she carried a bow M 476
she brought a box M 474
she dropped a low M 466
she offered a weak M 460
she grabbed a bag M 452
she stepped a few M 448
she brought a bag M 448
she married a new M 445
she guessed i was M 442
she emitted a long M 438
she carries a long M 438
she returns a few M 424
she brought a boy M 424
she assumes a new M 420
she noticed a lot M 416
she watched a lot M 396
she grabbed a can M 378
she carried a new M 378
she withdrew a few M 376
she carries a big M 374
she brought a man M 373
she married a son M 368
she claimed i had M 366
she noticed i had M 364
she expects a lot M 364
she grabbed a big M 360
she enjoyed a few M 360
she arranged a few M 356
she entered a long M 344
she grabbed a long M 340
she skipped a few M 336
she visited a few M 334
she watches a lot M 330
she chooses a man M 330
she removed a few M 326
she suffers a lot M 324
she pressed a key M 316
she allowed a man M 315
she ordered a lot M 302
she watched a long M 296
she realized i did M 296
she planted a wet M 294
she entered a few M 292
she expired a few M 284
she noticed a boy M 282
she carries a bow M 282
she arrived a day M 282
she offered a cup M 280
she carries a bag M 278
she devoted a lot M 276
she carried a dead M 276
she prefers a man M 273
she entered a plea M 272
she wrapped a long M 264
she offered a new M 264
she laughed i was M 262
she demands a lot M 262
she carries a lot M 262
she accepts a job M 256
she climbed a few M 250
she adopted a son M 250
she dropped a bag M 242
she carried a boy M 234
she stopped a man M 230
she brought a long M 228
she revealed a new M 226
she invites a man M 224
she decided a few M 224
she fetched a long M 222
she arrived i had M 222
she applied a bit M 216
she ordered a meal M 215
she planned a new M 214
she repeated a few M 212
she notices a man M 212
she carries a boy M 212
she adopted a boy M 212
she ordered a few M 202
she touched a few M 200
she sniffed a few M 198
she studied a lot M 196
she started a long M 196
she desired a man M 192
she chooses a new M 192
she prevent a few M 188
she becomes a bit M 186
she touched a key M 184
she started a job M 184
she started a few M 182
she enacted a law M 182
she repeated a bit M 178
she planted a few M 178
she mentions a few M 174
she endured a long M 174
she hurried a few M 172
she wrapped a leg M 168
she realized a few M 166
she dropped a cup M 164
she desires a man M 164
she accepts a new M 164
she touched a wet M 162
she removed a key M 161
she noticed a box M 160
she figured i had M 156
she grasped a long M 154
she erected a new M 154
she guessed i had M 152
she obtains a job M 150
she noticed a bit M 150
she entered i saw M 150
she trusted a man M 148
she invited a man M 148
she decided i had M 146
she believe i was M 146
she assumed a far M 146
she presses a key M 145
she realized a man M 142
she figured a way M 140
shy because i was M 139
she brought a son M 136
she touched a man M 132
she released a new M 132
she managed a sad M 132
she laughed a long M 130
she watched a red M 128
she studied a map M 128
she noticed a set M 128
she married a poet M 126
she accepts a man M 126
she carried a can M 125
she dropped a big M 124
she selects a new M 122
she checked a few M 122
she removed a long M 120
she devoted a few M 120
she carried a man M 120
she trained a few M 118
she married a real M 118
she uttered a weak M 116
she planned a long M 116
she emitted a cry M 116
she covered a lot M 116
she becomes a poet M 116
she assumed a man M 116
she sniffed a bit M 114
she plucked a long M 114
she enjoyed a new M 114
she withdrew a long M 112
she watches a man M 112
she secured a new M 112
she related a long M 112
she expects a man M 112
she visited a new M 110
she realized a long M 110
she watched a big M 108
she refused a man M 108
she devoted a long M 108
she becomes a big M 108
she studied a new M 106
she stopped a long M 106
she obtains a new M 106
she laughed a dry M 106
she evolved a new M 106
she clicked a few M 106
she managed a one M 105
she gathered a lot M 104
she desired a son M 104
she applied a few M 104
she plucked a red M 103
she selects a man M 102
she secured a seat M 102
she becomes a cat M 102
she rejects a man M 100
she realized a new M 100
she married a big M 100
she assumed i did M 98
she admired a man M 98
she noticed a dim M 96
she worried a bit M 94
she started a war M 94
she ordered a big M 94
she offered a bit M 94
she released a low M 92
she enjoyed a lot M 92
she dropped a bit M 92
shy because i had M 90
shy because i did M 90
she started a song M 90
she started a bit M 90
she pointed a red M 90
she managed a dry M 90
she planned a big M 88
she grabbed a red M 88
she appeared i was M 88
she becomes a non M 86
she stepped a bit M 84
she notices a new M 84
she fetched a big M 84
she becomes a bad M 84
she ordered a man M 83
she watched a boy M 82
she offered a shy M 82
she expects a big M 82
she dropped a long M 82
she desired a new M 82
she carries a new M 82
she carried a bit M 82
she applied a new M 82
she offered a way M 80
she entered a bar M 80
she donated a lot M 80
she carried a six M 45
she started a day M 44
she carried a key M 44
she becomes a key M 44
she watched a fly M 40
she carries a red M 40
she marries a man D 4956
she blinked a few D 2590
she stifled a sob D 2308
she relaxed a bit D 2208
she managed a wan D 1557
she stifled a cry D 1492
she brushed a tear D 1476
she exhaled a long D 1444
she managed a nod D 1426
she boarded a bus D 1404
she carried a gun D 1363
she spotted a man D 1054
she dropped a tear D 948
she noticed a car D 944
she grabbed a pen D 894
she brushed a few D 886
she married a guy D 802
she recited a poem D 786
she carried a fan D 780
she carried a thin D 774
she mumbled a few D 732
she managed a wry D 656
she smelled a rat D 583
she managed a thin D 566
she plucked a leaf D 522
she punched a few D 510
she flashed a big D 502
she noticed a thin D 492
she carries a gun D 469
she started a pot D 460
she frowned a bit D 460
she giggled a lot D 458
she stirred a pot D 450
she wobbled a bit D 440
she shifted a bit D 434
she spotted a few D 426
she flipped a few D 426
she blushed a bit D 406
she carries a fan D 396
she inhaled a long D 388
she brought a pot D 370
she slipped a few D 364
she ordered a gin D 346
she coughed a lot D 331
she snapped a few D 330
she giggled a bit D 327
she weighed a ton D 316
she carried a pot D 312
she recited a long D 310
she stuffed a few D 296
she invents a new D 296
she grabbed a pad D 282
she marries a non D 279
she stirred a bit D 276
she coughed a few D 276
she pitched a fit D 269
she grabbed a rag D 266
she ordered a pot D 264
she screamed a lot D 240
she recited a few D 236
she ordered a hot D 228
she crawled a few D 228
she grabbed a pot D 226
she noticed a tear D 216
she fancied i was D 216
she boarded a car D 216
she grabbed a gun D 214
she uttered a sob D 208
she spilled a few D 208
she wiggled a bit D 200
she fancied i had D 198
she brought a jug D 194
she ordered a bath D 192
she spotted a red D 188
she spotted a big D 184
she spilled a cup D 184
she flushed a bit D 180
she spotted a car D 176
she flagged a cab D 174
she commits a sin D 174
she brought a gun D 174
she spotted a long D 168
she spotted a new D 162
she stirred a leg D 160
she applied a thin D 158
she recites a poem D 156
she brushed a long D 152
she becomes a nag D 152
she stifles a sob D 150
she carried a tin D 150
she pointed a gun D 144
she grabbed a wad D 144
she becomes a sex D 134
she muffled a sob D 130
she chanted a song D 128
she grabbed a cab D 124
she offered a wan D 120
she nibbled a bit D 120
she flicked a few D 120
she muffled a cry D 116
she coughed a bit D 116
she slipped a bit D 115
she charged a fee D 112
she gathered a bed D 109
she scanned a few D 108
she carried a jug D 108
she brushed a fly D 108
she brushed a bit D 108
she becomes a cow D 108
she grabbed a mug D 106
she brought a jar D 106
she swatted a fly D 102
she shipped a deal D 102
she punched a key D 102
she fumbled a bit D 102
she dropped a nut D 102
she stabbed a man D 100
she ordered a cab D 100
she giggles a lot D 100
she stained a new D 98
she pressed a wad D 98
she noticed a row D 98
she brought a hot D 98
she pointed a thin D 96
she laughed a gay D 96
she wrapped a bath D 94
she devotes a lot D 94
she sported a new D 92
she brought a tin D 92
she attains a new D 92
she noticed a guy D 90
she marries a boy D 90
she spotted a thin D 88
she slipped a long D 88
she scooted a few D 88
she painted a few D 88
she spotted a pay D 86
she slipped a ten D 86
she slipped a key D 86
she flashed a weak D 86
she carries a hat D 86
she ordered a bed D 84
she carried a pan D 84
she blinked a bit D 84
she watched a car D 82
she twisted a bit D 82
she relaxes a bit D 82
she painted a lot D 82
she mounted a big D 80
she grabbed a jar D 80
she crooned a song D 80
she touched a leaf D 43
she blinked a lot D 40
