she deserved it . M 14916
she accepted it . M 9938
she believed it . M 9738
she deserves it . M 9368
she informed me . M 7362
she reminded me . M 6542
she answered it . M 6518
she believed me . M 5964
she received it . M 5632
she actually is . M 3782
she admitted it . M 3744
she welcomed it . M 3288
she mentioned it . M 3286
she answered me . M 3270
she followed me . M 3190
she returned it . M 3188
she believes it . M 2850
she finished it . M 2614
she expected it . M 2602
she rejected it . M 2276
she reassured me . M 2224
she examined it . M 1920
she imagined it . M 1830
she promised me . M 1708
she embraced me . M 1708
she receives it . M 1644
she imagined it ? M 1644
she unfolded it . M 1602
she followed it . M 1594
she intended to . M 1394
she probably is . M 1384
she survives me . M 1356
she believes me . M 1356
she informed us . M 1244
she disliked it . M 1220
she resisted it . M 1194
she accepted me . M 1174
she recalled it . M 1166
she despises me . M 1084
she answered no . M 1036
she approved of . M 1032
she remember me ? M 1030
she declined it . M 1016
she required it . M 1008
she stumbled on . M 992
she attacked me . M 964
she objected to . M 906
she acquired it . M 902
she obtained it . M 874
she supposed so . M 864
she requests it . M 858
she demanded it . M 832
she rejected me . M 818
she inspired me . M 806
she threatened me . M 784
she concealed it . M 748
she achieved it . M 736
she despised me . M 722
she disliked me . M 718
she possibly do ? M 716
she unlocked it . M 714
she hastened on . M 710
she listened to . M 692
she deserves it ! M 688
she replaced it . M 682
she produced it . M 676
she embraced it . M 676
she despised it . M 668
she deceived me . M 634
she requires it . M 608
she finished up . M 600
she expected to . M 592
she forgives me . M 578
she examined me . M 576
she possibly be ? M 548
she survived it . M 542
she observed it . M 534
she remember it ? M 530
she dislikes me . M 502
she deserved it ! M 500
she intended it . M 486
she reminded us . M 482
she received it ? M 478
she describe it ? M 476
she mastered it . M 472
she insisted on . M 454
she believed so . M 450
she corrects me . M 448
she respects me . M 444
she proposed it . M 432
she consoled me . M 432
she performs it . M 418
she occupied it . M 414
she remained so . M 406
she received me . M 404
she welcomed me . M 386
she expected me . M 382
she prepared it . M 378
she recorded it . M 366
she finishes it . M 362
she cautioned me . M 362
she reported it . M 356
she followed us . M 352
she deserved it ? M 344
she overcame it . M 342
she presents it . M 336
she mentioned it ? M 320
she explains it . M 294
she resisted me . M 292
she implored me . M 284
she directed me . M 282
she punished me . M 274
she provided it . M 274
she pictured it . M 270
she initiated it . M 270
she deserves it ? M 270
she devoured it . M 268
she actually do ? M 268
she supposed to ? M 260
she supplied it . M 260
she believed it ? M 258
she wandered on . M 256
she believed in ? M 256
she examines it . M 254
she borrowed it . M 254
she depended on . M 252
she reassures me . M 248
she delivers it . M 248
she declines it . M 248
she adjusted it . M 244
she extended it . M 242
she retained it . M 238
she attained it . M 234
she forgiven me ? M 232
she beckoned me . M 232
she summoned me . M 230
she dislikes it . M 228
she approved it . M 226
she welcomes it . M 224
she disappear to ? M 222
she dictated it . M 222
she declared it . M 222
she composed it . M 222
she commands me . M 220
she resigned it . M 214
she achieves it . M 214
she destroys it . M 210
she controls it . M 208
she supports it . M 204
she accepted it ? M 202
she supports me . M 200
she imagines it . M 194
she produces it . M 192
she designed it . M 192
she lectured me . M 190
she admitted to . M 190
she followed up . M 188
she complain of ? M 188
she survived me . M 186
she favoured me . M 186
she despises me ! M 186
she deserved to . M 186
she responds to . M 180
she overheard us ? M 178
she involved in ? M 176
she welcomed us . M 174
she detected it . M 174
she believed me ! M 174
she attempts it . M 168
she attacked me ! M 168
she repented it . M 162
she provided me . M 162
she denounce me ? M 162
she withdraws it . M 160
she deserves to . M 160
she abandons it . M 160
she mentioned me ? M 156
she defended me . M 156
she silenced me . M 152
she normally is . M 152
she suffered it . M 148
she silenced it . M 148
she received us . M 148
she promised us . M 148
she prepared tea . M 148
she defended it . M 148
she commands it . M 148
she suffered so . M 146
she promised me ? M 146
she deceived me ! M 146
she abhorred it . M 146
she observes it . M 144
she consider it ? M 144
she rejected it ! M 138
she destroys us . M 138
she deceived me ? M 138
she canceled it . M 138
she absorbed it . M 138
she reversed it . M 132
she rejected me ? M 132
she regained it . M 132
she explored it . M 132
she condemns it . M 132
she believes in ? M 132
she believed us . M 132
she actually is ? M 130
she cornered me . M 128
she believed it ! M 128
she possibly go ? M 126
she returned to . M 124
she expected me ? M 124
she embodies it . M 124
she develops it . M 120
she promised it . M 118
she confirms it . M 118
she awakened me . M 118
she replaces it . M 116
she relieved me . M 114
she expected it ? M 114
she admitted me . M 114
she survives it . M 112
she believes it ! M 112
she overcame me . M 110
she inhabits it . M 110
she contract it ? M 110
she promised to . M 108
she inherits it . M 108
she attacked it . M 108
she inspired it . M 106
she consumed it . M 106
she tolerate it ? M 104
she overcome it ? M 104
she enforces it . M 104
she directed it . M 104
she complain to ? M 104
she affected me . M 104
she acquires it . M 104
she suggests it . M 102
she reassured us . M 102
she observed me . M 102
she requires it ? M 100
she executes it . M 100
she attracts me . M 100
she answered to . M 100
she provides it . M 98
she despised us . M 98
she verified it . M 96
she prepares it . M 96
she discover it ? M 96
she protects me . M 94
she outgrows it . M 94
she initiates it . M 94
she included me . M 92
she corrects it . M 92
she answered me ? M 90
she discards it . M 86
she despises it . M 86
she confused me . M 86
she admitted it ? M 86
she returned it ? M 84
she maintain it . M 84
she implores me . M 84
she imparted it . M 84
she attacked us . M 84
she worships me . M 82
she withholds it . M 82
she secretly is . M 82
she resorted to . M 82
she remarked it . M 82
she advanced it . M 82
she mentioned me . M 80
she believed me ? M 80
