nylon is used in D 629
nylon is used to D 371
nylon as well as D 291
nymph is ready to D 198
nylon is used as D 164
nymph as well as D 139
nymph is able to D 112
nymph to whom he D 96
nymph so hard to D 88
nylon is made by D 87
nymph is said to D 86
