her head in a M 81398
her way to a M 52686
her job as a M 48066
her out of a M 34612
her arm in a M 23016
her idea of a M 21234
her off to a M 20230
her head on a M 19716
head out of a M 18846
her out on a M 14172
her own in a M 14118
her son in a M 14010
head was in a M 13890
her head as a M 10828
her out as a M 10570
her son as a M 10438
her seat on a M 10062
her out in a M 9926
her own as a M 9580
her head is a M 9458
her out to a M 9058
her seat to a M 8970
her use of a M 8900
her not as a M 8740
her death in a M 8314
her off in a M 7982
her son to a M 7622
her way in a M 7106
her and in a M 6998
her off as a M 6946
her death as a M 6936
her son is a M 6900
her job in a M 6644
her that if i M 6626
her head at a M 5678
her seat in a M 5450
her off on a M 5434
her eye on a M 4962
her that in a M 4942
her job at a M 4894
head and in a M 4818
her leg in a M 4680
head was on a M 4576
her death is a M 4562
her being in a M 4490
her all of a M 4470
her head to a M 4456
her son by a M 4452
her that as a M 4388
head man of a M 4360
her fear of a M 3694
her say in a M 3682
her now as a M 3590
her lying in a M 3570
her she is a M 3556
her head by a M 3526
her lying on a M 3452
her way as a M 3350
head set on a M 3190
head off in a M 3044
her off at a M 3042
her was of a M 2994
head end of a M 2967
her put on a M 2874
head may be a M 2863
her head as i M 2778
her going to a M 2594
her things in a M 2504
heat them in a M 2467
her son on a M 2452
her and as a M 2362
her now in a M 2352
her death by a M 2312
hear them in a M 2274
her sit on a M 2266
her both as a M 2172
her sit in a M 2112
head out on a M 2062
head was of a M 1974
her lot as a M 1942
heat out of a M 1905
her and so i M 1896
head off to a M 1890
hear him in a M 1874
her and be a M 1848
her way up a M 1814
head off if i M 1813
her was in a M 1812
her arm as a M 1796
her death to a M 1774
her that if a M 1708
her day as a M 1702
her own or a M 1694
head out to a M 1670
hear that in a M 1628
her this is a M 1552
her way by a M 1548
her and as i M 1540
head off on a M 1524
her set up a M 1518
her and if i M 1484
her one at a M 1476
hear this as a M 1468
her son at a M 1460
her own on a M 1408
her arm on a M 1408
hear she is a M 1350
her but as a M 1346
her all in a M 1344
her own is a M 1334
her own at a M 1270
her may be a M 1266
her wings in a M 1256
head due to a M 1252
her day in a M 1240
her son of a M 1226
her own to a M 1226
head that if i M 1226
her put in a M 1222
her out at a M 1220
heat may be a M 1215
her end of a M 1198
her eye to a M 1196
her now as i M 1192
head and of a M 1188
her leg on a M 1164
her man is a M 1154
her was at a M 1148
her seat at a M 1146
head all of a M 1138
her bit of a M 1122
heat can be a M 1114
head can be a M 1112
her use as a M 1104
her bag on a M 1104
her was as a M 1098
her head or a M 1094
her own by a M 1090
head off at a M 1082
head are of a M 1078
head and as a M 1070
head that of a M 1068
her seat as a M 1058
hear them as i M 1056
heat them to a M 1041
her say to a M 1038
hear them as a M 1038
her being as a M 1030
her man in a M 1022
her job is a M 1010
her act as a M 1006
her but in a M 964
her death at a M 954
her that is a M 952
head lying on a M 950
her arm to a M 942
her eye in a M 940
her than in a M 936
her then as a M 910
hear him as a M 908
hear that as a M 888
her and to a M 884
heat and as a M 883
hear him at a M 878
head lay on a M 878
head lay in a M 866
head and is a M 863
her and is a M 850
head off of a M 848
her age in a M 844
her that as i M 826
her due as a M 822
her age as a M 818
her singing in a M 796
hear them at a M 794
her was on a M 792
hear him on a M 790
head out in a M 772
her year as a M 770
her that on a M 768
her head up a M 766
her aid in a M 766
heat and in a M 766
her joy in a M 764
her than to a M 762
head that is a M 761
her ease in a M 756
her song is a M 752
her job to a M 750
head was at a M 750
her who is a M 746
her dog in a M 746
her death on a M 744
her cup in a M 738
her way at a M 734
her way on a M 730
her head so i M 730
her one of a M 722
her arm by a M 718
her act in a M 710
heat due to a M 710
her end in a M 700
her head of a M 694
her air of a M 686
her death of a M 684
her team to a M 676
head and at a M 663
her son or a M 656
her and me a M 656
head lying in a M 650
her job on a M 642
her then in a M 640
her age is a M 632
her boy in a M 624
her seat by a M 610
her going on a M 608
her say as i M 596
her dog on a M 596
her bag in a M 594
her things on a M 590
head out at a M 590
her arm is a M 588
head who is a M 588
her off by a M 582
heat and is a M 579
her then as i M 576
her dead in a M 574
her wings as a M 570
her and of a M 566
head and by a M 560
head are in a M 553
her out by a M 550
head this is a M 550
head and to a M 550
her poem is a M 542
her boy to a M 542
her arm at a M 542
heat heat is a M 541
hear him as i M 536
her cat in a M 534
her out if i M 528
her leg as a M 528
head set in a M 528
head and on a M 522
her eye as a M 520
head all in a M 514
her god is a M 510
her that of a M 508
her with me a M 506
her and at a M 506
her that at a M 498
her fear in a M 498
head put on a M 492
her led to a M 486
her now if i M 484
her lot in a M 484
her song in a M 478
her singing of a M 478
hear you in a M 478
head sat on a M 478
her eye as i M 470
her bow in a M 468
her and do a M 464
head man in a M 464
her than if i M 462
hear this is a M 462
her being on a M 454
her one as a M 444
heat them on a M 444
her man to a M 440
her but to a M 440
her and by a M 440
hear her in a M 440
her eye at a M 438
hear her sing a M 436
her poem as a M 434
hear them on a M 428
her cup on a M 426
her age by a M 426
her path as a M 424
her than of a M 420
her arm as i M 420
head men of a M 420
head and be a M 410
head and as i M 408
her cry in a M 406
her put up a M 404
her die in a M 404
her aid as a M 402
her get in a M 400
her and on a M 390
her age to a M 390
her age or a M 390
her dying in a M 384
hear things in a M 380
her with me i M 374
her boy as a M 374
her act is a M 372
her meal in a M 368
her all on a M 368
her being of a M 367
hear him sing a M 362
head being of a M 362
her fear as a M 360
head off as a M 360
her this in a M 358
her own of a M 358
her can be a M 358
her this as a M 356
her leg to a M 356
her path to a M 352
her aim as a M 352
head not of a M 352
her pay as a M 350
her are of a M 350
hear you sing a M 350
hear that at a M 350
her not in a M 346
her lot is a M 346
heat this in a M 345
her way as i M 340
her man as a M 340
heat and by a M 340
her too as a M 332
her end as a M 330
her ease on a M 328
her bring me a M 326
her bow as a M 324
her going in a M 322
her way of a M 320
her now is a M 320
her lie on a M 320
head set up a M 320
her due to a M 318
her being at a M 318
head than in a M 318
her try on a M 316
her oath as a M 316
her dog to a M 316
her but at a M 316
her box of a M 316
her being to a M 316
her out as i M 314
her way is a M 312
head being in a M 312
her not to a M 308
her get on a M 308
head and if i M 308
head and do a M 307
her dog as a M 306
head but of a M 306
her thus in a M 304
her being is a M 304
hear now of a M 302
her song to a M 300
hear all of a M 300
her team in a M 298
her sit at a M 298
her eye is a M 296
her bow at a M 296
heat than in a M 296
heat had in a M 296
head set at a M 294
head hung on a M 294
heat and of a M 293
her path in a M 292
her idea is a M 292
heat that is a M 292
hear her as i M 292
head big as a M 291
hear this as i M 288
hear that if a M 288
hear that if i M 284
head and so i M 282
her song as a M 280
her things to a M 278
her lie in a M 278
heat and at a M 278
hear may be a M 276
head being on a M 276
her death as i M 274
her singing as a M 272
her singing at a M 270
her now to a M 270
hear that on a M 268
her now on a M 266
hear you do a M 266
head off as i M 266
her bow to a M 264
heat air in a M 263
her idea in a M 260
her how as a M 260
her with us a M 258
her for me i M 258
her eye by a M 258
hear you as a M 258
her lay in a M 254
her out so i M 252
her all to a M 252
head man is a M 252
head hung at a M 250
head them in a M 249
her off if i M 248
her joy as a M 248
her ask in a M 248
her poem in a M 246
her one in a M 246
head now in a M 245
hear them sing a M 244
her woes in a M 242
her singing is a M 242
her than as a M 240
hear you as i M 240
her going at a M 238
her god in a M 238
her but as i M 236
hear this in a M 236
her aid to a M 234
heat then is a M 234
head but as a M 234
head one at a M 233
her leg by a M 230
her but by a M 230
her eye or a M 228
her due by a M 228
heal him of a M 228
her for it a M 226
her bag to a M 226
her web in a M 224
her head if i M 224
her too in a M 222
her leg at a M 220
her idea as a M 220
heat and to a M 220
head but in a M 220
head hung in a M 219
her seat is a M 218
hear him if i M 218
head end is a M 218
head put in a M 215
her going as a M 214
hear them if i M 214
head now as i M 214
her dying of a M 213
hear him to a M 211
head east on a M 210
head boy of a M 209
her men in a M 208
her age on a M 208
her than by a M 206
her seat as i M 206
her job or a M 206
her but if i M 206
her arm or a M 206
her son be a M 204
her box in a M 204
her bag as a M 204
her wit as a M 202
heap them in a M 202
hey this is a M 200
her doing in a M 200
heat things up a M 198
hear now is a M 198
her bring in a M 196
her use in a M 194
her path by a M 194
her gear in a M 194
her age at a M 194
head hung by a M 194
her get to a M 192
her bring up a M 192
her nor do i M 190
her lead in a M 190
her day on a M 190
hear too of a M 190
head end to a M 190
her was to a M 188
her son as i M 188
her singing to a M 188
her woes to a M 186
her not be a M 184
her wings to a M 182
her poem to a M 182
her idea to a M 182
her but on a M 182
hear her as a M 182
her own as i M 180
her off as i M 180
her now by a M 180
her eye of a M 180
her key on a M 178
her easy in a M 178
heat bring to a M 178
head area of a M 177
her now of a M 176
her job by a M 176
her are in a M 176
hear things at a M 176
hear one at a M 176
head that if a M 175
her man on a M 174
her day to a M 174
hear out of a M 174
head led to a M 174
her run in a M 173
her sit up a M 172
her meat in a M 172
her fear is a M 172
hear and in a M 170
her with as a M 168
her than on a M 168
her say it a M 168
her god as a M 168
her own so i M 166
her day is a M 166
her day at a M 164
hear her is a M 164
her joy by a M 162
her bit in a M 162
her lying at a M 160
her buy me a M 160
her run up a M 158
heat you up a M 158
her two at a M 156
her dying as a M 156
her boy is a M 156
head low in a M 156
her weak as a M 154
her not by a M 154
her and me i M 154
heat than to a M 154
her meal on a M 152
her cat on a M 152
her and sing a M 152
heat not as a M 152
head gear of a M 152
her way if i M 150
her poem on a M 150
hear that is a M 150
head that by a M 150
her that by a M 148
her own if i M 148
head lay at a M 148
her set on a M 146
her key in a M 146
her arm so i M 146
her act by a M 146
heal them in a M 146
head that in a M 146
her run to a M 145
her rear in a M 144
her own if a M 144
her off so i M 142
her not of a M 142
her key to a M 142
her and us a M 142
hear you if i M 142
her long in a M 140
her end at a M 140
her dog of a M 140
hear one of a M 140
her lead to a M 139
her too if i M 138
her see in a M 138
her plea in a M 138
her kid in a M 138
heat are at a M 138
head end by a M 138
head head of a M 137
her bear of a M 136
hear them is a M 136
her team as a M 134
her out is a M 134
her due in a M 134
her box on a M 134
hear her at a M 134
her sin as a M 132
her end by a M 132
head boy at a M 131
her man at a M 130
her dog is a M 130
her act on a M 130
head end in a M 130
head cut in a M 129
her with it a M 128
her song on a M 128
her fear to a M 128
her cat as a M 128
hear they do a M 128
her die of a M 127
her that to a M 126
hear god in a M 126
her bow on a M 124
heat led to a M 124
hear not of a M 124
head than on a M 124
her year in a M 122
her team on a M 122
her death if i M 122
her dead on a M 122
her big as a M 122
heat was of a M 122
head man at a M 122
her for me a M 120
her and if a M 120
hear her do a M 120
heal him in a M 120
head with it a M 120
head was as a M 120
her use by a M 118
her box at a M 118
her being by a M 118
heal may be a M 117
her vow as a M 116
her rings in a M 116
her lead as a M 116
hear you on a M 116
head than as a M 116
her bit as a M 114
her aim is a M 114
hear that of a M 114
head too is a M 114
her wit is a M 112
her wed to a M 112
her was by a M 112
her thus as a M 112
her then to a M 112
her singing on a M 112
her off of a M 112
her dog at a M 112
her dead of a M 112
her act to a M 112
heap and in a M 112
head out so i M 112
her long at a M 111
her son if i M 110
her pet in a M 110
her leg is a M 110
her his in a M 110
her ego as a M 110
hear him so i M 110
head than to a M 110
head low as i M 110
head gear is a M 110
head son of a M 109
her with in a M 108
her song of a M 108
her how by a M 108
her end is a M 108
her cry as a M 108
heat are of a M 108
hear one in a M 108
hear and be a M 108
head sat in a M 108
head cut by a M 108
her plea to a M 106
her plea as a M 106
her aid by a M 106
her act at a M 106
hear singing to a M 106
hear one if i M 106
her who in a M 104
her pet as a M 104
her now at a M 104
hear that as i M 104
hear singing in a M 104
head man on a M 103
her now or i M 102
her idea on a M 102
her aim of a M 102
head now of a M 102
head but by a M 102
her say on a M 100
her pet is a M 100
her path on a M 100
her get up a M 100
her but is a M 100
heat but at a M 100
hear but in a M 100
her try at a M 99
her with is a M 98
her two in a M 98
her sin by a M 98
her men at a M 98
her mad as a M 98
her for it i M 98
her cat to a M 98
heat was in a M 98
heat but as a M 98
hear that by a M 98
her wit in a M 96
her things as a M 96
her dying is a M 96
hear you at a M 96
hear them so i M 96
heal them at a M 96
head boy in a M 96
her then of a M 94
her aid at a M 94
hear this if i M 94
hear him is a M 94
her was it a M 92
her than is a M 92
her sin in a M 92
her led by a M 92
her dog or a M 92
her boy on a M 92
her bag of a M 92
her ask if i M 92
hear any thing i M 92
head that as a M 92
head and sing a M 92
her sin to a M 90
her kin in a M 90
her boy at a M 90
her pay in a M 88
her not as i M 88
her men to a M 88
her joy to a M 88
her cup to a M 88
her area as a M 88
her and so a M 88
hear how at a M 88
heap them on a M 88
heal them by a M 88
head not in a M 88
head but to a M 88
her path is a M 86
her age as i M 86
hear can be a M 86
head was as i M 86
her tow in a M 84
her sad in a M 84
her out or i M 84
her dead as a M 84
her bag is a M 84
heat and on a M 84
hear now in a M 84
hear him do a M 84
her lay on a M 82
her joy of a M 82
her death or a M 82
hear that so i M 82
heap out of a M 82
her wings on a M 80
her map of a M 80
her get me a M 80
her but of a M 80
hear them of a M 80
head but is a M 80
head east to a M 65
head out as a M 62
her with an a M 60
head east on i M 51
her set in a M 47
head off by a M 46
her long as i M 45
heat this is a M 44
heat than is a M 43
her owing to a M 42
heat than as a M 41
her fit as a M 40
heat oil in a D 37673
her bed in a D 9904
her car in a D 4546
her car to a D 3400
her art as a D 3384
her lap in a D 3260
her ears in a D 2664
her sex as a D 1966
her bed by a D 1788
her car on a D 1750
her bed to a D 1736
her car at a D 1722
her lip in a D 1692
her hip in a D 1674
her sex is a D 1580
her bed as a D 1366
hew him as a D 1226
her ears as a D 1190
her jaw in a D 1148
her hat on a D 1096
her art is a D 1092
her lap as a D 1050
her ass in a D 1036
her toes in a D 1014
her bed on a D 968
her dad is a D 962
her lap is a D 946
her hat in a D 872
her sex in a D 838
her bed is a D 828
her egg in a D 822
her bath in a D 780
her art in a D 774
her pen as a D 702
her pen in a D 622
her mom is a D 618
her lip as a D 612
her car as a D 594
her cap in a D 574
her hat at a D 566
her car is a D 514
her cap at a D 514
heat fat in a D 482
her mom in a D 472
her sex to a D 464
her art to a D 454
her car by a D 448
her dad in a D 442
her fan in a D 430
her hat is a D 414
her lap on a D 376
her ears to a D 376
her gun in a D 364
her peak as a D 354
heat bath at a D 350
her lap as i D 344
her dad as a D 334
her rag of a D 326
her bed as i D 326
her hat to a D 322
her toes on a D 314
her fan as a D 306
head tax as a D 296
her bed at a D 294
her bed or a D 290
hen out of a D 290
her bed of a D 284
her ears by a D 280
her shoe in a D 270
her hat as a D 268
her mom as a D 264
her lap by a D 246
hen may be a D 246
her tie to a D 242
her fan to a D 242
her zeal as a D 240
her fan at a D 234
her car so i D 230
her car as i D 230
her lip on a D 228
her ears at a D 220
her ice in a D 212
her pen on a D 208
her pen to a D 202
her ears of a D 198
heat oil to a D 197
head tax or a D 196
her sex by a D 194
her beak of a D 194
her mug in a D 190
her cot in a D 190
head nod or a D 188
her shoe on a D 180
her egg on a D 178
her den in a D 178
heat gun or a D 176
her seal to a D 174
her hip as a D 168
her sex on a D 166
her lap to a D 166
her ears if i D 166
her cud in a D 166
her pig of a D 164
her oaf of a D 164
her mug on a D 164
her paw on a D 160
her gum in a D 158
her cow in a D 158
her ass on a D 158
her art on a D 158
her paw as i D 156
her hip on a D 156
her ears on a D 156
her mom on a D 154
her shoe at a D 152
her dad on a D 148
her gun at a D 144
her beak in a D 144
her toes as a D 142
her nap in a D 142
her bra in a D 142
her hut in a D 140
her hut as a D 138
her hat by a D 136
her cub in a D 132
her cab as i D 130
heath lad to a D 128
her lap at a D 124
her jaw at a D 122
her cow to a D 122
hen was in a D 122
her dad at a D 120
her zeal by a D 118
her bed so i D 118
her ass to a D 118
her tub in a D 116
her sot of a D 116
her shoe as a D 116
her mat in a D 116
her cad of a D 116
her beak to a D 116
heath was in a D 116
her dad to a D 114
heath set up a D 114
her paw in a D 112
her mom to a D 110
her gem of a D 110
her eve in a D 110
hen that is a D 110
her fee as a D 108
her bath by a D 108
her art by a D 108
head inn is a D 108
her rat of a D 106
her ears as i D 106
her bra as a D 106
her pen at a D 104
her hut on a D 104
her ass of a D 104
her sex at a D 100
her bed if i D 100
her pen is a D 98
head tax is a D 98
her wig in a D 96
her wear it a D 96
her gun on a D 96
her ears or a D 96
her beak as a D 96
her bath as a D 96
her jaw on a D 94
her fat as a D 94
hen sat on a D 92
head tax of a D 90
hew out of a D 89
heat bath is a D 88
her lion of a D 86
her lap or a D 86
her gun as a D 86
her car or a D 86
her seal on a D 84
hen fly at a D 84
her pew of a D 82
her paw as a D 82
her cur of a D 82
her cap as a D 82
her rig is a D 80
her art at a D 80
