her how sorry i M 5520
her for quite a M 5466
her and after a M 3992
her for about a M 3960
her for nearly a M 3456
her head under a M 2366
her own hands a M 2285
her and found a M 2258
her own right a M 1836
her how happy i M 1724
head and holding a M 1550
her head after a M 1254
her and began a M 1232
her own house a M 1174
head and makes a M 1155
her that while i M 1090
head and found a M 1070
head and after a M 1042
hear him utter a M 980
her that after a M 934
her that since i M 866
head and takes a M 841
her how proud i M 834
head was still a M 798
her and spent a M 784
her and wrote a M 782
head and smiling a M 778
her was still a M 761
her and makes a M 754
hear that which i M 754
her and start a M 748
head and began a M 742
her off after a M 734
heat for about a M 723
head for quite a M 706
her head while i M 702
her own child a M 682
head and holds a M 674
her head about a M 660
head and gives a M 654
her that within a M 646
her and takes a M 638
her with quite a M 636
her and holding a M 618
her two hands a M 616
her and within a M 608
her that though i M 580
head may cause a M 577
her son after a M 576
her that which i M 572
her and marry a M 566
heat can cause a M 552
her death within a M 534
her and which i M 534
her and stood a M 534
her and asked a M 524
her was quite a M 514
heat may cause a M 498
her arm round a M 486
her death after a M 484
her job after a M 478
her and putting a M 474
her out after a M 462
head was given a M 460
her own mother a M 459
head can cause a M 454
her head beneath a M 452
her had taken a M 450
her own after a M 444
head and stole a M 444
her being given a M 436
hear him preach a M 422
her and spend a M 414
her this morning i M 410
head and forms a M 408
her head above a M 404
head for about a M 404
hear you while i M 402
her head while a M 400
her she needs a M 398
her own voice a M 398
her was really a M 395
hear that after a M 392
her and place a M 388
head was found a M 385
head was bowed a M 382
her and taken a M 381
hear his voice i M 376
her ten times a M 370
her own father a M 366
head and wiped a M 366
her and stuck a M 358
her way about a M 356
her own words a M 356
her for wanting a M 352
her and offer a M 350
head and forming a M 348
her was about a M 346
her she found a M 344
her that night i M 338
head and moved a M 338
her own people a M 336
her and begin a M 334
her and added a M 328
hear how often i M 328
head was within a M 328
head and stuck a M 328
her and create a M 324
head and place a M 324
head and added a M 320
her own story a M 318
her and built a M 316
her and thrust a M 314
hear them utter a M 314
head was about a M 314
her they found a M 310
head and asked a M 310
her son under a M 308
her but after a M 306
head for nearly a M 305
her head round a M 304
her with rather a M 302
her own while i M 298
head was under a M 298
her how upset i M 296
her and given a M 296
head and about a M 289
her and build a M 288
heat and light a M 286
her way under a M 284
her and raise a M 282
her son about a M 280
head and utter a M 278
her that maybe i M 274
her for keeping a M 272
her and finds a M 272
head and fixed a M 270
her how badly i M 266
her death under a M 264
her and write a M 264
her out under a M 262
her death which i M 258
head and showing a M 258
head and given a M 257
head with quite a M 256
her head where a M 254
her head bowed a M 254
hear that since i M 254
her was given a M 250
head and create a M 250
her head until i M 248
her for writing a M 248
her one evening a M 246
head and emits a M 246
head had taken a M 244
her own within a M 242
her own about a M 242
her for fully a M 242
hear and repeat a M 242
head and apply a M 242
her own which i M 240
her one night a M 240
her lying under a M 238
her how often i M 238
her and gives a M 238
head and putting a M 238
head and cause a M 238
her for creating a M 236
her and while i M 234
heat that makes a M 234
her head within a M 230
her with never a M 226
her out while i M 224
head for which i M 224
her head which i M 222
heat and forms a M 222
hear her utter a M 220
her for above a M 218
head was wound a M 218
head off while i M 218
her and hired a M 216
her and getting a M 216
hear that within a M 216
heat and cause a M 214
head with which i M 214
her for getting a M 212
heat with which i M 212
her for sending a M 210
her seat under a M 208
her and maybe i M 208
her all about a M 208
her and moved a M 206
hear him after a M 206
her way round a M 204
her that after i M 204
her was spread a M 200
her arm about a M 200
her this broke a M 198
her for running a M 198
her and feels a M 198
hear her voice i M 198
her son marry a M 196
her she makes a M 196
her own money a M 196
heat for quite a M 196
hear and judge a M 196
her off about a M 194
her out quite a M 192
her not quite a M 192
her head began a M 192
her and force a M 192
hear all about a M 190
hear them sound a M 188
head and wrote a M 186
her out about a M 184
head with either a M 184
head and hands a M 183
her and feeling a M 182
her and creating a M 182
head and getting a M 182
her that night a M 180
heat and place a M 180
head and tried a M 180
head and sending a M 180
her with either a M 178
her poem about a M 178
her and drawing a M 176
hear her after a M 176
head and looking a M 176
her seat after a M 174
her for which i M 174
her and others a M 172
hear that quite a M 171
head was moved a M 170
head that maybe i M 170
head and under a M 170
head and causing a M 170
her had given a M 168
her and others i M 168
head and thrust a M 168
her long after i M 167
her own house i M 166
heat and create a M 166
head and running a M 166
head and drawing a M 166
her that though a M 164
head and quite a M 164
her with which i M 162
her was never a M 162
her too large a M 162
her and drank a M 162
head and forcing a M 162
her she wiped a M 160
her now while i M 160
her long sleep a M 160
her and wiped a M 160
her and cause a M 160
hear and which i M 160
her son found a M 158
her not getting a M 158
her six times a M 156
her but rather a M 156
her and stole a M 156
head with rather a M 156
head and drank a M 156
her head until a M 154
her and chose a M 154
her out until i M 152
her one morning a M 152
hear him argue a M 152
her was seated a M 150
her for breaking a M 150
her arm where a M 150
her arm after a M 150
head was getting a M 150
head and casting a M 150
heat and hence a M 149
heat and after a M 149
her this morning a M 148
her own place a M 148
her off within a M 148
her for putting a M 148
her and spread a M 148
her and since i M 148
her and raising a M 148
head can stand a M 148
head and offer a M 148
head and aimed a M 148
her than anything i M 146
her how close i M 146
her had found a M 146
her two hours a M 145
her own words i M 144
head that forms a M 144
her out twice a M 142
her death until i M 142
her and sending a M 142
her and forms a M 142
her and finding a M 142
her and about a M 142
hear his voice a M 141
her head stood a M 140
her head rests a M 140
head long after i M 140
her was found a M 138
her off until i M 138
her idea about a M 138
her death about a M 138
her arm where i M 138
her and plant a M 138
heat and ashes a M 138
hear you utter a M 138
hear you found a M 138
head can spare a M 138
head and within a M 138
head and creating a M 138
head and carry a M 138
her way after a M 136
her sad while i M 136
her for stealing a M 136
her and share a M 136
her and cried a M 136
head was either a M 136
her and maybe a M 134
her and keeping a M 134
her and after i M 134
hear them while i M 134
head was stuck a M 134
her off under a M 132
her and broke a M 132
her and again i M 132
heat and causing a M 132
head was feeling a M 132
her own under a M 130
her that while a M 128
her job within a M 128
hear you frame a M 128
hear that voice i M 128
hear and enjoy a M 128
head and spread a M 128
head and catch a M 128
her own mother i M 126
her head holding a M 126
her and tried a M 126
her ten hours a M 124
her for anything i M 124
her and quite a M 124
heat that leaves a M 124
heat and makes a M 124
hear they found a M 124
hear him order a M 124
head had found a M 124
head and feeling a M 124
her was rather a M 122
her own blood a M 122
her for playing a M 122
head off about a M 122
head and often a M 122
her way within a M 120
her was truly a M 120
her seat while i M 120
her say after a M 120
her own rules a M 120
her how truly i M 120
her how dearly i M 120
her for finding a M 120
her eye which a M 120
heat was still a M 120
head and pulling a M 120
head and maybe a M 120
head and force a M 120
her with about a M 118
her that makes a M 118
her arm until i M 118
her and though i M 118
heat and creating a M 118
head was quite a M 118
head they found a M 118
head and shows a M 118
her that which a M 116
her and causing a M 116
heat and under a M 116
heat and forming a M 115
her that quite a M 114
her that evening a M 114
her for maybe a M 114
her death until a M 114
her leg after a M 112
her being within a M 112
hear him repeat a M 112
head for which a M 112
head and begin a M 111
her way until a M 110
her was holding a M 110
her was drawn a M 110
her two times a M 110
her for causing a M 110
head has quite a M 110
head and cried a M 110
head and spent a M 109
her things which i M 108
her how moved i M 108
her how easily i M 108
her head moved a M 108
head was where i M 108
head was drawn a M 108
hear her voice a M 107
her song about a M 106
her how lucky i M 106
hear you where i M 106
head with which a M 106
head and either a M 106
her that where i M 104
head was really a M 104
her they build a M 102
hear them begin a M 102
her too strong a M 100
her new house a M 100
her for thinking i M 100
her for raising a M 100
her eye which i M 100
her being named a M 100
her and where i M 100
head but rather a M 100
head and which i M 100
her was often a M 98
her that evening i M 98
her for missing a M 98
her death rather a M 98
her and never a M 98
heat for nearly a M 98
hear them after a M 98
head was clearing a M 98
head they place a M 98
head that makes a M 98
head being about a M 98
head and taken a M 98
head and smile a M 98
head and casts a M 98
her leg under a M 96
her how awful i M 96
her and running a M 96
hear them after i M 96
heat and gives a M 95
her that morning a M 94
her son built a M 94
her off while i M 94
her not wanting a M 94
her and leaves a M 94
hear this story i M 94
head that holds a M 94
her son needs a M 92
her own until a M 92
her and still i M 92
her and enjoy a M 92
her and aimed a M 92
hear him while i M 92
head and enter a M 92
her how brave i M 90
her death makes a M 90
her and smiling a M 90
hear you preach a M 90
head and finds a M 90
her that getting a M 88
her own needs a M 88
her arm under a M 88
her and lived a M 88
her and keeps a M 88
her and fight a M 88
hear but which i M 88
head that after a M 88
head had grown a M 88
her was pouring a M 86
her that until i M 86
her how uneasy i M 86
her for showing a M 86
her and press a M 86
her and catch a M 86
hear them within a M 86
hear him playing a M 86
hear for quite a M 86
head has taken a M 86
head and share a M 86
her with which a M 84
her this evening a M 84
her she gives a M 84
her how could i M 84
her for killing a M 84
her and wants a M 84
her that wants a M 82
her out after i M 82
her old nurse a M 82
her job while i M 82
her death while i M 82
her and light a M 82
heat for warming a M 82
heat are often a M 82
hear that about a M 82
hear him opening a M 82
head may reveal a M 82
her way though a M 80
her not after i M 80
her leg where a M 80
her for rather a M 80
her for letting a M 80
her for either a M 80
her being either a M 80
her arm while i M 80
her and forming a M 80
hear him breathe a M 80
hear and watch a M 80
head and raising a M 80
head and raise a M 80
head and laugh a M 80
head and heaved a D 912
head and waved a D 852
head was thrown a D 576
hear him humming a D 562
head and fired a D 548
her bed after a D 528
her head thrown a D 504
her head ached a D 488
her and spoke a D 420
heat and smoke i D 420
her bed stood a D 408
head and spoke a D 402
her and waved a D 390
hear her humming a D 384
her and fired a D 374
head was bound a D 356
her car after a D 342
her and placing a D 320
head was borne a D 312
her bed under a D 304
head and chest a D 304
her bed holding a D 268
her car under a D 264
her lap while i D 262
her bed while i D 262
her own bosom a D 246
her bed while a D 210
head and thorax a D 201
her and heaved a D 194
her was borne a D 192
her lap while a D 188
her car while i D 186
head and placing a D 186
her own breast a D 178
her ears under a D 178
head and throwing a D 178
her for telling a D 170
head and wagging a D 158
hen you create a D 156
hear them talking a D 156
head and drove a D 152
her lap holding a D 150
hear and smell a D 150
her how tired i D 148
head and shook a D 148
her head shaking a D 140
her own funds a D 136
her and shook a D 136
head and drink a D 136
head and sighing a D 134
her new lover a D 132
hear him telling a D 132
her ten cents a D 130
her she fired a D 130
head and smoking a D 130
her and would i D 120
her and throwing a D 120
her long skirt a D 116
her and drove a D 112
head and breast a D 110
her bed where i D 102
head and leaned a D 102
head and shout a D 100
her and setting a D 98
head and fresh a D 98
her bed until i D 96
her head droop a D 94
her dad owned a D 94
her car about a D 94
her bed within a D 94
her and smoking a D 92
her and leaned a D 92
her and drink a D 92
her than would a D 90
her bed until a D 90
head was buzzing a D 90
head and bites a D 90
her own purse a D 86
her one pound a D 86
her how smart i D 84
her lap under a D 82
her for setting a D 82
hear him yelling a D 80
head and throat a D 80
