squares in all . M 580
squares of war . M 228
squares on them . M 172
squares on top . M 138
squares of sky . M 134
squares at all . M 120
squared by this . M 120
squares in each . M 118
squares of red . M 108
squared to him . M 98
squares do not . M 86
