am i making myself M 7296
am a good person M 6724
am a good friend M 3445
am i good enough M 3065
am a great friend M 2510
am a much better M 2258
am a hard worker M 2188
am a high school M 1721
am a poor fellow M 1714
am a single parent M 1496
am a good teacher M 1426
am a poor little M 1248
am a nice person M 1110
am a slow learner M 1079
am a good worker M 1064
am i most likely M 1048
am a good writer M 1020
am a good fellow M 979
am a true friend M 972
am i also judged M 970
am i more likely M 896
am a very humble M 848
am i your friend M 844
am a very simple M 824
am a good enough M 769
am a very little M 766
am i just another M 759
am i evil spoken M 719
am a great coward M 710
am a free person M 652
am a very wicked M 626
am a free spirit M 622
am a wise fellow M 608
am a very lonely M 586
am i ever likely M 584
am a good parent M 574
am a poor wretch M 566
am a life member M 552
am a great writer M 540
am a good walker M 502
am a very curious M 486
am a poor person M 472
am a very special M 464
am i coming through M 459
am a fast learner M 457
am a very active M 452
am a slow writer M 444
am i well pleased M 442
am a lord indeed M 438
am i saying something M 434
am a back number M 432
am a good little M 428
am i sure whether M 410
am a great dreamer M 400
am a good doctor M 388
am a young fellow M 380
am a very serious M 380
am a caring person M 378
am a great person M 374
am a busy person M 374
am i coming across M 372
am a fine fellow M 370
am a much greater M 368
am a poor priest M 364
am i your brother M 356
am a past master M 344
am a very stupid M 342
am a good master M 336
am a very matter M 334
am a very honest M 334
am a very proper M 332
am a young person M 328
am i much better M 316
am i best fitted M 312
am a kind person M 308
am a very pretty M 306
am a poor beggar M 306
am i well enough M 304
am a slow walker M 304
am i giving myself M 302
am a single person M 298
am i even bothering M 296
am a very modest M 294
am a warm friend M 278
am i giving enough M 272
am a living person M 268
am a very strange M 266
am a great doctor M 262
am a sick person M 260
am a slow worker M 256
am a most humble M 252
am a poor speaker M 250
am a poor writer M 248
am a ship without M 242
am a free prince M 236
am i saving myself M 234
am i vain enough M 230
am i less guilty M 230
am a free thinker M 228
am a lazy fellow M 226
am i hanging around M 225
am a wild animal M 222
am a poor tenant M 222
am a slow thinker M 215
am i most afraid M 212
am a very jealous M 202
am i very anxious M 200
am a very visual M 200
am a full member M 200
am a city person M 200
am i from desiring M 196
am a very common M 196
am a lazy person M 196
am a poor friend M 188
am a poor fallen M 187
am i must remain M 186
am a living corpse M 184
am a good speaker M 178
am a very coward M 176
am a much younger M 174
am a poor brother M 168
am a poor simple M 166
am a dull person M 166
am a poor letter M 165
am a poor feeble M 162
am a great walker M 162
am a great teacher M 160
am a poor teacher M 156
am i less pleased M 154
am a safe person M 154
am a fair person M 154
am a poor lonely M 152
am a verb instead M 150
am a high priest M 150
am a poor mortal M 149
am a calm person M 146
am a born coward M 146
am i most guilty M 144
am i clear enough M 144
am a true spirit M 142
am a good brother M 140
am a good critic M 138
am i here anyway M 134
am i bold enough M 134
am a young member M 134
am i fool enough M 133
am i much changed M 130
am i here instead M 130
am i have always M 130
am a very strict M 130
am a fast worker M 130
am a poor critic M 128
am a lone maiden M 128
am i seeing double M 126
am a very unsafe M 126
am a fool indeed M 126
am a boring person M 126
am i asking myself M 124
am i your little M 122
am i clean enough M 120
am a very guilty M 118
am a living member M 118
am i wise enough M 114
am i much afraid M 114
am i left without M 114
am a young writer M 114
am a pure spirit M 114
am a fast walker M 113
am a union member M 112
am a great critic M 112
am i left behind M 111
am a much poorer M 110
am a great novice M 110
am a body without M 110
am i what report M 106
am a nice fellow M 106
am i your master M 104
am a born teacher M 104
am i will always M 102
am a young little M 100
am a rich fellow M 100
am a dull fellow M 100
am i have become M 98
am a very violent M 98
am a great killer M 98
am a very useful M 96
am a poor worker M 96
am a very wretch M 95
am i making enough M 94
am i having another M 94
am a very bright M 94
am i their keeper M 92
am i from altering M 92
am a warm person M 92
am a very learned M 92
am a great prince M 92
am a good helper M 92
am i lost indeed M 90
am a poor prince M 90
am a nice little M 90
am a good ladies M 90
am i rich enough M 88
am a very famous M 88
am a poor excuse M 88
am a great fellow M 88
am a great burden M 88
am i paying enough M 87
am a third person M 86
am a fine person M 86
am a very normal M 84
am i less anxious M 82
am i from assuming M 82
am a very modern M 82
am i rash enough M 80
am a very feeble M 80
am a land animal M 80
am i acting herein M 40
am a great sinner D 5893
am a poor sinner D 2107
am a good sailor D 1117
am a great artist D 954
am a true knight D 938
am a free trader D 912
am a good patriot D 683
am a mere mortal D 648
am a drug addict D 585
am a good dancer D 576
am a poor peasant D 528
am a poor orphan D 484
am a good driver D 468
am i your debtor D 464
am a good hunter D 448
am a great hunter D 430
am a very clever D 406
am a fond parent D 394
am a lost sinner D 392
am a great warrior D 388
am a poor sailor D 387
am a loving person D 370
am a living sinner D 359
am a poor artist D 350
am a poor knight D 334
am i from agreeing D 332
am a poor sinful D 316
am i best suited D 288
am a good player D 270
am a fast runner D 256
am a good runner D 248
am a good knight D 248
am a poor farmer D 242
am a poor parson D 238
am a great runner D 230
am a taxi driver D 226
am a mere cipher D 220
am a good athlete D 220
am a good lawyer D 218
am a thief myself D 212
am a very sinful D 210
am a baby boomer D 209
am a very singular D 206
am a sect myself D 200
am a poor squire D 200
am a poor patriot D 200
am a heavy smoker D 195
am a great talker D 194
am a great gainer D 182
am i leaving behind D 181
am a poor scribe D 176
am a trial lawyer D 174
am a mere novice D 174
am a good artist D 168
am i from imputing D 162
am a mere nobody D 158
am a good farmer D 156
am a true patriot D 154
am a mere looker D 153
am a poor magnet D 152
am a vile sinner D 146
am a mere layman D 128
am a mere fright D 128
am a mere animal D 128
am a good bowman D 128
am a good talker D 126
am a very charming D 124
am a good surgeon D 116
am a very sexual D 114
am a single knight D 114
am a frog swimming D 114
am a clear gainer D 114
am a firm friend D 112
am a mere shadow D 110
am a deer standing D 110
am a true artist D 106
am a poor linguist D 106
am a much richer D 106
am a poor tailor D 104
am a mere farmer D 102
am a mere puppet D 100
am a great wizard D 100
am a great debtor D 98
am a poor dancer D 94
am a very coarse D 92
am a mere cypher D 92
am a good typist D 92
am a good barber D 92
am a young lawyer D 90
am a news junkie D 88
am a most ardent D 88
am i your dearest D 86
am a wall street D 86
am a tidy person D 86
am a poor player D 84
am a true votary D 82
am a good tennis D 82
am a well wisher D 61
