am very sorry to M 90806
am well aware of M 64528
am very happy to M 60422
am very proud of M 40602
am very willing to M 15772
am most happy to M 14364
am very proud to M 11484
am just about to M 10112
am also aware of M 10072
am very happy in M 7821
am very aware of M 6036
am here speaking of M 5852
am come hither to M 5422
am also happy to M 5384
am more aware of M 5100
am most willing to M 4898
am very sorry if M 4862
am most proud of M 4455
am only speaking of M 4426
am very close to M 4390
am here today to M 4232
am also thinking of M 3850
am very lucky to M 3704
am left alone in M 3214
am also willing to M 3150
am even willing to M 3146
am very sorry it M 2872
am only thinking of M 2846
am more proud of M 2582
am only aware of M 2528
am very sorry the M 2498
am back again in M 2497
am more willing to M 2328
am well known to M 2314
am left alone to M 2077
am only waiting to M 2068
am very sorry he M 1924
am very sorry we M 1861
am very happy at M 1814
am also writing to M 1696
am taking steps to M 1664
am made aware of M 1634
am also proud of M 1588
am once again in M 1576
am only sorry to M 1526
am well known in M 1520
am most happy in M 1462
am most sorry to M 1442
am also working on M 1408
am asking about the M 1398
am living proof of M 1370
am here thinking of M 1232
am well aware it M 1218
am wrong about the M 1202
am very sorry my M 1202
am only sorry it M 1150
am ever willing to M 1106
am saying about the M 1098
am most aware of M 1090
am here calling the M 1074
am well within the M 1056
am sure about is M 1056
am also proud to M 1054
am also sorry to M 1018
am very short of M 934
am very unfit to M 914
am back again at M 902
am making about the M 868
am very happy as M 866
am only looking at M 834
am just looking at M 830
am sure about the M 814
am only sorry he M 792
am made happy by M 784
am just writing to M 774
am less willing to M 746
am just about as M 734
am just thinking of M 730
am glad about the M 714
am sure about it M 706
am clear about the M 706
am also under the M 694
am coming round to M 686
am only speaking the M 680
am just waiting to M 658
am only sorry we M 646
am acting under the M 638
am only seeking to M 634
am very lucky in M 624
am more moved by M 624
am very moved by M 618
am very uneasy at M 614
am glad about it M 610
am much given to M 608
am more prone to M 600
am just learning to M 598
am come hither in M 598
am sent hither to M 594
am also known as M 592
am only writing to M 582
am just happy to M 580
am here under the M 580
am part owner of M 566
am just getting to M 558
am very sorry on M 550
am only willing to M 546
am very sorry at M 544
am more sorry to M 540
am much moved by M 538
am laid under the M 532
am here today as M 532
am here alone in M 532
am very prone to M 528
am clear about my M 528
am more famed in M 516
am making plans to M 514
am also speaking of M 514
am most proud to M 512
am also asked to M 504
am sent hither by M 502
am even thinking of M 502
am giving below the M 494
am also learning to M 494
am well aware the M 490
am angry about the M 470
am more worthy of M 466
am more proud to M 458
am well aware is M 456
am made uneasy by M 456
am also about to M 454
am told about the M 450
am also looking at M 450
am sure ought to M 448
am more drawn to M 448
am also drawn to M 448
am ready again to M 436
am well known as M 435
am very strong in M 432
am very exact in M 426
am none cares or M 424
am sure could be M 422
am sure never to M 414
am just about the M 410
am also given to M 404
am also sending the M 400
am very quick to M 390
am reading about the M 388
am once again on M 386
am here drawing on M 385
am also drawing on M 382
am only quoting the M 381
am only sorry the M 380
am also sending to M 370
am ever thinking of M 366
am back again to M 366
am only speaking to M 364
am here seeking to M 360
am come again to M 348
am making light of M 344
am much nearer to M 342
am here today in M 342
am here speaking to M 340
am very sorry as M 339
am living alone in M 330
am here today on M 330
am ever found to M 330
am also lucky to M 330
am only happy to M 328
am come hither by M 328
am very happy on M 326
am just putting the M 326
am well within my M 324
am once again at M 324
am here about to M 324
am coming again to M 324
am what might be M 322
am next about to M 320
am most drawn to M 320
am very upset by M 316
am also moved by M 316
am very happy the M 314
am left alone on M 314
am just getting my M 308
am here today is M 306
am back again on M 306
am more happy in M 302
am living under the M 300
am here again to M 300
am only putting an M 292
am clear about is M 290
am wrong about it M 286
am very happy if M 282
am sure yours is M 280
am ready still to M 280
am more taken up M 278
am born again in M 278
am here treating of M 276
am ever again to M 276
am well known at M 274
am much taken up M 274
am ever aware of M 274
am giving voice to M 272
am even aware of M 272
am very uneasy to M 270
am able fully to M 270
am only known by M 268
am once again the M 268
am ever known to M 268
am only putting the M 266
am your equal in M 262
am very willing it M 262
am just calling to M 262
am also right in M 260
am very uneasy in M 258
am reading aloud to M 258
am only speaking in M 258
am here seated in M 254
am able again to M 254
am there shall my M 248
am ready either to M 248
am glad again to M 248
am less aware of M 244
am sure might be M 242
am much aware of M 242
am most proud is M 240
am also moved to M 240
am only echoing the M 238
am only sorry my M 236
am only waiting the M 234
am sure every thing M 232
am just getting on M 231
am only about to M 230
am more sorry on M 230
am very strong on M 229
am very drawn to M 224
am open about my M 224
am making haste to M 224
am even proud of M 224
am also speaking to M 224
am only obeying the M 222
am able today to M 222
am well aware my M 221
am kept awake by M 220
am asking people to M 220
am only putting it M 216
am also relying on M 216
am here speaking in M 213
am very happy we M 212
am saying today is M 212
am here relying on M 212
am also happy in M 210
am able still to M 210
am just getting up M 208
am trying rather to M 206
am much taken by M 206
am just about at M 206
am ever ruled by M 206
am well known by M 202
am only showing the M 202
am very sorry of M 200
am coming close to M 198
am busy getting up M 198
am here about the M 196
am losing track of M 194
am trying again to M 192
am also working at M 192
am here alone to M 190
am most moved by M 188
am angry about it M 188
am also seeking to M 188
am three times as M 187
am laying claim to M 186
am clear about it M 186
am best known as M 186
am very nearly as M 184
am upon gives me M 182
am born again to M 182
am vary sorry to M 178
am safe within the M 178
am only happy in M 178
am here treading on M 177
am most unfit to M 176
am making known to M 176
am also prone to M 176
am only speaking as M 175
am well aware in M 174
am told about it M 174
am much drawn to M 174
am more alive to M 174
am less uneasy in M 174
am just sitting in M 172
am here waiting to M 172
am left alone at M 170
am kept alive by M 170
am more happy to M 168
am more given to M 168
am like never to M 168
am just writing the M 168
am half sorry to M 168
am busy working on M 168
am upon terms of M 166
am here writing of M 164
am your father in M 162
am well aware he M 162
am taking notes on M 162
am sure under the M 162
am saving money to M 162
am only passing on M 162
am just getting the M 162
am left holding the M 160
am just putting it M 160
am only seeking the M 158
am made willing to M 158
am less unfit to M 158
am less proud to M 158
am sick about it M 156
am only quoting it M 156
am only known as M 156
am left under the M 156
am home again in M 156
am here looking at M 154
am very cross to M 152
am much nearer the M 152
am asking about is M 152
am angry about is M 152
am only wishing to M 151
am only putting on M 150
am just working on M 150
am very uneasy on M 148
am only holding the M 148
am asking others to M 148
am wide awake to M 146
am very happy he M 146
am sure people do M 146
am just picking up M 146
am here again so M 146
am wrong about my M 144
am very upset at M 144
am very short in M 144
am ready today to M 144
am only sorry no M 144
am only drawing the M 144
am lost above it M 144
am able either by M 144
am sure about my M 142
am only feeling my M 142
am ever yours in M 142
am worth looking at M 140
am saying about it M 140
am just sending to M 140
am here again in M 140
am born again as M 140
am very happy of M 138
am only writing of M 138
am only waiting my M 138
am here again at M 138
am very sorry so M 137
am just speaking of M 136
am worth anything to M 134
am well aware to M 134
am very sorry in M 134
am made whole by M 134
am here until the M 134
am very quick at M 132
am very happy it M 132
am taking sides in M 132
am only learning to M 132
am just keeping my M 132
am born again of M 132
am also working to M 132
am also under an M 132
am also known to M 132
am less prone to M 130
am fast reaching the M 130
am coming nearer to M 130
am come hither on M 130
am only hinting at M 128
am ever asked to M 128
am also still in M 128
am nothing short of M 126
am well liked by M 124
am very happy my M 124
am vain about my M 124
am most moved to M 124
am held naked in M 124
am very often in M 122
am sure still is M 122
am most prone to M 122
am glad today to M 122
am torn apart by M 120
am sure after the M 120
am reading books on M 120
am just getting it M 120
am only moved by M 118
am only aware as M 118
am much moved at M 118
am more happy at M 118
am just putting my M 118
am half willing to M 118
am ever still the M 118
am also looking to M 118
am more alert to M 116
am from wishing to M 116
am ever again in M 116
am worth anything at M 114
am very nearly in M 114
am less given to M 114
am even learning to M 114
am come about to M 114
am also speaking on M 114
am your slave to M 112
am sick alike of M 112
am only seeking my M 112
am only obeying an M 112
am much easier in M 112
am more upset by M 112
am wide awake in M 110
am only wanting to M 110
am main where he M 110
am very willing the M 108
am very upset to M 108
am sure needs no M 108
am sure either of M 108
am saying comes to M 108
am safe under the M 108
am only worthy of M 108
am only after the M 108
am just learning it M 108
am here alone at M 108
am also waiting to M 108
am also quite at M 108
am able easily to M 108
am your guide to M 106
am very moved to M 106
am soon about to M 106
am only learning the M 106
am living again in M 106
am left alone of M 106
am here since the M 106
am giving money to M 106
am saying could be M 104
am only writing in M 104
am only raising the M 104
am only moved to M 104
am home again at M 104
am here where the M 104
am come hither as M 104
am busy writing an M 104
am their equal in M 102
am only speaking on M 102
am only proud of M 102
am only looking to M 102
am hearing about it M 102
am half owner of M 102
am also getting the M 102
am their father in M 100
am taking notes of M 100
am sure shall be M 100
am only treating of M 100
am once again to M 100
am much urged by M 100
am lost again in M 100
am losing money on M 100
am just passing the M 100
am here today at M 100
am busy about the M 100
am well aware as M 99
am your child in M 98
am ever happy to M 98
am very easily to M 96
am saying about my M 96
am only happy the M 96
am most proud in M 96
am main under the M 96
am main sorry to M 96
am just learning the M 96
am just about in M 96
am here rather to M 96
am here quoting my M 96
am also sending my M 96
am also close to M 96
am there where my M 94
am most happy at M 94
am just looking to M 94
am five times as M 94
am busy about my M 94
am beating about the M 94
am told about my M 92
am sure thinking no M 92
am much easier to M 92
am more taken by M 92
am less moved by M 92
am just putting on M 92
am just burning to M 92
am just aware of M 92
am here calling an M 92
am also working in M 92
am acting within my M 92
am such stuff as M 90
am just wanting to M 90
am just opening the M 90
am giving thanks to M 90
am come seeking the M 90
am busy playing the M 90
am also getting to M 90
am just winding up M 89
am much below the M 88
am much alone in M 88
am moving about in M 88
am more uneasy on M 88
am laid beneath the M 88
am just quoting the M 88
am also known by M 88
am very hungry to M 86
am only obeying my M 86
am here treating the M 86
am crying about my M 86
am very taken by M 84
am sure people in M 84
am only thinking it M 84
am only passing by M 84
am only asked to M 84
am keen about the M 84
am just taken up M 84
am here close to M 84
am full sorry to M 84
am born under the M 84
am also thinking in M 84
am acting within the M 84
am told where to M 82
am taking steps in M 82
am more needy of M 82
am making notes on M 82
am here waiting the M 82
am glad mother is M 82
am free again to M 82
am best judge of M 82
am also writing my M 82
am also lucky in M 82
am also asked if M 82
am very badly in M 80
am only worthy to M 80
am more often in M 80
am just warming up M 80
am just lucky to M 80
am here alone on M 80
am glad yours is M 80
am just passing on M 64
am very proud as M 44
am moving about as M 41
am sure quite as M 40
am very tired of D 5683
am sure would be D 3670
am also bound to D 1742
am duty bound to D 1738
am only stating the D 1336
am leaving aside the D 894
am only stating my D 834
am only telling the D 754
am less liable to D 750
am losing sight of D 740
am very tired to D 714
am only talking of D 714
am much bound to D 712
am just tired of D 712
am also tired of D 678
am most bound to D 646
am very truly thy D 580
am very frank to D 516
am only bound to D 468
am just thrown so D 446
am only talking to D 442
am here talking to D 388
am much vexed at D 372
am more bound to D 372
am most bound of D 344
am sure would do D 332
am just talking to D 332
am very liable to D 316
am very loyal to D 302
am more vexed at D 294
am just crazy to D 288
am only stating it D 278
am just telling the D 268
am very chary of D 256
am ever bound to D 256
am what would be D 254
am just wasting my D 254
am here talking of D 252
am just stating the D 250
am taking pains to D 244
am more liable to D 240
am only voicing the D 234
am more joyed at D 234
am very leery of D 216
am also bound by D 212
am damn proud of D 200
am least sorry to D 192
am here pleading at D 188
am your senior in D 184
am hazy about the D 182
am gazing round me D 178
am very tired at D 176
am also talking to D 166
am only wasting my D 164
am seen talking to D 162
am most liable to D 162
am more loyal to D 162
am most tired of D 158
am your senior by D 154
am left staring at D 154
am lord mayor of D 152
am well tired of D 148
am very tired as D 146
am much vexed to D 146
am only telling it D 142
am more tired of D 142
am very tired in D 138
am here bound to D 138
am sure violet is D 136
am there shall ye D 132
am only talking in D 132
am very frank in D 126
am here prating of D 126
am very tired or D 122
am only tired of D 122
am here stating the D 120
am even bound to D 120
am damn tired of D 120
am only vexed to D 118
am saying would be D 116
am paying court to D 116
am ever railing at D 114
am your senior of D 112
am very silly to D 112
am very handy at D 112
am taking stock of D 110
am half crazy in D 110
am only vexed he D 104
am dealt withal by D 104
am more bound by D 102
am even tired of D 102
am also loyal to D 102
am paying taxes on D 100
am making would be D 100
am less chary of D 100
am just itching to D 98
am sole owner of D 96
am only stating an D 96
am sunk under the D 94
am just telling it D 90
am sunk below the D 88
am only vexed at D 88
am also talking of D 88
am very vexed at D 86
am there would be D 86
am radio tuned to D 86
am less bound to D 86
am also bound in D 84
am told would be D 80
am only shaking my D 80
am least aware of D 80
am very tired so D 65
