amount to a sum M 7472
amount to a few M 6732
amount to a new M 6595
amount of a man M 3110
amount to a real M 2932
amount of a few M 2442
amount of a new M 1972
amount to a lot M 1936
amazed as i was M 1558
amount of a and M 1534
amount in a year M 1480
amount of a net M 1374
amount of a non M 1198
amount of a year M 1171
amount in a few M 1144
amount to a war M 1141
amount of a day M 1005
amount to a set M 981
amount of a long M 962
amount of a sum M 886
amused as i was M 864
amount to a death M 764
amount to a day M 764
amount of a that M 743
amount to a net M 735
amount in a day M 670
amount of a low M 662
amount to a plea M 644
amount to a law M 639
amount to a non M 597
amount of a weak M 576
amount to a man M 563
amount to a year M 553
amount to a big M 516
amount to a one M 483
amount as a bad M 456
amount to a long M 436
amount to a far M 419
amount of a one M 354
amount of a real M 350
amount in a new M 324
amount of a bad M 318
amount to a sin M 308
amount of a bid M 308
amount of a bet M 304
amount at a low M 295
amazed at a man M 284
amount in a cup M 282
amazed by a new M 282
amount to a due M 280
amount to a use M 276
amongst us a man M 271
amongst us a few M 263
amount to a lie M 261
amazed as i read M 251
amused me a lot M 238
amount of a dry M 224
amount or a new M 216
amount of a red M 214
amongst us a set M 212
amused by a man M 210
amount is a net M 208
amongst us a new M 206
amused by a new M 200
amount to a two M 200
amount to a way M 198
amount of s and M 196
amount to a bar M 189
amount to a leap M 187
amount in a way M 181
amount on a new M 180
amazed if i had M 176
amount to a ban M 172
amount of a key M 172
amazed as i had M 172
amount as i may M 170
amount as a man M 170
amused if i had M 160
amount to a bit M 155
amount as a long M 150
amount to a cut M 149
amount to a bad M 149
amount of a pay M 146
amount of s that M 143
amount of a pre M 143
amount to a pre M 141
amount to a bow M 136
amused as a man M 132
amount of d and M 130
amount as i had M 130
amount to a low M 129
amused in a way M 128
amount of t and M 126
amount to a near M 125
amused by a few M 124
amount to a song M 121
amount to a heap M 116
amount of a was M 114
amount is a sum M 112
amount or a lot M 106
amount of a war M 106
amount of a job M 106
amount of a has M 104
amount is a long M 104
amount or a set M 103
amends in a way M 103
amends to a man M 100
amount as a net M 96
amount in a long M 95
amused by a long M 92
amount on a long M 92
amends as i can M 92
amazed if a man M 90
amount to a weak M 89
amazed as i saw M 89
amount of i and M 88
amount of a death M 86
amends by a new M 86
amount as i did M 82
amount by a few M 80
amount at a set M 68
amount of a two M 66
amount of a set M 63
amount to a mean M 58
amount to a dead M 50
amount to a pro M 46
amount to a ten M 44
amount on a day M 43
amount as a set M 41
amount in a one M 40
amount of a gas D 4437
amount of a tax D 3734
amount to a row D 2878
amount to a tax D 1846
amount of a fee D 1382
ammonia is a gas D 1362
ammonia is a weak D 1135
amount as a tax D 662
amount to a per D 562
amount to a riot D 438
amiable as a man D 392
amount on a per D 372
amount of a dye D 350
amiable in a man D 308
amount to a neat D 303
ammonia as a gas D 251
amount of a tip D 248
amount as a fee D 244
amount is a tax D 240
amiable to a man D 208
amount of a thin D 202
amount of a per D 179
amount of a raw D 176
amount to a cow D 174
amount of a hot D 150
amount to a ton D 148
ambush of a bus D 146
ammonia at a low D 145
amount of a fat D 140
amount of a lac D 127
amount to a fee D 117
amuses me a lot D 109
ammonia to a hot D 108
amends in a riot D 108
amount by a tax D 104
amount on a pad D 92
amours of a poet D 88
ammonia in a cup D 88
ammonia in a few D 80
amount in a tax D 71
amount to a sub D 59
amnesia in a one D 48
amount to a con D 47
ammonia at a red D 42
