rid of the whole M 15096
rid of the feeling M 12099
rid of the notion M 9044
rid of the water M 8714
rid of the child M 5900
rid of the waste M 4918
rid of the stuff M 4784
rid of the extra M 4434
rid of the first M 4234
rid of the worst M 3992
rid of the people M 3928
rid of the habit M 3694
rid of the woman M 3590
rid of an enemy M 3570
rid of the money M 3283
rid of the house M 3221
rid of the white M 3000
rid of the cause M 2771
rid of the false M 2658
rid of the black M 2598
rid of the enemy M 2576
rid of the curse M 2345
rid of the hated M 2311
rid of the others M 2302
rid of the guilt M 2256
rid of the blood M 2119
rid of the devil M 2054
rid of it again M 2051
rid of the sense M 2036
rid of the place M 1879
rid of the small M 1793
rid of the state M 1772
rid of so easily M 1762
rid of the noise M 1706
rid of the danger M 1704
rid of the image M 1690
rid of the world M 1617
rid of the father M 1599
rid of it after M 1542
rid of the large M 1495
rid of the queen M 1466
rings on the sides M 1386
rid of the crowd M 1381
rid of the women M 1380
rings on the table M 1326
rid of the virus M 1290
rid of in order M 1285
rid of the paper M 1257
rid of it until M 1257
rings in the morning M 1220
rings in the water M 1199
rid of it while M 1169
rid of the mother M 1163
rings in the trunk M 1128
rid of the human M 1125
rid of it right M 1035
rings on the water M 1021
rid of the goods M 1019
rid of the words M 1013
rid of the power M 1012
rid of the older M 1006
rid of the demon M 999
rid of the slave M 998
rid of the awful M 975
rid of the local M 972
rings in the walls M 960
rid of the nasty M 936
rid of the worms M 928
rid of the books M 880
rid of the fluid M 855
rid of the trees M 847
rings on the upper M 834
rings on the right M 825
rid of the party M 819
rid of the major M 779
rid of the alien M 750
rings in the floor M 744
rid of my father M 739
rid of the bribe M 732
rid of the strong M 705
rid of the force M 700
rings on the floor M 698
rings in the cross M 696
rid of the error M 693
rid of the birds M 689
rings in the chain M 666
rid of the craving M 652
rid of the moral M 650
rid of it later M 649
rid of the empty M 622
rid of the royal M 621
rid of the girls M 608
rings in the shape M 604
rings in the first M 604
rings in the lower M 598
rid of the lower M 592
rings of the first M 586
rid of my mother M 586
rid of the inner M 584
rid of the motion M 580
rid of by passing M 576
rid of the right M 574
rid of the shame M 573
rid of the loose M 568
rid of the worry M 566
rings on the lower M 562
rings at the sides M 554
rid of the bother M 554
rid of the board M 553
rings of the trees M 548
rid of the green M 547
rid of the seeds M 542
rid of me after M 538
rings at the front M 530
rid of the count M 529
rid of the ashes M 528
rid of the nurse M 527
rid of the signs M 519
rings of the world M 518
rings in the world M 518
rid of the light M 517
rid of the chair M 516
rid of the cares M 503
rings on the front M 502
rid of the prime M 501
rid of me again M 498
rid of the claim M 490
rings in the upper M 488
rid of the legal M 484
rid of it quick M 476
rid of it easily M 474
rid of the above M 468
rid of the notes M 464
rid of the minus M 463
rid of the cruel M 460
rid of the leader M 449
rid of the rocks M 448
rings on the trunk M 442
rings on the first M 442
rid of my money M 436
rings on the outer M 435
rid of the plant M 434
rid of as easily M 434
rings of the trunk M 432
rid of the daily M 430
rid of the vision M 424
rid of the usual M 422
rid of the final M 411
rid of the sound M 410
rid of the grass M 408
rid of the issue M 401
rings on the inner M 388
rid of the label M 387
rid of the debts M 383
rid of the grand M 381
rid of the class M 377
rid of the burning M 377
rings on the shell M 376
rid of my first M 374
rid of the terms M 372
rid of the leaves M 372
rid of the upper M 371
rings of the chain M 370
rid of my house M 369
rid of the lines M 368
rid of my guilt M 367
rings on the walls M 366
rings on the hands M 358
rid of the agent M 358
rid of the fixed M 357
rings at the lower M 354
rid of the facts M 352
rid of the night M 351
rid of the boxes M 350
rid of it either M 350
rid of me until M 347
rid of by sending M 347
rid of the table M 344
rid of the author M 343
rid of the guard M 341
rid of the color M 340
rid of the story M 338
rid of the cycle M 337
rid of the roots M 336
rid of the piece M 335
rings in the outer M 333
rid of the unfit M 332
rid of the plain M 332
rings at the upper M 330
rid of the files M 323
rid of the uneasy M 320
rid of it since M 320
rid of the outer M 319
rings of the lower M 308
rings in the plane M 308
rid of the abuse M 307
rings of the outer M 306
rid of the press M 306
rid of the draft M 306
rid of the pride M 305
rings on the fourth M 304
rings of the upper M 304
rid of an uneasy M 304
rid of the cross M 301
rid of it first M 300
rid of the monks M 298
rid of the doubt M 295
rid of the brown M 295
rid of the short M 294
rid of the growing M 294
rid of by burning M 294
rings of the phone M 293
rid of the forms M 292
rings in the grass M 291
rid of the order M 290
rid of it nearly M 288
rid of the magic M 287
rid of the unions M 286
rings by the sides M 284
rid of the rough M 282
rid of the scale M 279
rid of the basic M 279
rid of the marks M 278
rings of the women M 276
rid of the worse M 276
rid of the chain M 275
rid of the civil M 272
rid of the phone M 269
rid of my child M 269
rings on the cross M 268
rid of me easily M 268
rings in the order M 266
rings in the front M 266
rid of the likes M 265
rid of the deadly M 265
rid of the solid M 263
rings in the right M 262
rid of the labor M 262
rid of the rules M 258
rings of the value M 254
rings in the night M 252
rid of the parts M 252
rid of it within M 250
rid of an extra M 250
rings in the trees M 248
rid of the watch M 248
rid of the dialog M 248
rid of the shell M 246
rid of or avoid M 246
rid of the action M 243
rings in the house M 242
rid of the idols M 242
rid of the bones M 242
rings in the field M 241
rid of me first M 241
rings at the outer M 239
rings in the image M 238
rid of the lords M 238
rid of it rather M 238
rings to the value M 236
rid of the blame M 236
rid of the chaos M 234
rings at the point M 233
rid of the noisy M 233
rid of the items M 232
rid of the still M 230
rid of the vices M 229
rings on the grass M 227
rid of the gross M 227
rid of the beasts M 226
rings in the midst M 224
rid of the check M 223
rings on the leaves M 222
rings to the sound M 221
rings on the under M 220
rid of the store M 217
rid of the thorns M 216
rid of the tiger M 212
rid of me while M 212
rid of the really M 210
rid of the judge M 210
rid of the group M 207
rid of by putting M 206
rid of the growth M 205
rings of the large M 204
rid of the fourth M 202
rid of the clock M 202
rid of an error M 202
rid of by cutting M 199
rid of the field M 198
rid of the layer M 196
rid of the vague M 195
rings on the scale M 194
rings in the inner M 194
rid of the space M 192
rid of the seven M 192
rid of the voice M 190
rings of the model M 188
rings in the usual M 188
rid of in others M 188
rid of the tutor M 186
rings in the solid M 185
rings of my chain M 184
rid of my enemy M 183
rings of the shell M 179
rid of the eight M 178
rid of the crime M 178
rid of the owner M 177
rid of it today M 176
rid of by every M 176
rid of my debts M 174
rid it of water M 174
rid at the right M 174
rid of the wreck M 172
rid of the naive M 172
rid of the music M 171
rid of the hours M 171
rid of an agent M 170
rid of the armed M 169
rings to be found M 168
rid of us again M 168
rid of the frame M 168
rid of the rather M 167
rid of the folly M 166
rid of the blind M 166
rid of or change M 166
rid of me since M 166
rid of an awful M 166
rings in the evening M 164
rid of the smile M 164
rid of the noble M 164
rid it of every M 164
rid of me quick M 163
rid of the spent M 162
rid of me quite M 162
rid in the first M 162
rid of it under M 161
rid of the poetry M 160
rings at the edges M 158
rid of the fault M 158
rid of the idiots M 156
rid of the hunger M 156
rid of my books M 156
rid of the value M 155
rings in the woods M 154
rid of the breed M 154
rid of by calling M 153
rid of the mixed M 152
rings of the small M 149
rings on the trees M 148
rings in an empty M 148
rid us of every M 148
rid of the weaker M 148
rid of the cases M 148
rid of the point M 147
rid of the tight M 146
rid of the price M 146
rid of by opening M 146
rings on the green M 145
rid of my black M 145
rings of the right M 144
rings of the inner M 144
rings at the right M 144
rings in the engine M 143
rid of the river M 143
rid of the dreams M 143
rid of the panic M 142
rid of the guest M 142
rid of it where M 142
rid of it quite M 141
rid of the proud M 140
rings to be taken M 138
rid of the holes M 138
rid of the clothing M 137
rings in the chair M 136
rid of the fools M 136
rid of the close M 136
rings in the hearts M 134
rings at the altar M 134
rid of the warning M 134
rid of my stuff M 134
rid of the names M 133
rid of by force M 133
rings of the period M 132
rid of the after M 132
rings on the phone M 130
rid of the shade M 130
rid of the crown M 130
rid of so large M 130
rings to be given M 128
rings in the large M 128
rid of the works M 128
rid of the cloud M 128
rid of my feeling M 128
rings to the right M 127
rid of the newly M 127
rings of the people M 126
rings in the stems M 126
rid of the trunk M 126
rid of the stray M 126
rid of the proof M 126
rid of the plane M 126
rid of the morning M 126
rid of the front M 126
rings on the white M 124
rid of the ruler M 124
rid of an alien M 123
rid of the risks M 122
rid of the greed M 121
rid of the block M 121
rings of the frame M 120
rid of the stage M 120
rid of by turning M 120
rid of by getting M 120
rid of the spare M 119
rid of the harsh M 119
rings in the words M 118
rings in the shell M 118
rid of by pouring M 118
rings to be solid M 116
rings me up every M 116
rings at the start M 116
rid of the tough M 116
rid of the teaching M 116
rid of the forty M 116
rid of by denying M 116
rid of an older M 115
rid of the elder M 114
rid of by blowing M 114
rid of the walls M 113
rid of the binding M 113
rid of by keeping M 113
rings to the upper M 112
rings in the place M 112
rid of the topic M 112
rings in an engine M 110
rid of the tagging M 110
rings on the night M 108
rid of the vital M 108
rings to the outer M 106
rid of the guide M 106
rid of it which M 106
rid of it could M 106
rings up the total M 105
rid of the burnt M 105
rings of the wound M 104
rings of the usual M 104
rings in the final M 104
rid to the devil M 104
rid of the acids M 104
rid of the ships M 103
rings up the price M 102
rings to the touch M 102
rid of the tests M 102
rid of the reason M 102
rid of the event M 102
rid of by treating M 102
rid of the match M 101
rings of the stand M 100
rings at the house M 100
rid of the storm M 100
rid of the grief M 100
rid of the dogma M 100
rings in the small M 98
rid of the sweet M 98
rid of me right M 98
rid of by holding M 98
rid of the adult M 97
rid of it every M 97
rid of an asset M 97
rings up the whole M 96
rings of the seven M 96
rings of the human M 96
rid of the spoil M 96
rid of the brain M 96
rid of the actor M 96
rid of an empty M 95
rings is no longer M 94
rings in my brain M 94
rid of the tools M 94
rid of the hungry M 94
rid of the asset M 93
rings on the small M 92
rings in the sides M 92
rid or be freed M 92
rid on by turns M 92
rid of the peril M 92
rid of by first M 92
rings on the paper M 90
rings in the period M 90
rid of the masks M 90
rid of the bands M 90
rid of my white M 90
rid of my human M 90
rid of the train M 89
rings on the point M 88
rid of the lands M 88
rid of the earthly M 88
rid of me today M 87
rings on the woman M 86
rings on the short M 86
rid of us after M 86
rid of the method M 86
rid of the cells M 86
rings to the field M 85
rid of the agony M 85
rid of by killing M 85
rings on the large M 84
rings on the edges M 84
rings in the still M 84
rings in the reader M 84
rid of the cover M 84
rid of in short M 84
rings of the water M 83
rid of the model M 83
rid of the fraud M 82
rid of my hunger M 82
rid of by writing M 82
rid of by running M 82
rid of by letting M 82
rings of the queen M 80
rid of the hills M 80
rid of my worst M 80
rid of my wares M 80
rid of by learning M 80
rid of the thirty M 73
rid of the working M 62
rings in the light M 60
rid of my thirty M 60
rid of the joint M 59
rid of the round M 56
rid of the fifty M 52
rid of the orange M 51
rid of the engine M 50
rid of the wound M 49
rid of the super M 49
rid of the added M 48
rid of the known M 47
rings to the total M 46
rings in the joint M 45
rid of the linear M 44
rid of the costs M 43
rings to the inner M 42
rid of the total M 42
rid of the hands M 40
rid of by raising M 40
rim of the wheel D 33507
rim of the glass D 26709
rim of the world D 23877
ringing of the bells D 23845
rim of the grand D 18839
rim of the basin D 16345
ringing of the phone D 15351
rim of the orbit D 8361
rid of the smell D 7926
rim of the plate D 5920
rings on the fingers D 5230
rib on the right D 4295
ringing of the alarm D 3684
rim of the gorge D 3189
rim of the table D 3023
rim of the optic D 2814
rim of the cliff D 2690
rid of the smoke D 2550
rim of the shell D 2528
rid of the taste D 2448
rid of the evils D 2433
rim of the lower D 2401
rim of the hills D 2387
rings on my fingers D 2360
rid of the weeds D 2277
rim of the upper D 2201
ringing of an alarm D 2089
rim of the abyss D 1946
rings on the shaft D 1885
rim of the opening D 1776
rid of the negro D 1735
rim of the inner D 1729
rim of the water D 1705
rid of the pests D 1694
rid of the fever D 1681
ringing of the front D 1615
rim of the black D 1595
rim of the plain D 1571
rim of the large D 1560
rim of the cover D 1548
ringing of the first D 1546
rid of the flies D 1503
rid of the chief D 1417
rim of the outer D 1393
rid of the stale D 1360
rid of the sight D 1326
rim of the atoll D 1324
rid of the ghost D 1314
rim of the ledge D 1253
rim of the frame D 1211
rid of the horse D 1170
ringing in the night D 1153
rim of the bluff D 1130
rim of the beaker D 1130
rim of my glass D 1117
ringing in my brain D 1080
rim of the first D 1062
rid of it would D 1056
rib to the lower D 1032
rim of the stone D 998
ringing at the front D 997
rim of the right D 986
rim of the small D 983
rings at the ceiling D 970
rim of the ridge D 955
rid of the weapon D 955
rim of the crowd D 949
rid of the social D 944
riot in the house D 927
rid of the silly D 909
rid of the trash D 905
rim of the canon D 894
rib of the first D 892
rim of the river D 887
rid of the pains D 885
rid of the stock D 884
rid of the snake D 865
rib of the right D 860
rib to the crest D 848
rim of the hatch D 831
ringing in the house D 816
ringing in the empty D 816
rim of the gully D 815
rid of the puppy D 814
rid of the germs D 811
rim of the helix D 810
rib in the right D 796
rid of the stink D 790
rim of the driving D 785
rid of the mucus D 784
rid of the dutch D 781
rim of the cornea D 772
rid of the drugs D 761
rid of the bonds D 759
rim of the flask D 754
rim of the metal D 746
rid of the cough D 743
rim of the crown D 738
rid of the dirty D 728
rid of the knife D 725
rid of the pesky D 705
rib of the vault D 694
rim of the round D 691
rid of the flesh D 685
rid of the odium D 674
rid of the stain D 673
rim to the river D 669
rid of by boiling D 663
rib to the upper D 663
ringing on the stone D 656
rim of the known D 656
rid of the toxic D 649
rim of the paper D 644
rings on the stump D 639
rim of the stage D 638
rim of the ditch D 634
riot in the watts D 632
rid of the rival D 627
rib at the crown D 620
rim of the chasm D 616
rings in the noses D 614
rim of the front D 614
ringing in an empty D 611
rid of the odious D 604
riot of the tipsy D 599
rings on the rotor D 598
rim of the arena D 598
rim of the field D 593
rid of the stone D 593
rid of the slums D 589
rings on the horns D 588
rim of the woods D 578
rim of the pupil D 574
rim of the polar D 572
rim of the shaft D 571
rid of the dross D 569
rings of the thorax D 567
rib of the breast D 566
rid of the bible D 564
rib of the leaves D 556
rid of the chaff D 552
rim of the empty D 550
ringing on the floor D 548
rid of the taint D 548
rim of the solar D 546
rim of the rotor D 546
rid of the grease D 542
rid of the treaty D 540
rid of by washing D 540
rib at the point D 533
rid of the sugar D 531
rid of the chill D 527
rim of the light D 524
rid of the roman D 524
rim of the white D 523
rid of the nagging D 516
rid of the blues D 507
rid of my cough D 504
rip up the whole D 502
rim of the stove D 494
rid of the bombs D 487
rings in the ceiling D 484
rim of the lesion D 484
rid of the truck D 484
rim of the glans D 472
rim of the grave D 466
rib to the right D 459
rim of the belly D 458
ringing of the evening D 454
rid of the fetus D 454
rid of the brute D 453
rid of the fumes D 449
rid of the bitch D 448
rim of the valve D 442
rim of the chair D 440
rid of the frogs D 435
rid of the cards D 432
rim of the piece D 414
rim of an empty D 414
rid of the witch D 414
rid of the cargo D 414
rim of the calyx D 404
rim of the slope D 402
ringing of the anvil D 400
rim of the green D 400
riot in the nation D 399
riot in the first D 399
riot on my hands D 398
rings of the rotor D 396
rim of the wagon D 396
rim of the gulch D 395
rim of the mould D 390
rim on the outer D 384
rim of the bench D 384
rid of the thirst D 382
rim on the upper D 380
riot in the theater D 376
rim of the clock D 376
rid of the court D 374
ringing in the morning D 373
rip up the belly D 370
rib at the level D 370
rim of the clearing D 368
rid of me would D 368
rid of the glass D 365
ringing of the morning D 364
rip up the floor D 363
rings in the cornea D 362
rim of the night D 362
rim of the curve D 358
rim of the broad D 358
rid of the title D 358
rid of the sword D 354
rings of the roman D 352
rim of the china D 352
rid of the sheep D 350
rid of the paint D 350
rim of the medal D 348
rim of the brake D 348
riot of the people D 347
rim to the right D 347
rim of the tongue D 344
rim of the medial D 342
rid of the filthy D 342
rim on the inner D 340
rim of the gauge D 340
rim of the sieve D 338
rim of the region D 338
rim of the shade D 336
rim of the globe D 336
rim of the setting D 335
rid of the lingering D 335
riot in the blood D 334
rid of the mouse D 334
riot at the house D 333
rim of the spool D 332
rim of the rocky D 332
rim of the milky D 330
ringing of my phone D 329
rid of the sharp D 328
rim of the teacup D 326
rim of the mound D 326
rim of the blank D 325
riot in the decay D 323
rim of the tower D 322
rim of the flange D 320
rid of the opium D 320
ringing of the clock D 319
rim of the board D 318
rid of the ticks D 318
rid of the fungus D 318
rid of the petty D 316
rid of the caste D 311
rim of the chart D 310
rid of the fatal D 310
rim at the point D 309
rim of the gourd D 307
riot in the lower D 302
rid of the tumor D 302
rim of the steel D 300
rid of the spell D 300
rid of the drink D 300
ringing of the engine D 297
rim of the crust D 295
rim to the floor D 294
rid of my fever D 294
rim of the trees D 292
rid of the stamp D 292
rid of the fancy D 290
rim of the tumor D 289
rid of by throwing D 286
rid of the trade D 284
rim on the right D 283
rim of the pubic D 282
rim of the jungle D 282
rings of the motor D 281
rim of the snare D 281
rim of the skull D 281
rid of the scent D 281
rid of the lumps D 281
rid of the rider D 280
rib to the level D 280
rib to the first D 280
rid of the grime D 278
rid of by placing D 278
rim of the spoon D 277
rings on the glass D 275
rim of the whole D 274
rim of the radial D 274
rim of the cloud D 274
rid of the warts D 274
rim of the falls D 273
rib on the lower D 271
rid of the crazy D 270
rid of the gases D 269
rid of the widow D 268
rid of the goats D 268
rid of the fruit D 268
rid of the badge D 268
rid of the cramp D 267
ringing in the woods D 266
rid of the dregs D 264
rib on the upper D 264
riot on the night D 259
rid of the staff D 259
riot of the night D 258
rib to the inner D 258
rim on the wheel D 257
rim of the ilium D 254
rim of the canal D 254
rid of my stock D 254
rim of the nasal D 252
rib to the spine D 252
rim of the watch D 250
ringing on the anvil D 249
rim of the steep D 249
rim of the stand D 249
rim of the sheave D 248
rings in the stump D 246
rim to the upper D 246
rim of the meadow D 246
ringing of the house D 245
rim of the blade D 244
rim of the morning D 243
rib on the under D 243
rim at the level D 242
ringing in the usual D 241
rings in the region D 240
ringing in the right D 240
rim of the paint D 240
rim of the floor D 240
rim of the crest D 240
rig in the world D 240
rings of the bases D 238
rings at the bases D 238
ringing in the tower D 238
rim of the shore D 238
riot in the halls D 237
rim of the devil D 236
rid of the rogue D 235
ringing in my fancy D 234
rim of the wound D 233
rim of an abyss D 232
rim of the brass D 230
rid of the glare D 230
riot in the court D 227
ringing in the world D 227
rim of the ulcer D 226
rim of the tibial D 226
rim of the coast D 226
rib at the right D 226
rid of the spots D 225
rip up the paper D 224
rid of the grubs D 223
ringing of the happy D 222
rim to the lower D 222
rim of the creek D 222
rim at the upper D 222
riot of the storm D 221
rid of the dress D 220
ringing to the sound D 219
ringing in the outer D 219
rim of the shelf D 219
rid of the plate D 219
rid of the musty D 218
rid of the shirt D 216
rim of the waiting D 214
rid of the stick D 214
ringing up the sales D 212
rid of the mines D 212
rings on the basis D 210
rim of the merry D 210
rid of the mites D 210
riot on the first D 208
riot at the first D 208
ringing in the still D 207
rim of the state D 207
riot in the place D 206
riot at the opera D 206
rings to the ceiling D 206
rid of the salts D 206
rid of the poles D 206
rid of the bases D 206
rim of my plate D 204
ringing of the night D 203
rim of the trunk D 203
rid of the stiff D 202
rid of the rifle D 202
rid of the skunk D 200
rid of the quilt D 200
rid of the metal D 200
rid of the friars D 200
rings of the elves D 198
rim of the color D 198
rid of the papal D 198
riot of the worst D 196
ringing in the hearts D 196
ringing of the steel D 195
rim of the chest D 194
rim of the marsh D 193
riot of the blast D 192
riot in the forum D 192
rings in the stone D 192
ringing in the minds D 192
rid of the gnats D 192
rid of the couch D 192
rib on the inner D 192
rim of the group D 190
rib to the point D 190
rid of the wasps D 188
riot in the champ D 187
ringing on the metal D 187
rim of the bowls D 187
rid of the scars D 186
rid of the bulky D 186
rim on the lower D 185
rid of the cigar D 185
rim to the valve D 184
rim of the swamp D 184
rim of the fruit D 184
rim of the atrial D 184
rib of the aisle D 184
riot in the ruins D 183
ringing of the large D 183
rip in my pants D 182
rim of the pouch D 182
rid of the sliding D 182
rid of the skull D 181
riot or of keeping D 180
ringing at the outer D 180
rid of the husks D 180
rid of the fishy D 180
rim of the track D 178
rim in the region D 178
rid of the loyal D 178
rid of the boots D 178
rid of by rubbing D 178
rib to be taken D 178
rid of the straw D 177
rib to the pubic D 177
rim of the rainy D 176
rim at the front D 176
rip in the skirt D 175
riot in the veins D 174
rid of the slime D 173
rings on the ceiling D 172
rim of the older D 172
rim of the drive D 172
rim of the casting D 172
rid of the rooks D 172
rid of the pills D 172
rid of by packing D 172
rings at the level D 170
rim of the walls D 170
rim of the rocks D 170
rim of the engine D 170
rid of the toxin D 170
rid of the kinks D 170
rim to the wheel D 169
rid of the rigid D 169
rid of the chips D 169
ringing of the hoofs D 168
rid of the attic D 168
rid it of weeds D 168
riot on the floor D 167
rim of the altar D 167
rid of the brine D 167
rib of the frond D 167
rib of the cocoa D 167
ringing me up about D 164
rim of the truck D 164
rid of the skins D 164
rid of the shock D 164
ringing on the table D 163
rid of the urine D 163
rid of the arrow D 163
rip it up again D 162
riot of the evening D 162
rim of the trail D 162
rim of the model D 162
rid of the odors D 162
rid of the grain D 162
rid of the ennui D 162
rings in the xylem D 160
rings in the solar D 160
rim of the spout D 160
rid of the taxes D 160
rid of the creep D 160
rib of the feather D 160
rings of the belly D 158
ringing up to heaven D 158
rid of the tares D 158
rim of an earthen D 157
rip in the right D 156
rings in the lobes D 156
rim of the brain D 156
rid of the venom D 156
rid of the piles D 156
rid of the padding D 156
rid of the hotel D 156
rid of the spies D 155
rid of the split D 154
rid of the nausea D 154
rid of the mayor D 153
ringing up the items D 152
ringing of the tower D 152
rid of the ranch D 152
rid of the phobia D 152
rid of the leaven D 152
rim is no longer D 151
rid of the cynic D 151
rid of the choking D 151
rid of the blank D 151
rip in the straw D 150
riot at the polls D 150
rim of the trash D 150
rim of the joint D 150
rim at the outer D 150
rid of the tapes D 150
rid of the greasy D 150
rid of the crows D 150
riot in the world D 149
ringing of my alarm D 149
rid of the lover D 149
rid of the horns D 149
rib of the upper D 149
rip as the routing D 148
rim of the housing D 148
rim of the ceiling D 148
rim at the lower D 148
rid of the brush D 148
riot in my veins D 147
rim to the outer D 147
riot on the count D 146
rings on the plate D 146
rings on the motor D 146
ringing at the house D 146
rim of the house D 146
rim of the dough D 146
rib in the region D 146
rid of the slimy D 145
rib on the outer D 145
rings of the atoms D 144
rim of the sheet D 144
rim of the llano D 144
rim of the craft D 144
rim as he drank D 144
rim to the water D 143
rid of the penny D 143
ringing to the plain D 142
ringing of the notes D 142
rim of the snake D 142
riot in the state D 141
ringing in the front D 141
rim of the nation D 140
rim of the drain D 140
rid of the coins D 140
rid of my horse D 140
rid of by melting D 140
riot in the black D 139
riot in my brain D 139
rings of the wheel D 138
ringing of the outer D 138
rim of the fourth D 138
rid of the pilot D 138
rid of the nation D 138
rid of the messy D 138
rid of the gloom D 137
rid of the flood D 137
ringing in the evening D 136
rim of the waste D 136
rim of the guard D 136
rid of the moles D 136
rid of the knots D 136
riot of the world D 134
rings on the stove D 134
rings in the flesh D 134
ringing to the floor D 134
rim of the plaza D 134
rim of the holes D 134
rid of the moors D 134
rid of the flour D 134
ringing in the small D 133
rim of the roman D 133
rim of an atoll D 133
rid of the fatty D 133
riot of the period D 132
rim of the storm D 132
rim of the kayak D 132
rig of the ships D 132
rid of the rebel D 132
rid of by soaking D 132
riot on the evening D 131
ringing to the merry D 130
rim of the pubis D 130
rim of the growing D 130
rim of the butte D 130
rim at the edges D 130
rid of the broad D 130
ringing of the metal D 128
rid of the candy D 128
rip in the paper D 127
riot on the stage D 127
rings on the index D 127
rid of the fluff D 127
rid of the bills D 127
rim of the block D 126
rim in the shape D 126
rid of the tanks D 126
rid of by shaking D 126
rib is the first D 126
rid of the hairs D 125
rip up the rails D 124
rings on the shank D 124
ringing of the small D 124
ringing in my right D 124
rim on the front D 124
rim of the snout D 124
rim of the dance D 124
rid of the swarm D 124
rid of the cable D 124
rings to the rotor D 123
rings of the basal D 123
rim to the level D 123
rid of the chute D 123
rip up the women D 122
rip in the social D 122
ringing up an order D 122
ringing on the night D 122
rim on the under D 122
rim of the moors D 122
rid of the organ D 122
rid of the muddy D 122
rid of the booze D 122
ringing in the study D 121
rid of the league D 121
rid of the goose D 121
riot on the labor D 120
riot at the court D 120
rings on the stick D 120
rim of the patch D 120
rim at the sides D 120
riot of the winds D 118
riot at the state D 118
ringing of the wedding D 118
rim of the stream D 118
rim of the sinking D 118
rim of the liner D 118
rim of the flute D 118
rig is in place D 118
rid of the skirt D 118
rid of the racial D 118
rid of the coach D 118
rid of the brace D 118
rid of by talking D 118
rib to the ilium D 118
rim of the fence D 117
riot at the theater D 116
rid of the towel D 116
rid of the foxes D 116
rim of the delta D 115
rim in the upper D 115
riot at the abbey D 114
rim of the spare D 114
rim of the sound D 114
rim of the screw D 114
rim of the knoll D 114
rim of the hiatus D 114
rim of the discs D 114
rim of an older D 114
rid of the tramp D 114
rib at the outer D 114
riot in the usual D 113
ringing of the lunch D 113
rim of the torus D 113
rim of the teapot D 113
rid of the leather D 113
rid of the aches D 113
rip in the world D 112
riot of the first D 112
rings on the valve D 112
rim of the grain D 112
rim in the right D 112
rig of the craft D 112
rid of by changing D 112
rid of the itching D 111
rid of the grave D 111
rip up the check D 110
ringing on the stair D 110
ringing on the rocks D 110
rim to the point D 110
rim of the stack D 110
rid of the edema D 110
rib to the front D 110
rib of the green D 110
rib of the frame D 110
riot in the spoil D 109
riot at the fishing D 109
rim of the porch D 108
rid of the faint D 108
rid of an odious D 108
rib of the choir D 108
ringing of the eight D 107
rip in the front D 106
rings on the hairs D 106
ringing of the final D 106
ringing in the reader D 106
ringing in the first D 106
rim of the fixed D 106
rim of the cells D 106
rim of the brown D 106
rid of the damning D 106
rid of the boats D 106
rib in the metal D 106
riot in the lobby D 105
rim of the graft D 105
rid of the juice D 105
rid of the baron D 105
rings of the cornea D 104
ringing of the getting D 104
ringing in the depths D 104
rim of the hymen D 104
rim of the crock D 104
rim of the conning D 104
rid of the fleet D 104
ringing of the brass D 103
ringing in the halls D 103
rid in the horse D 103
rip in the belly D 102
rings on the strung D 102
rings in the valve D 102
rim to the basin D 102
rim of the turning D 102
rim of the stump D 102
rim of the punch D 102
rim in the first D 102
rid of the tired D 102
rid of the stove D 102
rid of the roses D 102
rid of the purse D 102
rid of the minor D 102
rid of the median D 102
rim of the disks D 101
rim of the basal D 101
rid of the taboo D 101
rid of the shark D 101
riot to be found D 100
rings of the stove D 100
ringing in the quiet D 100
rid of the spasm D 100
rid of the guise D 100
rid of the dreary D 100
rib of the blade D 100
rib in the lower D 100
rib at the lower D 99
rig in the water D 98
rid of the curls D 98
rid of the balls D 98
rid of the alloy D 98
rings in the glass D 97
rip in the glove D 96
rings in the woody D 96
ringing of the altar D 96
ringing in the words D 96
rim of the sugar D 96
rim of the dunes D 96
rim of my teacup D 96
rid of the fairy D 96
rib to the medial D 96
rib is the cause D 96
rings of the valve D 95
ringing in the hills D 95
rim of the scarp D 95
rim of the newly D 95
rid of the penal D 95
rings on the hooks D 94
rings on the cornea D 94
rim of the wafer D 94
rim of the ladle D 94
rim of the chuck D 94
rid of the wires D 94
rid of the vexed D 94
rid of the bally D 94
rid of the asthma D 94
rib in the first D 94
ringing of the abbey D 93
rim of the plant D 93
rib of an adult D 93
ringing on the globe D 92
rid of the senior D 92
rid of the funny D 91
rid of the frost D 91
rid of the chalk D 91
rip in my shirt D 90
ringing of the piece D 90
rid of the scabs D 90
rid of the sales D 90
rid of the rover D 90
rid of the pagan D 90
rid of the crabs D 90
rim of the space D 89
rim of the flood D 89
rid of the wives D 89
rid of the oxide D 89
rings on the smooth D 88
ringing up the price D 88
rim of the urine D 88
rim of the shining D 88
rid of the strings D 88
rid of the sores D 88
rid of the jungle D 88
rid of the acrid D 88
rid of by pumping D 88
rid of the scrub D 87
ringing to the music D 86
ringing at the setting D 86
rim of the cooking D 86
rim of my vision D 86
rid of the rusty D 86
rid of the pumps D 86
rid of by syringing D 86
riot of the lower D 85
rid of the phony D 85
rig as the ghost D 84
rid of the scene D 84
rip up the roots D 82
rings to the fingers D 82
rim of the smooth D 82
rid of the mules D 82
rid of as inert D 82
rib of the fourth D 82
rib as it moves D 82
ringing up the local D 80
rid of the wagon D 80
rid of the tangle D 80
rid of the groom D 80
rid of the chore D 80
rid me of saint D 80
rim of the rolling D 78
ringing of the court D 67
riot in the field D 66
rib on the front D 66
rid of the crude D 65
rib at the springing D 64
ringing up the total D 63
riot in the night D 62
rid of the dried D 62
riot in the sense D 61
riot in the midst D 61
rings on the tarsi D 61
rim of the mother D 60
rid of the woody D 60
rim of the still D 58
rim to the front D 56
rim at the right D 56
rip in the space D 53
rid of the dangling D 53
riot is the voice D 52
rid of the karma D 51
riot in the abbey D 50
ringing of the passing D 50
rid of the smoking D 50
ringing in the drawing D 49
rim of the steaming D 49
rib is no longer D 49
riot at the table D 48
ringing in the court D 48
rim of the cross D 48
rid of the serum D 48
rid of the gnawing D 48
riot in the evening D 47
riot in the brain D 46
rim of the serving D 45
rim of the fluid D 45
rid of the dummy D 45
riot by the people D 44
ringing as of bells D 44
riot in the woods D 43
riot in the morning D 43
rid of the twins D 43
rip in the leather D 42
rim of the scoop D 42
rim of the leather D 42
rim of the human D 42
rid of the motor D 42
rid of the fence D 42
riot of the blood D 41
riot in the region D 41
rings on the metal D 41
ringing of the warning D 41
rid of the whale D 41
riot to be taken D 40
rid of the wedding D 40
rid of the coating D 40
rid of the bulge D 40
rib in the upper D 40
