rights are to be M 40704
rights and of the M 23824
rights and in the M 15476
riches both of the M 15109
rights had to be M 11700
rights and to the M 10104
rights not to be M 8748
rights and on the M 5672
rights and so on M 4911
rights are in the M 4190
rights one of the M 4007
rights and by the M 3936
rights and at the M 3678
rights was to be M 3660
rights out of the M 3612
rights law in the M 3482
rights due to the M 2958
riches are to be M 2913
rights has to be M 2852
rights era of the M 2764
rights and it is M 2722
rights both of the M 2524
rights and to be M 2488
rights act in the M 2480
rights are at the M 2070
rights led to the M 1896
rights than in the M 1712
rights may be the M 1572
rights that it is M 1518
rights won by the M 1326
rights are in no M 1286
rights was in the M 1276
rights both in the M 1236
rights may be in M 1224
riches out of the M 1147
riches are in the M 1141
rights but on the M 1126
rights are of the M 1074
rights law at the M 1034
riches and of the M 1032
rights act on the M 1030
rights act of the M 1011
rights are on the M 962
rights act or the M 960
rights era in the M 927
rights law of the M 910
rights act to the M 882
riches are of no M 874
rights lie at the M 804
rights law is the M 764
rights but in the M 760
rights than to the M 758
rights that he or M 748
rights and is the M 702
rights may be an M 688
rights law to the M 686
rights set up by M 684
rights are by no M 676
riches but in the M 674
rights and as an M 670
rights than it is M 654
rights and to do M 654
rights but it is M 638
rights act is the M 634
rights but at the M 632
rights may be of M 630
rights can be an M 622
rights for up to M 610
rights that is the M 606
rights and as the M 602
rights can be the M 590
rights than on the M 588
rights won in the M 576
rights act by the M 564
rights east of the M 536
rights and as to M 534
rights but of the M 532
rights law on the M 530
rights and if the M 530
rights that we do M 524
rights are of no M 516
rights was at the M 506
rights that in the M 490
rights may be so M 486
rights can be so M 486
rights but to the M 486
rights than is the M 482
rights law is to M 476
rights may be as M 474
rights are to the M 470
rights that he is M 468
rights act is to M 468
rights men of the M 466
rights has to do M 454
risked all in the M 452
rights that the king M 444
rights can be no M 444
risked all on the M 442
rights was by no M 436
rights may be at M 434
rights act to be M 432
rights lay in the M 430
rights and we do M 428
rights can be of M 422
rights and the king M 406
risked going to the M 388
rights owing to the M 386
rights men in the M 386
rights was on the M 382
rights and is in M 382
riches and in the M 374
risked death in the M 365
rights and is an M 356
risked death at the M 354
rights act as an M 354
rights lay at the M 350
rights set up in M 346
rights may be to M 332
rights but by the M 320
rights act as the M 320
rights may do so M 310
riches lay in the M 307
rights lead to the M 296
rights that he be M 294
rights than do the M 294
rights and to an M 294
rights idea in the M 292
rights both to the M 286
rights that go to M 284
rights not to the M 284
riddle set by the M 284
rights than of the M 282
rights can be in M 278
rights and of an M 276
rights and in so M 272
rights for or on M 268
rights than we do M 266
rights lie in the M 266
rights but as the M 264
rights not in the M 262
rights had to do M 258
rights but as an M 256
rights act as it M 256
riches and by the M 256
rights and so to M 254
rights now to be M 252
rights for it to M 250
rights law by the M 248
riddle lay in the M 247
rights was to the M 246
rights and if so M 245
rights act is an M 244
rights law as an M 242
rights this is the M 240
rights led to an M 240
riches and at the M 238
rights hang in the M 236
rights all of the M 236
riches are of the M 234
rights and so the M 232
rights that is at M 228
rights than by the M 228
rights act if the M 224
rights goes to the M 220
rights set by the M 216
rights than if he M 212
rights act if it M 208
riddle not to be M 207
riches yet to be M 206
riches are by no M 204
rights can be as M 203
rights and the so M 203
rights that is so M 202
rights both at the M 202
riches lie in the M 201
rights are of an M 200
rights than by an M 198
rights law as it M 196
rights each of the M 192
rights and if he M 190
rights hung in the M 188
rights and if we M 188
rights law to be M 184
riches and to the M 184
rights yet to be M 182
rights going to the M 180
rights act at the M 180
richly than in the M 180
rights and in no M 178
rights that is to M 176
rights law is an M 172
rights and he is M 172
riches but on my M 172
riches are in my M 170
rights act is in M 168
rights then it is M 166
rights law as the M 164
riddle and of the M 164
richly out of the M 164
rights end at the M 162
riddle was to be M 162
riches was to be M 162
rights due to an M 160
rights both as to M 160
riches had to be M 160
rights are at an M 158
riches than in the M 158
riches that it is M 155
rights not of the M 154
rights act so as M 153
riches for us to M 153
rights than to be M 152
rights not on the M 152
rights both on the M 152
riddle was in my M 150
rights can in no M 148
rights and if it M 148
riches not to be M 148
riches they at the M 144
rights are by the M 142
riches are on the M 142
rights arm of the M 141
rights than he or M 140
rights being in the M 140
rights and to go M 140
riddle had to be M 140
rights out of it M 138
rights and so do M 138
riddle him or he M 138
riddle has to be M 138
riddle out of the M 137
rights was in no M 136
rights that is in M 136
rights nor of the M 136
riddle for us to M 136
riches are to me M 134
riches and so on M 134
rights man of the M 133
rights man in the M 130
rights and be in M 130
rights for us to M 128
riches that he is M 127
risked all in an M 126
riches may be the M 126
rights nor in the M 124
rights year in the M 120
rights that is of M 120
rights that is as M 120
rights and is to M 120
riches now as he M 120
riches and it is M 120
rights thus to be M 118
rights may be no M 118
rights not as an M 116
rights lying at the M 116
rights dear to the M 116
richly due to the M 116
rights now in the M 114
rights that we as M 112
rights out to the M 112
rights not as the M 112
rights era to the M 112
rights act in an M 112
righting one of the M 112
riches was in the M 112
risked one of the M 110
rights than he is M 110
rights had in the M 110
rights but we do M 108
rights law it is M 106
rights law is in M 106
riddle for me to M 106
riches led to the M 106
riches for the king M 106
rights due to it M 104
riches won by the M 104
rights was of the M 102
rights law or the M 102
riddle that it is M 102
richly set in the M 102
risked death on the M 100
rights may in the M 100
rights led by the M 100
rights and is as M 100
riches both of king M 100
rights can be at M 98
rights but to do M 98
rights add to the M 98
riddle has to do M 98
rights run to the M 96
rights not to do M 96
rights nor is it M 96
rights for it is M 96
rights and do so M 96
rights was of no M 94
rights that go by M 94
rights that at the M 94
rights lying in the M 94
riches are to the M 93
rights nor on the M 92
rights and so it M 92
riddle that is the M 92
riches both to the M 92
rights set in the M 90
rights may be on M 90
rights has in the M 90
rights and on to M 90
rights and on an M 90
riddle out of it M 90
riches but of the M 90
rights for the so M 88
rights are in an M 88
rights and so is M 88
rights and go to M 88
rights act it is M 88
riches may be an M 88
rights due to us M 86
rights and in an M 86
riches and on the M 86
risked war in the M 84
rights out of an M 84
rights law if it M 84
rights both by the M 84
rights any of the M 84
richly dead in the M 84
rights nor to the M 82
rights are to do M 82
riches lying in the M 82
rights has on the M 80
rights but to be M 80
riches than by the M 80
riches but on the M 80
riches due to the M 42
rights era is the M 40
rivers and the sea D 15539
rivers and in the D 15122
rivals that of the D 13736
ripped out of the D 11792
rivers and on the D 10740
rivaling that of the D 7072
rivers and of the D 5104
rivers had to be D 4878
ripped off by the D 4644
rivals out of the D 4346
ridden out of the D 4322
ritual use of the D 4315
rivers run to the D 4001
richer than in the D 3726
rivers are to be D 3101
rivers and to the D 3093
ridges and in the D 3025
richer than it is D 2688
ritual and in the D 2655
ridden out to the D 2595
richer than he is D 2582
ritual had to be D 2542
ringside seat at the D 2370
rivers and by the D 2326
rivers east of the D 2240
ripped out by the D 2042
rivers are in the D 1999
rivets are to be D 1998
ritual and of the D 1958
rinsed out of the D 1930
rivers and at the D 1876
ritual was to be D 1863
rigged out in the D 1786
ripped out of my D 1774
ritual bath in the D 1702
ripped off in the D 1702
ritual has to be D 1528
rifles out of the D 1454
ridges and on the D 1364
richer than the king D 1334
rinsed them in the D 1250
rivers near the sea D 1246
richer man of the D 1164
rivers and so on D 1158
ripped off at the D 1142
ridden off to the D 1119
rifles had to be D 1072
ritual act of the D 1046
ritual and to the D 994
ridges east of the D 993
ripped one of the D 988
rivers was to be D 970
ritual death of the D 952
ritual eating of the D 950
rivers fed by the D 944
ridden out in the D 888
ridges are to be D 878
ritual head of the D 834
richer than on the D 824
ritual out of the D 818
ribbon out of the D 763
ritual law of the D 749
riders out of the D 718
riders had to be D 718
ribbon bow at the D 708
ridden off in the D 678
rivers and up the D 672
rivers are on the D 670
richer than if he D 662
ridden out on the D 660
ringside seat to the D 652
rivers than in the D 636
rivals are to be D 630
rivals and of the D 630
rivers out of the D 622
ripped out at the D 610
rivers due to the D 598
rivals and by the D 596
ritual that is the D 596
rinsed off in the D 590
rivals any of the D 586
ringside seat on the D 586
rivers dry up in D 585
ritual bath of the D 580
ritual art of the D 579
ridges and of the D 559
ridden one of the D 556
rivers and it is D 546
ripped out of it D 546
rivers led to the D 543
ritual and it is D 532
rivals any in the D 530
ripple due to the D 530
ritual and on the D 528
ritual and by the D 528
ringside seat in the D 518
rivers lead to the D 512
ripped out of me D 498
rifles are to be D 488
rivers are of the D 484
richer than at the D 482
richer men in the D 480
ritual use in the D 474
ritual act in the D 464
richer men of the D 464
ritual bath at the D 462
rinsed out in the D 452
ripped off by an D 448
ritual one of the D 446
ridges had to be D 446
rivers and on to D 440
ritual meal of the D 440
ritual bath on the D 438
rifles and of the D 426
rivals and in the D 422
rioters out of the D 422
riches and of thy D 422
rivers that it is D 420
ripped out in the D 414
ritual and so on D 412
ridges and to the D 404
rivers and is the D 400
rivers with the sea D 398
rivers lie in the D 396
rivers are to the D 394
rivals had to be D 394
ritual are to be D 390
rivers and at sea D 386
rivers ran to the D 382
rivers was in the D 378
ritual was in the D 378
ridges and at the D 378
ripped off on the D 372
riders are in the D 372
ridges than in the D 369
rifles lying on the D 364
rivals and to the D 358
ritual and at the D 358
ridden off on the D 358
ritual that it is D 356
risers are to be D 356
rifles and in the D 354
rivets out of the D 353
rivers run in the D 348
rivals him in the D 348
rigged out on the D 348
ridges are in the D 345
rivets them to the D 342
ritual may be the D 342
ritual for me to D 334
ritual but in the D 334
richer for it in D 334
ridden area of the D 330
ribbon bow on the D 328
rivets had to be D 326
ritual out of it D 324
ridden off to be D 324
ritual has to do D 322
rivals are in the D 316
richer for it at D 314
rivals for the king D 306
richer and at the D 302
ridges due to the D 297
rigged out in an D 296
rivers are of no D 294
ritual than to the D 282
ripple was to be D 278
richer than he in D 278
rivals and at the D 274
rifles are in the D 272
ripple out to the D 268
ridden out at the D 268
riveting him to the D 264
ripped off of the D 264
richer due to the D 264
ridges are on the D 262
rifled gun on the D 260
ribbon bow to the D 258
rivers than on the D 256
ripped out of an D 256
rigged one of the D 255
rivers ran in the D 252
rippling out of the D 248
ritual led to the D 244
ridges and by the D 244
ribbon lying on the D 244
ridges and the sea D 243
ritual than in the D 240
ritual not to be D 240
riders are to be D 240
ritual cup of tea D 236
ritual can be as D 233
rivers dry up by D 232
rivers are by no D 232
ribbon was to be D 232
rivers owing to the D 230
ripped out on the D 230
rifled them of the D 230
ridden him in the D 230
rivaling any in the D 228
ritual that is to D 228
riders and of the D 228
ridges out of the D 227
rivers one of the D 226
rivals both in the D 224
rifles was to be D 224
ridges are of the D 224
rivers has to be D 220
rippling song of the D 220
richer than is the D 220
rivets are of the D 218
rivals not by the D 218
ritual was of the D 216
rigged out in my D 216
rivers add to the D 212
ridges than on the D 212
richer end of the D 212
ritual song of the D 208
ribbed out of the D 207
rivals was to be D 206
rifled gun in the D 206
rivals that in the D 205
ritual meal in the D 204
ribbon had to be D 204
riotous joy of the D 202
rifles lay on the D 202
richer use of the D 202
rivers but in the D 200
riders are on the D 200
ripped off to the D 198
rivals met in the D 196
ripple out of the D 195
ritual had to do D 194
ritual act is the D 194
ritual death in the D 192
rivets due to the D 190
riders out on the D 190
richer than if it D 190
ridges all the sea D 188
rinsed them at the D 186
ribbon has to be D 186
ripped off as the D 184
ridges and it is D 184
rivals was by no D 182
ritual for us to D 180
ritual act to be D 180
ritual year of the D 178
ritual that is so D 177
rivers are at the D 176
rivals that it is D 176
ritual dip in the D 176
ridden off by the D 176
richer for it by D 176
ritual for the king D 174
ridges may be the D 174
rivers may be the D 172
ritual can be an D 170
ritual and as an D 170
rivers both in the D 168
ringside seat as the D 168
rivers met the sea D 166
rifles and so on D 165
rivers that in the D 164
rivers bring to the D 164
ritual are in the D 164
rippling out to the D 164
rivers but it is D 162
ritual was at the D 162
ribbon that is the D 162
rivals was in the D 160
rivals that of an D 160
ritual cry of the D 160
ripped out of us D 160
rifles and on the D 160
rifles and by the D 160
ridges are up to D 160
richer owing to the D 160
ribbon and on the D 160
rifled gun of the D 159
ritual bow to the D 158
ridges lie in the D 158
rivers far to the D 157
ritual death at the D 156
rigged out at the D 156
ridges are at the D 156
riveting them to the D 154
rivers goes on to D 154
ridden with me on D 154
ribbon out of my D 154
rivets are in the D 152
rivals that he is D 152
ritual lay in the D 152
ritual had by no D 152
ritual both of the D 150
rifles are of the D 150
ridden out of it D 150
ridges far to the D 149
rigged out as an D 148
ridden with me in D 148
ribbon hung on the D 148
riveting her to the D 146
ritual but on the D 146
rivals are up to D 144
rivers out to sea D 143
rivals than to the D 142
rivals led to the D 142
rivals and on the D 142
ripple was on the D 142
richer than if we D 142
richer than he or D 142
ribbon and in the D 142
ritual may be as D 140
rinsed out by the D 140
riders are at the D 140
richly fed by the D 140
richer man in the D 140
ripening and in the D 139
ritual use of an D 138
ritual meal at the D 138
ritual but it is D 138
ridden out by the D 138
ribbon tie at the D 138
rivers than it is D 136
rivers not to be D 136
rivers near to the D 136
rivers may be of D 136
rigged out by the D 136
richer man if he D 136
rivers lying to the D 134
rivers lying in the D 134
rivals met on the D 134
ritual singing of the D 134
ripped off in an D 134
rifles hung on the D 134
ritual that is at D 132
ritual that he is D 132
ritual can be the D 132
rights and the re D 132
ridges and up the D 132
richer man at the D 132
rivers for the sea D 130
rivers dry up or D 130
rivers but on the D 130
ritual bath to the D 130
ritual act is to D 130
ridden far in the D 130
richer out of the D 130
rivets him to the D 128
rivers that go to D 128
ritual myth of the D 128
richer idea of the D 128
richer and in the D 128
rivers bring to it D 126
richer than if the D 126
rivers out to the D 125
ritual that is as D 125
rivals and it is D 124
ritual may be of D 124
rinses them in the D 124
ringside seat of the D 124
ridden with us to D 124
ritual was on the D 122
ritual use by the D 122
ritual than it is D 122
ritual meal on the D 122
rioters and in the D 122
riders and to the D 122
riders and in the D 122
ribald song of the D 122
rigged out of the D 121
richer than the sea D 121
rivers end in the D 120
ritual law in the D 120
ritual and is the D 120
ripped him up the D 120
rinsed off by the D 120
rifles and go to D 120
rivaling any of the D 118
ridges cut in the D 118
ripening due to the D 117
rivets and in the D 116
rivals than by the D 116
rifles now in the D 116
rifles are on the D 116
ritual that in the D 114
rifles and at the D 114
ridges led to the D 114
riders out to the D 114
ribbon bow in the D 114
rivers and by sea D 113
rivals and the king D 112
rivaling that of an D 112
ritual that is no D 112
ritual may be an D 112
ritual and as the D 112
riders sat on the D 112
ribbon and at the D 112
ridden than it is D 111
rivals met at the D 110
rivals and to be D 110
ritual are of the D 110
ritual and to be D 110
ripped them up in D 110
ripped all of the D 110
rioters had to be D 110
rifles lying in the D 110
richer area of the D 110
rivers and so to D 108
ritual than by the D 108
ripped one of my D 108
rights and the ad D 108
ridden era of the D 108
rivers and to be D 106
ritual end of the D 106
richer may be the D 106
ribbed ice of the D 106
rivers was on the D 104
ritual due to the D 104
ritual but of the D 104
riotous mob on the D 104
rioters are to be D 104
rigged him up in D 104
rivers end up in D 102
rivers and as the D 102
rivals are on the D 102
ritual area of the D 102
rioters and of the D 102
rinsed off at the D 102
ridden area in the D 102
rivers and up to D 100
ritual are at the D 100
rioters and by the D 100
ridden far to the D 100
richer one in the D 100
rivals them in the D 98
ritual may be to D 98
ritual dear to the D 98
rivers than to the D 96
ritual was to go D 96
ritual but by the D 96
ripped off the wing D 96
rifles lay in the D 96
ridges lying to the D 96
ridged area of the D 96
riders sang to the D 96
ribbon lay on the D 96
ridden him to the D 95
rivets her to the D 94
rivals that the by D 94
rivals may be the D 94
ritual that is an D 94
ritual led by the D 94
ritual bow in the D 94
riotous mob in the D 94
rimmed eye of the D 94
rilled out by the D 94
ridges lying on the D 94
riders was to be D 94
riveting has to be D 93
rivals lay in the D 92
ritual kin of the D 92
ripped out by an D 92
rinsed out at the D 92
ribald wit of the D 92
rights for the ex D 91
ridges run to the D 91
rivers than at sea D 90
rivers may be so D 90
rivers lay in the D 90
rivals that go to D 90
rivaling that in the D 90
ritual may be in D 90
riders and so on D 89
rivets and by the D 88
rivers met in the D 88
rivers and go to D 88
ripped out to be D 88
ridden him on the D 88
rivers than of the D 86
rivers going to the D 86
rivals than in the D 86
ritual law is the D 86
ripped off of my D 86
rioters was to be D 86
rioters are in the D 86
ridges lying in the D 86
ridden off at the D 86
rivers and the king D 84
rivers and is an D 84
rivaling him in the D 84
ritual was by no D 84
ritual that is in D 84
ritual than on the D 84
ritual both in the D 84
ripped off is to D 84
ripped off in my D 84
ridges both in the D 84
riders had to go D 84
rivers lie on the D 82
rivals and he is D 82
ritual was in no D 82
ritual use of it D 82
ridges are by no D 82
ridden with in the D 82
richer one is the D 82
ribald than in the D 82
ritual but to the D 80
ritual but as an D 80
ripple and sing in D 80
ridges may be as D 80
ridden with me to D 80
richer hue to the D 80
ripening and of the D 71
ridges and so on D 64
rivals one of the D 56
ribbon end to the D 48
ridges near the sea D 47
rivals that on the D 46
rinsed and in the D 46
ridden that it is D 45
ripple out in the D 42
rivers area of the D 41
ridden than in the D 41
ridden due to the D 40
