up a whole new M 59708
up a chair and M 54078
up a meeting with M 32054
up a large and M 19307
up a space for M 15197
up a dialog box M 13640
up a chair for M 10782
up a phone and M 10280
up a story that M 9202
up a meeting for M 8956
up a strong and M 8760
up a steep and M 8228
up a fight for M 7664
up i could not M 6608
up a paper and M 6156
up a whole lot M 5562
up a trust for M 5398
up a place for M 5347
up a fight and M 4980
up a small but M 4847
up i could see M 4842
up a steep path M 4712
up a story for M 4638
up a table with M 4578
up a model for M 4190
up a storm and M 4128
up a house for M 4108
up a table and M 4034
up a table for M 3926
up a claim for M 3864
up a human being M 3838
up a party and M 3702
up a party for M 3664
up a large area M 3664
up a story and M 3524
up a child for M 3322
up a house and M 3092
up a fight with M 2876
up a child and M 2730
up a whole day M 2705
up a civil war M 2702
up a store for M 2598
up a piece and M 2562
up a paper for M 2452
up i found that M 2436
up a point that M 2406
up a while ago M 2379
up a field for M 2374
up a steady and M 2340
up a cross and M 2314
up a plant for M 2294
up a space that M 2266
up a check for M 2185
up a kingdom that M 2159
up a small box M 2136
up a storm with M 2098
up a woman who M 2030
up a paper bag M 2030
up a world that M 2028
up a notion that M 1906
up a meeting and M 1890
up a child who M 1866
up a feeling that M 1822
up a close and M 1758
up a block and M 1736
up a truce with M 1734
up a large sum M 1724
up a winding path M 1718
up a woman and M 1694
up a child with M 1694
up a joint and M 1666
up a paper that M 1648
up a reason for M 1592
up a story with M 1576
up a sound and M 1544
up a whole set M 1540
up a trail that M 1536
up a house with M 1512
up a river and M 1448
up a table that M 1421
up a front for M 1410
up a method for M 1388
up a model that M 1370
up a chair near M 1341
up a board with M 1338
up a topic that M 1332
up a loose end M 1321
up a smile and M 1318
up a smile for M 1310
up a small and M 1306
up a board and M 1300
up a group that M 1282
up a plant and M 1269
up a claim that M 1268
up a search for M 1266
up a trust and M 1258
up a store and M 1224
up a world and M 1208
up a white man M 1207
up a light and M 1180
up a teaching job M 1178
up a fight that M 1178
up a large new M 1170
up a solid and M 1146
up a storm for M 1130
up a board for M 1124
up a short and M 1117
up a trail map M 1116
up a place that M 1106
up a short but M 1103
up a small bag M 1092
up a black man M 1090
up a shell and M 1086
up a kingdom for M 1078
up a healthy and M 1076
up a fight but M 1046
up a small area M 1028
up a route for M 1010
up a world for M 1000
up a storm that M 992
up a dialog that M 986
up a stage and M 976
up a party with M 970
up a place and M 964
up a chair with M 960
up a field that M 954
up a forum for M 952
up a group for M 948
up a trust that M 943
up a short way M 932
up a river that M 922
up a claim and M 920
up a story using M 918
up a trust with M 914
up a small sum M 914
up a class for M 910
up a draft for M 898
up a false and M 896
up a group and M 886
up a front and M 884
up a large box M 875
up a press and M 874
up i could hear M 868
up a brave and M 868
up a small one M 858
up a whole year M 854
up a train and M 852
up a paper with M 852
up a state and M 846
up a small boy M 838
up a people who M 824
up a frail and M 818
up a whole area M 816
up a child that M 812
up a house that M 796
up a major new M 792
up a force that M 792
up a ruler and M 788
up a whole can M 749
up a small team M 746
up a writing are M 742
up i asked him M 738
up a small bit M 698
up a black and M 694
up a brief for M 692
up a small red M 689
up a woman with M 678
up a board that M 678
up a match with M 668
up a while and M 664
up a party that M 664
up a scale for M 660
up a happy and M 654
up a whole that M 648
up a guide for M 646
up a river with M 644
up a local area M 642
up a frame for M 634
up a light for M 626
up a large red M 623
up a cross with M 620
up a point and M 618
up a state that M 616
up a quick and M 614
up a group with M 614
up a story out M 613
up a piece for M 610
up a fourth and M 605
up a stream and M 604
up a stage for M 604
up a model and M 602
up a fixed and M 602
up a large map M 596
up a first aid M 591
up a press for M 588
up a match for M 588
up a feeling for M 588
up a piece that M 584
up a prize for M 582
up a moral and M 580
up a large bag M 580
up a winning team M 575
up a stand and M 570
up a meeting that M 568
up a whole box M 566
up a trail and M 564
up a plant with M 564
up a rough and M 563
up a steady job M 562
up a plant that M 554
up a front that M 552
up a point for M 548
up a cheer for M 544
up a woman for M 540
up a cause that M 538
up a train for M 536
up a brief but M 534
up a brief and M 528
up a drawing for M 516
up a really big M 512
up a study team M 509
up i found him M 502
up a stray dog M 502
up a piece with M 500
up a wider and M 496
up a paper cup M 490
up a large but M 485
up a dialog with M 484
up a topic and M 482
up a cheer and M 482
up a habit that M 478
up a vivid and M 474
up a cheer that M 466
up a field and M 465
up a space and M 450
up a small log M 448
up a front with M 443
up a reason why M 436
up a thriving and M 432
up a small path M 432
up a plane and M 432
up a mixed bag M 428
up a kingdom and M 428
up a track that M 427
up a place with M 424
up a watch and M 422
up a topic for M 422
up a power that M 422
up a howling and M 422
up a study for M 420
up a bunch and M 420
up a vision that M 418
up i shall not M 417
up a steady beat M 417
up a force and M 416
up a large one M 413
up a small set M 411
up a steep but M 408
up a stream that M 407
up a model with M 406
up a chair that M 406
up a value for M 400
up a wealthy and M 392
up a cause and M 392
up a river for M 391
up a small cup M 390
up a rough path M 387
up a short path M 382
up a claim near M 382
up a blind man M 382
up a crowd and M 378
up a match and M 376
up a small war M 374
up a legal and M 374
up a craving for M 374
up a sweet and M 372
up a sense that M 367
up a draft law M 362
up a deadly and M 362
up a strong team M 360
up a table near M 354
up a stand for M 352
up a quiet and M 352
up a study that M 351
up a clock and M 350
up a music box M 348
up a short set M 345
up a whole and M 344
up a vision for M 342
up a store with M 342
up a blind and M 342
up a force for M 340
up a wider area M 338
up a large log M 338
up a grand and M 338
up a cross for M 338
up a cloak and M 338
up a large set M 335
up a whole way M 334
up a meadow with M 334
up a frame and M 334
up a visit with M 332
up a train with M 332
up a class and M 332
up a clock that M 331
up a plane with M 330
up a loved one M 330
up a crack and M 330
up a curse with M 326
up a child was M 326
up a civil and M 322
up a quick meal M 321
up a train near M 320
up a table leg M 320
up a scale and M 320
up a plain and M 320
up a cause for M 320
up a false one M 318
up a smile that M 317
up a guard and M 316
up a shell that M 314
up a lengthy and M 314
up a noble and M 312
up a watch for M 310
up a quite new M 310
up a fight now M 310
up a crowd for M 310
up a paper lying M 308
up a chain saw M 308
up a steep set M 302
up a phone that M 302
up a legal aid M 302
up a storm all M 301
up a small can M 301
up a whole heap M 298
up a total area M 298
up a place near M 298
up a world war M 294
up a check and M 294
up a people for M 292
up a small bar M 290
up a cycle that M 290
up a trunk and M 288
up a storm but M 288
up a night and M 286
up a brave new M 286
up a white and M 284
up a steady but M 284
up a strong man M 283
up a whole man M 282
up a voice that M 282
up a falling man M 282
up a place out M 281
up i asked her M 279
up a table using M 278
up a small toy M 278
up a brave but M 278
up a leader who M 276
up a field with M 274
up a track and M 273
up a floor and M 270
up a draft and M 270
up a study area M 268
up a black box M 268
up a truce and M 266
up a father for M 266
up a style that M 265
up a point with M 264
up i could get M 260
up a green and M 260
up a fight was M 260
up a lodge for M 256
up a lasting and M 256
up a false god M 256
up a stand with M 254
up a drawing and M 254
up a white one M 253
up a visit for M 250
up a steep bit M 250
up a large gap M 250
up a light that M 249
up a strong plea M 248
up a dimly lit M 247
up a large can M 245
up a kingdom with M 244
up a world with M 238
up a state for M 238
up a rather long M 238
up a winding and M 236
up a brown bag M 236
up a print job M 234
up a space with M 232
up a grown man M 231
up a still and M 230
up a cover for M 230
up a child she M 230
up i found out M 229
up a fourth for M 226
up a store that M 225
up a query that M 225
up a route that M 224
up a world map M 222
up a method that M 221
up a burning log M 221
up a route map M 220
up a right and M 218
up a drawing with M 216
up a vague and M 214
up a sound that M 214
up a large head M 214
up a chain and M 214
up a major area M 213
up a frame that M 213
up a wound and M 212
up a stand near M 212
up a large heap M 212
up a small key M 209
up a stray cat M 208
up a scale with M 208
up a large law M 208
up a judge and M 208
up i never had M 207
up a world out M 206
up a strong but M 206
up a small heap M 206
up a laugh and M 206
up a class that M 205
up a guide and M 204
up a class with M 204
up a short cut M 203
up a crown out M 202
up a viable and M 200
up a trail with M 200
up a stream with M 200
up a group are M 200
up a final and M 200
up a yearning for M 198
up a large oak M 197
up a house near M 197
up a plane for M 196
up a small dog M 195
up a mother and M 194
up a longer and M 193
up a false idea M 192
up a wound that M 190
up a state with M 190
up a large old M 190
up a buyer for M 190
up a block with M 190
up a black one M 190
up a crowd with M 188
up a graph with M 186
up a frame with M 186
up a large air M 185
up a search and M 184
up a motion for M 184
up a black cat M 184
up a whole big M 182
up a stage with M 182
up a notion and M 182
up a laugh for M 182
up a child than M 182
up a change that M 182
up a block that M 182
up a stream for M 181
up a tough and M 180
up a small dry M 180
up a running and M 180
up a modem and M 180
up a drive for M 180
up i never saw M 178
up a state can M 178
up a price for M 178
up a hunger for M 178
up a whole with M 176
up a night with M 176
up a people that M 175
up a fight all M 175
up a strong new M 174
up a people and M 174
up a guard for M 174
up i shall get M 170
up a trick for M 170
up a study with M 170
up a party who M 170
up a paper but M 170
up a local and M 170
up a front leg M 170
up a study and M 168
up a strong air M 168
up a small law M 168
up a river they M 168
up a model law M 168
up a large cup M 168
up a healthy boy M 168
up a white arm M 166
up a point you M 166
up a large lot M 166
up a large lead M 166
up a joint team M 166
up a black boy M 166
up a white oak M 164
up a total for M 164
up a table than M 164
up a solid are M 164
up a small job M 164
up a given area M 164
up a noise that M 163
up a basic set M 163
up a newer and M 162
up a large dry M 162
up a false set M 162
up a child can M 162
up a brief set M 162
up a whole era M 160
up a wealthy man M 160
up a judge for M 160
up a drawing that M 160
up a chain that M 160
up a crowd that M 159
up a working team M 158
up a warning that M 158
up a vision and M 158
up a slave who M 158
up a plane that M 158
up a healthy man M 158
up a drive and M 158
up a watch with M 156
up a strong set M 156
up a shape and M 156
up a power and M 156
up a light meal M 156
up a wound with M 152
up a whole bag M 152
up a right that M 152
up a plant near M 152
up a group who M 152
up a voice for M 150
up a story but M 150
up a river than M 150
up a reason that M 150
up a human head M 150
up a dialog for M 150
up a child are M 150
up a trick that M 149
up a white boy M 148
up a virus and M 148
up a store near M 148
up a route and M 148
up a rough map M 148
up a leader for M 148
up a black eye M 147
up a trend that M 146
up a track for M 146
up a small new M 146
up a lodging that M 146
up a grant for M 146
up a fight they M 146
up a chain with M 146
up a storm out M 145
up a stand that M 145
up a teaching and M 144
up a strong pro M 144
up a steady heat M 144
up a spare set M 144
up a scale that M 143
up a walking map M 142
up a small gap M 142
up a small air M 142
up a shell with M 142
up a shade and M 142
up a reply for M 142
up a large cat M 142
up a guide who M 142
up a doubt that M 142
up a style and M 140
up a total that M 138
up a story you M 138
up a ration for M 138
up a hasty and M 138
up a green one M 138
up a whole team M 136
up a value that M 136
up a storm now M 136
up a lodging for M 136
up a haven for M 136
up a first and M 136
up a cause with M 136
up i found them M 135
up a small two M 133
up a white lie M 132
up a style for M 132
up a quest for M 132
up a phone for M 132
up a given set M 132
up a block for M 132
up a basic web M 132
up a trust can M 130
up a small man M 130
up a ruler lying M 130
up a really new M 130
up a proud and M 130
up a meeting this M 130
up a judge who M 130
up a chant that M 129
up a verse and M 128
up a noise and M 128
up a loose and M 128
up a motion that M 127
up i found her M 126
up a train that M 126
up a meeting was M 126
up a whole one M 125
up a shape that M 125
up a stray bit M 124
up a search path M 124
up a large team M 124
up a label for M 124
up a cruel and M 124
up a cross that M 124
up a class act M 124
up a child has M 124
up i might but M 122
up a thriving law M 122
up a story she M 122
up a river near M 122
up a quick lie M 122
up a clock with M 122
up i really was M 121
up a voice and M 120
up a slave for M 120
up a label and M 120
up a growing and M 120
up a globe and M 120
up a chant and M 120
up a woman that M 119
up a vague but M 118
up a total sum M 118
up a moral for M 118
up a joint with M 118
up a joint for M 118
up a dialog and M 118
up a chant for M 118
up a worse man M 116
up a watch that M 116
up a vital and M 116
up a track with M 116
up a noisy and M 116
up a fixed sum M 116
up a daily and M 116
up a cloud that M 115
up i found they M 114
up a vague idea M 114
up a trail for M 114
up a story they M 114
up a round heap M 114
up a point they M 114
up a large war M 114
up a craving cry M 114
up a timer that M 113
up a short one M 113
up a strong war M 112
up a press with M 112
up a model set M 112
up a major gap M 112
up a force with M 112
up a chair sat M 112
up i found his M 111
up a working man M 110
up a whole meal M 110
up a tried and M 110
up a share for M 110
up a round sum M 110
up a fight this M 110
up a crown and M 110
up a black bag M 110
up a check that M 109
up a whole seat M 108
up a stray job M 108
up a story than M 108
up a slave and M 108
up a shade too M 108
up a large key M 108
up a child too M 108
up a child but M 108
up a chair too M 108
up a black bear M 108
up a working day M 107
up a large net M 107
up a drive that M 107
up a steady run M 106
up a ruler with M 106
up a quiet but M 106
up a graph and M 106
up a fourth man M 106
up a chair leg M 106
up a brave man M 106
up a laugh that M 105
up a small map M 104
up a rather weak M 104
up a model using M 104
up a local man M 104
up a crown for M 104
up a basic and M 104
up a train had M 102
up a sweet deal M 102
up a strong head M 102
up a large dead M 102
up a buyer and M 102
up a valid and M 100
up a tight and M 100
up a story idea M 100
up a method and M 100
up a graph for M 100
up a child not M 100
up a child may M 100
up a virus that M 99
up a large two M 99
up a whole poem M 98
up a trick and M 98
up a topic you M 98
up a sapling and M 98
up a local map M 98
up a light with M 98
up a cloud and M 98
up a class who M 98
up i might not M 97
up a graph that M 97
up a warning and M 96
up a truce for M 96
up a storm this M 96
up a print and M 96
up a point not M 96
up a paper you M 96
up a leader with M 96
up a leader and M 96
up a house seat M 96
up a harsh and M 96
up a final set M 96
up a howling that M 95
up a white box M 94
up a rough but M 94
up a people with M 94
up a panic has M 94
up a major and M 94
up a cross near M 94
up a crime and M 94
up a bunch for M 94
up a brown and M 94
up a small cut M 93
up a whole long M 92
up a timer and M 92
up a strong one M 92
up a plain old M 92
up a lucky and M 92
up a cross path M 92
up a worthy and M 90
up a small lot M 90
up a search that M 90
up a reason not M 90
up a proxy for M 90
up a fight yet M 90
up a father who M 90
up a woman you M 88
up a white heat M 88
up a white bag M 88
up a unity and M 88
up a total and M 88
up a strong lead M 88
up a strong ego M 88
up a speaking eye M 88
up a round and M 88
up a quick but M 88
up a meeting but M 88
up a large bar M 88
up a grand new M 88
up a fight not M 88
up a child they M 88
up a winding set M 87
up a paper one M 87
up a writing area M 86
up a round for M 86
up a rough idea M 86
up a morning for M 86
up a modem for M 86
up a fight are M 86
up a color and M 86
up a chair but M 86
up i found one M 85
up a wider set M 84
up a while for M 84
up a short poem M 84
up a place they M 84
up a pause with M 84
up a given job M 84
up a fight had M 84
up a story too M 82
up a quote for M 82
up a nurse for M 82
up a loose bit M 82
up a howling cry M 82
up a chair she M 82
up a whole bar M 80
up a warning for M 80
up a small dead M 80
up a really bad M 80
up a press near M 80
up a light but M 80
up a false lead M 80
up a brave old M 80
up a fourth with M 72
up i found she M 71
up a small lead M 70
up i still had M 66
up i asked for M 66
up i shall see M 56
up a draft that M 48
up a steep one M 47
up a basic law M 47
up i asked them M 46
up a color that M 45
up i found this M 43
up a logic that M 42
up a small oak M 41
up i really did M 40
up i might get M 40
up a trunk that M 40
up a table out M 40
up a reply that M 40
up a stone and D 26315
up a stick and D 20264
up a knife and D 8110
up a straw man D 6242
up a stool and D 5436
up a brush and D 5226
up a towel and D 5086
up a rifle and D 4866
up a trade with D 4200
up a glass and D 3726
up a notch and D 3560
up a spoon and D 3360
up a broom and D 3112
up a plate and D 3104
up a brand new D 2958
up a horse and D 2628
up a sword and D 2368
up a purse for D 2362
up a brick and D 2296
up a treaty with D 2220
up a basis for D 2142
up a taste for D 2112
up a smoke out D 2082
up a cigar and D 1982
up a slope and D 1869
up a parking lot D 1854
up a shout that D 1738
up i would not D 1700
up a lunch for D 1628
up a bible and D 1586
up a stone with D 1446
up a broad and D 1383
up a weapon and D 1350
up a fresh one D 1309
up a title for D 1306
up a stone for D 1280
up a scene that D 1260
up a stone that D 1256
up a spade and D 1252
up a studio and D 1236
up a shout and D 1152
up a studio for D 1142
up a rumor that D 1139
up a level and D 1130
up a straw and D 1127
up a shout for D 1122
up a sheet and D 1098
up a chart for D 1082
up a fence and D 1068
up a poker and D 1016
up a novel and D 1006
up a social and D 1002
up a chart and D 996
up a brisk and D 994
up a plate with D 980
up a stick with D 976
up a rocky path D 976
up a chart with D 966
up a torch and D 936
up a purse and D 922
up a horse for D 904
up a rapid and D 900
up a whole row D 892
up a posse and D 882
up a notch with D 868
up a stick that D 864
up a smoke and D 864
up a violin and D 862
up a chart that D 850
up a stock for D 832
up a shirt and D 810
up a plate for D 796
up a quill pen D 786
up a scene with D 776
up a truck and D 750
up a glass with D 748
up a wailing for D 736
up a trade and D 724
up a knife that D 716
up a sponge and D 700
up a pizza and D 700
up a scene and D 694
up a stool for D 692
up a march and D 688
up a wagon and D 684
up a trade that D 684
up a lather with D 684
up a trade for D 682
up a quill and D 678
up a legal pad D 678
up a throne for D 672
up a stake and D 672
up a ridge and D 666
up a fresh pot D 666
up a cargo for D 664
up a creek and D 663
up a scene for D 662
up a slope that D 649
up a shawl and D 648
up a fresh and D 642
up a scent and D 630
up a rhythm that D 629
up a large pot D 616
up a shingle and D 614
up a sheet with D 612
up a candy bar D 612
up a batch and D 606
up a staff and D 604
up a snack for D 588
up a skull and D 584
up a nation that D 577
up a coach and D 568
up a truck with D 566
up a nation and D 562
up a wagon with D 556
up a court and D 556
up a grave and D 548
up a penny and D 542
up a dance and D 542
up a teddy bear D 538
up a bench and D 538
up a dance for D 532
up a cliff and D 522
up a dozen men D 516
up a dress for D 512
up a plank and D 503
up a lunch with D 502
up a fence that D 500
up a bureau for D 494
up i would say D 488
up a drink and D 488
up a fresh set D 480
up a cabin for D 480
up a forge and D 472
up a merry peal D 471
up a drink for D 470
up a sheet for D 458
up a lunch and D 456
up a rival and D 452
up a small hut D 450
up a loyal and D 450
up a small tin D 448
up a shelf for D 446
up a sales and D 436
up a pizza for D 436
up a batch for D 434
up a small jar D 432
up a grade and D 430
up a small vial D 421
up a rifle that D 421
up a ridge that D 421
up a syringe and D 418
up a hobby that D 415
up a slate and D 414
up i would see D 411
up a rupee and D 410
up a slope with D 409
up a steady jog D 408
up a rhythm and D 406
up a hotel and D 406
up a dress and D 402
up a studio with D 400
up a stony path D 399
up a stall and D 394
up a knife with D 394
up a treaty for D 392
up a title and D 388
up a brick with D 386
up a cabin and D 384
up a court for D 382
up a snake and D 380
up a creek that D 378
up a rolling pin D 377
up a glass jar D 366
up a swept and D 364
up a spray that D 356
up a brush for D 356
up a staging area D 352
up a glass that D 348
up a sword that D 347
up a horse that D 346
up a weeping and D 344
up a razor and D 344
up a punch and D 344
up a score with D 343
up a tasty meal D 342
up a stick for D 342
up a dress that D 338
up a stick lying D 336
up a small pot D 336
up a score for D 336
up a lather and D 336
up a notch for D 334
up a flare and D 334
up a dirty rag D 330
up a straw hat D 324
up a trash can D 322
up a sharp and D 320
up a glass for D 318
up a dozen new D 318
up a dance with D 318
up a stair and D 317
up a pilot and D 316
up a treaty that D 315
up a dowry for D 314
up a creed for D 314
up a creek bed D 311
up a sport that D 310
up a fishing rod D 308
up a mound and D 306
up a stove and D 304
up a stout and D 302
up a stiff and D 298
up a slice and D 298
up a leather bag D 298
up a folding cot D 298
up a fence for D 298
up a sandy way D 296
up a large bed D 296
up a fleet and D 294
up a salad and D 290
up a torch for D 286
up a glove and D 286
up a tower and D 284
up a thirst for D 284
up a novel that D 282
up a depot for D 282
up a horse with D 280
up a field gun D 276
up a paved path D 274
up a wheel and D 272
up a stock and D 272
up a motor car D 272
up a league with D 272
up a shawl that D 270
up a gully and D 270
up a flute and D 269
up a bible that D 269
up a shack and D 268
up a lance and D 268
up a small sub D 267
up a sales tax D 266
up a bluff and D 266
up a penny for D 264
up a fruit and D 264
up a fresh egg D 264
up a stalk and D 262
up a stall for D 260
up a stone path D 258
up a lofty and D 258
up a flame that D 258
up a broad path D 258
up a steep ice D 257
up a stream bed D 256
up a water bath D 254
up a staff for D 254
up a broad new D 254
up a galling and D 252
up a debit and D 252
up a crate and D 252
up a photo and D 250
up a lemon and D 250
up a scarf and D 248
up a river bed D 247
up a panel for D 246
up a guinea pig D 245
up a treaty and D 244
up a lynch mob D 244
up a buggy and D 244
up a broad area D 244
up a waltz and D 242
up a title that D 242
up a feather and D 242
up a court with D 242
up a weapon that D 240
up a novel for D 240
up a staff that D 238
up a rigid and D 238
up a muddy path D 238
up a camel and D 238
up a cable and D 236
up a shirt that D 229
up a creek with D 229
up a panel that D 228
up a blank with D 228
up a writing pad D 226
up a rainy day D 226
up a faint and D 226
up a vista for D 224
up a ranch and D 224
up a small lab D 222
up a rhyme for D 222
up a quota for D 222
up a brisk but D 222
up i would get D 220
up a paper fan D 220
up a forge for D 220
up a pants leg D 218
up a trading and D 216
up a stump and D 216
up a nation with D 216
up a couch for D 216
up a hotel for D 214
up a small car D 212
up a teacup and D 210
up a ladle and D 210
up a fresh war D 210
up a small oil D 208
up a routing and D 208
up a smooth and D 207
up a sheet that D 207
up a rocky and D 206
up a water jug D 204
up a slide and D 204
up a panel with D 204
up a healthy lad D 204
up a fresh team D 204
up a stack and D 202
up a sheep and D 202
up a savings and D 202
up a pound and D 202
up a grade with D 200
up a spare bed D 199
up a court that D 199
up a merry song D 198
up a large jar D 198
up a grain and D 198
up a gourd and D 198
up a brand and D 198
up a wagon for D 196
up a rusty old D 196
up a stamp and D 194
up a crumb that D 194
up a wailing and D 192
up a nation are D 192
up a metal box D 192
up a flint and D 192
up a region that D 190
up a large per D 190
up a fence with D 190
up a towel that D 189
up a rival for D 188
up a large oil D 187
up a spray can D 186
up a slate for D 184
up a rhythm with D 184
up a rhythm for D 184
up a mouse and D 184
up a cliff that D 184
up a pilot who D 182
up a metal bar D 182
up a fresh lot D 182
up a chunk and D 182
up a spade that D 181
up a plate that D 181
up a shiny new D 180
up a dummy and D 180
up a large tin D 178
up a dance that D 177
up a score and D 176
up a cargo and D 176
up a black ace D 176
up a throne and D 174
up a steady hum D 174
up a dozen old D 174
up a slope than D 173
up a broom that D 173
up a studio near D 172
up a slide with D 172
up a pilot for D 172
up a mound for D 172
up a metal rod D 172
up a state oil D 170
up a spoon with D 170
up a scent that D 168
up a local bus D 168
up a skirt and D 166
up a rigid set D 166
up a fleet for D 166
up a banjo and D 166
up a stone off D 165
up a score that D 165
up a drink with D 164
up a brick path D 164
up a rifle with D 162
up a quilt and D 162
up a basin and D 162
up a slide that D 161
up a novel she D 160
up a laser beam D 160
up a feint with D 160
up a dress she D 160
up a slope for D 158
up a skull with D 158
up a panel and D 158
up a hobby and D 158
up a flask and D 158
up a stink and D 156
up a staff with D 156
up a scene not D 156
up a motto for D 156
up a major oil D 156
up a clump and D 156
up a cigar box D 156
up a blank and D 156
up a steady din D 154
up a novel with D 154
up a hearty meal D 154
up a faint but D 154
up a dress with D 154
up a gully that D 153
up a wailing cry D 152
up a stake for D 152
up a maple leaf D 152
up a small bed D 151
up a towel with D 150
up a small fan D 150
up a niche for D 150
up a green leaf D 150
up a fresh bed D 150
up a fancy for D 150
up a whore and D 148
up a shelf and D 148
up a rival one D 148
up a knife lying D 148
up a cliff with D 148
up a ditch and D 147
up a creek for D 147
up a triage area D 146
up a stone lying D 146
up a steel bar D 146
up a spill and D 146
up a shirt for D 146
up a setting for D 146
up a sandy path D 146
up a puppy and D 146
up a potion that D 146
up a movie for D 146
up a fleet with D 146
up a flame with D 146
up a sober and D 144
up a large pan D 144
up a sloping path D 143
up a crest and D 143
up a vista that D 142
up a faint cry D 142
up a dozen and D 142
up a dirty old D 142
up a brush with D 142
up a cigar that D 141
up a scythe and D 140
up a dense and D 140
up a bagel and D 138
up a macro that D 137
up a white rag D 136
up a sword for D 136
up a queue for D 136
up a purse that D 136
up a grave for D 136
up a blade and D 136
up a sport for D 134
up a shack for D 134
up a bluff that D 134
up a bench for D 134
up a swift and D 133
up a feather bed D 133
up a venue for D 132
up a social bar D 132
up a nation out D 132
up a fresh new D 132
up a drunk who D 132
up a dense fog D 132
up a taunt song D 130
up a sword with D 130
up a small bead D 130
up a novel way D 130
up a weird and D 128
up a sport and D 128
up a grade that D 128
up a whole gang D 126
up a towel for D 126
up a spoon that D 126
up a silly song D 126
up a shoot and D 126
up a movie and D 126
up a jolly old D 126
up a cargo net D 125
up a syringe with D 124
up a scream and D 124
up a salad for D 124
up a rifle for D 124
up a manly and D 124
up a brick that D 123
up a yawning gap D 122
up a stick big D 122
up a smart and D 122
up a small thin D 122
up a small rug D 122
up a shirt with D 122
up a penny with D 122
up a hardy and D 122
up a frank and D 122
up a brisk air D 122
up a torch that D 121
up a glove that D 121
up a spell and D 120
up a melon and D 120
up a flame and D 120
up a bidding war D 120
up a level with D 119
up a whole pot D 118
up a stern and D 118
up a small art D 118
up a plank with D 118
up a pilot off D 118
up a large jug D 118
up a glass vial D 118
up a fishing net D 118
up a cigar with D 118
up a brass nut D 118
up a swell and D 117
up a trade but D 116
up a stone near D 116
up a steaming cup D 116
up a small wad D 116
up a siege for D 116
up a shaft had D 116
up a salon for D 116
up a ridge with D 116
up a press kit D 116
up a naval and D 116
up a large mug D 116
up a bureau and D 116
up a brass lid D 116
up a small gas D 115
up a truck that D 114
up a stray leaf D 114
up a stool near D 114
up a spill with D 114
up a small axe D 114
up a ranch near D 114
up a light beam D 114
up a kitty for D 114
up a batch that D 114
up a badge and D 114
up a yelling and D 112
up a tower that D 112
up a slate with D 112
up a shiny red D 112
up a rival gang D 112
up a large fan D 112
up a crude and D 112
up a bobby pin D 112
up a banking and D 112
up a snake that D 110
up a snack bar D 110
up a snack and D 110
up a saint fit D 110
up a lusty cry D 110
up a large leaf D 110
up a flare for D 110
up a cooking pot D 110
up a shaft and D 109
up a motif that D 109
up a fleet that D 109
up a chute and D 109
up a whole pew D 108
up a trash bag D 108
up a grist and D 108
up a dummy for D 108
up a broad set D 108
up a beacon for D 108
up a hedge and D 107
up a whale for D 106
up a strip and D 106
up a sport you D 106
up a salad bar D 106
up a rifle lying D 106
up a peanut and D 106
up a paste with D 106
up a lucid and D 106
up a lever and D 106
up a front paw D 106
up a flame for D 106
up a ditch for D 106
up a black guy D 106
up a photo that D 105
up a wailing that D 104
up a teapot and D 104
up a steep brae D 104
up a solar year D 104
up a small shoe D 104
up a small rod D 104
up a skull that D 104
up a scrap with D 104
up a fresh idea D 104
up a cushy job D 104
up a crumb and D 104
up a psalm that D 103
up a violin for D 102
up a tower for D 102
up a studio that D 102
up a stout old D 102
up a stake that D 102
up a peanut with D 102
up a nesting box D 102
up a league and D 102
up a fresh area D 102
up a crude but D 102
up a crazy hut D 102
up a couch and D 102
up a whole car D 100
up a whole bed D 100
up a smell that D 100
up a quart jar D 100
up a nation for D 100
up a dozen red D 100
up a brush that D 100
up a braying and D 100
up a scream that D 99
up a folding bed D 99
up a whole pig D 98
up a thirst and D 98
up a taper and D 98
up a spell for D 98
up a small pad D 98
up a grave with D 98
up a flute with D 98
up a jungle gym D 97
up a drill and D 97
up a salad with D 96
up a level for D 96
up a knife for D 96
up a hotel with D 96
up a cabin near D 96
up a speed that D 95
up a timid and D 94
up a small gun D 94
up a novel idea D 94
up a glass rod D 94
up a dusty path D 94
up a bypath near D 94
up a bible for D 94
up a running gag D 93
up a viewing area D 92
up a stiff but D 92
up a steaming pot D 92
up a stall with D 92
up a rival who D 92
up a pinch and D 92
up a hearty and D 92
up a gavel and D 92
up a dozen for D 92
up a coach with D 92
up a blaze that D 92
up a batch with D 92
up a stool that D 91
up a thesis and D 90
up a snail and D 90
up a rivet with D 90
up a purse with D 90
up a potion for D 90
up a mound with D 90
up a hobby you D 90
up a fresh head D 90
up a flask with D 90
up a fishing and D 90
up a whoop and D 88
up a savior for D 88
up a level two D 88
up a grill and D 88
up a ghost for D 88
up a dreary one D 88
up a combo box D 88
up a china cup D 88
up a chasm for D 88
up a tower with D 87
up a steel rod D 86
up a stalk with D 86
up a rhyme and D 86
up a plank that D 86
up a paint job D 86
up a motor and D 86
up a lunch box D 86
up a green bean D 86
up a grape and D 86
up a beaker and D 86
up a knoll and D 85
up a token for D 84
up a tired old D 84
up a stone but D 84
up a small keg D 84
up a skirt that D 84
up a shoot for D 84
up a shelf with D 84
up a rusty and D 84
up a round tin D 84
up a region for D 84
up a march for D 84
up a large wad D 84
up a glory gay D 84
up a dreary day D 84
up a chick and D 84
up a canon singing D 84
up a black pen D 84
up a small leaf D 83
up a cliff path D 83
up a thrush that D 82
up a steer and D 82
up a shiny tin D 82
up a shaft with D 82
up a rusty tin D 82
up a perch and D 82
up a minor but D 82
up a ghost and D 82
up a barge with D 82
up a swell that D 81
up a weapon for D 80
up a vogue for D 80
up a theater and D 80
up a strap and D 80
up a stick off D 80
up a screw and D 80
up a rally for D 80
up a patch for D 80
up a dusty old D 80
up a dried leaf D 80
up a ditch with D 80
up a baton and D 80
up a stock that D 51
up a drink that D 51
up i would put D 50
up a pitch that D 49
up a thesis that D 48
up a stick out D 48
up a spell that D 45
up a sheep run D 45
up a rhyme that D 45
up a creek near D 43
up a setting that D 42
up a gulch and D 42
up a fresh six D 42
up a naval air D 41
up a brook that D 41
up a chasm that D 40
