up to within a M 36898
up to about a M 18617
up to where i M 16998
up so large a M 12065
up the river a M 9741
up to create a M 9627
up to quite a M 7882
up to reveal a M 7872
up the phone i M 4854
up to catch a M 4283
up to which a M 3583
up in about a M 3485
up to where a M 3276
up to build a M 3255
up in which a M 3025
up to nearly a M 2868
up as large a M 2713
up to write a M 2675
up the river i M 2659
up to serve a M 2617
up in quite a M 2612
up the coast a M 2466
up to point a M 2397
up to spend a M 2318
up to watch a M 2131
up of about a M 2050
up as though i M 2048
up the trail a M 2032
up to cover a M 2031
up to start a M 1995
up on finding a M 1958
up to allow a M 1897
up the phone a M 1890
up to offer a M 1850
up the stream a M 1846
up the place a M 1846
up to draft a M 1843
up as though a M 1716
up the house a M 1706
up the steps i M 1698
up in writing a M 1646
up to marry a M 1644
up to twice a M 1606
up to fetch a M 1603
up to heaven a M 1551
up to avoid a M 1536
up by creating a M 1504
up at about a M 1433
up by sending a M 1431
up to light a M 1389
up to which i M 1333
up to place a M 1289
up the money i M 1280
up so strong a M 1140
up to about i M 1130
up to while i M 1129
up by writing a M 1125
up so small a M 1057
up to fight a M 1051
up to yield a M 1027
up to claim a M 1012
up to enjoy a M 997
up by putting a M 979
up in store a M 958
up in either a M 955
up to touch a M 954
up to period t M 945
up by about a M 944
up as either a M 915
up to begin a M 910
up in which i M 873
up the steps a M 855
up as strong a M 842
up in rather a M 810
up to solve a M 804
up on board a M 801
up to greet a M 792
up by running a M 791
up to heaven i M 789
up the track a M 779
up to since i M 774
up to enter a M 773
up of which i M 744
up to writing a M 721
up to carry a M 721
up the trail i M 710
up of either a M 709
up to plant a M 689
up to either a M 684
up by quite a M 676
up to cause a M 675
up by getting a M 663
up to share a M 659
up he found a M 654
up on getting a M 651
up by passing a M 649
up to visit a M 648
up the water a M 633
up is still a M 632
up in getting a M 590
up to block a M 577
up we found a M 576
up of quite a M 571
up the drive i M 570
up by drawing a M 566
up to raise a M 559
up is often a M 549
up at night i M 534
up the story a M 533
up by either a M 530
up to today i M 525
up at point a M 515
up the books i M 505
up to order a M 501
up the paper i M 498
up to change a M 494
up the block a M 481
up by forming a M 468
up to press a M 465
up the house i M 463
up the aisle a M 460
up the scale a M 454
up by finding a M 446
up the coast i M 442
up the water i M 440
up by which a M 427
up in heaven a M 425
up to grasp a M 421
up to study a M 420
up the woman i M 418
up the stream i M 414
up the price a M 414
up by quoting a M 413
up to frame a M 410
up the words i M 408
up on quite a M 408
up by holding a M 404
up to drive a M 398
up by playing a M 396
up by nearly a M 396
up by force a M 392
up so tight i M 389
up to preach a M 386
up the notes i M 385
up to close a M 382
up in front a M 378
up the point i M 374
up to running a M 369
up or after a M 368
up as quite a M 364
up in creating a M 361
up the story i M 354
up on which i M 354
up to prove a M 351
up the drive a M 351
up at first a M 348
up the night i M 341
up is really a M 340
up to found a M 338
up at quite a M 338
up the aisle i M 328
up to force a M 321
up the stuff i M 318
up the world a M 317
up to check a M 313
up to about t M 312
up so happy a M 312
up to maybe a M 309
up is quite a M 309
up the sound a M 306
up the sides a M 306
up the people i M 299
up on which a M 297
up or which i M 295
up by turning a M 295
up at times a M 294
up so steep a M 292
up to defeat a M 291
up the place i M 285
up to point d M 280
up to anything i M 276
up at night a M 273
up the while a M 272
up of nearly a M 272
up on either a M 271
up to house a M 268
up on paper a M 268
up or alter a M 264
up the field a M 261
up so badly i M 260
up the engine a M 258
up the piece i M 254
up to await a M 251
up or shall i M 251
up to people i M 248
up the model t M 248
up an image i M 248
up the paper a M 247
up the track i M 246
up or running a M 244
up to board a M 243
up so noble a M 242
up to getting a M 237
up at where i M 236
up to until i M 235
up to forty a M 232
up in forming a M 232
up on anything i M 230
up to creating a M 227
up the block i M 226
up to playing a M 225
up by calling a M 225
up to adopt a M 221
up to admit a M 220
up as small a M 220
up by keeping a M 213
up by signing a M 210
up the music a M 205
up so sweet a M 202
up to erect a M 200
up it about a M 200
up to rather a M 198
up at point d M 195
up to print a M 193
up or change a M 193
up the trunk a M 190
up by cutting a M 190
up by pushing a M 188
up in finding a M 186
up to stage a M 185
up to holding a M 185
up to cross a M 183
up or create a M 179
up to apply a M 177
up in nearly a M 177
up by pulling a M 174
up to seize a M 173
up by showing a M 172
up by opening a M 171
up the space i M 170
up to utter a M 169
up to issue a M 169
up to fifty a M 169
up the pages i M 168
up to please a M 166
up the blind a M 166
up as rather a M 165
up in under a M 164
up the hours i M 162
up by killing a M 162
up the walls a M 161
up by which i M 161
up the world i M 160
up on about a M 158
up the edges a M 156
up it takes a M 155
up the fight a M 151
up in table i M 151
up by hitting a M 151
up the issue a M 149
up the floor a M 149
up en route a M 148
up the point a M 147
up on where i M 147
up to stand a M 146
up so close i M 146
up it makes a M 146
up by causing a M 146
up the image a M 145
up on creating a M 145
up the hills i M 141
up the hills a M 141
up to seven i M 140
up so close a M 140
up it until i M 140
up by joining a M 140
up to chase a M 139
up as close a M 138
up in anything i M 137
up to train a M 136
up to thirty a M 136
up the light a M 136
up the chair i M 136
up the items i M 135
up to match a M 134
up the fight i M 134
up in others a M 134
up by selling a M 134
up the action a M 132
up by sharing a M 132
up as under a M 132
up to eight a M 131
up by pouring a M 131
up my hands i M 130
up by raising a M 130
up on stage i M 129
up so quick i M 128
up in heaven i M 128
up to keeping a M 126
up to honor a M 126
up as brave a M 126
up to women a M 125
up to breathe a M 125
up the train i M 125
up it forms a M 124
up to walking a M 123
up to order s M 123
up is rather a M 123
up so easily a M 122
up in haste a M 121
up to others a M 118
up to finding a M 118
up to eight i M 118
up the plane a M 118
up an evening a M 118
up to guide a M 117
up the facts a M 117
up of which a M 116
up the sleep i M 114
up is given a M 114
up in running a M 114
up he wrote a M 114
up to after a M 113
up the blood i M 112
up so grand a M 112
up on people i M 112
up by working a M 112
up as usual a M 111
up the image i M 110
up so brave a M 110
up if given a M 110
up to trace a M 108
up to climb a M 108
up the table a M 108
up the files i M 107
up in front i M 107
up on reaching a M 106
up to gather a M 104
up so often i M 104
up in passing a M 104
up the tools i M 102
up to about d M 101
up the words a M 101
up or given a M 101
up the search i M 100
up the people a M 100
up the hands a M 100
up or missing a M 100
up in price a M 100
up in class i M 100
up as steady a M 100
up to guard a M 98
up the stage i M 98
up the chase a M 98
up in array a M 98
up the threads i M 96
up the stage a M 96
up the rocks a M 96
up the holes i M 96
up at nearly a M 96
up by winning a M 95
up the chain a M 94
up of people i M 94
up my paper i M 94
up in class a M 94
up as worthy a M 94
up is about a M 92
up to equal a M 91
up or write a M 91
up my notes i M 90
up on after a M 89
up or joining a M 88
up of creating a M 88
up the plans i M 87
up by forcing a M 87
up the topic i M 86
up in space a M 86
up or creating a M 85
up the others a M 84
up so vivid a M 84
up to sixty a M 83
up in playing a M 83
up the space a M 82
up the meeting i M 82
up the cross i M 82
up in after a M 82
up by people i M 82
up the state i M 80
up the habit i M 80
up no longer a M 80
up to class a M 79
up he takes a M 68
up to repeat a M 61
up or makes a M 61
up to meeting a M 59
up to argue a M 58
up to about s M 55
up to people a M 51
up or build a M 51
up is never a M 51
up to engage a M 50
up it gives a M 50
up he spent a M 50
up to sending a M 49
up to putting a M 49
up to forming a M 46
up to exact a M 46
up to evoke a M 46
up or start a M 46
up to preach i M 45
up or cause a M 45
up to anything a M 44
up by fitting a M 44
up at which a M 44
up to cheer a M 43
up or getting a M 43
up to stealing a M 42
up to seven a M 42
up is either a M 42
up to knock a M 41
up to feeling a M 41
up the sound i M 41
up to spread a M 40
up or putting a M 40
up he makes a M 40
up the creek a D 1747
up the slope a D 1642
up by placing a D 1584
up to brush a D 1234
up the slope i D 874
up the stair i D 837
up by throwing a D 623
up to drink a D 618
up the shore a D 586
up to shoot a D 582
up to pluck a D 529
up the ridge a D 480
up in china a D 446
up the score a D 444
up to dance a D 418
up the ghost a D 404
up so galling a D 398
up so brisk a D 380
up to speed a D 354
up by telling a D 318
up by issuing a D 312
up the tempo a D 308
up the creek i D 304
up to smoke a D 302
up the speed a D 273
up in court a D 268
up in smoke a D 261
up to smooth a D 251
up in japan a D 239
up the ridge i D 234
up the folks i D 232
up the cliff a D 228
up on shore a D 225
up the crick a D 214
up to pitch a D 213
up so lofty a D 186
up the canon a D 185
up as brisk a D 182
up to scorn a D 180
up to mount a D 176
up the brook a D 175
up by setting a D 173
up to slant a D 172
up to shake a D 171
up the ghost i D 167
up the reins a D 163
up to repel a D 161
up the bills i D 160
up the scene a D 159
up my heels a D 158
up my boots a D 158
up by driving a D 158
up the novel i D 156
up my rifle i D 154
up so stout a D 152
up the shaft a D 145
up we reared a D 138
up the glass i D 137
up the brook i D 136
up to speed i D 135
up the canal a D 134
up as smart a D 134
up to crush a D 132
up the stair a D 131
up the gully a D 130
up the bible i D 130
up at sight a D 130
up the cabin a D 129
up to excel a D 128
up the slack i D 127
up the slack a D 126
up in court i D 125
up in knots i D 124
up the spout a D 122
up in smoke i D 122
up the alley a D 120
up by rubbing a D 118
up in fancy a D 116
up the gorge i D 114
up the cliff i D 114
up as would a D 113
up the knife i D 110
up the dress i D 110
up my plate i D 110
up by levying a D 108
up my pants i D 106
up by dancing a D 105
up to mimic a D 104
up the rifle i D 104
up the knife a D 104
up on poles a D 104
up my spine i D 104
up by mailing a D 104
up by digging a D 102
up the rigging a D 101
up the stone i D 100
up in digging a D 100
up the ditch a D 99
up as stiff a D 98
up we mount a D 97
up to chuck a D 97
up the horse i D 96
up to driving a D 95
up the sheet i D 94
up my horse i D 94
up so stiff a D 92
up by staging a D 91
up or drill a D 90
up to avert a D 88
up to adorn a D 88
up the nation s D 86
up by renting a D 85
up the glass a D 84
up my glass i D 84
up in driving a D 84
up as rapid a D 84
up to paint a D 80
up the bluff a D 70
up to score a D 58
up the gulch a D 55
up the stair s D 51
up to march i D 50
up to punch a D 49
up to stick a D 48
up the grade a D 48
up to shout a D 47
up to elect a D 47
up the tower a D 46
up the gorge a D 46
up the alley i D 45
up or changing a D 41
