up with all sorts M 18794
up with both hands M 16499
up men and women M 13199
up with his hands M 12066
up with him again M 11199
up now and again M 11183
up day and night M 9760
up and try again M 9721
up with his father M 9189
up both his hands M 8915
up with you later M 8426
up for six months M 8180
up and was about M 7950
up our own minds M 7838
up with his mother M 7771
up for two hours M 7215
up with her mother M 7134
up and fly right M 6727
up with her again M 5909
up his head again M 5834
up with them again M 5611
up with his right M 5379
up its own rules M 5314
up for two weeks M 5254
up and ran after M 5240
up with her father M 4876
up for his first M 4462
up with her hands M 4435
up and she could M 4292
up with his usual M 4249
up for two months M 4049
up for six weeks M 3877
up with his class M 3750
up with him after M 3525
up and they could M 3497
up with him until M 3396
up with this stuff M 3196
up each and every M 3145
up for any reason M 3123
up and you could M 3072
up for his father M 3064
up both her hands M 3056
up with him later M 3039
up all that night M 2946
up her head again M 2944
up and his hands M 2848
up all his money M 2750
up for that which M 2733
up with his whole M 2695
up that they could M 2680
up his own house M 2640
up not long after M 2613
up with you again M 2509
up with them later M 2481
up with his first M 2437
up with that which M 2436
up his own rules M 2370
up and was looking M 2311
up all they could M 2289
up with his books M 2184
up his own power M 2178
up with his trunk M 2173
up big and strong M 2152
up for her first M 2106
up with them until M 2104
up all that stuff M 2030
up for his people M 1995
up with her right M 1993
up and see where M 1965
up and off again M 1948
up with them after M 1942
up for her mother M 1923
up his own party M 1922
up all one night M 1902
up with her after M 1899
up that she could M 1859
up and put under M 1837
up with her until M 1814
up its head again M 1802
up one year later M 1801
up all this stuff M 1767
up with this woman M 1756
up for one reason M 1689
up his own small M 1674
up his two hands M 1650
up and her hands M 1641
up and put aside M 1622
up that they might M 1620
up and his voice M 1582
up with him while M 1573
up for that night M 1572
up his own kingdom M 1567
up and was walking M 1561
up for his mother M 1560
up and out again M 1559
up with her later M 1551
up his own money M 1527
up with her first M 1511
up for our first M 1505
up with this place M 1500
up and set about M 1492
up with that stuff M 1486
up that you could M 1468
up with them about M 1445
up and set aside M 1413
up for her father M 1407
up with that woman M 1405
up and read aloud M 1402
up and she began M 1386
up and ran again M 1380
up and was sitting M 1364
up with this story M 1350
up his own plans M 1328
up and they began M 1326
up his own views M 1322
up with this state M 1321
up his own image M 1316
up and was still M 1309
up his own press M 1306
up and run after M 1277
up with his people M 1272
up for one night M 1250
up for its first M 1246
up her own child M 1230
up all that money M 1230
up with this world M 1228
up with him about M 1224
up his own hands M 1222
up his head after M 1220
up his own words M 1208
up with her class M 1207
up with her usual M 1206
up with this whole M 1196
up that she might M 1183
up and was holding M 1173
up our own rules M 1148
up with his older M 1120
up for his final M 1116
up with you after M 1111
up and had taken M 1108
up off his chair M 1107
up one day after M 1083
up with him every M 1081
up with this group M 1080
up all his hopes M 1074
up with her every M 1067
up and say anything M 1065
up for that reason M 1063
up with our hands M 1051
up her two hands M 1044
up all that makes M 1039
up and going about M 1028
up for this reason M 1026
up for six hours M 1023
up and see about M 1021
up his own story M 1018
up all that could M 1009
up for this evening M 995
up and let loose M 994
up with two others M 989
up for this study M 980
up and her voice M 969
up his own place M 962
up all his plans M 956
up for air after M 949
up his head above M 938
up her own house M 931
up his own cross M 928
up our own lives M 920
up and was running M 911
up and then began M 904
up with his party M 902
up his own group M 902
up and was waiting M 896
up and are still M 896
up and going again M 895
up air and water M 893
up with his sense M 887
up and with which M 876
up and his mother M 868
up all our money M 865
up does not occur M 860
up with her child M 859
up and ask about M 857
up and was given M 852
up and that which M 852
up any and every M 850
up with its mother M 849
up its own state M 842
up with this feeling M 840
up for its final M 837
up with them while M 833
up for its small M 831
up with you today M 826
up and run again M 820
up with two hands M 818
up with her about M 812
up his dry cleaning M 812
up for this class M 811
up and was getting M 809
up with our sense M 806
up and was blowing M 805
up and then stood M 805
up and for which M 801
up with this notion M 797
up and you might M 797
up with his group M 793
up for this meeting M 792
up for air until M 788
up with this change M 784
up and her mother M 779
up with any reason M 778
up all his reason M 778
up and was taken M 775
up for that first M 771
up its own house M 770
up and lay still M 768
up but she could M 762
up with her older M 758
up all too often M 755
up one year after M 752
up his head since M 750
up all his goods M 749
up for all sorts M 744
up she was still M 729
up with this growth M 724
up all her money M 723
up with her easily M 722
up with his strong M 712
up its own power M 710
up his own people M 708
up and run about M 702
up with this trend M 701
up for his right M 698
up with his words M 697
up with new names M 694
up with new forms M 692
up with his front M 692
up and his father M 691
up his own sense M 688
up for his small M 687
up and had begun M 687
up and ran about M 686
up with him first M 684
up all his spare M 684
up for long hours M 683
up and not knowing M 682
up with that bunch M 680
up his own claim M 678
up for this morning M 673
up its own local M 672
up for two miles M 672
up for him after M 672
up its head above M 671
up our own house M 666
up his own right M 661
up with two older M 658
up with that story M 658
up for him every M 658
up and she found M 658
up with things which M 656
up her own rules M 654
up for that evening M 653
up all his books M 648
up his own world M 646
up for him again M 645
up and read about M 639
up with and which M 638
up and his whole M 631
up for each group M 630
up his cup again M 628
up for each class M 627
up her head after M 626
up and they found M 626
up with two large M 624
up with one which M 624
up with him right M 623
up for this event M 623
up with new words M 620
up with his daily M 619
up does not appear M 619
up for you right M 618
up his own share M 617
up with that child M 615
up with her while M 614
up off that floor M 614
up her long black M 612
up for you while M 612
up with its first M 609
up for his class M 609
up all our power M 609
up his own child M 605
up for air again M 605
up his old habit M 602
up with our lives M 601
up all his power M 601
up with any money M 594
up her dry cleaning M 593
up and she stood M 593
up and then start M 592
up with his power M 591
up with his music M 591
up for two whole M 590
up for each child M 590
up with his views M 586
up with his share M 580
up things and putting M 580
up with two women M 579
up law and order M 578
up with that crowd M 577
up with our first M 573
up and they never M 573
up and they moved M 573
up his head while M 572
up with that money M 571
up with long hours M 571
up with his small M 570
up all this money M 565
up and how often M 564
up with our whole M 563
up his own store M 563
up for this group M 562
up and ran round M 562
up with his guide M 560
up with him night M 558
up for air every M 556
up off her chair M 555
up with one voice M 554
up his own cause M 554
up his son after M 552
up and was quite M 552
up all things under M 552
up all that comes M 552
up and then asked M 551
up all she could M 550
up with two major M 549
up this way again M 547
up for him until M 547
up with his money M 545
up his own phone M 544
up with two small M 542
up with two people M 538
up this bad habit M 538
up with this bunch M 537
up with its usual M 535
up our own cross M 534
up for our meeting M 530
up for any given M 530
up and out until M 529
up and now stood M 529
up with his vision M 526
up with his enemy M 525
up and they start M 524
up that you might M 523
up his own paper M 520
up and saw father M 520
up his own father M 519
up and she asked M 519
up with its trunk M 518
up and then again M 518
up and goes about M 517
up with and loved M 516
up for this delay M 516
up and got under M 512
up with its growth M 511
up and she moved M 511
up all that space M 510
up all our lives M 510
up his own label M 508
up and then sitting M 507
up with our daily M 506
up with his field M 504
up for you again M 503
up her own small M 500
up and bring about M 500
up but was still M 499
up and was saved M 498
up with his large M 497
up with his writing M 494
up its own armed M 494
up who had never M 493
up and had lived M 493
up with this method M 492
up its own plans M 492
up and you start M 492
up for ten hours M 491
up and then falling M 491
up with two pairs M 490
up with this morning M 486
up with one large M 486
up with its roots M 482
up our own wills M 482
up with him easily M 480
up his long white M 480
up with all haste M 479
up with this issue M 478
up his bag again M 476
up for him while M 476
up and you never M 476
up for this later M 473
up his head under M 470
up with her whole M 469
up his own blood M 469
up his own chair M 468
up her own words M 468
up and let people M 466
up for not knowing M 465
up and she never M 465
up with any woman M 464
up that one could M 464
up with our people M 462
up with his abuse M 462
up his own logic M 462
up with both sides M 461
up with all hands M 457
up his own mother M 457
up and get right M 457
up and they stood M 456
up with him since M 455
up for his morning M 455
up with his longer M 454
up and get under M 454
up with each passing M 453
up with you every M 450
up all his stuff M 450
up with one woman M 448
up with two names M 446
up this new field M 444
up for his short M 444
up with this image M 443
up all his debts M 443
up with its hands M 442
up for each major M 442
up with his force M 441
up with its front M 440
up one day while M 440
up his song again M 440
up with his story M 438
up for this world M 438
up and they asked M 435
up all our stuff M 435
up with two black M 434
up with any proof M 434
up with this piece M 431
up with this every M 430
up with you until M 429
up that way again M 429
up this new world M 428
up now and began M 428
up her cup again M 426
up for this lapse M 426
up with you people M 425
up and was never M 425
up with our needs M 423
up with and still M 422
up with all types M 422
up its own world M 421
up and sit still M 421
up and she tried M 421
up did not occur M 420
up with you right M 419
up this idea again M 418
up and his right M 417
up and her father M 417
up and its parts M 416
up with new force M 415
up with new plans M 414
up with his thinking M 412
up with his dreams M 412
up that for which M 412
up with one short M 410
up with his white M 410
up for that period M 409
up for not getting M 409
up for each state M 409
up and was putting M 407
up his long black M 406
up all his earthly M 406
up with you while M 405
up with them every M 405
up for his cause M 404
up does not allow M 403
up with his drawn M 402
up with any names M 402
up with his pride M 400
up that old house M 400
up for this kingdom M 400
up for his shift M 400
up and see which M 399
up and saw where M 399
up and ran under M 398
up and doing again M 398
up with that awful M 396
up his own works M 396
up her own place M 396
up and are about M 396
up things that might M 394
up then and began M 393
up for his share M 393
up and sat looking M 393
up all year round M 393
up his new abode M 392
up and all hands M 391
up with her books M 390
up her own story M 390
up with his quick M 389
up all for which M 388
up that old story M 387
up not doing anything M 386
up his own music M 386
up and set apart M 385
up all our plans M 385
up with two basic M 384
up all too easily M 384
up with his plans M 383
up with his black M 383
up red and green M 383
up her old place M 380
up with his light M 379
up and was found M 378
up her own money M 377
up for you today M 377
up with his blood M 375
up for you after M 375
up for that class M 375
up was too short M 374
up and then moved M 374
up does not change M 373
up and then comes M 373
up this old house M 372
up her own plans M 372
up and doing while M 372
up with her large M 371
up for his error M 370
up with his notion M 369
up and was working M 369
up and sat still M 369
up with them first M 367
up and was turning M 367
up man and woman M 366
up but not quite M 366
up with her trunk M 365
up with one small M 364
up with one group M 364
up with new rules M 364
up with his grief M 364
up and then taken M 363
up with that sense M 362
up with that first M 362
up with that feeling M 362
up with our growth M 362
up and you begin M 362
up with this first M 361
up for his daily M 361
up her long white M 360
up with his sleep M 359
up and may cause M 359
up with him under M 358
up was all about M 358
up and lie still M 358
up and all sorts M 358
up for his lapse M 357
up and they might M 357
up and his smile M 357
up and had never M 356
up and they headed M 355
up with him where M 353
up and one could M 353
up his own style M 352
up all and every M 352
up and then drive M 351
up all that often M 351
up his own fraud M 350
up for her after M 350
up for dead after M 350
up with far worse M 349
up his own state M 349
up all our hopes M 349
up for this period M 348
up and then tried M 348
up and its place M 348
up with his train M 346
up and read again M 346
up and let others M 346
up with any solid M 344
up with any clues M 344
up old and alone M 344
up his own order M 344
up his own abode M 344
up and she looks M 344
up his own voice M 343
up and you still M 343
up with long lists M 342
up red and white M 342
up for her right M 342
up his own reason M 340
up with each others M 339
up with any group M 339
up that had never M 339
up and then drops M 339
up and its price M 339
up for ten miles M 338
up with this point M 337
up with this sense M 336
up with new books M 336
up with him alone M 336
up does not exist M 336
up and not worry M 336
up all his people M 336
up and ask where M 334
up with any longer M 333
up and was again M 333
up with that smile M 332
up with new people M 332
up his own moral M 332
up her own hands M 332
up and you shall M 332
up with this money M 331
up with him today M 331
up and has since M 331
up with our party M 329
up all her hopes M 329
up with her quick M 328
up its own field M 328
up his law books M 328
up for this place M 328
up all that water M 328
up with two weeks M 326
up near his house M 326
up with two girls M 325
up with them since M 325
up was not quite M 325
up his own inner M 325
up all his force M 325
up all his dreams M 325
up with them where M 324
up his air force M 324
up but they could M 324
up with you about M 323
up its own plant M 323
up his own legal M 322
up with his final M 321
up for one final M 321
up with this rather M 320
up with his wound M 320
up with any words M 320
up for our people M 320
up with his growth M 319
up with his paper M 318
up with head erect M 318
up with dead leaves M 318
up its own money M 318
up for her again M 318
up and can cause M 318
up with her small M 317
up was one which M 317
up for his visit M 317
up with them within M 316
up with one reason M 316
up with her alone M 316
up her own cause M 316
up with his cloak M 315
up with this party M 314
up and die right M 314
up with that might M 313
up for his paper M 313
up with any viable M 312
up she was smiling M 312
up his own plant M 311
up all his ships M 310
up one day feeling M 309
up for her class M 309
up all her stuff M 309
up for this party M 308
up for her child M 308
up that you never M 307
up for ten weeks M 307
up and her smile M 307
up with two lines M 306
up with his moral M 306
up for his glory M 306
up with two types M 305
up for you later M 305
up and then later M 305
up with that again M 304
up his big hands M 304
up with new vigor M 303
up and they begin M 303
up with her sweet M 302
up our own games M 302
up her old habit M 302
up her head since M 302
up with that group M 301
up with its growing M 300
up with his ships M 300
up with his glory M 300
up her own dreams M 300
up and then letting M 300
up with one final M 299
up with new stuff M 298
up its own party M 298
up with her night M 297
up that they never M 297
up and had given M 297
up with that morning M 294
up with new terms M 294
up its own space M 294
up for long terms M 294
up with her words M 293
up his own point M 293
up with his teaching M 292
up his own guilt M 292
up his own force M 292
up for his usual M 292
up and are often M 292
up all his notes M 292
up for her shift M 291
up with our backs M 290
up with his brain M 290
up his arm until M 290
up and then stand M 290
up for god knows M 289
up she was sitting M 288
up her own hopes M 288
up her job after M 288
up for this defeat M 288
up for that meeting M 288
up for that later M 288
up with his child M 287
up and sat cross M 287
up its own press M 286
up for his watch M 286
up and she wants M 286
up for them until M 285
up for his party M 285
up with this class M 284
up for ten months M 283
up and out while M 283
up with this small M 282
up with her black M 282
up was not really M 282
up that has never M 282
up with all parts M 281
up for this season M 281
up its head after M 280
up her own chair M 280
up far too often M 280
up far too easily M 280
up all that which M 280
up with our human M 279
up with her smile M 279
up for his views M 279
up did not appear M 279
up all that might M 279
up with his poetry M 278
up with her daily M 278
up our own power M 278
up her arm until M 278
up and saw above M 278
up and has never M 278
up with her since M 277
up all this night M 277
up with this house M 276
up that bad habit M 276
up his men under M 276
up and saw people M 276
up with our group M 275
up and they shall M 275
up one song after M 274
up for them under M 274
up for this short M 273
up and was willing M 273
up and then spread M 273
up with this really M 272
up its own working M 272
up and not allow M 272
up and then getting M 271
up with two lists M 270
up her own power M 270
up her bag again M 270
up with this until M 268
up with that place M 268
up too and stood M 268
up for this first M 268
up for our right M 268
up than that which M 267
up and his blood M 267
up with his growing M 266
up for him alone M 266
up and are working M 266
up all its power M 266
up for his order M 265
up with two words M 264
up with them easily M 264
up its air force M 264
up for all types M 264
up with long lines M 263
up with this crowd M 262
up with that notion M 262
up with one party M 262
up this idea about M 262
up and she still M 261
up with you first M 260
up with this abuse M 260
up for our evening M 259
up and was feeling M 259
up with this music M 258
up with its share M 258
up our own money M 258
up its own board M 258
up his new house M 258
up his bow again M 258
up for his meeting M 258
up for her people M 258
up and his first M 258
up all that power M 258
up with one quick M 257
up with any sense M 257
up and both sides M 257
up and ran right M 256
up her leg until M 255
up with that piece M 254
up with that image M 254
up with all human M 254
up for its daily M 254
up and she cried M 254
up with our guide M 253
up did not allow M 253
up with and passing M 252
up his own goals M 252
up her own image M 252
up and then slowing M 252
up with this child M 251
up with that night M 251
up with being taken M 251
up that you really M 251
up with new types M 250
up with his empty M 250
up with his elder M 250
up our own words M 250
up for her until M 250
up and two steps M 250
up and they still M 250
up his old place M 248
up for his ideals M 248
up all our goods M 248
up all men under M 248
up all his vices M 248
up with his smile M 247
up and was later M 247
up with new angles M 246
up with her story M 246
up with her grief M 246
up and has lived M 246
up with six months M 245
up and was headed M 245
up with his offer M 244
up our own people M 244
up and was strong M 244
up all his right M 244
up with one piece M 243
up with his voice M 243
up but are still M 243
up and then pulling M 243
up his own lines M 242
up his bad habit M 242
up for her while M 242
up with her white M 241
up its own legal M 240
up his head until M 240
up for this night M 240
up for long under M 240
up for any price M 240
up and then headed M 240
up and had found M 240
up with any party M 239
up and then after M 239
up and saw about M 239
up all this while M 239
up with this model M 238
up with that whole M 238
up with that nasty M 238
up with that change M 238
up with his leader M 238
up its own small M 238
up his own large M 238
up for his evening M 238
up for one whole M 237
up for his action M 237
up and then lower M 237
up all our water M 237
up its own value M 236
up for its lower M 236
up dead one morning M 236
up with being asked M 235
up for any extra M 235
up and then found M 235
up all his words M 235
up all her spare M 235
up with his state M 234
up with her sense M 234
up with any others M 234
up his own clothing M 234
up her head above M 234
up for her final M 234
up for bad debts M 234
up with his woman M 233
up with her music M 233
up her own phone M 233
up for her morning M 233
up and then turning M 233
up with that growth M 232
up with dry leaves M 232
up for this extra M 232
up things and people M 231
up for them after M 231
up for her small M 231
up with this amazing M 230
up his own method M 230
up his own hopes M 230
up for that right M 230
up for his defeat M 230
up and his chair M 230
up all that easily M 230
up with that class M 229
up with its whole M 229
up and then putting M 229
up with our growing M 228
up with his works M 228
up with his short M 228
up now and start M 228
up for six miles M 228
up his arm again M 227
up for any small M 227
up and was playing M 227
up one and began M 226
up his own dreams M 226
up for this small M 226
up and was known M 226
up with him twice M 225
up for one brief M 225
up and not wanting M 225
up with any really M 224
up its own group M 224
up his old house M 224
up his job rather M 224
up dry and under M 224
up all her ships M 224
up all day until M 224
up for them again M 223
up for both sides M 223
up and was pulling M 223
up and are waiting M 223
up with his needs M 222
up that bit about M 222
up and her whole M 222
up and cut short M 222
up with him rather M 221
up all her dreams M 221
up with this topic M 220
up with this field M 220
up with them under M 220
up all his sayings M 220
up now and fight M 219
up and his train M 219
up with two strong M 218
up with its right M 218
up with her front M 218
up our own goods M 218
up its own forms M 218
up being too small M 218
up and was asked M 218
up all things human M 218
up with her group M 217
up for you until M 217
up with not knowing M 216
up with his notes M 216
up for our visit M 216
up for all night M 216
up any new words M 216
up and going round M 215
up with old people M 214
up that all might M 214
up his job after M 214
up and got right M 214
up all his posts M 214
up with you since M 213
up with this short M 213
up with being alone M 213
up off his hands M 213
up for him under M 213
up and was aware M 213
up and lay aside M 213
up with two extra M 212
up with them rather M 212
up with her where M 212
up with her beauty M 212
up our own plans M 212
up new and wider M 212
up all her moral M 212
up with that sweet M 211
up with are still M 211
up with this vision M 210
up with them right M 210
up with her under M 210
up with god knows M 210
up not long since M 210
up men and beasts M 210
up his own print M 210
up his own local M 210
up and was really M 210
up all her beauty M 210
up with this awful M 208
up with her people M 208
up then and stood M 208
up his seat makes M 208
up for our party M 208
up and cut loose M 208
up with his times M 207
up off that chair M 207
up for any period M 207
up and was reaching M 207
up with any notion M 206
up for this error M 206
up for his monks M 206
up for any worthy M 206
up and going strong M 206
up and are growing M 206
up with this force M 205
up all his loose M 205
up our own story M 204
up off this floor M 204
up her own sense M 204
up earth and heaven M 204
up and that makes M 204
up all but about M 204
up with his steady M 203
up with his royal M 203
up and was happy M 203
up and out hunting M 203
up with his image M 202
up his own value M 202
up for all times M 202
up and out above M 202
up and not getting M 202
up all our minds M 202
up with not getting M 200
up with its strong M 200
up with its owner M 200
up with him within M 200
up using this method M 200
up our new house M 200
up one day about M 200
up his leg until M 200
up for him since M 200
up for our study M 199
up and read until M 199
up all this water M 199
up with her today M 198
up with being bored M 198
up she was alone M 198
up now and change M 198
up its own image M 198
up its head under M 198
up for that place M 198
up for old times M 198
up for his fault M 198
up all our people M 198
up all its parts M 198
up all this space M 197
up with two files M 196
up with this final M 196
up with ten times M 196
up with him either M 196
up its own hands M 196
up for this cause M 196
up all that about M 196
up for you about M 195
up and then maybe M 195
up and that could M 195
up and sat right M 195
up with two plans M 194
up with two pages M 194
up with this power M 194
up with this growing M 194
up with his house M 194
up with all night M 194
up one and putting M 194
up its long green M 194
up his new kingdom M 194
up her two small M 194
up for this failing M 194
up for his honor M 194
up did not exist M 194
up with that black M 193
up his pay check M 193
up each year until M 193
up and has given M 193
up all they owned M 193
up with his debts M 192
up with all others M 192
up our own river M 192
up his own notes M 192
up for this fault M 192
up and run right M 191
up with new lines M 190
up with his every M 190
up with and often M 190
up how they shall M 190
up his own games M 190
up and saw blood M 190
up for his crime M 189
up for any cause M 189
up her big black M 188
up are not easily M 188
up and who knows M 188
up and that night M 188
up and not letting M 188
up new and often M 187
up his old father M 187
up for this fight M 187
up and not finding M 187
up all its beauty M 187
up all his teaching M 187
up with two white M 186
up our air force M 186
up his own table M 186
up his big black M 186
up her own steps M 186
up her long train M 186
up for that lapse M 186
up for its longer M 185
up and then click M 185
up this idea after M 184
up her son alone M 184
up with our moral M 183
up with her still M 183
up too long after M 183
up for this woman M 183
up and was calling M 183
up and then burst M 183
up with her strong M 182
up his own wares M 182
up his own teaching M 182
up for his night M 182
up for her lapse M 182
up and cry aloud M 182
up with our father M 181
up his own thinking M 181
up with two locks M 180
up with this basic M 180
up with new facts M 180
up with his search M 180
up with his newly M 180
up with for months M 180
up for one class M 180
up and doing every M 180
up singing and playing M 179
up for this visit M 179
up for all women M 179
up and see mother M 179
up with one extra M 178
up then and asked M 178
up our own sense M 178
up his own chain M 178
up for that season M 178
up for his money M 178
up and get stuck M 178
up all his works M 178
up and one after M 177
up with our words M 176
up with its needs M 176
up with her share M 176
up this way every M 176
up for any light M 176
up with our money M 175
up now and looking M 175
up for her visit M 175
up and she might M 175
up and now lives M 175
up and not bother M 175
up and goes after M 175
up and die after M 175
up with that noise M 174
up with its large M 174
up with air until M 174
up his seat after M 174
up can not occur M 174
up all his share M 174
up and then begin M 173
up and hid under M 173
up all its force M 173
up with his walking M 172
up with his model M 172
up men who could M 172
up its own share M 172
up his own study M 172
up going for walks M 172
up and out after M 172
up and his bones M 172
up his own front M 171
up for her party M 171
up with bad weather M 170
up our own world M 170
up his own books M 170
up her song again M 170
up for who knows M 170
up for use again M 170
up for her meeting M 170
up did not reveal M 170
up did not change M 170
up any who might M 170
up and was nearly M 170
up with our usual M 169
up with his inner M 169
up did not really M 169
up and not really M 169
up and hung round M 169
up and going after M 169
up this old world M 168
up this old place M 168
up six and eight M 168
up his own draft M 168
up her own needs M 168
up her head while M 168
up has long since M 168
up for her usual M 168
up for all major M 168
up all its leaves M 168
up all his lands M 168
up with that small M 167
up with our local M 167
up for all people M 167
up and his breathing M 167
up all her power M 167
up with our books M 166
up his own ships M 166
up her leg under M 166
up for two people M 166
up any bad blood M 166
up and had moved M 166
up all his small M 166
up with his guard M 165
up two things which M 165
up his own cloak M 165
up for that extra M 165
up for our cause M 165
up with that house M 164
up with and lived M 164
up with and known M 164
up one man after M 164
up his own vision M 164
up any one point M 164
up and put right M 164
up with are often M 163
up for his sense M 163
up for his fourth M 163
up and this could M 163
up and can never M 163
up with earth which M 162
up our own views M 162
up his own ideals M 162
up had long since M 162
up for them later M 162
up for him about M 162
up but that which M 162
up and sit tight M 162
up all his father M 162
up with one child M 161
up and are never M 161
up and are looking M 161
up all its water M 161
up with this black M 160
up with new money M 160
up near this place M 160
up his own terms M 160
up and that maybe M 160
up and fly about M 160
up all she knows M 160
up for you every M 159
up for them while M 159
up for his missing M 159
up for him which M 159
up can now begin M 159
up and then place M 159
up with our chase M 158
up with long grass M 158
up with his hopes M 158
up with his feeling M 158
up with his cause M 158
up with her board M 158
up with any false M 158
up its own chain M 158
up for this waste M 158
up for one while M 158
up did not bother M 158
up long and short M 157
up for each plant M 157
up and get about M 157
up with two local M 156
up with our plans M 156
up with our mother M 156
up with his magic M 156
up with him sitting M 156
up one war after M 156
up his own steps M 156
up his own piece M 156
up for his delay M 156
up for bid again M 156
up each six months M 156
up each day knowing M 156
up and run times M 156
up and his black M 156
up with them which M 155
up with him nearly M 155
up one day looking M 155
up one and found M 155
up with his study M 154
up with being ruled M 154
up with being beaten M 154
up that her mother M 154
up our old house M 154
up for that after M 154
up for our small M 154
up with one grand M 153
up and act right M 153
up all that blood M 153
up all his learning M 153
up with you getting M 152
up with this white M 152
up with this shift M 152
up with his prize M 152
up with any given M 152
up his job again M 152
up her head until M 152
up for them every M 152
up for our short M 152
up and they tried M 152
up and then close M 152
up and see after M 152
up and new forms M 152
up all our spare M 152
up all his facts M 152
up with that world M 151
up with his grand M 151
up with you night M 150
up with all forms M 150
up its own blood M 150
up his box again M 150
up each day after M 150
up does not really M 150
up and are given M 150
up all things which M 150
up with his rough M 149
up for this change M 149
up for bad weather M 149
up and that people M 149
up and see people M 149
up and say where M 149
up with one story M 148
up with his naked M 148
up with her voice M 148
up with day after M 148
up with bad cheer M 148
up with any major M 148
up that lie about M 148
up six and seven M 148
up her own voice M 148
up and read books M 148
up all his moral M 148
up with our thinking M 147
up with one strong M 147
up with his seven M 147
up that had taken M 147
up for this method M 147
up for this feeling M 147
up for our daily M 147
up and let stand M 147
up with them either M 146
up with that white M 146
up with its power M 146
up with any final M 146
up then and moved M 146
up near her house M 146
up her own mother M 146
up her new abode M 146
up for her every M 146
up and got stuck M 146
up with any known M 145
up that his father M 145
up for our needs M 145
up and was fully M 145
up and then takes M 145
up and that every M 145
up and run under M 145
up and his words M 145
up with was based M 144
up with was about M 144
up with that could M 144
up with one right M 144
up with each child M 144
up her own party M 144
up for that woman M 144
up for each place M 144
up but you could M 144
up that way after M 143
up his own short M 143
up and then broke M 143
up with that sound M 142
up with our feeling M 142
up with new music M 142
up with his claim M 142
up with him quite M 142
up with her house M 142
up with any plans M 142
up this one night M 142
up this old story M 142
up then and tried M 142
up her own people M 142
up her own abode M 142
up for his house M 142
up does not imply M 142
up and was thinking M 142
up and was smiling M 142
up and her white M 142
up and both hands M 142
up all her books M 142
up with our final M 141
up with his hunting M 141
up they are often M 141
up that his voice M 141
up its own labor M 141
up does not cause M 141
up and was named M 141
up with two short M 140
up with two parts M 140
up with her writing M 140
up with and never M 140
up that big house M 140
up she was quite M 140
up its head until M 140
up his own writing M 140
up his own first M 140
up his own crime M 140
up his new place M 140
up his head erect M 140
up for his price M 140
up for his point M 140
up any real fight M 140
up and then turns M 140
up and then added M 140
up and lay awake M 140
up and all danger M 140
up all that extra M 140
up all she wants M 140
up all her music M 140
up with two holes M 139
up that long aisle M 139
up for that morning M 139
up for long months M 139
up and she broke M 139
up and get people M 139
up all his tools M 139
up with two books M 138
up with that water M 138
up with new growth M 138
up with his phone M 138
up too and began M 138
up his own feeling M 138
up his head every M 138
up for that final M 138
up for his heirs M 138
up for any short M 138
up all his mother M 138
up they are found M 137
up that his mother M 137
up its own water M 137
up for his total M 137
up for his state M 137
up for his child M 137
up and who could M 137
up and then crash M 137
up and out every M 137
up with that extra M 136
up with his basic M 136
up our own small M 136
up one leg after M 136
up men and money M 136
up her singing again M 136
up her own world M 136
up for its delay M 136
up and was warming M 136
up and saw seven M 136
up with this false M 135
up with one major M 135
up and has grown M 135
up with you girls M 134
up with that makes M 134
up with any large M 134
up its own story M 134
up its own claim M 134
up for them where M 134
up for our final M 134
up all that story M 134
up with his sweet M 133
up for each order M 133
up and then faded M 133
up and pay close M 133
up with two hours M 132
up with that power M 132
up with our train M 132
up with our notion M 132
up with him still M 132
up with her image M 132
up with her abuse M 132
up with being stuck M 132
up with bad dreams M 132
up his own check M 132
up his leg again M 132
up for this missing M 132
up for them which M 132
up for one meeting M 132
up but they never M 132
up both his brown M 132
up and are found M 132
up all his black M 132
up with this extra M 131
up with new items M 131
up with any action M 131
up now and stood M 131
up its east coast M 131
up for any moral M 131
up and two hours M 131
up and they spent M 131
up and she comes M 131
up and her breathing M 131
up and being taken M 131
up with too large M 130
up with that state M 130
up with our world M 130
up with our minds M 130
up with his human M 130
up with her sleep M 130
up was that which M 130
up its own people M 130
up his own loose M 130
up and she needs M 130
up and its value M 130
up and get after M 130
up and being beaten M 130
up this way until M 129
up things that could M 129
up one end while M 129
up for this final M 129
up for any longer M 129
up and has taken M 129
up and are under M 129
up with this period M 128
up with this large M 128
up with big white M 128
up with and adapt M 128
up was too small M 128
up this big house M 128
up she was about M 128
up one job after M 128
up law for music M 128
up his old debts M 128
up his dead father M 128
up for his whole M 128
up for his rather M 128
up for each others M 128
up for air since M 128
up doing all sorts M 128
up and out about M 128
up and his house M 128
up and had spent M 128
up all our small M 128
up all his gains M 128
up all his claim M 128
up with his lower M 127
up with him could M 127
up for our lives M 127
up for him right M 127
up and was resting M 127
up and was drawn M 127
up and she takes M 127
up and get strong M 127
up with them today M 126
up with that party M 126
up with new games M 126
up with his really M 126
up with his method M 126
up with his fourth M 126
up with her brain M 126
up with and taken M 126
up she was looking M 126
up she had never M 126
up its own roots M 126
up its own lists M 126
up his song where M 126
up his own model M 126
up for any delay M 126
up and was showing M 126
up and was growing M 126
up all day today M 126
up with this human M 125
up with and later M 125
up that they appear M 125
up that she never M 125
up that has taken M 125
up but not really M 125
up and then running M 125
up and saw again M 125
up and not looking M 125
up and are taken M 125
up with two quite M 124
up with this order M 124
up with one really M 124
up with her growing M 124
up with her elder M 124
up was all right M 124
up that one might M 124
up its own terms M 124
up its own action M 124
up its new abode M 124
up her big white M 124
up for that child M 124
up for her evening M 124
up and run round M 124
up and his white M 124
up all who might M 124
up all who could M 124
up all our hearts M 124
up all her mother M 124
up with her phone M 123
up with her either M 123
up was not given M 123
up but not until M 123
up and try later M 123
up and then given M 123
up and not working M 123
up and had tried M 123
up with you round M 122
up with them still M 122
up with one solid M 122
up with one night M 122
up with one motion M 122
up with new tools M 122
up with his women M 122
up with his visit M 122
up with air force M 122
up things that never M 122
up its own motion M 122
up its own draft M 122
up his own working M 122
up for you since M 122
up for our delay M 122
up for its rather M 122
up for his later M 122
up for all parts M 122
up big and black M 122
up any real stage M 122
up and saw mother M 122
up and ran until M 122
up and all about M 122
up all his traps M 122
up all day while M 122
up with this again M 121
up with that point M 121
up for use later M 121
up for any woman M 121
up and was under M 121
up and was after M 121
up and for about M 121
up with this teaching M 120
up with this brave M 120
up with this after M 120
up with our dreams M 120
up with one about M 120
up with its daily M 120
up with his lengthy M 120
up with him tried M 120
up with any local M 120
up who you really M 120
up they are keeping M 120
up that way every M 120
up than this point M 120
up she was aware M 120
up its own goals M 120
up his own train M 120
up his own roots M 120
up his own altar M 120
up his old black M 120
up his men within M 120
up her things again M 120
up her new house M 120
up her arm again M 120
up for one group M 120
up for not writing M 120
up for dead until M 120
up any real power M 120
up and was blown M 120
up with our small M 119
up does not count M 119
up and that others M 119
up and its first M 119
up with who knows M 118
up with this event M 118
up with real people M 118
up with its moral M 118
up with his reply M 118
up with him getting M 118
up with any valid M 118
up this new trend M 118
up that men might M 118
up its own paper M 118
up his own frail M 118
up her long brown M 118
up for them about M 118
up for air about M 118
up big and white M 118
up and saw light M 118
up all new words M 118
up all his blood M 118
up with his water M 117
up red and black M 117
up and its light M 117
up with that pride M 116
up with new meanings M 116
up with its sweet M 116
up with its final M 116
up with his total M 116
up with his noise M 116
up with his drive M 116
up with her within M 116
up with her steady M 116
up with earth again M 116
up with all power M 116
up was not nearly M 116
up our own hands M 116
up its own waste M 116
up its own store M 116
up his things again M 116
up his rear guard M 116
up his own black M 116
up for not meeting M 116
up for its short M 116
up and two people M 116
up and not fully M 116
up near our house M 115
up for each meeting M 115
up but had never M 115
up and then knock M 115
up and her black M 115
up and has begun M 115
up and had grown M 115
up with this noise M 114
up with his eight M 114
up with dead people M 114
up this way often M 114
up this new order M 114
up that they begin M 114
up that idea after M 114
up his own tools M 114
up his idea about M 114
up his eye again M 114
up for our morning M 114
up each year after M 114
up and was beaten M 114
up with them quite M 113
up with his green M 113
up with his draft M 113
up with her party M 113
up that they began M 113
up earth and water M 113
up each year since M 113
up and out rather M 113
up and men began M 113
up all her blood M 113
up with was quite M 112
up with that after M 112
up with our views M 112
up with our every M 112
up with old times M 112
up with his style M 112
up with any extra M 112
up with any abuse M 112
up this way after M 112
up our own party M 112
up its own selling M 112
up his two small M 112
up his own notion M 112
up his big white M 112
up for not keeping M 112
up for new forms M 112
up for him within M 112
up for her share M 112
up and then shown M 112
up and then bowed M 112
up and his vision M 112
up and cut apart M 112
up with his upper M 111
up with her running M 111
up for use within M 111
up for them alone M 111
up and ten miles M 111
up and his lower M 111
up and are running M 111
up with this offer M 110
up with six weeks M 110
up with its major M 110
up with his close M 110
up that one which M 110
up that old stuff M 110
up our own reason M 110
up our own hearts M 110
up its own views M 110
up for her night M 110
up and they faced M 110
up and sat under M 110
up all this about M 110
up with our hearts M 109
up with his local M 109
up was not working M 109
up for his study M 109
up and six hours M 109
up with two items M 108
up with two cases M 108
up with this worthy M 108
up with this spare M 108
up with this inner M 108
up with one morning M 108
up with new hopes M 108
up with low blood M 108
up with its plane M 108
up with his noble M 108
up with his guest M 108
up they had thrust M 108
up our way again M 108
up our own share M 108
up our own place M 108
up our own names M 108
up our own force M 108
up our new state M 108
up his own wound M 108
up his own royal M 108
up his head rather M 108
up his big house M 108
up her own clothing M 108
up going out alone M 108
up for our usual M 108
up for our group M 108
up for his grand M 108
up and her lower M 108
up all its gates M 108
up all her plans M 108
up with that music M 107
up with her rather M 107
up this old woman M 107
up her own blood M 107
up for you first M 107
up for one evening M 107
up for his feeling M 107
up and run small M 107
up and her blood M 107
up with this noble M 106
up with that every M 106
up with new power M 106
up with new goals M 106
up with his quiet M 106
up with his ideals M 106
up with each morning M 106
up with dry grass M 106
up with being hungry M 106
up with any delay M 106
up with and based M 106
up that you shall M 106
up now and moved M 106
up near his right M 106
up its own testing M 106
up its own place M 106
up for this seeming M 106
up for men again M 106
up for each phase M 106
up but she never M 106
up but her mother M 106
up and this whole M 106
up and she fixed M 106
up and his money M 106
up all his usual M 106
up all earth below M 106
up and who never M 105
up and two women M 105
up and sat erect M 105
up with that people M 104
up with its author M 104
up with his legal M 104
up with his catch M 104
up with her walking M 104
up with her notes M 104
up with her longer M 104
up with and where M 104
up with and built M 104
up that way about M 104
up that she began M 104
up our own moral M 104
up his own armed M 104
up her own group M 104
up for two solid M 104
up for this option M 104
up for that awful M 104
up for his failing M 104
up for her since M 104
up both our lives M 104
up and saw black M 104
up and sat close M 104
up and doing which M 104
up all our draft M 104
up with our right M 103
up with her feeling M 103
up they are still M 103
up than she could M 103
up for this after M 103
up for his royal M 103
up for her short M 103
up and let drive M 103
up all this blood M 103
up with you under M 102
up with two months M 102
up with this motion M 102
up with that touring M 102
up with our times M 102
up with one whose M 102
up with idea after M 102
up with his quest M 102
up with her pride M 102
up with her money M 102
up with her empty M 102
up things that people M 102
up our own image M 102
up his own lands M 102
up his big brown M 102
up her son after M 102
up for his guilt M 102
up for her daily M 102
up for her about M 102
up far too light M 102
up did not please M 102
up did not appeal M 102
up and then knelt M 102
up and saw water M 102
up with his morning M 101
up with bad people M 101
up for this right M 101
up for them within M 101
up for his color M 101
up for each stage M 101
up for each party M 101
up does not reveal M 101
up and she burst M 101
up and goes right M 101
up with was still M 100
up with our share M 100
up with its lower M 100
up with his stuff M 100
up with his later M 100
up with her short M 100
up with her growth M 100
up with each group M 100
up with bad women M 100
up with any terms M 100
up with any strong M 100
up this song about M 100
up our own works M 100
up one yet nearer M 100
up may not alter M 100
up its own study M 100
up its own force M 100
up his own goods M 100
up his own empty M 100
up her own music M 100
up her own games M 100
up her dead child M 100
up for things which M 100
up for its defeat M 100
up for his kingdom M 100
up for his guest M 100
up for each pupil M 100
up and then apply M 100
up and sit under M 100
up all that paper M 100
up with this weather M 99
up with real money M 99
up with her train M 99
up with her blood M 99
up that old woman M 99
up that are often M 99
up one idea after M 99
up for that event M 99
up with two rather M 98
up with this finding M 98
up with that exact M 98
up with our names M 98
up with one after M 98
up with her field M 98
up with and could M 98
up this long story M 98
up its own civil M 98
up his own space M 98
up his now empty M 98
up her old house M 98
up her leg again M 98
up for that party M 98
up for his table M 98
up dead this morning M 98
up and then where M 98
up all his poetry M 98
up all her pride M 98
up with this study M 97
up with his action M 97
up that may cause M 97
up she was given M 97
up for its share M 97
up for being alone M 97
up doing things which M 97
up and then walking M 97
up and then mixed M 97
up and then looks M 97
up you can start M 96
up with this style M 96
up with this beauty M 96
up with his tools M 96
up with his running M 96
up with him walking M 96
up with him daily M 96
up with her final M 96
up with big money M 96
up with are either M 96
up with any earthly M 96
up with any change M 96
up who had known M 96
up this one point M 96
up that way until M 96
up now for nearly M 96
up near two hours M 96
up its own lines M 96
up his own names M 96
up his own final M 96
up his own field M 96
up for this people M 96
up for this check M 96
up for that piece M 96
up for old people M 96
up for its people M 96
up for him night M 96
up for her needs M 96
up for each event M 96
up for being human M 96
up for any power M 96
up for all users M 96
up and thus drawn M 96
up and see every M 96
up and going rather M 96
up all our roots M 96
up with red blood M 95
up with his world M 95
up with her tutor M 95
up with any sound M 95
up its own right M 95
up his own search M 95
up for any class M 95
up for air while M 95
up and out nearly M 95
up and her green M 95
up all her words M 95
up with two loops M 94
up with this train M 94
up with this older M 94
up with key words M 94
up with his major M 94
up with her prize M 94
up with god alone M 94
up with any facts M 94
up with and forms M 94
up that old place M 94
up than she about M 94
up owing them money M 94
up now she stays M 94
up now and holding M 94
up its own works M 94
up its head quite M 94
up his own trail M 94
up his own stuff M 94
up his old enemy M 94
up his men again M 94
up his head which M 94
up her own paper M 94
up her head under M 94
up for that failing M 94
up for each piece M 94
up for any group M 94
up being all about M 94
up any gap which M 94
up and with hands M 94
up and sat thinking M 94
up and now falling M 94
up and her chair M 94
up and all green M 94
up all you could M 94
up all our store M 94
up all our books M 94
up all his clothing M 94
up all her notes M 94
up all her clothing M 94
up with that value M 93
up for this rather M 93
up for them either M 93
up and get running M 93
up and are blown M 93
up with this since M 92
up with that topic M 92
up with that period M 92
up with how people M 92
up with his agent M 92
up with her guide M 92
up with her brood M 92
up with and write M 92
up this new style M 92
up this new issue M 92
up this job after M 92
up things for people M 92
up singing and praying M 92
up his old bones M 92
up for that missing M 92
up for his legal M 92
up any old place M 92
up and saw white M 92
up and not given M 92
up and can easily M 92
up all that glory M 92
up all our ships M 92
up all its money M 92
up all his roots M 92
up all his noble M 92
up with our ideals M 91
up with new thinking M 91
up with her morning M 91
up this new route M 91
up our own inner M 91
up its own class M 91
up for our style M 91
up for one season M 91
up for not working M 91
up did not prove M 91
up and put holes M 91
up and out comes M 91
up all this power M 91
up with this trick M 90
up with this grand M 90
up with that vision M 90
up with our hopes M 90
up with its image M 90
up with its glory M 90
up with his pleasing M 90
up with his hosts M 90
up with his change M 90
up with his author M 90
up with any human M 90
up this one again M 90
up then they never M 90
up then and found M 90
up one new method M 90
up near and asked M 90
up its song again M 90
up its own order M 90
up his own rather M 90
up her red cross M 90
up her own store M 90
up her own share M 90
up her own beauty M 90
up her dying hands M 90
up for our class M 90
up for his looks M 90
up for each extra M 90
up and one which M 90
up all that needs M 90
up all his extra M 90
up all her goods M 90
up with its white M 89
up with his winning M 89
up with his maker M 89
up with his breathing M 89
up with his board M 89
up was her mother M 89
up things you might M 89
up that way since M 89
up now all right M 89
up his new world M 89
up for this child M 89
up for his moral M 89
up and this awful M 89
up and its units M 89
up with this warning M 88
up with this blind M 88
up with them alone M 88
up with our basic M 88
up with low people M 88
up with her enemy M 88
up with and maybe M 88
up with and enjoy M 88
up with and engage M 88
up this new method M 88
up then and drops M 88
up that she found M 88
up our old lives M 88
up one and asked M 88
up his own price M 88
up his own files M 88
up for this sense M 88
up for our twice M 88
up for our ideals M 88
up for our email M 88
up for his search M 88
up for her error M 88
up and then pause M 88
up and then bending M 88
up all you people M 88
up all this extra M 88
up all her inner M 88
up with you within M 87
up with two working M 87
up with this paper M 87
up with his watch M 87
up with his steps M 87
up with his forty M 87
up with any small M 87
up now and found M 87
up for them since M 87
up for not wanting M 87
up and are quite M 87
up with that train M 86
up with that style M 86
up with one phone M 86
up with his place M 86
up with for getting M 86
up with but never M 86
up with any quick M 86
up this new group M 86
up things and looking M 86
up our dry cleaning M 86
up one leg under M 86
up its own method M 86
up its beat again M 86
up his two elder M 86
up his own strong M 86
up his own forms M 86
up his new teaching M 86
up his box tight M 86
up her own stuff M 86
up for him later M 86
up for day after M 86
up for all hands M 86
up each day until M 86
up bad things about M 86
up and doing about M 86
up and being grown M 86
up with six people M 85
up war and hunting M 85
up now and getting M 85
up its own inner M 85
up her own front M 85
up for that again M 85
up and was healed M 85
up and are willing M 85
up with two equal M 84
up with this strong M 84
up with things until M 84
up with that paper M 84
up with his chair M 84
up with her vision M 84
up with being given M 84
up with and began M 84
up who are willing M 84
up now and write M 84
up near that place M 84
up its own codes M 84
up its old habit M 84
up his own lodging M 84
up her two large M 84
up her own views M 84
up her dying child M 84
up for this grand M 84
up for that state M 84
up for each point M 84
up for each block M 84
up and set right M 84
up all that again M 84
up all its folds M 84
up with her twice M 83
up with her nurse M 83
up for one short M 83
up for big games M 83
up for being proud M 83
up being too short M 83
up all our loose M 83
up with this habit M 82
up with them could M 82
up with that devil M 82
up with that amazing M 82
up with six others M 82
up with its people M 82
up too and moved M 82
up this way about M 82
up our own space M 82
up our own ideals M 82
up now and stand M 82
up its old house M 82
up its head since M 82
up her bag which M 82
up for you which M 82
up for being short M 82
up ere they could M 82
up being too large M 82
up any bad habit M 82
up with was really M 81
up with this action M 81
up with his rather M 81
up that with which M 81
up she was easier M 81
up and then watch M 81
up and lie about M 81
up all her earthly M 81
up yet ere night M 80
up with two ships M 80
up with this reply M 80
up with six pages M 80
up with our blood M 80
up with new works M 80
up with long tails M 80
up with his plain M 80
up with his false M 80
up with big words M 80
up with and found M 80
up with all seven M 80
up things that others M 80
up then and faced M 80
up our own lists M 80
up its rear steps M 80
up its own unity M 80
up its own track M 80
up its own leader M 80
up his weak sides M 80
up his real views M 80
up his long hands M 80
up her things while M 80
up for this since M 80
up for his brief M 80
up for any flaws M 80
up all this waste M 80
up and are easily M 78
up and you really M 77
up and she turns M 76
up and her first M 76
up and get worse M 76
up with and share M 75
up and was quiet M 75
up and put money M 74
up and had asked M 74
up with that right M 73
up and this makes M 73
up and she nearly M 73
up and her right M 73
up and two others M 72
up and thus avoid M 72
up and then right M 72
up they are given M 71
up and she knows M 71
up with that light M 70
up and sit right M 70
up and god knows M 70
up and then press M 69
up and not quite M 69
up and she tells M 68
up and lying about M 68
up and with every M 67
up and was pushing M 67
up and was first M 67
up and then burnt M 67
up and she gives M 67
up and earn money M 67
up with him though M 66
up and they really M 66
up and then looking M 66
up and was speaking M 65
up and our hearts M 65
up and get water M 65
up and all right M 65
up than they really M 64
up his own sound M 63
up does not arise M 63
up but she still M 63
up and was bending M 63
up and then carry M 63
up and get saved M 63
up and get older M 63
up that long steep M 62
up does not apply M 62
up and was right M 62
up and was helping M 62
up and then write M 62
up and she feels M 62
up and ask people M 62
up and then selling M 61
up and then repeat M 61
up and each group M 61
up and die within M 61
up that may occur M 60
up and then fades M 60
up and then either M 60
up and that might M 60
up and she thinks M 60
up and going right M 60
up and was opening M 59
up and then pushing M 59
up and then breaking M 59
up and she spent M 59
up and sat waiting M 59
up and run until M 59
up and lay claim M 59
up and our lives M 58
up and his small M 58
up and his brain M 58
up they had never M 57
up does not begin M 57
up did not quite M 57
up and that never M 57
up and put water M 57
up and not until M 57
up and get close M 57
up with his playing M 56
up with her eight M 56
up and use every M 56
up and then climb M 56
up and that after M 56
up and she hoped M 56
up and old people M 56
up and bring under M 56
up and are getting M 56
up and all alone M 56
up that can occur M 55
up she was getting M 55
up her own right M 55
up for that either M 55
up and then makes M 55
up and she seems M 55
up and not easily M 55
up and each child M 55
up and are happy M 55
up with bin laden M 54
up his own brief M 54
up had not taken M 54
up and was proud M 54
up and then stuck M 54
up and she really M 54
up and doing anything M 54
up for this award M 53
up did not begin M 53
up and was hungry M 53
up and then spend M 53
up and our people M 53
up his own light M 52
up and was seated M 52
up and was rather M 52
up and was passing M 52
up and two miles M 52
up and then leaves M 52
up and then cried M 52
up and then check M 52
up and she wiped M 52
up and she makes M 52
up and read every M 52
up and our minds M 52
up and got close M 52
up and are strong M 52
up with its light M 51
up that had begun M 51
up now and could M 51
up but one phase M 51
up and was tried M 51
up and then people M 51
up and then change M 51
up and then catch M 51
up and she loved M 51
up and one block M 51
up and not waste M 51
up and its owner M 51
up and going under M 51
up with her royal M 50
up using both hands M 50
up and then spent M 50
up and then cutting M 50
up and are holding M 50
up yet this morning M 49
up for this story M 49
up does not alter M 49
up are not known M 49
up and was falling M 49
up and use again M 49
up and then enter M 49
up and set loose M 49
up and his sense M 49
up with her light M 48
up for that today M 48
up did not apply M 48
up but you might M 48
up but was never M 48
up and too small M 48
up and then wrote M 48
up and then breaks M 48
up and then allow M 48
up and our hands M 48
up and one night M 48
up and not thinking M 48
up and had nearly M 48
up with his drawing M 47
up but they still M 47
up and who might M 47
up and then sleep M 47
up and then finding M 47
up and then calls M 47
up and see above M 47
up and run every M 47
up and get really M 47
up and die again M 47
up you can still M 46
up with you though M 46
up with his cross M 46
up they are taken M 46
up our own thinking M 46
up now but still M 46
up now and still M 46
up now and running M 46
up and you knock M 46
up and was sending M 46
up and was often M 46
up and this might M 46
up and things began M 46
up and then round M 46
up and sat holding M 46
up and sat again M 46
up and out where M 46
up and out under M 46
up and not feeling M 46
up and its power M 46
up and hung about M 46
up and got about M 46
up and can stand M 46
up and are sitting M 46
up you can never M 45
up that can cause M 45
up its own child M 45
up his new found M 45
up each day feeling M 45
up are not given M 45
up and two small M 45
up and then pulls M 45
up and out since M 45
up and its whole M 45
up and get working M 45
up and get quite M 45
up and for nearly M 45
up all his magic M 45
up with this right M 44
up with that either M 44
up with her seven M 44
up was too strong M 44
up that her father M 44
up she was taken M 44
up she had given M 44
up for this phase M 44
up for him today M 44
up area has spread M 44
up and two weeks M 44
up and she walks M 44
up and read while M 44
up and out steps M 44
up and now lived M 44
up and lay waste M 44
up and lay hands M 44
up and its people M 44
up and its leader M 44
up and her brown M 44
up all that white M 44
up with his aides M 43
up was not right M 43
up was his mother M 43
up they had taken M 43
up they had found M 43
up than her mother M 43
up may not occur M 43
up his own still M 43
up her leg beneath M 43
up for its seeming M 43
up for his opening M 43
up for her later M 43
up for being brief M 43
up but not knowing M 43
up but not fully M 43
up and you found M 43
up and was sorry M 43
up and was shown M 43
up and was close M 43
up and they change M 43
up and then under M 43
up and she lived M 43
up and his plans M 43
up and his debts M 43
up and get within M 43
up and get round M 43
up and get anything M 43
up and being blown M 43
up with his learning M 42
up who has never M 42
up they are quite M 42
up our own right M 42
up his own water M 42
up for any missing M 42
up for all others M 42
up does not agree M 42
up but his father M 42
up big and small M 42
up are not really M 42
up and was pouring M 42
up and was keeping M 42
up and was alive M 42
up and this gives M 42
up and they drive M 42
up and then tries M 42
up and she tries M 42
up and set running M 42
up and say again M 42
up and sat round M 42
up and long since M 42
up and lay about M 42
up and his front M 42
up and die under M 42
up and beat about M 42
up with two empty M 41
up with this quote M 41
up with its human M 41
up with his nurse M 41
up with her human M 41
up that they really M 41
up that has given M 41
up than you could M 41
up than they could M 41
up she was found M 41
up owing him money M 41
up man who could M 41
up for red cross M 41
up for our night M 41
up for its right M 41
up for each field M 41
up far too close M 41
up can not easily M 41
up and who lived M 41
up and was lucky M 41
up and see father M 41
up and say thanks M 41
up and our whole M 41
up and not fight M 41
up and may never M 41
up and its roots M 41
up and are known M 41
up all this paper M 41
up all that seems M 41
up you can easily M 40
up with this night M 40
up with that magic M 40
up with old women M 40
up with his piece M 40
up with his cheating M 40
up with her teaching M 40
up with her needs M 40
up she had taken M 40
up our own front M 40
up one lie after M 40
up its own price M 40
up his new state M 40
up for this whole M 40
up for this paper M 40
up for his writing M 40
up for his seeming M 40
up for his group M 40
up for him above M 40
up and you asked M 40
up and they lived M 40
up and then stops M 40
up and see heaven M 40
up and say aloud M 40
up and its water M 40
up and how people M 40
up and her words M 40
up and her large M 40
up and got quite M 40
up and goes round M 40
up and fly apart M 40
up with all kinds D 15217
up his pen again D 7758
up and they would D 5760
up and she would D 4440
up and bear fruit D 4370
up with hot water D 3674
up his own studio D 3430
up and say hello D 3374
up with his fingers D 3166
up off his knees D 3019
up pen and paper D 2490
up with all speed D 2414
up off her knees D 2349
up her pen again D 2224
up his own glass D 1890
up with his peers D 1827
up and you would D 1572
up with his sword D 1559
up with his staff D 1557
up with two fingers D 1493
up with her lover D 1473
up her long skirt D 1470
up that they would D 1459
up with her fingers D 1454
up with his tongue D 1447
up with his uncle D 1441
up with his rifle D 1424
up with his horse D 1274
up his own horse D 1246
up and that would D 1241
up that she would D 1218
up with his knife D 1092
up for all kinds D 1072
up with his fists D 1040
up his hat again D 1026
up and dial again D 989
up its own sales D 892
up with his knees D 884
up for being drunk D 823
up with his rapid D 812
up his old trade D 812
up her own glass D 810
up and they drove D 801
up that you would D 798
up with her tongue D 783
up all his savings D 774
up with that would D 770
up and was staring D 770
up his own court D 764
up and sat staring D 759
up with this crazy D 744
up his own title D 726
up and yet springing D 724
up with his stick D 721
up her own studio D 702
up and this would D 693
up his own sword D 690
up off his stool D 669
up his ass about D 660
up with her fiance D 645
up with his fleet D 644
up his own rifle D 644
up his car phone D 638
up and his fingers D 615
up his own cabin D 610
up his hat which D 606
up with her peers D 580
up with tap water D 572
up with his corps D 564
up with her knees D 556
up with his lover D 552
up for his wedding D 550
up and they shook D 550
up his gun again D 540
up and was talking D 531
up and his chest D 529
up off our knees D 528
up with his social D 525
up with our social D 501
up his own weapon D 492
up with him would D 484
up with her purse D 471
up and then falls D 468
up with his spade D 467
up with his moods D 466
up with his liver D 454
up and who would D 453
up with its tongue D 448
up mud and water D 447
up and her fingers D 445
up with his glass D 442
up its own social D 440
up and then thrown D 434
up with his horns D 432
up for his pains D 430
up his own belly D 428
up with his index D 425
up his own drink D 424
up with that crazy D 421
up with his throat D 420
up for his court D 417
up with his elbow D 416
up with her uncle D 414
up its own stock D 414
up with his rival D 412
up and his shirt D 411
up all our savings D 404
up all his wages D 398
up and his tongue D 396
up off his chest D 393
up his own rival D 393
up singing and dancing D 392
up his two fingers D 390
up all her savings D 388
up with his tusks D 384
up with his mates D 384
up her long dress D 384
up its own trade D 373
up and she leaned D 369
up with long poles D 368
up with his heels D 368
up and her dress D 367
up his own brand D 366
up off all fours D 365
up with its claws D 362
up men who would D 360
up all ten fingers D 358
up things that would D 355
up his own stock D 354
up with its fiery D 353
up with two kinds D 348
up with his speed D 348
up with our fingers D 347
up with new drugs D 346
up with this rapid D 344
up with his claws D 342
up with her whims D 340
up than they would D 340
up his own staff D 340
up his own shirt D 340
up but she would D 340
up with his chief D 339
up its own staff D 338
up with them would D 327
up with that title D 326
up with his troop D 326
up with his bible D 326
up his own plate D 326
up and was driving D 326
up for her wedding D 322
up his ten fingers D 318
up his own trading D 318
up with its social D 316
up for our wedding D 316
up and his knees D 316
up with his lance D 311
up his own crude D 311
up and then drove D 310
up its own funds D 308
up for each region D 300
up with low wages D 298
up off that couch D 294
up off its knees D 292
up all that would D 292
up with him spake D 290
up for our sakes D 290
up all his stock D 290
up with her rapid D 288
up and she waved D 284
up with his chest D 283
up men for lamps D 282
up with his grade D 281
up all his fingers D 280
up and had lunch D 279
up her own salon D 278
up his own fleet D 276
up any red flags D 276
up and saw peter D 276
up and then leaned D 272
up and get outta D 271
up with his shirt D 270
up with his sharp D 270
up with far fewer D 270
up and she shook D 270
up his own sales D 268
up that god would D 266
up with her moods D 264
up bow and arrow D 261
up and was shaking D 261
up our pup tents D 260
up but they would D 260
up air and naval D 260
up her own plate D 258
up and saw stars D 258
up with his brisk D 256
up that raw force D 256
up his ears again D 256
up with two dozen D 255
up for her lover D 254
up with her fists D 250
up with her brisk D 250
up with his thumbs D 249
up with his whims D 248
up for low wages D 248
up for his uncle D 247
up with its rapid D 246
up with his wagon D 246
up with new kinds D 244
up with his weapon D 244
up oil and grease D 244
up with our mules D 242
up with our changing D 242
up his own rooms D 242
up his own funds D 242
up with this title D 241
up her car phone D 241
up with this level D 240
up all his wives D 240
up its own brand D 238
up with them cooks D 236
up her old trade D 236
up and dig about D 236
up with its broad D 235
up with his truck D 234
up with his buddy D 234
up his own heels D 234
up with that bitch D 231
up his own flesh D 231
up his new trade D 231
up and her knees D 231
up and all kinds D 231
up with his violin D 230
up with his jokes D 230
up one that would D 230
up its own ranks D 230
up with two wives D 228
up with that silly D 228
up with his plate D 228
up with her social D 228
up with her niece D 228
up its own heels D 224
up with one elbow D 223
up with his suite D 220
up his own cards D 220
up with his bride D 218
up all his earnings D 217
up that one would D 215
up her own dress D 213
up and all would D 213
up with his bills D 212
up its own court D 212
up for hay grass D 212
up for any minor D 212
up with his dirty D 210
up and then dialed D 210
up with her apron D 208
up his own nation D 208
up his new posting D 208
up her new dress D 208
up and oil change D 208
up hat and stick D 207
up with and spoke D 206
up its own fleet D 206
up and his cheek D 206
up with new paint D 204
up with his petty D 204
up now and dress D 204
up his own social D 204
up his long rifle D 204
up for this taste D 204
up near his chest D 203
up for his bride D 203
up with his crazy D 202
up and saw smoke D 201
up for both sexes D 200
up and then would D 200
up with her elbow D 199
up and things would D 198
up off her stool D 197
up with hot ashes D 196
up our own ranks D 196
up one rear wheel D 196
up with his swift D 194
up with his flock D 193
up and was rubbing D 192
up and one would D 191
up and her throat D 191
up his own tunes D 190
up for him would D 190
up and then slide D 189
up with her would D 188
up with her stern D 188
up with any fresh D 188
up his axe again D 188
up and saw harry D 188
up all its pores D 188
up with his palms D 187
up and then shoot D 187
up its own slate D 186
up his pen after D 186
up and she spoke D 186
up with her dress D 184
up any two cards D 184
up than you would D 183
up and saw frank D 183
up his cue stick D 182
up and see stars D 181
up with this social D 179
up for each grade D 179
up and saw uncle D 179
up with its rival D 178
up and her skirt D 177
up and saw billy D 175
up with his jibbing D 174
up and set afire D 174
up and his throat D 174
up with one wagon D 173
up and then slows D 173
up with his fresh D 172
up new and fresh D 172
up his own socks D 172
up her ass about D 172
up for each level D 171
up with you would D 170
up with our faces D 170
up his ass while D 169
up his long staff D 168
up his hot water D 168
up with him telling D 167
up with war paint D 166
up with his boots D 166
up for our mailing D 166
up and two rooms D 166
up all his cards D 166
up for with sheer D 165
up with his snout D 164
up and get drunk D 164
up with this flood D 162
up his ringing phone D 162
up for our lunch D 162
up and was weaned D 162
up that this would D 161
up with his squad D 160
up its own rival D 160
up all his flesh D 160
up meat and drink D 159
up with new social D 157
up for his staff D 157
up with this silly D 156
up with our souls D 155
up with oil lamps D 155
up and his pants D 155
up with his pants D 154
up now she would D 154
up oil and water D 153
up with two dutch D 152
up his mug again D 152
up all our social D 152
up with you folks D 150
up with her nagging D 150
up its own trading D 150
up his own knife D 150
up his old rifle D 150
up his old hobby D 150
up with that funny D 148
up with red strings D 148
up his own shingle D 148
up his gun which D 148
up her own horse D 148
up and are thrown D 148
up all our sails D 148
up with that queer D 147
up off that bench D 147
up with sir harry D 146
up with its speed D 146
up its own rhythm D 146
up his shoe laces D 146
up for this minor D 146
up with his changing D 145
up with his wives D 144
up with his drink D 144
up his rod again D 144
up his pen under D 144
up his own creed D 144
up his old horse D 144
up with her index D 143
up and was thrown D 143
up with that horse D 142
up with its horns D 142
up with his nails D 142
up with her palms D 142
up his own coach D 142
up his cap which D 142
up her own social D 142
up for his lunch D 142
up with his fiery D 141
up and she gazed D 141
up with its sharp D 140
up our two tents D 140
up his own blade D 140
up his car again D 140
up art for chess D 140
up and then throwing D 140
up earth and stone D 139
up with this changing D 138
up with red paint D 138
up with our bills D 138
up with her bills D 138
up his own sinking D 138
up for his widow D 138
up with one swift D 137
up with her sharp D 136
up his own fists D 136
up her fan again D 136
up with her glass D 135
up she was staring D 135
up off his heels D 135
up and then sinking D 135
up with its changing D 134
up with both fists D 134
up with being teased D 134
up things and throwing D 134
up her fan which D 134
up for one dance D 134
up and her tongue D 134
up with his belly D 133
up his own score D 133
up and saw jenny D 133
up with this trade D 132
up with her rival D 132
up its own steel D 132
up her lip gloss D 132
up for this scene D 131
up and her thighs D 131
up his rod after D 130
up his own throne D 130
up his own banking D 130
up hat and cloak D 130
up and men leaned D 130
up all our ports D 130
up her long blond D 129
up and her chest D 129
up with that grave D 128
up with new faces D 128
up with long strings D 128
up with his niece D 128
up with his broad D 128
up hot and strong D 128
up her head sails D 128
up off his couch D 127
up and saw molly D 127
up all its waves D 127
up with this creep D 126
up with his stock D 126
up then and shook D 126
up now and would D 126
up his own trade D 126
up with his spoon D 125
up with his glove D 125
up with this chick D 124
up with that kinda D 124
up with her knife D 124
up rod and lever D 124
up our own sliding D 124
up off this couch D 124
up near his belly D 124
up its own norms D 124
up and she drove D 124
up with ice cubes D 123
up with her plate D 123
up this way would D 122
up his own vomit D 122
up his own pants D 122
up all his limbs D 122
up with this scene D 120
up with new roads D 120
up with ice water D 120
up with her claws D 120
up with her cheek D 120
up this new trade D 120
up his own violin D 120
up his own theater D 120
up his own craft D 120
up his head would D 120
up her red skirt D 120
up for his chief D 120
up with its peers D 119
up for her court D 119
up and was sinking D 119
up and then relax D 119
up with this weird D 118
up with big plays D 118
up its own bonds D 118
up her mug again D 118
up for that cooling D 118
up for his social D 118
up any weak spots D 118
up with his brush D 117
up then they would D 117
up with that swede D 116
up with his brand D 116
up men that would D 116
up his thin white D 116
up his thin chops D 116
up his ears while D 116
up for her lunch D 116
up all his crops D 116
up with this novel D 115
up with his fleeing D 115
up with his snoring D 114
up with her crazy D 114
up with and would D 114
up men and canoes D 114
up his fat hands D 114
up his art again D 114
up for his meager D 114
up for not telling D 113
up and then dived D 113
up with pop music D 112
up his own movie D 112
up her own drink D 112
up all her fingers D 112
up with our nation D 110
up with its snout D 110
up his own ranch D 110
up his long stick D 110
up his long robes D 110
up her own cards D 110
up for her would D 110
up and real wages D 110
up all his funds D 110
up with her whining D 109
up his own swathe D 109
up for each trade D 109
up all her social D 109
up with two boats D 108
up with that trash D 108
up with his penis D 108
up with any funny D 108
up his tee shirt D 108
up his pen until D 108
up his own bible D 108
up and saw jimmy D 108
up with this thesis D 107
up with her broom D 107
up but that would D 107
up all her rooms D 107
up with this farce D 106
up with that weird D 106
up with that level D 106
up with his thesis D 106
up with bad colds D 106
up with any dirty D 106
up our own homes D 106
up his long knife D 106
up her own skirt D 106
up for her dowry D 106
up and her pants D 106
up all his nerve D 106
up with his trade D 105
up with this lousy D 104
up with our wives D 104
up with our sloop D 104
up with his coach D 104
up with his breast D 104
up with his boats D 104
up its bed above D 104
up hot and sweaty D 104
up his own steel D 104
up and then split D 104
up and saw roger D 104
up his own forge D 102
up his long limbs D 102
up his big stick D 102
up his bed under D 102
up her ears again D 102
up for ten cents D 102
up for each batch D 102
up with his silly D 101
up with her skirt D 101
up one who would D 101
up for this dance D 101
up with our rapid D 100
up with one breast D 100
up with new themes D 100
up with joy would D 100
up that long slope D 100
up its own bureau D 100
up its own banks D 100
up his own ranks D 100
up his own opera D 100
up his long glass D 100
up his log cabin D 100
up her hat which D 100
up her fat hands D 100
up and being broad D 100
up ads that appear D 100
up with his whining D 99
up with fig leaves D 99
up with his cheek D 98
up its own dealer D 98
up his war chest D 98
up his two index D 98
up his new shirt D 98
up her ten fingers D 98
up her own court D 98
up both her palms D 98
up and was dangling D 98
up and his heels D 98
up with neon signs D 97
up with his posse D 97
up his old brier D 97
up for this trade D 97
up but not sealed D 97
up all this trash D 97
up with two sacks D 96
up with her bible D 96
up then that purse D 96
up our own tents D 96
up off his belly D 96
up near her chest D 96
up hot and steaming D 96
up his own thesis D 96
up his own jokes D 96
up his ass until D 96
up her own purse D 96
up her old dress D 96
up for that scene D 96
up for ten bucks D 96
up for old metal D 96
up and then sprang D 96
up all his skill D 96
up with that phony D 95
up with new gilding D 95
up our sex lives D 95
up with this region D 94
up with that smell D 94
up with that creep D 94
up with her telling D 94
up with both knees D 94
up our own souls D 94
up our own sales D 94
up meat and dairy D 94
up its own shops D 94
up its own naval D 94
up his thin hands D 94
up his own stall D 94
up his own mount D 94
up his own dress D 94
up doing all kinds D 94
up and she plugs D 94
up and she fired D 94
up and are bonny D 94
up all his social D 94
up for gym class D 93
up for both males D 93
up with two beers D 92
up with his daddy D 92
up with gas lamps D 92
up this easy slope D 92
up our own nation D 92
up its own springs D 92
up its own nation D 92
up his two fists D 92
up his bed below D 92
up gun and knife D 92
up for with speed D 92
up for being crazy D 92
up all our stock D 92
up they all shoot D 91
up for this region D 91
up with his plumb D 90
up with his hoofs D 90
up with his funny D 90
up with her throat D 90
up with dingy brown D 90
up his wet towel D 90
up his own flock D 90
up his hat where D 90
up her own spoon D 90
up for his nation D 90
up and then sinks D 90
up for this nation D 89
up and saw chuck D 89
up and his brows D 89
up with that drink D 88
up with his skill D 88
up with dry stone D 88
up that gay sword D 88
up now and drink D 88
up its own panel D 88
up her thin dress D 88
up her own flesh D 88
up any real speed D 88
up all that grain D 88
up all her dolls D 88
up with two broad D 87
up with his lariat D 87
up with her changing D 87
up and saw sally D 87
up with this fresh D 86
up with old mates D 86
up with her wedding D 86
up job and hoist D 86
up its own junta D 86
up its own flesh D 86
up how they would D 86
up his new bride D 86
up her own dance D 86
up and saw daddy D 86
up and get rooms D 86
up with our boats D 85
up for them would D 85
up all his bills D 85
up with two tiers D 84
up with oil paint D 84
up with bad roads D 84
up one day would D 84
up neat and tight D 84
up his toy horse D 84
up his own stone D 84
up his own fruit D 84
up his own dance D 84
up both her fists D 84
up and saw bobby D 84
up with his senior D 83
up with zeal every D 82
up with one sweep D 82
up with any social D 82
up wax with honey D 82
up two fat hands D 82
up its own studio D 82
up his own spoon D 82
up his car after D 82
up her fat belly D 82
up for her rival D 82
up and they gazed D 81
up with two piles D 80
up his own lunch D 80
up his own boots D 80
up all our funds D 80
up and was peering D 75
up and was kissing D 68
up and then throws D 67
up and put fresh D 66
up and then froze D 64
up for each scene D 63
up and out would D 63
up and was dancing D 62
up and his flesh D 61
up and got drunk D 60
up and was shining D 59
up and then fired D 57
up and his fists D 57
up and was washing D 56
up and her fists D 55
up and they dance D 54
up with her heels D 53
up and thou shalt D 53
up and row round D 53
up and his social D 53
up with one bound D 52
up with his novel D 52
up than one would D 52
up and his elbow D 52
up and ran yelling D 51
up and head thrown D 51
up for hot water D 50
up and his limbs D 50
up per and lower D 49
up and was limping D 48
up they are liable D 47
up and was throwing D 47
up and was bound D 47
up and then stick D 47
up with his broom D 46
up our own flesh D 46
up man who would D 46
up and was yelling D 46
up and they spoke D 46
up and then telling D 46
up and his horse D 46
up with new flesh D 45
up with his sighing D 45
up bow and stern D 45
up and was rushing D 45
up and lie spoon D 45
up and her apron D 45
up and was smoking D 44
up and then setting D 44
up and then cooling D 44
up and its doors D 44
up and his rifle D 44
up and get rolling D 44
up and then plunge D 43
up and ran sobbing D 43
up and long shots D 43
up and hop about D 43
up with that whore D 42
up with its sales D 42
up with his fishing D 42
up with her talking D 42
up for its trade D 42
up for easy viewing D 42
up and was telling D 42
up and then shook D 42
up and see fanny D 42
up and one wheel D 42
up and her pulse D 42
up with new housing D 41
up then she would D 41
up off her chest D 41
up and was swept D 41
up and then driving D 41
up and then dried D 41
up and new roads D 41
up and its trade D 41
up and his boots D 41
up and had thrown D 41
up and each would D 41
up with his torch D 40
up with his lunch D 40
up with his court D 40
up its own slack D 40
up his own fancy D 40
up for his rival D 40
up and wax strong D 40
up and then sliding D 40
up and met again D 40
up and how would D 40
up all its stock D 40
