ups as well as D 5294
ups the ante by D 798
ups the ante on D 624
ups of some of D 528
ups the ante in D 398
ups as part of D 298
ups as much as D 244
ups the ante of D 240
ups to make the D 234
ups the ante to D 226
ups as soon as D 221
ups to keep the D 158
ups by means of D 144
ups in case of D 124
ups to find the D 116
ups as high as D 106
ups to show the D 102
ups is used to D 88
ups to pick up D 85
ups the odds of D 82
