upset as she was M 2394
upset by all this M 2352
upset in any way M 2198
upset to hear that M 1901
upset by this and M 1782
upset at not being M 1685
upset if they are M 1303
upset as you are M 1294
upset the old man M 1017
upset to see that M 930
upset by this that M 866
upset by his death M 833
upset by this new M 804
upset me was that M 795
upset to see her M 741
upset by his own M 705
upset if you are M 702
upset to see him M 688
upset if you did M 682
upset he did not M 624
upset in this way M 622
upset by all that M 586
upset if you can M 582
upset he was that M 543
upset if she had M 534
upset if she did M 519
upset as she had M 464
upset by her death M 445
upset at this and M 417
upset if they had M 413
upset to hear this M 406
upset by his son M 402
upset to see his M 398
upset by her own M 363
upset if they did M 351
upset by this than M 348
upset if she does M 341
upset in that way M 337
upset to deal with M 331
upset at him for M 328
upset if they can M 320
upset to see how M 315
upset if she was M 301
upset the law that M 296
upset if you had M 292
upset he was with M 291
upset by her son M 290
upset to see you M 278
upset at you for M 262
upset if they see M 247
upset by things that M 245
upset the idea that M 226
upset by not being M 225
upset at her for M 212
upper or east end M 206
upset to see this M 204
upset by this but M 202
upset to hear you M 201
upset he had not M 200
upset he can not M 194
upper of its two M 194
upset to see them M 192
upset at his death M 192
upset me with his M 190
upset in one way M 190
upset if you get M 189
upset is not going M 183
upset me and then M 182
upset he was and M 182
upset if she saw M 172
upset he was not M 171
upset the man who M 160
upset at her own M 159
upset if you ask M 157
upset by that and M 157
upset if they saw M 154
upset by war and M 153
upset me that she M 150
upset to hear her M 149
upset at his own M 143
upset of all his M 142
upset as his was M 142
upset by this idea M 140
upset if you try M 139
upset by them and M 136
upset it with his M 135
upset we did not M 134
upset me was not M 134
upset if you see M 134
upset me with her M 128
upset it was not M 126
upset by any one M 126
upset at all this M 126
upset as they are M 126
upset at one end M 125
upset he does not M 124
upset if things are M 123
upset at them for M 123
upset if she has M 122
upset if she and M 122
upset the way things M 121
upset do you get M 120
upset the law and M 118
upset by any new M 118
upset at this new M 118
upset if you hear M 115
upper or head end M 111
upset if they get M 110
upset if they hear M 109
upset at his son M 109
upset as all that M 106
upset me that you M 104
upset the men and M 101
upset as you may M 101
upset at all that M 99
upset me that they M 98
upset it all and M 98
upset so that they M 96
upset at how they M 96
upset by this act M 95
upset at all and M 95
upset on its way M 94
upset at this that M 90
upset the old idea M 88
upper of his two M 86
upset if you say M 84
upset by his new M 83
upset it with its M 82
upset the way you M 80
upset me and that M 70
upset to read that M 61
upset in his own M 54
upset as they had M 54
upset the old boy M 45
upset if you got M 44
upset as you can M 44
upset of all that M 42
upset by that than M 41
upset at her death M 41
upset as you did M 41
upset as she did M 41
upset to hear him M 40
upset the pot now D 198
upset the pot and D 188
upset my ink and D 126
upset the car and D 112
upset the ink and D 96
