yuan per year for D 332
yule and new year D 199
yuan per day for D 186
yuan per year and D 166
yuan and his son D 153
yuan per ton and D 112
yuan per year per D 104
yuan may act for D 96
yuan per ton for D 80
