other thing . " M 20434
other thing ? " M 6504
other up . " M 3520
other is . " M 938
other so . " M 572
other thing ! " M 552
other wing . " M 520
other up ? " M 422
other king . " M 356
other on . " M 330
other me . " M 292
other go . " M 278
other by . " M 258
other so ? " M 252
other be . " M 244
other ring ? " M 232
other so ! " M 208
other up ! " M 198
other is ? " M 178
other do . " M 122
other eat . " M 112
other be ? " M 104
other go ? " M 82
