others to follow . M 58042
others to decide . M 5750
others in another . M 4300
others in return . M 3726
others as needed . M 2652
others to escape . M 2420
others to suffer . M 2370
others to arrive . M 1990
others to another . M 1852
others as equals . M 1840
others in groups . M 1758
others to listen . M 1512
others to finish . M 1512
others to accept . M 1440
others or myself . M 1332
others to return . M 1300
others to attend . M 1272
others at school . M 1178
others to answer . M 1150
others to follow ? M 1084
others in prayer . M 1058
others at another . M 986
others in school . M 976
others in public . M 926
others to itself . M 904
others by another . M 852
others the latter . M 812
others by myself . M 766
others in prison . M 754
others the second . M 748
others to safety . M 726
others to pursue . M 690
others to admire . M 676
others is unclear . M 674
others in future . M 674
others to comply . M 662
others of course . M 660
others is needed . M 642
others to access . M 626
others as before . M 622
others to remain . M 620
others to handle . M 602
others in detail . M 596
others to notice . M 576
others in itself . M 574
others is crucial . M 558
others to behave . M 550
others as adults . M 550
others in creation . M 516
others to church . M 502
others to resist . M 492
others to prison . M 482
others in wisdom . M 470
others is obvious . M 464
others in nature . M 464
others to pieces . M 448
others so little . M 448
others to assist . M 430
others to perish . M 412
others in strength . M 410
others to endure . M 390
others to debate . M 388
others to retire . M 384
others in battle . M 374
others at random . M 370
others to mention . M 360
others so little ? M 358
others in common . M 358
others in charge . M 358
others to choose . M 356
others to attack . M 346
others to submit . M 342
others to manage . M 340
others by custom . M 330
others in crisis . M 328
others in person . M 326
others to commit . M 324
others to occupy . M 322
others if needed . M 320
others in shadow . M 318
others is common . M 312
others to enlist . M 304
others in unison . M 302
others go without . M 302
others the better . M 298
others of another . M 296
others by choice . M 294
others to attain . M 292
others go through . M 292
others to become . M 290
others in number . M 290
others as models . M 288
others to assume . M 286
others on record . M 284
others to forget . M 282
others he accuse . M 272
others is another . M 270
others to emerge . M 268
others on another . M 262
others as myself . M 254
others go further . M 250
others to praise . M 246
others do better . M 244
others to repent . M 242
others to depart . M 240
others to assess . M 238
others do poorly . M 236
others in secret . M 228
others do neither . M 226
others to expand . M 222
others as female . M 222
others to myself . M 218
others in dismay . M 216
others to defend . M 214
others to virtue . M 212
others to travel . M 212
others in virtue . M 210
others the credit . M 208
others by nature . M 206
others to record . M 198
others as guests . M 198
others to resign . M 196
others in training . M 194
others to twenty . M 192
others to report . M 192
others by chance . M 192
others in relief . M 188
others in misery . M 188
others by swimming . M 188
others by letter . M 188
others to school . M 184
others to refuse . M 184
others in winter . M 184
others to object . M 180
others at school ? M 180
others in summer . M 178
others to adjust . M 176
others to obtain . M 174
others to ignore . M 174
others so engaged . M 174
others is learned . M 174
others to behold . M 172
others in autumn . M 172
others to suffer ? M 170
others to murder . M 170
others in church . M 170
others by design . M 170
others as normal . M 170
others or events . M 168
others by itself . M 168
others to exceed . M 164
others or myself ? M 164
others to borrow . M 162
others on demand . M 162
others is absurd . M 162
others is absent . M 162
others to supply . M 158
others is likely . M 152
others as guards . M 152
others by preaching . M 150
others to relate . M 148
others to prayer . M 146
others to follow ! M 146
others to realize . M 144
others is greater . M 144
others is denied . M 144
others as agents . M 144
others in school ? M 140
others as losers . M 140
others is judged . M 136
others to define . M 134
others by weight . M 134
others to detect . M 132
others in memory . M 132
others in excess . M 132
others in chains . M 132
others no chance . M 130
others in debate . M 128
others at nought . M 126
others to govern . M 124
others or itself . M 124
others to beware . M 122
others to awaken . M 122
others to aspire . M 122
others so poorly ? M 122
others by prayer . M 122
others to market . M 120
others to expect . M 120
others to battle . M 120
others in myself . M 118
others to injury . M 116
others to disease . M 114
others is wisdom . M 114
others in pieces . M 114
others in another ? M 114
others eat neither . M 114
others to oppose . M 112
others to perish ? M 110
others to excuse . M 110
others to desist . M 110
others do without . M 110
others as unjust . M 110
others to mature . M 106
others it failed . M 106
others to reform . M 104
others the female . M 104
others is divine . M 104
others in horror . M 104
others to nature . M 102
others on credit . M 102
others of regret . M 102
others in spirit . M 102
others in plenty . M 102
others at meetings . M 102
others the spirit . M 100
others on monday . M 100
others of honour . M 100
others is useful . M 100
others is changed . M 100
others do something . M 100
others in speech . M 98
others as strange . M 98
others as sacred . M 98
others to defect . M 96
others to combat . M 96
others no effect . M 96
others is valued . M 96
others is futile . M 96
others in reality . M 96
others in combat . M 96
others as itself . M 96
others to reject . M 94
others to donate . M 94
others or another . M 94
others by report . M 94
others to retain . M 92
others by speech . M 92
others to misery . M 90
others to chance . M 88
others is sought . M 88
others is simple . M 88
others in colour . M 88
others to verify . M 86
others to repair . M 86
others is broken . M 86
others in meetings . M 86
others at church . M 86
others to sorrow . M 82
others to shreds . M 82
others to profit . M 82
others so little ! M 82
others is normal . M 82
others as listed . M 82
others he killed . M 80
