following M 282887086
function M 147385722
finally M 124761861
friends M 114330926
factors M 104233020
follows M 85544448
freedom M 83826751
forward M 79374541
failure M 73829115
figures M 72915277
familiar M 45892242
founded M 35702298
fifteen M 33463462
fortune M 25481013
focused M 21043807
faithful M 20766851
females M 19976848
forever M 18905836
fraction M 18681907
forests M 18086426
founder M 11355581
fellows M 10953738
foolish M 10270476
forgive M 9977979
feasible M 8849095
figured M 8841776
focuses M 8646752
finishing M 6779551
fulfill M 6731864
filters M 6698502
fragile M 5126813
factions M 4975353
futures M 4690171
firstly M 4207456
fullest M 4126119
fifties M 3471242
fallacy M 3280503
foresee M 2643580
falsely M 2621458
fetched M 2370174
fearless M 2300175
fraught M 2215472
forbids M 2134488
forgets M 1793784
forsake M 1776616
forgiving M 1536755
falsity M 1511331
furthest M 1240373
fittest M 1240188
furthering M 1219590
fosters M 1138264
fractal M 1026723
forgave M 1026431
frailty M 959338
faltering M 886808
fortieth M 717126
forsook M 654370
footpath M 617982
falsify M 482788
fixedly M 438225
falters M 227343
frights M 74401
foreign D 155858189
federal D 97641122
features D 72358929
flowers D 37814448
farmers D 33753488
formula D 31440039
finance D 30493745
faculty D 27986953
factory D 25487589
financing D 14046807
funeral D 13349460
fatigue D 12477379
furnish D 12253805
friction D 12156519
favored D 10690567
forehead D 10353605
freight D 10101492
fantasy D 9511714
furnace D 9463066
foregoing D 9440600
fertile D 9348779
fitness D 8208386
freeman D 6988871
fixation D 6644500
frontal D 6554796
frankly D 6216146
factual D 5902346
flowering D 5659830
fighter D 5173195
flights D 5169047
featured D 5046257
fibrous D 4746560
fascist D 4740739
fabrics D 4523086
flashed D 4485208
freshly D 4321034
formats D 4252801
fascism D 4135995
foreman D 4053089
flushed D 3990678
frowned D 3984987
floated D 3951968
familial D 3902004
flooded D 3826070
fossils D 3813606
forthwith D 3738304
filtering D 3735061
fishery D 3546754
faintly D 3377354
femoral D 3306907
flashes D 3117689
forbade D 3100122
frantic D 3070237
fancied D 3063354
fastest D 2881873
fashions D 2800988
fostering D 2726128
fervent D 2565245
forceps D 2516310
forties D 2503484
flatter D 2447615
farthest D 2398998
fissure D 2349562
fancies D 2325359
frigate D 2298024
folders D 2287652
firearms D 2253834
fistula D 2224146
ferment D 2190309
ferrous D 2152006
flanked D 2144461
fictions D 1949890
forlorn D 1922051
forfeit D 1891773
festive D 1876958
foundry D 1871439
follies D 1820994
foresaw D 1785718
fluency D 1784435
fixture D 1774326
flutter D 1766540
forgery D 1744717
freemen D 1699061
fairies D 1668915
fateful D 1661483
flannel D 1658441
frescoes D 1648205
flicker D 1607516
flipped D 1587936
fledged D 1555155
flocked D 1529583
fatally D 1521445
foothold D 1515664
footage D 1472230
foremen D 1432934
fairest D 1404872
feathered D 1399833
framers D 1383837
firemen D 1379794
feigned D 1379575
feeders D 1367729
fruition D 1366434
fetters D 1362132
flavors D 1339230
fanatic D 1333041
furrows D 1320465
febrile D 1317653
freezer D 1317568
fainted D 1263898
footwear D 1240467
fastening D 1165487
freeway D 1125973
fiftieth D 1099534
fortify D 1083275
fireman D 1042088
flicked D 996393
flowery D 994613
fetuses D 977297
fourthly D 963659
freezes D 944328
facades D 941853
fallout D 940508
florins D 925909
footman D 924616
fibrils D 923548
fulcrum D 909424
ferrite D 902652
fashioning D 901059
fainter D 873514
fumbled D 872937
fledgling D 862924
ferries D 857378
faraway D 856139
fishers D 832946
finesse D 829494
fillers D 827481
fronted D 809083
fattening D 803333
flatten D 783241
fearsome D 774815
fatherly D 774053
famines D 769978
furtive D 765881
fillets D 758463
fretted D 729816
fanfare D 726728
fatiguing D 680098
fiddler D 677669
flogged D 674680
faceted D 651247
flagged D 648877
forearms D 644569
frosted D 637924
faulted D 622720
footmen D 609245
flaccid D 599934
foibles D 589561
factoring D 581967
factious D 574057
fathered D 559425
flopped D 558204
fleshly D 546141
flitted D 537383
fictive D 530806
flapped D 524457
fantasia D 524272
florist D 521321
flavoring D 514835
fittingly D 507741
foundling D 506126
fresher D 505865
falcons D 499825
figural D 491781
fusible D 482346
fiercer D 478891
forsooth D 473803
floored D 470721
forsaking D 469174
finches D 443160
fretful D 442537
fixated D 437092
flecked D 425289
fevered D 416537
fairway D 415408
funnels D 409042
fielder D 405925
flirted D 398640
flaunting D 397929
festering D 391902
fatuous D 387380
fibroid D 380697
figment D 378644
funereal D 376094
faience D 375754
fondest D 371062
fingertip D 370502
finders D 369661
flushes D 363959
formant D 360781
feelers D 359875
fatness D 353921
ferried D 347548
formers D 347445
fulsome D 343514
fleshed D 335830
firmest D 332482
firefly D 332308
florets D 327095
fomenting D 321481
furthers D 312176
friezes D 310960
fiestas D 308380
flouted D 303781
fielded D 303177
fissile D 300359
fellers D 298652
fetches D 297379
feelingly D 294958
forbearing D 292257
fenders D 291792
flinching D 291674
fidgeting D 283850
fancier D 277821
fastens D 276750
faucets D 275405
feebler D 273523
forbears D 272173
flotsam D 268284
ferrets D 267413
floured D 266497
foisted D 265043
forgone D 263883
fallows D 263365
footers D 259931
furlongs D 253720
flighty D 249481
fiddles D 247781
fondled D 247064
freshen D 246375
fiddled D 243647
forbore D 239911
fibular D 239253
flapper D 233259
folksong D 230706
fidgety D 225505
fleeces D 222509
firebox D 217765
foothill D 217357
fermions D 211753
freakish D 210976
forages D 210241
flipper D 209916
foulest D 208889
fitters D 195725
farrier D 194080
flatbed D 188942
fathomed D 185311
frolics D 185033
funnier D 184626
floater D 180214
forgers D 175376
fistful D 170867
foreleg D 169974
ferrule D 165797
fattest D 161858
ferreting D 160490
finicky D 158147
fruited D 157927
flunked D 157027
foxhole D 156867
frilled D 156607
fizzled D 156154
fallowing D 155509
forswear D 148911
flamingos D 146478
fatuity D 145774
filbert D 144722
fleeced D 143368
freshet D 141424
fullers D 141291
flailed D 141171
fungible D 140744
feedlot D 138783
fluffed D 136522
farrago D 133734
facially D 132282
froward D 132233
filched D 131382
fritter D 130072
frisson D 129495
famishing D 127568
freckle D 121215
frustum D 120682
foraged D 119883
fetlock D 119593
fandango D 119272
flagons D 118187
forsythia D 117775
fantail D 116435
finales D 115570
foolery D 112256
floggings D 111656
festoon D 111605
fumbles D 109924
forebear D 108126
forager D 106561
fenland D 102509
farrowing D 102231
furrowing D 100830
flutist D 100272
frisked D 99705
foppish D 98623
funneling D 97416
felines D 96226
furrier D 94355
foghorn D 93522
flounce D 92769
flaunts D 92135
fondant D 91407
flasher D 88065
fuchsias D 86008
falloff D 84606
fewness D 84126
feasibly D 81497
fiefdom D 81376
foxtrot D 79090
farseeing D 78480
fissions D 78319
franked D 77967
foxfire D 77116
foppery D 76528
fluidly D 76446
focally D 76305
fidgets D 74505
fettering D 70954
flatted D 70709
fishnet D 69427
fillies D 68859
fencers D 68490
faddish D 66882
funnies D 65479
forkful D 64786
fuddled D 64427
fallers D 62809
franker D 61873
flyover D 61665
fauvism D 61356
feinted D 60324
flagman D 59632
frailer D 55622
funnily D 55282
fluster D 53191
fattens D 52848
filleting D 52004
foldout D 51864
flanker D 50910
fodders D 50441
finical D 49715
flyaway D 48431
fanzine D 48324
frogmen D 48010
fajitas D 47853
flattop D 47537
fleeted D 45069
fridges D 44774
fondles D 43246
fibered D 42752
flatcar D 42451
freebie D 41867
festers D 41518
fixates D 40877
foulard D 40415
friaries D 40172
frazzle D 40083
foments D 39442
fleshes D 39231
finessing D 39109
frizzed D 39063
frizzle D 38621
fussily D 37881
falsest D 37583
fiancees D 35351
fuzzier D 34902
faddist D 34105
fleeter D 33783
flouncing D 33617
frogman D 32605
fatback D 31031
furbish D 30551
flogger D 29725
fixable D 29083
freesias D 28189
fluents D 27153
fizzles D 26437
flyways D 25371
fitment D 24457
formals D 23579
finagle D 23156
fattier D 23155
frizzly D 22784
freckling D 22747
fuzzily D 22258
factoid D 22243
flagmen D 21839
fairish D 21769
finagling D 21033
fleetly D 20838
fiscals D 20787
funfair D 20354
fauvist D 20216
folkway D 20125
footsie D 20071
filthier D 19707
flyable D 18694
firebug D 18646
fannies D 18291
fermium D 18181
fedoras D 18035
flusher D 17584
filthily D 17455
flubbed D 16925
flareup D 16914
fussier D 15927
filches D 15407
falsies D 14050
foodies D 13841
fetcher D 13564
frizzling D 13502
fondues D 13463
flouncy D 13368
frappes D 12434
fullish D 12110
flopper D 11962
flayers D 11688
farrows D 10852
ferules D 10374
fancily D 9591
fatties D 9566
fretsaw D 9536
forwent D 8918
fillips D 8655
funkier D 8637
flurrying D 8615
fawningly D 8508
fierily D 8396
fleabite D 8361
flossed D 8201
foxhunt D 7980
foggily D 7850
fuhrers D 7693
frighting D 7589
fishier D 7428
fumbler D 7406
folksinging D 7357
flosses D 7334
foresting D 7316
frailly D 7162
furores D 7080
freckly D 6820
forayed D 6596
feedbag D 6492
foggier D 6400
fusspot D 6292
fellest D 6027
flatlet D 5643
fawners D 5049
fierier D 4955
frizzes D 4779
fickler D 4659
flummox D 4461
frigged D 4242
flypast D 4121
flakier D 3891
fatheaded D 3692
fleecer D 3534
fustier D 3225
fernier D 3086
fibbers D 2962
funnest D 2911
frazzling D 2783
fuddles D 2670
filliping D 2537
fagoted D 2483
forearming D 2429
flambes D 2291
floatings D 2289
flouter D 2172
friezed D 2171
frothier D 2038
fogyish D 2008
freakier D 1804
fishily D 1736
foxiest D 1636
foamier D 1590
fiddlings D 1561
fleabags D 1549
flambeing D 1334
fainest D 1137
flooder D 1075
fleapits D 886
filmier D 793
fizzier D 415
festals D 400
finises D 300
flukier D 45
