last two decades . M 186870
last few decades . M 86605
land and buildings . M 32029
last few minutes . M 18255
land and capital . M 16800
last ten minutes . M 12878
last for decades . M 6920
land use control . M 5624
last two columns . M 5438
land and freedom . M 5345
land and climate . M 5242
laying off workers . M 5208
land and liberty . M 4799
land use pattern . M 4693
land for himself . M 4589
last few moments . M 3738
last two minutes . M 3310
land and culture . M 3109
late for everything . M 2938
land use systems . M 2870
last two letters . M 2854
last few seconds . M 2797
land and forests . M 2505
last two decades ? M 2460
laid off workers . M 2418
late for regrets . M 2302
last day together . M 2284
last six decades . M 2266
land and animals . M 2251
land and society . M 1938
land was located . M 1902
last meal together . M 1696
lack this ability . M 1664
land was visible . M 1582
last few decades ? M 1492
last two factors . M 1442
land they inhabit . M 1418
last two volumes . M 1346
lake and drowned . M 1309
land was divided . M 1304
last few minutes ? M 1236
land and liberty ! M 1226
land and language . M 1208
last two classes . M 1122
last two measures . M 1100
land can support . M 1020
last ten minutes ? M 999
land use studies . M 966
last two figures . M 948
lazy and useless . M 946
land was granted . M 934
land use matters . M 908
lack for company . M 880
last they stopped . M 872
land and country . M 867
lack this quality . M 866
last two numbers . M 860
last ten seconds . M 858
lazy and selfish . M 840
last two summers . M 840
land use program . M 818
land use classes . M 775
last and greatest . M 772
last they arrived . M 746
laid out gardens . M 720
late for prayers . M 714
land they claimed . M 700
last long journey . M 668
lack for friends . M 662
last two species . M 650
land was limited . M 636
last two winters . M 610
land use research . M 605
laying out grounds . M 594
last for minutes . M 592
laying out gardens . M 590
land use history . M 568
last she stopped . M 562
land use impacts . M 553
land use decision . M 550
land they operate . M 550
land they possess . M 544
land and religion . M 532
land for gardens . M 511
last key pressed . M 508
lady was present . M 502
lazy and corrupt . M 496
lady and himself . M 492
land put together . M 482
late for classes . M 476
land was unknown . M 476
land can produce . M 476
land and buildings ? M 476
land and produce . M 473
last two phrases . M 472
land and history . M 465
land use problem . M 462
land for decades . M 448
late for success . M 427
last for himself . M 422
last two lessons . M 406
late for service . M 393
laid out grounds . M 393
lady for himself . M 390
land and capital ? M 386
last year together . M 384
last two clauses . M 382
last and forever . M 378
lady and herself . M 374
last two seconds . M 373
last and highest . M 370
last she appeared . M 368
land and fortune . M 364
last few letters . M 362
laying and repairing . M 360
last ten minutes ! M 357
land they honored . M 352
lazy and immoral . M 350
land for herself . M 350
land and freedom ! M 344
last two criteria . M 342
land was secured . M 328
land was increasing . M 328
lady was married . M 328
last one hundred . M 324
laid out together . M 324
last two stories . M 318
land and justice . M 318
last being realized . M 316
land and shelter . M 314
land for schools . M 310
last she yielded . M 306
last one century . M 306
land they desired . M 306
last him forever . M 304
last day arrived . M 304
land use permits . M 304
land for support . M 304
land and gardens . M 304
land use element . M 300
land and treasure . M 299
land use choices . M 284
lack that quality . M 284
land and customs . M 281
lazy and spoiled . M 280
lake and gardens . M 280
lack that ability . M 279
last few summers . M 278
last two editions . M 276
land use process . M 273
last was written . M 270
last they started . M 270
land they control . M 268
lazy and content . M 262
last one together . M 262
last two hundred . M 261
land use project . M 260
land had appeared . M 252
laid for himself . M 250
land use measures . M 246
land use effects . M 246
land and workers . M 246
land and friends . M 245
last six minutes . M 242
lack for material . M 242
late for lessons . M 241
land was covered . M 239
last she arrived . M 238
land was reduced . M 238
last sad journey . M 232
land was useless . M 232
last you forever . M 230
last two samples . M 228
land with buildings . M 227
last two entries . M 226
land was allowed . M 226
lack and absence . M 226
last long illness . M 224
land for buildings . M 224
last was realized . M 222
lack and poverty . M 219
land and dignity . M 217
last two letters ? M 216
last her forever . M 216
last few entries . M 216
land was subject . M 216
last with success . M 212
land can sustain . M 210
land are limited . M 209
last had arrived . M 206
land for granted . M 201
land and prosper . M 201
last two together . M 200
last two sources . M 200
lake was visible . M 196
last two choices . M 192
lady with respect . M 190
land with castles . M 188
land was everything . M 188
late for justice . M 187
last two studies . M 186
land and location . M 184
last few winters . M 182
land use factors . M 182
last she laughed . M 180
land can provide . M 180
land and everything . M 180
land and castles . M 180
last two decades ! M 176
last few numbers . M 176
late with friends . M 175
last them forever . M 173
land was adopted . M 170
land and assault . M 170
land and belongings . M 169
last few lessons . M 168
land was resumed . M 166
land for animals . M 165
last few measures . M 164
land was exposed . M 164
last sad service . M 162
land thus granted . M 162
land for slavery . M 162
lake they command . M 161
last two voyages . M 160
last two results . M 160
land was claimed . M 160
land was assured . M 160
land nor capital . M 160
last are intense . M 158
land was planted . M 158
lady with dignity . M 158
late may onwards . M 156
land was doubled . M 156
land for example . M 156
lady had arrived . M 156
lack this element . M 156
land and persons . M 155
late for excuses . M 154
last two missions . M 154
last few remarks . M 152
land was measured . M 152
land and poverty . M 152
last two buttons . M 148
last two systems . M 146
last two instars . M 146
last few minutes ! M 144
late for remorse . M 142
last they appeared . M 142
land that remains . M 142
land and service . M 142
late for comfort . M 140
land and freedom ? M 140
lady was adamant . M 140
last two members . M 138
land and leisure . M 138
lake and stopped . M 138
land lying between . M 137
last few details . M 136
land with respect . M 136
land and position . M 136
land and profits . M 135
late for everything ? M 134
land was illegal . M 134
land use demands . M 134
last got together . M 133
lack for critics . M 133
last few decades ! M 132
land was offered . M 132
land may increase . M 132
last two victims . M 130
last ten decades . M 130
land was immense . M 130
land and damages . M 130
lack for clients . M 130
last they yielded . M 128
last that appeared . M 128
last few moments ? M 128
land was intense . M 128
land for shelter . M 128
late for marriage . M 127
land all together . M 127
laying off workers ? M 126
last ten volumes . M 126
last one tonight . M 126
land was donated . M 126
land for payment . M 126
land use schemes . M 125
lazy and passive . M 124
laying off teachers . M 124
last one entered . M 124
last for seconds . M 124
last day together ? M 124
lake this weekend . M 124
land being claimed . M 123
last two answers . M 122
land and schools . M 122
land and destiny . M 121
last two versions . M 120
land with violence . M 120
land are unknown . M 120
laid them together . M 120
late for everything ! M 119
last she replied . M 118
land they crossed . M 118
lack and failure . M 117
last two matches . M 116
last one himself . M 116
last few seconds ? M 116
land was revealed . M 116
land was managed . M 116
land and explore . M 115
late for regrets ! M 114
late and useless . M 114
late for pursuit . M 112
late for himself . M 112
last two effects . M 112
land was removed . M 112
land was minimal . M 112
land use criteria . M 112
land for himself ? M 111
laying out buildings . M 110
late for modesty . M 110
last all together . M 110
land was entered . M 110
land was blessed . M 110
land are evident . M 109
late and everything . M 108
last six seconds . M 108
last for herself . M 108
last for comfort . M 108
land for capital . M 108
lady had laughed . M 108
lady had entered . M 108
late law partner . M 106
last and largest . M 106
land was refused . M 106
land they receive . M 106
lake lay between . M 106
lake and everything . M 106
laid for herself . M 106
last two minutes ? M 105
land for repairs . M 105
last two thousand . M 104
last two objects . M 104
last two aspects . M 104
last for silence . M 104
land are located . M 104
land are increasing . M 104
lake and escaped . M 104
land and material . M 103
last two opinions . M 102
last and loudest . M 102
last all weekend . M 102
land was ignored . M 102
land was drowned . M 102
lack this insight . M 102
land and survive . M 101
last she arrives . M 100
land was evident . M 100
land may require . M 100
lady was suffering . M 100
lady can possess . M 100
lack real purpose . M 100
last two attacks . M 98
last ten percent . M 98
land was ordered . M 98
land and slavery . M 98
land and himself . M 98
laid out himself . M 98
lady can confide ? M 98
lack this support . M 98
last one written . M 96
last and hardest . M 96
land was declining . M 96
land for forests . M 96
late for college . M 95
last two schools . M 94
last six numbers . M 94
last six measures . M 94
last few hundred . M 94
land use dispute . M 94
last job together . M 92
land was private . M 92
lady for company . M 92
lady but herself ? M 92
lady and himself ? M 92
land for service . M 91
late his mistake . M 90
last was wounded . M 90
last two remarks . M 90
last two reactions . M 90
land with capital . M 90
land was stopped . M 90
land has appeared . M 90
lady this service . M 90
late with everything . M 89
land too quickly . M 89
last one arrived . M 88
last few buttons . M 88
land was started . M 88
land are measured . M 88
lady had retired . M 88
last dying moments . M 87
land and numbers . M 87
lack for friends ! M 87
lazy and foolish . M 86
late for history . M 86
late and limited . M 86
last two writers . M 86
last two records . M 86
last one stopped . M 86
last one remaining . M 86
land his country . M 86
lady has arrived . M 86
late for tonight . M 85
lake for himself . M 85
last two murders . M 84
last she decided . M 84
last few seconds ! M 84
land with justice . M 84
land his superior . M 84
land are divided . M 84
land and effects . M 84
lake was lowered . M 84
lake was located . M 84
late for victory . M 83
last ten thousand ! M 82
last get together . M 82
land and drowned . M 82
lake with friends . M 82
laid and blessed . M 82
lake and country . M 81
lack for variety . M 81
lazy and cynical . M 80
last year extinct . M 80
last was granted . M 80
last was dropped . M 80
last she uttered . M 80
land they acquire . M 80
lack for enemies . M 80
late this century . M 47
land and marriage . M 46
land and borders . M 43
land this account . M 41
land and century . M 40
