later called it . M 1798
large number of . M 1746
lands around it . M 1480
later regret it . M 1042
laugh behind me . M 867
later denied it . M 696
large before us . M 590
later became king . M 472
landing lights on . M 466
later picked up . M 442
large amount of . M 404
layer around it . M 392
lands beyond it . M 350
later bought it . M 332
large values of . M 330
later without it . M 328
layer behind it . M 316
large enough to . M 302
large before me . M 286
later broken up . M 260
layer builds up . M 240
labor should be . M 238
later joined us . M 206
later joined it . M 206
lands around us . M 202
lands behind us . M 200
layer covering it . M 184
later became so . M 180
large number do . M 180
laugh behind it . M 171
later become so . M 170
later drives us . M 168
later recall it . M 160
lands behind it . M 156
later signed it . M 148
later proved it . M 146
labor without it . M 143
lacking without it . M 140
later turned up . M 130
labor market is . M 122
later follow up . M 120
later regret it ? M 118
lakes around it . M 118
labor before us . M 116
label should be . M 116
large across it . M 114
later remove it . M 110
labor report no . M 110
lands before me . M 108
layer should be . M 104
landing around us . M 104
later obtain it . M 102
later agreed to . M 102
lands opened up . M 98
later forget it . M 94
later define it . M 94
later burned it . M 90
later accept it . M 90
later return to . M 88
labor behind it . M 88
later return it . M 86
later changed it . M 86
lands should be . M 84
later cleared up . M 82
later agreed on . M 82
labor before me . M 82
landing beside me . M 55
landing behind me . M 54
labor through it . M 46
