else may be said M 34310
else can be done M 20095
else can be said M 13130
else with the same M 6056
else all the time M 4907
else that we know M 4698
else that is good M 4672
else that we have M 4538
else being the same M 4520
else for the rest M 4516
else did he tell M 4184
else going on here M 3834
else has the same M 3810
else may be true M 3660
else can we find M 3634
else did he have M 3474
else had the same M 3464
else did the same M 3164
else for the time M 3136
else for the last M 3057
else for the next M 2896
else was the same M 2800
else can go wrong M 2798
else can be meant M 2670
else does the same M 2319
else was the fact M 2246
else run the risk M 2158
else was in there M 2121
else for the past M 2116
else can be seen M 2114
else had he been M 2095
else was at work M 2084
else may be done M 1892
else than the form M 1846
else that is worth M 1834
else out of your M 1818
else can we call M 1810
else can or will M 1802
else that is more M 1775
else did he know M 1738
else can be made M 1673
else with my life M 1658
else may be able M 1644
else doing the same M 1592
else was at hand M 1567
else was at home M 1524
else than the fact M 1522
else can we look M 1491
else than to make M 1452
else has to take M 1444
else had to take M 1437
else than the very M 1424
else for the same M 1396
else that is said M 1332
else but so many M 1325
else has it been M 1322
else but the truth M 1258
else all my life M 1257
else can do what M 1244
else can we learn M 1232
else may be wrong M 1230
else can we make M 1230
else does he have M 1226
else out of their M 1222
else but the will M 1216
else was to have M 1214
else than the most M 1206
else but the fact M 1177
else due to lack M 1170
else that we need M 1130
else that is very M 1117
else has to know M 1104
else that is done M 1101
else does he want M 1100
else than the great M 1098
else but the very M 1077
else but the most M 1065
else than the self M 1040
else that he knew M 1036
else but to make M 1034
else than the good M 1019
else who is more M 1009
else than the love M 1008
else did he want M 996
else who is also M 990
else that we must M 984
else than the word M 968
else does the work M 956
else can we think M 954
else can be used M 952
else that is also M 923
else that we were M 918
else has so much M 910
else are we here M 908
else than the will M 904
else one of those M 898
else all is lost M 892
else than to have M 856
else has he done M 848
else that he must M 838
else can we know M 836
else than the faith M 809
else that he said M 806
else had to have M 802
else that he will M 798
else had to come M 792
else who is trying M 786
else has to give M 786
else did we have M 770
else was to know M 768
else that is true M 768
else does he know M 766
else than the truth M 744
else had he done M 740
else had it been M 732
else than so many M 723
else how to live M 718
else but the lord M 712
else but the name M 706
else had to wait M 704
else that is wrong M 694
else than the same M 690
else has to make M 688
else but the love M 684
else than to give M 679
else than the work M 671
else did he need M 670
else can we turn M 666
else had to give M 662
else than in their M 660
else are so many M 660
else can be more M 654
else but to have M 654
else but the same M 644
else that we want M 638
else that he says M 630
else has to come M 628
else but in their M 624
else may be there M 621
else was in their M 617
else that we call M 614
else one of these M 610
else but the good M 610
else did the work M 608
else had to make M 606
else has he been M 603
else can be heard M 602
else can we have M 600
else than the name M 591
else does he need M 588
else than the pure M 587
else but the great M 584
else may be used M 578
else was to come M 576
else than the true M 574
else one or more M 570
else had he said M 568
else with the other M 567
else how to make M 564
else can we hope M 564
else but the making M 560
else was up there M 555
else than the holy M 552
else for an hour M 551
else has to lose M 550
else that he ever M 546
else had he seen M 542
else can be held M 540
else than the lord M 535
else than the type M 534
else than the full M 526
else for the good M 526
else than to take M 525
else than to know M 525
else and we will M 524
else can we tell M 518
else but to know M 518
else was on their M 512
else but to give M 504
else let me know M 500
else has to work M 500
else but the word M 500
else who is able M 497
else has as much M 494
else but the length M 492
else and it will M 492
else was so much M 491
else put it there M 489
else but the ideas M 489
else for the part M 486
else did he think M 486
else had so much M 482
else that is part M 479
else than the life M 475
else but to seek M 475
else has to wait M 474
else was so well M 473
else using the same M 472
else can we talk M 472
else can do your M 472
else than to live M 471
else that it will M 470
else but the form M 464
else but the self M 461
else saw or heard M 460
else than the body M 459
else can we help M 459
else goes to make M 458
else was in here M 453
else that is less M 452
else than the mode M 448
else you do will M 445
else that is made M 444
else had to know M 444
else going on there M 440
else can we give M 438
else but the hand M 435
else may be left M 434
else than to keep M 433
else can it have M 432
else may be their M 430
else out of life M 429
else and no other M 428
else can the poor M 424
else not to have M 422
else can he find M 422
else but in such M 420
else but the work M 417
else and we were M 416
else and the only M 415
else but the best M 414
else but in these M 409
else and we have M 406
else did as well M 405
else was in your M 403
else that is even M 403
else than to show M 402
else may be more M 402
else was the meaning M 401
else that is there M 400
else was as nothing M 398
else does it take M 398
else than the mind M 397
else you do well M 394
else and to have M 394
else out of mind M 392
else than at home M 390
else that we find M 386
else can he have M 386
else but in your M 384
else two or three M 381
else has the time M 381
else had the spring M 381
else than so much M 380
else that is most M 372
else can we live M 368
else but to love M 365
else may be seen M 362
else may be laid M 362
else that the same M 360
else than to their M 360
else than the time M 358
else has to have M 358
else doing the work M 358
else was to take M 356
else did he give M 356
else but the last M 356
else and the same M 356
else for the other M 355
else that is used M 354
else than the means M 354
else than the ideal M 353
else and the other M 351
else and he said M 351
else than the union M 347
else but to take M 346
else but the coming M 344
else was so busy M 338
else than the want M 337
else does it have M 334
else who in turn M 330
else that the other M 330
else but to live M 330
else but to keep M 330
else for the most M 326
else than the last M 325
else that is great M 324
else that he made M 322
else can be left M 322
else but the heart M 322
else than the well M 321
else that we will M 320
else can it ever M 320
else had he told M 319
else can be sure M 316
else than the theory M 312
else does as well M 312
else that the only M 311
else than the free M 311
else had the time M 311
else does or says M 310
else that is evil M 308
else did he find M 308
else did he take M 306
else that we think M 304
else has to pick M 304
else but the body M 304
else than to think M 303
else can as well M 302
else but the life M 302
else all the rest M 302
else can we keep M 300
else can do will M 300
else did he teach M 298
else that he felt M 297
else all at once M 297
else had he come M 295
else this is just M 294
else that it must M 294
else has to tell M 292
else can so well M 292
else but to tell M 292
else who is just M 291
else was on hand M 291
else one is left M 288
else and he will M 288
else for the fact M 287
else did so much M 287
else that the mind M 286
else that is just M 286
else may be made M 286
else does he give M 284
else but at home M 284
else was to give M 280
else does it show M 280
else has he told M 278
else got the same M 277
else may be lost M 274
else but to work M 273
else had to stay M 272
else and to make M 268
else with the most M 267
else was to make M 265
else but the meaning M 265
else they go away M 264
else has to live M 264
else for the post M 264
else did we need M 264
else that is meant M 263
else but to think M 261
else that is heavy M 260
else but the loss M 259
else put it into M 258
else does it come M 258
else can we take M 258
else with the name M 256
else does it tell M 256
else does he think M 256
else who is there M 255
else than in your M 255
else two or more M 254
else had he ever M 254
else than the more M 252
else can so many M 250
else but the well M 250
else that the next M 249
else that is hard M 248
else than an idle M 248
else how to play M 248
else are so much M 248
else that is much M 247
else had to work M 246
else but the bare M 246
else than the bare M 244
else did or said M 244
else that the said M 242
else can it come M 242
else can he look M 242
else was as good M 241
else and to take M 241
else and in some M 240
else than in these M 239
else but to call M 239
else who is very M 238
else was on duty M 238
else was at play M 238
else does so much M 236
else was in those M 234
else can so much M 234
else than the three M 233
else one or other M 232
else but to leave M 232
else that is mine M 230
else did so many M 230
else but the true M 228
else that is here M 226
else did he make M 226
else did he ever M 226
else but the young M 226
else but the wood M 226
else for the pain M 225
else but the want M 225
else can be very M 223
else that we knew M 222
else than to will M 222
else had to tell M 222
else did we learn M 222
else but the means M 222
else did we know M 221
else has to look M 218
else does the word M 218
else was in love M 216
else did we come M 216
else but the need M 216
else had so many M 214
else who is making M 213
else was as well M 213
else out of here M 212
else get the same M 212
else for the poor M 212
else that is like M 211
else had as much M 211
else can we ever M 211
else but so much M 211
else can we speak M 210
else was the case M 209
else for the role M 209
else are we having M 208
else that is left M 206
else than an epic M 206
else did he feel M 206
else was he here M 204
else did it come M 204
else did he talk M 204
else who is here M 202
else that is seen M 202
else that is lost M 202
else but the pure M 201
else than we have M 200
else than the living M 200
else can he know M 200
else was he there M 199
else this is what M 199
else may be meant M 198
else was in town M 194
else than to learn M 194
else does it need M 194
else but the holy M 194
else are the same M 194
else but to draw M 193
else with the help M 192
else has to play M 192
else but to find M 192
else was in view M 190
else may be good M 190
else had to leave M 190
else does it look M 190
else than to find M 189
else but in hell M 189
else was on your M 188
else than to hold M 188
else for the great M 188
else did he come M 188
else but the care M 188
else but in those M 188
else who is having M 186
else had to keep M 186
else does he make M 186
else die in debt M 186
else than the best M 185
else who is less M 184
else was he hiding M 184
else that he owns M 184
else can be there M 184
else but the other M 184
else and to love M 184
else all the other M 184
else that the lord M 182
else for the very M 182
else die of cold M 182
else can we show M 182
else can be your M 182
else than the rise M 181
else than the other M 181
else that the most M 180
else than the giving M 180
else with the rest M 179
else was the truth M 178
else was the great M 178
else let me come M 178
else lay in their M 178
else can we gain M 178
else than to help M 177
else and so forth M 177
else who is sick M 176
else can be here M 176
else than the longing M 175
else near at hand M 175
else that we care M 174
else than an echo M 174
else may be held M 174
else has to keep M 174
else that the great M 173
else was the only M 172
else was in such M 172
else that the word M 172
else that is holy M 172
else run the show M 172
else can he learn M 172
else but the three M 172
else but the evil M 171
else was the work M 170
else try to make M 170
else than the rule M 170
else had we been M 170
else but the mind M 170
else but be very M 170
else and as such M 170
else than to love M 169
else may be very M 169
else who is good M 168
else can do their M 168
else but an open M 168
else was in hiding M 167
else than to copy M 167
else has to move M 166
else had the heart M 166
else does the lord M 166
else does it make M 166
else was in fact M 165
else that we take M 165
else than an open M 165
else with my time M 164
else who is part M 164
else was no more M 164
else has to clean M 164
else has in mind M 164
else for the work M 164
else all the next M 164
else than to feel M 162
else had to stop M 162
else had in mind M 162
else does the like M 162
else does in fact M 162
else but to look M 162
else but to hold M 162
else than to seek M 161
else for the truth M 161
else than the need M 160
else than the idle M 160
else than by their M 160
else had to move M 160
else had the good M 160
else does it seem M 160
else does he seem M 160
else than to wait M 159
else with so much M 158
else was in good M 158
else out of pity M 158
else did it take M 158
else but to will M 158
else but it will M 158
else was to find M 157
else but the mode M 157
else and the next M 157
else and go back M 157
else than to save M 156
else can do these M 156
else and he knew M 156
else who is ready M 155
else than an evil M 155
else who is well M 154
else than the duty M 154
else did in those M 154
else was up here M 153
else but to come M 153
else but the pain M 153
else try to find M 152
else let us have M 152
else did he keep M 152
else can be good M 152
else but the free M 152
else but the door M 152
else you do during M 150
else that the best M 150
else than to work M 150
else say the same M 150
else out of time M 150
else has to step M 150
else has he said M 150
else for the love M 150
else than the coming M 148
else has to stay M 148
else had to live M 148
else does he show M 148
else can the ends M 148
else can he think M 148
else but to form M 148
else was the most M 147
else than the making M 147
else but to show M 147
else they go into M 146
else out of nothing M 146
else not to come M 146
else did the lord M 146
else did he leave M 146
else can go into M 146
else can be free M 146
else are we told M 146
else and in their M 146
else off the road M 144
else has to fill M 144
else has the file M 144
else does or ever M 144
else did we talk M 144
else and to give M 144
else that is ours M 143
else that he held M 143
else than to wish M 143
else with as much M 142
else did we find M 142
else can he make M 142
else that the truth M 141
else that he owed M 141
else why the need M 140
else that it means M 140
else that is other M 140
else has the heart M 140
else had to walk M 140
else but the girl M 140
else that the work M 139
else can do more M 139
else but to obey M 139
else was as much M 138
else than to look M 138
else may be your M 138
else has to stop M 138
else can he hope M 138
else and do what M 138
else who is living M 137
else than the young M 137
else that the term M 136
else than the birth M 136
else has it ever M 136
else does he feel M 136
else can he turn M 136
else can be sent M 136
else than to tell M 135
else can do much M 135
else and in fact M 135
else who is like M 134
else was the need M 134
else that is told M 134
else than the hope M 134
else pay the full M 134
else out of town M 134
else not to stop M 134
else had to step M 134
else had to find M 134
else had he heard M 134
else can we come M 134
else can go there M 134
else but the hope M 134
else but the view M 133
else you do when M 132
else with the time M 132
else was to hand M 132
else was he able M 132
else has to think M 132
else can be true M 132
else but to kill M 132
else but the next M 132
else are at play M 132
else that is warm M 131
else than the book M 131
else one of their M 131
else can we feel M 131
else was to look M 130
else than to kill M 130
else than the plan M 130
else set up your M 130
else may we look M 130
else had we seen M 130
else but the rule M 130
else but the land M 130
else was the last M 129
else that the heart M 129
else for so many M 129
else was it said M 128
else that is moving M 128
else may be taking M 128
else all the days M 128
else was the true M 127
else may as well M 127
else that the true M 126
else that is nice M 126
else may we find M 126
else for the young M 126
else does he speak M 126
else can he want M 126
else but the winged M 126
else are we made M 126
else that is what M 125
else that we like M 124
else than to draw M 124
else than an axiom M 124
else has the duty M 124
else has so many M 124
else had it done M 124
else can the same M 124
else can the great M 124
else but to your M 124
else but the rise M 124
else that he told M 123
else but to learn M 123
else who is reading M 122
else was to learn M 122
else using the name M 122
else than the wind M 122
else goes to work M 122
else for the uses M 122
else can the fact M 122
else are we when M 122
else are we able M 122
else and no part M 121
else who is much M 120
else than the ratio M 120
else than the next M 120
else saw the same M 120
else may be just M 120
else with the eyes M 119
else that we learn M 119
else that the rest M 119
else that the land M 119
else but to speak M 119
else and to whom M 119
else who is taking M 118
else that the room M 118
else that no other M 118
else than in such M 118
else has to help M 118
else has the good M 118
else did he speak M 118
else can the word M 118
else can be born M 118
else but the gift M 118
else and be able M 118
else that is living M 117
else that is fine M 117
else that he left M 117
else than to lose M 117
else than the fire M 117
else but to feed M 117
else but the wind M 117
else was the deep M 116
else than to break M 116
else out of view M 116
else has or ever M 116
else had he left M 116
else does the very M 116
else can do such M 116
else can be kept M 116
else but the union M 116
else are the like M 116
else are the great M 116
else all the good M 116
else that the time M 115
else than the only M 115
else use the same M 114
else had to help M 114
else did the great M 114
else can do just M 114
else but to save M 114
else are the very M 114
else was in full M 113
else for the week M 113
else was so rich M 112
else then to love M 112
else one is nothing M 112
else has to leave M 112
else has to find M 112
else has he made M 112
else had to rely M 112
else can we meet M 112
else but the time M 112
else are we ever M 112
else with my name M 111
else was to keep M 111
else but the ruin M 111
else that is only M 110
else than the tail M 110
else than the lack M 110
else than the heart M 110
else than the hand M 110
else put in their M 110
else may go wrong M 110
else has to learn M 110
else had to lose M 110
else had to look M 110
else but the poor M 110
else but the full M 110
else and to work M 110
else that we hold M 109
else than the laying M 109
else did he learn M 109
else but the faith M 109
else you or your M 108
else was at best M 108
else than is there M 108
else out of there M 108
else has so good M 108
else has or will M 108
else got the part M 108
else doing the evil M 108
else can we wish M 108
else but the theory M 108
else was in tears M 107
else that we feel M 107
else that the more M 107
else can be only M 107
else but the four M 107
else and the body M 107
else was in need M 106
else that is making M 106
else than to turn M 106
else than the vain M 106
else than the four M 106
else may be only M 106
else going to have M 106
else due to their M 106
else can the face M 106
else can it pass M 106
else but to those M 106
else but to these M 106
else and the fact M 106
else and no more M 106
else and he felt M 106
else that the young M 105
else was in play M 104
else use the word M 104
else that is held M 104
else that he heard M 104
else may be coming M 104
else had he gone M 104
else does he find M 104
else die in their M 104
else did it have M 104
else can be wrong M 104
else are the rich M 104
else and the more M 104
else and as soon M 104
else that is born M 103
else than to gain M 103
else and the most M 103
else was of much M 102
else than to teach M 102
else not to take M 102
else may be trying M 102
else may be hurt M 102
else for me here M 102
else does the name M 102
else with the last M 100
else that is soft M 100
else than my past M 100
else out of what M 100
else not to make M 100
else let us cease M 100
else has no meaning M 100
else does the term M 100
else can we seek M 100
else can we reach M 100
else can we play M 100
else can the young M 100
else but to play M 100
else are the poor M 100
else why so many M 99
else that he came M 99
else than to speak M 99
else than the main M 99
else but to pray M 99
else but the fall M 99
else was it more M 98
else that the game M 98
else than to pray M 98
else than the echo M 98
else say the word M 98
else let me have M 98
else does the book M 98
else can we love M 98
else can we even M 98
else but the past M 98
else but the clear M 98
else and it just M 98
else and he left M 98
else and at some M 98
else than the ideas M 97
else was he trying M 96
else was at peace M 96
else try to tell M 96
else that is their M 96
else than the wild M 96
else than the land M 96
else out of these M 96
else may go into M 96
else let me pass M 96
else hang it upon M 96
else had the means M 96
else going to take M 96
else goes on here M 96
else does it hurt M 96
else does he tell M 96
else can we view M 96
else who is acting M 95
else and so have M 95
else was at risk M 94
else may be dark M 94
else has the means M 94
else has so well M 94
else had to pick M 94
else but the baby M 94
else but of their M 94
else being in love M 94
else all is wrong M 94
else than the just M 93
else and to think M 93
else was so good M 92
else was in some M 92
else that we wish M 92
else that we ever M 92
else than an angry M 92
else how to give M 92
else has the other M 92
else can or ever M 92
else can be dealt M 92
else but my work M 92
else and he gave M 92
else and to keep M 91
else was to tell M 90
else that the high M 90
else than of giving M 90
else can be like M 90
else but to reading M 90
else but the part M 90
else that is pure M 89
else than to leave M 89
else but of what M 89
else who is paying M 88
else was the best M 88
else try to keep M 88
else that my mind M 88
else than to fill M 88
else had to sell M 88
else had to face M 88
else does in truth M 88
else does he call M 88
else did the poor M 88
else did in great M 88
else can we send M 88
else can he feel M 88
else but to wish M 88
else was in vain M 87
else that so much M 87
else but by some M 87
else was it when M 86
else that the heir M 86
else that the acts M 86
else that is coming M 86
else than the loss M 86
else than the cold M 86
else how to find M 86
else has as many M 86
else had to play M 86
else had to fall M 86
else going on when M 86
else does the wind M 86
else but the breath M 86
else are in some M 86
else and it made M 86
else that is safe M 84
else that is ever M 84
else than the heavy M 84
else has to fall M 84
else has as good M 84
else goes in there M 84
else doing it wrong M 84
else does the most M 84
else can we teach M 84
else can we sell M 84
else can it take M 84
else but to move M 84
else was the loss M 83
else that is rare M 83
else was the poor M 82
else than the site M 82
else than the hard M 82
else has as well M 82
else had he kept M 82
else does the poor M 82
else does he keep M 82
else can he tell M 82
else and to know M 82
else are the most M 81
else was on time M 80
else that is past M 80
else out of work M 80
else has it done M 80
else has he heard M 80
else due to some M 80
else can the mind M 80
else all at rest M 80
else was in line M 73
else that the city M 72
else that he sees M 72
else that the body M 69
else than in what M 69
else with the land M 68
else for the coming M 65
else that the very M 60
else who is wise M 59
else was at their M 59
else goes to hell M 59
else that it came M 58
else but an evil M 57
else that the good M 56
else that the book M 56
else and we must M 56
else that we love M 55
else for the loss M 55
else who is only M 54
else but the living M 54
else and in what M 54
else that is well M 52
else are of such M 52
else but the only M 51
else with the means M 50
else that he went M 50
else for the kids M 50
else for the army M 50
else that the user M 49
else for the three M 49
else who is worth M 48
else does he like M 48
else but to stay M 48
else that we used M 47
else that the holy M 47
else but the play M 47
else and we need M 47
else with the word M 46
else with the great M 46
else that the text M 46
else that the case M 46
else for the best M 46
else but the game M 46
else and the rest M 46
else and do nothing M 46
else with the best M 45
else than the seeing M 45
else than the ever M 45
else for the lack M 45
else but in south M 45
else and no less M 45
else and is very M 45
else and if there M 45
else with the work M 44
else was to leave M 44
else than of their M 44
else for the four M 44
else and it came M 44
else with so many M 43
else than the taking M 43
else than the high M 43
else for the lord M 43
else but the home M 43
else but my poor M 43
else and the case M 43
else and do some M 43
else was so ready M 42
else that we lack M 42
else that the well M 42
else that the name M 42
else than to obey M 42
else can go along M 42
else but to send M 42
else but the hard M 42
else but he knew M 42
else but go from M 42
else but by their M 42
else and it must M 42
else and he must M 42
else than the wish M 41
else for us here M 41
else for my life M 41
else did as much M 41
else but to their M 41
else but the rate M 41
else but the fast M 41
else and at once M 41
else who is your M 40
else was in hearing M 40
else that the life M 40
else that he used M 40
else than the clear M 40
else not so much M 40
else but to turn M 40
else but to talk M 40
else but the acting M 40
else for the sake D 3616
else than the mere D 1917
else for at least D 952
else but the mere D 722
else than the clan D 557
else than the soul D 494
else had no soul D 472
else but the soul D 434
else had the least D 410
else off the hook D 402
else had the guts D 372
else had he lied D 334
else was at least D 262
else has the least D 232
else was on deck D 228
else has the guts D 212
else had at least D 212
else than the laws D 192
else for the task D 190
else but my wife D 188
else can the soul D 186
else with the shoes D 182
else that is sold D 177
else can he brew D 170
else but the laws D 169
else that is vile D 168
elms and the oaks D 168
else that he took D 154
else get the news D 154
else lay in dewy D 148
else that is foul D 144
else has at least D 144
else with the task D 134
else that at least D 132
else mow the room D 132
else for the mess D 127
else but the beams D 126
else was in jeans D 124
else that the soul D 120
else read or scan D 117
else but at least D 116
else pay the bill D 114
else that the tent D 112
else then at least D 110
else was he wearing D 108
else they at least D 108
else but the doings D 108
else but the wrath D 107
else who is facing D 106
else got the joke D 106
else but an hymn D 105
else than the vote D 103
else set the pace D 102
elms and the high D 102
else but the poesy D 100
else but the mien D 100
else was on foot D 98
else and at least D 96
else than the bane D 94
else but the news D 94
else are the laws D 90
elms are the most D 90
else that the cash D 88
else how to vote D 88
else can be paid D 88
else than sea salt D 86
else mow the lawn D 86
else for the duke D 85
else but to throw D 85
else who is paid D 84
else that the foul D 84
else but the bread D 82
else than the wrath D 80
else for the lure D 80
else for the mere D 62
else that it took D 57
else was the least D 51
else and it took D 48
else that the firm D 46
else that is akin D 42
else than the bringing D 42
else with the ball D 41
else was in flux D 41
else but the task D 41
