all the others . M 532380
all the world . M 523284
all the people . M 257043
all the while . M 212290
all the facts . M 111345
all my fault . M 75000
all the morning . M 47136
all on board . M 41158
all the money . M 41094
all the evening . M 38210
all the parts . M 37292
all my might . M 34800
all the rules . M 32338
all the cases . M 32204
all the world ! M 31119
all the world ? M 26852
all the others ? M 26236
all he could . M 26098
all the glory . M 23494
all the words . M 22736
all the night . M 22724
all in order . M 18474
all the girls . M 18414
all it takes . M 18301
all the above . M 17528
all the stops . M 17380
all the power . M 17230
all the women . M 16956
all the books . M 16456
all the blame . M 15906
all in black . M 14431
all is quiet . M 14419
all the tests . M 14246
all my money . M 14078
all in white . M 13817
all the water . M 13558
all the people ? M 13410
all the noise . M 13058
all in place . M 13030
all the worse . M 12578
all he knows . M 12516
all the trees . M 12206
all is right . M 11830
all he wants . M 11576
all the items . M 11438
all the names . M 10646
all the cells . M 10352
all my fault ! M 10136
all is still . M 9339
all the while ? M 9126
all the angles . M 9050
all the lines . M 8990
all my plans . M 8788
all the action . M 8738
all the costs . M 8550
all the easier . M 8352
all the steps . M 8194
all my hopes . M 7994
all the walls . M 7866
all the towns . M 7646
all the risks . M 7540
all the story . M 7500
all we could . M 7498
all to enjoy . M 7313
all in motion . M 7215
all up again . M 7112
all the birds . M 7088
all he needs . M 6934
all the signs . M 6784
all he cared . M 6784
all the party . M 6768
all the forms . M 6718
all the lands . M 6494
all the oceans . M 6442
all my people . M 6400
all the files . M 6378
all the terms . M 6292
all my needs . M 6198
all the blood . M 6118
all the others ! M 6090
all the money ? M 5872
all the house . M 5872
all the units . M 5832
all be happy . M 5820
all the games . M 5814
all my books . M 5808
all the space . M 5660
all to blame . M 5659
all the sites . M 5570
all the vices . M 5480
all the while ! M 5354
all the kingdom . M 5354
all be right . M 5336
all the light . M 5156
all the facts ? M 4980
all he asked . M 4932
all be equal . M 4932
all he wrote . M 4858
all the ships . M 4686
all the plans . M 4668
all my dreams . M 4658
all the sides . M 4638
all my power . M 4634
all in danger . M 4564
all the hills . M 4510
all the edges . M 4322
all the angels . M 4308
all to share . M 4289
all of space . M 4236
all in others . M 4178
all the pages . M 4042
all the leaves . M 3976
all my wants . M 3970
all the notes . M 3916
all be saved . M 3916
all the tasks . M 3908
all the holes . M 3904
all the glory ! M 3836
all the boxes . M 3810
all the people ! M 3806
all the goods . M 3772
all the moves . M 3756
all the stuff . M 3726
all the works . M 3648
all the bones . M 3600
all the times . M 3574
all in ruins . M 3549
all the place . M 3536
all the music . M 3490
all the users . M 3476
all in heaven . M 3473
all the field . M 3462
all my bones . M 3362
all the breaks . M 3354
all the tools . M 3332
all be yours . M 3198
all the gifts . M 3164
all at first . M 3154
all my fault ? M 3062
all is known . M 3062
all on paper . M 3053
all it could . M 3032
all the seeds . M 3030
all the gates . M 3010
all the season . M 2982
all so happy . M 2958
all my stuff . M 2908
all my pride . M 2904
all the plain . M 2892
all the types . M 2802
all to shame . M 2770
all the debts . M 2768
all at night . M 2764
all the evening ? M 2726
all it needs . M 2708
all in doubt . M 2708
all the noise ? M 2666
all the running . M 2664
all the needs . M 2660
all the state . M 2630
all to sleep . M 2587
all the texts . M 2564
all be proud . M 2508
all the lakes . M 2470
all the beasts . M 2404
all in writing . M 2392
all my debts . M 2388
all the crowd . M 2378
all the group . M 2376
all my works . M 2356
all the roots . M 2328
all of yours . M 2310
all the calls . M 2250
all the locks . M 2220
all is night . M 2196
all the clues . M 2184
all of grace . M 2181
all in favor ? M 2175
all the lists . M 2160
all my force . M 2160
all is plain . M 2154
all the heirs . M 2152
all the rocks . M 2148
all the modes . M 2148
all my house . M 2122
all the monks . M 2112
all the exits . M 2054
all the grass . M 2050
all the morning ? M 2044
all the trials . M 2024
all the thinking . M 2006
all the threads . M 1986
all the chaos . M 1978
all to stand . M 1960
all it costs . M 1958
all the class . M 1942
all is ended . M 1942
all the links . M 1938
all my goods . M 1922
all the months . M 1906
all the posts . M 1904
all the shows . M 1876
all be found . M 1864
all he owned . M 1836
all the fires . M 1828
all the danger . M 1826
all the longer . M 1816
all the woods . M 1800
all the coast . M 1796
all the labor . M 1774
all the bands . M 1772
all be hanged . M 1756
all to others . M 1717
all be alike . M 1708
all to heaven . M 1702
all be noted . M 1702
all of theirs . M 1674
all at fault . M 1670
all to ashes . M 1668
all the writing . M 1662
all the codes . M 1648
all the press . M 1602
all the money ! M 1596
all is yours . M 1596
all the women ? M 1592
all the killing . M 1586
all is given . M 1586
all in front . M 1576
all the unions . M 1568
all the words ? M 1566
all the globe . M 1548
all my views . M 1544
all as usual . M 1541
all in phase . M 1538
all in print . M 1530
all the rules ? M 1520
all the loads . M 1512
all the bother . M 1510
all my story . M 1500
all he meets . M 1494
all the views . M 1486
all is light . M 1466
all the seven . M 1464
all the girls ? M 1438
all my labor . M 1428
all in green . M 1411
all is change . M 1398
all my money ? M 1388
all the paper . M 1386
all is chaos . M 1386
all the bells . M 1372
all the readings . M 1354
all it wants . M 1350
all my words . M 1348
all the marks . M 1344
all the parts ? M 1340
all the change . M 1340
all to enter . M 1292
all the pairs . M 1288
all the hours . M 1276
all be taken . M 1276
all my money ! M 1266
all of heaven . M 1252
all the evening ! M 1246
all the beauty . M 1246
all he loved . M 1236
all be known . M 1224
all my calls . M 1218
all the teaching . M 1206
all in color . M 1190
all he cares . M 1190
all the hurry ? M 1176
all in order ? M 1176
all my glory . M 1162
all so proud . M 1150
all the honor . M 1144
all the gains . M 1144
all my cares . M 1120
all of value . M 1114
all it takes ? M 1114
all the books ? M 1112
all in verse . M 1108
all the hands . M 1096
all be false . M 1096
all the dates . M 1084
all in keeping . M 1082
all the turns . M 1080
all the enemy . M 1078
all my notes . M 1028
all the glory ? M 1024
all the goals . M 1022
all is saved . M 998
all the idols . M 976
all to light . M 972
all the cleaning . M 960
all the tales . M 956
all at times . M 954
all my might ! M 948
all it seems . M 947
all the water ? M 946
all the blame ? M 946
all of music . M 946
all my trials . M 943
all of which . M 940
all my thinking . M 940
all the needy . M 938
all in again . M 938
all the guilt . M 934
all in action . M 929
all the walking . M 928
all to change . M 916
all he found . M 914
all my thanks . M 908
all the meanings . M 904
all to labor . M 900
all the loops . M 898
all the waiting . M 896
all by turns . M 891
all the verbs . M 890
all the bearings . M 886
all the night ? M 884
all the acids . M 882
all my grief . M 876
all be sorry . M 868
all my trust . M 866
all the morning ! M 854
all the abuse . M 852
all to exist . M 850
all the heroes . M 850
all the above ? M 850
all the trees ? M 842
all the clothing . M 842
all the traps . M 840
all the lords . M 840
all to write . M 836
all is grace . M 834
all up again ? M 832
all the sound . M 832
all the ruins . M 830
all in honor . M 828
all my writing . M 824
all the faiths . M 822
all the echoes . M 822
all the grief . M 820
all the thanks . M 816
all up front . M 814
all my world . M 802
all be happy ! M 802
all the green . M 796
all the waste . M 788
all the power ? M 788
all it takes ! M 786
all we asked . M 778
all my steps ? M 774
all on board ! M 770
all the spoil . M 768
all the stuff ? M 764
all go naked . M 762
all the worry . M 760
all my blood . M 760
all in prose . M 758
all in poetry . M 755
all at table . M 752
all is right ! M 750
all the truths . M 744
all be tried . M 744
all in favor . M 743
all my cases . M 740
all the bother ? M 738
all is still ! M 736
all the facts ! M 734
all the rules ! M 730
all the zeros . M 728
all my hopes ! M 728
all so quiet . M 727
all the color . M 726
all we found . M 724
all my store . M 724
all is black . M 722
all the blows . M 716
all the folds . M 712
all the ranges . M 704
all to action . M 698
all my parts . M 698
all the magic . M 694
all so awful . M 694
all my guilt . M 692
all the story ? M 690
all the girls ! M 690
all it knows . M 688
all by others . M 688
all so close . M 686
all is false . M 686
all to study . M 684
all to avoid . M 684
all on board ? M 676
all he wants ? M 672
all he knows ? M 672
all in white ? M 670
all it holds . M 668
all so happy ! M 664
all the hosts . M 662
all the caves . M 662
all in words . M 661
all the blood ? M 660
all to fight . M 658
all the cases ? M 656
all the night ! M 654
all my people ? M 652
all the speaking . M 642
all the nouns . M 642
all be white . M 642
all on again . M 640
all to order . M 638
all in check . M 638
all the dreams . M 636
all so quick . M 636
all of anything . M 636
all the names ? M 634
all the lives . M 634
all in haste . M 634
all he liked . M 632
all my bliss . M 630
all the point . M 628
all be seated . M 626
all is empty . M 624
all he likes . M 622
all my clothing . M 620
all the white . M 616
all be heroes . M 612
all the worst . M 610
all be saved ? M 604
all the force . M 602
all be right ? M 598
all be given . M 598
all the realms . M 596
all by women . M 596
all the merit . M 588
all my frame . M 588
all the exams . M 586
all my lands . M 586
all in error . M 584
all my hours . M 582
all my girls . M 582
all on others . M 580
all the fluid . M 576
all be quiet . M 572
all the floor . M 570
all the proof . M 568
all the women ! M 566
all so easily . M 566
all to waste . M 564
all my exams . M 564
all the wiser . M 562
all in force . M 562
all so vague . M 560
all in pairs . M 560
all in music . M 559
all the worse ! M 558
all my stuff ? M 558
all the lands ! M 556
all the worms . M 552
all my kingdom . M 552
all in focus . M 552
all in ashes . M 552
all to music . M 548
all in women . M 548
all to judge . M 544
all in black ? M 544
all the cakes . M 542
all be about . M 542
all to women . M 541
all is found . M 538
all is water . M 536
all be shown . M 536
all the usual . M 534
all of above . M 533
all to agree . M 530
all the reply . M 530
all my deeds . M 524
all the selling . M 522
all the poetry . M 520
all he thinks . M 518
all in peril . M 516
all so small . M 515
all be about ? M 514
all the testing . M 508
all the birds ? M 508
all he loves . M 508
all the cages . M 502
all my people ! M 500
all go under . M 498
all the risks ? M 494
all the halls . M 492
all the cores . M 492
all is order . M 492
all by force . M 492
all to offer . M 485
all the input . M 484
all on trust . M 484
all of white . M 482
all my steps . M 480
all go right . M 480
all the voids . M 472
all the hearts . M 472
all the cutting . M 472
all the music ? M 470
all on track . M 469
all in white ! M 469
all go hungry . M 466
all the trips . M 464
all the sorts . M 464
all the breaks ? M 464
all the icons . M 462
all on stage . M 459
all the delay . M 456
all the masks . M 454
all the axioms . M 454
all the period . M 452
all the books ! M 452
all my walks . M 452
all my learning . M 452
all the wider . M 450
all the tests ? M 450
all the boxes ? M 450
all in blood . M 449
all we cared . M 448
all is false ! M 448
all my teaching . M 446
all in fault . M 446
all is equal . M 442
all in point . M 442
all he ought . M 442
all the depths . M 440
all the saved . M 438
all the plant . M 438
all in brown . M 438
all by reason . M 436
all be black . M 436
all the threats . M 434
all we write . M 432
all the growth . M 430
all of women . M 430
all is taken . M 428
all he earned . M 428
all to laugh . M 426
all the crack . M 426
all he feels . M 426
all so often . M 424
all my files . M 422
all in space . M 422
all as equal . M 422
all so plain . M 418
all in water . M 416
all in danger ? M 414
all the ideals . M 408
all my dreams ! M 408
all is beauty . M 407
all to watch . M 406
all my lines . M 404
all my hopes ? M 404
all is pleasing . M 404
all the reason . M 402
all the action ? M 402
all the first . M 400
all be valid . M 400
all in power . M 397
all my goals . M 396
all my music . M 394
all to scale . M 393
all the storm . M 392
all the kingdom ? M 390
all the water ! M 386
all the words ! M 384
all the steps ? M 384
all is spent . M 384
all by storm . M 384
all my mother . M 380
all to match . M 377
all the walks . M 376
all the nicer . M 376
all is yours ! M 374
all my plans ! M 372
all so sweet . M 370
all we enjoy . M 368
all in holes . M 368
all in books . M 368
all be yours ! M 368
all be ended . M 368
all the stems . M 366
all my tools . M 366
all by night . M 366
all in order ! M 363
all the learning . M 362
all the river . M 358
all the humor . M 358
all in class . M 357
all the tombs . M 356
all he makes . M 356
all by water . M 356
all be alike ? M 356
all the stops ! M 354
all of poetry . M 354
all on offer . M 352
all the parts ! M 350
all the cults . M 350
all the safer . M 348
all he might . M 348
all we could ? M 346
all the ashes . M 346
all the blame ! M 344
all to serve . M 342
all on guard . M 342
all in place ? M 342
all is bliss . M 340
all the births . M 338
all my father . M 338
all the games ? M 336
all the weather . M 334
all the agony . M 334
all of learning . M 334
all my others . M 334
all to spare . M 332
all the brave . M 332
all the weaker . M 328
all the trees ! M 328
all in beauty . M 326
all of today . M 324
all the thorns . M 322
all my change . M 322
all as shown . M 322
all the blood ! M 320
all the power ! M 318
all the motion . M 318
all the arguing . M 318
all my party . M 318
all my lives . M 318
all the hunting . M 316
all so quiet ? M 316
all my verse . M 316
all my tests . M 316
all to shame ! M 314
all the flaws . M 314
all the birds ! M 314
all he could ? M 314
all go right ? M 314
all the issue . M 312
all the drops . M 312
all is green . M 312
all to begin . M 311
all the shame . M 310
all the brood . M 310
all my trips . M 310
all be spent . M 310
all be burnt . M 310
all the black . M 308
all he cared ! M 308
all at issue . M 308
all the lower . M 306
all the hearings . M 306
all is white . M 306
all at large . M 306
all the freer . M 304
all be named . M 304
all be fixed . M 304
all be alive . M 304
all in style . M 303
all the praying . M 302
all the finds . M 302
all so hungry . M 302
all is ended ! M 302
all in light . M 302
all to solve . M 300
all the vices ? M 300
all is motion . M 300
all to glory . M 298
all the terms ? M 298
all the items ? M 298
all of labor . M 298
all be healed . M 298
all be happy ? M 298
all to start . M 296
all the costs ? M 294
all of others . M 294
all my toils . M 294
all the videos . M 292
all the sense . M 292
all the place ? M 292
all to marry . M 291
all the pulling . M 290
all the deeds . M 290
all so badly . M 290
all in unity . M 290
all the value . M 288
all my games . M 288
all is added . M 288
all so amazing . M 287
all be women . M 286
all be freed . M 284
all the route . M 282
all is alive . M 282
all as false . M 282
all the warmth . M 280
all the killing ? M 280
all the jails . M 280
all the frame . M 280
all in shape . M 280
all the signs ? M 278
all my women . M 278
all is vague . M 278
all be hungry . M 278
all we claim . M 276
all to mother . M 276
all of nursing . M 276
all my heroes . M 276
all to grasp . M 274
all my gains . M 274
all is money . M 274
all he seems . M 274
all so still . M 273
all the crime . M 272
all be hanged ! M 272
all be empty . M 272
all the hungry . M 270
all the drawing . M 270
all he finds . M 270
all go broke . M 270
all be small . M 270
all to blame ? M 268
all the style . M 268
all the right . M 268
all so happy ? M 268
all the dearer . M 266
all my plans ? M 266
all the table . M 264
all the queen . M 264
all the child . M 264
all of either . M 264
all my might ? M 264
all my voice ! M 262
all my gifts . M 262
all in money . M 262
all he wants ! M 262
all he knows ! M 262
all the might . M 260
all my books ? M 260
all in glory . M 260
all be working . M 260
all the heaven . M 258
all the filling . M 258
all my loves . M 258
all he needs ? M 258
all we share . M 256
all the kicks . M 256
all the board . M 256
all my needs ? M 256
all he hoped . M 256
all so sorry . M 255
all to blame ! M 254
all the goods ? M 254
all the fight . M 254
all in motion ? M 254
all in error ? M 254
all be right ! M 252
all the train . M 250
all the guard . M 250
all up later . M 248
all the playing . M 248
all the nursing . M 248
all the calling . M 248
all of light . M 248
all be theirs . M 248
all the angels ! M 246
all so upset . M 244
all in exile . M 242
all to sleep ? M 240
all the tours . M 240
all the nearer . M 240
all so vivid . M 240
all my shame . M 240
all is amazing . M 240
all the house ? M 238
all by names . M 238
all be healthy . M 238
all the stops ? M 236
all the minds . M 236
all is wanting . M 236
all in touch . M 236
all my rules . M 234
all up again ! M 232
all the chasing . M 232
all in train . M 230
all in danger ! M 230
all to ashes ! M 228
all the verse . M 228
all the lifting . M 228
all in motion ! M 228
all be waiting . M 228
all to right . M 226
all the pushing . M 226
all my flaws . M 226
all is right ? M 226
all an error . M 226
all we touch . M 224
all the ships ? M 224
all the doubt . M 224
all so alike . M 224
all of thirty . M 224
all my moves . M 224
all my ideals . M 224
all the lines ? M 222
all my feeling . M 222
all to visit . M 220
all to gather . M 220
all the noise ! M 220
all the blind . M 220
all in trust . M 220
all in shade . M 220
all in heaven ! M 220
all the youths . M 218
all the alarm . M 218
all my debts ! M 218
all be strong . M 218
all it meets . M 216
all he kills . M 216
all he gives . M 216
all be legal . M 216
all is fixed . M 214
all by phone . M 214
all to doubt . M 212
all the panic ? M 212
all the lands ? M 212
all the cross . M 212
all the angles ? M 212
all of water . M 212
all my tasks . M 212
all in black ! M 212
all to please . M 210
all the jumps . M 210
all be slave . M 210
all be cured . M 210
all to writing . M 208
all so lucky . M 208
all us girls . M 206
all the wares . M 206
all the front . M 206
all the breaks ! M 206
all the bowls . M 206
all be wealthy . M 206
all be lucky . M 206
all to beauty . M 205
all the wants . M 204
all the walls ? M 204
all the place ! M 204
all of yours ? M 204
all of yours ! M 204
all my reason . M 204
all my dreams ? M 204
all my books ! M 204
all is lacking . M 204
all be equal ? M 204
all to reason . M 202
all to crack . M 202
all so dearly . M 202
all my paper . M 202
all go armed . M 202
all at others . M 202
all to motion . M 200
all the house ! M 200
all be blind . M 200
all the mixes . M 198
all of money . M 198
all to worry . M 197
all the upset . M 196
all the holds . M 196
all the haste ? M 196
all the angels ? M 196
all my vices . M 196
all my shows . M 196
all to cross . M 194
all the names ! M 194
all my poetry . M 194
all is within . M 194
all to appear . M 192
all the cures . M 192
all in paper . M 192
all we owned . M 190
all to paper . M 190
all the wills . M 190
all the hopes . M 190
all the grace . M 190
all is action . M 190
all the delay ? M 188
all the cause . M 188
all the action ! M 188
all of seven . M 188
all of logic . M 188
all is quiet ! M 188
all go again . M 188
all be aware . M 188
all the space ? M 186
all the files ? M 186
all in decay . M 186
all be easier . M 186
all the pages ? M 184
all the hurry . M 184
all the error . M 184
all my facts . M 184
all is sweet . M 184
all is known ? M 184
all the miles . M 182
all is mixed . M 182
all in turns . M 182
all in sleep . M 181
all in grief . M 180
all at piety . M 180
all to water . M 178
all the mother . M 178
all of forty . M 178
all is waste . M 178
all is unity . M 178
all is sound . M 178
all is human . M 178
all be still . M 178
all by grace . M 177
all up tight . M 176
all to grace . M 176
all the thinking ? M 176
all the stream . M 176
all of people . M 176
all to prove . M 174
all to enjoy ! M 174
all the working . M 174
all of units . M 174
all the loves . M 172
all the gifts ? M 172
all the bending . M 172
all of winning . M 172
all of grace ! M 172
all he needs ! M 172
all the fools . M 170
all the feeling . M 170
all the clues ? M 170
all my child . M 170
all is solid . M 170
all is night ! M 170
all in boxes . M 170
all be worse . M 170
all so grand . M 169
all to create . M 168
all the worry ? M 168
all the weeks . M 168
all the rocks ? M 168
all the hurts . M 168
all the crowd ? M 168
all the cells ? M 168
all so right . M 168
all my folly . M 168
all my cares ? M 168
all it shows . M 168
all in chaos . M 168
all be broke . M 168
all the scale . M 166
all the panic . M 166
all the light ? M 166
all the holes ? M 166
all on women . M 166
all of black . M 166
all my power ? M 166
all it gives . M 166
all in people . M 166
all be whole . M 166
all to spend . M 164
all the sitting . M 164
all my ships . M 164
all is missing . M 164
all be girls . M 164
all an actor . M 164
all to breathe . M 162
all the watch . M 162
all my voice . M 162
all my reply . M 162
all to bless . M 160
all of ethics . M 160
all my stuff ! M 160
all is working . M 160
all be green . M 160
all be brave . M 160
all the smiling . M 158
all the quiet . M 158
all the price . M 158
all so human . M 158
all my study . M 158
all is healed . M 158
all en route . M 158
all be saved ! M 158
all in season . M 157
all in learning . M 157
all the plans ? M 156
all the onions . M 156
all the logic . M 156
all the fools ! M 156
all the fates . M 156
all my vision . M 156
all my power ! M 156
all my honor . M 156
all my debts ? M 156
all in agony . M 156
all to thinking . M 155
all up short . M 154
all so still ! M 154
all my names . M 154
all is happy . M 154
all be armed . M 154
all so empty . M 153
all the twigs . M 152
all the stealing . M 152
all the method . M 152
all my beauty . M 152
all in alarm . M 152
all the worse ? M 150
all the truer . M 150
all the oceans ? M 150
all the notes ? M 150
all the exits ? M 150
all so amusing . M 150
all of teaching . M 150
all he feared . M 150
all be lacking . M 150
all be human . M 150
all to grief . M 148
all the woman . M 148
all the shell . M 148
all the looks . M 148
all the copying . M 148
all on alert . M 148
all of girls . M 148
all my pages . M 148
all in either . M 148
all to unite . M 146
all the shade . M 146
all the eight . M 146
all the chain . M 146
all the calls ? M 146
all my style . M 146
all my cells . M 146
all is theirs . M 146
all be sorry ! M 146
all up today . M 144
all to poetry . M 144
all the hides . M 144
all the above ! M 144
all my traps . M 144
all my sleep . M 144
all my light . M 144
all be safer . M 144
all the treats . M 142
all the paper ? M 142
all the field ! M 142
all the feeding . M 142
all the author . M 142
all is alike . M 142
all in green ? M 142
all the times ! M 140
all so false . M 140
all my thanks ! M 140
all it costs ? M 140
all is about . M 140
all in others ? M 140
all he seeks . M 140
all be light . M 140
all be angels . M 140
all to occur . M 139
all we tried . M 138
all to cover . M 138
all the takes . M 138
all the running ? M 138
all the prize . M 138
all on paper ? M 138
all up close . M 136
all the feeds . M 136
all it asked . M 136
all do today . M 136
all by morning . M 136
all to either . M 135
all to enjoy ? M 134
all the lengths . M 134
all my pride ! M 134
all my boxes . M 134
all be still ! M 134
all up easily . M 132
all to unity . M 132
all to touch . M 132
all the brain . M 132
all my words ? M 132
all my water . M 132
all my right . M 132
all my hands . M 132
all it thinks . M 132
all is built . M 132
all be added . M 132
all the whole . M 130
all my share . M 130
all is quiet ? M 130
all is poetry . M 130
all is legal . M 130
all he takes . M 130
all he dared . M 130
all in passing . M 129
all to danger . M 128
all the virus . M 128
all the leaves ? M 128
all my magic . M 128
all my dates . M 128
all he learns . M 128
all the signs ! M 126
all the later . M 126
all the bunch . M 126
all my search . M 126
all my grief ! M 126
all the meets . M 124
all the looking . M 124
all the breed . M 124
all so short . M 124
all or every . M 124
all or either . M 124
all of fifty . M 124
all it makes . M 124
all by writing . M 124
all no longer . M 123
all in anything . M 123
all the floor ! M 122
all the elite . M 122
all the cover . M 122
all so cruel . M 122
all on reason . M 122
all my readings . M 122
all to often . M 120
all the peril . M 120
all the loading . M 120
all the light ! M 120
all the decay . M 120
all so brave . M 120
all my sense . M 120
all my hurts . M 120
all my blood ! M 120
all in towns . M 120
all in cages . M 120
all go blind . M 120
all to hurry . M 118
all the solid . M 118
all the image . M 118
all my trees . M 118
all is burning . M 118
all in dreams . M 118
all be unity . M 118
all to smile . M 117
all we value . M 116
all we please . M 116
all to thrive . M 116
all the sharing . M 116
all the order . M 116
all the moves ? M 116
all the forms ? M 116
all ring again . M 116
all it might . M 116
all be seated ? M 116
all as people . M 116
all to share ? M 115
all we might . M 114
all to mourn . M 114
all to apply . M 114
all the wealthy . M 114
all the stage . M 114
all the sides ? M 114
all the missing . M 114
all the false . M 114
all the casts . M 114
all an issue . M 114
all the vices ! M 112
all the store . M 112
all the press ? M 112
all the games ! M 112
all the catch . M 112
all my needs ! M 112
all my morning . M 112
all is folly . M 112
all in waiting . M 112
all he tells . M 112
all be missing . M 112
all be fools . M 112
all to kneel . M 110
all to drive . M 110
all to carry . M 110
all the meeting . M 110
all the joins . M 110
all the class ! M 110
all the cheating . M 110
all my goods ? M 110
all my dreaming . M 110
all is valid . M 110
all is tight . M 110
all is doubt . M 110
all in logic . M 110
all in heaven ? M 110
all in grass . M 110
all he wrote ? M 110
all go hunting . M 110
all be lower . M 110
all be built . M 110
all the ships ! M 108
all the bells ! M 108
all so white . M 108
all of theirs ? M 108
all of blood . M 108
all my space . M 108
all my heirs . M 108
all is light ! M 108
all in proof . M 108
all be wanting . M 108
all be large . M 108
all be grown . M 108
all be beaten . M 108
all up first . M 107
all up alive . M 106
all to drawing . M 106
all to arise . M 106
all to adopt . M 106
all the usage . M 106
all the stuff ! M 106
all the human . M 106
all the haste . M 106
all the grief ? M 106
all the beasts ? M 106
all so easily ? M 106
all he drank . M 106
all by proxy . M 106
all be short . M 106
all at games . M 106
all we serve . M 104
all us women . M 104
all the writing ? M 104
all the gifts ! M 104
all the bends . M 104
all the angles ! M 104
all is worse . M 104
all is grand . M 104
all is beaten . M 104
all by money . M 104
all as above . M 104
all we hoped . M 102
all the trust . M 102
all the space ! M 102
all the risks ! M 102
all the prose . M 102
all the plain ! M 102
all the party ? M 102
all the crack ! M 102
all of power . M 102
all of light ! M 102
all my bones ! M 102
all my birds . M 102
all he thinks ! M 102
all the turning . M 100
all the seven ! M 100
all the idiots ! M 100
all so final . M 100
all so awful ! M 100
all on merit . M 100
all of breaking . M 100
all my terms . M 100
all my point . M 100
all my place . M 100
all my doubt . M 100
all do right . M 100
all we loved . M 98
all to climb . M 98
all to anything . M 98
all the study . M 98
all the edits . M 98
all so naive . M 98
all of beauty . M 98
all is music . M 98
all in notes . M 98
all in denial . M 98
all be quiet ? M 98
all the tails . M 96
all the seeds ? M 96
all the idiots . M 96
all the gates ! M 96
all the endings . M 96
all of poetry ? M 96
all my roots . M 96
all is grief . M 96
all he could ! M 96
all be linear . M 96
all as valid . M 96
all to build . M 95
all to blood . M 94
all the tools ? M 94
all the known . M 94
all the hitting . M 94
all my tales . M 94
all my class . M 94
all he tried . M 94
all or anything . M 93
all to books . M 92
all the visit . M 92
all the kingdom ! M 92
all the fires ? M 92
all the field ? M 92
all the chaos ? M 92
all on trees . M 92
all of works . M 92
all of sixty . M 92
all of reason . M 92
all my world ! M 92
all my births . M 92
all is magic . M 92
all is based . M 92
all in ethics . M 92
all by touch . M 92
all be cited . M 92
all be asked . M 92
all we offer . M 90
all to drown . M 90
all to catch . M 90
all the sayings . M 90
all the locks ? M 90
all the hints . M 90
all so alien . M 90
all of space ? M 90
all my calling . M 90
all my bliss ! M 90
all my action . M 90
all is ashes . M 90
all is ashes ! M 90
all in walking . M 90
all in today . M 90
all in grace . M 90
all by habit . M 90
all be zeros . M 90
all be upset . M 90
all be sound . M 90
all be quiet ! M 90
all to night . M 88
all to count . M 88
all the sites ? M 88
all the season ? M 88
all the grass ? M 88
all the cares . M 88
all of guilt . M 88
all my tours . M 88
all my guilt ! M 88
all is power . M 88
all in store . M 88
all in ruins ! M 88
all in price . M 88
all he stole . M 88
all be plain . M 88
all in teaching . M 87
all in house . M 87
all the happy . M 86
all so easily ! M 86
all of bells . M 86
all it could ? M 86
all in writing ? M 86
all in brief . M 86
all he owned ? M 86
all be yours ? M 86
all be sweet . M 86
all at times ? M 86
all us others . M 84
all the track . M 84
all the tolls . M 84
all the tasks ? M 84
all the state ? M 84
all the reason ? M 84
all the rarer . M 84
all the masks ? M 84
all the lifts . M 84
all the jumping . M 84
all the growing . M 84
all the change ? M 84
all my glory ! M 84
all my cunning . M 84
all is passing . M 84
all in issue . M 84
all do exist . M 84
all be idiots . M 84
all the fault . M 82
all the dreams ? M 82
all so taken . M 82
all so plain ! M 82
all of writing . M 82
all of eight . M 82
all my crime . M 82
all he loved ? M 82
all he asked ? M 82
all be first . M 82
all to raise . M 80
all to argue . M 80
all the poetry ? M 80
all the plans ! M 80
all so small ? M 80
all of paper . M 80
all my realms . M 80
all my guard . M 80
all in yours . M 80
all be sworn . M 80
all on anything . M 41
