also carried on . M 4154
also produce it . M 2390
also outside it . M 2036
also against it . M 1676
also opposed it . M 1610
also adopted it . M 1344
also alluded to . M 1210
also support it . M 1198
also destroy it . M 1180
also brought up . M 1070
also stepped up . M 990
also against us . M 898
also possess it . M 830
also enjoyed it . M 794
also mentions it . M 756
also touched on . M 742
also believe it . M 668
also contain it . M 660
also noticed it . M 642
also refused it . M 514
also visited us . M 454
also receive it . M 448
also control it . M 446
also require it . M 444
also demands it . M 436
also affects it . M 418
also against me . M 408
also claimed it . M 392
also explain it . M 378
also develop it . M 366
also increase it . M 364
also adhered to . M 362
also satisfy it . M 356
also rounded up . M 350
also confirm it . M 344
also accepts it . M 338
also printed it . M 326
also visited me . M 322
also prevent it . M 322
also appealed to . M 320
also perform it . M 298
also content me . M 298
also forgive me . M 296
also ignored it . M 292
also justify it . M 288
also bothered me . M 288
along towards us . M 280
also concern us . M 274
also approve it . M 256
also question no . M 254
also exhibit it . M 252
also started up . M 244
also affects us . M 244
also distort it . M 242
also observe it . M 232
also destroy us . M 224
along towards me . M 220
also occasion it . M 216
also entered it . M 216
also desired it . M 216
also worried me . M 212
also enhance it . M 208
also stopped by . M 206
along between us . M 206
also worries me . M 204
also rejects it . M 204
also applies it . M 204
also admired it . M 202
also decided on . M 200
also protect it . M 198
also praised it . M 198
also invited me . M 194
also desires it . M 194
also studied it . M 192
also embrace it . M 192
also benefit us . M 192
also respect it . M 188
also precede it . M 184
also forgive us . M 180
also weakened it . M 170
also follows it . M 170
also dropped by . M 170
also visited it . M 166
also reflect it . M 166
also provide it . M 164
also arrived at . M 164
also limited it . M 162
also include it . M 162
also covered up . M 156
also forbids it . M 154
also inhibit it . M 150
also touched me . M 148
also improve it . M 148
also realized it . M 144
also permits it . M 144
also forgive me ? M 144
also initiate it . M 142
also condemn it . M 138
ally against it . M 137
also protect us . M 134
also support us . M 130
also deserve it . M 130
also repeated it . M 124
also focused on . M 124
also exceeds it . M 124
also destroy me . M 124
also defines it . M 124
also correct it . M 124
also climbed up . M 120
also carried it . M 120
also annoyed me . M 120
also receive it ? M 118
also acquire it . M 118
also discuss it . M 116
also carries it . M 116
also affects me . M 116
also sustain it . M 114
also offered up . M 112
also consuming it . M 112
also withdraw it . M 110
also process it . M 110
also extends it . M 110
also execute it . M 110
also subject to . M 108
also opposes it . M 108
also inhabit it . M 106
also belonged to . M 106
also written up . M 104
also ordered up . M 104
also lighted up . M 102
also glanced at . M 102
also consume it . M 102
also abandon it . M 102
also following it . M 100
also abandon me ? M 100
also welcome it . M 98
also resists it . M 98
also reminds us . M 98
also laughed at . M 98
also display it . M 98
also awaited us . M 98
along towards it . M 97
ally against us . M 96
also threatens it . M 94
also managed it . M 94
also touched it . M 92
also publish it . M 92
also greeted me . M 92
also decrease it . M 92
also deceive us . M 92
also survive it . M 90
also suggest it . M 88
also respect me . M 88
also endorse it . M 88
also dislike it . M 88
also question it . M 86
also pressed it . M 86
also divided it . M 86
also defined it . M 86
also capable of . M 86
also towards us . M 84
also grasped it . M 84
also applied it . M 82
also reverse it . M 80
also opposed me . M 80
also escaped me . M 80
also blocked up . M 80
