of a child . M 527090
of a woman . M 381920
of a state . M 233950
of a house . M 220282
of a people . M 211888
of a group . M 211802
of a crime . M 148754
of a story . M 126864
of a river . M 121828
of a smile . M 118338
of a class . M 111836
of a party . M 90484
of a piece . M 87502
of a chair . M 83834
of a plant . M 83268
of a table . M 73396
of a slave . M 69850
of a place . M 68810
of a cross . M 65350
of a father . M 65260
of a storm . M 64684
of a whole . M 61744
of a stream . M 60612
of a mother . M 60562
of a doubt . M 59836
of a model . M 59304
of a judge . M 58462
of a clock . M 53112
of a field . M 52938
of a change . M 50276
of a fight . M 48458
of a world . M 47612
of a leader . M 47394
of a crowd . M 41366
of a period . M 39460
of a point . M 38198
of a study . M 36740
of a deity . M 36300
of a cause . M 35434
of a watch . M 35186
of a trust . M 34230
of a train . M 33536
of a queen . M 32968
of a sound . M 30870
of a hurry . M 30842
of a solid . M 30694
of a claim . M 29748
of a joint . M 28468
of a kingdom . M 28170
of a tiger . M 27818
of a cloud . M 27240
of a meeting . M 26940
of a chain . M 26660
of a graph . M 26364
of a plane . M 26352
of a visit . M 26270
of a right . M 25776
of a vision . M 25680
of a shell . M 25618
of a cycle . M 25338
of a woman ? M 24248
of t cells . M 23614
of a child ? M 23028
of a ruler . M 22752
of a topic . M 22448
of a force . M 22372
of a voice . M 22342
of a night . M 22282
of a match . M 22078
of a nurse . M 21910
of a human . M 21474
of a reply . M 21192
of a wound . M 20966
of a meter . M 20892
of a demon . M 20422
of a fluid . M 19958
of a morning . M 19516
of a method . M 19090
of a laugh . M 19036
of a block . M 18748
of a crown . M 18664
of a paper . M 18124
of a color . M 18054
of a season . M 17764
of a frame . M 17408
of a board . M 17196
of a fault . M 16424
of a devil . M 15954
of a store . M 15192
of a woman ! M 14818
of a scale . M 14774
of a drawing . M 14666
of a reader . M 14162
of a virus . M 12914
of a guide . M 12416
of a check . M 12388
of a light . M 12278
of a query . M 12106
of a trend . M 11966
of a search . M 11954
of a fourth . M 11900
of a style . M 11746
of a curse . M 11716
of a crime ? M 11540
of a state ? M 11274
of a defeat . M 11124
of a value . M 10856
of a crash . M 10810
of a guest . M 10342
of a space . M 10008
of a habit . M 9902
of a pupil . M 9860
of a motion . M 9564
of a guard . M 9398
of a stage . M 9138
of a crack . M 8906
of a proof . M 8882
of a tutor . M 8690
of a grant . M 8668
of a power . M 8568
of a major . M 8346
of a group ? M 8330
of a fraud . M 8276
of a brain . M 8136
of a panic . M 8018
of a bribe . M 7934
of a house ? M 7846
of a share . M 7722
of a globe . M 7694
of a people ? M 7628
of a shade . M 7626
of a reason . M 7612
of a shape . M 7590
of a trick . M 7530
of a verse . M 7460
of a draft . M 7452
of a truce . M 7188
of a warning . M 6992
of a lodge . M 6974
of a child ! M 6720
of a feeling . M 6658
of a shift . M 6496
of a wreck . M 6326
of a drive . M 6236
of a comma . M 6176
of a prize . M 6054
of a meadow . M 5950
of a layer . M 5900
of a writing . M 5898
of a story ? M 5880
of a trail . M 5878
of a price . M 5776
of a track . M 5772
of a fable . M 5692
of a clearing . M 5596
of a press . M 5402
of a vowel . M 5362
of a noise . M 5336
of a label . M 5098
of a start . M 5050
of a phase . M 5024
of a trunk . M 4990
of a limit . M 4954
of a route . M 4932
of a place ? M 4792
of a floor . M 4672
of a noble . M 4648
of a print . M 4618
of a dogma . M 4498
of a count . M 4480
of a plain . M 4470
of a slave ? M 4456
of d major . M 4354
of a father ? M 4306
of a denial . M 4198
of a plant ? M 4082
of a mother ? M 3970
of a river ? M 3948
of a stand . M 3896
of a unity . M 3836
of a buyer . M 3834
of a round . M 3612
of a pause . M 3600
of a casting . M 3594
of a party ? M 3568
of a theorem . M 3550
of a catch . M 3540
of a danger . M 3448
of a brief . M 3410
of a phone . M 3406
of a delay . M 3388
of a mother ! M 3370
of a loser . M 3354
of a class ? M 3332
of a beauty . M 3310
of a calling . M 3248
of a quest . M 3246
of a modem . M 3234
of a world ? M 3134
of a breed . M 3098
of a water . M 3068
of a healer . M 3036
of a front . M 3036
of a mould . M 3004
of a landing . M 2880
of a world ! M 2818
of a trace . M 2812
of a wound ? M 2792
of a zealot . M 2746
of a chase . M 2724
of a proxy . M 2686
of a favor . M 2678
of a white . M 2664
of a bother . M 2658
of a slave ! M 2614
of a house ! M 2606
of a guess . M 2556
of a cover . M 2532
of a cloak . M 2524
of a storm ? M 2502
of a lodging . M 2490
of a notion . M 2406
of a judge ? M 2390
of a black . M 2298
of a change ? M 2284
of a father ! M 2260
of a climb . M 2220
of a leader ? M 2170
of a forum . M 2142
of a worry . M 2130
of s phase . M 2110
of a waste . M 2090
of a chant . M 2082
of a fight ? M 2070
of a place ! M 2026
of a moral . M 1942
of a sense . M 1862
of a piece ? M 1844
of a wrist . M 1826
of a focus . M 1810
of a first . M 1794
of a touch . M 1786
of a coast . M 1766
of a table ? M 1744
of a crowd ? M 1736
of a raise . M 1712
of a growth . M 1660
of a sapling . M 1632
of a holding . M 1624
of a smile ? M 1598
of a chair ? M 1560
of a sweet . M 1544
of a sound ? M 1544
of a relic . M 1544
of a total . M 1534
of a model ? M 1530
of a right ? M 1510
of a maxim . M 1504
of a doubt ? M 1502
of a purge . M 1496
of a sitting . M 1488
of a scare . M 1466
of a blind . M 1466
of a colon . M 1452
of a clock ? M 1446
of a maker . M 1444
of a people ! M 1440
of a killing . M 1426
of a morning ? M 1416
of a still . M 1410
of a night ! M 1410
of a cause ? M 1410
of a drift . M 1400
of a hurry ? M 1394
of a grass . M 1376
of a watch ? M 1364
of a knock . M 1354
of a finding . M 1354
of a storm ! M 1350
of a meeting ? M 1342
of a stream ? M 1332
of a solid ? M 1318
of a deity ? M 1314
of a timer . M 1312
of a ration . M 1298
of a given . M 1294
of a queen ? M 1284
of a lower . M 1274
of a whole ? M 1272
of a story ! M 1272
of a chaos . M 1268
of a spread . M 1264
of a bough . M 1258
of a devil ! M 1242
of a human ? M 1230
of a groan . M 1204
of a cutting . M 1198
of a woods . M 1176
of a state ! M 1176
of a burst . M 1170
of a sleep . M 1160
of a trust ? M 1158
of a plane ? M 1158
of a alone . M 1156
of a prime . M 1154
of a bunch . M 1148
of a large . M 1140
of a cache . M 1128
of a night ? M 1124
of a train ? M 1118
of a shame . M 1112
of a period ? M 1110
of a feeding . M 1082
of a green . M 1076
of a doubt ! M 1068
of a kingdom ? M 1050
of a small . M 1046
of a party ! M 1046
of a local . M 1046
of a force ? M 1044
of a queen ! M 1032
of a junior . M 1032
of a river ! M 1028
of a field ? M 1026
of a heaven . M 1018
of t alone . M 1016
of a fight ! M 1016
of a reason ? M 1014
of a devil ? M 990
of a crime ! M 986
of a haven . M 984
of a demon ? M 984
of a decoy . M 982
of a cloud ? M 982
of a check ? M 972
of a store ? M 962
of a logic . M 962
of a study ? M 956
of a quote . M 956
of a hurry ! M 956
of a dialog . M 952
of a paper ? M 946
of a claim ? M 940
of a binding . M 934
of a music . M 930
of a point ? M 928
of a nurse ? M 926
of a cabal . M 910
of a showing . M 904
of a cross ? M 902
of a close . M 876
of a short . M 868
of a voice ? M 864
of a click . M 864
of a lapse . M 858
of a trend ? M 856
of a crown ? M 856
of a brood . M 850
of a mapping . M 846
of a gauge . M 826
of a worse . M 824
of a tiger ? M 808
of a vision ? M 800
of a piece ! M 756
of a cheer . M 744
of a women . M 732
of a voice ! M 700
of a morning ! M 700
of a brain ? M 698
of a repeat . M 690
of a tiger ! M 686
of a boast . M 686
of a cells . M 680
of a filling . M 664
of a match ? M 654
of a winding . M 652
of a virus ? M 652
of a cycle ? M 652
of a visit ? M 648
of a scope . M 646
of a daily . M 646
of a feeling ? M 644
of a motion ? M 638
of a curse ? M 636
of a parting . M 632
of a turning . M 628
of a meter ? M 626
of a while . M 616
of a graph ? M 610
of a smile ! M 604
of a grace . M 602
of a chain ? M 602
of a teaching . M 598
of a share ? M 596
of a brave . M 594
of a copse . M 592
of a later . M 588
of a demon ! M 588
of a method ? M 586
of a trick ? M 574
of a shell ? M 568
of a favor ? M 556
of a noise ? M 552
of a giver . M 548
of a guest ? M 542
of a kingdom ! M 524
of a color ? M 520
of t tests . M 518
of a deity ! M 516
of a joint ? M 512
of a fitting . M 510
of a fault ? M 504
of a search ? M 492
of a block ? M 486
of a ruler ? M 472
of a glade . M 468
of a glory . M 462
of a frame ? M 462
of a crowd ! M 460
of a reader ? M 446
of a burning . M 442
of a bribe ? M 442
of a guide ? M 440
of a fluid ? M 438
of a crown ! M 436
of a decay . M 420
of a units . M 412
of a judge ! M 412
of a season ? M 408
of a cleaning . M 408
of a light ? M 404
of a change ! M 404
of a cross ! M 396
of a thrust . M 392
of a peril . M 392
of a closing . M 392
of a topic ? M 386
of a poetry . M 380
of a drawing ? M 380
of a board ? M 380
of a shade ? M 376
of a habit ? M 376
of a warning ? M 372
of a bearer . M 366
of a writing ? M 364
of a clock ! M 360
of a power ? M 358
of a draft ? M 356
of a trawl . M 352
of a model ! M 352
of a sound ! M 348
of a folly . M 344
of a craving . M 342
of a reply ? M 338
of a build . M 338
of s alone . M 336
of a match ! M 336
of a table ! M 332
of a pupil ? M 332
of a defeat ? M 332
of a plant ! M 330
of a works . M 328
of a cloud ! M 328
of a usage . M 324
of a strong . M 324
of a modem ? M 324
of a light ! M 322
of a season ! M 316
of a vision ! M 314
of a field ! M 314
of a style ? M 308
of a panic ? M 308
of t cells ? M 306
of a query ? M 304
of a shade ! M 302
of a pride . M 302
of a chime . M 302
of d cells . M 300
of a labor . M 300
of a above . M 296
of a chair ! M 294
of a merge . M 292
of a fraud ? M 288
of a thinking . M 286
of a merit . M 286
of a royal . M 284
of a heaven ? M 284
of a value ? M 280
of a human ! M 280
of a slash . M 276
of a lodge ? M 276
of a curse ! M 274
of a crash ? M 272
of a fourth ? M 266
of a serve . M 264
of a minus . M 264
of a block ! M 264
of a scale ? M 260
of a plane ! M 256
of a watch ! M 254
of a tutor ? M 252
of a grand . M 252
of a group ! M 250
of a super . M 248
of a proof ? M 248
of a brown . M 248
of a stole . M 246
of a shift ? M 246
of a stuff . M 242
of a leader ! M 238
of a train ! M 236
of a label ? M 236
of a guest ! M 236
of a grail . M 236
of a chain ! M 236
of a truce ? M 232
of a steep . M 230
of a prize ? M 228
of a fable ? M 226
of a music ? M 224
of a working . M 220
of a weaker . M 220
of a longer . M 220
of a crawl . M 220
of a major ? M 216
of a price ? M 214
of a healer ? M 214
of a yield . M 212
of a nurse ! M 212
of a globe ? M 212
of a carry . M 210
of a wreck ? M 208
of a trail ? M 208
of a point ! M 208
of a laugh ? M 208
of a drive ? M 208
of a grasp . M 206
of a verse ? M 204
of a seven . M 204
of a loading . M 202
of a stage ? M 200
of a press ? M 198
of a noise ! M 198
of a shape ? M 196
of a space ? M 194
of a meeting ! M 194
of a count ? M 194
of a delay ? M 192
of a danger ? M 192
of a grief . M 190
of a phone ? M 188
of a grant ? M 188
of a failing . M 188
of s cells . M 186
of a humor . M 186
of a false . M 186
of a comma ? M 182
of a raise ? M 180
of a bother ? M 180
of a quest ? M 176
of a stray . M 174
of a shell ! M 174
of a blood . M 174
of i asked . M 172
of a tough . M 170
of a buyer ? M 170
of a ruler ! M 168
of a haunt . M 168
of a guard ? M 168
of a brain ! M 168
of a visit ! M 166
of a loser ? M 166
of a known . M 166
of a dogma ? M 166
of a cloak ? M 164
of a stream ! M 162
of a class ! M 162
of a spare . M 160
of a noble ? M 158
of a trick ! M 154
of a hunger . M 154
of a backing . M 152
of a cause ! M 150
of a prize ! M 148
of a period ! M 148
of a laugh ! M 146
of a gross . M 144
of a giver ? M 142
of a write . M 138
of a sever . M 138
of a sense ? M 134
of a money . M 134
of a reply ! M 132
of a poetic . M 132
of a paper ! M 132
of t units . M 130
of a knowing . M 130
of t hours . M 128
of a wound ! M 128
of a relic ? M 128
of a denial ? M 128
of a beauty ? M 128
of a limit ? M 126
of a reason ! M 124
of a fixed . M 124
of i meter . M 120
of a layer ? M 120
of a calling ? M 120
of a theorem ? M 118
of a burns . M 118
of a again . M 118
of a waste ? M 116
of a royal ! M 116
of a casting ? M 116
of a sorts . M 114
of a notion ? M 114
of a start ? M 112
of a start ! M 110
of a meter ! M 108
of a close ? M 108
of a brief ? M 108
of a final . M 106
of a defeat ! M 106
of a opening . M 104
of a lodging ? M 104
of a learning . M 104
of a first ? M 104
of a black ! M 104
of a stand ? M 102
of a print ? M 102
of a guard ! M 102
of a tight . M 100
of a beauty ! M 100
of a sweet ! M 98
of a rises . M 98
of a pause ? M 98
of a killing ? M 98
of d units . M 96
of a sapling ! M 94
of a price ! M 94
of a floor ? M 94
of a crack ? M 94
of a plain ? M 92
of a healthy . M 92
of a guilt . M 92
of a whole ! M 90
of a power ! M 90
of a catch ? M 90
of d alone . M 88
of a noble ! M 88
of a brave ! M 88
of a weather . M 86
of a style ! M 86
of a breed ? M 86
of a wreck ! M 84
of a white ? M 84
of a vowel ? M 84
of a store ! M 84
of a guess ? M 84
of a drive ! M 84
of i guess . M 80
of a while ? M 80
of a meadow ? M 80
of a maybe . M 80
of a landing ? M 80
of a joint ! M 80
of a image . M 80
