offs to be made D 3732
offs in the form D 610
offs in the early D 420
offing at the time D 322
offs in the past D 223
offs on the other D 186
offs in the case D 154
offs in the same D 148
offs on the part D 122
offing in the open D 118
offs in the face D 108
offing of the mind D 104
offs in the next D 100
offs of the same D 92
offs of the kind D 88
offs at the same D 86
offs in the late D 80
offs of the past D 55
offs to the left D 48
offing on the other D 40
