yield to that of M 5661
yield to them in M 4274
yield to him in M 4160
yield to him the M 3853
yield of all the M 3639
yield to any of M 3309
yield is due to M 2834
yield to one of M 2734
yield to all the M 2328
yield to them the M 1895
yield so far as M 1488
yield of each of M 1442
yield so far to M 1385
yield is not the M 1251
yield the idea of M 1136
yield up all the M 1130
yield to you in M 1088
yield the sum of M 1038
yield at all to M 1034
yield to you the M 1000
yield the set of M 991
yield to them if M 964
yield to them as M 909
yield to him as M 896
yield an age of M 894
yield as long as M 863
yield to her in M 857
yield so that the M 848
yield is not so M 821
yield is not as M 784
yield the key to M 772
yield to any thing M 771
yield is one of M 736
yield as far as M 680
yield to them on M 677
yield by far the M 674
yield to one or M 641
yield of one of M 616
yield to her the M 612
yield to him or M 593
yield by way of M 591
yield or not to M 587
yield to them or M 561
yield as low as M 554
yield of both the M 536
yield to few in M 532
yield is that the M 526
yield in all the M 511
yield so long as M 510
yield to him on M 509
yield or pay the M 500
yield is that of M 486
yield the path to M 476
yield to any in M 465
yield up any of M 460
yield the way to M 460
yield to them at M 433
yield of one or M 432
yield on any of M 431
yield is low in M 431
yield of any of M 426
yield on all the M 412
yield in each of M 378
yield the use of M 373
yield us but the M 372
yield in both the M 350
yield an idea of M 340
yield to god in M 324
yield of all of M 324
yield up one of M 322
yield up all to M 318
yield to him my M 311
yield by using the M 296
yield to him at M 295
yield to him if M 282
yield to fear or M 280
yield on each of M 277
yield to and be M 261
yield to him by M 260
yield is that it M 259
yield an area of M 259
yield is not an M 253
yield to god the M 243
yield it all to M 239
yield in one of M 238
yield as that of M 233
yield to all of M 232
yield or lead to M 222
yield by use of M 219
yield to you my M 217
yield to him so M 214
yield is not to M 214
yield to them is M 212
yield the lead of M 212
yield to them an M 210
yield of one to M 210
yield is going to M 210
yield the age of M 208
yield to each of M 207
yield to you or M 202
yield to one in M 202
yield is not in M 192
yield of lead is M 188
yield the law of M 185
yield to him he M 184
yield to you on M 183
yield us that king M 180
yield of two or M 176
yield it now to M 176
yield to you as M 175
yield to you if M 172
yield on them is M 170
yield it for the M 164
yield is apt to M 162
yield up all of M 154
yield to them of M 153
yield the lead to M 152
yield to them so M 150
yield of ten to M 150
yield to them by M 149
yield in any of M 149
yield at any of M 149
yield is for the M 148
yield us all the M 146
yield the one to M 146
yield of each is M 144
yield the joy of M 140
yield the area of M 140
yield of two to M 140
yield to man the M 139
yield or die if M 139
yield to this or M 138
yield to any king M 136
yield to all my M 136
yield to them to M 134
yield so that it M 130
yield in any thing M 130
yield the day to M 128
yield no way to M 128
yield is set at M 128
yield is low or M 128
yield in that to M 127
yield as can be M 127
yield it not to M 124
yield is easy to M 124
yield to you at M 122
yield the mean of M 118
yield of meat is M 118
yield it all the M 118
yield as one of M 118
yield to men the M 116
yield it may be M 115
yield to her at M 113
yield to his or M 112
yield on one or M 110
yield of meat in M 110
yield is put at M 110
yield to him to M 106
yield to get the M 106
yield to both the M 105
yield up all my M 104
yield to fear of M 104
yield the heat of M 104
yield on one of M 104
yield of meat or M 104
yield up any the M 102
yield is two to M 101
yield me with my M 100
yield at each of M 100
yield to her on M 99
yield it can be M 99
yield to men in M 98
yield to god my M 98
yield it but on M 96
yield to that to M 95
yield to him an M 95
yield no law of M 94
yield is then the M 94
yield is set by M 92
yield on his or M 91
yield of lead in M 90
yield up all he M 88
yield of six to M 88
yield us any of M 84
yield at all in M 73
yield in one or M 61
yield on both the M 60
yield to him is M 58
yield as for the M 55
yield as did the M 54
yield to him of M 52
yield to pay the M 51
yield if all the M 50
yield to her as M 49
yield is not of M 48
yield as being the M 46
yield on this or M 43
yield at all the M 43
yield the earth to M 42
yield of oil is D 3256
yield an iota of D 1028
yield of gas is D 880
yield of hay is D 872
yield the pas to D 810
yield of oil in D 670
yield of hay in D 499
yield an oil of D 456
yield of oil of D 440
yield of tar is D 410
yield of oil by D 324
yield of gas of D 272
yield an ink or D 252
yield to thee in D 217
yield of hay on D 208
yield of rye in D 206
yield of oil at D 190
yield of ions is D 180
yield an iota in D 170
yield me not thy D 164
yield to thee the D 161
yield an iota to D 158
yield of hay to D 150
yield of hay of D 146
yield the oil of D 142
yield of gas at D 136
yield of gas in D 134
yield no jot of D 134
yield of oil to D 122
yield of fat is D 116
yield of tar in D 114
yield of hay or D 112
yield of rye is D 108
yield of hay the D 108
yield of gas by D 102
yield no jot to D 102
yield of oil on D 100
yield of rye on D 96
yield of ions in D 96
yield of peas in D 92
yield of urea is D 90
yield of oil or D 90
yield an iota on D 90
yield of oil as D 54
yield of hay as D 43
