an act to amend M 542290
an area of about M 310420
an area in which M 296950
an age in which M 190510
an era in which M 134624
an act of grace M 69706
an age at which M 43898
an area of nearly M 33214
an area of study M 32651
an act of piety M 29034
an act of state M 28817
an act in which M 26252
an act by which M 25872
an idea of where M 24492
an act of folly M 22993
an air of quiet M 20129
an area as large M 19576
an age of about M 18559
an act of gross M 16574
an idea of which M 16112
an era of change M 15748
an age of reason M 15628
an act of power M 15611
an area to which M 14560
an idea to which M 14018
an age of change M 12702
an act of moral M 12410
an act of which M 12204
an act to create M 12085
an area of lower M 11936
an act of reason M 11687
an act of force M 11567
an aid to learning M 10327
an air of pride M 10320
an act is right M 9755
an act of human M 9314
an end to every M 9254
an end to which M 9252
an area of human M 8899
an end to human M 8798
an act to alter M 8745
an area of major M 8573
an act to which M 8568
an end of speaking M 8503
an act of civil M 8270
an idea of reason M 7962
an end to civil M 7949
an area of small M 7942
an area of thirty M 7795
an act of trust M 7794
an arc of about M 7537
an age of doubt M 7488
an area of eight M 7029
an age of growing M 6869
an age of prose M 6804
an area of seven M 6766
an area of forty M 6580
an act of knowing M 6532
an act of merit M 6504
an idea or image M 6478
an area of fifty M 6257
an era of growing M 6028
an act or event M 5978
an area on which M 5944
an air of utter M 5932
an idea in which M 5846
an area of growing M 5812
an aid in teaching M 5616
an act of thinking M 5458
an area of water M 5200
an area of large M 5078
an act to change M 5014
an act to raise M 4882
an area of vital M 4860
an area of mixed M 4858
an act to grant M 4795
an act of killing M 4678
an eye in which M 4540
an act of total M 4522
an eye on every M 4520
an age to which M 4426
an aid to teaching M 4299
an area of sixty M 4258
an air in which M 4246
an air of doubt M 4224
an area of strong M 4040
an age to marry M 4014
an act of magic M 4012
an end in which M 3990
an act of willing M 3968
an end the first M 3910
an act of fraud M 3881
an end to child M 3858
an age of hunger M 3828
an act or state M 3778
an end to state M 3771
an act of writing M 3735
an idea or feeling M 3637
an odd thing about M 3634
an idea of beauty M 3582
an end to class M 3570
an idea of human M 3508
an age of moral M 3478
an air of grace M 3476
an act to allow M 3441
an air of proud M 3378
an idea of space M 3372
an area as small M 3338
an area of light M 3321
an idea of power M 3320
an end to hunger M 3294
an era of world M 3283
an act of royal M 3270
an area of which M 3266
an age of which M 3254
an area of focus M 3242
an act to limit M 3223
an air of knowing M 3206
an area in front M 3202
an end of action M 3198
an age of heroes M 3186
an arc is drawn M 3170
an act of labor M 3170
an age of light M 3156
an area of local M 3126
an act of utter M 3118
an area of space M 3111
an oath to serve M 3104
an end to world M 3081
an end the period M 3074
an act of blind M 3070
an out of state M 3048
an aid to thinking M 3044
an area of white M 2934
an act in terms M 2902
an end to party M 2810
an aid in learning M 2793
an act to carry M 2676
an idea of anything M 2664
an act to apply M 2663
an idea on which M 2660
an arc of light M 2652
an era of growth M 2640
an end of which M 2636
an age of onset M 2627
an act of pride M 2578
an air of total M 2497
an era of large M 2492
an area in order M 2456
an act of vision M 2444
an end to white M 2418
an area of learning M 2410
an age of poetry M 2400
an act of judging M 2364
an act of poetic M 2342
an act of cruel M 2318
an air of moral M 2290
an area of grass M 2275
an act of spite M 2248
an oath in which M 2182
an idea of order M 2182
an aid in keeping M 2174
an idea or notion M 2172
an area of acute M 2136
an air or water M 2116
an idea of getting M 2110
an age of large M 2108
an air of false M 2102
an air of solid M 2096
an air as though M 2088
an end to armed M 2075
an oath in heaven M 2068
an end to legal M 2032
an end of every M 2032
an aid to study M 2024
an end of writing M 2021
an area of known M 2020
an act in order M 2010
an aid in helping M 1998
an area of cross M 1988
an end to doubt M 1941
an aid to finding M 1938
an act of learning M 1903
an area of growth M 1898
an act of legal M 1890
an end of human M 1865
an age of chaos M 1864
an end at about M 1848
an air of happy M 1846
an aid in finding M 1843
an air of power M 1842
an oath is taken M 1832
an air of decay M 1832
an idea of writing M 1828
an idea of motion M 1794
an oath by which M 1790
an area of rather M 1790
an age of strong M 1778
an end in about M 1768
an eye to beauty M 1758
an act of speaking M 1757
an end to major M 1717
an area of equal M 1716
an end to hopes M 1715
an idea he could M 1708
an area so large M 1706
an area of rough M 1706
an age of power M 1704
an area of state M 1697
an idea by which M 1694
an air of faded M 1684
an air of piety M 1676
an act of naked M 1676
an area of close M 1672
an end to anything M 1670
an era of strong M 1664
an age of total M 1659
an eye to every M 1640
an end to local M 1634
an area of brain M 1628
an age of world M 1628
an age of civil M 1624
an age of action M 1624
an end of praying M 1618
an aid in getting M 1612
an air of defeat M 1600
an oath to abide M 1582
an end in order M 1578
an act of denial M 1576
an eye on where M 1572
an air of sweet M 1558
an act of sharing M 1548
an act of creating M 1546
an end to large M 1544
an oath to stand M 1540
an area of black M 1535
an eye to getting M 1532
an act of honor M 1526
an era of tight M 1518
an era of civil M 1517
an oath to fight M 1514
an aid to human M 1514
an act of crime M 1513
an arm in which M 1508
an act of either M 1504
an idea in order M 1492
an era of human M 1488
an act is moral M 1488
an eye to finding M 1482
an act of civic M 1480
an eye to keeping M 1478
an air of noble M 1474
an age by which M 1474
an air of waiting M 1468
an era of major M 1450
an arc in front M 1438
an air of seeming M 1420
an act of yours M 1413
an aim to which M 1400
an idea or action M 1396
an idea he might M 1392
an era of total M 1388
an act to erect M 1386
an idea it might M 1384
an arm in front M 1383
an act of armed M 1383
an act of shame M 1380
an idea is given M 1378
an idea to start M 1364
an idea or event M 1364
an one as might M 1362
an age of magic M 1361
an aim in which M 1354
an end to crime M 1349
an idea of yours M 1346
an aid to writing M 1341
an act of sense M 1338
an idea on paper M 1337
an act of stealing M 1332
an air of danger M 1330
an end to women M 1326
an area of color M 1325
an area of prime M 1324
an end to price M 1318
an air of learning M 1306
an act of noble M 1304
an ego to match M 1294
an idea of unity M 1292
an eye on people M 1292
an end to growth M 1292
an age of small M 1288
an age to enter M 1274
an air of alarm M 1272
an idea of danger M 1268
an aid to vision M 1268
an area of doubt M 1266
an era of state M 1257
an idea of heaven M 1252
an air of magic M 1250
an eye to which M 1248
an air of warmth M 1248
an idea is quite M 1246
an air of rather M 1246
an idea is often M 1238
an area in terms M 1234
an arm on either M 1231
an air of smiling M 1228
an air of still M 1224
an act of favor M 1212
an area of total M 1207
an era of moral M 1202
an idea of moral M 1194
an area of steep M 1193
an act of queen M 1190
an act is either M 1188
an end to space M 1185
an end to moral M 1184
an area is known M 1182
an eye the whole M 1178
an era of small M 1176
an era in human M 1168
an area of legal M 1162
an air of glory M 1162
an eye on local M 1156
an age to enjoy M 1156
an age of decay M 1148
an air of beauty M 1140
an arm to steady M 1138
an arm of which M 1138
an eye to creating M 1130
an act to admit M 1128
an end by reason M 1122
an end at which M 1122
an air of irony M 1116
an aid to keeping M 1116
an age to judge M 1116
an area of trees M 1114
an end to nearly M 1110
an idea of scale M 1106
an act on which M 1106
an aid to moral M 1104
an aid to getting M 1104
an area so close M 1101
an age of learning M 1100
an aid in drawing M 1098
an area of waste M 1092
an act of equal M 1090
an end to labor M 1085
an idea of right M 1082
an idea in terms M 1080
an end to slave M 1080
an area of hills M 1078
an age of gross M 1072
an idea to write M 1070
an idea of value M 1069
an act or action M 1064
an area of green M 1063
an end to chaos M 1062
an act is within M 1062
an earth in which M 1058
an easy or quick M 1056
an out of order M 1055
an out of focus M 1054
an act of final M 1052
an act of inner M 1049
an area of loose M 1046
an era of falling M 1036
an age to begin M 1032
an area of solid M 1029
an area so small M 1026
an age of fifty M 1016
an area of above M 1014
an arc of which M 1014
an age in motion M 1003
an end the state M 1002
an area of action M 1001
an oath in order M 988
an one as could M 984
an act of waste M 976
an arm of state M 972
an act of feeling M 972
an arc of motion M 970
an act of blood M 970
an area of floor M 967
an area is often M 967
an arm to point M 966
an idea to exist M 958
an act of abuse M 958
an act in force M 958
an aid in judging M 956
an eye of favor M 948
an age of human M 947
an aid to drawing M 946
an oath to avenge M 940
an air of vague M 940
an era of which M 936
an air of order M 936
an air of bored M 934
an idea of sending M 932
an air of haste M 924
an idea or group M 920
an eye to pleasing M 918
an aid in writing M 918
an aid to beauty M 910
an air of guilt M 908
an act of looking M 908
an oath to carry M 902
an aid to sleep M 902
an idea to create M 894
an idea at which M 892
an idea in words M 890
an age of thirty M 890
an idea of every M 888
an age of nearly M 878
an area of older M 868
an eye to gaining M 856
an area of basic M 856
an out of phase M 850
an aid in forming M 850
an act or order M 846
an act of class M 840
an era of steady M 838
an end to serve M 838
an act of sound M 838
an idea at first M 837
an end to black M 836
an idea of force M 834
an age of glory M 832
an idea of putting M 828
an age of blood M 817
an act of breaking M 816
an aid to local M 815
an era to which M 814
an era of chaos M 814
an arc of nearly M 810
an act he could M 810
an act of black M 808
an area or group M 806
an age of apathy M 802
an air of grand M 800
an act of plain M 798
an area or space M 792
an age of growth M 792
an idea of action M 791
an age of greed M 784
an eye of doubt M 780
an act of teaching M 780
an age of seven M 778
an idea is never M 776
an end or final M 776
an area is found M 774
an air of panic M 774
an act of false M 774
an idea of light M 772
an aid to growth M 768
an act of theirs M 765
an idea of state M 763
an area of danger M 758
an act of still M 758
an end to inter M 754
an arc is equal M 754
an aid in reaching M 754
an age of space M 754
an area of fully M 751
an air of fable M 751
an area of change M 748
an end to plans M 747
an act of thanks M 744
an aid to selling M 742
an air of awful M 740
an era of light M 738
an age of party M 734
an act of turning M 734
an arm on which M 732
an act of drawing M 732
an eye to winning M 722
an age of money M 722
an area of joint M 721
an era of labor M 718
an area of nursing M 716
an arc as shown M 716
an age of print M 716
an idea or issue M 714
an idea or cause M 714
an end to power M 714
an area to cover M 714
an era of close M 710
an end to false M 710
an end to testing M 708
an age no longer M 708
an end to grief M 702
an idea no longer M 700
an idea we shall M 698
an end of civil M 698
an end to either M 696
an oath in front M 692
an idea of poetry M 692
an air of light M 688
an idea of forming M 686
an oath or makes M 685
an eye on either M 684
an age of acute M 684
an act at which M 684
an arc of water M 683
an end to writing M 682
an one as shall M 680
an idea in action M 679
an arc of white M 679
an end the whole M 672
an eye in every M 670
an idea is found M 666
an era of black M 665
an idea of creating M 664
an arm to block M 664
an act of major M 664
an act of right M 663
an idea or topic M 660
an air of cunning M 660
an air of apathy M 660
an idea of woman M 658
an end on which M 658
an age of eight M 658
an end to royal M 656
an area of power M 650
an arm of power M 649
an aid to quick M 646
an age of forty M 646
an age of books M 646
an idea to others M 642
an eye to helping M 642
an end to exile M 640
an air of acute M 640
an act of guilt M 640
an idea or vision M 638
an eye on costs M 638
an area of working M 638
an air of state M 638
an end to killing M 635
an idea or point M 634
an arm of water M 632
an arm as though M 632
an age of hurry M 632
an act is never M 632
an idea of change M 630
an act of beauty M 628
an oath of blood M 626
an area of short M 624
an act of child M 624
an act as right M 623
an idea in search M 622
an air of music M 622
an eye of light M 621
an earth on which M 620
an arc of sixty M 620
an act to build M 620
an oath in writing M 614
an era of glory M 614
an air to which M 614
an idea of sense M 613
an area of quiet M 612
an act of local M 610
an idea to build M 608
an end or limit M 608
an aid to action M 608
an aid in thinking M 607
an arm to which M 606
an eye to selling M 604
an era of power M 603
an era of lasting M 603
an area or place M 603
an idea of place M 602
an idea is based M 600
an air of class M 600
an heap of ruins M 598
an act or habit M 598
an act of putting M 598
an area or field M 596
an end to shame M 594
an age of fable M 592
an area of civil M 591
an age of false M 590
an area of given M 588
an end of names M 586
an air of hurry M 586
an aid to sound M 586
an age to serve M 586
an idea we could M 584
an air in music M 584
an air of royal M 582
an idea of local M 580
an end to people M 580
an aid in selling M 579
an area of varying M 578
an end in every M 576
an eye on which M 574
an air of strong M 574
an idea of about M 572
an age of grace M 572
an area in space M 570
an act of quite M 569
an area of moral M 568
an age of utter M 568
an idea of total M 567
an end by force M 566
an age or people M 566
an act of poetry M 566
an idea is really M 564
an eye of reason M 564
an eye to local M 562
an eye to color M 562
an end to blind M 562
an age of danger M 562
an act to place M 562
an idea of deity M 560
an end to waste M 560
an act of seeming M 560
an oath to which M 558
an area of first M 558
an air of naive M 556
an air of grief M 556
an age of sixty M 556
an age at onset M 554
an end to night M 553
an act of party M 553
an end by about M 550
an air of thinking M 550
an end the story M 548
an oath to every M 546
an idea of whose M 546
an area of upper M 546
an air of unity M 546
an idea is first M 545
an aid in money M 544
an air of unease M 543
an air of style M 542
an era of price M 540
an end of words M 540
an act of heaven M 540
an out of place M 538
an aid in creating M 538
an idea we might M 536
an era of acute M 536
an area of woods M 536
an idea of cause M 534
an area of healthy M 532
an area is shown M 532
an aid to plant M 531
an eye of sense M 530
an area to watch M 530
an arm to catch M 528
an arm as strong M 528
an area of still M 526
an age of crime M 526
an act of joining M 526
an eye on anything M 524
an arc of small M 524
an aid in meeting M 524
an area of fixed M 522
an idea of color M 520
an one as never M 518
an end of season M 518
an area of lakes M 518
an age of super M 516
an age of ideals M 516
an age of force M 516
an idea of working M 515
an air of wishing M 514
an air of poetry M 514
an act of calling M 514
an idea of keeping M 512
an idea he found M 512
an act of passing M 510
an oath is sworn M 508
an eye to meeting M 508
an aid in hunting M 507
an arc of fifty M 505
an idea he wants M 504
an end to cross M 504
an end in front M 504
an area of plain M 504
an idea to enter M 502
an end to dreams M 502
an air of final M 502
an end to small M 500
an era of doubt M 498
an act in favor M 498
an oath to state M 496
an idea to solve M 496
an age he could M 496
an idea or story M 495
an end to press M 494
an age it seems M 494
an area is under M 493
an end to earthly M 492
an area on either M 492
an area no longer M 490
an aid in working M 490
an act of panic M 490
an air of uneasy M 488
an end of sorts M 486
an ease of style M 486
an air of mixed M 486
an act of unity M 486
an eye in order M 484
an air of vigor M 484
an out of plane M 482
an idea is right M 482
an aid to people M 482
an era of space M 481
an end to thinking M 480
an age to fight M 480
an idea to change M 478
an era of blood M 478
an arc in which M 478
an eye on mother M 476
an eye to later M 474
an end the power M 472
an area of miles M 472
an area of cells M 472
an act in front M 472
an eye as black M 470
an area of shade M 470
an area of rocks M 470
an area of brown M 470
an area is given M 470
an act of greed M 469
an era of party M 468
an age of agony M 466
an act of quiet M 466
an act of helping M 466
an idea or rather M 464
an end to change M 464
an aid in treating M 464
an age or period M 464
an idea is false M 460
an age of legal M 460
an end to learning M 457
an oath is binding M 456
an end of grief M 456
an aid to piety M 456
an aid to helping M 456
an oath is given M 454
an idea of merit M 454
an era of local M 452
an arm in world M 452
an area or topic M 452
an area of quite M 451
an aid in turning M 450
an end the civil M 448
an area of unity M 448
an idea of women M 446
an end in terms M 446
an oath in blood M 444
an idea of costs M 444
an heap of which M 444
an area to avoid M 444
an aid to others M 444
an aid in gaining M 444
an oath be taken M 442
an idea is still M 442
an end to sleep M 442
an idea no doubt M 440
an eye to quick M 440
an area of under M 440
an era of still M 438
an air of empty M 438
an aid in holding M 438
an end to words M 436
an end the brief M 436
an end of class M 436
an air of large M 436
an oath to prove M 434
an arm in action M 434
an act of brave M 434
an idea of finding M 432
an air of healthy M 432
an act of amazing M 432
an eye to showing M 430
an air of wanting M 430
an act of vital M 430
an air of engaging M 428
an act of seeking M 428
an earth in motion M 426
an air of legal M 426
an end to threats M 424
an age of women M 424
an act to quiet M 424
an end by which M 422
an aid to creating M 422
an age of waiting M 422
an act of world M 422
an idea of honor M 420
an eye to watch M 420
an area is equal M 420
an arc of given M 420
an air of growing M 420
an act is often M 420
an air of space M 418
an aim of which M 418
an act of showing M 418
an eye to learning M 417
an eye of pride M 416
an arm to grasp M 416
an area of paper M 416
an age of piety M 416
an act of letting M 416
an act is taken M 416
an idea of price M 414
an idea it gives M 414
an eye to where M 414
an area to store M 414
an act to avoid M 414
an act of glaring M 414
an act is found M 414
an oath to marry M 412
an area to study M 412
an area to create M 412
an act of copying M 412
an act of cheating M 412
an aid to working M 411
an arm to fight M 410
an age of sound M 409
an age of guilt M 409
an oath of which M 408
an eye in sleep M 408
an area of inner M 408
an age of short M 408
an act to adopt M 408
an era of equal M 406
an end of doubt M 406
an age of order M 406
an out of season M 404
an era of women M 404
an age at first M 404
an era of legal M 402
an area at which M 402
an aid to hunting M 401
an era of short M 400
an end to abuse M 400
an area to allow M 400
an area of teaching M 400
an age of words M 400
an oath of denial M 398
an idea or value M 398
an area to change M 396
an act of cutting M 396
an end of about M 394
an air of world M 394
an aid to reaching M 394
an end or value M 392
an arc of forty M 392
an aim to create M 392
an aid to walking M 390
an idea of sound M 388
an act is legal M 388
an aid in walking M 387
an age of bliss M 387
an idea he never M 386
an air of shame M 386
an end to waiting M 385
an idea to share M 384
an end to thirty M 384
an idea of killing M 382
an eye to putting M 382
an arm to touch M 382
an air of putting M 382
an age to start M 382
an idea of knowing M 380
an end of anything M 380
an aid in guiding M 380
an age of quick M 379
an eye of agony M 378
an era of testing M 378
an end the world M 378
an idea of music M 377
an age of major M 377
an era of quiet M 376
an area of music M 376
an area of enemy M 376
an air of which M 376
an eye to catch M 374
an end he could M 374
an area is taken M 374
an act of white M 374
an idea or method M 372
an aid to labor M 372
an idea is taken M 370
an idea in writing M 370
an arm to wield M 370
an area of crown M 370
an air of extra M 370
an act of truly M 370
an aid to small M 369
an end to panic M 368
an end to drift M 368
an arm in order M 368
an air of trust M 368
an air of human M 368
an age of peril M 367
an eye to heaven M 366
an era of grand M 366
an idea of turning M 364
an idea of running M 364
an act of grand M 364
an era as drawn M 362
an age is often M 362
an idea of world M 361
an air of fixed M 361
an act of finding M 361
an era of decay M 360
an area to serve M 360
an age of facts M 360
an eye he could M 358
an area of burnt M 358
an can be found M 357
an act is known M 356
an area or state M 355
an eye of green M 354
an era of class M 354
an end to hunting M 354
an area as close M 354
an air of getting M 354
an aid to gaining M 354
an age of state M 353
an act of opening M 353
an idea of equal M 352
an eye to human M 352
an area of order M 352
an air of rough M 350
an end the thirty M 349
an age of close M 349
an idea of growth M 348
an era of greed M 348
an age of irony M 348
an area of labor M 347
an idea or piece M 346
an end to fraud M 346
an air of inner M 346
an age to carry M 346
an act no longer M 344
an area of newly M 343
an eye or cutting M 342
an area of burning M 341
an idea to begin M 340
an idea of either M 340
an area so vital M 340
an area of river M 340
an eye to cutting M 339
an end of atoning M 339
an area to search M 338
an act in keeping M 338
an oath to never M 337
an era of order M 336
an act to cover M 336
an air of added M 335
an out of print M 334
an eye on others M 334
an end we shall M 334
an end in either M 334
an arm at right M 334
an area in close M 333
an ill of which M 332
an end of learning M 332
an area to enter M 332
an area of empty M 332
an act of cunning M 332
an arm to raise M 330
an one be found M 329
an act of group M 329
an idea of grace M 328
an air of civic M 328
an air of alert M 328
an aid to forming M 328
an age of falling M 328
an act is about M 327
an era of lower M 326
an end on terms M 326
an air of reason M 326
an eye to raising M 324
an aid in testing M 324
an act of reaching M 324
an end to until M 322
an end to fixed M 322
an arm to cover M 322
an age of royal M 322
an age of dreams M 322
an idea of people M 320
an idea of joining M 320
an area of store M 318
an oath of unity M 316
an eye to style M 316
an aid to unity M 316
an act of strong M 316
an aid of money M 315
an age of music M 315
an eye on small M 314
an end to delay M 314
an area of women M 314
an area as shown M 314
an era in world M 313
an end to seven M 313
an age of black M 312
an idea of selling M 311
an act or feeling M 311
an eye to avoid M 310
an end to blood M 309
an eye to turning M 308
an arm of local M 308
an air of cruel M 308
an act of hasty M 308
an oath to judge M 306
an air so light M 306
an oath he swore M 304
an ill to which M 304
an air of pleasing M 304
an aid to right M 304
an age of first M 304
an act of glory M 304
an idea of style M 303
an idea of learning M 302
an area of gross M 302
an aid to mapping M 302
an oath of civil M 300
an era of nearly M 300
an air of change M 300
an aid in mapping M 300
an age of wider M 300
an arc of seven M 299
an era of sound M 298
an aid to users M 298
an age of storm M 298
an age of poetic M 298
an aid to crime M 297
an eye by which M 296
an end of space M 296
an act or joint M 296
an idea of quite M 295
an air of looking M 295
an act of selling M 295
an idea so worthy M 294
an air of working M 294
an air of quite M 293
an idea the world M 292
an idea in motion M 292
an age of class M 292
an area of inter M 291
an air of never M 291
an end to joint M 290
an end of party M 290
an air of really M 290
an air in every M 290
an act of undue M 290
an idea of method M 288
an idea of calling M 288
an era of white M 288
an era of unity M 288
an area he could M 288
an air of equal M 288
an age or place M 288
an eye to holding M 286
an era of truly M 286
an end to money M 286
an end the short M 286
an end the cycle M 286
an arm by which M 286
an air of humor M 286
an act of short M 286
an area of value M 285
an idea he later M 284
an area to build M 284
an act or power M 284
an act of raising M 284
an area of blood M 283
an oath to guard M 282
an era at which M 282
an end is often M 282
an area he knows M 282
an act of steady M 282
an idea he first M 280
an ease of motion M 280
an act of growth M 280
an eye of feeling M 279
an oath to heaven M 278
an idea of opening M 278
an eye to writing M 278
an eye no doubt M 278
an area of crime M 278
an aid to later M 278
an era of action M 277
an oath he never M 276
an idea in people M 276
an era of reason M 276
an air of speaking M 276
an aid in breaking M 276
an age of blind M 276
an act of light M 276
an act is truly M 276
an end of thinking M 275
an idea by looking M 274
an arc of action M 274
an era of water M 273
an aid to reason M 273
an idea to offer M 272
an end to feeling M 272
an age of cruel M 272
an end to paper M 271
an age of loose M 271
an act of daily M 271
an eye we shall M 270
an area is within M 270
an act of first M 270
an act of falling M 270
an idea of showing M 268
an idea it comes M 268
an area of beauty M 268
an aid to women M 268
an age of feeling M 268
an act of motion M 268
an area of either M 267
an idea in every M 266
an eye to money M 266
an era of grace M 266
an area or route M 266
an area is based M 266
an arc of heaven M 266
an air of feeling M 266
an aid to daily M 266
an age of noble M 266
an area of decay M 264
an area of armed M 264
an arc of large M 264
an air of deadly M 264
an age of shame M 264
an act of deadly M 264
an eye on enemy M 262
an end in action M 262
an aid or guide M 262
an idea of looking M 261
an age of writing M 261
an end of study M 260
an area is first M 260
an air of showing M 260
an air of cheer M 260
an era of fixed M 259
an eye to power M 258
an age of paper M 258
an age of monks M 258
an age of grand M 258
an act of joint M 258
an era of paper M 257
an aid in cleaning M 257
an oath of honor M 256
an idea of seeking M 256
an eye to drawing M 256
an end he found M 256
an act of denying M 256
an act of small M 255
an act of inter M 255
an idea of warmth M 254
an end of block M 254
an arc of blood M 254
an air of worry M 254
an act of growing M 254
an idea in keeping M 252
an ash in which M 252
an oath or curse M 250
an end to action M 250
an air of spite M 250
an aid to judging M 250
an aid to cross M 250
an out of shape M 248
an idea of theirs M 248
an era of crime M 248
an end to growing M 248
an act in every M 248
an act by reason M 248
an end to greed M 247
an end to alien M 246
an arm to check M 246
an arc be drawn M 246
an age to spend M 246
an act of value M 245
an eye the while M 244
an end in spite M 244
an ease at first M 244
an arc is added M 244
an act to unite M 244
an age of color M 243
an end to forty M 242
an end by world M 242
an area in light M 242
an aid to speaking M 242
an age of beauty M 242
an act so cruel M 242
an act of forming M 242
an act is based M 242
an act he later M 242
an eye in front M 240
an end to trials M 240
an area of people M 240
an aid to field M 240
an act of getting M 240
an act of change M 240
an one is found M 238
an oath to avoid M 238
an era of trust M 238
an era of armed M 238
an end of killing M 238
an age to share M 238
an act or makes M 238
an act as could M 238
an end to begging M 237
an oath to spare M 236
an idea of basic M 236
an eye of gifts M 236
an era of civic M 236
an era is opening M 236
an end of change M 236
an area is small M 236
an area in search M 236
an aid to healthy M 236
an aid to every M 236
an act of cross M 236
an act is quite M 235
an era of gross M 234
an ego as large M 234
an area of thinking M 234
an arc on which M 234
an air of poetic M 234
an aid of fifty M 234
an act of keeping M 234
an act as moral M 234
an eye to party M 233
an eye to picking M 232
an end to tests M 232
an area of naked M 232
an area of chaos M 232
an age of rather M 232
an age of group M 232
an act to occur M 232
an old wing chair M 230
an oath of cursing M 230
an era of freer M 230
an area of linear M 230
an arc is given M 230
an act is valid M 230
an eye in action M 229
an aid to group M 229
an act of burning M 229
an idea to serve M 228
an idea is valid M 228
an era of about M 228
an end to playing M 228
an end to dreaming M 228
an end is found M 228
an end by putting M 228
an air of holding M 228
an aid to blind M 228
an idea the whole M 227
an arc of thirty M 227
an act up meeting M 227
an act as writing M 227
an end so worthy M 226
an end by turning M 226
an arm so strong M 226
an area of field M 226
an age of folly M 226
an age of equal M 226
an act to enact M 226
an end in human M 225
an age of labor M 225
an end of breaking M 224
an area to focus M 224
an area of sound M 224
an air of heaven M 224
an age to build M 224
an act of shaping M 224
an idea is truly M 222
an end he began M 222
an end by either M 222
an area of group M 222
an area at right M 222
an for the first M 221
an arm of might M 221
an area of feeling M 221
an idea of raising M 220
an era of amazing M 220
an end to danger M 220
an end by killing M 220
an area of opening M 220
an air of pitying M 220
an air of finding M 220
an aim to please M 220
an age in terms M 220
an act of grief M 220
an act of walking M 219
an idea he calls M 218
an end to short M 218
an air of steady M 218
an aid to civil M 218
an act of doubt M 218
an act of running M 217
an idea is sound M 216
an eye on getting M 216
an era of quick M 216
an aim of creating M 216
an act to please M 216
an act to cause M 216
an act is really M 216
an act is given M 216
an one as ought M 214
an idea he liked M 214
an eye to opening M 214
an era of solid M 214
an end is still M 214
an area of cloud M 214
an air of closing M 214
an aim of every M 214
an aid to exact M 214
an act is fixed M 214
an idea of money M 213
an era no longer M 213
an end to right M 213
an use of reason M 212
an idea of white M 212
an idea of civil M 212
an eye to reaching M 212
an eye of equal M 212
an era of false M 212
an end the people M 212
an end or change M 212
an end of teaching M 212
an end in seven M 212
an arc of equal M 212
an aid to meeting M 212
an age of tight M 212
an idea of feeling M 211
an easing of money M 211
an act as walking M 211
an one is often M 210
an idea of legal M 210
an idea as though M 210
an eye to large M 210
an end of state M 210
an end of moral M 210
an area of world M 210
an act of holding M 209
an idea of shape M 208
an eye on state M 208
an area of coast M 208
an aid in showing M 208
an age of price M 208
an age of child M 208
an act as might M 208
an idea or state M 207
an end to gross M 207
an area of child M 207
an eye to costs M 206
an era of right M 206
an end to others M 206
an area of search M 206
an area of orange M 206
an age or stage M 206
an age of steady M 206
an age of noise M 206
an act of logic M 206
an act of warning M 205
an act of binding M 205
an oath to grant M 204
an idea of meeting M 204
an idea is wanting M 204
an eye to either M 204
an end the night M 204
an earth to which M 204
an area is built M 204
an air of undue M 204
an air of small M 204
an aid to breathing M 204
an age to allow M 204
an act of entry M 204
an end of period M 203
an old thing which M 202
an end to speaking M 202
an end to cruel M 202
an easy or happy M 202
an air of chaos M 202
an aid in picking M 202
an age in human M 202
an act so brave M 202
an eye on world M 200
an era of storm M 200
an area of ruins M 200
an arc on either M 200
an act of sweet M 200
an act at first M 200
an led is shown M 198
an idea to fight M 198
an eye to teaching M 198
an eye on father M 198
an eye at either M 198
an end to unity M 198
an easy thing makes M 198
an area of utter M 198
an area is large M 198
an arc of hills M 198
an arc in space M 198
an aid to guide M 198
an aid by which M 198
an age of unity M 198
an age of rough M 198
an idea or model M 197
an act of working M 197
an eye at every M 196
an era of harsh M 196
an end to harsh M 196
an easy thing which M 196
an ease of which M 196
an area we could M 196
an area of trust M 196
an air of sense M 196
an aid to water M 196
an age to write M 196
an age of haste M 196
an age in search M 196
an act of defeat M 196
an end the seven M 195
an oath to reveal M 194
an oath he could M 194
an eye to world M 194
an era of utter M 194
an end to working M 194
an area so alien M 194
an area of writing M 194
an area is still M 194
an are the roots M 194
an air so sweet M 194
an aim so steady M 194
an age of image M 194
an end to eight M 193
an idea of holding M 192
an end to running M 192
an end to extra M 192
an ego to which M 192
an earth of which M 192
an area of tight M 192
an air of folly M 192
an aid in proving M 192
an age on which M 192
an age of mixed M 192
an idea to check M 190
an idea or train M 190
an eye on women M 190
an end of poetry M 190
an air to breathe M 190
an aim to avoid M 190
an age of quiet M 190
an area or point M 189
an area of block M 189
an idea of glory M 188
an heap of ashes M 188
an eye to filling M 188
an eye on grace M 188
an end of frame M 188
an end by calling M 188
an easy or short M 188
an arc of color M 188
an age of local M 188
an age no older M 188
an act of idiocy M 188
an act is still M 188
an idea of cutting M 187
an end to today M 186
an end the kingdom M 186
an easy to apply M 186
an ease of entry M 186
an arm on board M 186
an air so noble M 186
an age of people M 186
an act of causing M 186
an end to water M 185
an end the right M 185
an air of close M 185
an air as might M 185
an out of class M 184
an out at first M 184
an idea to occur M 184
an idea so alien M 184
an idea of civic M 184
an idea is either M 184
an era of inter M 184
an end in space M 184
an arc in terms M 184
an act of vigor M 184
an eye on human M 183
an earth no longer M 183
an eye on weather M 182
an end to group M 182
an end to fifty M 182
an area of warmth M 182
an arc in order M 182
an air of either M 182
an aid to power M 182
an aid to avoid M 182
an age of harsh M 182
an act of rather M 182
an idea of others M 180
an era of super M 180
an area we shall M 180
an area of plant M 180
an age of amazing M 180
an act to prove M 180
an act of rough M 180
an act of basic M 180
an end to music M 179
an area of class M 179
an oath to yield M 178
an idea to raise M 178
an idea the author M 178
an idea of helping M 178
an idea of drawing M 178
an idea is worthy M 178
an eye to proving M 178
an eye as yours M 178
an eye as quick M 178
an end to error M 178
an area of vision M 178
an area of extra M 178
an air of appeal M 178
an aim to build M 178
an aid of force M 178
an age of ruins M 178
an act to count M 178
an act or engage M 178
an act of breathing M 178
an act as either M 178
an eye to short M 177
an air of force M 177
an oath to drive M 176
an idea to paper M 176
an idea of class M 176
an eye of which M 176
an eye is blind M 176
an end in favor M 176
an arc to cross M 176
an oath as binding M 175
an age of under M 175
an out or point M 174
an out of hours M 174
an one as makes M 174
an end we found M 174
an end to months M 174
an area or people M 174
an area as vital M 174
an arc of black M 174
an air of books M 174
an aid to raising M 174
an was the first M 173
an end to woman M 172
an end of white M 172
an aid to music M 172
an aid in putting M 172
an age of seeming M 172
an age of fools M 172
an act he knows M 172
an act in writing M 171
an idea it could M 170
an idea is fixed M 170
an end to sixty M 170
an easy to grasp M 170
an area of wider M 170
an act of empty M 170
an act of awful M 170
an end to enemy M 169
an area or issue M 169
an area of fluid M 169
an oath to study M 168
an idea the first M 168
an idea or create M 168
an idea of poetic M 168
an era of mixed M 168
an end it seems M 168
an arm or wrist M 168
an area to start M 168
an area to carry M 168
an area is either M 168
an aim of action M 168
an aid to cleaning M 167
an idea of water M 166
an idea of quiet M 166
an idea as anything M 166
an eye to cheer M 166
an arm is moved M 166
an area of winding M 166
an aid to knowing M 166
an act of study M 166
an act of naive M 166
an act of music M 166
an act it could M 166
an eye of steady M 164
an eye he found M 164
an era or period M 164
an end to river M 164
an end to poetry M 164
an end to mixed M 164
an end the hopes M 164
an area of steady M 164
an area of meadow M 164
an area he calls M 164
an aim in speaking M 164
an aid to which M 164
an age to value M 164
an age of pride M 164
an age of logic M 164
an act to force M 164
an act to close M 164
an era of music M 163
an age of plain M 163
an oath is never M 162
an idea the reader M 162
an idea or anything M 162
an idea of teaching M 162
an end to worry M 162
an end to father M 162
an end of music M 162
an area or period M 162
an area is quite M 162
an area at night M 162
an arc at right M 162
an air of keeping M 162
an aid to final M 162
an aid to breaking M 162
an age of quite M 162
an act to check M 162
an eye on while M 161
an act of waiting M 161
an oath in cases M 160
an idea of crime M 160
an eye of white M 160
an era in terms M 160
an end to study M 160
an earth it knows M 160
an air of quick M 160
an aim of human M 160
an aid to short M 160
an aid in shaping M 160
an aid in filling M 160
an age of still M 160
an eye to stage M 159
an eye to growth M 159
an era of working M 159
an end to after M 159
an easing of world M 159
an aid in winning M 159
an oath in every M 158
an idea to every M 158
an idea is rather M 158
an idea is known M 158
an idea by killing M 158
an idea at times M 158
an eye to working M 158
an eye to anything M 158
an end to teaching M 158
an end so noble M 158
an end in legal M 158
an ego in order M 158
an area as could M 158
an air of logic M 158
an air of child M 158
an aid in plant M 158
an age so given M 158
an act to found M 158
an act so noble M 158
an act of thanking M 158
an idea of major M 157
an end to order M 157
an end as might M 157
an air of money M 157
an odd thing which M 156
an idea to carry M 156
an idea of large M 156
an eye the first M 156
an era of uneasy M 156
an era of proud M 156
an era of fraud M 156
an end in heaven M 156
an area of missing M 156
an air of playing M 156
an air of amusing M 156
an aid in raising M 156
an aid in clearing M 156
an age of working M 156
an age of dawning M 156
an end of yours M 155
an use to which M 154
an one as every M 154
an idea on where M 154
an idea of breaking M 154
an idea is alien M 154
an idea by showing M 154
an eye on short M 154
an end of reason M 154
an area of adult M 154
an air of grown M 154
an aim of moral M 154
an aid to winning M 154
an age to study M 154
an age as twice M 154
an act of known M 154
an eye the night M 152
an eye of water M 152
an era of study M 152
an end to offer M 152
an end of growth M 152
an end by sending M 152
an end by getting M 152
an area to guard M 152
an area is fully M 152
an arc of green M 152
an air of plain M 152
an aid to holding M 152
an aid of eight M 152
an aid in passing M 152
an age as thirty M 152
an eye on price M 151
an end of working M 151
an act of super M 151
an act in either M 151
an oath to watch M 150
an idea of royal M 150
an idea is anything M 150
an idea be really M 150
an eye to moral M 150
an end of earthly M 150
an end my first M 150
an arm to shade M 150
an aid in cutting M 150
an act we shall M 150
an act of gaining M 150
an idea to spread M 148
an eye on power M 148
an era of seeking M 148
an era of learning M 148
an era of happy M 148
an era of child M 148
an end to field M 148
an end to close M 148
an arm to guide M 148
an arm or agent M 148
an area of maybe M 148
an area of anything M 148
an area at about M 148
an age of truly M 148
an age to reason M 147
an off the beaten M 146
an oath of total M 146
an oath he shall M 146
an idea of letting M 146
an idea of daily M 146
an heap of burning M 146
an eye to others M 146
an eye to change M 146
an eye to breaking M 146
an eye so quick M 146
an era or event M 146
an era of rather M 146
an era of poetry M 146
an era of force M 146
an era in music M 146
an end to denial M 146
an end the party M 146
an end is given M 146
an ease to which M 146
an area to write M 146
an area in either M 146
an arc to which M 146
an arc is shown M 146
an air by which M 146
an age of often M 146
an act to wound M 146
an act of begging M 146
an end to under M 145
an one as yours M 144
an idea in print M 144
an end is either M 144
an area the shape M 144
an air of winning M 144
an aid to solve M 144
an aid in knowing M 144
an aid in child M 144
an age to change M 144
an age of white M 144
an act of irony M 144
an act of closing M 144
an area or block M 143
an one is still M 142
an oath of every M 142
an oak in which M 142
an idea or moral M 142
an idea is fully M 142
an idea is easily M 142
an era of healthy M 142
an end the phase M 142
an end of labor M 142
an end of crime M 142
an end of black M 142
an end of beauty M 142
an area of weaker M 142
an area of drift M 142
an arc is taken M 142
an air of passing M 142
an age of hopes M 142
an age of defeat M 142
an age is given M 142
an act to issue M 142
an act he never M 142
an area of right M 141
an out of frame M 140
an oath in legal M 140
an idea to stand M 140
an idea of playing M 140
an idea he thinks M 140
an eye on large M 140
an era by which M 140
an end to treating M 140
an end the worst M 140
an area of facts M 140
an aid to prose M 140
an aid to legal M 140
an age of error M 140
an act of lasting M 140
an act of every M 140
an eye is about M 139
an act or causing M 139
an oath by putting M 138
an idea to appear M 138
an idea of gaining M 138
an idea of father M 138
an idea is easier M 138
an idea he knows M 138
an eye to might M 138
an eye to forming M 138
an eye is fixed M 138
an eye at others M 138
an era on which M 138
an end to yours M 138
an end to about M 138
an end of playing M 138
an arm of royal M 138
an aid to feeding M 138
an aid in human M 138
an age to wield M 138
an act of wishing M 138
an era of often M 137
an one is under M 136
an old king sitting M 136
an idea so basic M 136
an idea of prime M 136
an idea of doubt M 136
an idea he hoped M 136
an eye the world M 136
an eye on nearby M 136
an eye on heaven M 136
an eye in terms M 136
an end to guilt M 136
an end of treating M 136
an easing of terms M 136
an area to check M 136
an aim on which M 136
an aid to wound M 136
an aid to weather M 136
an aid to state M 136
an aid in running M 136
an age to found M 136
an age of inter M 136
an age of fully M 136
an age of dogma M 136
an act the proof M 136
an act of people M 136
an act of lethal M 136
an act of large M 136
an area of lasting M 135
an area of clearing M 135
an use of words M 134
an oath of blind M 134
an idea of sorts M 134
an idea of guilt M 134
an idea in human M 134
an idea in front M 134
an end to undue M 134
an end to daily M 134
an end to craving M 134
an end to calls M 134
an end the final M 134
an area to plant M 134
an air of right M 134
an aid to create M 134
an aid in seeking M 134
an age as eight M 134
an act of harming M 134
an act of close M 134
an area of price M 133
an aid to night M 133
an act of feeding M 133
an oath is final M 132
an idea to people M 132
an idea of ethics M 132
an eye to spare M 132
an era of joint M 132
an era of blind M 132
an end of getting M 132
an arm to guard M 132
an air of brave M 132
an aid in study M 132
an age to apply M 132
an age of sleep M 132
an age as seven M 132
an act or method M 132
an act of order M 132
an act of harsh M 132
an out of touch M 131
an oath no longer M 131
an end to empty M 131
an arc of brown M 131
an aid to model M 131
an act is under M 131
an oath at every M 130
an oak in front M 130
an idea of false M 130
an idea my mother M 130
an eye on money M 130
an arm to seize M 130
an area of ethics M 130
an air to water M 130
an air of devil M 130
an aid in feeding M 130
an act or crime M 130
an act of hitting M 130
an aid to either M 129
an idea we ought M 128
an idea so often M 128
an idea of vital M 128
an idea of sitting M 128
an idea of black M 128
an eye to value M 128
an eye to legal M 128
an era of bliss M 128
an end to stealing M 128
an end to pride M 128
an end to inner M 128
an end the large M 128
an end of value M 128
an easy to search M 128
an area or within M 128
an area of point M 128
an area in moral M 128
an air of sunny M 128
an aid to staying M 128
an aid to easier M 128
an aid in opening M 128
an age we might M 128
an age to admit M 128
an age of vital M 128
an act of nearly M 128
an act he might M 128
an eye to testing M 127
an end the search M 127
an end of blood M 127
an aid to child M 127
an age to cross M 127
an one he found M 126
an odd thing began M 126
an idea as vague M 126
an eye on keeping M 126
an eye no longer M 126
an end we could M 126
an end the legal M 126
an end of green M 126
an end is shown M 126
an end in eight M 126
an area to place M 126
an area of vague M 126
an area of caves M 126
an area it could M 126
an age of exile M 126
an act of extra M 126
an age of water M 125
an oath on every M 124
an idea on every M 124
an idea of walking M 124
an heap of bones M 124
an era of cruel M 124
an era of basic M 124
an era of apathy M 124
an end to seeking M 124
an end to motion M 124
an end in keeping M 124
an area of storm M 124
an area of round M 124
an area of often M 124
an area is growing M 124
an air of truly M 124
an aid to passing M 124
an age of fraud M 124
an age of denial M 124
an act of price M 124
an act of cursing M 124
an one as either M 123
an air so engaging M 123
an age of daily M 123
an one in which M 122
an idea to grasp M 122
an idea of strong M 122
an idea of shame M 122
an idea it seems M 122
an eye to wider M 122
an eye to please M 122
an era of wider M 122
an end to reason M 122
an end is never M 122
an end he asked M 122
an arm at either M 122
an area of healed M 122
an air of vital M 122
an air of tough M 122
an air of people M 122
an act of proud M 122
an area of twice M 121
an act lo amend M 121
an use of names M 120
an idea as could M 120
an eye to solid M 120
an eye the storm M 120
an eye on growth M 120
an eye is found M 120
an era of danger M 120
an end of local M 120
an end is really M 120
an end by order M 120
an end by forcing M 120
an area of logic M 120
an arc to start M 120
an air of vivid M 120
an air of study M 120
an air of hasty M 120
an aim to study M 120
an aim to serve M 120
an aid to logic M 120
an age in whose M 120
an act of habit M 120
an oath on either M 119
an easy thing either M 119
an air of super M 119
an act of playing M 119
an oath to seize M 118
an oath of party M 118
an oath in terms M 118
an idea of utter M 118
an idea is about M 118
an idea as false M 118
an eye of deity M 118
an eye as though M 118
an era of tough M 118
an end to evening M 118
an end to basic M 118
an end by cutting M 118
an ego in which M 118
an earth or water M 118
an area to visit M 118
an area to gather M 118
an area or class M 118
an area is never M 118
an arc as though M 118
an air of sharing M 118
an air of black M 118
an aid in cases M 118
an age to claim M 118
an age of newly M 118
an age of either M 118
an area of elite M 117
an oath to allow M 116
an oak at every M 116
an idea of denying M 116
an idea by putting M 116
an idea as might M 116
an eye to search M 116
an eye is shown M 116
an eye at night M 116
an end the armed M 116
an end of motion M 116
an end of input M 116
an end no longer M 116
an end if either M 116
an area of table M 116
an air of arguing M 116
an aid in staying M 116
an age so prone M 116
an age of happy M 116
an area of later M 115
an area is about M 115
an aid to proof M 115
an one as comes M 114
an old king whose M 114
an oath to honor M 114
an let of about M 114
an idea of types M 114
an idea go begging M 114
an eye to yours M 114
an eye to shaping M 114
an eye to clearing M 114
an eye on water M 114
an eye in heaven M 114
an end to grand M 114
an end to force M 114
an end to books M 114
an end to acute M 114
an end of hunger M 114
an area to begin M 114
an area of viable M 114
an area of stream M 114
an area of slave M 114
an area of daily M 114
an area in large M 114
an arc of eight M 114
an aid to search M 114
an aid to change M 114
an ago in which M 114
an age so proud M 114
an age of waste M 114
an age of proud M 114
an age of endings M 114
an act the stage M 114
an act of engaging M 114
an end the stage M 113
an air or space M 113
an oath in civil M 112
an idea to place M 112
an idea of sharing M 112
an idea of fixed M 112
an eye to looking M 112
an era of people M 112
an era in space M 112
an end in store M 112
an arm of about M 112
an area of thriving M 112
an arc to create M 112
an air of letting M 112
an air of harsh M 112
an aid to wider M 112
an aid to focus M 112
an age of hasty M 112
an act to serve M 112
an eye to fitting M 111
an eye to first M 111
an end to elite M 111
an aid in model M 111
an oath to unite M 110
an oath by heaven M 110
an idea to cause M 110
an idea or makes M 110
an idea of reaching M 110
an idea of empty M 110
an idea of amusing M 110
an idea by drawing M 110
an eye to women M 110
an eye is looking M 110
an era of rough M 110
an era in every M 110
an end it could M 110
an area to house M 110
an area by people M 110
an aid to world M 110
an age of verse M 110
an act of slave M 110
an act of sending M 110
an act as brave M 110
an era of group M 109
an use of which M 108
an idea of passing M 108
an idea is worse M 108
an eye to space M 108
an era of shame M 108
an end to wanting M 108
an end to cases M 108
an end the major M 108
an end in world M 108
an end by signing M 108
an end by evening M 108
an ease of action M 108
an arm of either M 108
an area or piece M 108
an area of image M 108
an area of beaten M 108
an area of ample M 108
an area no wider M 108
an aid to color M 108
an aid to class M 108
an age to appear M 108
an age of vigor M 108
an age in order M 108
an act of touch M 108
an act of might M 108
an act of appeal M 108
an act is shown M 108
an idea or sense M 107
an ego no longer M 107
an air or fluid M 107
an one go about M 106
an idea we first M 106
an idea is growing M 106
an eye on users M 106
an eye on legal M 106
an eye in place M 106
an eye as steady M 106
an era of slave M 106
an era of poetic M 106
an end to vague M 106
an end to apathy M 106
an end or nearly M 106
an end of exile M 106
an end is known M 106
an end in sixty M 106
an end he wrote M 106
an end by opening M 106
an area of vivid M 106
an area he loved M 106
an arc is found M 106
an aid to cutting M 106
an age to avenge M 106
an age or state M 106
an act of whose M 106
an act of praying M 106
an act of hunger M 106
an act is cruel M 106
an one is easily M 104
an oath in favor M 104
an idea of group M 104
an idea of facts M 104
an eye to royal M 104
an eye to match M 104
an eye to guide M 104
an eye on grant M 104
an eye is taken M 104
an eye in whose M 104
an era of first M 104
an end the notion M 104
an end of waiting M 104
an end no later M 104
an awe he could M 104
an arm to carry M 104
an area of newer M 104
an area of falling M 104
an area is drawn M 104
an air in keeping M 104
an aim to change M 104
an aid of thirty M 104
an age to stand M 104
an age to gather M 104
an act as proof M 104
an eye on winning M 103
an end of light M 103
an act of lifting M 103
an one to touch M 102
an idea to avoid M 102
an idea or solve M 102
an idea he takes M 102
an eye to sending M 102
an eye the pupil M 102
an eye on quick M 102
an eye in world M 102
an era of seeming M 102
an era of deadly M 102
an end to putting M 102
an end to grant M 102
an end to cheating M 102
an end to block M 102
an end of loose M 102
an end of looking M 102
an awe in which M 102
an area of royal M 102
an arc of fixed M 102
an air of adult M 102
an aid to blood M 102
an age in letting M 102
an act of happy M 102
an act of exile M 102
an act no doubt M 102
an act in spite M 102
an act he found M 102
an oath of towns M 100
an idea of stealing M 100
an idea of staying M 100
an idea of rather M 100
an idea of chaos M 100
an idea is shown M 100
an idea is lacking M 100
an eye to small M 100
an eye on gaining M 100
an eye is often M 100
an era of print M 100
an era of panic M 100
an end to magic M 100
an end to agony M 100
an end the glory M 100
an end it might M 100
an easy thing after M 100
an arm is missing M 100
an area of harsh M 100
an area of grand M 100
an area is fixed M 100
an area in round M 100
an area by drawing M 100
an arc at about M 100
an air no longer M 100
an aid to check M 100
an aid in lifting M 100
an age or cycle M 100
an age of knowing M 100
an age is found M 100
an act of search M 100
an act as breathing M 99
an oath be sworn M 98
an idea it never M 98
an idea in class M 98
an eye to unity M 98
an eye to carry M 98
an eye to action M 98
an era of green M 98
an end of knowing M 98
an end of cutting M 98
an end by burning M 98
an end at seven M 98
an area we might M 98
an area is really M 98
an area by looking M 98
an age to raise M 98
an age of study M 98
an age of slave M 98
an age of press M 98
an act of hurting M 98
an act as speaking M 98
an idea of thinking M 97
an era of cross M 97
an arm of light M 97
an air of party M 97
an act the whole M 97
an one is worthy M 96
an one is truly M 96
an one as moves M 96
an oath is still M 96
an oak on which M 96
an idea to study M 96
an idea to arise M 96
an idea of speaking M 96
an idea in poetry M 96
an idea in music M 96
an idea by words M 96
an idea as grand M 96
an eye to running M 96
an eye to reason M 96
an eye to enjoy M 96
an eye or opening M 96
an eye on today M 96
an end to weeks M 96
an end to decay M 96
an end the local M 96
an end the child M 96
an end on reaching M 96
an end by lapse M 96
an ego or anything M 96
an ease of learning M 96
an area the local M 96
an area in phase M 96
an area he named M 96
an air of first M 96
an air of civil M 96
an aid to putting M 96
an aid to order M 96
an age to climb M 96
an act or failing M 96
an act of women M 96
an idea or claim M 95
an area of shell M 95
an aid in later M 95
an act of purging M 95
an oath to enter M 94
an oath so taken M 94
an oak to await M 94
an idea to catch M 94
an eye the house M 94
an era of motion M 94
an era of heroes M 94
an era of defeat M 94
an end the human M 94
an end the close M 94
an end of shame M 94
an end of danger M 94
an end by legal M 94
an end be found M 94
an awe of reason M 94
an arm to where M 94
an arm to spare M 94
an arm in reply M 94
an area of civic M 94
an area at first M 94
an arc to point M 94
an all or whole M 94
an air of newly M 94
an air of gross M 94
an aid to proving M 94
an aid to nursing M 94
an aid to carry M 94
an age to grasp M 94
an age of solid M 94
an age of lower M 94
an age he never M 94
an act so truly M 94
an act or fails M 94
an act of sitting M 94
an act of pushing M 94
an act of obeying M 94
an idea to light M 93
an aid in field M 93
an one to argue M 92
an one as women M 92
an old king named M 92
an oath to visit M 92
an oath the whole M 92
an idea to guide M 92
an idea to apply M 92
an idea to allow M 92
an idea so strong M 92
an idea of words M 92
an idea is strong M 92
an eye of proud M 92
an era of plain M 92
an era of final M 92
an end to lengthy M 92
an end to deadly M 92
an end of legal M 92
an end of equal M 92
an end by writing M 92
an easy thing under M 92
an easy thing since M 92
an easy or light M 92
an ease in writing M 92
an arm as yours M 92
an arm as white M 92
an area in every M 92
an area as human M 92
an air of exile M 92
an aid to steady M 92
an aid to large M 92
an aid to filling M 92
an age of thinking M 92
an act the first M 92
an act or enter M 92
an act is fully M 92
an act be right M 92
an idea of small M 91
an eye to merit M 91
an idea or change M 90
an idea of today M 90
an idea by force M 90
an eye on ships M 90
an era of weaker M 90
an era of waste M 90
an era of dawning M 90
an end to within M 90
an end to total M 90
an end to civic M 90
an end to blaming M 90
an end in total M 90
an end by human M 90
an end be alike M 90
an easy to carry M 90
an easy thing where M 90
an area of blown M 90
an area of badly M 90
an aim of finding M 90
an aid to growing M 90
an age of sweet M 90
an age of grief M 90
an age of freer M 90
an age of civic M 90
an act the agent M 90
an act of healthy M 90
an act he likes M 90
an idea of plain M 89
an one we shall M 88
an oath of hurry M 88
an oath is often M 88
an idea to focus M 88
an idea to final M 88
an idea to drive M 88
an idea so vague M 88
an idea he often M 88
an idea by whose M 88
an eye to casting M 88
an eye on later M 88
an eye on labor M 88
an eye on known M 88
an era or point M 88
an era of royal M 88
an era of quite M 88
an era of prose M 88
an end to sending M 88
an end to avoid M 88
an end the chaos M 88
an end by breaking M 88
an ease of writing M 88
an arm or maybe M 88
an area it might M 88
an arc so short M 88
an air in speaking M 88
an air as nearly M 88
an aim to guide M 88
an aid to guiding M 88
an aid in every M 88
an act to seize M 88
an act of warmth M 88
an act of enemy M 88
an act as putting M 88
an idea to cross M 86
an idea of trust M 86
an idea of touch M 86
an idea of green M 86
an idea is within M 86
an eye to sharing M 86
an eye to passing M 86
an eye it could M 86
an end to looking M 86
an end to begin M 86
an end to beauty M 86
an end the cruel M 86
an end of money M 86
an easing of class M 86
an arm he could M 86
an area of wound M 86
an area of truly M 86
an area of really M 86
an area in small M 86
an arc to avoid M 86
an air of noisy M 86
an air of loathing M 86
an aid in moral M 86
an aid in gauging M 86
an age to labor M 86
an age to engage M 86
an age of vivid M 86
an age in every M 86
an act we could M 86
an act of pouring M 86
an act of deity M 86
an era of newly M 85
an end to cutting M 85
an end the sound M 85
an age as theirs M 85
an act of casting M 85
an oath to spend M 84
an oath be given M 84
an idea of later M 84
an idea of growing M 84
an idea in space M 84
an idea he tried M 84
an eye we could M 84
an eye to total M 84
an eye to basic M 84
an eye in search M 84
an eye he stood M 84
an end to rules M 84
an end to loose M 84
an end to crown M 84
an end to color M 84
an end of power M 84
an end of burnt M 84
an end of breathing M 84
an end in short M 84
an arm on every M 84
an area of motion M 84
an arc of vision M 84
an air of turning M 84
an aim of reaching M 84
an aid of about M 84
an aid in looking M 84
an aid in fitting M 84
an age of sense M 84
an age of naive M 84
an age of anything M 84
an age is green M 84
an act the people M 84
an act so worthy M 84
an act is equal M 84
an act is begun M 84
an act as though M 84
an act as anything M 84
an era of plant M 83
an not the first M 82
an idea to appeal M 82
an idea of pushing M 82
an idea of inter M 82
an idea of gross M 82
an idea of forcing M 82
an idea he finds M 82
an eye to check M 82
an eye on yours M 82
an eye on junior M 82
an eye in human M 82
an era of pride M 82
an era of loose M 82
an end to brown M 82
an end the uneasy M 82
an end the growth M 82
an end the earthly M 82
an end of people M 82
an end of honor M 82
an earth as black M 82
an area the lower M 82
an area of where M 82
an area by creating M 82
an aid to showing M 82
an aid to fraud M 82
an aid to falling M 82
an age of vision M 82
an age of search M 82
an act of error M 82
an act by force M 82
an eye on major M 81
an end to walking M 81
an aid to inner M 81
an one is shown M 80
an odd ring about M 80
an oath to write M 80
an oath to start M 80
an oath of force M 80
an oath he broke M 80
an idea to prove M 80
an idea to force M 80
an idea of winning M 80
an idea of inner M 80
an idea he seems M 80
an idea at large M 80
an heap of onions M 80
an eye to people M 80
an eye on passing M 80
an eye on daily M 80
an eye is still M 80
an end to carry M 80
an end by closing M 80
an end as shown M 80
an awe in treading M 80
an arm to greet M 80
an arm as shown M 80
an area of pride M 80
an area in human M 80
an air of growth M 80
an aid of which M 80
an age to drive M 80
an age or class M 80
an age of worse M 80
an age of really M 80
an age of drift M 80
an age is never M 80
an act or motion M 80
an act of prime M 80
an act as stealing M 80
an era of money M 70
an idea in sound M 69
an aid to testing M 67
an arc of sound M 66
an eye to light M 65
an aid to price M 65
an aim of teaching M 64
an aim in teaching M 63
an act of hunting M 62
an eye to price M 60
an end to lives M 56
an end in teaching M 56
an act of nursing M 56
an idea of pleasing M 53
an air of warning M 53
an air of drawing M 53
an act of clearing M 53
an eye or joint M 52
an area of testing M 52
an idea of magic M 51
an eye to labor M 51
an era of magic M 51
an act of undoing M 51
an act of cleaning M 51
an end to piece M 50
an act of lending M 50
an area of below M 49
an age of cross M 49
an act of testing M 49
an act of story M 49
an area the whole M 48
an aid to fault M 48
an age of inner M 48
an age of fixed M 48
an end to theirs M 47
an end of child M 47
an idea so fixed M 46
an end to quiet M 45
an age of lasting M 45
an act or cause M 45
an eye on black M 44
an area in total M 44
an aid to fitting M 44
an act or issue M 44
an act of image M 44
an eye to water M 43
an end to drawing M 43
an arm of theirs M 43
an aid to looking M 43
an idea of blood M 42
an era of color M 42
an end to light M 42
an end of either M 42
an age of story M 42
an act of pleasing M 42
an act by either M 42
an era of elite M 41
an aid to image M 41
an end on either M 40
an arm no longer M 40
an act of adult M 40
an act of mercy D 43113
an art in which D 36580
an axe to grind D 31946
an act to repeal D 31568
an oath of fealty D 22561
an era of rapid D 19690
an act of march D 14344
an arm of flesh D 12991
an age of rapid D 12604
an act of social D 11254
an end to racial D 10888
an act of sheer D 10745
an inn of court D 10397
an era of social D 10247
an art of which D 9012
an area of social D 7511
an end in sight D 7226
an age of social D 6954
an out of court D 6523
an air of gloom D 5906
an air of mingled D 5483
an area of dense D 5478
an act of filial D 5456
an end to social D 5182
an air of grave D 5132
an art to which D 4380
an area of rapid D 4236
an art or craft D 4134
an area or region D 3670
an end in march D 3618
an air of stern D 3597
an air of lofty D 2992
an art by which D 2988
an ace of hearts D 2843
an art of poetry D 2754
an area of rolling D 2730
an aid in solving D 2622
an iota of doubt D 2546
an idea he would D 2468
an egg or sperm D 2378
an end on march D 2372
an idea of social D 2336
an one as would D 2308
an inn or hotel D 2198
an egg in which D 2154
an act of skill D 2112
an art at which D 2096
an act of racial D 2046
an aid to social D 2014
an age of giants D 1984
an end to trade D 1960
an act of grave D 1911
an act of arson D 1904
an area of focal D 1900
an idea it would D 1812
an age of stone D 1772
an aid to rapid D 1734
an air of scorn D 1723
an era of nation D 1708
an act of petty D 1696
an age in piled D 1686
an age of speed D 1657
an age of steel D 1645
an ode in which D 1642
an ace of clubs D 1630
an eye of mercy D 1582
an act of overt D 1582
an oath in court D 1570
an art or skill D 1500
an era of changing D 1470
an aid to smoking D 1430
an oil or water D 1428
an orb of light D 1427
an oil in water D 1399
an air of comic D 1393
an ass to carry D 1364
an art of social D 1354
an arc or spark D 1349
an urn in which D 1332
an air of faint D 1314
an art of writing D 1284
an air of frank D 1262
an act of tardy D 1260
an iota of proof D 1236
an air of sober D 1230
an area of sandy D 1220
an art of speaking D 1213
an air of social D 1194
an art of thinking D 1184
an ark in which D 1182
an aid in setting D 1161
an aid to solving D 1144
an act of stealth D 1126
an ace of getting D 1106
an end to roman D 1105
an ace of winning D 1102
an art or trade D 1090
an air of thrift D 1090
an era of racial D 1074
an end to japan D 1074
an area of level D 1065
an inn at which D 1036
an art of space D 1036
an end of telling D 1034
an act or scene D 1028
an old sea chest D 1014
an area of urban D 1010
an air of bland D 1010
an inn in which D 1004
an end to ethnic D 1002
an art of words D 998
an act of valor D 995
an act of privy D 989
an area of broad D 986
an age of changing D 980
an oar in water D 979
an act he would D 978
an end to negro D 964
an air of genial D 962
an air of pique D 950
an air of tense D 946
an end the reign D 938
an aria in which D 938
an air of brisk D 938
an ode in honor D 931
an area of edema D 930
an air of rural D 924
an act on march D 912
an ace of falling D 906
an air of taste D 892
an off the shelf D 890
an eye to social D 882
an age of racial D 878
an area of scrub D 873
an ace of breaking D 871
an oil or grease D 870
an area of trade D 866
an end to china D 854
an ass on which D 848
an act of sensing D 848
an area of rural D 842
an end he would D 832
an air of regal D 828
an urn of ashes D 818
an age or nation D 818
an area of steel D 805
an act of court D 794
an act of trade D 792
an act of dirty D 792
an art of sound D 782
an act of sight D 774
an art of music D 751
an air of surly D 750
an owl at night D 745
an area of china D 744
an act of fealty D 736
an area of swamp D 731
an area of marsh D 715
an act to annex D 713
an area of smooth D 712
an axe or knife D 706
an arm of steel D 706
an area of jungle D 706
an ark or chest D 700
an art of teaching D 698
an air of drama D 688
an air of stiff D 682
an end in sandy D 678
an act of repeal D 677
an air of manly D 674
an act of levying D 668
an ark of acacia D 657
an ingot of steel D 656
an art on which D 654
an eye to trade D 648
an ore in which D 640
an area of rocky D 638
an era of urban D 637
an eye of scorn D 628
an ace of killing D 628
an idea of nation D 614
an end to petty D 610
an act as would D 610
an end it would D 608
an earl or baron D 608
an art as music D 608
an age or grade D 606
an area of sharp D 602
an air of dreamy D 602
an art no longer D 589
an area of minor D 584
an end of social D 580
an end to urban D 572
an art or music D 569
an art of human D 568
an area of housing D 564
an air of aloof D 560
an urn of brass D 553
an led or laser D 552
an egg in shape D 552
an age of swift D 550
an end to valor D 542
an act of ethnic D 542
an oar to steer D 538
an egg to hatch D 536
an air of charm D 536
an aid to setting D 531
an era of trade D 526
an end to dutch D 526
an area of changing D 524
an age of urban D 524
an egg is added D 520
an inn at night D 515
an area of fresh D 512
an act of telling D 512
an ingot of metal D 510
an air of pathos D 510
an act of quasi D 510
an era of sharp D 506
an arm or lever D 505
an oil in which D 504
an air of tired D 498
an end to rural D 494
an air of ennui D 489
an egg is fresh D 488
an air of blank D 486
an aid to sales D 486
an act in march D 486
an air of timid D 482
an oath he would D 480
an awl to punch D 480
an area of stone D 478
an aid in tracing D 478
an eye as would D 476
an end in china D 475
an end to overt D 474
an ace is drawn D 473
an inn to which D 472
an age of barns D 472
an art of logic D 471
an end to taxes D 468
an end to papal D 467
an era of canal D 460
an urn of water D 454
an eye to changing D 454
an end to raiding D 453
an egg in water D 448
an axe or sword D 445
an act of tacit D 436
an art to writing D 434
an air of hearty D 433
an aid in placing D 432
an act of stern D 432
an ace of running D 432
an area of farms D 430
an area of ethnic D 430
an axe in order D 428
an idea of throwing D 426
an ink or paint D 424
an art of copying D 422
an area is zoned D 422
an idea of setting D 420
an end to caste D 420
an area of glass D 416
an iota of sense D 414
an area of acres D 414
an act of placing D 414
an art of taste D 412
an eye of stern D 407
an ass in front D 406
an art of color D 405
an egg in boiling D 404
an art of light D 404
an act of odious D 404
an end to graft D 403
an easy or rapid D 400
an area as broad D 400
an oar in every D 398
an end to logging D 395
an eye on china D 394
an area of grazing D 394
an ace of throwing D 394
an air of fresh D 392
an act in breach D 390
an egg on toast D 386
an act of crass D 386
an eye he would D 384
an ace of calling D 384
an eye to sales D 382
an area of shops D 382
an air of poise D 382
an axe to split D 380
an aid to trade D 379
an egg or larva D 378
an earth or stone D 378
an ant to visit D 378
an age of rigid D 376
an act of minor D 376
an era of swift D 374
an art of getting D 374
an art as poetry D 374
an air of taunt D 374
an air of rigid D 372
an age of shams D 372
an era of ethnic D 370
an egg of myrrh D 370
an aim of social D 370
an age of taste D 370
an ace of turning D 370
an oak or maple D 368
an art of knowing D 368
an art in china D 368
an area of heated D 368
an act of brute D 364
an act it would D 364
an act is ultra D 364
an air of farce D 358
an area of tidal D 357
an act of setting D 357
an owl is hooting D 356
an end to naval D 356
an end to bombing D 356
an area of skill D 356
an oil of known D 354
an iota of change D 354
an end of talking D 354
an end of trade D 353
an age of brass D 350
an inn or house D 348
an end to raids D 348
an out of doors D 346
an end to housing D 344
an art to catch D 344
an art so easily D 344
an area of tumor D 344
an area of metal D 344
an area of homes D 344
an age of brute D 344
an egg is about D 343
an area of grave D 340
an air of jovial D 340
an end to usury D 339
an eye on billy D 338
an area of moist D 338
an egg as large D 336
an act of stating D 334
an age of petty D 333
an old tea chest D 332
an eye to solving D 332
an age of crude D 332
an end of feasting D 331
an eye of stone D 330
an act of loyal D 330
an old sea cliff D 328
an end of slaying D 328
an art of creating D 328
an air of saucy D 328
an idea of placing D 326
an egg of stone D 326
an act of papal D 326
an act of fatal D 326
an egg in order D 324
an elf or fairy D 322
an egg or chick D 322
an end to cards D 320
an age to beget D 320
an act of synod D 320
an egg in every D 318
an air of mocking D 318
an ore of given D 316
an ace of putting D 316
an out of sight D 315
an oil of equal D 314
an eye on social D 314
an eye on harry D 314
an egg is found D 314
an art in order D 314
an idea or skill D 313
an inn of sorts D 312
an arm of saint D 312
an area he would D 312
an era of rigid D 310
an iota of power D 308
an eye of glass D 308
an earl or count D 308
an area it would D 308
an age of sharp D 308
an age of nation D 308
an auk or grebe D 307
an oil of about D 306
an art of pleasing D 306
an art in knowing D 306
an earl of derby D 304
an egg in front D 303
an inn to spend D 302
an eye to setting D 302
an oil of lower D 300
an art of moral D 300
an arm of stone D 300
an act of fusion D 300
an aid to speed D 298
an inn or lodging D 297
an one he would D 296
an idea of racial D 296
an end to weeping D 296
an act of kneading D 296
an area of racial D 294
an arc of flame D 292
an end to court D 291
an oil or resin D 290
an ace of setting D 290
an oil to which D 288
an eye on peter D 288
an end to whaling D 288
an art of motion D 288
an area of dunes D 288
an age of trade D 288
an area of coral D 287
an idea of peter D 286
an art to getting D 286
an area of hilly D 284
an eye on japan D 283
an end to pagan D 283
an art of action D 281
an idea of taste D 280
an egg of solid D 280
an ace of ruining D 280
an era of broad D 278
an art of sinking D 278
an ark of reeds D 278
an act of throwing D 278
an act is bound D 276
an eye on frank D 274
an area of seabed D 273
an area of slums D 272
an area in china D 272
an air of sulky D 272
an aid to sight D 271
an era of amity D 270
an art of putting D 270
an air of jaded D 270
an egg of chalk D 268
an area we would D 268
an age of horse D 268
an act of theater D 268
an eye of taste D 266
an eye as sharp D 266
an era of rural D 266
an end to sales D 266
an art to others D 266
an eye of flame D 264
an end of dancing D 264
an area of paint D 264
an end in japan D 262
an ell of linen D 259
an eye to votes D 258
an art of keeping D 258
an idea we would D 256
an end to feuds D 256
an egg is taken D 256
an area of spasm D 256
an area of blank D 256
an one to reign D 254
an end the social D 254
an art or method D 254
an out of stock D 252
an inn or resting D 252
an idea of sight D 252
an end to opium D 252
an area of nerve D 252
an air of suave D 252
an air of moody D 252
an eye on uncle D 250
an art to knowing D 250
an urn in front D 248
an eye on jimmy D 248
an axe or spade D 248
an area of chalk D 248
an air of broad D 248
an air as grave D 248
an aid to urban D 248
an act of warding D 248
an age of metal D 247
an eye to serving D 246
an ems in place D 246
an egg on which D 246
an ace of sending D 246
an end to horse D 244
an egg is beaten D 244
an oil is heated D 242
an era of booming D 242
an art of feeling D 242
an act of scorn D 242
an act of roman D 242
an end to witch D 240
an art of finding D 240
an arc or curve D 240
an air of giddy D 240
an act of valuing D 240
an age or epoch D 239
an elk or moose D 238
an art in every D 238
an air of tipsy D 238
an age of warring D 238
an idea of roman D 236
an area of japan D 236
an air of bluff D 236
an area of thinning D 235
an old tea towel D 234
an area of naval D 234
an act of rigor D 234
an end to evils D 233
an urn of black D 232
an era of grave D 232
an arm of social D 232
an idea of changing D 230
an end to smoking D 230
an ingot or casting D 229
an end to tithes D 228
an art of seeming D 228
an age of sailing D 228
an act of pique D 228
an ace of defeat D 228
an oak or beech D 227
an eye on trade D 226
an end to treaty D 226
an air of shaking D 226
an oath on shore D 224
an idea of rural D 222
an eye on changing D 222
an end of washing D 222
an earth of gloom D 222
an ass he would D 222
an area of sloping D 222
an iota of guilt D 220
an eye to thrift D 220
an easy or smooth D 220
an age of grave D 220
an heap of slain D 218
an hat as brood D 218
an end to rapid D 218
an air of crisp D 218
an end to duels D 216
an art of craft D 216
an air of dreary D 216
an oath or swearing D 214
an end to dumping D 214
an axe by cutting D 214
an act of pagan D 214
an ace of proving D 214
an art as writing D 213
an age of motor D 213
an era in social D 212
an area or court D 212
an act of breach D 212
an ace or deuce D 211
an urn on which D 210
an oath he sprang D 210
an inn of minor D 210
an idea of swift D 210
an end the epoch D 210
an act or omits D 210
an act of uniting D 210
an act of comic D 210
an eye to booty D 208
an end by telling D 208
an air of stealth D 208
an act of manly D 208
an act of lofty D 208
an idea of caste D 206
an eye it would D 206
an end the roman D 206
an end of racial D 206
an art of reason D 206
an art in japan D 206
an air of defying D 206
an act of fancy D 205
an urn of white D 204
an era of overt D 204
an art of prose D 204
an area or organ D 203
an era of giants D 202
an eel or snake D 202
an art of beauty D 202
an area as urban D 202
an act of taste D 202
an owl on every D 200
an one it would D 200
an oath of undying D 200
an act of viewing D 200
an ace in world D 200
an ode to music D 198
an idea of solving D 198
an eye to placing D 198
an era of soaring D 198
an egg by sperm D 198
an air of urban D 198
an age of mercy D 198
an act of urban D 198
an act of jihad D 198
an era of speed D 197
an oil is found D 196
an inn of which D 196
an eye to seizing D 196
an art of power D 196
an area of bowel D 196
an air of sheer D 196
an aid in social D 196
an ace of finding D 196
an arc of steel D 195
an air of roman D 195
an oath no rigid D 194
an eye on sales D 194
an eye of mingled D 194
an ass or horse D 194
an air of stoic D 194
an act of freeing D 194
an act of changing D 194
an ace of reaching D 194
an idea or thesis D 193
an orb of glory D 192
an inn to lodge D 192
an axe of stone D 192
an area of scalp D 192
an area in wales D 192
an arc of stars D 192
an air of hardy D 192
an inn to sleep D 190
an axe or rifle D 190
an air of lounging D 190
an ace of driving D 190
an awl or drill D 189
an act of crude D 189
an urn of stone D 188
an inn or place D 188
an era of fresh D 188
an end we would D 188
an art of total D 188
an art he never D 188
an area of fruit D 188
an area of calms D 188
an area of brick D 188
an area of boggy D 188
an age of drama D 188
an act of rigid D 188
an eye to speed D 187
an oath to stick D 186
an era of fewer D 186
an egg is shown D 186
an awl or knife D 186
an art to creating D 186
an area as would D 186
an aid to sorting D 186
an age of manly D 186
an age of fresh D 186
an act of stark D 186
an art of drawing D 185
an area of brush D 185
an inn to change D 184
an idea so fatal D 184
an end to trading D 184
an end of setting D 184
an area of sugar D 184
an air of washing D 184
an ace of passing D 184
an aid in rapid D 182
an ace of seizing D 182
an art of vital D 180
an area of fusion D 180
an air of fairy D 180
an orb of heaven D 178
an era or epoch D 178
an end to sweating D 178
an end to peter D 178
an art to amend D 178
an art of vision D 178
an act of trading D 178
an aid in smoking D 177
an art of magic D 176
an area of spongy D 176
an area of humid D 176
an air of eerie D 175
an age of court D 175
an easing of social D 174
an arm to brush D 174
an arm of brass D 174
an idea of speed D 173
an eye on jenny D 172
an eye on bobby D 172
an egg to stand D 172
an art is never D 172
an age of prigs D 172
an act of sober D 172
an idea to scorn D 171
an end to dancing D 171
an area of flesh D 171
an oil on panel D 170
an inn in order D 170
an era of taste D 170
an era of horse D 170
an art in writing D 170
an arc of spray D 170
an aid to dieting D 170
an age of hyper D 170
an act of marking D 170
an end to lingering D 169
an area of paddy D 169
an ace of cutting D 169
an owl by night D 168
an oath by placing D 168
an end of weeping D 168
an egg is nearly D 168
an ass at times D 168
an arc or flame D 168
an aid in sorting D 168
an ace of telling D 168
an awl or punch D 167
an iota of shame D 166
an end to thefts D 166
an ell in breadth D 166
an area of muddy D 166
an act of venial D 166
an act of framing D 165
an idea to paint D 164
an eye so sharp D 164
an eye on molly D 164
an era of naval D 164
an egg of which D 164
an easing of trade D 164
an art of talking D 164
an area of fewer D 164
an age of soaring D 164
an act to annul D 164
an act of handing D 164
an idea is novel D 163
an air of pleading D 163
an urn of evils D 162
an iota of anything D 162
an end to feuding D 162
an air of shock D 162
an air of sharp D 162
an air of blunt D 162
an age of plots D 162
an idea in fresh D 160
an egg or small D 160
an art of story D 160
an area of negro D 160
an air of quasi D 160
an aid to tracing D 160
an ace the first D 160
an inn or baiting D 159
an oil on paper D 158
an egg is given D 158
an art of study D 158
an arm of lever D 158
an area of dairy D 158
an age of crass D 158
an ace of costing D 158
an ace of causing D 158
an inn to drink D 156
an eye of flesh D 156
an ass he shall D 156
an arm or weapon D 156
an area of breast D 156
an air of dusty D 156
an age of gloom D 156
an act of thrift D 156
an ace of total D 156
an iota of pride D 154
an eye on roger D 154
an art of telling D 154
an art of style D 154
an art of playing D 154
an art of cooking D 154
an art is based D 154
an ape to change D 154
an air of cocky D 154
an act of washing D 154
an arm or inlet D 153
an oar in place D 152
an art or sport D 152
an art of sorts D 152
an art of sight D 152
an art is still D 152
an area of stony D 152
an aid in changing D 152
an area of roman D 151
an area of basal D 151
an idea of serving D 150
an idea of rhythm D 150
an idea is fatal D 150
an eye the scene D 150
an end an epoch D 150
an axe to smash D 150
an axe the first D 150
an axe in front D 150
an era in roman D 149
an area of fatty D 149
an act of serving D 149
an act of bonding D 149
an urn of flowing D 148
an oath to expel D 148
an idea of japan D 148
an end to fiery D 148
an ass in order D 148
an art to finding D 148
an art of signs D 148
an area of stark D 148
an age of sects D 148
an age of ethnic D 148
an act is liable D 148
an area of slack D 147
an air of fancy D 147
an iota of moral D 146
an end to dueling D 146
an egg is known D 146
an air of rapid D 146
an age of clubs D 146
an end to farming D 145
an ode of which D 144
an era in naval D 144
an end to rigid D 144
an end to loans D 144
an egg to create D 144
an air of unreal D 144
an inn no longer D 143
an eye to saint D 142
an end to talking D 142
an end by march D 142
an egg of light D 142
an awl or small D 142
an ass to drive D 142
an art so nearly D 142
an art in keeping D 142
an arm or elbow D 142
an air of ultra D 142
an air of seedy D 142
an air of jolly D 142
an age to reign D 142
an age of sofas D 142
an ace of blowing D 142
an oil or fatty D 140
an oath to drink D 140
an iota in every D 140
an idea by stating D 140
an ell of fried D 140
an art of equal D 140
an ark in order D 140
an air or naval D 140
an air of bogus D 140
an art of working D 139
an inn the purse D 138
an idea of trade D 138
an era of gloom D 138
an end of suits D 138
an end of boating D 138
an elm in front D 138
an egg is fried D 138
an art so cunning D 138
an air of muted D 138
an ode to queen D 136
an eye on sally D 136
an end to stock D 136
an art he would D 136
an area of scant D 136
an area of parks D 136
an arc of glowing D 136
an air of rigor D 136
an act of burial D 136
an oil or lotion D 134
an era of hyper D 134
an art of small D 134
an aria in opera D 134
an end to looting D 133
an elm or maple D 133
an air of chill D 133
an idea of uniting D 132
an end by treaty D 132
an egg is still D 132
an arm to shake D 132
an area or nation D 132
an area of unmet D 132
an area of pines D 132
an ape an apple D 132
an age he would D 132
an act of broad D 132
an ace of creating D 132
an art of hunting D 131
an area of cornea D 131
an urn of baked D 130
an idea of urban D 130
an end to grave D 130
an egg so large D 130
an easing of racial D 130
an earl of savoy D 130
an area of reeds D 130
an alb of white D 130
an air of racial D 130
an aid to bible D 130
an age of rival D 130
an act of driving D 130
an ace of hitting D 130
an oil is added D 128
an ode in prose D 128
an era of petty D 128
an end of sinning D 128
an egg to every D 128
an art of turning D 128
an art of sheer D 128
an art it would D 128
an art in terms D 128
an area of soils D 128
an area of sinking D 128
an area of liver D 128
an act of thieving D 128
an act of regal D 128
an end to mongol D 127
an end to grain D 127
an air of merry D 127
an ore is found D 126
an oath the league D 126
an oath by kissing D 126
an oar in order D 126
an area of crust D 126
an air or vapor D 126
an air of staid D 126
an air of musty D 126
an age of rural D 126
an oak or cedar D 125
an end to funding D 125
an area of circa D 125
an oil is known D 124
an oath to elect D 124
an idea he falls D 124
an idea as would D 124
an ant in order D 124
an aid to placing D 124
an aid to liver D 124
an old sea floor D 122
an inn en route D 122
an eye of steel D 122
an era of warring D 122
an eel in shape D 122
an age to drink D 122
an age of naval D 122
an act of poise D 122
an end to fishing D 121
an end of roman D 121
an art to selling D 121
an ore or alloy D 120
an orb in space D 120
an iota of which D 120
an eye we would D 120
an eve to tempt D 120
an era of eroding D 120
an egg is really D 120
an art in search D 120
an area of shore D 120
an area of sheer D 120
an air of stark D 120
an aid to stock D 120
an act of mythic D 120
an iota of reason D 118
an idea of theater D 118
an idea of dress D 118
an idea of china D 118
an art to keeping D 118
an art of drama D 118
an art is often D 118
an aid to driving D 118
an aid to staff D 117
an orb or globe D 116
an idea so novel D 116
an end to rebel D 116
an axe to knock D 116
an axe of mixed D 116
an art of stage D 116
an air of hoary D 116
an act of sport D 116
an ace of never D 116
an old tea caddy D 114
an oil is often D 114
an iota of human D 114
an idea by placing D 114
an end to suits D 114
an art of night D 114
an art in getting D 114
an arc of stone D 114
an air of speed D 114
an air of dazed D 114
an age of stern D 114
an act of heathen D 114
an ace of missing D 114
an oath of liege D 112
an inn in front D 112
an idea of telling D 112
an eye to fruit D 112
an eye on terry D 112
an end or would D 112
an end of roaming D 112
an end by setting D 112
an egg is mixed D 112
an egg in place D 112
an egg as after D 112
an awl or sharp D 112
an art of sharp D 112
an area of springs D 112
an area of ponds D 112
an area of frank D 112
an act of penal D 112
an act of fresh D 112
an era of court D 111
an ode or elegy D 110
an eye to china D 110
an era of banking D 110
an end to sugar D 110
an end to sport D 110
an egg it would D 110
an egg is quite D 110
an egg is heated D 110
an ass or anything D 110
an art to playing D 110
an arm of lough D 110
an aria of which D 110
an area of heather D 110
an air of fussy D 110
an age of dense D 110
an age as would D 110
an act of swearing D 109
an end to slums D 108
an end to sinning D 108
an end by stating D 108
an egg to which D 108
an egg to begin D 108
an egg is water D 108
an earth at quake D 108
an art in whose D 108
an area of dirty D 108
an one we would D 106
an ingot in which D 106
an idea is bound D 106
an egg is white D 106
an art to write D 106
an art of carving D 106
an ark of abode D 106
an area of ridge D 106
an area is urban D 106
an air of gusto D 106
an aid to rural D 106
an age of cable D 106
an ace of failing D 106
an idea of dutch D 105
an era of steel D 105
an egg in about D 105
an arc of metal D 105
an oath to taste D 104
an eye on sandy D 104
an era of papal D 104
an end to frank D 104
an end by throwing D 104
an art to please D 104
an art of shaping D 104
an area is mined D 104
an air of staring D 104
an air of blithe D 104
an act so crude D 104
an end to rumor D 103
an egg on boiling D 103
an age of ultra D 103
an urn the ashes D 102
an oak in sight D 102
an iota of humor D 102
an idea of mercy D 102
an idea of ethnic D 102
an end to cavil D 102
an end of evils D 102
an egg or anything D 102
an egg of white D 102
an egg is often D 102
an art of winning D 102
an art of looking D 102
an area of radar D 102
an area of motor D 102
an area of mines D 102
an area of grain D 102
an area in social D 102
an area as rural D 102
an arc of urine D 102
an age of fusion D 102
an act in court D 102
an ace of gaining D 102
an area of hyper D 101
an act of usury D 101
an oil of light D 100
an iota of social D 100
an iota of feeling D 100
an eye to rapid D 100
an eye on votes D 100
an eye on phoebe D 100
an end to breast D 100
an eel in water D 100
an ass to water D 100
an art so noble D 100
an art of judging D 100
an arm or creek D 100
an ark to house D 100
an area so broad D 100
an area of plate D 100
an air of telling D 100
an air of filial D 100
an air of blase D 100
an aid in marking D 100
an age of tanks D 100
an act of silly D 100
an egg is first D 99
an ingot of solid D 98
an eye on comings D 98
an end to fines D 98
an end the evils D 98
an egg of night D 98
an axe of steel D 98
an axe of flint D 98
an ass to stand D 98
an art of stone D 98
an art in tossing D 98
an area of tense D 98
an area of quasi D 98
an area of overt D 98
an ant in sight D 98
an air of novel D 98
an act of kissing D 98
an urn of green D 97
an idea as novel D 97
an elk or bison D 97
an art in folding D 97
an aid to farming D 97
an act of editing D 97
an oil in order D 96
an oak of lofty D 96
an inn or motel D 96
an ink on paper D 96
an idea of broad D 96
an era of novel D 96
an era in china D 96
an end to hawking D 96
an end to banking D 96
an end of mercy D 96
an easy sea route D 96
an axe it would D 96
an art of inner D 96
an area of wales D 96
an area of tiles D 96
an air or inert D 96
an air of talking D 96
an air of finer D 96
an age of sheer D 96
an age of duels D 96
an ace of washing D 96
an ace of letting D 96
an ace of meeting D 95
an urn of boiling D 94
an oil or metal D 94
an iota of mercy D 94
an idea of thrift D 94
an era of witch D 94
an era of stiff D 94
an ell of black D 94
an egg to crack D 94
an egg by holding D 94
an egg at about D 94
an ease in social D 94
an ass he could D 94
an art of right D 94
an art is sound D 94
an area of sheet D 94
an arc of curve D 94
an ape is still D 94
an aid to viewing D 94
an age of raids D 94
an act of talking D 94
an act of seizing D 94
an act of libel D 94
an ace of pulling D 94
an ode to beauty D 92
an oath of uncle D 92
an oar in either D 92
an idea or social D 92
an idea of kinds D 92
an end to minor D 92
an axe to cleave D 92
an art of placing D 92
an art of people D 92
an age of graft D 92
an act of defying D 92
an act of amity D 92
an egg or orange D 91
an art is either D 91
an air of swift D 91
an aid to editing D 91
an oil of which D 90
an ode he wrote D 90
an oath he leaped D 90
an iota of merit D 90
an eye to blink D 90
an era of cable D 90
an end of gloom D 90
an earth to cleave D 90
an axe to build D 90
an axe he could D 90
an art to repel D 90
an art to putting D 90
an art so novel D 90
an area of solar D 90
an area is bound D 90
an and it would D 90
an age of minor D 90
an act of mingled D 90
an area of skull D 89
an area of chest D 89
an iota of space D 88
an inn to serve D 88
an idea of homer D 88
an eye to linking D 88
an eye to drink D 88
an eye to drama D 88
an eye on stock D 88
an eye on randy D 88
an era of niche D 88
an end to placing D 88
an end the rapid D 88
an egg so small D 88
an earth or metal D 88
an axe or anything D 88
an axe he would D 88
an art of setting D 88
an art of linear D 88
an area to relax D 88
an area of flood D 88
an area in japan D 88
an arc of glass D 88
an air of smart D 88
an age of epics D 88
an act of sharp D 88
an ore or metal D 87
an era of organ D 87
an era of graft D 87
an age of glass D 87
an eye on robin D 86
an era of sailing D 86
an era of roman D 86
an era of dirty D 86
an era of crass D 86
an end to moses D 86
an end the spray D 86
an end by placing D 86
an art of showing D 86
an art of order D 86
an art of large D 86
an art of forming D 86
an arm or slice D 86
an area of shale D 86
an area of sales D 86
an area of reefs D 86
an air so blunt D 86
an air of stating D 86
an aid in viewing D 86
an age of niche D 86
an age it would D 86
an ace of changing D 86
an art in cleaning D 85
an urn the names D 84
an ore is mined D 84
an ore is known D 84
an oil is mixed D 84
an idea to stick D 84
an idea is silly D 84
an eye to fresh D 84
an era of stark D 84
an era of rabid D 84
an egg no longer D 84
an egg is stale D 84
an egg in sight D 84
an ass to write D 84
an ass no doubt D 84
an ass in every D 84
an art to serve D 84
an art of solid D 84
an art he loved D 84
an ark to carry D 84
an area of weeds D 84
an ant in heaven D 84
an air of weird D 84
an air in talking D 84
an aid to wives D 84
an aid to changing D 84
an age of riper D 84
an age of frank D 84
an age of drugs D 84
an oil or alkyd D 83
an air of stony D 83
an one the gruff D 82
an iota of legal D 82
an idea by setting D 82
an eye to taste D 82
an end to plots D 82
an end to creek D 82
an end by rapid D 82
an eel is quick D 82
an axe is armed D 82
an ass is braying D 82
an art of walking D 82
an art of strings D 82
an area in rural D 82
an ant in amber D 82
an air of summing D 82
an aim he would D 82
an age of eagles D 82
an age of dreary D 82
an age of deism D 82
an orb of white D 80
an old sea rises D 80
an iota of blame D 80
an inn he would D 80
an idea in vogue D 80
an eye to roman D 80
an end so lofty D 80
an end by fresh D 80
an axe or sharp D 80
an ass to raise D 80
an art of throwing D 80
an art of short D 80
an art of forms D 80
an art of fencing D 80
an area of dutch D 80
an aid it would D 80
an act be penal D 80
an ace of sharing D 80
an area of dried D 66
an art of image D 63
an area of farming D 62
an act of nation D 62
an art of learning D 59
an area of taboo D 59
an aid to smooth D 56
an age of novel D 56
an end to karma D 53
an aid in pricing D 53
an art of selling D 51
an area of strip D 51
an area of iodine D 51
an era of crude D 50
an aid in staging D 50
an age of fancy D 50
an end to speed D 49
an arm or crank D 49
an aid to fishing D 49
an art of fixed D 48
an eye on roman D 47
an end to rival D 47
an end to dowry D 47
an area of pitch D 47
an air of would D 46
an ingot or bloom D 45
an aid to cooling D 45
an act of cooking D 45
an idea or trade D 44
an eye on heather D 43
an egg the whole D 42
an age of jobbing D 42
an area of lobar D 41
an age of dueling D 41
