and i am afraid M 207560
and i do hereby M 44607
and i am always M 42478
and i am pleased M 36012
and i am deeply M 27714
and i am anxious M 27432
and i am almost M 27050
and i am unable M 24836
and i do further M 15442
and i am greatly M 15282
and i am pretty M 14371
and i do assure M 14178
and i am forced M 12958
and i am already M 11200
and i am amazed M 9322
and i of course M 8256
and d in figure M 8079
and i am myself M 7534
and i am filled M 7502
and i am called M 6716
and i am further M 6282
and i am standing M 5936
and i am indeed M 5590
and i am curious M 5120
and i am enjoying M 5116
and i am better M 5060
and i go through M 4922
and i am neither M 4520
and i am simply M 4357
and i am fearful M 4032
and i in another M 4016
and i am fairly M 3588
and i am merely M 3410
and i am becoming M 3408
and i am helped M 3310
and d of figure M 3018
and i am wholly M 2976
and a is called M 2954
and i am assuming M 2922
and i am watching M 2888
and i am scared M 2857
and i am engaged M 2806
and i am become M 2748
and i am starting M 2656
and i am twenty M 2642
and i am undone M 2583
and i am clearly M 2496
and i am without M 2488
and i am likely M 2380
and i am hardly M 2344
and i am planning M 2314
and i am lonely M 2298
and t the number M 2134
and i in return M 2071
and i am carrying M 2038
and i am another M 1921
and i go further M 1918
and i so wanted M 1914
and i no sooner M 1888
and i am jealous M 1888
and i am caught M 1872
and i am highly M 1845
and i am through M 1835
and a thing called M 1810
and i am counting M 1802
and i am fighting M 1672
and i am silent M 1626
and i am doubly M 1622
and i go around M 1612
and i do indeed M 1598
and i do wonder M 1594
and i am mighty M 1552
and i am something M 1538
and i do intend M 1512
and i am guilty M 1508
and i am awaiting M 1488
and s the number M 1466
and i am master M 1442
and i am ruined M 1427
and i am seldom M 1426
and i am offering M 1410
and a in square M 1365
and i the second M 1346
and i do expect M 1338
and i am studying M 1332
and i am doomed M 1328
and i do desire M 1320
and i do something M 1318
and i do admire M 1300
and i am surely M 1294
and d the number M 1290
and a the number M 1256
and i am treated M 1236
and i am amused M 1228
and i am humbly M 1212
and i am broken M 1207
and i am seized M 1206
and s in figure M 1134
and i am serious M 1108
and t is called M 1102
and i am applying M 1102
and i the matter M 1100
and i am little M 1098
and d is called M 1096
and i so little M 1094
and i am trusting M 1084
and i do recall M 1058
and i am changed M 992
and i the moment M 954
and i am slowly M 950
and i to return M 944
and i am unsure M 944
and a in figure M 944
and i as little M 936
and a ring through M 936
and i do affirm M 930
and i am furious M 908
and i am repeating M 891
and i am sorely M 888
and i do humbly M 884
and i go inside M 878
and a ring around M 864
and i do regret M 849
and a is greater M 848
and i am needed M 840
and i am searching M 822
and a so called M 808
and i am thereby M 802
and i on another M 793
and s is called M 744
and i to another M 742
and i am beyond M 730
and i do realize M 722
and i am rotten M 722
and i am placed M 714
and i am laughing M 712
and i to listen M 706
and i am taught M 704
and i am pointing M 696
and i do accept M 686
and i am building M 680
and i am spared M 678
and a is chosen M 674
and i am keenly M 672
and i am honest M 670
and i to follow M 666
and i do myself M 664
and i am behind M 664
and i go without M 662
and i the number M 654
and i am rarely M 654
and i am ordering M 652
and i am nobody M 648
and i the master M 646
and t to denote M 644
and i am sleeping M 630
and i so stated M 622
and i as adults M 602
and i do direct M 601
and i am solely M 596
and a king should M 592
and i am lifted M 590
and i to attend M 572
and i to become M 570
and i am justly M 568
and i of another M 566
and i am eagerly M 566
and i am enough M 563
and i do insist M 562
and i am inside M 556
and i to remain M 548
and i am ground M 542
and i be pleased M 532
and d in meters M 528
and i do submit M 518
and i am pursuing M 518
and i am looked M 518
and d is greater M 514
and i to church M 512
and i am wanted M 512
and a king without M 508
and i am secure M 506
and a is another M 502
and i in figure M 498
and i do assert M 498
and t in figure M 492
and i am turned M 488
and i am replying M 482
and i am envious M 482
and a to denote M 482
and a is always M 480
and d to obtain M 478
and s to denote M 464
and i am appealing M 460
and i am pulled M 456
and i am eighty M 444
and i am warned M 440
and i be unable M 434
and i am locked M 432
and i so seldom M 430
and i be changed M 430
and i am allowing M 424
and i am before M 420
and i am choosing M 416
and i am stupid M 412
and i at another M 408
and i am guided M 406
and i do without M 404
and i am barely M 402
and i do regard M 399
and d to denote M 394
and i am gathering M 388
and i so direct M 387
and i is called M 382
and i do freely M 374
and a thing without M 372
and i am visiting M 370
and i am asleep M 364
and i am active M 364
and a as before M 363
and i am drowning M 362
and t we obtain M 358
and i do happen M 356
and i do charge M 354
and i am fallen M 354
and i am realizing M 352
and t the volume M 350
and i do differ M 350
and i in common M 348
and i in unison M 346
and i am humble M 338
and i am beside M 338
and a to obtain M 336
and a the amount M 334
and i the battle M 326
and i am someone M 326
and i am backed M 326
and i am killed M 324
and i go swimming M 322
and i do better M 320
and i am advising M 320
and i am heavily M 316
and i am denied M 316
and i am younger M 312
and i am greater M 312
and i am devoting M 312
and i am drifting M 310
and d as before M 308
and a no answer M 308
and i am buried M 304
and i to suffer M 298
and i go abroad M 298
and i be forced M 298
and i go across M 297
and a we obtain M 296
and a tea garden M 294
and t is always M 290
and i am twelve M 290
and i the strength M 288
and i am blamed M 288
and a is simply M 286
and i do suffer M 282
and a the second M 282
and i am vastly M 280
and i am thought M 280
and i am cursed M 280
and i am closer M 280
and a the degree M 280
and i do praise M 278
and a the weight M 278
and a is opened M 278
and t to obtain M 274
and i am mainly M 274
and i am bursting M 274
and d the points M 274
and i am wicked M 272
and i am mortal M 272
and i am hereby M 268
and i do little M 267
and a as center M 266
and i to school M 264
and i do surely M 264
and i am joyful M 262
and i am chosen M 260
and a thing almost M 258
and a is treated M 258
and i so rarely M 256
and i am pushed M 256
and i am eleven M 256
and t as before M 254
and i am swimming M 254
and i am brother M 254
and d the weight M 252
and i do choose M 250
and i to answer M 248
and i do pretty M 248
and i do prefer M 248
and i am training M 246
and i am second M 246
and i am joined M 246
and i am guarding M 244
and i am created M 242
and i am female M 241
and a the matrix M 238
and i am bleeding M 236
and i am mostly M 234
and i so wished M 232
and i no better M 232
and s to obtain M 230
and a the values M 230
and a king called M 228
and i do forget M 226
and i do almost M 226
and i am finite M 226
and a is closed M 222
and s the sample M 220
and i of ladies M 220
and i by another M 220
and a is deemed M 220
and i the little M 218
and i is greater M 218
and a no button M 218
and i am kicked M 216
and i am fitted M 216
and i am dropping M 216
and i do refuse M 215
and i do manage M 214
and i am catching M 212
and i am worrying M 210
and i am dwelling M 210
and d the lowest M 208
and i do greatly M 206
and a ring handle M 206
and i do advise M 204
and d the common M 204
and i the victim M 202
and i the teacher M 202
and i go before M 202
and d is always M 202
and i to denote M 198
and i am climbing M 196
and i go pleased M 194
and i do clearly M 194
and i am strange M 194
and i am safely M 194
and i do stress M 193
and s is always M 192
and s the amount M 190
and i am famous M 190
and d the middle M 190
and s the centre M 189
and i do notice M 186
and i do assume M 186
and i am managing M 186
and a is varied M 186
and i am amongst M 185
and i on behalf M 184
and i am limiting M 184
and i am hugely M 184
and t is chosen M 182
and i to decide M 182
and i my twenty M 182
and i do gladly M 182
and i am unjust M 182
and i am openly M 182
and i am gladly M 182
and i am touching M 180
and t the amount M 178
and t is before M 178
and i to accept M 178
and i the latter M 178
and i am warmed M 178
and i am printing M 178
and i am checking M 178
and d we obtain M 176
and d on figure M 176
and d in another M 176
and d the second M 175
and i in person M 174
and i am ignoring M 174
and s is closed M 173
and i the fright M 172
and i as freely M 172
and i am avoiding M 172
and s in square M 170
and i as editor M 170
and i am unique M 168
and d the inside M 167
and i do object M 166
and i am served M 166
and a ring formed M 166
and i do demand M 165
and i in charge M 164
and i do always M 164
and i am behaving M 164
and s the strain M 162
and i go myself M 160
and i am special M 160
and i am earnest M 160
and i to travel M 158
and i the meanest M 158
and i am stepping M 158
and i am revealing M 158
and i am relating M 158
and i am ninety M 158
and i be seized M 154
and i am freely M 154
and t the excess M 152
and i to finish M 152
and i by little M 152
and i am scarce M 152
and i am passed M 152
and i am handling M 150
and i am exiled M 150
and i am agreed M 150
and i so gladly M 148
and i do grieve M 148
and i am obeyed M 148
and i am marrying M 148
and a the initial M 148
and a is guilty M 148
and i am preaching M 146
and i go beyond M 145
and i am reborn M 144
and d the sample M 144
and d is closed M 144
and a the energy M 144
and s as before M 142
and i in safety M 142
and i do another M 142
and i at school M 142
and i am plenty M 142
and i am kindly M 142
and t the actual M 140
and i the writer M 140
and i do colour M 140
and i am doubting M 140
and i am adopting M 140
and i am absent M 140
and d as center M 140
and i to myself M 138
and i to assist M 138
and i am mildly M 138
and i am lodged M 138
and i am handed M 138
and i am burned M 138
and d is opened M 138
and i by myself M 136
and i am normal M 136
and a thing existing M 136
and a the centre M 136
and i am fitter M 135
and i so filled M 134
and i go toward M 134
and i do already M 134
and i as always M 134
and i am crossing M 134
and i to nature M 132
and i go another M 132
and i am exerting M 132
and i my brother M 130
and i do battle M 130
and i am washed M 130
and i am waited M 130
and i am proved M 130
and i am avenged M 130
and d the centre M 130
and d the nearest M 128
and i in prison M 126
and i am kneeling M 126
and a the stress M 126
and a the moment M 126
and a ring system M 126
and s the source M 124
and i in secret M 124
and i am opposing M 124
and a is finite M 124
and i do arrest M 123
and i be called M 122
and i am richly M 122
and i am laboring M 122
and i am coward M 122
and d is another M 122
and i so deeply M 120
and i be spared M 120
and i am judged M 120
any i am likely M 118
and i the shadow M 118
and d is simply M 118
and t the initial M 117
and s the volume M 117
and i am intent M 117
and i my friend M 116
and i am simple M 116
and i am grieving M 116
and i am around M 116
and i or someone M 114
and i or anyone M 114
and i as seldom M 114
and i am zealous M 114
and t is closed M 112
and i the object M 112
and i do listen M 112
and i do attend M 112
and i be without M 112
and i am noticing M 112
and i am loaded M 112
and i am raised M 110
and d the demand M 110
and d is likely M 110
and d in common M 110
and a the latter M 110
and i eat enough M 109
and i am naught M 109
and i the younger M 108
and i of catching M 108
and i be blamed M 108
and i am united M 108
and d the amount M 108
and d is formed M 108
and d is filled M 108
and a ring placed M 108
and i do neither M 107
and i the better M 106
and i sing myself M 106
and i am renewing M 106
and i am removing M 106
and i am mourning M 106
and a thing likely M 106
and i be always M 104
and i am number M 104
and i am feeble M 104
and d is larger M 104
and a the volume M 104
and a ring belonging M 104
and a is placed M 104
and i go behind M 103
and a is surety M 103
and t is finite M 102
and i so greatly M 102
and i go almost M 102
and i do repent M 102
and i do decide M 102
and i am covering M 102
and i am alluding M 102
and a thing unheard M 102
and a thing itself M 102
and a is better M 102
and i do follow M 101
and i am middle M 101
and i to realize M 100
and i to choose M 100
and i the priest M 100
and i the guilty M 100
and i the former M 100
and i is always M 100
and i in sorrow M 100
and i by chance M 100
and i am wildly M 100
and i am unclear M 100
and i am rested M 100
and i am greedy M 100
and i am angered M 100
and d is almost M 100
and a the center M 100
and t the stress M 99
and t is greater M 98
and i to escape M 98
and i my little M 98
and i in better M 98
and i as member M 98
and i am rooted M 98
and i am deciding M 98
and a of figure M 98
and a is filled M 98
and i the amount M 96
and i do invite M 96
and i am immune M 96
and i am crawling M 96
and i do marvel M 95
and i to pursue M 94
and i the eldest M 94
and a in meters M 94
and a at school M 94
and s is finite M 92
and i to report M 92
and i the virtue M 92
and i so decide M 92
and i on watching M 92
and i no wonder M 92
and i am marked M 92
and a thing created M 92
and a the actual M 92
and a is yellow M 92
and i eat little M 91
and a ring shaped M 91
and i the person M 90
and i my mental M 90
and i in earnest M 90
and i be parted M 90
and i am afloat M 90
and d to ensure M 90
and a the normal M 90
and i as before M 89
and s is greater M 88
and i we played M 88
and t is varied M 86
and s the weight M 86
and i am vainly M 86
and i am prince M 86
and i am insane M 86
and d in various M 86
and t the system M 84
and i the prince M 84
and i the energy M 84
and i the centre M 84
and i so needed M 84
and i no dreamer M 84
and i do pledge M 84
and i do become M 84
and i am pitied M 84
and i am hunted M 84
and i am deemed M 84
and i am aboard M 84
and s the values M 82
and a thing thought M 82
and t is treated M 80
and t is merged M 80
and s in various M 80
and i the humble M 80
and i go slowly M 80
and i am skipping M 80
and i am rushed M 80
and i am granting M 80
and i am admiring M 80
and i am abused M 80
and a thing through M 80
and t the sampling M 53
and i go aboard M 53
and d to ground M 49
and i do enough M 46
and s the stress M 44
and i my second M 42
and i do plenty M 42
and i am adrift M 42
and i am firmly D 7722
and i am struck D 3902
and i do verily D 3466
and a the radius D 3168
and i am driven D 2866
and i am damned D 1813
and i doe hereby D 1798
and a sea voyage D 1688
and i do firmly D 1278
and i do entreat D 1276
and i am starving D 1242
and i am pained D 1176
and i am spending D 1118
and a the atomic D 1102
and i am thirsty D 1063
and a sea breeze D 986
and t the tension D 864
and i am minded D 838
and i am sleepy D 830
and i am verily D 824
and i am striving D 812
and a tea kettle D 802
and i go shopping D 790
and a the angular D 782
and i am shaken D 758
and a the thermal D 744
and d in inches D 736
and i am arranging D 728
and i to dinner D 726
and i am drinking D 680
and i am partly D 670
and i am entering D 644
and d of section D 624
and a wing collar D 614
and i am richer D 606
and i do farther D 590
and i am wearied D 578
and i am sticking D 574
and i am inviting D 552
and i am hurrying D 542
and i am farther D 500
and a sea urchin D 489
and i am bidden D 486
and i doe further D 473
and a the vector D 458
and i am claiming D 450
and i am freezing D 442
and i am averse D 440
and i am guessing D 434
and i am plunged D 422
and i be starving D 410
and i am dubious D 410
and i am screaming D 386
and i go farther D 372
and i am robbed D 366
and t the kelvin D 355
and a pea jacket D 344
and i go ashore D 343
and i am marching D 340
and a pa system D 330
and i am shamed D 324
and a sea anchor D 321
and i am elated D 318
and i am bishop D 300
and i am painting D 292
and i am repaid D 282
and i am aghast D 275
and i am bereft D 268
and i eat dinner D 262
and i am floating D 262
and a sea battle D 252
and i as readily D 250
and i am frozen D 246
and i am partial D 242
and i am french D 242
and i am pressing D 240
and i to smother D 234
and i be damned D 234
and i am soaked D 234
and t in kelvin D 223
and i am warmly D 222
and i do ordain D 220
and a sea turtle D 218
and i as firmly D 216
and d in series D 216
and a the height D 212
and i am hourly D 206
and i in bitter D 204
and a dc source D 204
and i am stopping D 202
and i in chorus D 192
and i am clothed D 192
and i to starve D 190
and i am fonder D 182
and a ms degree D 182
and i am busily D 178
and s the stroke D 172
and i doe assure D 172
and i am settling D 172
and i am madame D 172
and a is thermal D 172
and t the target D 170
and a sea without D 170
and i am planting D 162
and i am debating D 162
and i am mocked D 160
and i in inches D 158
and i am shouting D 156
and i am focusing D 156
and i am booked D 156
and i am wedded D 152
and i am bitter D 152
and t the torque D 151
and i am savage D 150
and a the vertex D 150
and i am knocking D 148
and i in french D 146
and i am retiring D 146
and i am whiles D 144
and i am tanned D 144
and i am taller D 144
and i am hooked D 144
and i am athirst D 142
and i the clever D 138
and i to supper D 136
and a dc offset D 136
and i am charging D 132
and i to peruse D 130
and i of middling D 130
and i am thirsting D 130
and i am refusing D 128
and s in amazon D 126
and i am deviating D 124
and i am dragging D 122
and s in rivers D 118
and i do reckon D 118
and i am weighing D 118
and i do detest D 117
and i am clumsy D 116
and a ma degree D 116
and i do resent D 115
and i the crowns D 114
and i am sinful D 114
and i am availing D 114
and a is termed D 114
and i to silver D 110
and i to settle D 110
and i am deriving D 110
and i am clever D 110
and i am bigger D 110
and a in series D 108
and i in august D 106
and i am tempting D 105
and i am tender D 104
and i am lulled D 104
and i am coughing D 104
and i am shooting D 102
and i am humane D 102
and i am finely D 102
and i am blushing D 102
and i am fluent D 100
and i am drowsy D 100
and i am dripping D 100
and a is radius D 100
and i am candid D 98
and a is angular D 98
and a dc supply D 98
and i doe verily D 96
and i am slipping D 96
and a is atomic D 96
and a as radius D 96
and i is income D 95
and s the section D 94
and i in chairs D 94
and i go places D 94
and i at oxford D 94
and i am serene D 94
and i am assuring D 94
and a sea striking D 93
and i the nephew D 92
and d the radius D 92
and i am relaxing D 90
and i am mister D 90
and d in section D 90
and a sea seldom D 90
and i do decree D 89
and i the trifling D 88
and i so hideous D 88
and i in fainting D 88
and i do exhort D 88
and i am spinning D 88
and i am expiating D 88
and i am curled D 88
and i am revising D 86
and i am bilious D 86
and a tea estate D 86
and i the paddle D 84
and i am puffed D 84
and i am grinning D 84
and i the spider D 82
and i am watering D 82
and i am versed D 82
and i am tossed D 82
and i am jolted D 82
and a tea basket D 82
and i to rejoin D 80
and i to oxford D 80
and i in terror D 80
and i am fainting D 52
and i no french D 44
and i the flower D 41
and i am nowise D 40
