and that i am M 264813
and now i am M 235115
and yet i am M 136276
and yet i do M 83432
and that i do M 65912
and then i am M 56050
and now i do M 40326
and then i do M 30622
and then i go M 28606
and let a be M 21180
and not a thing M 19484
and who i am M 18792
and this i do M 16516
and how i am M 14840
and this i am M 14586
and why i am M 14114
and may i be M 11772
and thus i am M 11512
and say i am M 9640
and let t be M 9288
and let s be M 9060
and that a is M 8996
and put a ring M 8614
and that i be M 8162
and let d be M 7161
and now i go M 7066
and all i am M 6582
and how i do M 5780
and all i do M 5662
and why i do M 5514
and let i be M 4070
and that a thing M 3610
and not a king M 3602
and that a king M 3550
and say i do M 3546
and off i go M 3118
and can i be M 2768
and with a ring M 2636
and that t is M 2634
and that s is M 2560
and was i to M 2514
and that i no M 2486
and thus i do M 2436
and that d is M 2272
and had i the M 2272
and has a wing M 2028
and yet i go M 1962
and one i am M 1942
and had a go M 1896
and one i do M 1768
and may i go M 1604
and that i is M 1602
and that i go M 1596
and has a ring M 1478
and that i in M 1443
and can i do M 1412
and now i no M 1387
and was a thing M 1356
and then a king M 1314
any way i am M 1264
and for a king M 1214
and had a ring M 1212
and with a as M 1203
and not a foe M 1201
and with a wing M 1146
and how a thing M 1140
and then i to M 1108
and with a king M 1102
and things i do M 1082
and then a thing M 1082
any that i am M 1080
and for a thing M 1068
and saw a thing M 1056
and then i eat M 1052
and then a is M 1048
and that i so M 1009
and then a ring M 994
and this i the M 990
any set s of M 986
and yet a thing M 970
and yes i do M 968
and say a thing M 962
and and i am M 958
and did a thing M 948
and for a the M 940
and thus a is M 932
and with a no M 924
and thus i go M 912
and that i at M 910
and who i do M 904
any one i am M 894
and was a king M 864
and that i the M 862
and that i as M 854
and had a king M 794
and can i go M 790
and thus a thing M 758
and had a wing M 756
and set a king M 750
and had i to M 746
and yes i am M 720
and then i is M 708
and was i in M 687
and all s is M 686
and act i of M 686
and then i sing M 680
and day i am M 676
and mean a thing M 628
and out i go M 594
and how i go M 588
and see a thing M 580
and yet a king M 578
and with a the M 578
and may i do M 574
and that a so M 571
and now a thing M 568
and and i do M 552
and did i do M 550
and for t the M 544
and doing a thing M 544
and then i no M 542
and now i sing M 542
and now i is M 538
and area a is M 530
and was i the M 522
and that a ring M 510
any way i do M 504
and being a king M 500
and was i so M 499
and had i no M 483
and saw a ring M 480
and not a by M 476
and that s the M 474
and why a thing M 468
and for i the M 462
and weak i am M 458
and see i am M 454
and had i my M 454
and may i so M 451
any and i do M 444
and yet i so M 441
and but i do M 440
and then s is M 428
and had a thing M 414
and get a thing M 414
and with a so M 411
and not a is M 408
any one i do M 402
and easy a thing M 402
and not i to M 400
and for a to M 396
and you i am M 394
and for a in M 391
any set a of M 390
and then a to M 376
and but i am M 376
and not a so M 374
and may i in M 372
and was a by M 370
and then t is M 370
and with d as M 367
and yet i eat M 364
and now i be M 364
and death i am M 364
and being a thing M 364
and and a is M 360
and yet i no M 358
any day i am M 356
any man i am M 354
and that i eat M 350
and does a thing M 350
and fear i am M 346
and had a tea M 344
and buy a ring M 340
and now a king M 336
and had a no M 331
and for i do M 328
and that t he M 324
and for a ring M 324
and thus d is M 320
and has a king M 320
and not i in M 316
and had i an M 314
and that d in M 312
and has a go M 308
and not a the M 304
and not i it M 302
and now i eat M 300
and not a ring M 296
and see i do M 292
and then i at M 290
and area a of M 288
and why i so M 285
any use i am M 282
any set t of M 282
and put a tea M 280
and has a no M 280
and for a is M 278
and had i at M 276
and that i he M 272
and not a at M 272
and thus s is M 270
and that a by M 270
and see a foe M 264
any that i do M 262
and are a by M 262
and yet i be M 260
and things i am M 260
and for a we M 260
and this i at M 258
and add a to M 250
and with i the M 248
and weak a thing M 248
and then d is M 248
and that a the M 248
and did i go M 248
and won a by M 247
and than i am M 246
and sad i am M 246
and with a in M 245
and then i in M 245
and for d the M 240
and yet i at M 238
and then i be M 238
and not i the M 238
and that a no M 237
and add s or M 235
and thus t is M 234
and for s the M 234
and for i am M 234
and add i to M 232
and that i of M 226
and for a it M 222
and was a no M 221
and then a wing M 221
any year t is M 220
and with a thing M 218
and then a tea M 218
and for t he M 218
and cut a ring M 218
and you i do M 216
and then i by M 216
and get a ring M 216
and and t is M 216
and that i by M 214
and how a king M 214
and for t in M 214
and with a tea M 212
and that i or M 212
and thus a ring M 210
any set a is M 206
and was a foe M 206
and him i do M 206
and not i is M 204
and why i go M 202
and then i up M 200
and that i on M 198
and has a thing M 198
and log a is M 194
and let a king M 194
and doing i do M 192
and die a king M 192
and add s to M 192
and not a he M 190
and had a sing M 188
and for a so M 188
and had a so M 186
and are a thing M 184
and yet i in M 182
and for a no M 182
and with a of M 178
any but a king M 176
and then a no M 176
and out i am M 176
and has a so M 175
and now a no M 174
and joy i am M 174
any set a in M 173
and use a no M 172
and not a or M 172
and that i my M 170
and sin a is M 170
and say i go M 168
and old i am M 162
and ere i do M 162
and then a so M 160
and put a king M 160
and how i in M 158
and going i do M 158
and then s to M 156
and not i or M 156
and with a by M 155
and use a thing M 154
and that a of M 150
and real a thing M 150
and not i am M 150
and how i at M 150
and add a tea M 148
and then a by M 147
and had i so M 146
and men i am M 144
and then i the M 142
and man i am M 142
and let a the M 140
and yet a is M 138
and her i do M 138
and cry i am M 138
and has a the M 136
any set s is M 134
and has a pi M 134
and earth i am M 134
and all t he M 134
any and i am M 130
and men i do M 130
and how i eat M 130
and god i am M 130
and for s to M 130
and who a foe M 128
and then d to M 128
and that t am M 128
and fear i do M 128
and his i am M 126
and out i do M 124
and not a do M 124
and for a tea M 122
and this i is M 120
and that a in M 118
and may i at M 118
and got a ring M 118
and with t he M 116
and was i king M 116
and not i of M 116
and let a in M 116
and him i am M 116
and her i am M 116
any way a thing M 114
and then i ring M 114
and put a in M 114
and own i am M 114
and had i as M 114
and ask s to M 114
any set s in M 112
any poet i am M 112
and off i am M 112
and had i in M 112
and for a wing M 111
any man i do M 110
and with a to M 110
and was a so M 110
and set a is M 110
and not a tea M 110
and for a of M 110
and dying i am M 110
and ere i am M 108
and age i do M 108
and not a wing M 107
and was i an M 106
and not i at M 106
and how i so M 106
any area a is M 104
and long a in M 104
and has a by M 104
and each a ring M 104
and with t as M 103
and for a as M 103
any man a thing M 102
and yet i is M 102
and one d in M 102
and men i sing M 102
and has a tea M 102
and can t be M 102
and use a to M 100
and this t is M 100
and that a be M 100
and say i is M 100
and new a thing M 100
and low a thing M 100
and death i do M 100
and them i am M 98
and how i is M 98
and hear a thing M 98
and all a is M 98
and saw a go M 97
and with t in M 96
and then a the M 96
and with s as M 94
and thus a so M 94
and lead i is M 94
and area a in M 94
and add a wing M 94
and was a go M 93
and yet i by M 92
and using a ring M 92
and thus a king M 92
and then d by M 92
and that i to M 92
and that i an M 92
and not i by M 92
and hear i am M 92
and with a foe M 90
and thus i at M 90
and any a in M 90
and all i the M 90
and that i sing M 88
and that a at M 88
and sin a in M 88
and shy a thing M 88
and put a thing M 88
and not a to M 88
and has i am M 88
and act i is M 88
any but i do M 86
and then i or M 86
and run a ring M 86
and this d is M 84
and this a is M 84
and set a tea M 84
and sad a thing M 84
and day i do M 84
and then a in M 83
any way i go M 82
any how i am M 82
and that i it M 82
and that a wing M 82
and see a king M 82
and let a thing M 82
and ill i do M 82
and how a is M 82
and ere i go M 82
and area a at M 82
any job i do M 80
and who i go M 80
and new i am M 80
and get i do M 80
and not a no M 64
and then i as M 61
and got a no M 53
and got a go M 49
and get a no M 46
and not a in M 44
and using a no M 43
and why i no M 41
and put a do M 41
any par t of D 1544
and then a sea D 1128
and that a re D 1053
and for a re D 1047
and saw a sea D 970
and par t of D 924
and with a sea D 910
and not a sea D 798
and then a re D 778
and with a hoe D 623
and that a sea D 606
and not a re D 598
and pie a la D 559
and then i re D 528
and with a re D 417
and has a sea D 354
and had a sea D 288
and put a pea D 266
and for a sea D 260
and thus a re D 242
and wear a ring D 240
and was a sea D 234
and this i doe D 228
and thee i am D 218
and con a in D 208
and tan a is D 186
and saw a doe D 178
and see a sea D 169
and not a la D 165
and was a re D 162
and gab a in D 156
and yet i doe D 140
and now a sea D 133
any par t in D 128
and thin i am D 126
and put a toe D 126
and that i doe D 120
and gay i am D 118
and use a hoe D 108
and rev d in D 108
and may i re D 108
and con a is D 106
and with a ms D 103
and tan s is D 98
and has a dc D 98
any row i of D 92
and has a re D 92
and had a re D 92
and get a re D 91
and thin a thing D 88
and then a bi D 88
and this i ha D 86
and vet i am D 82
and then a dc D 47
and for a bi D 47
and being a sea D 43
and that a bi D 41
