another six months . M 27922
another two weeks . M 17379
another long pause . M 14738
another two hours . M 14096
another two months . M 10813
answer was given . M 9436
animal and human . M 8076
another six weeks . M 6786
anyone for anything . M 5114
animal and plant . M 4498
another few weeks . M 4384
another few months . M 4118
anyone who asked . M 3662
another few hours . M 3438
another for women . M 3206
animal than human . M 3105
anxious and uneasy . M 2742
answer his phone . M 2681
answer her phone . M 1934
another six hours . M 1874
answer was found . M 1854
anxious and upset . M 1774
anguish and grief . M 1642
another man asked . M 1508
another for girls . M 1422
another man again . M 1400
another long night . M 1346
anyone was looking . M 1342
anyone and anything . M 1330
answer was right . M 1296
answer for anything . M 1250
another long story . M 1224
another ten months . M 1210
another old woman . M 1176
another bad night . M 1152
another ten miles . M 1128
answer this query . M 1103
another two miles . M 1099
another one later . M 1038
another one opens . M 1030
anyone was about . M 1026
another was added . M 1022
answer was plain . M 980
another his crown . M 974
anyone that night . M 968
another red light . M 962
another for power . M 960
another had begun . M 944
answer all items . M 937
answer that either . M 905
anyone for money . M 898
answer was brief . M 896
another new world . M 892
another few steps . M 886
answer was short . M 876
another key issue . M 872
answer was quick . M 822
answer his calls . M 820
anyone they chose . M 818
another age group . M 818
another one nearby . M 800
another one again . M 794
answer his knock . M 793
anyone you please . M 768
another job offer . M 756
another has begun . M 754
answer them fully . M 746
another one today . M 744
animal was alive . M 726
anyone was awake . M 724
answer for others . M 718
anguish and shame . M 712
anyone see anything ? M 710
anxious for action . M 706
answer this morning . M 698
answer this evening . M 692
another big smile . M 680
anyone who could . M 672
another was begun . M 670
anxious than usual . M 668
another ten hours . M 666
anguish and guilt . M 666
answer was vague . M 652
answer you chose . M 644
another six months ? M 643
anguish and agony . M 628
answer our needs . M 626
anyway they could . M 620
anyone was missing . M 618
anyone she knows . M 616
another one asked . M 608
another year older . M 606
another this morning . M 600
anyone who tried . M 598
another one began . M 594
answer was final . M 592
anxious for change . M 588
anyone can enter . M 586
anyone any longer . M 580
anyone with money . M 568
another bad habit . M 560
answer this appeal . M 558
answer his needs . M 558
another long period . M 554
another for women ? M 552
another way round . M 544
another day began . M 534
anyone this morning . M 524
anyone who calls . M 522
another can begin . M 522
answer her mother . M 519
answer this point . M 515
another any longer . M 514
answer than others . M 513
another may occur . M 506
anyone who tries . M 504
another key point . M 504
another two steps . M 496
anyone who moved . M 494
anyone get close . M 494
another and laugh . M 482
anyone say anything ? M 480
answer that phone . M 480
animal was found . M 480
answer her knock . M 474
answer with words . M 471
anyone who comes . M 470
angelic and human . M 468
another for others . M 466
angrier than usual . M 464
another and smile . M 460
another man added . M 458
anyone she chose . M 456
another few miles . M 452
anyone can count . M 448
anyone had hoped . M 446
another with water . M 442
another for money . M 436
anyone was nearby . M 434
anyone who cares . M 432
answer this people ? M 430
animal nor human . M 430
anyone they please . M 426
answer that night . M 426
anyone she loved . M 418
another six miles . M 411
answer that query . M 410
answer for today . M 409
anyway she could . M 408
another two weeks ? M 408
another can occur . M 404
another ten weeks . M 402
another one added . M 402
anyone who cared . M 400
anyone they could . M 400
answer being given . M 398
answer any longer . M 398
another was found . M 398
another for months . M 394
another six months ! M 392
another sad story . M 388
another boy asked . M 380
another pay phone . M 372
annual dry season . M 372
another long delay . M 370
angelic than human . M 368
another two times . M 366
answer his smile . M 362
another that night . M 362
anguish and doubt . M 362
anxious than others . M 360
another one since . M 360
another for warmth . M 356
anyone she wants . M 352
another big laugh . M 352
anyone with anything . M 350
anyone for months . M 350
anyone can enjoy . M 350
another ten times . M 350
another big change . M 350
answer her appeal . M 348
answer him again . M 346
another weak point . M 344
anyone she liked . M 342
answer his father . M 342
another with words . M 342
another two weeks ! M 342
answer that point . M 340
another long sleep . M 336
another for space . M 334
anyone they liked . M 330
another all night . M 330
anxious and alone . M 328
answer his mother . M 328
anyone saw anything . M 322
answer she could . M 322
answer all right . M 322
answer his query . M 320
answer all needs . M 320
anyone can apply . M 318
another two hours ? M 318
another was tried . M 316
another one comes . M 316
answer them again . M 314
another for hours . M 314
anyone for weeks . M 310
anguish and alarm . M 310
answer her calls . M 302
another big issue . M 302
another for water . M 298
another and others . M 296
answer them later . M 294
another this evening . M 294
another was built . M 292
answer was known . M 290
answer our calls . M 290
anyone now alive . M 288
answer his appeal . M 286
another was taken . M 286
animal was sitting . M 286
anyone can write . M 284
another man might . M 284
answer are given . M 283
another long chase . M 282
another kin group . M 282
answer them either . M 280
anyone who knows . M 278
another big fight . M 272
anyone she likes . M 270
another weak smile . M 268
another six times . M 263
anyone who looks . M 262
anxious and alert . M 262
another two pages . M 262
another for weeks . M 262
answer may apply . M 260
another new start . M 260
angered his father . M 260
anyone any money . M 256
another than others . M 254
answer his phone ? M 252
another was hanged . M 250
another war story . M 250
anyone had known . M 244
another two months ? M 242
answer key below . M 237
another new layer . M 232
anguish and worry . M 232
answer that evening . M 228
another that evening . M 228
another day alone . M 228
anyone they found . M 226
answer all bells . M 226
anyone for anything ? M 224
anyone who thinks . M 220
answer you again . M 220
answer was never . M 218
another was missing . M 218
anyone doing anything . M 216
anyone this evening . M 214
answer that works . M 213
another low point . M 212
another easy stage . M 212
answer all calls . M 211
anyone had asked . M 210
annoying than usual . M 210
anyone was alive . M 208
another war began . M 206
another one waiting . M 206
another job easily . M 206
answer her father . M 204
annual mean value . M 204
answer and reply . M 203
another bad place . M 202
anguish and blood . M 202
anyone can change . M 200
another way still . M 200
animal lay still . M 200
answer her needs . M 196
another job again . M 196
anyone she could . M 194
anyone can stand . M 192
anyone does anything . M 190
another new place . M 190
anyone can guess . M 188
another and cried . M 188
animal was hungry . M 188
answer you write . M 187
answer her smile . M 186
another two months ! M 186
another pay raise . M 186
another dry season . M 186
answer with facts . M 185
answer any calls . M 184
another war party . M 184
another man cried . M 184
another can start . M 184
animal was missing . M 184
animal that thinks . M 184
answer that appeal . M 182
another two terms . M 182
answer she wants . M 180
another man since . M 180
another few weeks ? M 180
answer that phone ? M 179
answer them first . M 178
another ego state . M 178
anyone for hours . M 176
anxious and hungry . M 176
another his slave . M 176
anyone was hungry . M 174
answer you truly . M 174
another too often . M 174
another old house . M 174
another for woman . M 174
another for hunting . M 174
another are equal . M 174
anguish and defeat . M 174
anyone too close . M 172
anyone can offer . M 172
answer them easily . M 172
answer him either . M 172
answer her phone ? M 172
another are given . M 172
anyone she meets . M 170
answer was given ? M 170
another try later . M 170
animal was taken . M 170
answer its needs . M 168
another long while . M 168
another day older . M 168
another big story . M 168
animal was feeding . M 168
anxious and drawn . M 166
another war comes . M 166
another ten grand . M 166
another may begin . M 166
another job first . M 164
animal can exist . M 164
animal are shown . M 164
anyway you please . M 162
anyone who moves . M 162
answer was false . M 162
answer that later . M 162
another few months ? M 162
anyone she loves . M 160
another too short . M 160
another long drive . M 160
another dead child . M 160
another are known . M 160
anyone hear anything ? M 158
another one begun . M 158
anyone with power . M 156
answer not again . M 156
another two hours ! M 156
anyone had tried . M 154
answer his words . M 154
another sad smile . M 154
another big prize . M 154
another are shown . M 154
anyone say anything . M 152
anyone doing anything ? M 152
animal and owner . M 152
anyone that evening . M 150
another few hours ? M 150
animal that lives . M 150
anyone can grasp . M 148
anxious for anything . M 148
another for music . M 148
answer this issue . M 147
answer was quiet . M 146
another new house . M 146
anyone for anything ! M 144
another shy smile . M 144
another old story . M 144
another man alive . M 144
another goes first . M 144
another for labor . M 144
annoying than others . M 144
another few pages . M 142
annoying his father . M 142
anyone that story . M 140
another way again . M 140
another head count . M 140
answer both times . M 138
another for writing . M 136
answer may stand . M 135
answer her query . M 134
another with money . M 134
another his tools . M 134
animal than others . M 134
animal and shell . M 134
anyone this morning ? M 132
another new phase . M 132
angered him again . M 132
another six weeks ? M 130
another new field . M 130
animal was awake . M 130
animal had taken . M 130
answer you fully . M 128
another yet worse ! M 128
another two cases . M 128
another one below . M 128
another one arose . M 128
another may appear . M 128
another big house . M 128
another all round . M 128
anyone may enter . M 126
anyone being aware . M 126
another new party . M 126
another low laugh . M 126
another day dawns . M 126
animal can breathe . M 126
anyone was waiting . M 124
answer his views . M 124
another not white . M 124
another long visit . M 124
another long burst . M 124
another and unite . M 124
animal was blind . M 124
answer with pride . M 123
answer was noted . M 123
anxious this morning . M 122
another for selling . M 122
another few words . M 122
animal but birds . M 122
another year alone . M 120
animal nor plant . M 119
anyone with sense . M 118
another big event . M 118
annual pay raise . M 118
animal had lived . M 118
anyone that close . M 116
anxious for blood . M 116
answer them truly . M 116
answer all parts . M 116
another was opening . M 116
another one first . M 116
another big party . M 116
animal was saved . M 116
animal red cells . M 116
animal for study . M 116
anyone who might ? M 114
anyone had feared . M 114
anxious for power . M 114
answer you later . M 114
answer this either . M 114
another with others . M 114
another new style . M 114
another boy added . M 114
annoying his mother . M 114
answer his cries . M 112
answer her cries . M 112
another song began . M 112
another math class . M 112
another dog again . M 112
another big meeting . M 112
another are lacking . M 112
anyone who works . M 110
anyone who wants . M 110
answer was right ? M 110
answer for order . M 110
answer being found . M 110
another ten steps . M 110
another may arise . M 110
another man happy . M 110
anyone you liked . M 108
anyone may apply . M 108
anxious for sleep . M 108
another year later . M 108
another year began . M 108
another was speaking . M 108
another sun rises . M 108
another job today . M 108
animal let loose . M 108
answer that phone ! M 107
anyone can adopt . M 106
answer them aloud . M 106
another dead woman . M 106
animal that night . M 106
animal any longer . M 106
anguish any longer . M 106
angered her mother . M 106
angered her father . M 106
answer for women . M 105
answer for anything ! M 105
anyone who leaves . M 104
anyone this story . M 104
answer him truly . M 104
another two lines . M 104
another one built . M 104
another log house . M 104
another day ended . M 104
annual eye exams . M 104
annoying you again ? M 104
anguish and yearning . M 104
anguish and panic . M 104
anguish and folly . M 104
another one still . M 103
anyone was thinking . M 102
anyone for miles . M 102
answer was amazing . M 102
answer her either . M 102
another way quite . M 102
another war scare . M 102
another too small . M 102
another lie under . M 102
another kid asked . M 102
another are small . M 102
another all evening . M 102
anyone that morning . M 100
answer our query . M 100
answer any query . M 100
another way later . M 100
another for testing . M 100
another and marry . M 100
anyone all night . M 98
answer him anything . M 98
another wet nurse . M 98
another was waiting . M 98
another that morning . M 98
another job search . M 98
another for night . M 98
another day longer . M 98
animal was healthy . M 98
angered his mother . M 98
anyone was aware . M 96
anyone that moved . M 96
anyone one knows . M 96
answer for deeds . M 96
another with white . M 96
another one today ? M 96
another new issue . M 96
another job later . M 96
another and smiling . M 96
anyone has found . M 94
antics for hours . M 94
answer was money . M 94
answer that first . M 94
another war again . M 94
another one either . M 94
another job since . M 94
another cut taken . M 94
another bad cause . M 94
another are found . M 94
annoying his enemy . M 94
animal are known . M 94
anyone who dared . M 92
anyone did anything . M 92
answer was strong . M 92
answer our hopes . M 92
answer our calls ? M 92
another ten pages . M 92
another for black . M 92
answer was amusing . M 91
anyone who drank . M 90
anyone that night ? M 90
anxious any longer . M 90
answer was force . M 90
answer are lacking . M 90
another who could . M 90
another one easily . M 90
another not named . M 90
annoying and amusing . M 90
animal you chose . M 90
animal that moves . M 90
animal and human ? M 90
angered and upset . M 90
anyone who might . M 88
anyone has since . M 88
anxious and waiting . M 88
answer them today . M 88
another way about . M 88
another new plant . M 88
another man nearby . M 88
another long table . M 88
another day again . M 88
annual pay round . M 88
animal with water . M 88
animal that feels . M 88
animal has lived . M 88
animal got older . M 88
anyone then alive . M 86
anxious and bored . M 86
answer for theirs . M 86
answer does exist . M 86
another with alarm . M 86
another was asked . M 86
another one opening . M 86
another one might . M 86
another new state . M 86
another all right . M 86
animal was walking . M 86
animal has moved . M 86
anyone who could ? M 84
anyone can prove . M 84
anxious and happy . M 84
answer for months . M 84
another two people . M 84
another that could . M 84
another new model . M 84
another head wound . M 84
another big power . M 84
another all morning . M 84
anyone does anything ? M 82
another wet season . M 82
another one tried . M 82
another for speaking . M 82
another for miles . M 82
another for calls . M 82
another bad season . M 82
another bad night ? M 82
another and drank . M 82
annoying than anything . M 82
animal was small . M 82
animal for testing . M 82
anyone may guess . M 80
answer that smile . M 80
answer she feared . M 80
answer for posts . M 80
another new mother . M 80
another man speaking . M 80
another man could . M 80
another few lines . M 80
another end point . M 80
another each night . M 80
another air force . M 80
annual war games . M 80
answer for either . M 61
answer for weeks . M 52
answer for later . M 49
answer that easily . M 47
answer and essay . M 47
answer they chose . M 44
answer she gives . M 43
answer for yours . M 42
animal and birds . M 42
answer this point ? M 41
answer you please . M 40
