answer the question . M 218273
answer my question . M 57712
answer the purpose . M 48328
answer is correct . M 18921
answer the question ? M 17335
answer to everything . M 13160
answer my question ? M 9934
answer is twofold . M 9280
answer the following . M 6860
animal in question . M 6518
another in silence . M 6126
answer the summons . M 5989
answer my purpose . M 4649
answer the question ! M 4567
answer my letters . M 3754
answer my question ! M 3534
answer is complex . M 3096
answer the problem . M 2946
anyone in trouble . M 2880
answer in advance . M 2632
answer my prayers . M 2631
angrily to himself . M 2342
answer is correct ? M 2288
another as brothers . M 2156
answer at present . M 2094
answer or solution . M 1876
anxious to prevent . M 1816
answer or answers . M 1808
answer as follows . M 1750
answer no purpose . M 1655
anyone in history . M 1578
answer it himself . M 1506
answer is evident . M 1448
anxious to proceed . M 1440
answer my letters ? M 1417
another in private . M 1408
another in society . M 1352
answer is unknown . M 1340
anyone he chooses . M 1284
answer the request . M 1225
another to survive . M 1212
anxious to protect . M 1200
another as persons . M 1168
anxious to succeed . M 1156
answer the purpose ? M 1146
answer is desired . M 1138
answer to anybody . M 1126
anyone is listening . M 1122
another as enemies . M 1064
another in marriage . M 1062
another as friends . M 1060
another in exchange . M 990
anxious to possess . M 964
anxious to improve . M 956
answer in seconds . M 955
anyone in uniform . M 948
anxious to acquire . M 940
anguish of despair . M 922
answer to himself . M 918
anyone to believe . M 898
angrily to herself . M 898
animal or animals . M 888
animal to survive . M 856
animal is capable . M 856
answer me quickly . M 834
anxious to impress . M 822
anxious or worried . M 818
answer my prayers ? M 818
answer to everything ? M 801
answer to prayers . M 782
animal is exposed . M 758
anguish of remorse . M 742
another is started . M 738
anxious to receive . M 724
answer the letters . M 722
answer it herself . M 722
anxious to explore . M 720
answer to history . M 711
anxious to perform . M 708
anxious to explain . M 696
another is desired . M 682
another by contact . M 678
anxious to achieve . M 658
answer in damages . M 658
answer is silence . M 652
answer of defiance . M 650
answer to poverty . M 641
anyone at present . M 632
anxious to discuss . M 608
another in history . M 604
another is applied . M 582
answer so quickly . M 572
another to perform . M 572
anxious to destroy . M 566
anxious or nervous . M 566
another is beginning . M 558
anxious to recover . M 544
another is reduced . M 534
another to himself . M 514
another by mistake . M 512
anxious to provide . M 488
answer the following ? M 488
anyone in between . M 484
answer to critics . M 479
another is unknown . M 472
anxious to advance . M 466
another is limited . M 466
answer to everything ! M 438
anxious to support . M 434
another to execute . M 432
answer or comment . M 430
animal or machine . M 430
answer is elusive . M 428
anyone is welcome . M 426
answer to question . M 422
anxious to examine . M 418
anguish to inflict . M 418
animal is unknown . M 414
anxious to develop . M 406
anxious to believe . M 402
animal is released . M 402
anguish or despair . M 400
answer the critics . M 398
another to succeed . M 397
another in everything . M 388
answer in general . M 386
answer to herself . M 385
answer the message . M 384
anyone on purpose . M 382
another is gradual . M 378
animal in general . M 378
anyone on request . M 376
another in rotation . M 374
answer is evasive . M 372
anxious to correct . M 368
anxious to restore . M 360
anyone in advance . M 358
another in solution . M 358
another in despair . M 356
answer he desired . M 354
another the reverse . M 354
answer is everything . M 350
another is avoided . M 350
another as himself . M 346
anyone to perform . M 344
answer to violence . M 344
answer is revealed . M 344
answer as correct . M 343
anxious to withdraw . M 338
another on occasion . M 336
anxious to capture . M 334
anyone in society . M 332
answer is located . M 324
another is present . M 324
another at pleasure . M 318
anyone in congress . M 316
answer is certain . M 312
anxious to control . M 310
answer in silence . M 310
answer my request . M 307
anxious to respond . M 306
answer is offered . M 306
another so quickly . M 300
another in general . M 300
answer or explain . M 298
another at present . M 298
anyone to control . M 296
another as desired . M 296
another is increasing . M 294
animal is subject . M 292
answer is delayed . M 290
another in charity . M 286
answer is printed . M 282
answer in minutes . M 281
anyone to respond . M 278
another in quality . M 278
animal is present . M 276
anyone is following . M 274
anxious to relieve . M 274
animal to recover . M 270
anguish he endured . M 270
animal or patient . M 266
another thing happens . M 262
animal is removed . M 262
answer it briefly . M 261
another by marriage . M 260
answer he desires . M 257
anxious to exploit . M 256
another by insects . M 256
animal is suffering . M 256
anyone to survive . M 254
another as objects . M 254
anxious to produce . M 252
another in seconds . M 252
answer to despair . M 251
another in harmony . M 250
another so closely . M 248
another in trouble . M 248
anyone to despair . M 244
another thing follows . M 242
answer is logical . M 240
anyone to achieve . M 236
answer to suffering . M 236
anxious to display . M 234
answer is nowhere . M 232
animal in trouble . M 232
anyone to examine . M 230
anyone in general . M 230
another by himself . M 230
annoys the patient . M 230
another is evident . M 224
another in details . M 224
answer the demands . M 223
anxious to imitate . M 222
anxious to benefit . M 222
animal is immense . M 222
anxious to witness . M 220
anxious or unhappy . M 220
answer is implied . M 216
another is injured . M 216
anxious to publish . M 214
answer it quickly . M 214
another is correct . M 212
another in concern . M 209
anxious to conform . M 208
answer by himself . M 208
another in function . M 206
animal is handled . M 206
anxious or worried ? M 204
another as follows . M 204
another in advance . M 203
answer the problem ? M 202
angered the emperor . M 202
anxious to enforce . M 200
anyone to predict . M 198
animal or monster . M 198
anyone it chooses . M 196
anyone to succeed . M 192
anguish or remorse . M 192
another to account . M 190
another is removed . M 190
another in january . M 188
answer is misleading . M 187
anyone be trusted ? M 186
anxious or hostile . M 186
another in position . M 186
another to receive . M 184
another in content . M 184
another in addition . M 184
animal or vehicle . M 184
anguish of freedom . M 184
answer or respond . M 183
anxious he becomes . M 182
answer the prayers . M 182
answer my summons . M 182
answer is similar . M 182
answer the following ! M 180
another in disgust . M 180
another to present . M 178
another is adopted . M 178
another is planned . M 176
another is allowed . M 176
another as sisters . M 176
another as oneself . M 176
animal is perfect . M 176
anyone to imagine . M 174
anguish or anxiety . M 174
anguish go together . M 174
anyone to testify . M 172
anyone is injured . M 172
anxious to observe . M 172
anxious to condemn . M 172
animal is located . M 172
answer me quickly ! M 170
anguish to pleasure . M 170
animal in position . M 168
answer to success . M 166
another or oneself . M 166
another in religion . M 166
animal on display . M 166
animal is diseased . M 166
anxious to discard . M 164
answer or question . M 162
another by analogy . M 162
anxious to forgive . M 160
anxious to attract . M 160
anxious or nervous ? M 160
answer is obscure . M 160
another is revealed . M 160
another in balance . M 160
animal at liberty . M 160
anyone to possess . M 158
answer he expects . M 158
another is pleasant . M 158
anxious to exclude . M 152
another thing besides . M 152
another the triumph . M 152
another in between . M 152
anyone so quickly . M 150
answer in degrees . M 150
another if desired . M 150
another in slavery . M 149
anyone in trouble ? M 148
answer or defence . M 148
answer is allowed . M 148
another is immoral . M 148
another in minutes . M 148
anxious to testify . M 146
anxious to deliver . M 146
anxious to abandon . M 146
answer the summons ? M 146
answer the letters ? M 146
another or himself . M 146
another is planted . M 146
animal to research . M 146
animal is wounded . M 146
anguish of delight . M 146
anguish of anxiety . M 146
another is assumed . M 144
annoying the patient . M 144
animal to respond . M 144
animal is secured . M 144
another in delight . M 142
animal it belonged . M 142
anxious to conquer . M 140
answer is history . M 140
animal he studies . M 140
anguish or suffering . M 140
another by language . M 138
animal is limited . M 138
anyone to witness . M 136
anyone to explain . M 136
answer my letters ! M 136
answer to justice . M 134
answer the sceptic . M 134
another is complex . M 134
anyone he desires . M 132
anxious to convert . M 132
answer or decision . M 132
another to believe . M 132
another is offered . M 132
anyone is present . M 130
anxious to embrace . M 130
answer my prayers ! M 130
answer is correct ! M 130
answer in division . M 130
answer by herself . M 130
another by violence . M 130
animal or species . M 130
animal is endowed . M 130
angrier he becomes . M 130
answer we require . M 128
answer to congress . M 128
answer is simpler . M 128
another to oneself . M 128
anxious to sustain . M 126
anxious to inquire . M 126
anxious to compete . M 126
answer my message . M 126
answer is familiar . M 126
answer is entered . M 126
answer is cautious . M 126
answer in religion . M 126
another to achieve . M 126
anguish to himself . M 126
anyone or anybody . M 124
answer on purpose . M 124
another on contact . M 124
another of himself . M 124
another is painful ? M 124
animal is evident . M 124
animal in himself . M 124
anxious to confirm . M 122
anxious of parents . M 122
answer of despair . M 122
answer is written . M 122
answer in history . M 122
animal or creature . M 122
anyone an apology . M 120
anxious to satisfy . M 120
anguish of jealousy . M 120
anxious to address . M 118
answer it exactly . M 118
answer in himself . M 118
another to respond . M 118
another if function . M 118
animal is reduced . M 118
anguish of decision . M 118
anxious to deserve . M 116
answer to boredom . M 116
another in essence . M 116
anyone to violence . M 114
anyone to observe . M 114
answer me lightly . M 114
another to inquire . M 114
another is illegal . M 114
another by descent . M 114
animal to perform . M 114
animal is weighed . M 114
anguish to herself . M 114
anyone to attempt . M 112
anyone in pursuit . M 112
answer or defense . M 112
answer me plainly . M 112
answer in addition . M 112
another is ignored . M 112
antics of animals . M 110
another is certain . M 110
animal is touched . M 110
anyone to consult . M 108
anxious to collect . M 108
answer it shortly . M 108
answer is perfect . M 108
another to develop . M 108
animal is injured . M 108
angered the spirits . M 108
another to propose . M 106
another in culture . M 106
animal to inflict . M 106
anxious to confess . M 104
answer is useless . M 104
another to silence . M 104
another to herself . M 104
animal is rational . M 104
animal by himself . M 104
anyone in command . M 102
answer on occasion . M 102
answer of silence . M 102
answer is reassuring . M 102
answer is perhaps . M 102
answer is assumed . M 102
another is minimal . M 102
another by degrees . M 102
answer by mistake . M 101
anyone to justice . M 100
anyone to account . M 100
anxious in general . M 100
answer or solution ? M 100
answer be correct ? M 100
answer at leisure . M 100
another is suffering . M 100
another is measured . M 100
animal to imitate . M 100
animal is trapped . M 100
animal is receiving . M 100
anyone is capable . M 98
answer my critics . M 98
answer is uniform . M 98
another on request . M 98
another is misleading . M 98
another at parties . M 98
animal it attacks . M 98
angrily at himself . M 98
anyone it touched . M 96
anxious to console . M 96
anxious to abolish . M 96
anxious as himself . M 96
answer the burdens . M 96
anxious to inspire . M 94
answer of history . M 94
answer it tonight . M 94
animal is extinct . M 94
anyone to question . M 92
anyone to foresee . M 92
anyone to exploit . M 92
anyone to comment . M 92
anxious to exhibit . M 92
answer the attacks . M 92
another to attempt . M 92
another in language . M 92
another in college . M 92
another as inferior . M 92
animal is organic . M 92
anguish of revival . M 92
angered the workers . M 92
anyone he desired . M 90
answer the purpose ! M 90
answer is freedom . M 90
answer is awaited . M 90
another to observe . M 90
another or several . M 90
another in circles . M 90
anguish in silence . M 90
anyone to operate . M 88
anyone to forgive . M 88
anyone to acquire . M 88
answer in question . M 88
another to restore . M 88
another to possess ? M 88
another is altered . M 88
another by adoption . M 88
animal is covered . M 88
anxious to reverse . M 86
answer is balance . M 86
another to function . M 86
another is natural . M 86
another in congress . M 86
animal to observe . M 86
animal is altered . M 86
animal in history . M 86
anyone to impress . M 84
anxious to present . M 84
anxious to possess ? M 84
anxious to lighten . M 84
answer we receive . M 84
answer or outcome . M 84
answer is religion . M 84
another is endless . M 84
another in support . M 84
anyone it touches . M 82
anyone in control . M 82
anyone he trusted . M 82
answer me seemingly . M 82
answer is everything ! M 82
another in privacy . M 82
anguish of suffering . M 82
anxious to withhold . M 80
anxious to fulfill . M 80
anxious to consult . M 80
anxious or hurried . M 80
answer my purpose ? M 80
another to possess . M 80
another in letters . M 80
another as parents . M 80
another as capital . M 80
anoint the patient . M 80
animal to himself . M 80
animal he pursues ! M 80
annoying to parents . M 66
answer in concert . M 63
answer in private . M 57
answer so quickly ? M 51
answer or dispute . M 48
answer or protest . M 47
answer to tyranny . M 42
annoying to teachers . M 42
answer to suggest . M 41
answer no question . M 41
