idea that " the M 34036
idea that " we M 4780
idea that " it M 4676
idea that " if M 2714
idea was " to M 2274
idea that " in M 2272
idea that " no M 1440
idea that " to M 1380
idea for " the M 1352
idea that " he M 1058
idea that " an M 994
idea was " the M 704
idea that " by M 532
idea that " my M 472
idea that " as M 440
idea was " in M 308
idea that " at M 236
idea that " on M 174
idea being " to M 170
idea was " an M 166
idea man " in M 154
idea man " of M 130
idea men " in M 121
idea that " of M 112
idea that " so M 109
idea and " the M 108
idea with " the M 102
idea that " is M 102
idea was " so M 92
