say that they could M 23830
saw that they could M 22862
sat with her hands M 18564
say that you could M 15600
sat with his hands M 15504
say that she could M 14774
say that they never M 14264
saw that she could M 12796
saw men and women M 12236
saw him this morning M 11646
say bad things about M 10716
saw that his father M 9938
say she was sorry M 9422
say that his father M 9286
say you are right M 8406
say you are sorry M 8230
say that they ought M 7956
say that for every M 7624
saw that her mother M 7198
say that they might M 6150
say that that which M 6044
say that you never M 5919
saw that his mother M 5898
say that one could M 5704
say that she never M 5662
saw that her father M 5617
sat for two hours M 5598
saw her this morning M 5447
saw that his hands M 5404
say that you ought M 5296
say that his mother M 5285
say they are willing M 5004
say that her mother M 4932
saw you this morning M 4793
say that her father M 4728
say that she loved M 4546
say that all people M 4330
say that this method M 4292
say that they belong M 4172
saw that her hands M 4156
say that you might M 4116
say that all human M 3941
say that they shall M 3924
sat with her mother M 3850
say that they found M 3606
say that this world M 3494
say that they exist M 3486
saw that this could M 3448
say that god could M 3428
saw him and asked M 3388
say that you shall M 3282
say that this could M 3184
say that one ought M 3134
saw him that night M 3095
say that all women M 3016
say they are sorry M 2930
sat with his mother M 2912
say that any given M 2890
say that you really M 2836
say that this story M 2827
say they are happy M 2814
say that this whole M 2814
say that they really M 2800
say that this house M 2789
say that this power M 2695
sat day and night M 2692
saw that you could M 2634
sat for long hours M 2628
saw that they might M 2606
sat with her father M 2606
say you are looking M 2598
say that this change M 2592
say that this state M 2536
say that his first M 2528
say that our people M 2524
say that god knows M 2512
say that she might M 2510
say that this woman M 2504
say that two people M 2496
saw that his words M 2490
say that this action M 2440
saw his own image M 2438
say they are looking M 2430
say they are still M 2412
say that this group M 2412
say that they often M 2412
sat with his father M 2402
say that they enjoy M 2362
say that one reason M 2344
sat with him while M 2306
say that for which M 2302
sat with our backs M 2292
say with one voice M 2240
say that god loves M 2208
say that all forms M 2172
say that she wants M 2170
say that they lived M 2150
saw she was still M 2088
say that both sides M 2082
saw that she still M 2078
say that this makes M 2032
sat with him until M 1996
sat with her while M 1989
say that they still M 1988
say that one might M 1979
sat with her until M 1974
say mean things about M 1946
say that you agree M 1938
say that she hoped M 1914
say that she liked M 1888
saw her that night M 1869
say that this first M 1862
say that his whole M 1856
say two things about M 1840
say that this period M 1839
say that they appear M 1838
say she had never M 1838
say that she loves M 1836
say that one knows M 1824
say they are working M 1822
say that she found M 1818
say that she knows M 1810
say that any state M 1794
say you are quite M 1790
saw that his grief M 1786
saw that his right M 1769
say that this place M 1760
say that this might M 1760
say that this child M 1740
say that his power M 1735
say that they agree M 1730
saw how they could M 1703
say that this study M 1700
say you are working M 1686
saw you that night M 1679
say that our first M 1662
saw that his people M 1656
saw two men running M 1644
say that this event M 1642
say they had never M 1632
say that his views M 1626
say they are quite M 1621
sat with head bowed M 1612
say that they share M 1608
say that this feeling M 1604
say that our lives M 1604
sad that she could M 1602
say that not every M 1600
saw that she might M 1588
say all that could M 1572
saw them this morning M 1571
saw two men walking M 1562
say that they liked M 1558
say that she ought M 1546
say you can never M 1530
say that this seems M 1526
say you are writing M 1521
say that they stand M 1514
say things that might M 1498
saw all his hopes M 1488
say that few people M 1444
say that they alone M 1436
say that you found M 1430
say that she lived M 1428
say that you still M 1416
say that this point M 1414
say all that might M 1398
say that one group M 1390
saw how things stood M 1376
say you are willing M 1374
saw her and asked M 1370
say that this class M 1365
say that his words M 1360
say they are right M 1359
say that one event M 1352
saw that his first M 1342
sat with both hands M 1342
say that she really M 1334
saw she was looking M 1328
saw him and began M 1326
say that they acted M 1318
saw that his whole M 1314
saw two men sitting M 1298
say that god wills M 1291
say that this shows M 1282
say does not exist M 1261
saw how you could M 1260
say that its value M 1258
saw him that evening M 1256
saw that this might M 1255
say that you loved M 1252
saw that her words M 1252
say that our party M 1248
say that this piece M 1244
say they had found M 1240
saw she was about M 1238
say all that needs M 1237
saw his own father M 1233
say they are getting M 1228
saw him one night M 1218
say that our whole M 1216
say that any action M 1213
say that this paper M 1206
say that she feels M 1206
saw that she really M 1202
say she was right M 1190
saw she was right M 1170
saw him that morning M 1170
say that his action M 1168
say you are still M 1163
sat with his chair M 1160
saw him one morning M 1146
say that they loved M 1138
saw her that evening M 1136
say they are about M 1120
say that this model M 1114
say that his style M 1114
say that she shall M 1106
say you are about M 1092
say that god gives M 1092
saw how she could M 1086
say that this notion M 1078
say that god never M 1078
say who was right M 1074
say that she thinks M 1074
say that his poetry M 1074
say that this sense M 1068
say that too often M 1066
say that with every M 1064
say that they serve M 1064
say that this verse M 1059
say that any piece M 1054
say that this issue M 1040
say that she hated M 1040
saw that his cause M 1040
say you are getting M 1036
say that she still M 1036
say you are happy M 1022
saw she was smiling M 1022
say for six months M 1018
saw that one could M 1014
say you are thinking M 1012
say that all which M 1008
say things that could M 1002
say that any change M 1002
say that his works M 994
say that not until M 986
say that this force M 984
say that our minds M 982
saw that this woman M 982
say that this money M 979
saw him but twice M 971
say that our world M 966
say that his method M 966
saw she was holding M 960
say that they spend M 958
saw that she loved M 958
say that this order M 952
say that god alone M 946
say that all cases M 940
say they are proud M 934
say but few words M 934
say men and women M 928
say that his people M 926
say that this ought M 920
say that this meeting M 920
saw him one evening M 918
saw that her whole M 916
say that god might M 914
say that things exist M 910
say that men ought M 910
say that things which M 908
say that his house M 906
saw him and cried M 906
say they are often M 894
say things that sound M 890
say that they occur M 886
say that they offer M 880
saw that she stood M 876
say that any woman M 874
say that they value M 870
say that this right M 864
say you can still M 862
say she had found M 862
say that she looks M 860
say that one needs M 860
say that one method M 860
say that they apply M 858
saw that they stood M 856
say she was still M 855
say that you liked M 852
say that they tried M 852
saw one old woman M 852
say that this small M 851
say that they first M 847
say that they began M 846
say she was looking M 846
say she was about M 846
saw did not please M 845
say that you wrote M 844
say things that others M 836
say that his music M 836
saw him for about M 835
say she was quite M 827
say they are never M 826
saw that man again M 826
say that this morning M 824
say that they hoped M 824
saw him all right M 823
say that our moral M 822
say that god wants M 822
say that this image M 821
say that one class M 820
saw them all sitting M 820
saw his own blood M 816
saw him was about M 816
saw you that first M 814
saw his own mother M 814
say that one never M 812
saw that his enemy M 812
say that this comes M 810
say she was happy M 810
saw them and asked M 806
saw this and began M 805
say that you write M 804
saw them and began M 800
say that one night M 798
saw she was alone M 798
saw her own mother M 794
say that any human M 792
saw how his father M 788
saw that they still M 786
sat with them while M 786
say that this claim M 784
say that god works M 779
say they are really M 778
say they are either M 769
say that god makes M 768
saw her son again M 768
say they are waiting M 762
sat men and women M 762
sat for six months M 762
say that for nearly M 758
say that its author M 756
saw not long since M 756
say she has never M 754
say that this people M 752
saw who was waiting M 752
sat and act tests M 752
say that you trust M 750
sat for two months M 750
saw him this evening M 748
saw she was getting M 740
sat with his right M 740
sat with them until M 738
say that they refer M 736
say that they allow M 730
say that she hopes M 730
say how they could M 730
say that you belong M 728
say that this alone M 728
saw this and asked M 724
say things for which M 722
say that she seems M 722
say does not apply M 722
say they are hungry M 716
say that our father M 713
say how and where M 712
saw him that first M 712
saw her and began M 710
say they are seeking M 708
say she was getting M 708
saw how they lived M 708
say that god lives M 707
say that she likes M 706
saw them and loved M 706
say that one party M 704
say they are aware M 702
say that his teaching M 700
saw him run after M 700
saw that his power M 698
saw that his hopes M 698
say that all parts M 692
say that our author M 690
saw her day after M 688
say that she needs M 686
say that our state M 683
say that each group M 682
say all this about M 682
saw her own image M 682
saw she was awake M 681
saw that they really M 680
say that any group M 678
say that one state M 676
say that her first M 676
say that this essay M 674
say that they chose M 674
say she was never M 670
say that one finds M 669
say that his books M 666
saw that his money M 664
say that this shall M 660
saw his son again M 658
saw her that morning M 658
say they are bored M 656
say that his party M 656
saw two men enter M 656
saw that her child M 652
say you are hungry M 646
say they are false M 646
say they are equal M 646
say that her beauty M 646
saw all his plans M 644
say you are really M 640
say that they arise M 640
saw she was really M 640
saw them all again M 639
say that this gives M 634
say that this vision M 632
say that this trend M 632
say that they write M 632
say that they favor M 632
saw all that could M 632
say that they carry M 626
saw his own house M 626
say that this party M 624
say that she feared M 624
saw this man again M 624
sat for six hours M 624
say they can never M 622
say that one feels M 620
say this with pride M 618
say that its power M 618
sat with him under M 618
say that you acted M 616
say that all white M 614
saw that she liked M 614
sad that they could M 612
saw him not since M 611
say you are running M 610
say you are never M 608
saw him she cried M 608
say who may marry M 606
saw her one night M 606
say they are under M 604
say that his story M 601
say how long after M 596
sat all this while M 596
saw how this could M 595
say you are playing M 592
say that they feared M 592
say that this finding M 591
say that they trust M 590
say she was staying M 590
say that you enjoy M 588
saw one this morning M 585
say that our sense M 584
saw him not again M 584
say that each state M 580
saw him two weeks M 580
say all that stuff M 578
say that two thirds M 576
say that she wrote M 576
say that man lives M 576
say that you tried M 574
saw who was sitting M 572
say that any people M 570
say that all moral M 570
say that his vision M 568
saw two men looking M 566
say you are aware M 564
say that this moral M 564
say that she lives M 564
say that her voice M 564
saw that her right M 564
saw him six months M 564
say things that people M 562
say that his grace M 561
say you can guess M 560
say for that reason M 560
saw him going about M 560
say that they wrote M 558
say that they fully M 558
say that things could M 556
say that this search M 554
say she had given M 552
say red and green M 548
say that this plant M 546
saw him and tried M 546
say that this motion M 544
say that ten times M 544
say how they might M 544
saw that his guest M 544
say that each party M 542
say that all action M 542
saw was not really M 542
say they are worse M 538
say this too often M 536
say that old people M 534
say that six months M 532
say you are alone M 531
say you are selling M 530
sat with him every M 530
say that was about M 528
say that his right M 528
say and say again M 528
say that you value M 524
say that this stage M 524
say that she spent M 524
say that this style M 522
say that his visit M 520
saw that our people M 518
say that they either M 517
say that you asked M 516
say that this unity M 516
say that all sorts M 514
saw him she began M 514
say that his hands M 512
say that all words M 512
say that his writing M 511
say that all music M 510
saw you this evening M 510
saw how her mother M 510
say that all power M 509
say that his sense M 508
saw his old enemy M 508
say that this music M 506
say that men could M 506
say that his glory M 506
sad than that which M 504
saw but few people M 503
say that this teaching M 502
say that his moral M 502
saw how his mother M 502
say that two words M 498
say that our method M 498
say that both types M 498
say that any child M 498
say she was really M 498
say she has ceased M 498
sat with his watch M 498
say that her child M 497
saw her and tried M 494
say that that state M 493
saw her own father M 492
say that this phase M 490
say that this field M 490
say how this could M 490
saw them that night M 489
say that each child M 488
saw that her smile M 487
say that our house M 486
say all that about M 486
saw that you loved M 486
say that this holds M 484
say they are thinking M 482
say that her house M 482
saw that this method M 482
say that this danger M 480
say that one loves M 480
say how they shall M 480
saw she was thinking M 480
saw each and every M 480
sat for two weeks M 480
say all that comes M 478
saw him being taken M 478
say they had rather M 476
say that this offer M 476
say that they moved M 476
say that she acted M 476
say that any event M 476
saw that her beauty M 476
say you are feeling M 474
saw her and loved M 474
say that her right M 472
saw war and tried M 472
say that our hearts M 470
say that god chose M 470
say you had never M 468
say that two lines M 468
saw this and tried M 468
saw them all start M 467
say that you start M 466
say that this really M 466
say that his voice M 464
sat with her alone M 464
saw all that blood M 463
say that this takes M 462
say that she cared M 462
saw that his house M 462
say was cut short M 461
say that man ought M 460
say that man could M 460
say she was thinking M 460
say she was feeling M 460
say she had taken M 460
saw that his smile M 460
saw him and stood M 460
saw her that first M 460
say that this habit M 458
say that she takes M 458
say that his reason M 458
say that all types M 458
say you are walking M 456
say you are waiting M 456
saw two old women M 456
saw that she never M 456
say one our father M 454
say how she feels M 454
saw his own people M 454
say that this never M 453
say you are proud M 452
say that you appear M 452
say that two terms M 452
say that this crime M 452
say that this value M 451
say that all shall M 448
sat with him alone M 446
say that they stood M 444
saw that this morning M 442
saw him two months M 442
saw all that money M 442
say they are saved M 440
saw his son sitting M 440
say that one wants M 438
say that not since M 438
saw but one woman M 437
say that they cover M 436
saw her this evening M 436
say that one morning M 434
say that his claim M 434
say that one piece M 432
say that god takes M 432
saw how she might M 432
saw him and could M 432
say that his royal M 430
say that his blood M 430
saw him and found M 428
say who had given M 426
say that they cause M 426
say that they avoid M 426
say that she makes M 426
say that she finds M 426
say they are alike M 425
saw she was quite M 425
say that our study M 424
saw them all right M 423
say that they asked M 422
saw that both sides M 422
say this was about M 420
say that you alone M 420
say that you lived M 418
saw them and cried M 418
say with his final M 416
say they are running M 414
saw that his place M 414
saw her and stood M 414
say she was running M 412
say all this while M 412
say they had taken M 410
say all this stuff M 410
saw them that evening M 410
sat for six weeks M 410
say things with which M 408
say that his later M 408
say any bad words M 408
saw them all looking M 408
saw him was after M 408
saw her one evening M 408
say they are white M 406
say that they create M 406
saw them both looking M 406
saw her but twice M 406
say that she tried M 404
say than his first M 404
sat near her mother M 403
say that you often M 402
say that this final M 402
say that they begin M 402
saw him and loved M 402
saw her she could M 402
say that its basic M 400
say does not appear M 400
saw that his plans M 400
say that his thinking M 399
say that you spend M 398
saw how they might M 397
say that this light M 396
say that one point M 396
say that all thinking M 396
say how they really M 396
saw that for which M 396
say that its first M 394
say that any method M 394
saw that things could M 394
saw she had taken M 394
say that you stand M 392
say that they prove M 392
saw that his party M 390
say that was quite M 386
say that they spent M 386
saw things that others M 386
say that this visit M 384
say that our meeting M 384
saw you one night M 384
saw was her father M 384
saw two men fight M 384
say you are sitting M 382
say that they rather M 382
say that you spent M 380
say that they reveal M 380
say that she often M 380
sat with our hands M 380
say that you create M 378
say she was waiting M 378
sad and long exile M 378
say was that while M 376
say things they never M 376
say they are learning M 376
say that this shift M 376
say that this water M 375
say that this error M 374
say that that woman M 374
saw was his father M 374
saw that his black M 374
say that for about M 373
say for this reason M 373
say that she comes M 372
say that her power M 372
say that any point M 372
say they can still M 370
say she has found M 370
saw that this child M 370
saw that our party M 370
saw that his worst M 370
say that this author M 368
say that they imply M 368
say that its action M 368
saw was his mother M 367
say that this happy M 366
say that they change M 366
say that our model M 366
say that his point M 366
say that for months M 366
say that she asked M 364
saw them all about M 364
saw that god could M 364
saw that this state M 363
say you are dreams M 362
say that they hated M 362
say that she hates M 362
saw her not again M 362
say that our women M 360
say that his kingdom M 360
say that all right M 360
saw her for about M 359
say you are seeking M 358
say that this river M 358
say that this rather M 358
say that one woman M 358
say that all works M 358
say all that again M 358
saw him they began M 358
say that this table M 356
say that one likes M 356
saw its own image M 356
say they are rather M 354
say that each human M 354
saw and read about M 354
say you are growing M 352
say that was really M 352
say that that point M 352
say that his brain M 352
say that god ought M 352
say that for people M 352
say that all black M 352
say she was rather M 352
say does not count M 351
saw his old father M 351
say things they might M 350
say that they worry M 350
say that that could M 348
say that one child M 348
say that god loved M 348
saw that this place M 348
say you are lucky M 346
say that that might M 346
say that all poetry M 346
say she was working M 346
say she was proud M 346
say how this might M 346
saw that they lived M 346
saw him they cried M 346
sat with his books M 346
say you can prove M 344
saw two men holding M 344
say they are feeling M 342
say that that alone M 342
say that she began M 342
say that for thirty M 342
saw how his hands M 342
saw how her father M 342
saw him doing anything M 342
say that that place M 340
say that our power M 340
say she was taken M 340
saw she was sitting M 340
saw her was about M 340
say that you people M 338
say that men never M 338
saw her own blood M 338
say that this appeal M 336
saw them going about M 336
saw him she could M 336
say that men often M 334
say that any place M 334
say she has given M 334
saw her one morning M 334
say you are creating M 330
say that god sends M 330
say that all learning M 330
saw was her mother M 330
saw them all cutting M 330
saw his dead father M 330
saw her two weeks M 330
saw her dead mother M 330
say that they point M 328
say that his plans M 328
saw that her first M 327
sad that her mother M 327
say that his place M 326
saw this big black M 326
saw one man whose M 326
saw him day after M 326
saw his own child M 325
say who was first M 324
say for two hours M 323
say you can trust M 322
say they are helping M 322
say that this large M 322
sad that you could M 322
saw was that which M 321
say they can easily M 320
say that was where M 320
say that they doubt M 320
saw not that which M 320
saw him two hours M 320
say with his usual M 319
say that this human M 318
say that they place M 318
say that she gives M 318
saw this old woman M 318
sat for his final M 318
saw with his usual M 317
say they are speaking M 316
say that this looks M 316
say that our views M 316
saw who was calling M 316
saw that they began M 316
saw her six months M 316
sat that way until M 316
sat near his chair M 316
say you can write M 314
say that you stole M 314
saw two men seated M 314
saw red and green M 314
saw his own hands M 314
say then that every M 312
say that our human M 312
say that one comes M 312
say all that which M 312
saw them and could M 312
saw that they never M 312
saw one that could M 312
say day and night M 311
say that you saved M 310
say that they fight M 310
say she has taken M 310
saw him thus civil M 310
say that two hours M 308
say that this noble M 308
say that they watch M 308
say that our hopes M 308
say does not really M 308
saw that his small M 308
saw that his crime M 308
saw that her watch M 308
saw that her guest M 308
saw him thus seeking M 308
saw all her hopes M 308
sat with them above M 308
say you are rather M 306
say you are asked M 306
say that they engage M 306
say they can prove M 304
say that you carry M 304
say that she loses M 304
say that one learns M 304
say that men shall M 304
say that all change M 304
saw them one after M 304
saw now and again M 303
say that any pupil M 302
say his say about M 302
say god has given M 302
saw this they began M 302
saw them being taken M 302
say they are playing M 300
say that you begin M 300
say that that makes M 300
say that his world M 300
saw that one reason M 300
saw him she asked M 300
say that our girls M 298
say that his speaking M 298
saw with both hands M 298
saw that her black M 298
sat all that night M 298
say you are given M 296
say that you hated M 296
say that this space M 296
say new things about M 296
saw them all running M 294
say you can judge M 292
say that you first M 292
say that they learnt M 292
saw that with every M 292
sat with her small M 292
say was that after M 289
say they are above M 288
say that you chose M 288
say that that power M 288
say how you really M 288
saw that she lived M 288
saw that his child M 288
saw his men falling M 288
saw her going about M 288
say does not sound M 287
say you are teaching M 286
say that one action M 286
saw this man walking M 286
say things you never M 284
say they are praying M 284
say that man makes M 284
say that all truths M 284
saw them lying about M 284
saw that you cared M 284
saw that they moved M 284
saw that she began M 284
saw him and never M 284
saw all this stuff M 284
saw all that stuff M 284
sat with them under M 284
say things are getting M 282
say they are strong M 282
say that this cause M 282
say that our cause M 282
say that his paper M 282
say each and every M 282
saw you that morning M 282
say that you either M 281
say that our action M 280
say that his child M 280
say that god first M 280
say that each point M 280
saw them and wrote M 280
saw them and tried M 280
saw that his pupil M 280
saw his head appear M 280
say that with pride M 278
say that his study M 278
say that all writing M 278
saw how her hands M 278
sat with his large M 278
saw that this world M 277
saw two men working M 276
saw did not appear M 275
say that this extra M 274
say that our notion M 274
say she was lucky M 274
saw his son every M 274
say you are under M 273
say that this brief M 272
say that one thinks M 272
say and then write M 272
saw that his force M 272
saw how this might M 272
saw with his father M 271
say why they chose M 270
say that was right M 270
say that this evening M 270
say that they built M 270
say that one value M 270
say that all major M 270
say she was alive M 270
saw them one night M 270
say that this inner M 269
say that her whole M 269
saw you all right M 269
saw she had given M 269
say that god saved M 268
say that god needs M 268
say that can alter M 268
say that any longer M 268
say that all small M 268
say she was willing M 268
sat with her child M 268
say you are sending M 266
say they are teaching M 266
say that you doubt M 266
say that that night M 266
say that one cause M 266
say that all legal M 266
saw two old people M 266
saw that you liked M 266
saw that her waiting M 266
saw that all sorts M 266
saw one who could M 266
say they are black M 264
say that each could M 264
say that any party M 264
say how you found M 264
saw you that evening M 264
saw them off again M 264
saw that old father M 264
saw that men could M 264
sad that she never M 264
say that they enter M 262
say that his verse M 262
say that any large M 262
say how that might M 262
saw him and moved M 262
sat out all night M 262
sat near his mother M 262
say they are selling M 260
say that his final M 260
saw two things which M 260
saw two long tails M 260
saw that she moved M 260
saw that all hands M 260
say that one sound M 259
say now and again M 259
say and she could M 259
say that they saved M 258
say that that seems M 258
say that her words M 258
say that for weeks M 258
saw god and lived M 258
sat with them round M 257
saw this man sitting M 256
saw that that which M 256
saw that man could M 256
saw day and night M 256
saw and did while M 256
sat with her usual M 256
sat for his first M 256
say they are fools M 254
say that thus shall M 254
say that they preach M 254
say that all state M 254
sat with him about M 254
say that this mother M 253
say that our thinking M 253
say that they arose M 252
say that one major M 252
saw that his views M 252
say was that since M 251
saw that our house M 251
saw that her blood M 251
say you can count M 250
say that you cared M 250
say that two types M 250
say that man never M 250
say she was sending M 250
saw him being beaten M 250
say that this night M 249
say with our whole M 248
say who his father M 248
say that they study M 248
say that our inner M 248
say can not stand M 248
saw things and people M 248
saw that her house M 248
saw her and found M 248
sat for ten hours M 248
sad and all alone M 247
say that this solid M 246
say that this short M 246
say that its price M 246
say that his prime M 246
say that her people M 246
say how she could M 246
saw two low hills M 246
saw that she cared M 246
sat with her every M 246
say they are close M 245
say they had given M 244
say that you broke M 244
say that they laugh M 244
say she was hungry M 244
saw that they ought M 244
say that our space M 242
say that god moves M 242
say that all others M 242
say how this story M 242
say how she might M 242
saw that his white M 242
saw any one whose M 242
sat with them about M 242
sat all day under M 242
say that his major M 241
saw her own child M 241
sad that his father M 241
say that one evening M 240
say that its whole M 240
say that his hopes M 240
say that has never M 240
say that god hates M 240
say she was upset M 240
saw that for every M 240
say that this growth M 239
say you had found M 238
say who was really M 238
say that this topic M 238
say that this reason M 238
say that this engine M 238
say that our cases M 238
say she had known M 238
saw that you really M 238
saw that two armed M 238
saw that his dreams M 238
saw but few birds M 238
sat with her under M 238
say you had rather M 236
say yes and others M 236
say things they later M 236
say that was rather M 236
say that this poetry M 236
say that god helps M 236
say that for women M 236
say that each piece M 236
saw that her frame M 236
saw how far short M 236
say that this price M 235
saw that his front M 235
say you are putting M 234
say why she could M 234
say they are holding M 234
say that you truly M 234
say that was never M 234
say that two weeks M 234
say that this basic M 234
say that they visit M 234
say that that first M 234
say that our reason M 234
say that one place M 234
say that its finding M 234
saw his son after M 234
saw him lying under M 234
saw her all right M 234
say that two months M 232
say that this marks M 232
say that for forty M 232
say that all known M 232
saw all this quite M 232
sat with her again M 232
sat two long hours M 232
say that our group M 231
saw they had taken M 231
say things you might M 230
say they are fully M 230
say that you began M 230
say that this kingdom M 230
say that they truly M 230
say that they broke M 230
say that one model M 230
say that man needs M 230
say that each class M 230
saw that his state M 230
sat with him after M 230
sat near his father M 230
say was that every M 229
saw that one might M 229
say that god really M 228
say that all local M 228
say how they ought M 228
saw that this change M 228
saw her and could M 228
saw her son sitting M 227
say they are truly M 226
say that one whose M 226
say that his prose M 226
say and are willing M 226
saw that old woman M 226
saw her and cried M 226
sat and sat until M 226
say how far above M 225
say things that really M 224
say they are drawn M 224
say that man knows M 224
say that all facts M 224
saw that that could M 224
saw that she slept M 224
saw that her white M 224
saw but one house M 224
sat and act exams M 224
say that our mother M 223
say that his group M 223
saw all this while M 223
say they are based M 222
say that they admit M 222
say that our dreams M 222
say that its shape M 222
say that all books M 222
saw that she tried M 222
saw that his light M 222
say this and still M 220
say things you could M 220
say that things might M 220
say that they marry M 220
say that they appeal M 220
say that she alone M 220
say that his notion M 220
saw this and wrote M 220
saw them and stood M 220
saw she was upset M 220
saw his way quite M 220
saw him too often M 220
say does not change M 219
say things are looking M 218
say that this stuff M 218
say that they ceased M 218
say that she chose M 218
say that his poetic M 218
say that both forms M 218
say that all value M 218
saw that this light M 218
saw that they liked M 218
saw but few women M 218
sat with her after M 218
say you are calling M 216
say they are putting M 216
say they are keeping M 216
say that his worst M 216
say but she could M 216
saw how his words M 216
say things with color M 214
say things they could M 214
say that this which M 214
say that our local M 214
say that its place M 214
say that his pride M 214
saw who was speaking M 214
saw they had never M 214
saw her she began M 214
saw all too often M 214
say that this royal M 213
say you are bored M 212
say this was right M 212
say they had known M 212
say that for fifty M 212
say and say truly M 212
saw his old mother M 212
saw him and wrote M 212
sad that his mother M 212
sad that her father M 212
saw that his story M 211
say you are speaking M 210
say they are alive M 210
say that two major M 210
say that our words M 210
say that all money M 210
saw them doing anything M 210
saw that two women M 210
saw that this whole M 210
saw that all hopes M 210
saw his head above M 210
say she was alone M 209
saw his dead mother M 209
say you can change M 208
say that our basic M 208
say that god fills M 208
say she had tried M 208
saw her two months M 208
say that bin laden M 207
saw with his inner M 207
say who was calling M 206
say that they ended M 206
say that they cared M 206
say that she slept M 206
say that its motion M 206
say that any stage M 206
say that any class M 206
say how things might M 206
say does not agree M 206
saw that her small M 206
sad for her mother M 206
say that all water M 205
say you are often M 204
say that this usage M 204
say that they start M 204
say that that money M 204
say that she calls M 204
say that our visit M 204
say that his dreams M 204
say that god saves M 204
say that both women M 204
say that any right M 204
saw this and cried M 204
saw she was uneasy M 204
saw her out walking M 204
sat with her large M 204
say that one makes M 202
say that man alone M 202
say that his feeling M 202
say that all large M 202
say that all dreams M 202
say all that ought M 202
saw you not plain M 202
saw that she drank M 202
saw that his wound M 202
saw her own hands M 202
saw fit and could M 202
say that this leaves M 201
say that you enter M 200
say that this trick M 200
say that this blood M 200
say that that method M 200
say that she sends M 200
say that our knowing M 200
say that her story M 200
say how you might M 200
say but you could M 200
say but two words M 200
say all that every M 200
saw that she found M 200
say that for seven M 199
saw its red light M 199
say they are short M 198
say that two women M 198
say that she shows M 198
say that one really M 198
say that his learning M 198
say that his error M 198
say that god thinks M 198
say that god cares M 198
say that all girls M 198
say how things really M 198
saw this and could M 198
saw things that could M 198
saw for being quick M 198
say with his whole M 196
say that this local M 196
say that she holds M 196
say that she cares M 196
say that long after M 196
say that for small M 196
saw red and white M 196
saw not one woman M 196
saw but one small M 196
saw and who never M 196
sat and lay about M 196
say things that cause M 194
say that this grand M 194
say that that event M 194
say that its beauty M 194
say that any study M 194
say that all magic M 194
say all things which M 194
saw that two people M 194
saw her long black M 194
say you read about M 193
say they are finding M 192
say that that class M 192
say that our plans M 192
say that our daily M 192
say that his search M 192
say that his black M 192
say that any power M 192
say did not exist M 192
saw that things which M 192
saw one man sitting M 192
saw her lying naked M 192
saw her being taken M 192
say you are dreaming M 190
say that she quite M 190
say that our hands M 190
say that one lives M 190
say that all goods M 190
say does not please M 190
say all you please M 190
saw she was naked M 190
saw but one white M 190
saw but few signs M 189
say you are saved M 188
say this with every M 188
say this has never M 188
say they are sending M 188
say that this total M 188
say that she works M 188
say that for large M 188
say that any claim M 188
say that all danger M 188
say one for every M 188
saw them both sitting M 188
saw that his watch M 188
saw that his breathing M 188
saw that her brown M 188
saw how this works M 188
sat with his party M 188
sat near her father M 188
sat and read aloud M 188
sad men and women M 188
say this and asked M 186
say things you later M 186
say they had lived M 186
say that two pairs M 186
say that this still M 186
say that this sound M 186
say that that action M 186
say that she first M 186
say that new forms M 186
say that man shall M 186
say that god comes M 186
say that each woman M 186
say and has vowed M 186
saw them not again M 186
saw that his kingdom M 186
saw that boy again M 186
sad for her father M 186
say things that upset M 185
say they are marks M 184
say that you stood M 184
say that you judge M 184
say that she saved M 184
say that our legal M 184
say that his basic M 184
say that his appeal M 184
say that each stage M 184
say that any value M 184
say that and still M 184
say all she could M 184
say all one thinks M 184
saw you one evening M 184
saw that all labor M 184
saw she had quite M 184
saw how she acted M 184
saw his own folly M 184
saw her two hours M 184
say that they sound M 183
say you are staying M 182
say you are alive M 182
say that they drank M 182
say that they build M 182
say how things appear M 182
say how she really M 182
saw you two weeks M 182
saw how one could M 182
saw her they began M 182
say with any sense M 180
say they are writing M 180
say that they touch M 180
say that she tells M 180
say that one style M 180
say that its growth M 180
say she was calling M 180
saw two men getting M 180
saw them all drawn M 180
saw that each child M 180
saw him and broke M 180
saw her six times M 180
sat with her black M 180
sat that way while M 180
say why you chose M 178
say that her sense M 178
say does not belong M 178
saw them all seated M 178
saw that this point M 178
saw that his guess M 178
saw that his brown M 178
saw how god could M 178
saw him she burst M 178
sat with head erect M 178
saw that one blind M 177
say you can catch M 176
say you are short M 176
say with our author M 176
say they can trace M 176
say that was worthy M 176
say that this agent M 176
say that they adopt M 176
say that they added M 176
say that she keeps M 176
say that his state M 176
say that for fourth M 176
saw was her usual M 176
sat with its under M 176
sat with her chair M 176
say you can easily M 174
say you are wealthy M 174
say they had tried M 174
say that you exist M 174
say that with equal M 174
say that this helps M 174
say that this grant M 174
say that our works M 174
say that our search M 174
say that one human M 174
say that its owner M 174
say that his model M 174
say that both views M 174
say that any award M 174
say she was worse M 174
say how you could M 174
say her own father M 174
say and ask about M 174
saw who was holding M 174
saw them now about M 174
saw that her lower M 174
say that this writing M 173
say you did anything M 172
say that you allow M 172
say that things change M 172
say that they merit M 172
say that her poetry M 172
say that any total M 172
say that all rules M 172
saw them that morning M 172
saw his own works M 172
sat with his usual M 172
say that you sound M 171
say you are holding M 170
say they had built M 170
say that they slept M 170
say that they drive M 170
say that they claim M 170
say that god calls M 170
saw that its owner M 170
saw his son playing M 170
saw his own party M 170
sat for two whole M 170
sad that they never M 170
say that his playing M 169
saw them far above M 169
saw she had never M 169
say was that people M 168
say two things which M 168
say this was where M 168
say they are worthy M 168
say they are people M 168
say that two basic M 168
say that this close M 168
say that they stole M 168
say that one shall M 168
say that its roots M 168
saw you but search M 168
saw you and loved M 168
saw that they loved M 168
saw how things really M 168
saw his old tutor M 168
saw her own house M 168
say that this civil M 167
saw that his point M 167
say they are words M 166
say they are taken M 166
say they are given M 166
say that you claim M 166
say that she moved M 166
say that man finds M 166
say that air power M 166
say not that which M 166
say not that every M 166
say all they could M 166
saw this man running M 166
saw that she feared M 166
saw she was waiting M 166
saw man and woman M 166
saw her and liked M 166
saw any real action M 166
sat two old women M 166
say that his money M 165
saw that his action M 165
say you are strong M 164
say they are moved M 164
say that war ought M 164
say that our teaching M 164
say that all texts M 164
saw his own power M 164
saw him out walking M 164
saw him for weeks M 164
sat with her right M 164
sat and read about M 164
say that for eight M 163
say does not match M 163
say you had given M 162
say they are women M 162
say they are human M 162
say that this logic M 162
say that they owned M 162
say that they count M 162
say that she fully M 162
say that she broke M 162
say that for quite M 162
say that all hearts M 162
say how that trust M 162
say how one knows M 162
say all this aloud M 162
saw that her front M 162
saw that all which M 162
saw she was sorry M 162
saw how they loved M 162
saw her she asked M 162
sat and read books M 162
say that this proof M 160
say that they raise M 160
say that each reader M 160
saw two men appear M 160
saw that you might M 160
saw she was close M 160
say why they liked M 158
say things that please M 158
say that you admit M 158
say that this reply M 158
say that this black M 158
say that they judge M 158
say that that feeling M 158
say that his reply M 158
say she was writing M 158
say how far apart M 158
saw them both again M 158
saw that this power M 158
saw that this action M 158
saw that his trick M 158
saw that his rather M 158
saw that his order M 158
saw his own track M 158
saw any one enjoy M 158
say that that world M 157
saw was not quite M 157
say they are after M 156
say that this legal M 156
say than that which M 156
saw that this notion M 156
saw that her large M 156
saw him but could M 156
sat long that night M 156
say you are helping M 154
say that this fault M 154
say that this beauty M 154
say that things appear M 154
say that that force M 154
say that her hands M 154
say that all signs M 154
say she was mother M 154
say all this quite M 154
saw two long lines M 154
saw this she began M 154
saw this new world M 154
saw that god loved M 154
saw how she tried M 154
saw his own brain M 154
sat with his white M 154
sat with his small M 154
sat thus for hours M 154
sat long and drank M 154
say that this fourth M 153
say that that never M 153
say for his father M 153
sat and read while M 153
say you can drive M 152
say you are truly M 152
say with all sense M 152
say they can sense M 152
say that two items M 152
say that they amuse M 152
say that six weeks M 152
say that our prime M 152
say that our major M 152
say that our enemy M 152
saw them she cried M 152
saw that his method M 152
saw she was breathing M 152
sat with her white M 152
sat near him while M 152
say they are yours M 151
say then that while M 151
say you are learning M 150
say they are lucky M 150
say they are hunting M 150
say that you weigh M 150
say that this option M 150
say that this brave M 150
say that things never M 150
say that they adore M 150
say that that white M 150
say that our image M 150
say that one world M 150
say that all views M 150
say she was found M 150
say how things stand M 150
say for two months M 150
say can not exist M 150
say all this again M 150
saw two men waiting M 150
saw them and never M 150
saw that his defeat M 150
saw she was under M 150
saw she was alive M 150
saw how things could M 150
saw his son alive M 150
saw his own danger M 150
saw him was moved M 150
saw him they asked M 150
saw all things dimly M 150
sat long that evening M 150
sat all day playing M 150
say that our money M 149
saw that all right M 149
say you had anything M 148
say that this stream M 148
say that they focus M 148
say that that change M 148
say that one period M 148
say that its style M 148
say that any terms M 148
say that all sense M 148
say she was playing M 148
say she did first M 148
say she can never M 148
say how one ought M 148
saw you two girls M 148
saw that his color M 148
saw she was moved M 148
saw her dead father M 148
saw all his works M 148
saw his own small M 147
say they are growing M 146
say that two times M 146
say that this nearly M 146
say that this added M 146
say that they swore M 146
say that that period M 146
say that that cause M 146
say that she stood M 146
say that its point M 146
say that its people M 146
say that its moral M 146
say that its cause M 146
say that all birds M 146
say she was missing M 146
say now that every M 146
say now that after M 146
say how one could M 146
saw that his guide M 146
saw him six times M 146
sat all day waiting M 146
say was that where M 145
saw how they acted M 145
say you are brave M 144
say that they nearly M 144
say that she cried M 144
say that one people M 144
say that god looks M 144
say she had nearly M 144
say how this change M 144
say all that shall M 144
saw that this feeling M 144
saw that they found M 144
saw that his ships M 144
saw that her people M 144
saw she was speaking M 144
saw she had drawn M 144
saw his own hopes M 144
saw him and others M 144
saw all things which M 144
sat with two others M 144
say yes too often M 143
say things that touch M 143
say that this seeming M 143
say and you could M 143
saw two men armed M 143
saw did not exist M 143
say you can build M 142
say you are worse M 142
say that you slept M 142
say that you place M 142
say that her books M 142
say that any major M 142
say she has grown M 142
saw this they asked M 142
saw that war could M 142
saw that this house M 142
saw that that might M 142
saw now that every M 142
saw how few people M 142
saw his men running M 142
saw him and liked M 142
saw all his dreams M 142
sat with them after M 141
say that our total M 140
say that our river M 140
say that our feeling M 140
say that one takes M 140
say that its working M 140
say that its voice M 140
say that god seems M 140
say that each night M 140
say that all motion M 140
say than any since M 140
say she was meeting M 140
say she was false M 140
say how things could M 140
saw how she stood M 140
saw his big hands M 140
saw him far below M 140
saw him and bowed M 140
saw and that which M 140
sat with his black M 140
sad for his mother M 140
saw that his teaching M 139
say they are within M 138
say they are nearly M 138
say that with which M 138
say that this train M 138
say that they quite M 138
say that that child M 138
say that one works M 138
say that his vocal M 138
say that his offer M 138
say that for others M 138
say that any moral M 138
say that all crime M 138
say did not change M 138
say air and water M 138
saw with his naked M 138
saw two men arguing M 138
saw that her color M 138
saw how that could M 138
saw his dear again M 138
saw any one appear M 138
sat for that place M 138
say that this opening M 137
sat with him night M 137
say you are fully M 136
say that this limit M 136
say that this later M 136
say that this delay M 136
say that they sleep M 136
say that she moves M 136
say that our story M 136
say that our music M 136
say that his strong M 136
say that his image M 136
say that her style M 136
say that each outer M 136
say that bad weather M 136
say that any cause M 136
say does not alter M 136
say and then asked M 136
saw you all sitting M 136
saw them that first M 136
saw that they acted M 136
saw red and black M 136
saw his own world M 136
saw him and again M 136
saw but her within M 136
sad for his father M 136
sad and her voice M 136
say that one fourth M 135
say that man first M 135
say that its total M 135
saw was one which M 135
say you set yours M 134
say you get money M 134
say things they really M 134
say that you serve M 134
say that you hoped M 134
say that this route M 134
say that this focus M 134
say that she leaves M 134
say that our times M 134
say that our brain M 134
say that our books M 134
say that his enemy M 134
say that her action M 134
say that any agent M 134
say that all seven M 134
say she was given M 134
say how they found M 134
say his own people M 134
say hang and drown M 134
saw was too small M 134
saw two new birds M 134
saw this boy again M 134
saw them she could M 134
saw that two hours M 134
saw that she ought M 134
saw that his appeal M 134
saw that her sense M 134
saw one man after M 134
saw his own error M 134
saw him she loved M 134
saw but her father M 134
say that our point M 133
saw that his blood M 133
say they can offer M 132
say they are healthy M 132
say them out aloud M 132
say that you rather M 132
say that this season M 132
say that this grace M 132
say that that shall M 132
say has long since M 132
saw two men playing M 132
saw this they cried M 132
saw them she began M 132
saw that his lower M 132
saw that his large M 132
saw that her place M 132
saw him year after M 132
sat one day alone M 132
say that our small M 131
say that his class M 131
saw them for about M 131
say they had moved M 130
say they can trust M 130
say they are raising M 130
say they are built M 130
say that this warning M 130
say that this shell M 130
say that this maxim M 130
say that that party M 130
say that our train M 130
say that few women M 130
say that any color M 130
say one year after M 130
say how things ought M 130
say for two weeks M 130
say and you might M 130
saw too that every M 130
saw them they might M 130
saw that you still M 130
saw that one whole M 130
saw that not every M 130
saw that his pride M 130
saw not her alone M 130
saw how she lived M 130
saw how his people M 130
saw his son running M 130
saw his men begin M 130
saw him she stood M 130
saw her was after M 130
saw her son burning M 130
saw her son after M 130
saw her she cried M 130
saw her and broke M 130
sat and read until M 130
sat all day either M 130
sad and his voice M 130
say that all first M 129
say you had taken M 128
say you can start M 128
say things she could M 128
say that our needs M 128
say that our final M 128
say that his short M 128
say that his grasp M 128
say that her music M 128
say that bit about M 128
say that any small M 128
say that all costs M 128
say she was under M 128
say she had lived M 128
say she had hoped M 128
say man and woman M 128
say all this after M 128
saw you and could M 128
saw two men about M 128
saw them all waiting M 128
saw that she alone M 128
saw that its first M 128
saw that all round M 128
saw his own defeat M 128
saw him she might M 128
saw her she still M 128
sat with him again M 128
sat for two terms M 128
sat all day looking M 128
saw his own writing M 127
saw both his father M 127
saw all this blood M 127
say this with feeling M 126
say that you worry M 126
say that you apply M 126
say that man thinks M 126
say that his logic M 126
say that each period M 126
say that any money M 126
say than all others M 126
saw that its walls M 126
saw that all about M 126
saw she was turning M 126
saw law and order M 126
saw him out after M 126
saw her two older M 126
saw did not match M 126
sat with her daily M 125
say they can count M 124
say they are small M 124
say that they earned M 124
say that that group M 124
say that one meets M 124
say that man comes M 124
say that its scope M 124
say that his bones M 124
say that for anything M 124
say that all agree M 124
say she was putting M 124
say not long since M 124
saw that this group M 124
saw that all within M 124
say that both alike M 123
say see you later M 123
saw that that house M 123
say you may never M 122
say that two parts M 122
say that this trust M 122
say that this tends M 122
say that this forms M 122
say that not knowing M 122
say that his motion M 122
say that his grief M 122
say that all cells M 122
say she was either M 122
say may not apply M 122
say how long since M 122
say his real father M 122
saw you him today M 122
saw things that never M 122
saw them day after M 122
saw them and moved M 122
saw that two large M 122
saw that this paper M 122
saw that that seeming M 122
saw his long labor M 122
saw him yet again M 122
saw him they could M 122
saw him set aside M 122
saw any one enter M 122
saw all her dreams M 122
sat all day writing M 122
sad she was about M 122
say you are above M 121
saw and was moved M 121
say you did right M 120
say who are right M 120
say this with total M 120
say that this chair M 120
say she had spent M 120
say she had quite M 120
say his own share M 120
say his few words M 120
say and not knowing M 120
saw two big black M 120
saw things they could M 120
saw that one after M 120
saw that his clothing M 120
saw men who could M 120
saw any two people M 120
saw any two alike M 120
saw any one looking M 120
saw all his people M 120
sat and then stood M 120
say that her writing M 119
sat with her fixed M 119
say you are meeting M 118
say who had taken M 118
say they are unfit M 118
say they are nothings M 118
say that you count M 118
say that this white M 118
say that one mother M 118
say that each house M 118
say that each event M 118
say that death comes M 118
say that being healthy M 118
say that being black M 118
say that any error M 118
say how you liked M 118
say how she knows M 118
say does not appeal M 118
saw you and asked M 118
saw two men passing M 118
saw this and found M 118
saw that she hated M 118
saw that our father M 118
saw that his reason M 118
saw how they moved M 118
saw his own times M 118
saw her son alive M 118
saw any that could M 118
sat for ten months M 118
sat for him again M 118
say that this color M 117
say that you favor M 116
say that this honor M 116
say that this graph M 116
say that this fight M 116
say that this doubt M 116
say that they exert M 116
say that they dared M 116
say that our focus M 116
say that its rules M 116
say that his looks M 116
say that god leaves M 116
say that all lives M 116
say she was easily M 116
saw them all begin M 116
saw that this order M 116
saw that this claim M 116
saw that she wrote M 116
saw that his chair M 116
saw that her pride M 116
saw one she liked M 116
saw how her whole M 116
saw his way again M 116
saw his dear mother M 116
saw him lying still M 116
saw her she stood M 116
saw her dear mother M 116
saw did not really M 116
sat with him quite M 116
sad that you never M 116
say that this voice M 115
say that this chain M 115
say that our right M 115
say that all teaching M 115
saw two men cross M 115
say this with doubt M 114
say they are calling M 114
say them one after M 114
say that you visit M 114
say that with money M 114
say that this growing M 114
say that our vision M 114
say that her bones M 114
say that her blood M 114
say that god wrote M 114
say that god shall M 114
say that god holds M 114
say that and really M 114
say that all trees M 114
say that all hands M 114
say she hath often M 114
say all you could M 114
saw them this evening M 114
saw them long after M 114
saw she was white M 114
saw our own party M 114
saw not why verse M 114
saw not any cause M 114
saw how they tried M 114
saw how her words M 114
saw how far apart M 114
saw any one killing M 114
saw any man whose M 114
saw all things under M 114
sat with two women M 114
say that his calling M 113
say that each later M 113
say you that which M 112
say you can really M 112
say was not really M 112
say things that ought M 112
say that they faced M 112
say that they easily M 112
say that they aimed M 112
say that that paper M 112
say that that morning M 112
say that our worst M 112
say that its parts M 112
say that its major M 112
say that his wound M 112
say that his gifts M 112
say that her color M 112
say that both parts M 112
say that all sides M 112
say that all might M 112
say she had asked M 112
say how they lived M 112
saw with his right M 112
saw that her offer M 112
saw she had grown M 112
saw not his right M 112
saw how they stood M 112
saw his own place M 112
saw him read anything M 112
sat with you every M 112
say that any force M 111
saw that his wishing M 111
saw her old father M 111
saw her lay aside M 111
say this may appear M 110
say things you really M 110
say things set apart M 110
say they had spent M 110
say they are empty M 110
say they all belong M 110
say that this works M 110
say that this scale M 110
say that our class M 110
say that one seems M 110
say that all older M 110
say that all modes M 110
say she was praying M 110
say how she found M 110
saw that one woman M 110
saw that her green M 110
saw she was older M 110
saw she had begun M 110
saw his end drawing M 110
saw him was under M 110
saw him six weeks M 110
saw her own white M 110
saw her own people M 110
saw her boy playing M 110
sat with you while M 110
sat with his queen M 110
say that his total M 109
say that her feeling M 109
saw him all alone M 109
sat with his short M 109
say this was quite M 108
say they are staying M 108
say they are easily M 108
say they are cutting M 108
say they are creating M 108
say that this merit M 108
say that this false M 108
say that that story M 108
say that that ought M 108
say that that order M 108
say that our ships M 108
say that our press M 108
say that our evening M 108
say that our child M 108
say that its terms M 108
say that his denial M 108
say that her place M 108
say that each people M 108
say that any story M 108
say that any scale M 108
say that all unions M 108
say she had rather M 108
say law and order M 108
say his head never M 108
say but that which M 108
say and you shall M 108
say and hear about M 108
say all she wants M 108
saw them two miles M 108
saw that they dared M 108
saw that her light M 108
saw she was running M 108
saw she was happy M 108
saw one man running M 108
saw how they began M 108
saw how far below M 108
saw him had never M 108
saw her and never M 108
saw for one brief M 108
saw any two could M 108
saw all her beauty M 108
sat with his paper M 108
say you are grown M 107
say that being human M 107
say that all round M 107
say how far either M 107
saw that his upper M 107
saw did not worry M 107
say you are equal M 106
say with her usual M 106
say this was rather M 106
say they can change M 106
say they are valid M 106
say they are badly M 106
say that you offer M 106
say that you fight M 106
say that this worthy M 106
say that this again M 106
say that she treats M 106
say that she built M 106
say that our black M 106
say that man seeks M 106
say that his noble M 106
say that her vision M 106
say that god often M 106
say that for human M 106
say that each local M 106
say that day after M 106
say that bad water M 106
say that any feeling M 106
say she was sitting M 106
saw you out walking M 106
saw them one morning M 106
saw them both within M 106
saw them and found M 106
saw that this issue M 106
saw that that place M 106
saw that she truly M 106
saw our dear father M 106
saw her six weeks M 106
saw all men walking M 106
sat with our books M 106
say that our working M 105
saw was far worse M 105
saw that this water M 105
saw him going round M 105
saw did not belong M 105
say you may easily M 104
say you are today M 104
say you are forty M 104
say things that never M 104
say they did anything M 104
say they can often M 104
say that you built M 104
say that two black M 104
say that this denial M 104
say that things stand M 104
say that that evening M 104
say that our adult M 104
say that one large M 104
say that its force M 104
say that his ideals M 104
say that his goods M 104
say that each author M 104
say that any strong M 104
say that any rules M 104
say that any model M 104
say that all nouns M 104
say she hath taken M 104
say how this power M 104
say how this money M 104
say how one might M 104
say for and about M 104
say but they might M 104
saw two men start M 104
saw two men drive M 104
saw this man enter M 104
saw this and acted M 104
saw that this story M 104
saw that her grief M 104
saw that her breathing M 104
saw that all human M 104
saw how you acted M 104
saw how she loved M 104
saw his son walking M 104
saw him and after M 104
saw her they cried M 104
saw her for weeks M 104
sat with one group M 104
sat with him round M 104
sad that she might M 104
say that this often M 103
say that one either M 103
say for both sides M 103
saw her run right M 103
saw all was right M 103
say with our moral M 102
say this was never M 102
say this may sound M 102
say they are meeting M 102
say they are anything M 102
say that two sides M 102
say that this thinking M 102
say that this award M 102
say that things really M 102
say that they weigh M 102
say that they limit M 102
say that she rules M 102
say that one which M 102
say that one stage M 102
say that one phase M 102
say that new haven M 102
say that men might M 102
say that his share M 102
say that each agent M 102
say that any reader M 102
say that all knowing M 102
say she was black M 102
say not long after M 102
say how they apply M 102
say how she liked M 102
say and how shall M 102
saw who was walking M 102
saw who was looking M 102
saw that this really M 102
saw that its people M 102
saw that its hands M 102
saw that both girls M 102
saw that all people M 102
saw that all forms M 102
saw not one house M 102
saw not his image M 102
saw how his whole M 102
saw any one quite M 102
sat they that night M 102
say that this labor M 101
say you can stand M 100
say you are again M 100
say this are really M 100
say they are sitting M 100
say they are older M 100
say they are found M 100
say that that noble M 100
say that our period M 100
say that lay people M 100
say that his guilt M 100
say that his every M 100
say that any author M 100
say red and white M 100
say does not imply M 100
say and that truly M 100
saw with his first M 100
saw who was really M 100
saw this and moved M 100
saw them they began M 100
saw them both taken M 100
saw that this event M 100
saw that she again M 100
saw old men whose M 100
saw its new shape M 100
saw how and where M 100
saw his eye fixed M 100
saw him off again M 100
saw him not above M 100
saw all this money M 100
saw all that which M 100
sat for its first M 100
say you are fifty M 99
say that one right M 99
say that its holding M 99
say that all eight M 99
saw him lying prone M 99
say you are after M 98
say they are wanting M 98
say that you share M 98
say that war makes M 98
say that two forms M 98
say that this layer M 98
say that they cried M 98
say that they catch M 98
say that they based M 98
say that his humor M 98
say that both works M 98
say that both belong M 98
say that being aware M 98
say that all verbs M 98
say that all terms M 98
say that all night M 98
say she was bored M 98
say how this comes M 98
say how that could M 98
say how any given M 98
say does not bother M 98
say but god bless M 98
saw two big drops M 98
saw this big white M 98
saw them too often M 98
saw that you never M 98
saw that this first M 98
saw that our lives M 98
saw that its moral M 98
saw our old house M 98
saw his own empty M 98
saw her son enter M 98
saw her own small M 98
saw all her mother M 98
sat with his guest M 98
sat with his class M 98
sat one day beneath M 98
sat for her first M 98
sad and she walks M 98
say that that whole M 97
say that now after M 97
say you may drive M 96
say was all right M 96
say things that words M 96
say that year after M 96
say that with total M 96
say that this truly M 96
say that this joint M 96
say that this fluid M 96
say that this cruel M 96
say that this board M 96
say that they breathe M 96
say that she tries M 96
say that one still M 96
say that one house M 96
say that its final M 96
say that god keeps M 96
say that any words M 96
say that any leader M 96
say that all items M 96
say she was stuck M 96
say she was forty M 96
say but that every M 96
say but not knowing M 96
saw you but twice M 96
saw you all again M 96
saw who was getting M 96
saw who she really M 96
saw that they often M 96
saw that she often M 96
saw that its whole M 96
saw that his world M 96
saw that his vision M 96
saw that his strong M 96
saw that his green M 96
saw that his brave M 96
saw that her wrist M 96
saw that her upper M 96
saw that both women M 96
saw she had moved M 96
saw how her beauty M 96
saw his son looking M 96
saw him and headed M 96
saw her lying still M 96
saw her head appear M 96
saw her and moved M 96
sat for his exams M 96
sat for him while M 96
sad that they might M 96
sad for this woman M 96
say that too large M 95
saw that this force M 95
saw that red light M 95
say with her whole M 94
say this any longer M 94
say they had anything M 94
say they can raise M 94
say they are known M 94
say that two cases M 94
say that this quest M 94
say that this actor M 94
say that they ruled M 94
say that they match M 94
say that she stole M 94
say that our honor M 94
say that one feeling M 94
say that man tends M 94
say that his meeting M 94
say that each value M 94
say that being tried M 94
say she was built M 94
say one can never M 94
saw you with today M 94
saw you with money M 94
saw them far below M 94
saw them being beaten M 94
saw them and lived M 94
saw that two weeks M 94
saw that this model M 94
saw she was missing M 94
saw one man holding M 94
saw how she moved M 94
saw his dead child M 94
saw her this night M 94
sat with its engine M 94
sat with him beneath M 94
sat and ate while M 94
sad man for getting M 94
sad and yet happy M 94
say that any plant M 93
saw with his hands M 93
saw with her inner M 93
say you are stuck M 92
say with our words M 92
say why this might M 92
say why they could M 92
say why she wants M 92
say was that under M 92
say they are headed M 92
say they are brave M 92
say they are beaten M 92
say that with anything M 92
say that they infer M 92
say that our every M 92
say that one strong M 92
say that one gives M 92
say that one color M 92
say that god began M 92
say that god acted M 92
say that both words M 92
say that being royal M 92
say that any notion M 92
say she was truly M 92
say she has looks M 92
say now that women M 92
say his own words M 92
say for his mother M 92
say can not equal M 92
saw you two walking M 92
saw with him forty M 92
saw why she could M 92
saw who they really M 92
saw them you could M 92
saw them and broke M 92
saw that they hated M 92
saw that his needs M 92
saw that her chair M 92
saw his son enter M 92
saw his own words M 92
saw him with others M 92
saw him they burst M 92
saw him for months M 92
saw her they could M 92
saw her own smile M 92
saw her head bowed M 92
sat with them beneath M 92
sat one day under M 92
sat near and began M 92
sat for ten weeks M 92
say you are father M 91
say was that maybe M 91
say that this cross M 91
say yes and marry M 90
say was his first M 90
say this was really M 90
say they had hoped M 90
say they can build M 90
say they are winning M 90
say they are walking M 90
say they are cured M 90
say that this keeps M 90
say that they honor M 90
say that six hours M 90
say that one moral M 90
say that one looks M 90
say that his essay M 90
say that his deeds M 90
say that his cause M 90
say that god still M 90
say that any danger M 90
say that all really M 90
say she was wanting M 90
say she was walking M 90
say she hath nearly M 90
say she had loved M 90
say how they stand M 90
say for her whole M 90
say each one aloud M 90
saw you doing anything M 90
saw this she cried M 90
saw this man until M 90
saw that they faced M 90
saw that our first M 90
saw that his tutor M 90
saw that his steps M 90
saw one man taken M 90
saw one man carry M 90
saw his own bones M 90
saw his head bowed M 90
saw him all black M 90
saw her not after M 90
saw her cry again M 90
saw but two cases M 90
saw any one about M 90
sat with him morning M 90
say they are blind M 89
say that all labor M 89
saw that big black M 89
say you may stand M 88
say with his hands M 88
say why not today M 88
say they are treating M 88
say that you feared M 88
say that with nearly M 88
say that this block M 88
say that things ought M 88
say that they named M 88
say that that stuff M 88
say that she truly M 88
say that she either M 88
say that our paper M 88
say that our ideals M 88
say that our blood M 88
say that one acted M 88
say that men whose M 88
say that its claim M 88
say that his heroes M 88
say that his alarm M 88
say that both cases M 88
say that all units M 88
say that all lines M 88
say she had moved M 88
say but not quite M 88
saw you one morning M 88
saw was that people M 88
saw was one drawn M 88
saw them for months M 88
saw them all walking M 88
saw that our hopes M 88
saw that one night M 88
saw that his voice M 88
saw that his cunning M 88
saw six and thirty M 88
saw one and could M 88
saw how you loved M 88
saw his long white M 88
saw his big black M 88
saw him and where M 88
saw her own power M 88
saw her dear father M 88
saw her and bowed M 88
saw but one human M 88
saw and did after M 88
sat out his first M 88
sat each man under M 88
sad you are about M 88
say was that though M 87
say that all later M 87
saw not his light M 87
say you are missing M 86
say you are keeping M 86
say this day shall M 86
say they had every M 86
say they can write M 86
say they can carry M 86
say they are parts M 86
say they are missing M 86
say that you study M 86
say that you fully M 86
say that two goods M 86
say that this father M 86
say that they ranged M 86
say that they dwelt M 86
say that they breed M 86
say that she plans M 86
say that she earned M 86
say that its color M 86
say that his elder M 86
say that his change M 86
say that for money M 86
say that each method M 86
say that being happy M 86
say that all games M 86
say that all feeling M 86
say that all doubt M 86
say she was plain M 86
say she has often M 86
say red and black M 86
say our few words M 86
say how they first M 86
say how she loved M 86
say does not prove M 86
say are not really M 86
say and was about M 86
say and then start M 86
say all this under M 86
saw who was still M 86
saw who was seated M 86
saw things going badly M 86
saw they had built M 86
saw that this evening M 86
saw that one party M 86
saw that its power M 86
saw his two hands M 86
saw him each morning M 86
saw her too often M 86
saw but one light M 86
sat with this group M 86
sat with our hearts M 86
sat with his cloak M 86
sat with him holding M 86
say and not wanting M 85
saw was one small M 85
say you had asked M 84
say you are turning M 84
say why she thinks M 84
say things she might M 84
say things are worse M 84
say they had slept M 84
say they all yield M 84
say then that since M 84
say that you grant M 84
say that you drive M 84
say that you change M 84
say that this lower M 84
say that they which M 84
say that they argue M 84
say that that really M 84
say that that piece M 84
say that that gives M 84
say that man loves M 84
say that law never M 84
say that his terms M 84
say that his legal M 84
say that her quick M 84
say that god turns M 84
say that each model M 84
say that any price M 84
say that any order M 84
say that all civil M 84
say she was sweet M 84
say its all right M 84
saw you too every M 84
saw who had known M 84
saw they had begun M 84
saw them one evening M 84
saw them all lined M 84
saw that his leader M 84
saw that her story M 84
saw that her power M 84
saw that all signs M 84
saw she was walking M 84
saw our men running M 84
saw him then could M 84
saw her son seated M 84
saw her and after M 84
sat near her table M 84
sad for any cause M 84
sad and yet proud M 84
sad and mad about M 84
sad and bad times M 84
say that all growth M 83
say that all adult M 83
say why she chose M 82
say things that appear M 82
say they are upset M 82
say that this vowel M 82
say that this poetic M 82
say that they repeat M 82
say that than anything M 82
say that she dared M 82
say that red cloud M 82
say that our place M 82
say that its logic M 82
say that his women M 82
say that his force M 82
say that her state M 82
say that both books M 82
say that all beauty M 82
say she was anything M 82
say may not please M 82
say how far human M 82
say his two words M 82
say for now about M 82
say all was right M 82
saw was not anything M 82
saw that his wrist M 82
saw that his hours M 82
saw that his feeling M 82
saw that both hands M 82
saw she was truly M 82
saw one man walking M 82
saw his old house M 82
saw him who could M 82
saw him out again M 82
saw him lying quite M 82
saw her own smiling M 82
saw cut and thrust M 82
saw but two small M 82
saw but too truly M 82
saw any old woman M 82
saw and saw again M 82
sat with her often M 82
sat and she stood M 82
sad that you might M 82
sad now are happy M 82
say that this clock M 81
say that all playing M 81
saw them all alone M 81
say you are lacking M 80
say you are cured M 80
say you are blind M 80
say who they might M 80
say who may enter M 80
say they may never M 80
say they did aught M 80
say then that after M 80
say that you sleep M 80
say that this vital M 80
say that this pupil M 80
say that this blind M 80
say that that meeting M 80
say that she tends M 80
say that one study M 80
say that his watch M 80
say that his order M 80
say that his civic M 80
say that all users M 80
say but you might M 80
saw things she could M 80
saw that this party M 80
saw that this image M 80
saw that six times M 80
saw that she asked M 80
saw that new forms M 80
saw that his store M 80
saw that his beauty M 80
saw she was pleasing M 80
saw she was playing M 80
saw men with white M 80
saw how you tried M 80
saw his own vision M 80
saw him and burst M 80
saw her son playing M 80
saw her and wrote M 80
saw both his hands M 80
saw all his books M 80
sat one day looking M 80
sat near her looking M 80
sat his big black M 80
sat and ate under M 80
sat all one night M 80
say that god rules M 74
say you are either M 73
say that all working M 69
say that any sound M 67
saw them all round M 67
say that all above M 64
say that one first M 58
saw was that every M 57
saw them going round M 56
saw him get upset M 56
say she was thirty M 55
say that this drawing M 50
say that old women M 49
say you are thirty M 48
say that that right M 48
say that all killing M 48
saw him out front M 48
say that all light M 47
saw but one error M 47
say they are first M 46
say that one light M 46
say that his finding M 46
saw that its light M 45
say that they equal M 44
say that any world M 44
saw not one human M 44
saw him was right M 44
saw him lay aside M 44
sat and act testing M 44
say that for either M 43
say that few books M 43
say that dead people M 43
saw you out front M 43
saw was not pleasing M 43
saw did not quite M 43
say was not quite M 42
say that too about M 42
say that his passing M 42
say that real space M 41
say that not alone M 41
say that god shows M 41
say for any given M 41
saw you two sitting M 41
saw was not human M 41
say things that later M 40
say not that either M 40
saw that his elder M 40
say that they would D 70394
say that she would D 36032
say that you would D 28382
saw that they would D 12530
say that this would D 10672
saw that she would D 9212
saw that this would D 6494
say things that would D 4720
sat with her knees D 3270
sat with his knees D 3134
say that that would D 2987
say how they would D 2976
say that one would D 2956
sac and fox tribe D 2624
say that god would D 2608
saw him and waved D 2342
sac and fox nation D 2268
say how you would D 1882
saw her and waved D 1736
say they are tired D 1452
saw him she would D 1408
say you are tired D 1406
saw him and spoke D 1400
saw that his fingers D 1398
say things they would D 1366
say that this court D 1243
say she was crazy D 1242
saw him they would D 1212
sat with his elbow D 1210
say that his chief D 1198
saw that his uncle D 1160
sat with his fingers D 1108
saw that you would D 1084
say that thou didst D 1061
saw them and waved D 1024
saw that her dress D 1010
saw that his shirt D 974
saw that her fingers D 966
say that all social D 954
sad that she would D 952
saw them they would D 928
say that all kinds D 898
sang one song after D 888
say that things would D 886
say that this nation D 869
say that this novel D 856
saw that his horse D 824
say she was tired D 808
sat with her fingers D 778
say that our nation D 760
saw that that would D 752
say that its chief D 740
say that god speaks D 740
saw her she would D 740
sat with her elbow D 714
say that this scene D 698
say that all would D 675
sang day and night D 639
say how she would D 636
saw how they would D 628
saw her and spoke D 626
say that all souls D 624
say that his uncle D 618
saw two men talking D 614
say that his horse D 604
say that they voted D 594
say that they spoke D 594
say that this region D 586
say you are crazy D 584
say they are bound D 579
saw her you would D 576
saw how she would D 566
say that his mercy D 561
say how things would D 546
sang and sang until D 546
saw that his chest D 544
say things you would D 540
say you are talking D 538
say that men would D 536
saw him and fired D 520
say you are driving D 514
say that this treaty D 512
sad that they would D 508
say you are bound D 506
saw that god would D 502
saw that her uncle D 490
saw that her lover D 488
say that god spoke D 486
say you are merry D 482
saw she was staring D 468
say that this social D 456
say that our social D 450
sat with his rifle D 450
say that this level D 438
say that she spoke D 436
say that she plays D 434
say that all roads D 434
saw that his boots D 434
say that she frown D 433
say that this stone D 428
sang with one voice D 428
saw but one bible D 424
say that they drink D 418
sang his song again D 418
saw that she spoke D 414
saw her they would D 414
saw him you would D 410
saw them you would D 408
say that our souls D 402
saw one that would D 402
say and she would D 393
say that one nation D 392
saw who was driving D 391
say things she would D 390
say how this would D 390
sac and fox lands D 386
say that they slack D 372
say that our chief D 372
sat with one elbow D 372
sat with her cheek D 362
sat with his fists D 356
sang for two hours D 354
say that man would D 348
saw that his chief D 340
say that any nation D 339
say they are talking D 338
say that this trait D 336
sac and fox agent D 336
saw his head bobbing D 334
say that this horse D 332
sang this song about D 332
say that both kinds D 330
saw that her cheek D 330
say now that would D 328
saw she was telling D 326
sat eating and talking D 321
sat with his staff D 320
say that his plays D 318
say how few roods D 318
say she was raped D 314
saw that her nails D 314
say that this title D 312
say they can smell D 308
say and how would D 306
sang that song about D 306
saw she was weeping D 302
say that his taste D 300
say that she lacks D 298
say that each nation D 298
saw them and fired D 298
saw that his pants D 298
saw that all would D 298
saw that his brows D 296
say that any social D 284
say why they would D 282
saw that things would D 280
saw how things would D 280
sat with his glass D 280
saw him wear anything D 278
say that this thesis D 277
say that two kinds D 276
saw him and shook D 276
say that this trade D 274
say they are loyal D 272
saw that his rival D 271
say that they smoke D 268
saw that his sword D 268
saw that his penis D 264
say that you spoke D 260
say that our trade D 260
say that all firms D 258
saw him and would D 258
sat with his boots D 258
saw them get springs D 256
saw you two talking D 254
saw them and spoke D 254
saw that her skirt D 254
say how that would D 248
say that her uncle D 244
say with his tongue D 242
say that his social D 242
sat with his sword D 242
say that death would D 240
saw his own ghost D 240
say that this flesh D 238
say how far mercy D 238
saw that her throat D 238
saw that her niece D 236
sang with her usual D 236
saw things that would D 234
saw that his niece D 234
saw that her chest D 232
saw she was shaking D 232
sat with his broad D 232
say that thou shalt D 228
say that gay people D 228
saw that his cheek D 228
saw them all staring D 226
sat with his shirt D 226
say with our mouths D 224
saw that both boats D 222
sat with his palms D 222
sat with her bible D 222
sang and sang again D 222
say things that shock D 220
saw him and sprang D 220
sat with his cigar D 220
say that real wages D 219
say with our tongue D 218
sat with our noses D 218
sat and ate lunch D 218
sat with our mouths D 216
sat with our faces D 216
sat with her maids D 216
say that they paint D 210
say that each level D 210
saw them she would D 210
saw his head shake D 209
say that this dress D 206
sat with his cheek D 206
say that you drink D 204
say that our solar D 204
saw that war would D 204
saw that its title D 202
saw that her skill D 202
say that his skill D 200
saw that her purse D 200
sat eating his lunch D 200
sang his own music D 200
say why you would D 198
say and they would D 198
saw his head thrown D 198
sat with his heels D 198
sac and fox people D 198
saw she was talking D 196
sang with his whole D 196
sac and fox chief D 196
saw his jaw tense D 194
sang for him alone D 194
say that this stock D 190
say that heat flows D 190
say all this would D 190
saw that his knees D 190
saw that his glass D 189
say you are telling D 188
say that his flesh D 188
saw his long fingers D 188
saw them and would D 186
saw his car drive D 186
say that thou canst D 185
saw two men digging D 184
saw that they spoke D 184
saw that his tongue D 184
say that she longed D 182
sat with his uncle D 182
say that his ghost D 180
saw that day would D 180
say she was drunk D 179
say and that would D 179
say that this rushing D 178
saw she was tired D 178
sat with his bible D 178
say they are serving D 176
say that each region D 176
saw his men wasting D 176
sat with his brows D 176
saw was all heathen D 175
say that both sexes D 174
say she was driving D 174
saw this they would D 174
saw one boy faint D 174
sat with his tongue D 174
sat singing and talking D 174
sap that can cause D 174
say that you drove D 172
say that two wrongs D 172
say that this drama D 172
say that this curve D 172
say she was talking D 172
say god was tired D 172
saw ups and downs D 172
saw that she leaned D 172
saw that his throat D 170
saw that his nails D 170
saw that her belly D 169
say that was funny D 168
say that they flock D 168
say that she speaks D 168
say that his thesis D 168
saw that thou hadst D 168
saw his own horse D 168
saw all that moses D 168
sang his song about D 168
say that this broad D 166
sang that song again D 166
saw his head droop D 165
say that war would D 164
say that thou hadst D 164
saw how this would D 164
saw all her crows D 164
sat with our knees D 164
sat with her spine D 164
sang with her breast D 164
saw two men fishing D 163
say you can smell D 162
say that his title D 162
saw you and spoke D 162
say that his films D 160
say that for sheer D 160
saw this guy running D 160
say why she would D 158
say that one ounce D 158
say they had voted D 156
say that this opera D 156
say that this basis D 156
say that his reign D 156
say that all mouths D 156
say that this organ D 155
say that few would D 154
saw that her bosom D 154
saw him she spoke D 154
sat with head thrown D 154
sang this song while D 154
say who they would D 152
say they are crazy D 152
say that two nodes D 152
saw not one prude D 152
say that this movie D 150
say that one region D 150
say that all wages D 150
sat with his mates D 150
saw that man would D 148
saw that his fists D 148
say you can shoot D 146
say that this dance D 146
say that they taste D 146
say that one pound D 146
say that all males D 146
say that all films D 146
saw one who would D 146
saw him and froze D 146
say that this snake D 145
say that two atoms D 144
say that his sight D 144
say that each grain D 144
say that both would D 144
say any man would D 144
say all that would D 144
say that his chest D 142
say how one would D 142
saw how his fingers D 142
saw his jaw working D 142
saw him she waved D 142
saw her old lover D 142
sat eating our lunch D 142
say that they sprang D 140
say that old peter D 140
say that all plays D 140
saw him wear linen D 140
sat with her lover D 140
sac with thin walls D 139
say they are telling D 138
say that all trade D 138
saw that his palms D 138
saw that her knees D 138
saw him then would D 138
saw her head bobbing D 138
sap day and night D 138
sat with his court D 137
say they all would D 136
say that hot water D 136
say that her lover D 136
saw her and dived D 136
sat with her fists D 136
say that this shews D 134
say that this glass D 134
say that sir harry D 134
say that all crows D 134
saw this guy walking D 134
saw that guy again D 134
say that our savior D 132
saw she was swaying D 132
saw one she would D 132
saw all that would D 132
say who had fired D 130
say that her motto D 130
say that all races D 130
saw that her shirt D 130
saw her old flame D 130
sang them with gusto D 130
say that his novel D 129
say thou art under D 128
say that this tribe D 128
say that our fleet D 128
say that hit shall D 128
say that his niece D 128
say that fat people D 128
saw that one would D 128
saw that his limbs D 128
saw her wear anything D 128
sad that you would D 128
say that this epoch D 127
say that this brand D 127
say you are wasting D 126
say they can dress D 126
say that they fired D 126
say she was silly D 126
saw that his bride D 126
saw that all kinds D 126
saw his old corps D 126
sang with her mother D 125
say that all foods D 124
saw who was talking D 124
saw them all march D 124
saw her and froze D 124
saw any that would D 124
sat with his plump D 124
sang that they would D 124
sang and beat drums D 124
say that this tract D 122
say that they erred D 122
saw this she would D 122
sat with her dress D 122
say that her dress D 120
saw that men would D 120
saw that his arrow D 120
say and who would D 119
say that his widow D 118
say that his fingers D 118
say that all taxes D 118
say now you would D 118
saw this and spoke D 118
saw that his truck D 118
saw that her glass D 118
saw its low broad D 118
saw how her fingers D 118
saw his own plays D 118
saw but one horse D 118
sat with her uncle D 118
sang with his usual D 118
sang and was happy D 118
say you are drunk D 117
say this with tongue D 117
say that this fusion D 116
say that sin would D 116
say that one speaks D 116
say that one level D 116
say that oil spread D 116
say than you durst D 116
say how they voted D 116
say and you would D 116
saw his own flesh D 116
saw her with sharp D 116
saw meat and drink D 115
say you are burying D 114
saw that his rifle D 114
saw that his flesh D 114
saw how that would D 114
sang with her father D 114
sang with her whole D 113
say that two stars D 112
say that its speed D 112
say that any court D 112
saw you and uncle D 112
sat out one dance D 112
sang her song again D 112
sac and fox women D 112
say that this weapon D 110
say that his staff D 110
say that all drugs D 110
saw that his dress D 110
sat with his bride D 110
sat with her purse D 110
sang with his hands D 110
sad that thou canst D 110
sad and she would D 110
sac with one opening D 110
say that its social D 108
say that both plays D 108
say that all sales D 108
say that all banking D 108
saw them all dancing D 108
saw that his loyal D 108
saw one old negro D 108
sat with his drink D 108
say that they smell D 106
say that they shine D 106
saw that they boded D 106
saw that each brace D 106
saw fit and would D 106
sat with her skirt D 106
sang for her father D 106
say thus you would D 104
say they are social D 104
say that one score D 104
saw his own wraith D 104
saw him now would D 104
sat with him talking D 104
sat with her brows D 104
sat with her apron D 104
sat eying our party D 104
saw her head shake D 103
sang was one which D 103
say you are loyal D 102
say they are changing D 102
say that his trade D 102
say that all homes D 102
say all they would D 102
sad eve with shame D 102
say that his grave D 101
say than they would D 101
say that with tongue D 100
say that this score D 100
saw that two kinds D 100
saw that one nation D 100
saw that his skull D 100
saw her and would D 100
sat with his chest D 100
say that this tower D 98
say that our boats D 98
say that his fancy D 98
say that art ought D 98
saw that man talking D 98
saw one man drunk D 98
saw how our faces D 98
sat with her mending D 98
sat and had lunch D 98
sang with them until D 98
sac and fox leader D 98
sat with her shawl D 97
say you can drink D 96
say things are changing D 96
say they are dirty D 96
say that you voted D 96
say that this rapid D 96
say that that treaty D 96
say that that nation D 96
say that his court D 96
say that god lacks D 96
say than one would D 96
saw them with fresh D 96
saw that his staff D 96
saw she was hooking D 96
sat all day staring D 96
say they are roman D 95
sac with its blood D 95
say yes and would D 94
say that was fresh D 94
say that our flesh D 94
say that one social D 94
say that each tribe D 94
say that any level D 94
say that all atoms D 94
saw you they would D 94
saw two men driving D 94
saw his two fingers D 94
saw him and leaned D 94
saw her for lunch D 94
sat with our coats D 94
sat with her palms D 94
sang with his father D 94
say you are smart D 92
say you are setting D 92
say they are liable D 92
say that this shock D 92
say that this index D 92
say that this hotel D 92
say that one stone D 92
say that one horse D 92
say that its basis D 92
say she was bound D 92
saw two men rolling D 92
saw two men kissing D 92
saw that they shone D 92
saw that its throat D 92
saw that his court D 92
saw his car sitting D 92
sat with its doors D 92
sat one day talking D 92
say they are fleeing D 90
say that her tongue D 90
say how thou didst D 90
say for this silly D 90
say but they would D 90
saw them both staring D 90
saw that our boats D 90
saw that his stick D 90
saw that her tongue D 90
saw his head rolling D 90
saw him she sprang D 90
saw her head nodding D 90
sang his dying notes D 90
sang for her mother D 90
say that deaf people D 89
sang them out right D 89
say they are setting D 88
say that sir roger D 88
say that his tongue D 88
saw this and fired D 88
saw them and longed D 88
saw them all piled D 88
saw that our geese D 88
saw that his throne D 88
saw that his shaft D 88
saw how her lover D 88
saw his own sword D 88
saw her now would D 88
sat with real wives D 88
sat with her plump D 88
sang that song which D 88
say they use drugs D 86
say they are taxed D 86
say that this genre D 86
say that she froze D 86
say that its level D 86
say that his score D 86
say that all ethnic D 86
say how long would D 86
say all one would D 86
saw this guy sitting D 86
saw that thou didst D 86
saw that his plate D 86
saw him thus beset D 86
saw that its chief D 85
say that this taste D 84
say that this sight D 84
saw two new faces D 84
saw that his nation D 84
saw that his breast D 84
saw that both doors D 84
saw one old witch D 84
saw one hag boiling D 84
saw his red tongue D 84
saw her own shock D 84
sat with one grimy D 84
sat with one ankle D 84
sang this song which D 84
say you are rogue D 82
say that this motif D 82
say that this fruit D 82
say that she drove D 82
say that our rooms D 82
say that one grain D 82
say that one drove D 82
say that all rates D 82
saw you she would D 82
saw with his glass D 82
saw things one would D 82
saw that his smooth D 82
saw that his fleet D 82
saw that his fiery D 82
saw that his broad D 82
saw his two knees D 82
sat with our fingers D 82
sang his own hymns D 82
sang for his mother D 82
say than this pagan D 81
say why this would D 80
say that our stock D 80
say that his dealings D 80
say that her ghost D 80
say that all staff D 80
say that all gases D 80
saw that she shook D 80
saw that his belly D 80
saw that her fists D 80
saw that her ankle D 80
saw that death would D 80
saw her and shook D 80
sat with his plate D 80
say she was gonna D 64
sat and sun lunch D 64
saw you two kissing D 63
saw her head droop D 58
say one that would D 54
sat with his chief D 53
saw with his fingers D 50
say they get tired D 46
say that this roman D 45
say that this split D 44
saw you two dancing D 44
saw his old rival D 43
say that was jolly D 41
say that this speed D 40
saw that his ankle D 40
saw his arm shoot D 40
