say a word to M 162882
say a word or M 78803
say a word in M 55182
say a word of M 48812
saw a pair of M 46177
say a word on M 25260
saw a look of M 21318
saw a copy of M 20450
saw a line of M 19842
say a word as M 17486
say i want to M 16065
saw a need to M 15322
say i have no M 13887
saw a band of M 11624
saw a kind of M 10478
say i think it M 10384
saw a pile of M 10214
saw a case of M 9310
saw a body of M 8894
say i have to M 8215
saw a mass of M 8204
saw a sort of M 7674
saw a rise in M 7594
saw a hint of M 7376
saw a part of M 6566
saw a threat to M 5366
say i think the M 5044
saw a hole in M 4994
say i like the M 4870
saw a host of M 4736
say i have the M 4690
saw a girl in M 4576
say i like it M 4506
saw a case in M 4478
saw a sign of M 4380
saw a drop of M 4258
say a good thing M 4202
say a word at M 4090
saw a sign on M 3770
saw a side of M 3770
saw a means of M 3736
saw a sign in M 3716
saw a lady in M 3688
say i will be M 3622
say i will do M 3542
saw a girl of M 3496
say a word the M 3430
saw a list of M 3348
saw a knot of M 3062
saw a range of M 3004
say a word he M 2952
saw a well of M 2930
say i find it M 2880
say i have an M 2858
say a word if M 2816
say i think he M 2814
saw a break in M 2692
say i wish to M 2686
say i must be M 2604
saw a face in M 2474
saw a drop in M 2432
saw a look in M 2354
say i said so M 2349
saw a fire in M 2248
say i know it M 2198
say i need to M 2074
say a kind of M 2060
say i went to M 2006
say i know the M 1910
saw a fire of M 1856
say i like to M 1848
say i must go M 1836
say a week or M 1828
saw a lack of M 1816
say i used to M 1736
say a sort of M 1736
say a single thing M 1680
saw a book in M 1674
saw a rash of M 1634
sat a pair of M 1632
say a month or M 1614
saw a file of M 1614
say i have my M 1610
say a part of M 1570
saw a face he M 1550
say a pair of M 1542
saw a face at M 1538
say i know of M 1522
say i think we M 1502
say i knew it M 1494
say i came to M 1462
saw a rush of M 1456
saw a fall in M 1422
saw a ship in M 1416
saw a rise of M 1398
saw a play in M 1390
saw a note on M 1390
say i will go M 1388
saw a nest of M 1348
saw a look on M 1345
saw a girl on M 1246
saw a book of M 1236
saw a bird in M 1234
saw a loss of M 1214
say i wish it M 1198
saw a book on M 1196
saw a video of M 1138
saw a fire on M 1136
saw a thread of M 1134
say i love the M 1104
say a word by M 1088
saw a ship at M 1078
say i lost my M 1076
saw a lady of M 1044
saw a form of M 1040
saw a well in M 1030
say i hope to M 1024
saw a bird of M 1022
say i find the M 1004
saw a hope of M 998
saw a threat in M 984
say i made the M 974
saw a face of M 968
say i made it M 966
say i felt the M 948
say a third of M 944
say i feel the M 940
say i love my M 932
saw a good thing M 924
say i think so M 917
say i said it M 898
saw a need in M 894
saw a bank of M 894
say i have it M 890
saw a girl so M 871
saw a tree in M 868
saw a copy in M 866
saw a pair in M 862
saw a show on M 852
saw a work of M 826
say a body is M 824
say i must do M 816
saw a load of M 812
saw a girl at M 812
saw a city of M 808
say i love it M 802
saw a pair on M 794
say a mass in M 792
saw a girl he M 788
saw a body in M 784
say a mass of M 778
saw a door in M 774
say i grew up M 758
say i feel it M 744
saw a game of M 744
say i want the M 738
saw a bird on M 738
saw a ship on M 734
saw a sign at M 732
saw a face so M 729
say a form of M 728
say i live in M 720
saw a type of M 720
saw a wealth of M 718
say i hope he M 712
saw a flaw in M 710
say i gave it M 704
saw a play by M 702
saw a lull in M 694
saw a note in M 678
saw a play of M 670
say i fell in M 661
say a book is M 658
say i meant to M 650
saw a means to M 648
say i knew the M 646
saw a show of M 646
saw a play at M 644
sat a girl of M 644
saw a land of M 642
say i hope it M 640
saw a youth of M 634
saw a length of M 634
say a word is M 612
say a list of M 594
saw a dream in M 586
saw a ship of M 582
say i want it M 580
sat a lady in M 580
say i hate it M 576
say i felt as M 576
saw a lady on M 576
say a lack of M 572
saw a city in M 572
say a hell of M 566
say i wish we M 558
say a work of M 554
saw a meaning in M 554
say i want my M 546
say i come no M 538
saw a curl of M 538
saw a baby in M 538
saw a pair at M 534
saw i must be M 526
say i feel as M 524
saw a move to M 522
say i have in M 519
saw a lake of M 518
say i think of M 515
say i seem to M 506
saw a view of M 506
say i left the M 504
saw a body on M 500
say i like my M 492
say i take the M 490
saw i meant it M 490
saw a life of M 486
say i lost it M 484
saw a town of M 480
saw a ship to M 478
sat a girl in M 474
say a word so M 472
say a mind or M 466
say a line of M 464
say i fail to M 460
say i take no M 458
sat a pile of M 458
saw a tree of M 454
saw a fall of M 452
say i wish he M 450
say i have so M 450
saw a nest in M 448
say a good or M 446
say i play the M 444
saw a note of M 444
saw a youth in M 440
saw a face as M 438
say i hate the M 436
saw a page of M 436
say a host of M 434
sat a lady of M 432
saw a time of M 430
say a work is M 428
saw a door on M 424
say i felt it M 422
say i know no M 420
say i heard it M 420
say a line is M 416
say i have at M 414
saw a fire at M 408
say i hope so M 407
say i hope the M 406
saw a form in M 404
say i just do M 402
saw a mark on M 402
saw a cave in M 402
say a tree is M 396
saw a baby of M 396
say i came in M 392
say a tenth of M 392
saw a depth of M 392
saw a room in M 390
saw a fish in M 390
saw a door at M 390
say i know my M 386
saw a hand in M 382
say i made no M 380
saw a book by M 376
saw a side to M 374
saw a lady at M 374
say i heard the M 370
saw a threat of M 368
saw a lock of M 368
say i hope we M 364
saw a tree on M 364
saw a hell of M 360
saw a more or M 358
say i miss the M 356
saw a door of M 356
say i hate to M 352
saw a mist of M 348
say i made my M 346
saw a spring of M 346
saw a line in M 346
saw a sign to M 344
saw a hand on M 342
say a mass on M 340
saw a wild thing M 340
say i think my M 339
say a ship is M 338
saw a plan of M 336
saw a word of M 330
saw a case at M 330
say i wish the M 328
say i have as M 325
say a girl is M 324
saw a flag of M 324
sat a line of M 324
say a line or M 322
saw a town in M 322
saw a male in M 322
say i need the M 320
say i done it M 320
say a mile or M 318
saw a fish of M 318
say i sent it M 316
saw a third of M 312
saw a copy at M 310
saw a jump in M 308
saw a face on M 308
say i make my M 304
saw a tree or M 302
saw a door to M 302
say a body of M 300
saw a risk of M 300
saw a flow of M 298
say i come to M 296
saw a name on M 296
saw a city or M 296
say i love to M 294
say i gave the M 294
say i kind of M 292
say i left my M 290
say i gave my M 290
say i make the M 288
saw a monk of M 288
say i take it M 284
saw a living thing M 284
saw a bird at M 282
saw a monk in M 280
say i felt no M 278
saw a girl as M 278
saw a fold of M 276
say i lost the M 270
say a hard thing M 270
say a drop of M 266
say i left it M 262
say i give it M 262
saw a trial of M 262
say i sort of M 260
saw a wood of M 258
saw a rush in M 258
saw a face or M 258
say i know he M 254
say a bold thing M 254
saw a game in M 254
say a gift is M 252
saw a mark of M 252
say a third or M 250
say a word it M 248
saw a dream of M 248
say a range of M 246
saw a play on M 246
saw a mode of M 246
saw a gain of M 246
saw a hill of M 244
sat a part of M 244
say a mass to M 242
say i kept my M 240
say a kind thing M 240
say i were to M 238
say a rise in M 238
saw a work by M 236
say i knew of M 232
say a word we M 232
say a week at M 232
saw a turn in M 232
saw a town so M 232
say i look at M 230
sad a tale to M 230
say a test is M 228
say a theory of M 226
saw a sign up M 224
say a type of M 222
say a case of M 222
saw a ship go M 222
saw a road to M 222
saw a mask of M 222
sat a band of M 222
say i gave up M 221
say a baby is M 220
saw a rise to M 220
saw a play or M 220
saw a duty to M 220
say i speak it M 218
say i need it M 218
say a half or M 218
saw a lady so M 217
say i feel no M 216
say a true thing M 216
say a length of M 216
saw a hand go M 216
say i miss it M 214
say a mass or M 214
sad a case as M 213
say a want of M 208
saw a need of M 208
saw a fish or M 208
say a mass at M 206
saw a link to M 206
say a book of M 204
saw a rate of M 204
sat a youth of M 204
say i speak of M 202
say a nice thing M 202
saw a show in M 202
say i make no M 200
saw a lake in M 200
sad i felt at M 200
say i work at M 198
say i said to M 198
say a play of M 198
say a dream it M 198
say i think is M 196
say i take to M 196
saw a room of M 196
saw a band in M 196
say a ratio of M 192
saw a rain of M 192
saw a book or M 192
saw a bird or M 192
saw a girl go M 188
saw a cast of M 188
say i plan to M 186
say a ship of M 186
saw i must do M 186
saw a ship so M 186
saw a rush to M 186
saw a hair of M 186
sat a sort of M 186
sad i want to M 186
say i take my M 184
say a means of M 184
say a lady is M 184
say a fall in M 184
saw a sign by M 184
say i make it M 182
say a fifth of M 182
saw a gain in M 182
saw i knew it M 180
saw a trip to M 180
saw a great thing M 180
say i made an M 178
say a wrong thing M 178
say a daring thing M 178
saw a week or M 178
saw a girl or M 178
saw a ship or M 176
say i want no M 174
say i know as M 174
saw a void in M 174
say i came up M 173
say i talk to M 172
say i woke up M 171
say i take an M 170
say i felt at M 170
say i feel my M 170
say a copy of M 170
saw a show at M 170
saw a bend in M 170
say a life of M 168
saw a lady go M 168
sat a copy of M 168
say i made up M 166
say a pile of M 166
saw a city on M 166
saw a mile or M 164
say i call it M 162
say a mile in M 162
say a girl in M 162
say a case is M 162
saw a video on M 162
saw a clue to M 162
saw a cage of M 162
say i said the M 160
say a loss of M 160
sad i felt to M 160
say i used the M 158
say a trip to M 158
say a rate of M 158
say a noun is M 158
saw a nest on M 158
saw a mist in M 158
sad a fate as M 158
say i need an M 156
say i knew he M 156
say i keep it M 156
saw a move in M 156
saw a hill in M 156
saw a word in M 152
saw a hand of M 152
saw a drop to M 152
sad i feel at M 152
say i work in M 150
say a flaw in M 150
say i went up M 149
say i speak in M 148
say a term is M 148
saw i think in M 148
saw a span of M 148
say i went on M 147
saw a cake of M 146
sat a host of M 146
say a fact is M 144
saw a fish on M 144
sat a week in M 144
sat a body of M 144
say i give my M 142
say i feel at M 142
say a line in M 142
say a book or M 142
saw a halt to M 142
sad a heart as M 141
say a word no M 140
say a rule is M 140
say a mode of M 140
saw a cave on M 140
saw a case so M 140
say i leave it M 138
say a tree or M 138
saw a book so M 138
sat a bird on M 138
saw a wash of M 136
saw a beast of M 136
sat a monk in M 136
say i feel so M 134
saw a turn to M 134
saw a form on M 134
sad a view of M 134
sad a life as M 134
say a more or M 132
say a fine thing M 132
saw i meant to M 132
saw a truth in M 132
saw a mile of M 132
saw a maid in M 132
saw a girl to M 132
say a week to M 130
saw a trap in M 130
say a word my M 128
say a unit of M 128
say a rise of M 128
saw a union of M 128
saw a test of M 128
saw a male at M 128
saw a hill on M 128
say a verb is M 126
saw a worm in M 126
saw a want of M 126
saw a note to M 126
saw a male on M 126
saw a coat of M 126
say a week in M 124
say a fool thing M 124
saw a town on M 124
saw a hope in M 124
saw a fury in M 124
saw a city so M 124
say i look so M 123
say i know to M 122
say a user is M 122
say a page of M 122
say a kind or M 122
say a bank is M 122
saw a time in M 122
saw a male of M 122
saw a hole the M 122
saw a hair in M 122
saw a copy on M 122
saw a book the M 122
say i want an M 120
say i died of M 120
say a sign of M 120
saw a unit of M 120
saw a girl do M 120
saw a gate in M 120
sad a face in M 120
say i think in M 118
say i hate my M 118
say i felt my M 118
say i envy the M 118
say a load of M 118
say a city is M 118
saw a girl by M 118
saw a part in M 116
saw a loop of M 116
say i look on M 115
say i went in M 114
saw a wood in M 114
saw a single thing M 114
saw a means by M 114
saw a jump of M 114
saw a depth in M 114
saw a breath of M 114
say i keep no M 112
say i heard of M 112
say i give up M 112
say i find no M 112
say a view of M 112
saw a tree at M 112
saw a risk in M 112
sad a face of M 112
saw a tree as M 111
say i speak the M 110
say i meant it M 110
say i knew my M 110
say i came by M 110
say a theory is M 110
say a half of M 110
say a bird in M 110
saw i made no M 110
saw a hole at M 110
say i felt so M 108
say a game of M 108
saw a note at M 108
say i live on M 106
say i have by M 106
say a band of M 106
saw i leave to M 106
saw a video in M 106
saw a plan to M 106
saw a loss in M 106
saw a dash of M 106
sad a tale as M 106
say i have on M 104
say a room is M 104
saw a tomb of M 104
saw a beach of M 104
say i speak to M 102
say i find my M 102
say i feel in M 102
say i deem it M 102
say i care to M 102
saw a mine of M 102
saw a love of M 102
saw a youth so M 101
say i will or M 100
say i have of M 100
say a term of M 100
saw a turn of M 100
saw a name in M 100
saw a line at M 100
say i speak as M 99
saw a room so M 99
saw a copy so M 99
say i mind it M 98
say i feel an M 98
say i deny the M 98
saw a name he M 98
saw a look he M 98
saw a list in M 98
sat a mass of M 98
sad i left the M 98
say i sent the M 96
say i pick up M 96
say i miss my M 96
say a wise thing M 96
say a name is M 96
say a month at M 96
say a fifth or M 96
saw i think it M 96
saw a fall to M 96
saw a book he M 96
sat a knot of M 96
sad i have to M 96
say a road is M 94
say a fall of M 94
saw a hand we M 94
saw a form at M 94
saw a bird he M 94
sat i down on M 94
say i know so M 93
say i used it M 92
say i lose it M 92
say i give the M 92
say i come by M 92
say a heart is M 92
saw a role in M 92
saw a line or M 92
saw a gate of M 92
saw a fine thing M 92
saw a book at M 92
say i rely on M 90
say i find in M 90
say i felt in M 90
say i call the M 90
say a girl of M 90
say a dream of M 90
saw a need or M 90
saw a life in M 90
saw a hair on M 90
saw a gift of M 90
saw a call to M 90
say i think to M 88
say i thank the M 88
say i need my M 88
say i hold no M 88
say i feel we M 88
saw i knew the M 88
saw i full of M 88
saw a week of M 88
saw a good king M 88
sad i went to M 88
sad a face as M 87
say a part is M 86
say a month in M 86
saw a land so M 86
saw a halt in M 86
saw a file on M 86
say t want to M 84
say i feel on M 84
saw a shop in M 84
saw a hail of M 84
sad i feel to M 84
say i think an M 82
say i must eat M 82
say i make up M 82
say i lost no M 82
say i hold it M 82
say i call my M 82
saw i must go M 82
saw a longing in M 82
say i think or M 80
say a fire is M 80
say a file is M 80
say a dream is M 80
say a book on M 80
saw a sick or M 80
saw a girl the M 80
sat a look of M 80
say i look as M 52
say a clear no M 45
saw a fire up M 45
say i will no M 44
saw a tree so M 43
saw a union as M 42
saw a herd of D 17602
saw a gleam of D 9744
saw a puff of D 5226
saw a wave of D 5014
saw a string of D 4222
saw a pack of D 3894
saw a ball of D 3694
sang a hymn of D 3534
saw a blur of D 3182
sang a hymn to D 3166
saw a boom in D 3026
saw a wall of D 2936
sang a hymn in D 2522
saw a pool of D 2462
saw a film of D 2376
say a damn thing D 2176
saw a sail to D 1979
saw a spot of D 1958
saw a wisp of D 1910
saw a gleam in D 1504
saw a throng of D 1382
saw a film in D 1164
saw a glow of D 1114
saw a bevy of D 1064
saw a sail on D 1060
saw a glow in D 956
saw a film on D 934
saw a boat at D 914
saw a bust of D 898
saw a bowl of D 898
say a rude thing D 874
say i took it D 866
saw a star in D 826
say i took the D 814
saw a roll of D 802
saw a tuft of D 786
sang a solo in D 782
sang a sort of D 772
saw a lump of D 744
say a foot or D 710
saw a smear of D 674
saw a canoe or D 668
saw a sail in D 644
saw a slip of D 642
saw a spot on D 630
saw a boat in D 628
saw a deer in D 618
saw a tape of D 612
saw a boat on D 612
sang a kind of D 604
saw a wreath of D 594
saw a camp of D 566
saw a crew of D 560
saw a star of D 540
saw a bolt of D 536
sang a hymn or D 534
saw a rack of D 516
sat a bowl of D 510
saw a loaf of D 494
saw a scar on D 464
saw a great sea D 463
say i took to D 462
sang a part of D 452
saw a card in D 436
saw a suit of D 430
saw a race of D 422
saw a wolf in D 418
sang a paean of D 406
saw a coil of D 400
saw a maze of D 398
saw a slab of D 396
saw a cent of D 394
sang a solo at D 388
saw a loon in D 386
saw a crop of D 380
saw a sack of D 370
saw a giant of D 370
sang a tune to D 366
sang a line or D 364
saw a fringe of D 360
saw a dime of D 360
sang a line of D 358
saw a bush on D 356
saw a dish of D 354
sang a duet of D 350
saw a gold ring D 348
saw a halo of D 344
saw a star or D 340
saw a shot of D 338
saw a soul in D 334
saw a bill of D 330
saw a deer on D 328
saw a vase of D 322
sang a note in D 318
saw a tide of D 316
saw a haze of D 308
say a string of D 304
saw a clip of D 302
say a boil is D 296
saw a card on D 294
saw a canoe in D 294
saw a yoke of D 292
saw a raft of D 292
saw a vast sea D 290
saw a stir of D 288
saw a rift in D 288
saw a joke in D 288
say a firm no D 286
saw a grin on D 284
saw a cord of D 284
sang a hymn at D 284
saw a mess of D 282
sang a paean to D 282
sang a hymn on D 282
saw a waning of D 280
sang a note of D 278
sang a hymn as D 278
say a wife is D 272
saw a frog in D 270
saw a film at D 270
saw a glow on D 268
saw a belt of D 268
saw a pall of D 266
saw a piano in D 256
sang a duet in D 256
saw a slew of D 248
saw a sheaf of D 248
saw a veil of D 244
say a lump of D 242
saw a pond in D 240
saw a camp so D 233
say i tend to D 232
say i took my D 230
say a loaf of D 228
saw a tray of D 228
saw a plot of D 228
saw a blob of D 228
saw a finger of D 226
saw a sail at D 224
sat a bevy of D 222
saw a skin of D 220
say a star is D 218
saw a leash of D 218
saw a stir in D 216
saw a canoe of D 216
saw a clot of D 214
saw a tent in D 212
saw a foot of D 210
saw a boat go D 210
saw a vein of D 208
saw a boat of D 206
saw a hawk in D 204
sat a huge sea D 201
saw a tooth of D 196
saw a deer at D 196
saw a rose in D 194
saw a pond of D 186
saw a plot to D 186
saw a film by D 186
saw a slit of D 184
saw a rock in D 182
say a pack of D 178
saw a huge sea D 177
saw a fork in D 172
saw a bale of D 172
saw a wink of D 170
saw i mien or D 168
saw a wolf on D 168
say i wink at D 166
say a herd of D 166
saw a bull in D 164
saw a boom of D 164
sat a vase of D 164
say a pint of D 162
saw a sham sea D 162
saw a lump in D 162
saw a lick of D 162
sang a duet at D 162
saw a tube of D 160
saw a dearth of D 160
saw a canoe on D 158
saw a damn thing D 156
saw a tint of D 154
saw a swath of D 154
saw a slot in D 154
saw a blur in D 154
saw a duke of D 152
saw a deer or D 152
saw a rock on D 150
saw a gust of D 150
saw a duck in D 150
say a film is D 146
saw a twinge of D 146
saw a hare in D 146
sang a note or D 144
saw a star as D 143
saw a dent in D 142
saw a deck of D 140
saw a want ad D 138
saw a slit in D 138
sang a hymn he D 138
say a foot in D 136
saw a spot in D 136
sang a hymn by D 136
sang a paean in D 134
say a flat no D 132
say a dumb thing D 132
say a cube of D 132
saw a wolf at D 132
saw a goat in D 132
saw a blue sea D 132
sang a solo of D 132
saw a lure to D 130
saw a crow on D 130
say a tone of D 128
saw a glut of D 128
saw a crow in D 128
saw a cart in D 128
saw a blip on D 128
sat a tray of D 128
say i lied to D 126
saw a gush of D 126
saw a farm in D 126
saw a chap in D 126
say i sold the D 124
saw a gash in D 124
saw a film or D 124
saw a rock or D 122
saw a plot in D 122
saw a doll in D 122
saw a bill in D 122
sat a foot or D 122
sang a tune of D 122
sang a duet on D 122
saw a pony of D 120
saw a dome of D 120
saw a disk of D 120
saw a bush in D 120
saw a bill at D 120
say a biting thing D 118
saw a star on D 118
saw a hive of D 118
saw a germ of D 118
saw a farm of D 118
saw a demo of D 118
saw a gleam as D 117
say a yard of D 116
say a pine is D 116
saw a vine in D 116
saw a rent in D 116
saw a pail of D 116
saw a hare on D 116
saw a blur as D 116
sat a throng of D 116
saw a rock of D 114
saw a haze on D 114
saw a crab in D 114
sang a mass of D 114
say a tithe of D 112
saw a giant in D 112
saw a brig at D 112
say a foot of D 110
saw a camp on D 110
say a rose is D 108
say a ball of D 108
saw a thief in D 108
saw a mole on D 108
saw a yard of D 106
saw a stag in D 106
saw a buck in D 106
saw a brig in D 104
sat a prey to D 104
sang a tune in D 104
say a pint or D 102
say a hymn to D 102
say a bowl of D 102
say a blot on D 102
saw a stab of D 102
saw a soul of D 102
saw a spot he D 100
saw a canoe at D 100
say a firm is D 98
saw a tithe of D 98
saw a soul on D 98
saw a sale of D 98
say a wall or D 96
saw a spear of D 96
sat a duck on D 96
say a darn thing D 94
saw a star so D 94
saw a hunk of D 94
saw a barn in D 94
say i sold it D 92
saw a rope of D 92
saw a mane of D 92
saw a lamp in D 92
saw a hawk on D 92
saw a chip of D 92
saw a cart of D 92
saw a brig to D 92
sat a yard or D 92
say i took an D 90
say i blew it D 90
say a wife or D 90
say a boat is D 90
saw a tent on D 90
saw a pool in D 90
saw a grin of D 90
saw a froth of D 90
saw a ball in D 90
say i took no D 88
say a plum or D 88
saw a tram in D 88
saw a swan in D 88
saw a spot to D 88
saw a soul or D 88
saw a chap at D 88
saw a ball at D 88
say a crop of D 86
saw a tray on D 86
saw a lump on D 86
saw a duck on D 86
saw a cone of D 86
saw a cart on D 86
saw a bush of D 86
saw a boat or D 86
saw a race in D 84
saw a gout of D 84
saw a dime on D 84
saw a vein in D 82
saw a rout of D 82
saw a pearl of D 82
saw a limb or D 82
saw a film he D 82
sat a dish of D 82
saw i took no D 80
saw a gleam on D 80
saw a deer he D 80
