saved it is the M 6582
saved us by the M 4120
safer to do so M 2631
saved is to be M 2176
saved me in the M 2080
safer to be in M 1941
saved it in the M 1924
saves it in the M 1868
safer it is to M 1811
saved so as by M 1788
saved us in the M 1678
saved if it is M 1588
saved by the king M 1448
safer to be on M 1357
safer to go to M 1250
saved up in the M 1176
saves it to the M 1138
safer to do it M 960
saved if he is M 956
saved it at the M 902
safer to go on M 888
saved as if by M 815
saved it to the M 788
saved me at the M 770
saved or to be M 724
saved the king of M 634
safer if it is M 634
saved to go to M 608
saved as it is M 584
sadly as if he M 552
safer to go by M 550
saves us is the M 542
saved so as to M 530
saved it by the M 512
safer thing to do M 506
saves us in the M 500
safer to do the M 498
saved in the my M 476
saved it on the M 474
saved us at the M 462
saved as to the M 442
saves us by the M 420
saved it as to M 392
saved by it in M 392
sadly up at the M 384
saved me on the M 368
saved is in the M 356
safer to be an M 344
sayings as to the M 336
saved up by the M 336
safer to be at M 326
saved if we do M 320
sayings of the king M 314
saved up to go M 308
safer if we do M 300
safer to go in M 291
saved to be the M 290
saved up to the M 282
saved by the thing M 276
sadly as if to M 276
saved me in my M 272
saved it as an M 272
safer to be the M 268
saved up in my M 256
safer is it to M 254
saved it up to M 250
saves it as an M 248
saved to us the M 248
sayings is to be M 244
saved up to be M 234
saves it on the M 232
safer to go up M 232
saved by it as M 229
safer to do as M 227
saves us to the M 204
saved to us by M 204
saved us on the M 202
saved if he do M 190
safer if he is M 182
saved as in the M 178
safer as it is M 176
sadly it is the M 176
saved me by the M 172
saved us if the M 166
saved it in my M 166
saves it is the M 164
sadly at me as M 164
saved as he is M 162
sadly up to the M 162
saved to the my M 161
saves it in an M 160
saved us up to M 156
safer up in the M 152
sayings so as to M 148
saved by it is M 148
saves it as the M 146
saved it if the M 144
saved up at the M 142
safer if we go M 142
sadly as if it M 142
sadly on to the M 140
saved is by the M 138
saved us by an M 134
saved up to do M 132
saved the king by M 130
saved to the king M 128
sapling so as to M 127
safer to go the M 124
sadly as to the M 124
saves me is the M 122
saved it to be M 118
saved if he or M 118
sayings as in the M 116
saved us to be M 116
saved as if he M 114
saved is of the M 110
saved to us in M 108
saved it by an M 108
saved if it be M 108
sadly as if the M 108
saved me is the M 106
saved it as the M 106
saved by it if M 106
safer it is in M 104
sadly up at me M 100
safer thing to be M 98
saved by it at M 94
saves us at the M 92
saved or of the M 92
saved it on my M 92
saved as if it M 92
saved as by the M 92
sayings of the so M 91
saves us on the M 90
safer to do an M 90
sayings is to the M 88
saved or in the M 88
saved or go to M 88
saved by the so M 88
sadly to be the M 88
sayings is in the M 86
saved the king in M 86
saved it up in M 86
saved in or by M 86
saved if he be M 86
saved by it or M 86
saved to me by M 84
saved it in an M 84
saved us is the M 82
saved us if he M 82
saved or to the M 82
saved if the king M 80
saved to go on M 54
saved on to the M 43
sands of the sea D 38414
savings of up to D 13406
sailing on the sea D 7576
sands on the sea D 5787
salts of the sea D 4681
savings on to the D 3003
sales of up to D 2182
sales so as to D 2148
sailing up to the D 2133
salts in the sea D 2012
sales is to be D 2002
sands by the sea D 1738
sails so as to D 1548
sails on the sea D 1533
saint is to be D 1446
sales up to the D 1436
sailing on to the D 1395
savings so as to D 1315
sauce is to be D 1266
sales go to the D 1178
sailing in the sea D 1106
salad is to be D 1076
sales or in the D 1054
saint is in the D 1048
salty as the sea D 1001
saint or of the D 998
savings is in the D 766
salts is to be D 744
sailing is to be D 726
sails up to the D 718
sales is in the D 694
savor of the sea D 642
savings is to be D 601
sadly on the ear D 576
saint as if to D 572
sands or in the D 566
sails go by the D 564
sales or on the D 532
sales as in the D 522
salts or by the D 520
sales to be in D 514
salts is in the D 512
salts as to be D 506
savor it to the D 490
sagas of the sea D 489
sailing the sea of D 477
sales or to the D 468
saint or to the D 468
sands in the sea D 449
salon or in the D 448
sales or of the D 445
sailing up in the D 444
salts so as to D 443
sales to go up D 440
sally is in the D 438
sails of the sea D 435
savings up to the D 432
sands to the sea D 432
savings to go to D 406
sacks on to the D 388
sales to be the D 378
sailing on as in D 376
sales if it is D 374
sales as it is D 362
sales or by the D 360
salts as in the D 358
sailing to the sea D 356
sailing so as to D 355
sales to go to D 352
savings go to the D 348
saint as he is D 348
sailing by in the D 344
salts to the sea D 342
saute it in the D 328
saint is on the D 318
sands or on the D 306
sacra via to the D 306
saint to be the D 298
sages to be the D 298
sanding up of the D 294
sales as of the D 286
sailing the sea in D 284
saint of the sea D 278
savior is to be D 276
sawed so as to D 272
savings to do so D 272
sally to go to D 268
savings if it is D 266
sapping up to the D 263
sailing in on the D 262
sandy as to be D 258
sails on to the D 256
savings as in the D 252
sales go up or D 252
sauce as it is D 251
sales to or by D 250
sailing on at the D 250
sacks up to the D 248
salts up to the D 246
salts or in the D 244
salts is of the D 244
salad or as an D 243
saris go by me D 240
sauce is on the D 238
sales go up by D 236
sailing by on the D 235
sales by up to D 230
sailing in to the D 230
sages as to the D 228
saint is at the D 226
salve is to be D 222
savoy to the king D 221
saint as if he D 216
sailing up to it D 214
savings or in the D 212
sahib is in the D 210
savoy as king of D 208
sales of the king D 208
sailing on up the D 207
saved by the sea D 204
sauce or in the D 204
savings or on the D 202
saint of the king D 202
sales to be at D 200
sailing on in the D 200
salts or of the D 198
sailing in at the D 198
sauce as in the D 197
savings to be the D 196
sages is to be D 196
savings or by the D 194
saint as it is D 194
sauce is in the D 193
salty as to be D 192
sales is on the D 188
sales of the by D 186
sauce on to the D 185
sales of the so D 185
salad is in the D 185
sands as in the D 184
sales is at the D 184
saint as to the D 181
sales of tea in D 180
savings to do it D 179
sawed it in the D 178
saved at sea by D 178
saint as in the D 178
sauce if it is D 172
salon or on the D 172
sacra via at the D 172
sauce is of the D 164
sales is to the D 160
sacking up to the D 160
sailing of the sea D 159
sacks so as to D 158
salon or at the D 156
sacks of it in D 156
sails the sea of D 155
sauce it is to D 154
salts to be the D 154
savings as it is D 152
salon is on the D 152
sales by or to D 152
saint in on the D 152
sally is on the D 150
sales to be as D 150
sales or as an D 150
saint to go to D 150
salon is in the D 149
sales as to the D 148
sailing as if to D 148
sands is in the D 146
salting up of the D 146
sales or if the D 146
sales go up to D 146
sales by or on D 146
sandy is in the D 145
sands up to the D 144
salts is by the D 144
sacra via in the D 144
savings go up in D 142
sales is of the D 142
sails in the sea D 141
salts of the so D 140
saint or in the D 139
savings to be in D 138
sails of the king D 138
sadly by the sea D 138
sands so as to D 136
saint up to the D 136
salty as it is D 134
savior is in the D 132
sands is to be D 130
sales go up in D 130
sahib is at the D 130
savings is on the D 128
sales of it to D 128
salon as in the D 126
sales it is the D 126
savings or to the D 124
sauna is on the D 124
salts of the ion D 124
salts in the so D 122
sally is to be D 122
savings on in the D 120
sally is at the D 120
sales of tea at D 120
sailing it in the D 120
sauce to go on D 119
satin up to the D 116
salad is on the D 116
sails is in the D 116
sailing it to the D 116
sailing as in the D 114
sagging on to the D 114
salon is to be D 112
savoy is to be D 110
salts or to the D 110
sales by it of D 110
sailing it on the D 108
sadly to the sea D 107
sales to us of D 106
sails as if the D 106
salts is of no D 104
sales if he is D 104
sacks be of the D 104
savior to be the D 103
salts as it is D 102
sally to be on D 102
sales to be so D 102
sandy is on the D 101
savings is by no D 100
sandy sea of the D 100
sales to be on D 100
sales of the tea D 100
sailing on the wing D 100
sadly at the sea D 100
saint to be so D 99
savior of the king D 98
sauce so as to D 98
sally up to the D 98
saint to do it D 97
savings to go on D 96
sauce is to the D 96
sandy to go to D 96
saint is of the D 96
sagas is to be D 96
sable wing of the D 96
savings is at the D 94
sandy as it is D 94
salon as if he D 94
sales to up to D 94
sales is by no D 94
sailing up to us D 94
savings to go up D 92
salts is by no D 92
sales to do so D 92
sales to be of D 92
sales of the dc D 92
saint to be at D 92
saint so as to D 92
saint or by the D 92
sacking of it by D 92
saved by the re D 91
savings or of the D 90
sandy to be of D 90
sands on to the D 90
sally as if in D 90
sauce as if it D 89
savoy or in the D 88
salty to be of D 88
sally go to the D 88
sales to be by D 88
sawed up in the D 87
sales or at the D 87
savings as of the D 86
saint is to the D 86
sagging as if he D 86
sacks or in the D 86
sacks of it to D 86
savoy so as to D 84
salts or as the D 84
salon or to the D 84
saint or of an D 84
sales to be an D 82
saint to be in D 82
saint or on the D 82
sadly at sea in D 82
sandy up to the D 81
savvy thing to do D 80
savings on to us D 80
salon up to the D 80
sales as is the D 80
saint or be he D 80
saint if it is D 80
sailing it is the D 80
sagas or in the D 80
savor it in the D 58
salad as it is D 58
salad as if it D 58
sails up in the D 54
sailing is in the D 49
savor it as the D 48
sails by on the D 44
salts it is the D 43
savings to be as D 42
sands of the so D 41
sailing up to me D 41
sands at the sea D 40
sails to the sea D 40
