hung his head . M 44493
hue and cry . M 25687
hung her head . M 24327
hung out with . M 2904
hue and cry ? M 1149
hung its head . M 666
hue and cry ! M 488
hung with them . M 422
hung long ago . M 280
hung with him . M 251
hung too low . M 232
hung out with ? M 230
hung with red . M 214
hung too long . M 156
hung them out . M 150
hung near them . M 140
hung for that . M 128
hung off him . M 126
hue with age . M 126
hung that way . M 112
hung them all . M 110
hung near her . M 100
hung near him . M 80
