hurt in any way M 8814
hurt the one you M 3507
hurt the old man M 2953
hurt no one but M 2817
hurt the earth and M 2732
hurt so bad that M 2373
hurt at not being M 2008
hunt on his own M 1808
hurt to see him M 1507
hurt if you did M 1475
hurt to see her M 1310
hurt if they are M 1307
hurt in this way M 1102
hurt no one and M 1048
hurt by all this M 1016
hurt the man who M 1012
hurt by his own M 943
hurt as she was M 923
hurt to see that M 919
hurt to let him M 881
hurt if she did M 880
hurt if they did M 819
hurt the one who M 807
hurt if you had M 804
hunt in his own M 768
hurt to hear him M 761
hurt if you are M 759
hurt me with his M 740
hurt to ask for M 735
hurt by this and M 706
hurt me and that M 696
hurt he did not M 673
hurt to see how M 660
hurt me and you M 646
hurt me this way M 642
hurt to any one M 637
hurt if they had M 636
hurt me with that M 632
hurt me real bad M 632
hurt to hear that M 619
hurt to let her M 612
huge as they are M 594
hurt as she had M 592
hurt to see them M 572
hurt in his head M 572
hurt me that way M 564
hurt at all and M 557
hurt of his own M 552
hurt so bad and M 549
hurt by not being M 529
hurt in one way M 523
hurt if she had M 508
hurt me was that M 501
hurt to let them M 486
hurt an old man M 466
hunt in this area M 462
hurt or for any M 453
hunt by day and M 452
hurt to hear her M 447
hurt so bad she M 441
hurt my leg and M 440
hurt to ask him M 434
hurt to any man M 432
hurt us and our M 430
hurt to see his M 426
hunt of his own M 426
hunt in this way M 422
hurt to say that M 421
hurt in that way M 418
hurt in his leg M 416
hurt to see you M 415
hurt my head and M 392
hurt me one bit M 391
hurt me that she M 382
hurt the way she M 377
hunt on that day M 364
hurt to try and M 361
hurt the man she M 356
hurt me and then M 352
hurt by his son M 352
hurt of not being M 350
hurt if she was M 350
hurt the way you M 346
hurt if she does M 346
hurt of her own M 341
hurt to ask her M 335
hurt so that she M 334
hurt if you can M 330
hurt to his own M 328
hurt me that you M 322
hurt if you try M 319
hurt at all that M 319
hurt in his own M 314
hurt the weak and M 313
hurt by her own M 312
hurt in her own M 300
hurt to hear you M 298
hurt in all this M 298
hurt the dog too M 294
hurt my arm and M 290
hurt by all that M 279
hurt no man that M 278
hurt by thus being M 278
hunt in that area M 276
hurt by them and M 274
hurt at being thus M 272
hurt at all now M 270
hunt the bear and M 270
hurt of any one M 268
hurt so bad you M 267
hunt up and bring M 266
hurt so that they M 263
hurt he had not M 258
hurt me was not M 256
hurt by this that M 255
hurt of any man M 252
hunt on its own M 248
hunt it for its M 244
hurt as you are M 243
hurt at his not M 238
hurt if you get M 234
hurt to hear his M 232
hurt by this new M 232
hurt the eye with M 230
hurt me and how M 230
hunt to say that M 229
hurt he was that M 225
hurt by this man M 225
hurt me they can M 224
hurt as any man M 221
hurt no one who M 220
hurt in his arm M 220
hurt or got any M 218
hurt by its own M 218
hunt up his own M 216
hurt me and they M 214
hurt by her son M 208
hunt on her own M 207
hunt up that old M 206
hurt at all but M 205
hurt to get out M 204
hurt if any one M 199
hurt by them than M 198
hurt me and she M 196
hurt if you got M 196
hunt the way for M 196
hurt the way they M 195
hurt in this war M 195
hunt as poet and M 194
hurt to try them M 192
hurt to hear this M 192
hurt no man who M 192
hurt to see this M 191
hurt so bad they M 190
hurt me too bad M 190
hurt me that they M 188
hurt by him and M 188
hurt as they are M 188
hunt it out and M 188
hurt us and that M 187
hurt the men who M 186
hurt me with her M 186
hunt me out and M 184
hurt me and was M 182
hurt if you let M 181
hurt by his not M 181
hurt the old boy M 178
hurt on his head M 178
hurt me and not M 178
hurt if you say M 174
hurt by our own M 174
hurt as they had M 173
hurt to ask them M 172
hurt the eye and M 172
hurt by his death M 170
hunt as they had M 167
hurt to this day M 166
hunt up new and M 164
hunt up his old M 164
hurt at this and M 163
hurt by its being M 162
hurt by being thus M 162
hurt by things that M 161
hunt it out for M 160
hurt to let you M 158
hurt as you can M 157
hunt so that they M 157
hurt or that they M 156
hurt at her not M 156
hunt to bring them M 156
hurt if you put M 154
hurt by any one M 151
hurt me and all M 148
hurt by being too M 148
hurt of all was M 146
hurt is not bad M 146
hurt by this but M 145
hurt by this act M 145
hurt on his way M 144
hurt so that you M 143
hunt is not yet M 142
hurt by his being M 140
hurt he was not M 139
hurt by any man M 138
hurt to try this M 136
hunt up that man M 134
hurt to hear them M 133
hurt the boy and M 132
hurt if they got M 132
hunt on our own M 132
hunt is not for M 131
hurt me with this M 130
hurt so you can M 129
hunt of our own M 128
hurt the man and M 126
hurt or did not M 126
hunt the man who M 126
hurt by this than M 124
hunt of this day M 124
huge as this one M 124
hurt in this mad M 122
hunt in war and M 122
hurt it can not M 121
hurt to try for M 120
hurt the team and M 120
hurt or you are M 120
hurt me that bad M 120
hurt he had had M 120
hurt on his leg M 119
hunt or for war M 119
hurt to see all M 118
hunt me out for M 118
hurt us with his M 116
hurt at all this M 113
hurt by war and M 112
hurt at his son M 111
hurt at his going M 111
hurt us this way M 110
hurt us and they M 110
hurt the one they M 110
hurt of all that M 110
hurt if they get M 110
hunt it for them M 110
hurt of our own M 109
hurt at his being M 109
hunt on this day M 109
hurt me and now M 108
hunt the bear with M 108
hurt as she did M 107
hurt me with them M 106
hurt he own son M 106
hurt to any but M 105
hurt we can not M 104
hurt to them and M 104
hurt so bad for M 104
hurt no one now M 104
hurt by this war M 104
hurt by her and M 104
hurt no man but M 102
hurt me with any M 102
hurt me that day M 102
hurt me now that M 102
hunt to ask his M 102
hurt us with our M 100
hurt us all and M 100
hurt by men who M 100
hurt to get them M 98
hurt in that she M 98
hurt he was and M 98
hurt he can not M 98
hurt the dog and M 97
hurt if you run M 97
hurt by one man M 97
hurt me who are M 96
hurt in our own M 96
hurt by that and M 96
hurt by men and M 96
hunt in any old M 96
huge in area and M 96
hunt of its own M 95
hurt so bad but M 94
hunt of her own M 94
hunt in all its M 94
huge thing that was M 94
huge as she was M 94
hurt to them that M 93
hurt to ask and M 92
hurt the man with M 92
hurt or does not M 92
hurt by her death M 92
hurt by doing his M 92
hunt by day with M 91
hurt to put them M 90
hurt the big man M 90
hurt it with her M 90
hurt if you and M 90
hurt if they can M 90
hurt by its use M 90
hurt so they can M 89
hurt at this than M 88
hurt as they say M 88
hurt to bring them M 87
hunt is not going M 87
hurt us one bit M 86
hurt us does not M 86
hurt the cat and M 86
hurt so bad all M 86
hurt me for you M 86
hurt me and get M 86
hurt me with all M 80
hurt me for him M 80
hurt me any way M 80
hurt me and who M 80
hurt it was not M 80
huge we can not M 80
hunt to get meat M 61
hurt to deal with M 60
hurt in all that M 60
hurt no one that M 57
hunt as they did M 54
hurt to you and M 53
hurt to our own M 53
hurt to her own M 52
hunt in that way M 50
hunt if you are M 50
hurt the way that M 48
hurt or that you M 48
hurt on his own M 48
hurt as all that M 48
hurt he was going M 47
hurt we did not M 46
hurt to him that M 46
hurt the man that M 46
hurt to him and M 44
hurt at our not M 44
hunt or for any M 44
hurt by being cut M 43
hunt he and his M 43
hurt of him who M 42
hurt in her leg M 42
hurt to our men M 41
hurt it does not M 41
hurt if you use M 41
hurt at all for M 41
huts of mud and D 3596
hues of red and D 3254
hues of his own D 1192
hunk of meat and D 664
hunk of raw meat D 611
hues of earth and D 560
hues of sky and D 416
hurt my ears and D 397
hues of our own D 388
hues of its own D 358
hush up and let D 356
hunt the elk and D 302
hurl at his head D 280
hush of awe and D 276
hunt the fox with D 268
hues of joy and D 258
hues of her own D 252
huts of earth and D 246
hunt the seal and D 244
hurt the oil and D 236
hunt the fox and D 232
hurl it with all D 224
husk of our new D 222
hunk of meat with D 222
huts so that they D 210
hunt the lion and D 208
huts of them that D 203
hunk of meat that D 203
husk of this our D 194
huts to get out D 192
huff as she let D 188
hush of all things D 186
hubs in mud and D 186
hull of his own D 184
huge in her thin D 184
hunk of meat out D 180
hurt the ears and D 168
hums in his ears D 164
hurl on his foes D 150
hunk of biz for D 150
hull of this set D 150
hues of both are D 150
hunk of red meat D 146
hunk of meat was D 146
hull so that they D 142
hush of death was D 140
hurt by this tax D 140
hunk of man who D 138
hubs is that they D 138
hurt my mom and D 132
hurt me and vex D 132
huts in this area D 130
hues of leaf and D 130
hunk of meat for D 128
huts of his own D 124
hurl at him and D 122
hues by sun and D 120
hurt if they hit D 118
hull of his new D 116
huts at one end D 112
hurt my hip and D 112
hump to see him D 110
hush of earth and D 108
husk of its own D 106
hush up now and D 106
hues of tan and D 106
huts of sod and D 104
husk the ears and D 104
hurl it and its D 104
hunt the red fox D 104
husk is not easy D 102
hush up and get D 102
hull at each end D 102
hump on its head D 96
hues as they are D 96
hunk of man and D 94
hunk of ice and D 94
hull is long and D 94
hull at bow and D 94
hull in that year D 93
hull so that she D 92
hues of hap and D 92
hush up and not D 91
hunt to and fro D 90
hump at one end D 90
hues so that they D 90
hull to say that D 89
hump on him that D 88
hunk of his own D 86
huts on our way D 84
huts of mud with D 84
hush up this one D 84
hurt the ant got D 84
hull on his way D 83
hugs me and then D 83
hunt up pen and D 82
hunk of dead meat D 82
hugs the earth and D 82
hush of death lay D 80
hurl at them all D 80
hump we can see D 80
hues of this our D 80
hues of red that D 50
hunk of meat off D 49
hues to fix far D 40
