hurt you if you M 10239
hurt that he had M 6346
hurt you in any M 5521
hurt him to see M 4814
hurt not the earth M 4229
hurt that he was M 4020
hurt him at all M 3699
hurt you at all M 3383
hurt her to see M 3314
hurt her in any M 3064
hurt any of them M 3000
hurt one of them M 2629
hurt him in his M 2540
hurt her if she M 2488
hurt him in any M 2386
hurt and he was M 2336
hunt was on for M 2260
hurt him or her M 2222
hurt that he did M 2108
hurt them at all M 2039
hunt him up and M 2004
hurt one of his M 1903
hurt them if they M 1842
hurt her at all M 1789
hunt them up and M 1788
hurt any of you M 1742
hurt his or her M 1636
hurt them in any M 1490
hurt and it was M 1421
huge that it was M 1406
hurt him to hear M 1230
hurt her the way M 1126
hurt him the way M 1114
hurt her as she M 1082
hurt him so that M 1072
hurt him or his M 1014
hurt her to hear M 984
hurt you as long M 974
hurt you if they M 966
hurt all the way M 953
hurt and he had M 950
hurt you to get M 944
hurt that it was M 932
hurt and do not M 886
hurt both of them M 874
hurt him so bad M 870
hurt that no one M 846
hurt but it was M 839
hunt for the man M 831
hurt him to say M 824
hurt her so that M 822
hurt you the way M 810
hurt you to hear M 798
hurt you to see M 776
hunt for the key M 744
huge that it can M 742
huge gap in our M 738
hunt with the men M 728
hurt you so bad M 720
hunt you up and M 720
hurt and no one M 719
hurt out of her M 706
hurt her or her M 700
hurt that he has M 653
hurt and he did M 636
hunt for the real M 632
hunt that he had M 619
hurt you in this M 592
hurt him if she M 580
hurt her to say M 572
hurt any of her M 570
huge and it was M 570
hurt him if you M 568
hunt for it and M 562
hunt for the old M 556
huge that it had M 548
hunt for it with M 543
hurt not at all M 542
hurt but he was M 542
hunt with the bow M 541
hurt her so bad M 537
hurt any of his M 531
huge that no one M 529
hunt for the day M 528
hurt one of her M 527
hurt her in her M 516
hunt for the boy M 510
hurt them to see M 504
hunt her up and M 484
hurt you to try M 478
hunt him up for M 478
huge man in his M 466
hurt you to say M 462
hurt him as she M 454
hurt any of our M 452
hurt him or not M 442
hurt that he hath M 440
hunt for the two M 436
hurt one of our M 431
hurt you to let M 430
huge sum at that M 428
hurt her by his M 424
hurt than he was M 417
hurt you to read M 414
hunt for an idea M 409
hurt both of you M 407
hurt you as you M 400
hurt for so long M 399
hunt and in war M 399
hurt that we had M 393
hurt him in that M 383
hurt her or not M 382
hunt and it was M 382
hurt out of his M 380
hurt him in this M 376
hurt than he had M 374
hurt all of them M 373
hunt that he was M 373
hunt for the big M 372
hurt you do not M 369
hurt and my head M 367
hurt him by her M 366
hurt them as they M 362
hunt was up and M 352
huge that we can M 352
huge that it has M 348
hurt him if they M 346
hurt her if you M 344
hunt and do not M 338
hurt him to sit M 334
hurt them if you M 330
hunt for the new M 330
hurt him to get M 324
hunt was on and M 318
hunt for the red M 315
hurt her so she M 314
hunt was in his M 309
hunt for the men M 306
hurt her to get M 302
hunt for the path M 300
hurt but do not M 299
hunt for the one M 299
hurt that it had M 298
huge dog in his M 298
hurt you or any M 296
hunt them in out M 296
hurt him as long M 288
hunt was the one M 288
hurt one of you M 287
huge sum of two M 285
hunt and of war M 284
huge sum of one M 278
hunt was at its M 276
hurt you by not M 274
huge that he had M 272
hurt him as they M 270
hurt her in this M 268
hurt her in his M 268
hurt but he did M 267
hunt was on his M 264
huge gap in his M 262
hurt her by not M 260
hurt and it did M 259
hunt them as they M 256
huge that he was M 254
hurt and the fear M 253
hurt all of you M 250
hunt was the son M 249
huge sin in his M 248
hurt them the way M 244
hunt him to death M 243
hurt him or any M 242
hurt her as long M 242
hunt that it was M 242
huge and he was M 242
hurt him by not M 240
hunt and eat meat M 240
hurt that is not M 238
hurt and so did M 234
huge one at that M 234
hurt you or our M 232
hurt her by lying M 228
hurt you to put M 226
hunt for the bear M 225
hurt and the things M 224
huge head of his M 224
hurt you so long M 222
hunt out the old M 221
hurt you so that M 220
hurt him in one M 220
hunt them to death M 220
hurt them to get M 218
hunt him to his M 217
hurt that he does M 216
hurt him to his M 216
hurt her if they M 216
hurt and we had M 212
hurt them as long M 210
hurt her in that M 210
hunt her to her M 208
hurt and is not M 206
hunt them up for M 206
huge gap in her M 206
hurt him to try M 204
hunt for me and M 204
huge was it that M 204
hurt that we did M 203
hurt and to heal M 202
hurt and we can M 201
hurt and it may M 198
hunt with the one M 197
hurt and we are M 196
hurt her to sit M 194
hunt and the war M 194
huge head in his M 194
hurt but in this M 189
hunt them at all M 187
hurt them to hear M 186
hurt her in all M 186
hunt and he was M 186
hunt was up for M 184
hunt and eat them M 183
huge but it was M 182
hurt you if she M 180
hurt but it did M 180
hunt for my own M 179
hurt you so you M 178
hurt you or not M 178
hunt all of that M 178
hurt god at all M 176
huge and as yet M 176
hurt was in his M 175
hurt you or let M 174
hurt and he can M 174
hunt was the man M 174
hunt for the meat M 172
hunt all the way M 172
huge cut in pay M 171
hurt you is not M 170
hurt you in that M 170
hurt they do not M 170
hurt him to put M 170
hurt you so for M 168
huge sum of ten M 166
hurt that he can M 164
hurt one of its M 163
hunt and eat and M 163
hurt but he had M 159
hurt them or not M 158
huge heap of earth M 158
hurt one or two M 153
hurt him at that M 153
hurt them in this M 150
hunt for an old M 149
hunt him in his M 146
hurt you or that M 143
hunt and to cut M 142
hurt you or you M 140
hurt him by his M 140
hurt with me for M 139
hurt one or both M 139
hurt her or she M 138
huge key in his M 138
hurt you or get M 136
hunt for me for M 136
hurt him or that M 135
hurt each of them M 135
hunt for the few M 135
hurt you to sit M 134
hurt was so bad M 134
hurt that we are M 134
hurt her or you M 134
hunt and the two M 134
huge head on his M 134
huge box on his M 134
hurt him as his M 132
hurt her as they M 132
hunt goes on for M 131
hurt them by not M 130
hurt him so long M 130
hurt her or him M 130
hunt her to death M 130
huge and he had M 130
hurt him as bad M 128
hurt that the law M 126
hurt him to let M 126
hunt with the old M 126
hunt him up his M 126
huge bow in his M 126
hurt was in her M 124
hurt him or you M 124
hunt and to war M 124
huge that it may M 124
huge sum to pay M 124
huge heap of them M 124
huge bow in her M 124
hurt that he may M 123
hurt was the way M 122
hurt its wing and M 122
huge that he can M 122
hunt with the aid M 121
hurt you to pay M 120
hurt them so bad M 120
hurt one of god M 120
hurt him by being M 120
hurt and it does M 120
hunt you to death M 120
hunt both by day M 120
hunt with me that M 119
hunt for us and M 119
hurt that the man M 117
hurt but it does M 117
hurt you by being M 116
hurt her or let M 116
hunt one or two M 116
hurt and the one M 115
hunt one of them M 115
hurt them so that M 114
hurt him in her M 114
hunt was at this M 114
hunt them in this M 114
hurt and to get M 113
hurt was my head M 112
hurt them by his M 112
hunt out the men M 112
huge and it had M 112
hurt and to that M 111
hurt him to lie M 110
hunt was at his M 110
huge sum in his M 110
huge map of his M 110
huge gap in its M 110
hurt her so long M 109
hunt with me this M 109
hunt for it for M 109
hurt you or use M 108
hurt them or that M 108
hunt and he had M 108
hunt all the year M 108
hurt them so long M 106
hurt her to her M 106
hunt and to see M 106
huge man he was M 106
hurt but no one M 105
hurt and so was M 105
hunt but do not M 105
hunt and the pre M 105
hurt both me and M 104
hunt one up for M 104
huge box in his M 104
hurt him to read M 102
hurt her or any M 102
hurt and he does M 102
hunt got up and M 102
hunt for the things M 102
hunt and the death M 102
hurt and he has M 101
hurt them by being M 100
hurt her or that M 99
hunt with the dog M 99
hurt him at this M 98
hunt was at that M 98
huge bear he had M 98
hurt them or they M 96
hurt that he and M 96
hunt led the way M 96
hunt for it now M 95
hurt him to ask M 94
huge sum he had M 94
hurt you to ask M 92
hurt you or them M 92
hurt you by any M 92
hurt this or that M 92
hurt them by any M 92
hunt going on for M 92
huge head up and M 92
hurt out of all M 91
hurt you in our M 90
hurt you at any M 90
hurt him to cry M 90
hurt him he was M 90
hunt out the man M 90
huge that we are M 90
huge and no one M 90
huge and it has M 90
hurt and we did M 89
hurt you or put M 88
hurt them if she M 88
hurt him to die M 88
hurt her to cry M 88
hurt and we all M 88
huge that it did M 88
hunt for me was M 87
hurt you by this M 86
hurt them to try M 86
hurt her or his M 86
hurt but to heal M 86
hunt out an old M 86
huge that we had M 86
huge deal of wit M 86
hurt that is being M 85
hurt you by doing M 84
hurt man on his M 84
hurt him in all M 84
hurt her by being M 84
hurt and it can M 84
huge area of this M 84
huge man of six M 83
huge sum to ask M 82
huge sum in that M 82
huge gap in this M 82
huge area of his M 82
hurt you to cut M 80
hurt that it has M 67
hunt with an old M 65
hurt that it did M 58
hunt out of his M 54
hunt for the dead M 53
hunt for the cat M 53
hunt and we had M 53
hunt for the sun M 52
hurt and if you M 51
hunt with the new M 51
hunt and the old M 51
hunt and he did M 49
hunt with me and M 48
hunt for the dog M 48
hurt that we can M 47
hunt with us and M 47
huge and so far M 47
hunt for as long M 46
hunt and do all M 45
hurt and so she M 44
hunt with the son M 44
hunt for the job M 44
hunt and to bring M 44
hurt that the two M 42
hurt and the two M 42
hurt and it had M 42
hunt one up and M 41
hunt for the head M 41
hunt and no one M 41
hurt not to see M 40
hurt not the oil D 2879
huts for the men D 942
hugs him to her D 534
hull that he had D 480
hurl him to his D 444
huge fan of his D 422
huts for the use D 372
hull that he was D 369
huge wad of gum D 366
hull near the bow D 316
hull and the east D 286
hurl them at each D 270
hunk out of his D 270
hugs her to him D 269
hunt for the pot D 268
hurt not the axe D 264
huts are of mud D 238
huts and the men D 234
hurl them at his D 226
hull and the two D 209
hurl one of his D 203
huts that we had D 202
hull that it was D 201
hush all the dead D 188
hurl them at him D 188
hull and the new D 188
huts put up for D 184
huts one by one D 174
huge fan of this D 174
huge pot of hot D 172
huts and it was D 164
hurt you to wear D 162
hugs him to his D 161
hush them up and D 160
hull and the ice D 155
hull was an old D 150
hull and it was D 147
hues that do not D 146
hugs them to her D 145
huts all the way D 144
hunt for the lion D 141
huge hat on his D 138
huge mug of hot D 136
hunt was in bed D 134
hunt for the rat D 134
hush things up and D 132
hull was on his D 130
huts that he had D 124
huts and the old D 124
hunt for the seal D 123
hurt and the car D 121
hull all the way D 113
huts are so low D 112
huts for the new D 110
hunk out of her D 106
hurt thee if thou D 105
hugs them to his D 104
huge paw on his D 104
huge hit in its D 104
hurt but the car D 102
hurl him to earth D 100
hunt with the gun D 100
hues that we see D 100
hurt his toe and D 98
huge paw on her D 98
hull had by this D 96
hurl them at one D 92
hull that is not D 92
huge tub of ice D 92
hunt for my hat D 91
hurl them to earth D 90
hull was in his D 90
huge cap on his D 90
huge axe in his D 90
hues that it was D 90
huts and do not D 88
hush was of death D 88
hull but he has D 88
huff with the old D 88
hubs that do not D 88
hurl them to and D 86
huge gun in his D 86
huge fan of her D 86
huts are of two D 82
huts and the few D 82
hunk out of you D 82
huge mob of men D 80
hush and do not D 59
hunt for the fox D 53
hush and no one D 51
hunt for the car D 48
hunt for the gun D 47
hugs her to his D 44
hurt and my ears D 42
hull that he did D 41
hunt for the leak D 40
hunt for the fun D 40
