scale than before . M 7558
scope and limits . M 7056
scope and detail . M 2378
scope and impact . M 2256
scope and effect . M 2228
scope and nature . M 1974
scope and design . M 1202
scope for choice . M 1192
scope and intent . M 1036
scope and methods . M 1034
scope and object . M 986
scope and number . M 744
scope and strength . M 732
scope and volume . M 702
scale for adults . M 660
scale and detail . M 629
scope and spirit . M 628
scale and design . M 627
scale and impact . M 515
scope and powers . M 514
scope for reform . M 468
scope for evasion . M 440
scope and import . M 420
scale and measure . M 393
scope and domain . M 382
scope than before . M 364
scope and degree . M 364
scale and nature . M 355
scope for debate . M 344
scale was needed . M 340
scale are needed . M 329
scale has changed . M 292
scale was formed . M 288
scope and amount . M 252
scope and mission . M 240
scale and origin . M 237
scale and volume . M 235
scale and weight . M 218
scope and format . M 216
scope was narrow . M 198
scale was created . M 198
scale than another . M 198
scale and number . M 197
scope for thought . M 188
scope and origin . M 182
scope for planning . M 180
scope for errors . M 180
scale and colour . M 176
scale was reached . M 166
scope and energy . M 158
scale and effect . M 158
scale job losses . M 155
scope and weight . M 152
scale you choose . M 151
scale was chosen . M 150
scale was turned . M 144
scale and beyond . M 144
scale air attack . M 144
scope for profit . M 142
scale are common . M 139
scale and format . M 139
scope for itself . M 136
scope for design . M 136
scale its summit . M 134
scare one another . M 130
scope for training . M 126
scope for reasoning . M 118
scale and larger . M 118
scope and effort . M 116
scale are obvious . M 116
scale and strength . M 113
scale for measuring . M 112
scope for talent . M 110
scope for fighting . M 110
scale war effort . M 109
scale and degree . M 107
scope for attack . M 104
scale than earlier . M 104
scope has changed . M 100
scale for weight . M 98
scale with another . M 93
scope for praise . M 92
scope for effort . M 92
scale are marked . M 92
scale are reached . M 90
scale had changed . M 88
scale and manner . M 88
scale and rotate . M 87
scope and manner . M 84
scale and output . M 84
scale are absent . M 83
scope was needed . M 82
scope for detail . M 82
scale and methods . M 82
scale and medium . M 81
scope and claims . M 80
scale you select . M 80
scale are uneven . M 80
