school for girls . M 62089
school this morning . M 7728
school was built . M 5520
school for women . M 5412
school that morning . M 4220
school and learning . M 3210
school each morning . M 2764
school year began . M 2712
school this morning ? M 2466
school any longer . M 2220
school year ended . M 2026
school age group . M 1758
school age child . M 1754
scared and alone . M 1698
school one morning . M 1521
screen goes black . M 1234
school had begun . M 1224
school and study . M 1142
school can offer . M 1136
screen and stage . M 1111
school and state . M 1074
school and stuff . M 986
school and others . M 890
school and above . M 876
school was begun . M 854
school and working . M 826
school for music . M 756
school was named . M 752
scared and upset . M 746
school that night . M 734
script and print . M 696
school and after . M 696
school than others . M 669
school was added . M 664
school than girls . M 658
school that evening . M 644
school and class . M 644
school day ended . M 632
school for crime . M 576
school for girls ? M 524
school has begun . M 518
scared all right . M 502
school day began . M 488
school math class . M 464
school and period . M 460
school was empty . M 450
school this evening . M 450
scarce and small . M 450
school all right . M 446
school had ended . M 414
school and books . M 410
scared and hungry . M 404
scheme was working . M 390
school for today . M 352
school for study . M 346
school was small . M 344
school and later . M 342
scheme was based . M 342
school are girls . M 340
scarce and local . M 338
school nor working . M 336
school age period . M 336
school for months . M 335
screen and paper . M 332
scared him badly . M 328
school for miles . M 324
school for nursing . M 320
school for weeks . M 318
school and teaching . M 310
school are women . M 296
scarce this season . M 296
school was found . M 290
script for writing . M 278
scared than anything . M 278
scared that night . M 269
school age girls . M 264
school was about . M 252
school for idiots . M 248
scheme was tried . M 240
school was based . M 236
school for stealing . M 236
school six months . M 235
screen for hours . M 233
scarce any value . M 230
screen his calls . M 228
screen was black . M 226
school for girls ! M 222
screen her calls . M 221
scared her badly . M 218
script you write . M 216
school and house . M 211
school one night . M 210
school they belong . M 208
school was tough . M 202
school all right ? M 202
school web sites . M 196
school one evening . M 192
scheme are given . M 192
school and learning ? M 190
school song books . M 189
school they chose . M 180
scheme was sound . M 180
school are given . M 178
school and adult . M 176
school was saved . M 174
school has ended . M 172
school for learning . M 172
school was quiet . M 168
scheme was begun . M 168
school for teaching . M 166
school was nearby . M 164
scheme for women . M 164
school was known . M 162
school for cheating . M 162
screen goes white . M 160
school was ended . M 160
school for heroes . M 160
school and pupil . M 160
scheming for power . M 160
school year alone . M 158
school has grown . M 158
scheme and meter . M 158
scarce and brief . M 158
school for anything . M 156
school and marry . M 156
scheme was built . M 156
scared any longer . M 156
school may offer . M 154
school for blind . M 154
screen and click . M 150
school for others . M 150
school and music . M 150
screen and print . M 149
school with others . M 146
school was right . M 144
school boy knows . M 143
school all morning . M 143
screen was empty . M 142
school and store . M 142
script and music . M 138
screen all calls . M 138
school with money . M 138
school for heaven . M 138
school and child . M 134
scarce and vague . M 132
school year opens . M 130
scarce that season . M 130
school too often . M 129
school was worse . M 128
school was growing . M 128
school was given . M 128
scheming for power ? M 126
school year round . M 125
school for drawing . M 124
school are black . M 124
scared this morning . M 124
school was strong . M 122
school for hours . M 122
scheming and dreaming . M 121
scared and white . M 121
script was based . M 120
school was awful . M 120
school being built . M 120
scheme that works . M 120
school may apply . M 118
screen out others . M 117
school yet again . M 116
scared too easily . M 116
school each night . M 113
school and writing . M 112
scared and uneasy . M 112
script and casting . M 110
school and stuff ? M 110
scarce this evening . M 110
school and meeting . M 108
school all night . M 108
school two months . M 106
school that works . M 106
school kid again . M 106
school had stood . M 106
scarce than others . M 106
school two terms . M 104
school two weeks . M 103
school was large . M 102
school for writing . M 102
school and style . M 102
scheme are shown . M 102
scheme and method . M 102
scarce yet begun . M 102
scarce bear motion . M 102
school and older . M 101
school was mixed . M 100
school age youths . M 99
screen with water . M 98
scared and running . M 97
school log books . M 96
school for longer . M 96
school and party . M 94
scheme for action . M 94
school boy again . M 93
screen than others . M 92
school was rough . M 92
school was opening . M 92
school than others ? M 92
scheme was known . M 92
scarce any hopes . M 92
school each evening . M 91
school day morning . M 91
school was failing . M 90
school are white . M 90
school and press . M 89
scared and cried . M 89
screen are shown . M 88
school was closing . M 88
school they liked . M 88
school year books . M 86
screen was white . M 84
school was theirs . M 84
school and girls . M 82
scheme any longer . M 82
screen this morning . M 80
screen her guilt . M 80
scared them badly . M 80
scarce and short . M 80
school that morning ? M 65
school each morning ? M 64
school all alone . M 64
scared and happy . M 59
school with girls . M 58
school any longer ? M 57
scared and small . M 57
school this morning ! M 56
school with pride . M 48
school math books . M 43
screen them first . M 40
