who loved him . M 31876
who loved her . M 24094
who wrote them . M 21770
who could not . M 20048
who loves you . M 19306
who shall say ? M 18370
who could say ? M 12914
who could read . M 12122
who built them . M 10602
who loves him . M 10136
who owned them . M 9308
who needs them ? M 9004
who loves her . M 8468
who serve them . M 8278
who makes them . M 7802
who loved them . M 7594
who knows why ? M 6754
who hated him . M 6560
who asked you ? M 6106
who knows him . M 5672
who trust him . M 5522
who serve him . M 5478
who wrote that ? M 5458
who wrote this ? M 5294
who study them . M 4952
who create them . M 4776
who hired him . M 4670
who knows you . M 4638
who knows how ? M 4628
who found him . M 4402
who needs them . M 4316
who stood near . M 4172
who loves you ? M 4078
who loves them . M 4010
who hired you ? M 3874
who visit them . M 3830
who wrote them ? M 3700
who wants them . M 3676
who needs that ? M 3550
who hired them . M 3506
who could pay . M 3490
who found him ? M 3464
who loved you . M 3410
who write them . M 3372
who found her . M 3366
who ruled them . M 3286
who found them . M 3274
who could see . M 3190
who knows them . M 3124
who utter them . M 3032
who saved him . M 3012
who never was . M 2988
who enjoy them . M 2986
who knows how . M 2908
who needs you . M 2842
who found her ? M 2792
who could not ? M 2746
why start now ? M 2690
who needs you ? M 2684
who wants him ? M 2660
who holds them . M 2562
who adopt them . M 2552
who wants that ? M 2392
who wants one . M 2344
who hated her . M 2308
who knows why . M 2278
who knows this . M 2272
who makes them ? M 2246
who needs this ? M 2218
who share them . M 2184
who liked him . M 2178
who stole them . M 2086
who knows her . M 2048
who faced him . M 2034
who watch them . M 1988
who abuse them . M 1982
who shall die . M 1954
who built them ? M 1932
who needs him ? M 1912
who loved him ? M 1908
who chose them . M 1890
who asked him . M 1882
who apply them . M 1874
who hated them . M 1866
who shall not . M 1852
who carry them . M 1842
who saved them . M 1832
who shall die ? M 1826
who wants them ? M 1762
who knows that ? M 1720
who trust them . M 1644
who curse you . M 1628
who could hear . M 1614
who kills him . M 1610
who knows all . M 1590
who build them . M 1570
who people are . M 1550
who offer them . M 1548
who likes you . M 1548
who lived near . M 1538
who hired you . M 1536
who saved her . M 1526
who loved god . M 1526
who gives them . M 1524
who feared god . M 1518
who asked her . M 1516
who hurts them . M 1512
why change now ? M 1488
who broke them . M 1464
who abuse you . M 1448
who could fly . M 1436
who loved her ? M 1428
who serve you . M 1416
who wrote that . M 1376
who wrote this . M 1368
who takes them . M 1364
who loves god . M 1354
who sends them . M 1344
who owned him . M 1326
who liked them . M 1324
who loves you ! M 1304
who knows him ? M 1296
who asked them . M 1284
who wants her ? M 1260
who lived them . M 1254
who saved you . M 1250
who seeks him . M 1248
who seeks god . M 1232
who feeds them . M 1232
who hates him . M 1222
who needs one . M 1216
who hired him ? M 1208
who sends him . M 1204
who owned her . M 1186
who chose him . M 1180
who calls you . M 1180
who serve her . M 1176
who could win . M 1174
who rules them . M 1152
who aided them . M 1116
who raise them . M 1110
who adore him . M 1104
who feeds him . M 1098
who stood out . M 1092
who comes near . M 1082
who honor him . M 1078
who wield them . M 1068
who feared him . M 1060
who knows one ? M 1036
who wants you . M 1022
who aided him . M 1018
who drive them . M 1016
who liked her . M 1002
who hates you . M 994
who visit him . M 988
who found you . M 984
who knows that . M 978
who tried him . M 970
who calls him . M 966
who enter them . M 954
who trust you . M 952
who never die . M 950
who serve god . M 936
who might not . M 928
why people buy . M 926
who helps him . M 926
who knows this ? M 918
who needs god ? M 906
who needs him . M 896
who knows you ? M 886
who knows them ? M 886
who never did . M 880
who stand out . M 876
who owned one . M 850
who needs her . M 844
who might die . M 828
who hired her . M 822
who helps you ? M 814
who enact them . M 808
who faced them . M 806
who wants her . M 792
who fight them . M 792
who lived then . M 782
who wants one ? M 776
who claim them . M 774
who meets him . M 772
who could act . M 772
who found them ? M 768
who knows who . M 766
who cares now ? M 766
who sends them ? M 762
who wants him . M 760
who guard them . M 754
who feels them . M 754
who named them . M 744
who tried them . M 740
who cried out . M 740
who likes them . M 734
who hired them ? M 732
who might hear . M 720
who earned them . M 702
who knows god . M 698
who cause them . M 698
who comes out . M 690
who needs her ? M 688
who cured him . M 684
who could say . M 670
who wants you ? M 662
who others are . M 662
who loved you ? M 662
who healed him . M 648
who helps you . M 646
who visit her . M 644
who saved you ? M 640
who needs one ? M 640
who loved him ! M 640
who moved out . M 638
who touch them . M 628
why change them ? M 626
who please him . M 616
who loves him ? M 614
who stole them ? M 610
why study them ? M 600
who train them . M 594
why bother now ? M 588
who found you ? M 588
who finds them . M 588
who guide them . M 586
who kills her . M 580
why worry now ? M 572
who wants war ? M 568
who loves her ? M 560
who favor them . M 558
why marry her ? M 554
who adore her . M 552
who headed them . M 548
who asked him ? M 544
who needs men ? M 540
who built her . M 540
who faced her . M 534
who named him . M 524
who thinks that . M 516
who meets them . M 516
who issue them . M 512
who bored him . M 508
who watch him . M 506
who hates you ? M 496
who freed him . M 494
why blame him ? M 490
who breaks them . M 490
who found out . M 488
who bless you . M 488
who please them . M 486
who owned them ? M 484
who calls them . M 484
who knows thus . M 480
who value them . M 478
who tells them . M 474
who helps them . M 470
why people die . M 466
who knows her ? M 464
who repeat them . M 460
who likes him . M 460
who knows who ? M 460
who adore them . M 458
who knows now ? M 456
who feeds you ? M 456
why right now ? M 452
who shall say ! M 452
who obeys him . M 448
who began this ? M 444
who seeks them . M 442
why blame her ? M 440
who saves him . M 440
who catch them . M 438
who meets her . M 436
who hurts you ? M 430
who hated him ? M 426
who cross him . M 424
who stole him . M 420
who cares why ? M 416
who adore you . M 416
who loved her ! M 414
who feared them . M 412
who built this ? M 412
why blame them ? M 410
who sends you ? M 406
who rules him . M 406
who cross them . M 406
who tries them . M 402
who spread them . M 402
who finds her . M 398
who wants out . M 396
who visit you . M 390
who cover them . M 390
who obeys them . M 386
who joins them . M 386
who ruled him . M 382
who people them . M 382
who named you ? M 382
who hates her . M 380
who healed them . M 378
who might see . M 376
who finds him . M 376
who asked you . M 376
who moves them . M 372
who doubt this . M 372
who moved them . M 370
who kills them . M 370
who keeps them . M 370
who judge them . M 370
why worry her ? M 364
who feeds them ? M 364
who could run . M 364
who really won ? M 362
who merit them . M 360
who tells you . M 356
who hated war . M 356
who feeds her . M 350
who wants this ? M 344
who study him . M 344
who asked her ? M 344
who loved them ? M 338
who knows things . M 338
who engage them . M 336
who tells you ? M 334
who might win . M 332
who helps her . M 332
who needs them ! M 330
who judge him . M 330
why until now . M 328
who ruled her . M 328
who lives near . M 326
who feeds you . M 326
why bother them ? M 324
why right now . M 320
who saved him ? M 318
who order them . M 318
who drops out . M 318
who hurts you . M 316
who chose you . M 314
who wrote them ! M 312
who really won . M 310
who knows ten ? M 310
who grant them . M 310
who drank them . M 310
who could buy . M 310
who knows not ? M 304
who began them . M 304
who freed them . M 302
who holds him . M 298
who cried out ? M 294
who stole her . M 290
who likes her . M 290
why waste them ? M 288
who incur them . M 288
why change things ? M 286
who shall not ? M 286
who loves them ? M 282
who honor them . M 282
who cured her . M 282
who mourn them . M 280
who marry them . M 280
who bored her . M 280
why bother him ? M 278
who makes war ? M 278
who leaves him . M 278
who hates men . M 278
who start them . M 276
who loses out . M 276
who takes them ? M 274
who trust god . M 272
who thinks them . M 272
who moves him . M 270
who tried out . M 268
who thinks that ? M 268
who frame them . M 268
who could lead . M 268
who fight you . M 266
who could hear ? M 266
who really did . M 264
who holds them ? M 264
who could see ? M 264
who views them . M 262
who avoid them . M 262
who named her . M 260
who might ask . M 260
who gives them ? M 260
who never does . M 258
who seeks him ? M 256
who never try . M 256
who loved men . M 256
who kills who . M 256
who really are . M 254
who loves men . M 254
who loved you ! M 254
who acted thus . M 254
who treats him . M 252
who shall pay ? M 252
who cries out . M 252
who voice them . M 250
who never had . M 250
who might buy . M 250
who haunt them . M 248
who comes now ? M 248
who plant them . M 246
who abuse him . M 246
why worry him ? M 244
who seeks her . M 244
who saves you . M 244
who saves them . M 244
who built that ? M 242
who kills you . M 240
who wants war . M 238
who rules all . M 238
who chose her . M 238
who asked that ? M 238
who admit them . M 236
who tells him . M 234
who liked you . M 234
who fills them . M 234
who please god . M 232
who minds that ? M 232
who quote them . M 230
who makes war . M 230
who hated men . M 230
why fight them ? M 228
who watch her . M 228
who needs you ! M 228
who hanged him . M 228
who upset you . M 226
who never read . M 226
who needs that . M 226
who knows you ! M 226
who hates them . M 226
who chose them ? M 226
who breathe them . M 226
who works them . M 224
who loves him ! M 222
who likes you ? M 222
who sends you . M 220
who saved them ? M 220
who hated you . M 218
who gather them . M 218
who could die . M 218
who makes things . M 212
who hired her ? M 210
who cleans them . M 210
who annoy them . M 210
who stays out . M 208
who evade them . M 208
who curse him . M 208
who chase them . M 208
who saves her . M 206
who keeps them ? M 206
who greet them . M 206
who asked this . M 206
who preach them . M 204
who comes not . M 204
who healed you ? M 202
who asked why . M 202
who saved her ? M 200
who curse them . M 200
why people read . M 198
who quote him . M 198
who named you . M 198
who burnt them . M 198
who solve them . M 196
who upset him . M 194
who tried that . M 194
who really does . M 194
who catch can . M 194
why marry him ? M 192
who signs them . M 192
who guard him . M 192
who tells them ? M 190
who never pay . M 190
who hates him ? M 190
who hated her ? M 190
who ought not . M 188
who opted out . M 188
who women are . M 186
who urged them . M 186
who could hear ! M 186
who knows two ? M 184
who helps them ? M 184
who serve him ? M 180
who dares not . M 180
who treats them . M 178
who loves all . M 178
who loved war . M 178
who knows now . M 178
who hates sin . M 178
who exist now . M 178
who loves her ! M 176
who grows them . M 176
who gives all . M 176
who await him . M 176
who tells her . M 174
who shape them . M 174
who breed them . M 174
who walks out . M 172
who kills them ? M 172
who finds out . M 172
who touch her . M 170
who tends them . M 170
who mourn him . M 170
who wrote this ! M 168
who watch you . M 168
who stops him . M 168
who liked men . M 168
who shall say . M 166
who nurse them . M 166
who serve them ? M 164
who obeys god . M 164
who feared her . M 164
who thinks big . M 162
who knows god ? M 162
why bother then ? M 160
who upset her . M 160
who takes her . M 160
who annoy you . M 160
who annoy him . M 160
who faced death . M 158
who aided her . M 158
who thinks this . M 156
who study them ? M 156
who guide him . M 156
who doubt them . M 156
who abhor them ? M 156
who really was . M 154
who marry out . M 154
who feared death . M 154
who cited them . M 154
who carry him . M 154
who await you . M 154
who steals things . M 152
who shall act . M 152
who knows not . M 152
why people lie . M 150
who wrote that ! M 150
who ruled all . M 150
who lives them . M 150
who keeps him . M 150
who hanged them . M 150
who amuse you . M 150
who abuse them ? M 150
who abuse her . M 150
who wrote him . M 148
who seeks man . M 148
who knows how ! M 148
who create them ? M 148
who never saw . M 146
who moves out . M 146
who kills one . M 146
who erect them . M 146
who binds you ? M 146
who await them . M 146
who trust her . M 144
who stays put . M 144
who meets you . M 144
who helps out . M 144
who calls her . M 144
why begin now ? M 142
who shall pay . M 142
who serve you ? M 142
who could say ! M 142
who chose you ? M 142
who annoy her . M 140
who treads them . M 138
who raise him . M 138
who could not ! M 138
who upset them . M 136
who looks bad . M 136
who gives way . M 136
who bowed low . M 136
who board them . M 136
who asked that . M 136
why people age . M 134
who visit them ? M 134
who spend them . M 134
who likes men . M 134
who climb them . M 134
who angers him . M 134
why others did . M 132
who wants that . M 132
who value you . M 132
who needs this . M 132
who likes who . M 132
who harms him . M 132
who freed her . M 132
why write them ? M 130
who still did . M 130
who really try . M 130
who lived out . M 130
who holds you . M 130
who grows old . M 130
why people act . M 128
who tends him . M 128
who serve him ! M 128
who knows him ! M 128
who heeds them ? M 128
who greet him . M 128
who dreams them . M 128
why repeat them ? M 126
who trust him ? M 126
who knows all ? M 126
who built them ! M 126
why start you ? M 124
who works out . M 124
who treats you . M 124
who shall win ? M 124
who named them ? M 124
who might say ? M 124
who knows both . M 124
who feels this . M 124
who feels them ? M 124
who evoke them . M 124
who shows them . M 122
who saved you ! M 122
who opens them . M 122
who might try . M 122
who knows one . M 122
who healed you . M 122
who cured them . M 122
who calls you ? M 122
who acted them . M 122
who wants this . M 120
who urged him . M 120
who still are . M 120
who shall win . M 120
who loves god ? M 120
who cross her . M 120
who change things . M 120
who asked you ! M 120
why worry them ? M 118
who saved his . M 118
who honor god . M 118
who forms them . M 118
who cried too . M 118
who adore you ! M 118
who loves man . M 116
who honor you . M 116
who found out ? M 116
why honor them ? M 114
who warns you . M 114
who tried her . M 114
who takes him . M 114
who still does . M 114
who really does ? M 114
who names them . M 114
who joins him . M 114
who greet you . M 114
who could read ! M 114
who calls out . M 114
why worry then ? M 112
why build them ? M 112
who steals them . M 112
who shall lead ? M 112
who loses out ? M 112
who found one . M 112
who finds you . M 112
who cures him . M 112
who seize them . M 110
who please her . M 110
who makes them ! M 110
who knows six ? M 110
who hates war . M 110
who cures them . M 110
why upset her ? M 108
who rules them ? M 108
who keeps her . M 108
who takes one . M 106
who moved him . M 106
who lived long . M 106
who leaves her . M 106
who kills him ? M 106
who hunts them . M 106
who cured you . M 106
who bother you . M 106
who bless you ! M 106
who write them ? M 104
who thanks you . M 104
who study man . M 104
who stops you ? M 104
who saved him ! M 104
who holds her . M 104
who hated you ? M 104
who built her ? M 104
who broke them ? M 104
who abhor them . M 104
who judge her . M 102
who honor her . M 102
who fixed them . M 102
who could read ? M 102
who calls him ? M 102
who bless them . M 102
who asked them ? M 102
who study aging . M 100
who place them . M 100
who gives being . M 100
who frees him . M 100
who feeds him ? M 100
who drops out ? M 100
who bother them . M 100
who stole them ! M 98
who might not ? M 98
who dared not . M 98
who wrote you . M 96
who watch them ! M 96
who judge you . M 96
who hurts him . M 96
who harms you . M 96
who gives not . M 96
who built this . M 96
who thinks not . M 94
who stole her ? M 94
who right now . M 94
who please you . M 94
who lives now . M 94
who found him ! M 94
who fixed things . M 94
who curse you ! M 94
who could heal . M 94
who chase him . M 94
why upset them ? M 92
who write this . M 92
who sends him ? M 92
who never was ? M 92
who never has . M 92
who hurts her . M 92
who hated him ! M 92
who hated god . M 92
who favor him . M 92
who bless him . M 92
why upset him ? M 90
why start now . M 90
who tells this . M 90
who stole things . M 90
who shall lead . M 90
who loves them ! M 90
who knows men . M 90
who hides them . M 90
who found this ? M 90
who feared god ? M 90
who appear weak . M 90
why bless you ! M 88
who thinks thus . M 88
who seeks you . M 88
who people are ? M 88
who needs aid . M 88
who hates you ! M 88
who hates who . M 88
who guide you . M 88
who could cry . M 88
who broke out . M 88
who blame them . M 88
who argue thus . M 88
who after him ? M 88
why doubt this ? M 86
why bother going ? M 86
who owned her ? M 86
who never cry . M 86
who knows this ! M 86
who kicks her . M 86
who helps him ? M 86
who healed her . M 86
who could ask . M 86
who loved both . M 84
who found them ! M 84
who feels bad . M 84
who cured you ? M 84
who chose death . M 84
who amuse them . M 84
who upset you ? M 82
who thinks this ? M 82
who seize him . M 82
who ruled them ? M 82
who raise them ? M 82
who owned him ? M 82
who nurse him . M 82
who emits them . M 82
who draft them . M 82
who broke off . M 82
who amuse him . M 82
why hurry him ? M 80
who track them . M 80
who spoil them . M 80
who reveal them . M 80
who ranged far . M 80
who needs god . M 80
who likes them ? M 80
who laugh now ! M 80
who fight him . M 80
who doubt him . M 80
who could fly ? M 80
