where are you ? M 511265
where you are . M 301278
where are they ? M 232240
where they are . M 223971
where she was . M 207608
which are not . M 135204
which they did . M 77636
where was she ? M 55148
where you are ? M 52108
which she did . M 43568
while you can . M 40699
where you are ! M 36058
where you going ? M 32228
which they act . M 29168
which they are . M 29008
which did not . M 28376
which does not . M 27874
white and red . M 27730
where they may . M 27240
which they lie . M 24522
where they are ? M 24202
which they deal . M 24104
where they lay . M 22352
where she sat . M 22326
where was that ? M 18694
which are not ? M 17372
which can not . M 17172
which they lead . M 16536
where she lay . M 16020
where they sat . M 15344
whole day long . M 15260
which was not . M 13946
while they ate . M 11801
where they can . M 11664
where you can . M 10746
which they sat . M 10136
which they lay . M 9880
which they had . M 9292
which they use . M 9222
where and how . M 9026
where was this ? M 8978
which they run . M 8792
which are they ? M 8778
where you sit . M 8660
whole new way . M 8476
which she sat . M 8332
where they lie . M 8296
which you are . M 8110
where she was ? M 7934
which are you ? M 7408
where and how ? M 7402
white with fear . M 7242
which she was . M 6968
which are his . M 6918
where they lead . M 6834
where they are ! M 6810
while you may . M 6772
which way now ? M 6583
where they did . M 6442
which they bear . M 6218
which she lay . M 5998
while doing this . M 5992
which they sit . M 5942
where that was . M 5862
which are new . M 5720
where things are . M 5682
which had not . M 5644
which they led . M 5538
while she ate . M 5235
where and why . M 5152
while you read . M 5090
which they aim . M 5078
where was god ? M 5006
whose are they ? M 4900
where are you ! M 4898
while you can ! M 4883
while they can . M 4865
which was his . M 4816
which was this . M 4276
where she goes . M 4250
where and why ? M 4246
which you see . M 4226
which they own . M 4142
which she had . M 4120
which she does . M 4042
which has not . M 3924
which they read . M 3736
which are bad . M 3660
where they led . M 3650
which may not . M 3622
white with age . M 3530
where they end . M 3504
where they sit . M 3302
which was read . M 3284
which they ran . M 3256
which they saw . M 3240
which was new . M 3224
whose they are . M 3216
where god was . M 3128
which they fit . M 3118
which are real . M 3074
which they buy . M 3050
which they bring . M 3046
where and who . M 3045
while they read . M 2975
which they die . M 2872
while she read . M 2690
which they ate . M 2630
which use them . M 2562
which was bad . M 2556
which you did . M 2488
where are you . M 2472
which was death . M 2448
which was due . M 2440
which they cling . M 2366
which they pay . M 2346
which was odd . M 2328
which you use . M 2322
where they fit . M 2260
which they see . M 2220
while using them . M 2164
which you ask . M 2116
while with him . M 2098
which does this . M 2070
where they die . M 2058
which are red . M 2008
where she did . M 1828
where one was . M 1828
which they hear . M 1810
white man does . M 1776
which you read . M 1774
which did not ? M 1774
while you may ! M 1759
which they end . M 1748
which they fly . M 1744
which saw them . M 1728
whole day off . M 1724
which was near . M 1710
where you did . M 1694
which they fear . M 1670
which they hang . M 1668
while with them . M 1661
which way out ? M 1634
white and set . M 1602
which was god . M 1566
where you was . M 1538
which they won . M 1530
which has two . M 1528
which bear them . M 1528
which does not ? M 1518
which are dead . M 1486
whole long day ? M 1474
where she was ! M 1462
while they may . M 1454
while each day . M 1451
white and dry . M 1450
which was dead . M 1440
which can not ? M 1390
while she can . M 1384
where she led . M 1380
which you sit . M 1378
which they can . M 1376
where they ate . M 1362
where was you ? M 1326
whole year long . M 1316
where you lie . M 1308
whose are you ? M 1307
where they hid . M 1302
which are weak . M 1294
which they cut . M 1288
where are they ! M 1280
which she has . M 1270
which they ask . M 1264
which was thus . M 1262
which they are ? M 1260
where you mean . M 1248
where she can . M 1244
where you may . M 1230
while with you . M 1212
where this was . M 1206
whole far east . M 1194
which you saw . M 1164
while doing them . M 1152
which they set . M 1148
which they hung . M 1148
which are low . M 1146
where you lead . M 1122
white man did . M 1114
which they long . M 1092
white men did . M 1090
whole new era . M 1068
whole does not . M 1066
where they did ? M 1050
which you act . M 1044
where they may ? M 1044
which was red . M 1042
whose you are . M 1035
while you can ? M 1028
white with them . M 1024
while she did . M 1024
while with her . M 1022
which she read . M 1022
which she won . M 1018
whole near east . M 1014
which she ate . M 1006
white and red ? M 1002
where they was . M 996
which you hear . M 980
which was easy . M 972
while they did . M 970
which you mean ? M 962
which was real . M 956
which are old . M 956
which you deal . M 954
which was low . M 952
where that was ? M 952
where this goes . M 950
which was dry . M 924
where you fit . M 920
white and ill . M 914
while they dry . M 914
white with heat . M 910
which are near . M 908
while she eats . M 902
which are due . M 900
where they run . M 900
which you fear . M 882
which she saw . M 878
where she hid . M 862
whole long day . M 858
whole did not . M 854
white man has . M 846
which was that ? M 844
whole day long ? M 830
which you can . M 818
which they get . M 812
where you sat . M 800
where they act . M 800
which has one . M 788
which has them . M 786
where they hung . M 786
which was not ? M 782
where men are . M 782
which and that . M 776
which are men . M 766
where they may ! M 758
white men are . M 756
which you mean . M 744
white you are ! M 742
while you run . M 741
where that led . M 738
which they got . M 720
which are one . M 720
which you pay . M 714
which was hid . M 710
which are few . M 706
which are dry . M 702
which you aim . M 698
which lay near . M 696
which and why ? M 694
where are they . M 688
where one can . M 680
which she ran . M 678
which one has . M 674
where you did ? M 674
whole new deal . M 664
which they mean . M 664
which you are ? M 662
which they hid . M 654
while for him . M 648
which own them . M 648
white and long . M 646
which was sad . M 646
which you see ? M 644
where you lay . M 644
where you sit ? M 636
whole new set . M 634
white and dead . M 630
while and see . M 630
where you say . M 628
which you own . M 626
whole can not . M 624
which does that . M 622
while you read ? M 618
while for you . M 615
white and new . M 612
which this was . M 612
whole new one . M 610
while being cut . M 610
while ago now . M 603
while you ate . M 600
where she goes ? M 598
while they run . M 596
where they had . M 592
which had two . M 582
which are things . M 580
where one goes . M 580
which are read . M 574
white man out . M 572
while they heal . M 570
which are out . M 570
which they earn . M 564
which you say . M 562
while she sings . M 560
whole day long ! M 558
while for them . M 552
where you die . M 550
where they lie ? M 548
which are now . M 542
whole was not . M 540
which they head . M 538
whole with him . M 536
white man had . M 536
which they owe . M 536
which one yet . M 530
which men die . M 530
where you going . M 524
whose are not . M 522
white man was . M 522
which god does . M 522
while they ran . M 521
which men act . M 516
whole deal off . M 514
whose they are ? M 512
which are bad ? M 512
white man too . M 508
whole lot out . M 506
which has being . M 504
white and weak . M 502
which they saw ? M 502
whole year now . M 496
which they did ! M 496
white with may . M 494
while eating them . M 488
which you long . M 484
where nor how . M 484
which you buy . M 482
which god has . M 482
which had won . M 480
which you bear . M 478
which was war . M 476
while she sat . M 474
which they say . M 472
while one can . M 470
which are set . M 468
while they are . M 467
where was man ? M 466
while doing that . M 463
which are long . M 462
while going out . M 460
which had them . M 458
whole new you . M 456
which you lie . M 454
which are easy . M 454
whose was that ? M 450
while you cut . M 448
where did you ? M 448
which was wet . M 442
which she eats . M 442
which man has . M 440
which did this . M 436
which things are . M 434
which they are ! M 430
where you sit ! M 428
white man can . M 424
where you end . M 424
white man now . M 422
which one does . M 418
where they aim . M 418
whole new area . M 416
which was old . M 416
which she sings . M 414
white and wet . M 412
which was she ? M 412
while she ran . M 408
which was real ? M 408
which they act ? M 408
where they going ? M 400
which you had . M 396
where you bin ? M 396
which was weak . M 390
which they did ? M 390
white she was . M 388
which goes out . M 388
whole long year . M 386
while they die . M 386
where she does . M 386
where that goes . M 382
which she got . M 378
which led them . M 378
where you buy . M 376
whole year ago . M 374
which was long . M 374
which are two . M 374
where was max ? M 372
where they buy . M 372
white men out . M 370
which was nil . M 370
white and red ! M 368
which was cut . M 368
which was now . M 366
which they may . M 366
which did that . M 364
white men too . M 360
where arc they ? M 358
where they ran . M 356
while they sat . M 355
which they bow . M 354
which she goes . M 354
whose are not ? M 352
whole way out . M 352
while you sit . M 350
which they lead ? M 350
which you die . M 348
which you did ? M 348
where she had . M 346
where they hang . M 344
whole new idea . M 342
which you are ! M 342
which are not ! M 342
where she did ? M 342
white they are . M 340
while she may . M 340
which this led . M 340
white men had . M 338
white than red . M 334
which can fly . M 334
which and why . M 334
white for him . M 330
which they deal ? M 330
where you was ? M 330
whole with earth . M 328
which they bid . M 326
whole and new . M 324
which she led . M 322
where are who ? M 320
which has not ? M 318
which are both . M 318
which are dying . M 316
where you arc . M 314
whole new day . M 312
which can die ! M 312
whole with them . M 311
white was dead . M 310
which has six . M 310
which are cut . M 310
whist with him . M 309
which you use ? M 308
which they use ? M 308
white and old . M 306
which was set . M 306
which are his ? M 302
which team won . M 300
while for that . M 299
which was him . M 296
while doing this ? M 295
which was one . M 294
where this led . M 294
whole and one . M 293
whole are not . M 292
white does not . M 292
which won out . M 292
where you can ! M 292
whole and real . M 290
which one goes . M 290
where arc you ? M 290
while you are . M 289
which was dying . M 286
while you die . M 285
whole sum due . M 284
white nor red . M 284
which you owe . M 284
where was yes . M 284
while you heal . M 280
while eating out . M 280
which you lead . M 280
where things are ? M 278
which was you . M 276
which old man ? M 276
where you aim . M 274
whole new team . M 272
which was ill . M 272
which she hid . M 272
white and all . M 270
which was this ? M 270
where you get . M 270
where they fly . M 270
which you get . M 266
which they beat . M 266
whole new way ! M 264
where was she ! M 264
white and sad . M 262
which they win . M 262
which they mix . M 262
which are off . M 262
which are odd . M 262
which are god . M 262
where they lead ? M 262
which has both . M 260
which was fear . M 258
which men are . M 258
which you fly . M 254
white that day . M 252
while that day . M 252
whose you are ! M 250
which you cling ! M 250
which was his ? M 250
which and who . M 250
which had set . M 248
where she may . M 248
whose did not . M 246
where they arc . M 246
whole for him . M 244
which was man . M 244
where and who ? M 244
while she was . M 242
which fit them . M 242
which they lie ? M 238
which they had ? M 238
white they are ! M 234
which then die . M 234
while they fly . M 232
which you cling . M 232
which one eats . M 232
where they lie ! M 232
whole idea was . M 230
which you run . M 230
which team won ? M 230
where they err . M 230
where can you ? M 230
which each has . M 226
which hid them . M 224
where you can ? M 222
whole has not . M 220
white you are . M 220
where they mix . M 220
whole new man . M 218
white with red . M 218
which was out . M 218
which she did ! M 218
which had one . M 218
which you sat . M 216
which was then . M 216
which arc not . M 214
where she ran . M 214
where she ate . M 214
white man dead . M 212
white and big . M 212
which won them . M 212
which does both . M 212
where are going ? M 210
which they rear . M 208
which led him . M 208
where you pay . M 206
while you earn . M 204
which may not ? M 204
which has won . M 204
which bit him . M 204
where this goes ? M 204
while they earn . M 202
which you may . M 202
which was won . M 202
while you fly . M 200
which then was . M 200
where one sat . M 200
where his was . M 200
whose does not ? M 198
white men use . M 198
white men now . M 198
which has set . M 198
whole day out . M 196
white for them . M 196
whole day now . M 194
white and die . M 194
while being read . M 194
which you read ? M 194
while she does . M 193
white men are ! M 192
white for you . M 192
which you fear ? M 192
where you run . M 192
whole year off . M 190
whole lot off . M 190
while they can ? M 190
which does earn . M 190
whose was not . M 188
whole new age . M 188
which you bring . M 188
which she was ? M 188
which see app . M 188
where you cut . M 188
while they act . M 186
which you run ? M 184
which are death . M 184
which was lit . M 182
where with you . M 182
whole and all . M 181
while and read . M 180
which can die . M 180
where they end ? M 180
where max was . M 180
where and how ! M 180
while for her . M 179
whole new path . M 178
which that was . M 178
which she lit . M 178
which can see . M 178
where you hid . M 178
whose she was . M 176
white man way . M 176
white for long . M 176
which was she . M 176
which few did . M 176
where you see . M 176
which was off . M 174
where they say . M 174
where she sat ? M 174
while each year . M 172
which you set . M 172
which they map . M 172
which they dry . M 172
which are real ? M 172
where this was ? M 172
which run them . M 170
where nor why . M 170
whole lot too . M 168
white with death . M 168
which you ask ? M 166
which was six . M 166
where you ate . M 166
where with him . M 166
where was his ? M 166
where for that . M 166
whole with god . M 164
while they sit . M 164
which was her . M 164
whole they are . M 162
whole head off . M 162
whole each day . M 162
which was all . M 162
which they fix . M 162
which they add . M 162
where you lie ? M 162
where they won . M 162
white men can . M 160
which you bring ? M 160
which was sin . M 160
which was owing . M 160
which you saw ? M 158
which cut them . M 158
whole with you . M 156
white oak run . M 156
white men say . M 156
white eye rings . M 156
while and for . M 156
which they dip . M 156
which may die . M 156
where that was ! M 156
white man die . M 154
where they lay ! M 154
where she fit . M 154
whole new year . M 152
white man yet ? M 152
which men die ! M 150
which are weak ? M 150
where they rot . M 150
whole new you ? M 148
whole lot now . M 148
while you try . M 148
while than they ? M 148
which they run ? M 148
which one then ? M 148
which one can . M 148
which does things . M 148
where two are . M 148
where they sit ? M 148
where they cut . M 148
where she sings . M 148
whose does not . M 146
whole war was . M 146
which was sky . M 146
while that way . M 145
whole year long ! M 144
whole set off . M 144
whole and god . M 144
while with you ? M 144
which you lay . M 144
which men fear . M 144
which for things . M 144
which and how . M 144
where they lay ? M 144
where they can ? M 144
where she hung . M 144
whole may not . M 142
which one was . M 142
which are all . M 142
where you lie ! M 142
whole day off ? M 140
which his son . M 140
which his own . M 140
whole they did . M 138
whole new way ? M 138
white with sun . M 138
while you cry . M 138
while they can ! M 138
which they aim ? M 138
which are his ! M 138
which all are . M 138
where you may ! M 138
white men earn . M 136
which you sit ? M 136
which they put . M 136
which they leap . M 136
which they bring ? M 136
which she can . M 136
which man does . M 136
where you sat ? M 136
white for her . M 134
which you age . M 134
which they own ? M 134
which had six . M 134
which die out . M 134
whole was bad . M 132
whole long way . M 132
while being led . M 132
which are let . M 132
where she goes ! M 132
where she does ? M 132
whole was low . M 130
which they cry . M 130
which they beg . M 130
which had not ? M 130
which are wet . M 130
which are law . M 130
white but red . M 128
which you add . M 128
which was both . M 128
which they see ? M 128
which are ill . M 128
where was she . M 128
where things lead . M 128
whole new war . M 126
white yet both . M 126
white men doing ? M 126
white man does ? M 126
while singing them . M 126
which mean you ? M 126
which and how ? M 126
where you led . M 126
where things fit . M 126
whole was weak . M 125
white man won . M 124
which she set . M 124
which bring death . M 124
whole for them . M 123
white with joy . M 122
which you hang . M 122
which things act . M 122
which now are . M 122
which had both . M 122
which are lit . M 122
where they got . M 122
where she has . M 122
whole was out . M 120
white was one . M 120
which way then ? M 120
which was let . M 120
where one eats . M 120
while you cry ? M 118
while she can ! M 118
which was ten . M 118
which she hung . M 118
which each lay . M 118
which they had ! M 116
which all men . M 116
where with you ? M 116
where they going . M 116
whole for you . M 115
while does not . M 115
whole rear end . M 114
whole new job . M 114
white for red . M 114
white and mad . M 114
which you act ? M 114
where she lay ? M 114
where she lay ! M 114
white old man . M 112
white men too ! M 112
while you saw . M 112
while and die . M 112
white man say . M 110
which one won . M 110
which hid him . M 110
which are dead ? M 110
which are big . M 110
where you going ! M 110
whole new being . M 108
white and low . M 108
while you may ? M 108
which was east . M 108
which they age . M 108
which can win . M 108
where that goes ? M 108
whole was doing . M 106
white men run ! M 106
which you win . M 106
which you head . M 106
which was dead ? M 106
which read them . M 106
which ran thus . M 106
which has its . M 106
where near them . M 106
while man does . M 105
whole big deal . M 104
whole and one ? M 104
whole and all ? M 104
white was not . M 104
white men die . M 104
while one may . M 104
which you long ? M 104
which you cut . M 104
which was law . M 104
which they lit . M 104
which ran near . M 104
which ate them . M 104
where you read . M 104
which was two . M 102
which was that . M 102
which set out . M 102
which mean god . M 102
where you air . M 102
where they set . M 102
where they can ! M 102
where one may . M 102
whole with ease . M 100
white they was . M 100
while she goes . M 100
which you had ? M 100
which they sit ? M 100
which they let . M 100
which they heal . M 100
which men reap ! M 100
which hang low . M 100
which does fit . M 100
which are nil . M 100
where god was ? M 100
where each goes . M 100
where did you . M 100
whole team did . M 98
whole new act . M 98
white with heat ! M 98
white she was ! M 98
white for now . M 98
which you say ? M 98
which this has . M 98
which they sin . M 98
which they mean ? M 98
which mean them . M 98
whose was not ? M 96
whole day yet . M 96
whole arm off . M 96
white with him . M 96
white with ash . M 96
which was going . M 96
which they ask ? M 96
which they arc . M 96
which get you . M 96
where with her . M 96
where they sat ? M 96
where his son . M 96
where for you . M 96
whole eye area . M 94
white with fear ? M 94
white man now ? M 94
which ran out . M 94
which ran off . M 94
which one did . M 94
which men use . M 94
which has run . M 94
which each had . M 94
whole long poem . M 92
white men dead . M 92
white did not . M 92
while they try . M 92
while are not . M 92
which was big . M 92
which lead them . M 92
which bring them . M 92
where you was ! M 92
where you err . M 92
where its going . M 92
white and son . M 91
whole are low . M 90
white with may ! M 90
white ere now . M 90
which they buy ? M 90
which pay them . M 90
where was death ? M 90
where she eats . M 90
where lie was . M 90
where can they ? M 90
whose they are ! M 88
whole was his . M 88
while than they ! M 88
which was singing . M 88
which they war . M 88
which they read ? M 88
which they bet . M 88
which ran them . M 88
which does all . M 88
which all had . M 88
where you get ? M 88
where was one ? M 88
where she going . M 88
where death was . M 88
whole east end . M 86
while they set . M 86
which you aim ? M 86
which was led . M 86
which they now . M 86
which has led . M 86
while they cry . M 85
whose did not ? M 84
whole leg off . M 84
which you fit . M 84
which men say ? M 84
which god had . M 84
which for that . M 84
which are going . M 84
where things end . M 84
where she sat ! M 84
where near him . M 84
whole not bad . M 82
whole new song . M 82
whole day off ! M 82
white man yet . M 82
white man that . M 82
while going off . M 82
which men aim . M 82
which eats them . M 82
which can act . M 82
which are six . M 82
where don was . M 82
where cut off . M 82
white men too ? M 80
which you got . M 80
which hear them . M 80
which fit him . M 80
which dry out . M 80
whist with them . M 57
while any way . M 51
while you did . M 49
whole that way . M 47
whist with her . M 47
while for you ? M 46
whose was this ? M 45
whole with her . M 43
whole with god ? M 43
while she had . M 40
