which for a long M 89440
which has a long M 42708
where can i get M 40179
which was a long M 27786
which has a low M 27110
which was a new M 26678
which had a long M 25076
which was a big M 22000
which was a lot M 18244
which but a few M 17808
while not a few M 16723
while yet a boy M 15802
which was a real M 15317
which was a bit M 15214
which not a few M 15200
which was a few M 15174
which for a few M 15076
where did i put M 13930
where did i get M 12692
where was i going M 12306
which are a few M 10616
which goes a long M 10344
which was a lie M 9566
where for a long M 9514
which has a mean M 9162
white with a red M 8617
which had a few M 8304
where for a few M 8092
which has a lot M 7952
where but a few M 7950
which has a real M 7612
which was a way M 7104
which was a bad M 6960
which was a key M 6920
which was a far M 6848
which has a few M 6838
where can i buy M 6776
which was a year M 6586
while ago i was M 6493
which had a low M 5381
which with a few M 5304
which had a lot M 5174
while that i was M 5092
which had a far M 5066
which way i was M 4948
which both a and M 4650
which was a day M 4602
which lay a few M 4580
which was a low M 4503
which was a man M 4488
which had a big M 4438
which are a bit M 4422
white with a few M 4374
which was a two M 4322
where can i see M 4312
where both a and M 4164
which has a far M 4046
which for a year M 4045
which has a two M 4004
which had a real M 3908
which has a set M 3846
which has a non M 3828
which has a red M 3706
which set a new M 3562
which has a new M 3542
where can i put M 3488
which way i fly M 3410
which has a big M 3380
where for a year M 3301
which was a sad M 3204
which has a net M 3120
which had a bad M 3102
which has a bad M 3094
which had a new M 3050
where did i see M 3014
which had a way M 2998
which had a mean M 2918
which was a red M 2877
which has a head M 2846
while ago i had M 2823
while for a long M 2816
white and a red M 2814
which fit a man M 2626
which has a one M 2601
which are a set M 2540
which are a long M 2488
which was a one M 2486
which are a key M 2420
which has a way M 2408
where not a few M 2302
while and i was M 2284
while for a few M 2274
while for a man M 2266
where did i hear M 2254
which are a real M 2228
white and a few M 2199
which was a non M 2184
which was a dead M 2125
where can a man M 2076
which for a man M 2068
which was a set M 2058
which had a run M 2035
which one i was M 1962
which had a red M 1956
while that i had M 1924
which both i and M 1846
while ago i saw M 1845
which had a two M 1836
while not a new M 1823
which are a lot M 1784
which was a box M 1772
which lead a man M 1754
which sat a man M 1731
which has a weak M 1708
which was a law M 1689
which has a key M 1686
which are a new M 1686
which did a lot M 1682
which way a man M 1676
which now i can M 1660
where does a man M 1651
which was a sin M 1582
while not a man M 1564
which was a war M 1552
while singing a song M 1545
which now i see M 1524
which one i mean M 1499
which hung a long M 1498
which had a head M 1476
while but a few M 1460
where had i got M 1440
which way i had M 1426
white and i was M 1407
which was a dry M 1400
which are a far M 1372
which was a pre M 1352
which had a net M 1351
which was a log M 1298
where did i read M 1290
which has a top M 1280
which was a plea M 1266
which was a joy M 1254
where was a man M 1225
whole day i was M 1222
whose son i was M 1202
which has a bar M 1192
which was a bar M 1186
which ran a long M 1186
which put a new M 1158
which not a man M 1146
which had a top M 1140
which was a seat M 1111
where can i read M 1108
which lie a few M 1104
white was a man M 1093
which was a sum M 1078
which has a near M 1077
where did i fit M 1070
which has a dry M 1068
which was a boy M 1066
which add a new M 1046
which has a heat M 1043
which are a way M 1042
while eating a meal M 1035
whole year i was M 1022
which that i may M 1018
which for a day M 1018
which has a bit M 1011
which does a lot M 1008
which was a weak M 1000
which are a joy M 996
whose death i had M 988
where was i now M 986
which was a near M 977
which was a poem M 958
which has a law M 944
which has a six M 942
white and i had M 932
which was a job M 930
which was a death M 916
which was a head M 912
where can i run M 910
which was a six M 906
which was a not M 906
which was a ten M 890
which ran a few M 870
where with a few M 870
which led a few M 860
whose head i had M 858
while with a few M 857
while and i had M 852
whole year i had M 850
where are a few M 850
which way i can M 838
white with a long M 834
whole lot i can M 826
which led a man M 825
which lay a man M 819
which was a heap M 812
which was a net M 806
which put a man M 790
whole day i had M 788
which yet i can M 788
which was a song M 786
which had a one M 784
while and i did M 781
while ago i read M 781
where was i then M 774
which was a top M 771
where not a man M 769
which are a and M 768
which lay a long M 758
which had a non M 758
which was a cut M 728
whose death a few M 722
which use a lot M 722
which are a big M 708
which was a mix M 704
white man i had M 702
which got a lot M 688
where all i had M 686
white for a few M 681
which had a near M 680
white for a long M 675
which was a cup M 672
which had a weak M 672
where did i say M 670
which has a pre M 667
which was a pet M 662
which bring a man M 654
while yet i was M 651
which lay a dead M 650
which was a son M 647
where both i and M 644
which has a lead M 642
which are a mix M 636
while that i may M 628
where was i and M 626
which has a use M 615
while yet i may M 614
which one i had M 614
which has a map M 614
while doing a job M 610
which has a seat M 610
which has a cut M 610
which had a bar M 610
white with a big M 608
which lay a heap M 600
where both s and M 598
which day i was M 594
which was a pit M 592
which had a six M 592
which all i can M 592
which has a ten M 582
which was a fit M 576
which set a man M 575
which had a pre M 572
which was a dog M 569
white for a man M 566
while that i did M 565
which saw a new M 564
which has a gap M 562
whose death i was M 554
which was a map M 552
which had a set M 550
whole for a few M 547
while but i did M 536
which day i had M 532
which was a mean M 528
which was a god M 528
while and i can M 524
which put a lot M 524
which all a man M 524
which had i not M 522
which but a year M 517
which had a key M 511
while and a lot M 509
which mean a lot M 509
which has a being M 505
white that i was M 502
which was a fear M 501
whole with a few M 500
which way i may M 498
which hung a few M 498
while with a new M 497
where can i fly M 496
whose son i had M 492
where both t and M 492
where and a and M 492
while yet a long M 491
which are a man M 488
which add a few M 486
which was a path M 478
which had a ten M 476
which set a bias M 472
where sat a man M 472
while ago i did M 470
while for a new M 468
which had a year M 466
while ago a man M 465
which has a year M 464
while but i was M 457
which yet a man M 456
which are a dead M 456
which has a bias M 450
whose aid i had M 448
which then i had M 448
which both s and M 448
which had a bit M 447
which bear a near M 444
which has a man M 443
which sat a few M 442
which was a bag M 440
where for a day M 440
while and i got M 438
which was a cry M 438
which then i was M 438
where now i was M 438
while with a man M 436
which has a dip M 436
while and a few M 432
which has a web M 430
which had a seat M 429
which yet i did M 424
which then i did M 420
where can i use M 420
while all i had M 411
which for a one M 411
which got a big M 408
which for a two M 404
where was i all M 404
whole with a new M 403
where had i read M 402
while but a boy M 401
where had i put M 400
which had a man M 394
which had a law M 392
which bring a new M 392
which are a law M 392
white men i had M 388
which all i had M 388
white and a bit M 387
which was a wet M 384
which has a and M 384
which has a wet M 383
while ago i got M 374
white man i was M 372
which both t and M 372
while and i saw M 367
which are a low M 366
which was a meal M 364
which has a not M 364
which are a pre M 360
whole being a poem M 358
which has a path M 358
where all i can M 358
whole for a long M 354
white man a few M 354
where and a are M 352
while with a low M 350
whose leg i had M 348
where was a new M 348
where being a man M 348
which was a going M 344
while for a non M 342
which has a mix M 340
which are a year M 337
whose arm i had M 336
while but i had M 336
which lay a day M 336
where did a man M 336
which has a dead M 327
which was a leap M 322
where can i sit M 322
which yet i see M 316
which bear a few M 316
whole day i did M 312
which ran a low M 312
which are a sad M 312
while not a bad M 310
which now i saw M 310
which for a new M 308
which now i was M 304
which are a bar M 304
whose arm i was M 302
white with a bit M 302
which hung a big M 300
where was a big M 300
which was a bow M 298
whole not a bad M 296
white and i are M 294
while both a and M 294
which with a bit M 294
which had a pro M 293
which had a death M 292
while that i can M 291
which was a pro M 291
whole that i had M 290
which one i can M 288
which hung a red M 286
while for a boy M 285
which was a dim M 284
which has a mid M 284
which set a bad M 282
which has a log M 282
which has a death M 280
which had a map M 280
which get a lot M 280
while with a long M 278
where got i that M 278
whole that i can M 276
which run a long M 276
which had a dry M 276
where may i ask M 276
where all i did M 276
white and a man M 274
which has a run M 274
where all a man M 274
while but i can M 273
which had a team M 272
white dog i had M 268
which has a cup M 266
which being a new M 266
white man i saw M 262
which had a lead M 262
where now a few M 262
which has a team M 258
which has a for M 257
which not a day M 256
which hath a long M 256
where was i with M 256
whole has a low M 254
which with a long M 254
where can i hear M 254
while not a real M 252
where that i can M 252
whole year i did M 250
which year a new M 250
which are a non M 249
whose eye i had M 248
while yet a low M 248
which things i was M 248
which put a few M 248
which lay a big M 246
white with a new M 244
while but i got M 244
while being a man M 244
which yet i was M 244
which sings a song M 244
white and i did M 243
while for a year M 243
while all i can M 242
which had a bow M 242
which with a new M 238
which was a sun M 238
white but a few M 236
which had a not M 236
where was a long M 236
which year i was M 234
which now i had M 234
which has a leg M 234
which has a job M 232
whole way i was M 230
where may i see M 230
which for a non M 229
which use a set M 228
which has a box M 228
which got a new M 228
where not a bud M 228
which has a dot M 226
while doing a bit M 225
which being a man M 225
while not a big M 224
which has a sad M 224
which sum i had M 222
where lay a few M 222
whole and a new M 221
whole and i can M 220
while yet a few M 220
which was a bear M 220
which lay a new M 220
whose path i had M 218
which won a new M 218
which sat a big M 216
which are a bad M 216
which was a toy M 214
which had a sad M 214
whose head i was M 212
whose aid i was M 212
which was a deal M 212
which ran a path M 212
which had a gap M 211
which with a low M 210
where can i hang M 210
white that i see M 208
which that i use M 208
which had a use M 208
where for a man M 208
where does a new M 208
where can a new M 208
where lay a dead M 206
while for a low M 204
which that i can M 204
whose seat i was M 202
which both d and M 202
which are a boy M 202
where can i lay M 200
where both d and M 200
white and i can M 198
which was a run M 198
which then i can M 198
where did i buy M 198
while that a man M 197
which was a lead M 197
whole for a new M 196
white that i had M 196
white and a long M 196
while using a low M 196
which was a myth M 196
which does a man M 196
which and a few M 196
white man i can M 194
which put a ban M 194
where not a lot M 194
which run a few M 192
where did i not M 192
which was a dear M 191
which was a cat M 190
where not a day M 190
whole was a net M 189
white man a dog M 188
which hung a bag M 188
while yet i can M 187
which had a dead M 187
whole has a net M 186
whole has a long M 186
which was a too M 186
which owe a lot M 186
which get a man M 186
where did i end M 186
while using a new M 184
which way i did M 184
which was a team M 184
which but a day M 184
whole that i was M 183
while out a long M 182
while now i can M 182
which has a sum M 182
which has a pit M 182
white with a lot M 180
which now i may M 180
which saw a lot M 178
which has a bud M 178
which had a box M 178
whose end i can M 176
while now i was M 176
which yet i had M 176
which ran a year M 176
which had a cut M 176
which goes a bit M 176
where yet i was M 176
where can i set M 176
while doing a lot M 175
which not a lot M 174
which got a bit M 173
whole and i was M 172
while being a bit M 172
which was a gap M 172
which try a man M 172
whose death a year M 170
white man a long M 170
which for a poet M 170
which being a bad M 170
which are a heap M 170
whole than i had M 169
while all i did M 169
which now i bear M 168
which let a man M 168
where now i sit M 168
which use a non M 166
which has a pro M 166
which has a due M 166
which has a bow M 166
which both a man M 165
where lay a man M 165
white and a lot M 164
which rings a and M 164
where was i that M 164
where can i not M 164
while going a long M 162
which has a saw M 162
which end i was M 162
where lay a heap M 162
which job i got M 160
which has a rear M 160
which are a not M 160
whose leg i was M 158
white and i saw M 158
which way a cat M 158
which lie a long M 158
which for a lot M 158
which for a boy M 158
where was a low M 158
where can i cut M 158
which was a meat M 157
which use a low M 156
which sat a boy M 156
which led a year M 156
which led a long M 156
which for a set M 156
which has a dog M 155
white for a year M 154
while for a real M 154
which has a day M 154
where now i can M 154
where but a year M 154
where for a set M 153
which was a bid M 152
which use a few M 152
which put a big M 152
which got a few M 152
where now a new M 152
which had a wet M 151
while for a two M 150
which now i hear M 150
which end i had M 150
which each s was M 150
which had a say M 149
which are a one M 149
whole than i was M 148
which yet i say M 148
which one i use M 148
which was a mad M 146
which had a deal M 146
which are a day M 146
whole has a mean M 145
whose head i saw M 144
whose boy i was M 144
whose arm i can M 144
while being a real M 144
which that i had M 144
which has a bag M 144
which had a day M 144
where was i for M 144
white with a low M 142
white man a lie M 142
white had a long M 142
which had a rear M 142
which does a big M 142
which are a sum M 142
where may a man M 142
which has a too M 140
which hang a few M 140
where was i being M 140
which are a fit M 139
whose use i was M 138
whose song i had M 138
whole and a few M 138
which say a lot M 138
which has a say M 138
which are a two M 138
where can i fit M 138
whose head i can M 136
which had a mix M 136
where now i see M 136
where lay a new M 136
where all i saw M 136
white man i see M 134
which was a dying M 134
which cut a man M 134
where yet i see M 134
which use a two M 133
which things i can M 132
which team i was M 132
which saw a real M 132
which was a saw M 131
whose aid i can M 130
which put a low M 130
which has a tag M 130
where was a seat M 130
whose use i pay M 128
whose job i was M 128
whose job i had M 128
whose box i was M 128
white bear i saw M 128
which that i you M 128
which now i did M 128
which has a deal M 128
which had a bias M 128
which for a real M 128
which with a man M 126
which now i fear M 126
which has i fear M 126
which being a long M 126
where that i was M 126
while yet i had M 124
which had a dog M 124
where and i did M 124
whole had a net M 123
which now i try M 122
which has a sun M 122
which are a red M 122
which had a son M 121
which for a low M 121
while yet i saw M 120
which was a shy M 120
which things i did M 120
which that i was M 120
where then a man M 120
where does a boy M 120
where all i was M 120
whose aid i may M 118
which things i had M 118
which had a sun M 118
which bear a bad M 118
white and a non M 117
while with a big M 117
while with a non M 116
while and i sat M 116
while ago i cut M 116
which was a lay M 116
which was a com M 116
which add a lot M 116
whole that a man M 115
whose way i was M 114
whose death i can M 114
whole has a far M 114
white men a few M 114
while not a day M 114
which one i did M 114
which are a net M 114
where with a long M 114
whole with a long M 113
white men i saw M 112
which was a men M 112
which for a six M 112
which are s and M 112
which are a weak M 112
where too i had M 112
where can i try M 112
whole that i did M 110
while with a lot M 110
which was i was M 110
where was i this M 110
where now i lie M 110
where did i lay M 110
while thus i lay M 108
which let a law M 108
which lead a boy M 108
which hung a dead M 108
which for a sum M 108
which end a new M 108
where was i but M 108
where can i now M 108
while both i and M 107
while not a cry M 106
which was a dot M 106
which sum i was M 106
which sum i can M 106
which lay a boy M 106
which hung a set M 106
which had a path M 106
which did a big M 106
white was a son M 105
while now i had M 105
which had a heat M 105
whose son a man M 104
whose lot i had M 104
white was a big M 104
white and a big M 104
while using a non M 104
while and a long M 104
while ago a few M 104
which idea i was M 104
which has a dim M 104
which add a bit M 104
while doing a few M 103
which has a read M 103
whose singing i had M 102
whose death i won M 102
whole was a bit M 102
while using a long M 102
which year i had M 102
which won a war M 102
which put a real M 102
which now i say M 102
which had a war M 102
which are a may M 102
where lay a long M 102
where both a new M 102
which not a year M 101
which has a gear M 101
whole has a new M 100
whole has a lot M 100
white was a real M 100
white that i can M 100
while that i win M 100
which was a use M 100
which was a mid M 100
which use a new M 100
which saw a long M 100
where and i was M 100
whose use i did M 98
white and a new M 98
while and a new M 98
which lay a red M 98
which had a song M 98
which day a new M 98
which are a poem M 98
where can i add M 98
while with a weak M 97
where for a low M 97
whose head i cut M 96
whole was a new M 96
whole day i lay M 96
whole but a few M 96
white had a son M 96
while being a non M 96
which way i put M 96
which put a bit M 96
which not a poet M 96
which had a yet M 96
which are a near M 96
where with a bit M 96
where can i ask M 96
where and i can M 96
where for a two M 95
whose top i had M 94
whole day i can M 94
while that i saw M 94
which was a hang M 94
which has a boy M 94
which had i had M 94
which had a dip M 94
which day i saw M 94
which cut a path M 94
which age a man M 94
where that i may M 94
where not a year M 94
where not a cat M 94
where and s are M 94
whose eye i was M 92
white but i was M 92
while and i see M 92
which set a low M 92
which has a war M 92
which has a son M 92
which had a dim M 92
which had a bag M 92
which day i can M 92
where with a man M 92
where can i bring M 92
white one i had M 90
while using a set M 90
which way i ran M 90
which was a ban M 90
which one a you M 90
which lay a bit M 90
which hung a man M 90
which had a job M 90
which all i saw M 90
where lie a few M 90
while yet a law M 89
whose use i can M 88
whose death i may M 88
whole way i had M 88
whole had a low M 88
while that i read M 88
while and i get M 88
which they i are M 88
while all i was M 87
whole was a long M 86
whole day i sat M 86
white men a year M 86
white for a day M 86
while yet a year M 86
which won a few M 86
which saw a few M 86
which now a few M 86
which lay a low M 86
where was i too M 86
while yet a man M 85
whole had a long M 84
where can i let M 84
while with a cup M 83
whose pet i was M 82
whose age i can M 82
whole sum i had M 82
whole has a real M 82
white men i was M 82
while ago a new M 82
which let a few M 82
which had i any M 82
which had a pit M 82
which had a log M 82
which had a leg M 82
which got a bad M 82
which bear a low M 82
where and t are M 82
where all i see M 82
whose head a boy M 80
white man i did M 80
which won a lot M 80
which way i got M 80
which way a bit M 80
which put a dead M 80
which hid a few M 80
which all i did M 80
where was a heap M 80
where can i say M 80
which has a bear M 70
which has a pay M 65
while then i was M 57
while for a day M 55
whole had a mean M 54
whole and a set M 52
which was a rear M 49
which had a mid M 49
whole with a set M 48
which ran a two M 47
which was a singing M 46
which hung a key M 46
which was a sky M 45
while with a bad M 44
while for a big M 44
which had a pay M 42
whole with a real M 41
while for a set M 41
which lay a dog M 41
which for a ten M 41
white was a bit M 40
which was a fly M 40
which has a beat M 40
which has a thin D 3308
which has a peak D 2872
which was a row D 2064
white with a tinge D 1978
which was a bed D 1926
which was a tax D 1920
which was a hit D 1892
while yet a lad D 1891
which was a thin D 1804
which has a row D 1498
where was a den D 1440
which was a neat D 1374
wheel for a few D 1286
which was a hot D 1257
which met a few D 1138
which was a feat D 1036
whose tie i see D 980
white with a thin D 932
which was a sub D 928
which has a lid D 852
which was a lion D 846
which had a thin D 822
which has a hot D 801
which has a per D 779
which had a peak D 758
which for a fee D 735
which not a ray D 696
which had a row D 686
where not a leaf D 652
where for a fee D 642
which has a tax D 638
which had a bed D 632
which rod i was D 612
wheel for a long D 600
where not a ray D 595
which has a sub D 594
which has a par D 593
which has a chi D 592
which was a hut D 588
which has a gas D 578
which has a bed D 562
which this th can D 546
wheel and i was D 542
where not a beam D 536
while ago i met D 532
which had a par D 521
which has a leaf D 515
which was a tin D 500
which had a per D 499
which was a cow D 474
which has a pin D 474
which has a neat D 468
which was a peak D 466
while not a leaf D 463
where had i met D 452
which had a shoe D 450
which has a rim D 427
which was a pot D 418
wheel and a few D 414
which has a tinge D 400
which are a tax D 394
which has a fat D 368
wheel with a hub D 362
which was a gem D 354
which had a tinge D 346
where does a guy D 346
which has a cap D 340
which was a riot D 334
which was a fat D 334
where was a bed D 331
which was a gay D 316
which now i wear D 316
which was a car D 308
which has a beam D 304
which put a tax D 302
which had a lid D 300
which was a gas D 299
wheel with a rim D 298
which set a seal D 296
which was a gun D 291
which has a dial D 286
where can a guy D 280
which for a rod D 272
which are a row D 268
which was a bath D 262
which has a seal D 260
wheel and a new D 260
wheel and a man D 260
which ran a row D 258
which has a car D 258
which has a lion D 256
which had a lion D 253
which was a seal D 252
wheel with a long D 252
white man i met D 250
white man a liar D 249
whisk for a few D 244
which was a fee D 243
which was a cap D 243
which had a gas D 243
which hath a gay D 242
which are a sub D 239
which sat a row D 238
which not a leaf D 238
which has a tip D 238
which art a lion D 238
which has a rod D 236
which had a hot D 236
whips out a gun D 234
which was a bay D 228
which was a tie D 226
which was a pun D 226
which has a tap D 226
while but a lad D 225
whose bed i was D 220
which was a mud D 220
which was a lean D 218
which had a tax D 218
white was a spy D 214
which was a tub D 214
wheel with a low D 214
which sat a fat D 212
which had a beam D 210
wheel was a man D 210
whale with a long D 210
which has a jet D 206
where oft i sat D 206
whole with a thin D 205
which for a gas D 201
whose bed i had D 198
whore and a liar D 198
which had a sub D 198
which had a neat D 194
wheel and a set D 194
whose car i had D 192
while eating a hot D 192
which was a pen D 192
which has a gay D 192
which had a pin D 192
which has a lip D 191
which was a cue D 190
which has a fan D 190
where did i hit D 190
which not a cow D 188
which hit a peak D 187
which was a pan D 186
which put a seal D 186
which has a hinge D 185
which had a gun D 182
wheel and i had D 182
which was a rod D 178
which has a sex D 178
whose car i was D 176
which was a den D 176
which lay a thin D 176
which was a mat D 174
which was a dingy D 174
which had a tin D 174
which has a fig D 173
which was a fan D 172
which are a lion D 172
which was a pig D 171
which was a ram D 167
which was a per D 165
which was a hub D 164
which has a bus D 164
white with a row D 162
which was a jar D 162
wharf and a few D 162
whirl and i was D 161
which has a beak D 160
wheel with a set D 160
which put a cap D 158
which hung a row D 158
which pay a tax D 157
which was a bog D 156
which hit a low D 156
wheel with a dial D 156
wheel hit a rut D 156
wheel and i sat D 156
which was a dial D 154
which had a gay D 154
which was a bus D 152
wheel has a hub D 152
which sang a song D 150
whale for a few D 150
which was a swing D 148
which was a fad D 148
which was a fox D 146
wheel with a new D 146
which hung a thin D 144
which had a bay D 144
wheel for a bit D 144
which has a bay D 143
whore and i was D 142
which was a raw D 142
which has a tie D 142
where not a tear D 142
wharf with a few D 142
whale and a seal D 142
while not a gun D 140
which has a raw D 139
whose hut i had D 138
wheel has a mean D 138
where can i wear D 136
which was a tad D 135
which has a sting D 135
which was a fun D 134
which has a pot D 134
which had a bath D 134
wheel with a few D 134
which was a jet D 132
which had a cap D 130
wheel with a big D 130
whirl for a long D 128
which use a beam D 128
which sat a thin D 128
which art i can D 128
which was a fib D 126
which has a tear D 126
which had a tip D 126
wheel with a death D 126
which was a ringing D 124
which has a bath D 124
which had a sting D 124
where not a gun D 124
which not a gun D 122
which has a hub D 122
which had a car D 122
which are a riot D 121
which had a leaf D 120
wheel has a thin D 120
which that i yow D 119
whose gun i had D 118
wheel and a long D 118
wheel and a big D 118
whale and a dog D 118
which was a hen D 116
which led a wag D 116
which hung a tin D 116
which had a sex D 116
wheel and i can D 116
whale and a few D 116
white with a tan D 114
which was a tic D 114
which has a ram D 114
which had a fat D 114
wheel with a thin D 114
wheel that i had D 114
while for a gas D 111
which was a leaf D 110
which pay a fee D 110
which was a sop D 108
which was a gang D 108
which ran a thin D 108
which met a year D 108
wheel off a car D 108
wharf for a few D 108
which has a mud D 107
which had a mud D 107
which was a rag D 106
which tie a man D 106
while for a thin D 105
whose ears i had D 104
which was a lad D 104
which are a thin D 104
wheel has a long D 104
wheel and i got D 104
which had a seal D 102
which had a pan D 102
which had a leak D 102
white and a bay D 101
which hit a new D 100
which has a dam D 100
which bath a red D 100
where was a neat D 100
wheel and a car D 100
wharf and i was D 100
whale that a dog D 100
which with a thin D 98
which was a tip D 98
which was a beam D 98
which hung a pot D 98
which had a swing D 98
which for a beam D 98
while with a dam D 97
which won a pen D 97
which was a wig D 96
which was a hat D 96
which has a wax D 96
which has a swing D 96
while with a guy D 95
which hath a leaf D 94
which has a tab D 94
wheel and a seat D 94
whoop and a cry D 93
which was a par D 93
which has a pub D 93
whole has a neat D 92
while for a beam D 92
which was a ton D 92
which was a tap D 92
which not a jot D 92
which lay a row D 92
whose toes i had D 90
which was a hay D 90
which put a lid D 90
which has a nut D 90
which had a tear D 90
which for a thin D 90
wheel was a long D 90
which had a rim D 89
whose hut i was D 88
while using a car D 88
which was a sly D 88
which was a shoe D 88
which was a cot D 88
which has a zoo D 88
which has a lag D 88
whirl that i can D 86
which was a dud D 85
whose fag i was D 84
whole with a gay D 84
which was a cod D 84
which had a dial D 84
whale has a long D 84
whose lap i was D 82
while not a tear D 82
which was a pie D 82
which was a dam D 82
which has a tub D 82
which had a tap D 82
which lay a bed D 81
whining for a few D 80
which with a nod D 80
which was a wax D 80
which met a real D 80
which lay a neat D 80
wheel was a big D 80
whirl for a few D 70
while with a thin D 62
which had a hit D 62
which was a con D 60
which was a fur D 59
which has a tang D 57
which had a tie D 51
which has a tan D 47
which has a pear D 47
which has a fur D 46
which has a ski D 44
which has a fiat D 44
which has a bead D 44
while eating a ham D 43
which use a gas D 41
which has a leak D 41
which was a fig D 40
