com find all of M 1768
com file with the M 176
com port for the M 135
com port that is M 126
com port and the M 122
com port that the M 98
con tact with the D 1406
cow were red or D 704
cow when she is D 550
cow will not be D 508
cop came out of D 400
cow barn and the D 380
cow must not be D 354
cox said that he D 316
cow from one of D 288
cox said that the D 268
cow came out of D 252
cop told him to D 250
cow will not eat D 228
cod wars and the D 212
cow shed and the D 210
cox says that the D 196
cow coming out of D 168
com laws and the D 155
con game going on D 154
cox felt that the D 152
cop cars and the D 150
com bust and the D 146
cob pipe out of D 144
cow herd and the D 138
com boom and the D 136
cow milk and the D 134
cow made use of D 134
cow herd can be D 130
cow along with the D 128
con tent with the D 127
cow fell off the D 126
cow died and the D 126
cow more than the D 124
cow into one of D 124
cop cars and an D 118
cop tell him to D 114
cow sold was the D 108
cow town and the D 104
cow less than the D 104
cop gets out of D 104
com pare with the D 104
cox says that he D 102
cod test can be D 102
cop told them to D 100
com plying with the D 96
cow find and eat D 94
cow will try to D 92
cow need not be D 92
cow made out of D 92
cop coming out of D 92
con will not be D 92
cow will not do D 90
cop told him he D 90
cop shot him in D 88
cow pony and he D 84
cow from day to D 84
cop said that he D 84
cox says that it D 82
cot made out of D 82
cox will not be D 80
cop show set in D 80
con over all the D 60
con cent rat ion D 52
con tend that the D 51
