common with them . M 29632
course you can . M 29160
course you are . M 27350
comply with them . M 25082
course you did . M 14930
course they are . M 14870
confer with him . M 14088
common with him . M 13662
course she did . M 13584
course they did . M 12193
course she does . M 7418
course she was . M 6304
course with joy . M 5976
confer with them . M 5868
course you can ! M 5347
course you may . M 5060
course you are ! M 4962
covering his head . M 4422
course they can . M 4218
common with her . M 4060
common with you . M 3520
course was set . M 3396
covering her head . M 3390
course she had . M 3364
course with him . M 3228
course they are ! M 2996
confer with you . M 2986
course not new . M 2904
course for him . M 2732
common with them ? M 2666
common than not . M 2666
covering for him . M 2393
coexist with them . M 2342
covers them all . M 2227
course you did ! M 2224
combat with him . M 2218
course for them . M 2124
course was run . M 2112
course for you . M 2106
course with them . M 1990
combat with them . M 1901
course they had . M 1758
course with you . M 1746
course each year . M 1686
costly for them . M 1582
course she did ! M 1550
course she has . M 1496
covering one eye . M 1434
covers his head . M 1375
commit any sin . M 1350
course they did ! M 1324
common with age . M 1318
comply with this . M 1268
course she does ! M 1260
course for her . M 1210
course that way . M 1208
conceal his joy . M 1204
copies for you . M 1202
covers her head . M 1192
common than now . M 1182
course she can . M 1154
common and why ? M 1136
common with both . M 1122
commit this sin . M 1120
course with earth . M 1106
colour they are . M 1097
covering for her . M 1087
corner for him . M 1070
counts are low . M 1066
common with man . M 1066
common with men . M 1054
common with god . M 1042
common for all . M 1040
course with her . M 1034
confer with her . M 1031
covers with her . M 1027
common with him ? M 1008
course this year . M 978
covering them all . M 970
covering this area . M 968
coward you are ! M 958
course did not . M 914
comply with them ? M 900
corner for you . M 879
covering for you . M 865
colour are they ? M 852
corner and cry . M 835
coward you are . M 832
course she was ! M 824
common they are . M 824
coercion and fear . M 794
commit that sin . M 768
covering for them . M 766
colour with age . M 764
colors you see . M 742
covers with him . M 729
copied for him . M 717
common with this . M 704
copied for you . M 702
common law bar . M 688
common with his . M 678
conceal his own . M 676
commit this act . M 672
common are they ? M 664
comply with now . M 650
course you may ! M 642
corner with him . M 641
colors are they ? M 632
conceal his fear . M 628
copies for them . M 626
copied them out . M 626
copies each year . M 612
corpse was lying . M 606
conceal her joy . M 606
common than this . M 598
common than that . M 598
course they can ! M 592
comply with both . M 590
colors for you . M 582
costly for him . M 576
comply with law . M 572
covers this area . M 570
course that day . M 566
covers for them . M 562
common with all . M 562
common for them . M 560
covering them both . M 552
counts for one . M 552
combat and death . M 547
common with aging . M 544
couple with him . M 542
couple with her . M 542
course due east . M 538
corner for her . M 534
corner and die . M 529
comply with him . M 514
course they may . M 512
covers them both . M 493
covers for him . M 488
counting this one . M 486
corner for them . M 482
copies for him . M 474
conceal her fear . M 470
course his own . M 466
counting them out . M 460
corner cut off . M 460
comply with that . M 458
counts with god . M 456
commit that act . M 454
counts for him . M 452
colors you use . M 448
common with each . M 444
copies each day . M 442
common with you ? M 442
costly for you . M 434
copied and read . M 427
column for each . M 424
covering her own . M 416
covers all things . M 412
course does not . M 412
counts with them . M 410
colour was red . M 410
counts for them . M 408
copies with him . M 408
course for all . M 406
column for them . M 406
coercion and war . M 392
counting them off . M 390
course was easy . M 378
common with her ? M 378
covering for him ? M 376
common for men . M 376
covers one year . M 372
couple they are . M 372
covering that area . M 370
common for both . M 362
couple got out . M 358
course you had . M 354
counts with him . M 354
course for earth . M 346
coward she was . M 344
course for long . M 342
corpse was not . M 342
comply with you . M 342
course our own . M 338
course thus far . M 336
copies run off . M 336
course that year . M 330
course she had ! M 328
coexist for long . M 328
covering its head . M 326
course with ease . M 326
course all day . M 326
costly than war . M 326
common use now . M 326
covering his rear . M 324
common each year . M 324
colors and things . M 324
course was not . M 322
course than this . M 320
colour with her . M 320
covering one year . M 318
couple with them . M 316
column for him . M 316
corpse with them . M 314
covers for her . M 310
common and easy . M 310
colors with them . M 310
course one can . M 306
course each day . M 306
confer with him ? M 302
couple they are ! M 300
corner and read . M 296
counts for you . M 294
conceal her age . M 294
covering for sin . M 293
course she can ! M 292
counting them all . M 292
column for you . M 292
course she has ! M 284
combat and war . M 281
coward for that . M 280
corner with you . M 280
compel its use . M 280
common and mean . M 280
colors and all . M 280
course for you ? M 274
couple with you . M 272
counts than one . M 272
covers off him . M 271
common for him . M 270
colors they see . M 270
colour and song . M 269
colour and heat . M 264
covers off her . M 259
course for war . M 258
course for men . M 258
common for her . M 256
colour and cut . M 256
combat with you . M 253
colors are not . M 252
copies with them . M 248
counting for you . M 244
counting each one . M 244
course has run . M 242
course and end . M 242
corner all day . M 240
colors for him . M 240
commit any one . M 238
course can not . M 236
covering his eye . M 234
counting him out . M 232
covers that too . M 231
course for now . M 230
copies with you . M 230
commit this sin ? M 228
covers and all . M 226
couple for you . M 226
course not all . M 224
course with joy ! M 222
colors for them . M 222
corner for that . M 221
copied for her . M 220
common law does . M 220
colour for you . M 219
course this way . M 218
course are not . M 218
conceal his death . M 216
colour for him . M 215
colour and hue . M 215
counts for two . M 214
corner with them . M 213
corner with her . M 213
covers one eye . M 210
couple does not ? M 208
costly for her . M 204
combat with death . M 204
column that day . M 204
column but one . M 202
conceal our own . M 196
commit them all . M 196
counts but one . M 195
covers that area . M 193
course this year ? M 190
course long ago . M 190
counting its rings . M 190
costly they are . M 190
corpse with him . M 188
colors for each . M 188
course had run . M 186
commit this act ? M 186
column and head . M 186
combat that day . M 185
course for that . M 184
corner and sat . M 184
colors they are . M 184
coexist with him . M 184
covering with earth . M 182
copied for them . M 182
colour than that . M 181
covers for you . M 180
column with them . M 180
colour bar act . M 180
covering all things . M 178
comply with act . M 178
combat them all . M 174
course they had ! M 170
course had not . M 170
corner and that . M 170
course you see . M 168
costly each year . M 168
common with them ! M 168
common for that . M 168
combat with her . M 168
counts for all . M 166
conceal her own . M 166
colors they use . M 166
course and die . M 164
common and low . M 164
colors for her . M 164
course and off . M 162
conceal his age . M 162
common for you . M 162
column set out . M 162
colors are red . M 162
covering its top . M 160
counts and kings . M 160
combat this idea . M 160
counts with you . M 159
covers with you . M 158
couple you are . M 156
couple and god . M 156
covering our rear . M 154
course with god . M 154
course one day . M 154
corner that day . M 154
common law one . M 154
covering for her ? M 152
counts them all . M 152
copies that year . M 152
colour you are . M 152
course for each . M 150
colour being red . M 150
covering each eye . M 148
costly than that . M 148
column each day . M 148
colors with him . M 148
course was this . M 144
common this was . M 144
column for now . M 142
column and add . M 142
coexist with god . M 141
covers for two . M 140
counting for them . M 140
compel any one . M 140
common with that . M 140
combat with men . M 140
colors all day . M 140
coexist with man . M 140
course for both . M 138
combat them with . M 138
colour are you ? M 137
course this day . M 136
course hath run . M 136
copies for all . M 136
covering one end . M 134
covering for you ? M 134
course not easy . M 134
combat than you . M 134
covering his own . M 132
course but one . M 132
corpus for him . M 132
common law did . M 132
column run dry . M 132
colour and joy . M 132
colors this way . M 132
covers with them . M 131
course she may . M 130
course not that . M 130
couple you are ! M 130
costly and long . M 130
corner and cry ? M 130
comply with her . M 130
common law was . M 130
colour them red . M 130
copied them all . M 128
column does not . M 128
common and all ? M 126
commit that sin ? M 126
colour for her . M 125
covers its head . M 124
covering that year . M 124
covering her arm . M 124
course was going . M 124
course too far . M 122
course say yes . M 122
course now lay . M 122
counting his own . M 122
copies for her . M 122
common law way . M 122
colour for them . M 122
course they run . M 120
counting for him . M 120
costly for that . M 120
common law and . M 120
combed his head . M 120
colour with them . M 120
colors but red . M 120
combat this fear . M 119
coward that day . M 118
colors are set . M 118
covering his arm . M 116
corpus each year . M 115
coward are you ? M 114
course then was . M 114
course not now . M 114
couple was doing . M 114
combat for him . M 114
counts with her . M 113
course you did ? M 112
corpse with earth . M 112
corner that way . M 112
copied his idea . M 112
confer with god . M 112
common with things . M 112
course with joy ? M 110
course but war . M 110
copies are not . M 110
common that way . M 110
commit any sin ? M 110
commit any act . M 110
colour than red . M 110
colour and age . M 110
coasts this year . M 110
covers all sin . M 108
copies with you ? M 108
column are not . M 108
colour than you . M 108
course they die . M 106
counts him out . M 106
confer with you ? M 106
common this year . M 106
colour for each . M 106
column with him . M 105
course for you ! M 104
copied this idea . M 104
colour are one . M 104
costly for all . M 102
conceal his sin . M 102
comply with his . M 102
common man does . M 102
coexist with her . M 102
covers our sin . M 100
course with you ? M 100
corpse and all . M 100
colors all things . M 100
course too long . M 98
course her own . M 98
course for this . M 98
counting long ago . M 98
common air does ? M 98
combat with god . M 98
colour and red . M 98
colour and die . M 98
corner for you ! M 97
counts for each . M 96
common way out . M 96
colors this year . M 96
covering this war . M 94
covering its use . M 94
covering each area . M 94
corner one day . M 94
common man too . M 94
combed them out . M 94
column for that . M 94
coward she was ! M 92
covers this too . M 92
course they ran . M 92
course she won . M 92
course not you . M 92
counting with him . M 92
corner but one . M 92
common nor easy . M 92
common for you ? M 92
counts them out . M 91
covering his man . M 90
course with death . M 90
course for him ? M 90
course and why . M 90
couple did not . M 90
copies for use . M 90
comply with this ? M 90
comply with them ! M 90
common with that ? M 90
common man now . M 90
colour can not . M 90
colors that day . M 90
covers are off . M 88
couple does not . M 88
coercion and law . M 88
covering they had . M 86
course with him ? M 86
combat with sin . M 86
colors them red . M 86
coward you are ? M 84
covers and cry . M 84
costly for both . M 84
conceal his act . M 84
comply with all . M 84
common with him ! M 84
common and old . M 84
covers his dog . M 82
course can say . M 82
copies this year . M 82
common use then . M 82
common and why . M 82
column for her . M 82
colour with his . M 82
colors each year . M 82
colour and all . M 81
counts but that . M 80
costly than this . M 80
colors with you . M 80
colors may run . M 80
combat for her . M 52
covers all that . M 48
colour they are ! M 42
covers for you ? M 40
counting for two . M 40
coexist with them ? M 40
