add two drops of M 10996
add his voice to M 4510
add new words to M 3876
add new items to M 3685
add that while the M 2726
add any value to M 2554
add all sorts of M 2518
add that since the M 2428
add real value to M 2218
add ten drops of M 1976
add this value to M 1968
add that after the M 1892
add new types of M 1512
add its voice to M 1388
add her voice to M 1358
add that though the M 1290
add one point to M 1248
add new users to M 1232
add our voice to M 1176
add six drops of M 1132
add that under the M 1101
add new names to M 1081
add two parts of M 1072
add new pages to M 1016
add few drops of M 956
add one piece of M 905
add new files to M 905
add two zeros to M 886
add new facts to M 846
add this method to M 818
add new force to M 717
add that value to M 708
add that within the M 671
add new terms to M 670
add that which is M 652
add web parts to M 640
add two lines to M 636
add that where the M 624
add new lines to M 624
add them after the M 604
add new rules to M 568
add our names to M 564
add this field to M 556
add that touch of M 556
add new meanings to M 546
add that while it M 530
add any words to M 522
add new glory to M 510
add that while we M 508
add its value to M 504
add two lines of M 502
add one fourth of M 486
add his share to M 474
add two types of M 464
add new value to M 455
add this entry to M 444
add new people to M 442
add new lines of M 442
add any class of M 436
add new links to M 434
add new tasks to M 424
add that though he M 412
add its share to M 406
add any force to M 402
add and enter the M 400
add new parts to M 392
add new cells to M 390
add any words of M 386
add two thirds of M 384
add new beauty to M 384
add new forms of M 374
add this issue to M 372
add one layer of M 370
add this total to M 368
add that while in M 362
add this table to M 360
add any water to M 360
add new power to M 354
add both sides of M 352
add new books to M 350
add this group to M 346
add this piece of M 344
add this class to M 338
add that until the M 338
add new light to M 338
add new tools to M 334
add that given the M 331
add that while he M 318
add our thanks to M 306
add that later on M 305
add two items to M 302
add six months to M 298
add new vigor to M 294
add any items to M 294
add its force to M 286
add this water to M 280
add and click the M 279
add that field to M 272
add two hours to M 270
add two words to M 260
add both types of M 260
add new lands to M 250
add new items or M 250
add and write the M 242
add any others to M 240
add two units of M 238
add this force to M 232
add new forms to M 232
add that since my M 228
add her thanks to M 228
add new blood to M 226
add new items of M 221
add new users or M 220
add its share of M 220
add and change the M 219
add that since it M 218
add new units to M 218
add his thanks to M 218
add this option to M 216
add new works to M 214
add all types of M 212
add two months to M 210
add that since we M 210
add two times the M 208
add ten times the M 206
add this point to M 204
add this color to M 204
add new words as M 202
add web pages to M 200
add that never in M 198
add new truths to M 198
add that while my M 196
add two others of M 194
add new items as M 193
add new money to M 192
add two weeks to M 190
add that though we M 190
add this piece to M 188
add that under no M 186
add her share to M 186
add this action to M 184
add new words or M 184
add that though it M 182
add eye appeal to M 182
add his voice in M 180
add that about the M 177
add new notes to M 176
add this story to M 170
add that since he M 168
add that often the M 168
add new rules or M 168
add its power to M 168
add that group to M 162
add one curse to M 160
add any power to M 160
add that total to M 158
add and where to M 156
add that money to M 152
add this image to M 150
add and which to M 150
add web sites to M 148
add two words of M 148
add six parts of M 148
add two pairs of M 144
add his place of M 144
add any beauty to M 144
add new types to M 142
add new realms to M 142
add you loved me M 140
add his share of M 140
add any words or M 140
add that though in M 138
add that image to M 138
add any terms to M 138
add that people in M 136
add any color to M 136
add two cases of M 134
add that color to M 134
add its action to M 134
add any users to M 134
add any action to M 134
add this event to M 132
add this after the M 132
add that which the M 130
add new sites to M 130
add any money to M 130
add them later in M 128
add that cases of M 128
add any value at M 128
add one fourth to M 127
add that later in M 126
add one which is M 126
add new parts or M 126
add new goals to M 126
add that thanks to M 122
add that might be M 122
add and check by M 120
add and click on M 119
add real value in M 116
add one touch of M 116
add one color to M 116
add new grace to M 116
add his force to M 116
add ten times as M 115
add two units to M 114
add that today the M 114
add new facts or M 114
add two notes to M 112
add new cases to M 112
add one grace to M 110
add new force or M 110
add new color to M 110
add any notes to M 110
add our share to M 108
add one after the M 108
add them until the M 106
add that piece of M 106
add new items at M 106
add new edges to M 104
add any water or M 104
add two others to M 102
add this topic to M 102
add that could be M 102
add one image of M 102
add new honor to M 102
add her lands to M 102
add any names to M 102
add all forms of M 102
add that which he M 100
add one point of M 100
add two terms to M 98
add this warning to M 98
add that parts of M 98
add ten parts of M 98
add six hours to M 98
add new lines or M 98
add new axioms to M 98
add any value in M 98
add this money to M 96
add two notes of M 94
add two hours of M 94
add this style to M 94
add new music to M 94
add new lines in M 94
add new files or M 94
add his power to M 94
add any glory to M 94
add two names to M 92
add that after he M 92
add one voice to M 92
add new terms or M 92
add new pages or M 92
add new costs to M 92
add too large an M 90
add new risks to M 90
add his words to M 90
add any light to M 90
add this grace to M 88
add new steps to M 88
add new icons to M 88
add new items in M 87
add two drops to M 86
add that while no M 86
add that where he M 86
add that poetry is M 86
add new birds to M 86
add his words of M 86
add any notes or M 86
add this state to M 84
add new water to M 84
add his story to M 84
add his blood to M 84
add this about the M 82
add that women do M 82
add that though my M 82
add that kingdom to M 82
add them later if M 80
add that where it M 80
add ten miles to M 80
add our force to M 80
add new tests to M 80
add its light to M 80
add them later on M 48
add real value by M 42
add yet others to M 41
add one cubit to D 7748
add hot water to D 4713
add one ounce of D 4697
add one pound of D 4611
add one quart of D 4123
add all kinds of D 1956
ads that appear in D 1124
add its quota to D 1034
add ice cubes to D 954
add one grain of D 794
add new kinds of D 778
ads that appeal to D 774
ads that appear on D 757
add his quota to D 750
ads are aimed at D 686
add one penny to D 644
add one farthing to D 544
add soy sauce to D 540
add new nodes to D 502
add its quota of D 482
add this paste to D 472
add hot water as D 450
add new roses to D 446
add egg yolks to D 437
add two pints of D 400
add two drams of D 398
ads that focus on D 382
add one grain to D 354
add tap water to D 348
add hot water or D 326
ads that would be D 324
ads are based on D 324
add one glass of D 301
add this title to D 300
add both kinds of D 294
add one ounce to D 282
add hot water if D 282
add new fonts to D 280
add two kinds of D 270
add two rooms to D 268
add one stone to D 252
ads that shook the D 246
add that would be D 238
add his scalp to D 236
ads that appear to D 232
ads are shown in D 220
ads that could be D 216
add new foods to D 198
ads that refer to D 194
add ice water to D 190
add this sauce to D 186
ads that might be D 180
add new roles to D 176
ads are found in D 174
add new cards to D 174
add one lover to D 172
add his quota of D 168
add her quota to D 166
add two atoms of D 160
ads are often the D 154
add this rinse to D 154
add this level of D 152
add one pound to D 152
add oil until the D 150
ads for which the D 146
add ten cents to D 146
add ten grams of D 142
add its votes to D 142
add two gills of D 136
add tab group to D 136
ads and asked to D 134
add one feather to D 134
add any charm to D 134
add new genes to D 132
add his stone to D 132
add new menus to D 130
add new rooms to D 128
add our quota to D 126
add two grams of D 124
add one slice of D 124
add two yolks of D 122
add one brick to D 120
add new venom to D 120
add one teacup of D 117
add one caveat to D 116
ads are shown to D 114
add new drugs to D 114
add new clips to D 114
add this puree to D 112
ads that tried to D 108
add one scoop of D 108
ads that match the D 106
ads are shown on D 106
add two coats of D 106
add new stars to D 106
add hot sauce to D 106
add one liter of D 104
add new strings to D 104
add this region to D 102
add her scalp to D 100
add one digit to D 98
add one level of D 96
add this skill to D 92
add hot water in D 92
ads are geared to D 90
add sex appeal to D 88
add tab stops to D 87
add new faces to D 86
ads and tried to D 84
