advice and help . M 25502
admire his work . M 4069
admire and love . M 3629
adored each other . M 3300
adults and youth . M 3244
advice was good . M 3228
admire each other . M 2448
advice they give . M 1932
admire her work . M 1907
adults and kids . M 1550
advice you need . M 1384
adopting new ones . M 1342
adults and young . M 1324
admiring his work . M 1266
admire and envy . M 1239
advice and care . M 1196
advice and ideas . M 1176
adults with aids . M 1144
advise and help . M 938
adopting this plan . M 882
advice they gave . M 808
adopting this view . M 772
advice was wrong . M 730
adopting new ideas . M 700
adults for help . M 634
advice they need . M 616
admiring each other . M 616
adjust for risk . M 616
admits this fact . M 580
advise each other . M 568
advice had been . M 556
advice for nothing . M 538
advice and help ? M 528
advice for free . M 524
adults for years . M 482
advice this time . M 438
advice you give . M 418
advice any more . M 418
admits any more . M 418
adjust its size . M 416
adjust her hair . M 408
advice for once . M 394
admire him more . M 388
admiring her work . M 384
admire who will . M 351
admire our work . M 350
admire her more . M 346
advice and left . M 342
advise you well . M 336
adults are rare . M 328
adults can learn . M 326
advice you seek . M 310
admire him much . M 304
admire him most . M 300
advice and time . M 290
adverb and verb . M 288
advice was wise . M 272
adopting this rule . M 270
adults they know . M 258
adults for food . M 258
adults you know . M 248
advice you want . M 240
admire and like . M 239
advise you there . M 234
advice for living . M 228
admire and love ? M 228
admire them much . M 222
adopting new ways . M 220
advice out there . M 218
advice for years . M 218
adults read next ? M 212
adorning his face . M 210
adorning her hair . M 208
admire them more . M 208
adapting old ones . M 208
adopting any other . M 204
admire and copy . M 202
advice she gave . M 200
adjust his eyes . M 200
adorning his mind . M 198
admire too much . M 196
admire his bearing . M 192
advice and love . M 188
advice and mine . M 184
advise and warn . M 180
admits its truth . M 176
admiring her body . M 176
admire this work . M 174
advice for life . M 172
admire you more . M 172
adopting his name . M 168
admire his work ? M 168
adjust its length . M 168
advice for peace . M 166
advice and more . M 166
advice and leave . M 164
adults can help . M 164
adopting this role . M 164
adults and boys . M 162
adjust her eyes . M 162
advice and data . M 160
addict for years . M 160
adorning her face . M 158
advice and food . M 150
advice and help ! M 144
adopting that view . M 144
advice and healing . M 140
advise you here . M 138
admits that much . M 138
admiring his tail . M 136
admiring his body . M 134
advice too late . M 132
adults who care . M 132
addict for life . M 131
advice was clear . M 130
adults are used . M 128
adopting its name . M 128
adjust and learn . M 128
advising each other . M 126
adults you know ? M 126
adopting this form . M 126
admiring our work . M 126
admire and pity . M 126
adults and aged . M 124
admits too much . M 124
admire her body . M 124
advice was free . M 122
adults had died . M 122
adorning her body . M 122
advice may help . M 120
advent had been . M 118
adults than kids . M 118
adrift and lost . M 118
adored than ever . M 118
adults for jobs . M 116
adored his work . M 116
admiring her hair . M 116
advise and teach . M 114
advice you gave . M 114
advice but mine . M 114
advise may speak . M 112
adorning his body . M 112
admire his body . M 112
advice was true . M 110
advice and went . M 110
advice all along . M 110
advice can help . M 108
advice and deed . M 108
adjust and grow . M 108
advise him well . M 106
advice and work . M 106
adults are free . M 106
admire for ever . M 106
admire and hate . M 106
adjust for size . M 106
advice has been . M 104
adjust with time . M 104
adjust his life . M 104
adults they were . M 102
adults are like . M 102
admire his book . M 102
admire him also . M 102
advice for poets . M 100
admire this vest ? M 100
admire them also . M 100
adjust his ideas . M 100
adored her baby . M 98
admire his poems . M 98
advice and leads . M 96
adults they meet . M 96
adults each week . M 96
adrift than ever . M 96
adopting that plan . M 96
adopting his life . M 96
adopting her baby . M 96
admire nor know . M 96
admire his worth . M 96
advice they want . M 92
advice and hope . M 92
adults too much . M 92
adults they love . M 92
adults they knew . M 92
adults are seen . M 92
adults are saying . M 92
adopting his plan . M 92
advice they seek . M 90
adults can give . M 90
admire her baby . M 90
admire and feel . M 90
adjust his mask . M 90
adjust each other . M 90
advice than mine . M 88
advice nor help . M 88
advice and wait . M 88
adopting this text . M 88
admiring and longing . M 88
admire her most . M 88
adhere and grow . M 86
advise her well . M 84
advice and will . M 84
adopting his ideas . M 84
admire his cool . M 84
adults can play . M 82
admire his daring . M 82
admire and obey . M 82
admire and learn . M 82
adjust its width . M 82
advice this time ? M 80
adored her body . M 80
adopting its ways . M 80
admire him anew . M 80
