get away with this M 84879
get away with that M 56221
get what you pay M 48399
get along with each M 41627
get along with them M 32594
get along with his M 28333
get along with her M 24439
get along with him M 23861
get along with one M 22790
get their own way M 20516
get along with you M 20460
get even with him M 19364
get more than one M 18862
get very far with M 15724
get even with you M 14749
get away with his M 14560
get what you can M 12635
get away with things M 12516
get sick and die M 12466
get into and out M 10800
get along with and M 10428
get your own way M 10406
get more than they M 9364
get even with them M 8918
get away with not M 8892
get away with being M 8340
get what they can M 8282
get even with her M 8169
get away with all M 8113
get along with all M 7782
get away with doing M 7612
get away with you M 7472
get ready for this M 7398
get more than you M 7358
get back with you M 7170
get away with using M 7130
get ready for her M 7076
get more than two M 6652
get away with them M 6372
get ready for his M 6352
get home and get M 6311
get angry with him M 6223
get ready for our M 5836
get away with any M 5658
get from one end M 5313
get your things and M 5280
get angry with you M 5220
get along with our M 5016
get there with you M 4904
get your head out M 4894
get along with that M 4893
get more than his M 4624
get even with his M 4610
get into his own M 4600
get more than that M 4530
get along with this M 4517
get home and see M 4504
get what you ask M 4444
get away with and M 4390
get what you are M 4268
get ready for that M 4216
get angry with her M 4214
get into his head M 4131
get what they pay M 4022
get what they are M 3965
get into all that M 3845
get away with her M 3838
get angry with them M 3768
get back and see M 3733
get ready for them M 3648
get some use out M 3632
get down off that M 3607
get along with any M 3466
get when you are M 3418
get even with that M 3418
get ready for war M 3406
get along with than M 3300
get away with too M 3208
get more bang for M 3202
get help for his M 3181
get help for her M 3179
get away with one M 3146
get what you mean M 3081
get some for you M 3074
get more for his M 2842
get from him was M 2837
get some things for M 2804
get when they are M 2789
get what they ask M 2726
get some air and M 2696
get there and get M 2627
get done with this M 2450
get into this war M 2428
get these things out M 2372
get into them and M 2362
get into all this M 2318
get less than they M 2294
get their way with M 2258
get angry and say M 2238
get more than ten M 2233
get back with him M 2178
get back and get M 2174
get help for him M 2169
get food for his M 2160
get what they had M 2124
get ready for him M 2076
get more than its M 2048
get along with men M 2046
get back with her M 2026
get there and then M 1946
get there and how M 1934
get their way and M 1924
get warm and dry M 1889
get away with its M 1856
get more than this M 1844
get down and get M 1795
get away and get M 1772
get when you buy M 1732
get time off for M 1721
get there and you M 1718
get some one who M 1712
get your men out M 1700
get food for them M 1698
get into that now M 1695
get help for you M 1678
get more use out M 1676
get more than six M 1660
get over all that M 1647
get over his fear M 1641
get angry with each M 1618
get over them and M 1609
get what you get M 1584
get back his own M 1584
get some idea how M 1582
get there and see M 1578
get over this and M 1542
get from any one M 1532
get when you use M 1528
get away with lying M 1528
get into her own M 1520
get those who are M 1506
get over her fear M 1472
get along with both M 1466
get there you can M 1462
get away with our M 1456
get busy and get M 1442
get these things off M 1426
get away with him M 1416
get done with you M 1396
get back with his M 1390
get along with two M 1388
get into this with M 1386
get into our own M 1382
get your gear and M 1378
get from his own M 1370
get over all this M 1352
get into this area M 1329
get when you put M 1324
get along with age M 1322
get more for our M 1308
get some things out M 1300
get more for them M 1298
get home and put M 1286
get even with this M 1282
get there and they M 1280
get along with its M 1272
get your things out M 1265
get home and then M 1262
get when you add M 1246
get food for her M 1236
get when you see M 1232
get from them was M 1214
get some things off M 1213
get these things for M 1206
get some sun and M 1184
get into her head M 1184
get over that and M 1182
get when you mix M 1154
get along with but M 1152
get away with two M 1147
get back his old M 1146
get down and see M 1144
get what you see M 1143
get ready for you M 1138
get home and you M 1136
get away and that M 1134
get home you can M 1126
get away with bad M 1116
get into this one M 1114
get these men out M 1107
get worn out and M 1106
get when you try M 1106
get your things off M 1104
get there they had M 1103
get past them and M 1101
get back you can M 1088
get more than our M 1080
get back all that M 1078
get what she was M 1066
get nothing for his M 1059
get very far and M 1058
get what she had M 1056
get past him and M 1053
get those things out M 1052
get over this fear M 1052
get away with eating M 1048
get into this now M 1036
get hurt that way M 1031
get done that day M 1026
get into war with M 1022
get along all that M 1018
get much use out M 1010
get home and try M 1004
get away now and M 1000
get away and see M 998
get over this one M 997
get angry with god M 989
get into this new M 988
get past all that M 985
get away for two M 983
get help for them M 980
get down and let M 980
get there one day M 971
get from one day M 962
get away and not M 958
get your way with M 956
get those men out M 954
get less than one M 951
get down off this M 948
get down off his M 948
get even with all M 945
get back with them M 944
get from all this M 936
get rich that way M 934
get from our own M 928
get more than she M 926
get help with this M 922
get help with his M 917
get from them all M 916
get lost and not M 908
get into that with M 898
get ready and then M 897
get some meat for M 890
get down that way M 888
get more joy out M 886
get away and then M 886
get into any real M 884
get back this way M 872
get along and get M 872
get down and run M 871
get over his death M 868
get done with that M 868
get well and get M 858
get what was due M 854
get sick and then M 854
get sick and can M 854
get from you and M 854
get well and that M 852
get from him all M 840
get ideas for new M 836
get some for her M 832
get your old job M 830
get into his rear M 826
get over that one M 820
get when you ask M 818
get ready for its M 818
get ready for one M 816
get lost and die M 815
get help for this M 808
get there you had M 806
get down and out M 804
get into that area M 801
get down and put M 801
get cold and wet M 794
get from him any M 793
get when you get M 792
get away old man M 789
get away and they M 787
get some men and M 786
get over being mad M 786
get into that one M 784
get less than you M 778
get back out and M 774
get home that day M 770
get into this and M 769
get angry with his M 768
get mark and bring M 766
get done with him M 762
get good and mad M 752
get away with for M 750
get from her was M 744
get very far out M 742
get ready and get M 742
get more pay than M 742
get done with them M 742
get busy with that M 741
get your bag and M 740
get along and that M 739
get more than her M 732
get there and that M 724
get their pay for M 724
get away with far M 723
get well and then M 708
get more for its M 708
get into our new M 704
get angry and then M 698
get help with her M 696
get food for our M 692
get over him and M 690
get over her death M 688
get more men and M 688
get some meat and M 686
get past that and M 686
get away and you M 686
get some things and M 684
get more pay for M 684
get over that fear M 682
get over and see M 682
get down and lead M 680
get into than out M 679
get sick and they M 678
get from them any M 678
get some for him M 664
get over how you M 660
get even for all M 660
get angry with one M 660
get busy and try M 656
get aids and die M 654
get those things off M 651
get from them and M 650
get even that far M 650
get even this far M 647
get some things that M 646
get ready for any M 644
get from one area M 644
get nothing for our M 642
get lost and are M 638
get down low and M 638
get away for long M 636
get sick and you M 632
get into things that M 632
get what she can M 627
get from him his M 626
get down this way M 626
get away and had M 624
get back and you M 622
get those for you M 618
get what you had M 614
get nothing for them M 612
get away with going M 612
get their way they M 608
get busy and see M 608
get past all this M 606
get here and you M 606
get what you say M 604
get back and then M 604
get home with his M 600
get ready for death M 599
get done and how M 598
get away and was M 598
get lost and can M 594
get into this fix M 594
get back his job M 593
get when they see M 592
get your day off M 589
get hurt and that M 589
get here and then M 588
get help for that M 588
get your old man M 586
get very far that M 585
get along with for M 584
get along and not M 584
get ready for all M 583
get home and let M 582
get along and are M 574
get back and let M 572
get hurt and you M 570
get there and she M 568
get over his own M 566
get past this and M 562
get along and how M 562
get lost and then M 558
get food for you M 558
get away and run M 557
get what was going M 556
get home and she M 555
get their pay and M 554
get their own men M 552
get lost and end M 549
get there and not M 548
get busy with his M 548
get home and out M 546
get when you run M 544
get what you put M 544
get food for him M 544
get your men and M 542
get when you read M 540
get when you can M 538
get what you got M 538
get ahead with our M 536
get done and get M 532
get even for that M 530
get along that way M 530
get sick and not M 528
get rich and get M 526
get much joy out M 524
get lost and you M 520
get less pay than M 520
get these things and M 518
get less than that M 518
get ahead with his M 518
get from him why M 516
get even for this M 516
get into that and M 514
get those who had M 512
get away and let M 512
get told off for M 510
get from him that M 509
get hurt real bad M 508
get good men for M 508
get home and can M 505
get there one had M 504
get jobs that pay M 501
get some new things M 498
get moving and get M 498
get more for you M 498
get away with was M 498
get laid off and M 496
get ready for going M 494
get more air and M 494
get very far off M 493
get very near them M 492
get away and try M 492
get into this way M 488
get home and they M 487
get home and that M 486
get into that old M 480
get from them are M 480
get from him and M 479
get away and she M 476
get what they did M 474
get away with sin M 474
get over was that M 472
get back that way M 472
get away that easy M 472
get what you earn M 470
get what they earn M 468
get busy now and M 468
get busy and put M 468
get away with but M 468
get your ego out M 467
get those wet things M 464
get ahead that way M 464
get over this idea M 462
get ready for new M 461
get help and get M 460
get much for them M 458
get there you are M 457
get what they say M 456
get here and see M 455
get those things for M 454
get lost and that M 454
get home and read M 454
get busy with our M 452
get your head cut M 451
get over that way M 450
get back all his M 450
get these two things M 446
get angry and try M 446
get home for his M 442
get more for her M 438
get even for his M 438
get from its own M 436
get into his old M 434
get away that they M 432
get worn out with M 430
get what they get M 430
get clear off with M 430
get when she was M 428
get some joy out M 428
get past his own M 428
get here and they M 428
get away with both M 428
get more that way M 427
get home now and M 426
get down that far M 426
get here and now M 424
get help with any M 424
get even with one M 424
get your way and M 422
get these two men M 422
get your rear end M 420
get less than this M 420
get along and they M 420
get there she had M 419
get good use out M 419
get their due and M 418
get along any too M 418
get what and how M 416
get there that way M 416
get jobs for them M 416
get well and you M 414
get ready and let M 414
get there with his M 412
get rich and then M 412
get past her and M 412
get here and how M 412
get over our fear M 411
get work for them M 410
get over than any M 410
get from them for M 408
get less than two M 407
get ready now for M 406
get home and fix M 406
get down our top M 406
get back with our M 406
get angry and not M 406
get those that are M 402
get when you hear M 400
get into its own M 400
get away but was M 400
get away for that M 398
get ahead and get M 398
get well and not M 396
get jobs and earn M 396
get there with all M 395
get into his new M 394
get done with all M 394
get back with all M 394
get good pay for M 392
get their men out M 390
get over her and M 390
get done with her M 390
get help for our M 389
get angry with any M 388
get very wet and M 386
get ideas for his M 386
get done and that M 384
get lost for long M 383
get back our own M 383
get there you may M 382
get from her own M 382
get away that day M 381
get very old and M 380
get over how she M 380
get cold and then M 380
get along with few M 380
get into top gear M 379
get home and ask M 379
get only one meal M 378
get home and lie M 378
get done each day M 375
get when they can M 374
get when they get M 372
get along with are M 372
get some that are M 370
get angry and that M 370
get there that day M 369
get there they are M 368
get more than any M 368
get home and not M 368
get along with god M 367
get your head and M 366
get what they got M 366
get these for you M 366
get more pay and M 366
get more out than M 366
get hurt and can M 366
get back and put M 366
get down and then M 364
get into them with M 362
get what she has M 360
get there that you M 360
get ready for and M 360
get back and try M 360
get angry with our M 360
get home and are M 358
get busy with her M 358
get back and they M 358
get angry and they M 358
get home that way M 356
get away for one M 355
get your son out M 354
get over that idea M 354
get from them that M 354
get even with our M 354
gear when they are M 354
get here and get M 352
get warm and then M 350
get back her own M 350
get what one can M 346
get some for them M 346
get past this one M 345
get sick and get M 344
get less than ten M 344
get angry with this M 344
get over that too M 343
get there any way M 342
get your dog out M 340
get there and was M 340
get into one and M 340
get down and try M 340
get back her old M 340
get into his seat M 338
get home and had M 336
get away that she M 336
get along with old M 336
get along and you M 336
get jobs that are M 335
get home with her M 334
get along and see M 334
get back with that M 333
get much for his M 332
get full use out M 332
get from being with M 332
get along with out M 332
get these two out M 331
get into things and M 330
get into our rear M 330
get good and wet M 329
get ready and put M 328
get from him for M 328
get there with our M 326
get some idea that M 326
get home with you M 326
get here and why M 326
get back that day M 326
get more than was M 324
get into that box M 324
get high and then M 324
get down and lay M 324
get there was not M 322
get done and then M 322
get into this act M 321
get back for his M 320
get away for his M 320
get those two things M 318
get rich this way M 318
get over how big M 318
get ahead and then M 318
get ahead and that M 318
get there and had M 316
get done for him M 316
get your pay for M 312
get word out that M 312
get sick and are M 312
get into his way M 312
get into any one M 312
get home with all M 312
get along with too M 312
get jobs for his M 310
get into that way M 310
get high with them M 310
get your pay and M 308
get into them you M 308
get high with him M 308
get great joy out M 308
get done with his M 308
get along with was M 308
get those things that M 304
get there and all M 304
get good and bad M 304
get even for being M 304
get back for that M 304
get when you pay M 302
get very near him M 302
get home that you M 302
get even with old M 302
get among them and M 302
get less than six M 301
get fake ids and M 298
get along for one M 298
get there than you M 297
get there and let M 296
get ready for use M 296
get ideas for how M 296
get home and sit M 296
get dark and they M 296
get back and that M 296
get away and did M 296
get angry and beat M 296
get time off and M 294
get there with this M 294
get some men out M 294
get home that they M 294
get their things and M 292
get lost and they M 292
get back now and M 292
get along for two M 292
get less than his M 290
get into gear and M 290
get high and get M 290
get away for any M 290
get when they buy M 288
get what they see M 288
get there and who M 286
get only one seat M 286
get here you can M 286
get full pay for M 286
get back with this M 286
get angry and you M 286
get along for any M 284
get over her own M 283
get sick and that M 282
get ready for each M 282
get even with god M 282
get there one way M 281
get down this far M 280
get away and put M 280
get along with new M 280
get done all that M 279
get your bow and M 278
get hurt too bad M 278
get busy with this M 278
get well and his M 276
get there one has M 276
get past our own M 276
get over this bad M 276
get here they are M 276
get into this big M 274
get good pay and M 274
get what was not M 272
get there and are M 272
get some idea why M 272
get home each day M 272
get busy and fix M 272
get away but they M 271
get their pay out M 270
get past her own M 270
get over this way M 270
get good men and M 270
get down and sit M 270
get help and how M 269
get more sun than M 268
get into this for M 268
get hurt and then M 268
get away now that M 268
get there and thus M 267
get what was his M 266
get there does not M 266
get there and why M 266
get less for his M 266
get home and was M 266
get rich doing this M 264
get hard and dry M 264
get done and you M 264
get help for any M 263
get very long and M 262
get much for that M 262
get into its head M 262
get home with them M 262
get from one set M 262
get away this year M 262
get away for fear M 261
get when you let M 260
get into his heap M 260
get angry and ask M 260
get along with six M 259
get there any too M 258
get back all they M 258
get along now and M 258
get left out and M 257
get work and earn M 256
get over being shy M 256
get back and she M 256
get very low and M 254
get those things you M 254
get note that this M 254
get more use than M 254
get into any new M 254
get home they are M 254
get from him one M 254
get food for all M 254
get away but she M 254
get from this one M 252
get even with both M 252
get done that way M 252
get away with now M 252
get angry and get M 252
get your way all M 250
get work and pay M 250
get more than all M 250
get leave for him M 250
get home for two M 250
get home and hear M 250
get help and then M 250
get even with each M 250
get jobs and get M 249
get ready now and M 248
get from her and M 248
get ahead and who M 248
get there this way M 247
get work for him M 246
get there and can M 246
get into how you M 246
get into her and M 246
get help with that M 246
get from her that M 246
get down and you M 246
get back its own M 246
get hurt doing that M 245
get from this man M 245
get sick and how M 244
get over not being M 244
get here and that M 244
get down with them M 244
get your head wet M 243
get what you did M 242
get very big and M 242
get these wet things M 242
get these things put M 242
get some heat going M 242
get over how they M 242
get into that big M 242
get from one idea M 242
get away with singing M 242
get into and then M 240
get back and not M 240
get away with non M 240
get along with now M 240
get away for ten M 239
get very mad and M 238
get very far this M 238
get past that one M 238
get home this year M 238
get nothing for all M 237
get back for two M 237
get more heat than M 234
get into her new M 234
get hurt and they M 234
get down with you M 234
get back for them M 234
get away for this M 234
get your men off M 232
get some things she M 232
get away and ran M 232
get along and who M 232
get ahead with this M 232
get even one day M 231
get these men and M 230
get into our old M 230
get back her son M 230
get away with low M 229
get your gear off M 228
get well and they M 228
get there this year M 228
get ready with all M 228
get into them now M 228
get food and how M 228
get even with men M 228
get back for her M 228
get away with than M 228
get over that you M 226
get more men for M 226
get away with ten M 226
get away and out M 226
get along and she M 226
get those two men M 224
get rich and buy M 224
get ready for god M 224
get over them all M 224
get over that now M 224
get away too far M 224
get angry and let M 224
get lost that way M 223
get from each one M 223
get when you sit M 222
get these men off M 222
get rich and you M 222
get lost with all M 222
get jobs for all M 222
get ideas for her M 222
get what god has M 220
get what does not M 220
get well and are M 220
get very red and M 220
get very far for M 220
get some and bring M 220
get more things for M 220
get home with that M 220
get ready for two M 219
get your own act M 218
get their man and M 218
get room for his M 218
get down with him M 218
get born and you M 218
get your own head M 216
get some one for M 216
get time for that M 215
get when they try M 214
get those who can M 214
get those men off M 214
get there for two M 214
get ready with his M 214
get into them all M 214
get their own man M 212
get their own act M 212
get into that new M 212
get into and get M 212
get feed for his M 212
get back his son M 212
get word that you M 210
get their gear and M 210
get other things that M 210
get into this too M 210
get into this job M 210
get into that too M 210
get into one that M 210
get home and set M 210
get away did not M 210
get angry and use M 210
get there with any M 209
get free and run M 209
get there with both M 208
get their men and M 208
get some pay for M 208
get from him now M 208
get done for her M 208
get back all its M 208
get along this way M 208
get rich off this M 207
get nothing for that M 207
get very far but M 204
get time for this M 204
get more aid for M 204
get lost and get M 204
get hurt and die M 204
get help and you M 204
get from you are M 204
get from all that M 204
get away with with M 204
get along with far M 204
get young men and M 202
get past her fear M 202
get less than its M 202
get home you are M 202
get from her any M 202
get down with his M 202
get done for them M 202
get cold and you M 202
get what you long M 201
get hurt and not M 201
get away and are M 201
get over that for M 200
get made and how M 200
get into that you M 200
get hurt doing this M 200
get here that they M 200
get food and then M 200
get down now and M 200
get done for you M 200
get busy and earn M 200
get back its old M 200
get your things for M 198
get when things are M 198
get well and she M 198
get more heat and M 198
get into that war M 198
get into any bad M 198
get into and that M 198
get from doing this M 198
get clear and then M 198
get busy and let M 198
get along with man M 198
get ahead and they M 198
get very dry and M 196
get there with him M 196
get ones that are M 196
get more sun and M 196
get less pay for M 196
get from him are M 196
get down off our M 196
get down off her M 196
get back all our M 196
get those two out M 195
get over you and M 194
get into and how M 194
get home and say M 194
get those things and M 192
get some real use M 192
get some dry things M 192
get over them with M 192
get over how easy M 192
get over his bad M 192
get leave for you M 192
get hurt and she M 192
get help with them M 192
get away she had M 192
get ahead with her M 192
get when they hear M 191
get your own things M 190
get warm and get M 190
get there are not M 190
get most who are M 190
get jobs and they M 190
get here any too M 190
get help and they M 190
get back and set M 190
get away for six M 190
get over that all M 188
get into things you M 188
get home for that M 188
get back that you M 188
get what you set M 186
get some new and M 186
get into this box M 186
get from her all M 186
get back all her M 186
get away that way M 186
get away and bring M 186
get there and set M 185
get past you and M 185
get help and that M 185
get cold and die M 185
get work for you M 184
get sick that way M 184
get over our own M 184
get into one for M 184
get into his big M 184
get into any long M 184
get done and who M 184
get data that are M 184
get away but not M 184
get wood for our M 182
get what you and M 182
get very weak and M 182
get some and put M 182
get lost now and M 182
get laid and get M 182
get into you and M 182
get into its rear M 181
get your own job M 180
get your long and M 180
get when you say M 180
get when you die M 180
get when they read M 180
get there and put M 180
get their way all M 180
get home for her M 180
get high with her M 180
get good and dry M 180
get down and lie M 180
get away and lie M 180
get done this year M 179
get some one that M 178
get good things for M 178
get free and get M 178
get back for him M 178
get there and two M 177
get your wet things M 176
get your man out M 176
get what they both M 176
get these things they M 176
get some man who M 176
get over that with M 176
get into things they M 176
get into one with M 176
get away with six M 176
get angry and are M 176
get their own and M 174
get into them for M 174
get hurt and get M 174
get home now that M 174
get from this poem M 174
get back for our M 174
get away and now M 174
get angry and may M 174
get ahead and are M 174
get there with her M 173
get work for his M 172
get when you cut M 172
get ready and you M 172
get over all our M 172
get only one year M 172
get only one day M 172
get more for him M 172
get less pay and M 172
get home and pay M 172
get back one day M 172
get back and sit M 172
get back and can M 172
get along and then M 172
get over this man M 171
get well for her M 170
get past this fear M 170
get onto and off M 170
get kids who are M 170
get ideas that you M 170
get angry now and M 170
get along with things M 170
get laid off for M 169
get word that they M 168
get these things set M 168
get over and fly M 168
get nothing but this M 168
get more real than M 168
get into him and M 168
get from this new M 168
get away with long M 168
get away with are M 168
get away and his M 168
get along for long M 168
get angry and act M 167
get your man and M 166
get wind that you M 166
get very ill and M 166
get very bad and M 166
get some for our M 166
get sick and she M 166
get over that day M 166
get only one set M 166
get lost you can M 166
get into any big M 166
get home with our M 166
get home and did M 166
get from her but M 166
get angry that you M 166
get along with non M 166
get ahead that they M 166
get their things out M 165
get back our old M 165
get along now that M 165
get some men put M 164
get into them than M 164
get home with this M 164
get cold and they M 164
get busy and you M 164
get away and yet M 164
get angry with that M 164
get well and out M 163
get your own web M 162
get what and why M 162
get their way than M 162
get their meat and M 162
get some for his M 162
get sick now and M 162
get ready and that M 162
get past him with M 162
get down with her M 162
get busy and bring M 162
get angry with and M 162
get into this man M 161
get your new job M 160
get work and they M 160
get there that they M 160
get over with this M 160
get more for each M 160
get into this old M 160
get into that for M 160
get down and say M 160
get their son out M 159
get from god and M 159
gear when you are M 159
get what god can M 158
get there can not M 158
get some things with M 158
get more meat than M 158
get more aid than M 158
get land for her M 158
get into war and M 158
get home that she M 158
get food that was M 158
get down that low M 158
get back for you M 158
get away for her M 158
get there and did M 157
get your own man M 156
get some things going M 156
get over was how M 156
get into low and M 156
get done with our M 156
get back they are M 156
get along with bad M 156
get ahead and you M 156
get there but you M 155
get ready and head M 155
get past that fear M 155
get over all his M 155
get done with one M 155
get work for her M 154
get when they use M 154
get some things you M 154
get past this new M 154
get nothing for this M 154
get more for that M 154
get into this bag M 154
get into this any M 154
get high and not M 154
get from its use M 154
get away they had M 154
get away and this M 154
get what and who M 152
get much pay for M 152
get like that and M 152
get into that man M 152
get into his bag M 152
get even thus far M 152
get down and they M 152
get busy and use M 152
get over his head M 150
get into that yet M 150
get good air and M 150
get from him how M 150
get angry that they M 150
get time for all M 149
get your job and M 148
get what one has M 148
get over with his M 148
get away but did M 148
get ahead with its M 148
get when you bring M 146
get what they aim M 146
get there each day M 146
get there and try M 146
get over and get M 146
get nothing for him M 146
get lost with this M 146
get lazy and let M 146
get home and all M 146
get dark and she M 146
get busy and set M 146
get back out with M 146
get there and bring M 145
get over this too M 145
get from you that M 145
get your way you M 144
get very sad and M 144
get these things you M 144
get some men who M 144
get rich off his M 144
get ready and she M 144
get only one and M 144
get nothing but dry M 144
get jobs this way M 144
get jobs and then M 144
get jobs and are M 144
get into them was M 144
get into and easy M 144
get ideas for this M 144
get home one day M 144
get from this and M 144
get from all his M 144
get food for its M 144
get even with any M 144
get busy with all M 144
get born and die M 144
get along any way M 144
get there they can M 143
get there but not M 143
get more men than M 143
get your own men M 142
get your own and M 142
get when you did M 142
get some one with M 142
get lazy and not M 142
get jobs that they M 142
get into with her M 142
get into and you M 142
get ideas and how M 142
get home this way M 142
get free and then M 142
get down and ask M 142
get dark and you M 142
get ahead and not M 142
get work and are M 140
get leave for this M 140
get land for his M 140
get into with each M 140
get into any way M 140
get home and how M 140
get help and not M 140
get done and they M 140
get away and can M 140
get along now with M 140
get there and one M 139
get told off and M 138
get such joy out M 138
get some but not M 138
get ready and they M 138
get over his mad M 138
get much for her M 138
get home you may M 138
get from men who M 138
get away and how M 138
get along and pay M 138
get time for his M 136
get rich with this M 136
get over this new M 136
get from you for M 136
get from one man M 136
get from him but M 136
get down and cut M 136
get down and beg M 136
get done and not M 136
get back her box M 136
get sent out for M 135
get your dog and M 134
get what one does M 134
get nothing for her M 134
get more air than M 134
get here that you M 134
get here and not M 134
get from you any M 134
get even and get M 134
get away and all M 134
get angry and cry M 134
get there and for M 133
get back her job M 133
get your son and M 132
get when they ask M 132
get well for his M 132
get there are two M 132
get there and sit M 132
get such things for M 132
get leave for them M 132
get into them but M 132
get into dry things M 132
get hard for you M 132
get from any man M 132
get food and they M 132
get back for this M 132
get back and hear M 132
get away and die M 132
get your own key M 130
get well and how M 130
get their way are M 130
get their own things M 130
get sick one day M 130
get rich but you M 130
get rich and they M 130
get into our way M 130
get into her old M 130
get ideas and then M 130
get home they can M 130
get help for both M 130
get even for her M 130
get busy and not M 130
get back all you M 130
get these things that M 129
get jobs and that M 129
get away was not M 129
get what she got M 128
get these things all M 128
get some air for M 128
get ready for big M 128
get lost and how M 128
get into any war M 128
get home with him M 128
get home and for M 128
get home and die M 128
get here with that M 128
get here are not M 128
get from long and M 128
get angry that she M 128
get along and can M 128
get your boy out M 127
get when you set M 126
get ready for things M 126
get past them all M 126
get over one man M 126
get lost and run M 126
get help for all M 126
get from one and M 126
get free and fly M 126
get even one meal M 126
get clean and dry M 126
get busy with them M 126
get away and read M 126
get along with ten M 126
get along and try M 126
get hurt this way M 125
get when you win M 124
get well and was M 124
get well and can M 124
get upon his own M 124
get their wings and M 124
get ready and not M 124
get much for this M 124
get more meat for M 124
get high and they M 124
get here and all M 124
get from one job M 124
get angry and she M 124
get ahead was not M 124
get ahead and how M 124
get ready for real M 123
get over this year M 123
get more heat out M 123
get well and had M 122
get upon our way M 122
get those men and M 122
get their way too M 122
get some things they M 122
get some meat out M 122
get sick and who M 122
get over her bad M 122
get lost and let M 122
get like that with M 122
get ideas that can M 122
get home and bring M 122
get high and low M 122
get here they can M 122
get here for this M 122
get hell for this M 122
get even with are M 122
get along with who M 122
get rich doing that M 121
get rich and that M 121
get along does not M 121
get your meat and M 120
get your idea for M 120
get your day going M 120
get wood for his M 120
get what she did M 120
get past him but M 120
get only one new M 120
get made for you M 120
get into his bad M 120
get high with you M 120
get down with that M 120
get back and fix M 120
get nothing but that M 119
get from his son M 119
get your things put M 118
get those men who M 118
get over that bar M 118
get nothing but his M 118
get more for one M 118
get into new and M 118
get high and thus M 118
get help and are M 118
get dark and then M 118
get back that old M 118
get away but his M 118
get away and cry M 118
get along and had M 118
get ahead are not M 118
get from that one M 117
get work and that M 116
get what was owing M 116
get well and try M 116
get some one out M 116
get some aid for M 116
get rich that they M 116
get over this for M 116
get nothing but bad M 116
get many things for M 116
get less for our M 116
get into and can M 116
get ideas that are M 116
get home for ten M 116
get home and buy M 116
get hold you may M 116
get help that way M 116
get from this job M 116
get food for two M 116
get food and bring M 116
get down and not M 116
get done this way M 116
get back and had M 116
get away and say M 116
get angry and sad M 116
get angry and his M 116
get there than they M 115
get work for two M 114
get what they saw M 114
get warm that way M 114
get there you see M 114
get their head out M 114
get ready for yet M 114
get past his fear M 114
get over that she M 114
get more real joy M 114
get lost and she M 114
get left too far M 114
get into with one M 114
get into and not M 114
get into and are M 114
get help with our M 114
get busy and then M 114
get back pay and M 114
get away and with M 114
get along one way M 114
get back and out M 113
get time with him M 112
get their way for M 112
get sick they are M 112
get nice things for M 112
get more meat and M 112
get into and they M 112
get hurt with that M 112
get here does not M 112
get help and was M 112
get help and had M 112
get from using this M 112
get from men and M 112
get feed for our M 112
get even with its M 112
get away with yet M 112
get angry with men M 112
get your own set M 110
get well with all M 110
get very bad for M 110
get there ask for M 110
get their head and M 110
get some new idea M 110
get some idea for M 110
get some gear and M 110
get some and then M 110
get over things and M 110
get over his old M 110
get other things they M 110
get only one try M 110
get into with this M 110
get into low gear M 110
get here and she M 110
get from eating too M 110
get back east and M 110
get away but you M 110
get arms for them M 110
get angry and put M 110
get along for them M 110
get along but they M 110
get along and let M 110
get your fly out M 109
get there with that M 109
get hurt one day M 109
get your things now M 108
get your things all M 108
get young men who M 108
get work with him M 108
get what you may M 108
get their own job M 108
get past them with M 108
get over that old M 108
get more things and M 108
get hurt now and M 108
get from that area M 108
get from him not M 108
get even for you M 108
get down too low M 108
get back and bring M 108
get away but can M 108
get work and then M 106
get when they got M 106
get when she had M 106
get what they set M 106
get time off with M 106
get time for any M 106
get these things going M 106
get over this bit M 106
get lost with that M 106
get laid and you M 106
get laid and then M 106
get into gear with M 106
get high with ease M 106
get half his head M 106
get from you all M 106
get fair pay for M 106
get down and set M 106
get back you may M 106
get along with don M 106
get when they had M 104
get what they mean M 104
get well with this M 104
get rich and who M 104
get rich and are M 104
get peace with god M 104
get over that bad M 104
get just that one M 104
get into who had M 104
get high all day M 104
get here with his M 104
get help with all M 104
get full pay and M 104
get down with this M 104
get clean and then M 104
get back but they M 104
get back and how M 104
get angry but not M 104
get even one seat M 103
get along this year M 103
get there all you M 102
get such things out M 102
get some ease for M 102
get more for this M 102
get more aid and M 102
get lost this way M 102
get hard and then M 102
get five and six M 102
get even his own M 102
get away with easy M 102
get aids that way M 102
get ahead and win M 102
get only two and M 101
get only one out M 101
get less now than M 101
get back that far M 101
get away and head M 101
get work and had M 100
get work and get M 100
get what you buy M 100
get very near her M 100
get there she was M 100
get sick they can M 100
get ready and set M 100
get nothing that they M 100
get nothing and you M 100
get much for our M 100
get less than her M 100
get into but not M 100
get into any but M 100
get ideas for things M 100
get help with using M 100
get help and she M 100
get good men who M 100
get full sun and M 100
get from her one M 100
get away with big M 100
get away for our M 100
get away are not M 100
get away and for M 100
get along one day M 100
get into that dead M 99
get what they each M 98
get there with them M 98
get some who are M 98
get rich off them M 98
get over this with M 98
get over being sad M 98
get over and too M 98
get more things than M 98
get made for them M 98
get like that too M 98
get into with you M 98
get into one big M 98
get here and who M 98
get hard and you M 98
get down with all M 98
get down too far M 98
get data for all M 98
get back and ask M 98
get your gear out M 97
get high and that M 97
get done and out M 97
get along with then M 97
get your idea off M 96
get work for all M 96
get when they die M 96
get what you owe M 96
get what you aim M 96
get well and for M 96
get these things now M 96
get there now and M 96
get ready for math M 96
get other meat than M 96
get nothing that way M 96
get more joy and M 96
get made and who M 96
get less than men M 96
get leave for his M 96
get into that bag M 96
get into key with M 96
get food that way M 96
get food and things M 96
get food and all M 96
get even with and M 96
get busy with its M 96
get busy and cut M 96
get back that two M 96
get back pay for M 96
get back for all M 96
get back all she M 96
get angry you are M 96
get ahead they had M 96
get what they long M 95
get home any way M 95
get your way this M 94
get your dog off M 94
get work this way M 94
get work for our M 94
get work and was M 94
get what this has M 94
get warm and you M 94
get upon them and M 94
get there they did M 94
get there for his M 94
get some idea both M 94
get some heat and M 94
get rich and was M 94
get peace and joy M 94
get over how this M 94
get only that for M 94
get less for them M 94
get hurt with this M 94
get home with any M 94
get food and air M 94
get feed for them M 94
get done that you M 94
get back you and M 94
get back and was M 94
get back and deal M 94
get angry and can M 94
get along and did M 94
get your map and M 92
get your job with M 92
get their way but M 92
get their own set M 92
get sick and may M 92
get pure air and M 92
get over this day M 92
get over head and M 92
get leave but for M 92
get into this deal M 92
get from them not M 92
get from one who M 92
get food this way M 92
get down our way M 92
get busy with you M 92
get back and all M 92
get along and all M 92
get told that you M 91
get your wings and M 90
get work and who M 90
get work and how M 90
get word that she M 90
get when they pay M 90
get when she got M 90
get well and who M 90
get wealth and put M 90
get warm and they M 90
get their due for M 90
get their bit and M 90
get sore and try M 90
get some air but M 90
get sick and end M 90
get rich off our M 90
get ready for being M 90
get ready and see M 90
get over you being M 90
get over this all M 90
get over that this M 90
get more for doing M 90
get mine and put M 90
get lost for two M 90
get lost and was M 90
get like this and M 90
get land for them M 90
get land for our M 90
get jobs that way M 90
get into that end M 90
get into gear for M 90
get here with all M 90
get from one bit M 90
get boring for you M 90
get angry and fly M 90
get ahead with that M 90
get their day off M 89
get into each one M 89
get home and dry M 89
get from doing that M 89
get your team and M 88
get what they may M 88
get those things they M 88
get these things with M 88
get sick with all M 88
get rich was not M 88
get ready with our M 88
get over how his M 88
get over her being M 88
get just for being M 88
get into this long M 88
get into any law M 88
get here and let M 88
get food that has M 88
get down for you M 88
get back with one M 88
get away but had M 88
get arms for his M 88
get along with real M 88
get ahead and earn M 88
get told that they M 87
get into and one M 87
get your bag for M 86
get well but she M 86
get very far using M 86
get there may not M 86
get there did not M 86
get their dead and M 86
get some that way M 86
get some idea and M 86
get rich off you M 86
get over this but M 86
get only one man M 86
get into them they M 86
get into that seat M 86
get home all day M 86
get from his old M 86
get from his job M 86
get food and get M 86
get fire and meat M 86
get back with god M 86
get back this year M 86
get back this far M 86
get back each year M 86
get away one day M 86
get busy doing things M 85
get what you both M 84
get well you can M 84
get upon his head M 84
get sick pay and M 84
get sent off for M 84
get ready his bow M 84
get over with and M 84
get over his awe M 84
get over her fit M 84
get over any fear M 84
get into this idea M 84
get into her set M 84
get ideas you can M 84
get ideas for our M 84
get home with one M 84
get home and use M 84
get here and this M 84
get from one year M 84
get from his men M 84
get down and had M 84
get cold and his M 84
get back that they M 84
get along with may M 84
get there and with M 83
get ready and out M 83
get lazy and use M 83
get your pay you M 82
get your key and M 82
get your death one M 82
get what they owe M 82
get warm and she M 82
get their pay they M 82
get some dry and M 82
get ready and say M 82
get over that they M 82
get once for all M 82
get lost with you M 82
get into this you M 82
get into his box M 82
get into her seat M 82
get into all our M 82
get home was not M 82
get help that was M 82
get from our men M 82
get food that they M 82
get done you can M 82
get back one way M 82
get back and are M 82
get back all them M 82
get away was that M 82
get away that you M 82
get away and who M 82
get along off with M 82
get home and off M 81
get some tow for M 80
get sick and old M 80
get rich and not M 80
get ready and all M 80
get over her not M 80
get over and then M 80
get lost with him M 80
get high and you M 80
get here any day M 80
get hell for that M 80
get from them has M 80
get from them but M 80
get from that man M 80
get from her her M 80
get even that for M 80
get data for this M 80
get back with any M 80
get along with get M 80
get ahead and was M 80
get away with out M 69
get more this way M 66
get there and this M 65
get your new pet M 64
get many things that M 64
get there and say M 62
get three and one M 60
get into them that M 59
get from one key M 59
get there and ask M 58
get into and use M 55
get more and pay M 54
get good things out M 53
get food and that M 51
get your team out M 50
get there and hear M 50
get their men off M 50
get more men out M 50
get your son off M 49
get your head beat M 49
get into that can M 49
get your leg out M 48
get there with one M 48
get down and bow M 47
get down all that M 46
get away all that M 46
get from this that M 45
get your arm out M 44
get there and pay M 44
get sick and cry M 44
get your bag out M 43
get your arm off M 43
get nothing but one M 43
get there they may M 42
get over and that M 42
get more and that M 42
get hurt and how M 42
gear other than that M 42
get their things off M 41
get like that you M 41
get away and lead M 41
get there but that M 40
get there and his M 40
get their man out M 40
get more and get M 40
get aids and that M 40
gear into his bag M 40
gear call you this M 40
get ready for bed D 35863
get into bed with D 18070
get into his car D 13033
get your ass out D 12839
get into bed and D 10971
get paid for doing D 6786
get some fun out D 5532
get into her car D 5154
get your hat and D 4842
get paid for this D 4272
get more fun out D 3420
get paid for that D 3055
get paid for them D 2702
get your gun and D 2628
get paid for his D 2423
get very hot and D 2412
get into his bed D 2230
get much fun out D 1702
get your ass off D 1675
get into her bed D 1658
get your fat ass D 1505
get into that car D 1484
get paid for being D 1447
get your car out D 1327
get paid for all D 1274
get into that bed D 1247
get some ice for D 1238
get your car and D 1012
get into our car D 986
get paid for our D 976
get paid for any D 874
get some ice and D 838
get some gas and D 710
get their meat hot D 706
get bread for his D 700
get your gun was D 698
get paid for not D 681
get into this car D 670
get paid for each D 660
get into bed for D 624
gear teeth are cut D 602
get into bed now D 564
get over jet lag D 532
get gold for this D 512
get paid for her D 496
get bread for her D 486
get your gun out D 471
get your pen and D 448
get paid for two D 425
get angry and hit D 410
get cash for his D 404
get gold for them D 398
get milk for her D 378
get down and dig D 378
get cash for them D 376
get your own car D 370
get paid for going D 367
get paid for and D 364
get bread and meat D 358
get into this bed D 348
get good and hot D 344
get along with thee D 331
get into this cab D 330
get into bed that D 328
get paid and you D 320
gear teeth for wear D 318
get some jam out D 312
get great fun out D 312
get some gas for D 300
get from his bed D 300
get paid and that D 288
get into his cab D 288
get paid and they D 286
get more fun and D 284
get your cap and D 276
get into her lap D 276
get paid and how D 274
get when you hit D 270
get your big ass D 268
get some wear out D 268
get your ass beat D 267
get more oil out D 267
get paid off and D 266
get paid for its D 266
get paid for one D 262
get more wear out D 262
get into that tub D 262
get your gun with D 260
get some oil for D 252
get bread for them D 242
get your toes wet D 241
get paid and get D 238
gear teeth are not D 236
get your mom and D 234
get into our bed D 234
get very fat and D 222
get their car out D 222
get milk for our D 220
get very thin and D 216
get some hay for D 214
get ready for fun D 211
get your car off D 209
get nice and fat D 208
get paid off for D 202
get rich and fat D 201
get into any car D 201
get into bed but D 200
get milk for his D 198
get paid for sex D 196
get your gun get D 194
get help and nab D 194
get busy and dig D 194
get into his van D 192
get bail for you D 192
get some oil and D 190
gear teeth that are D 190
get your bath and D 188
get shot for that D 188
get bread for our D 186
get your kit off D 185
get gold for his D 184
get from her bed D 182
get away with thee D 182
get your gun had D 180
get into that bath D 176
get your new car D 174
get paid and then D 174
get info box for D 174
get some fun and D 172
get into that cab D 170
get paid all that D 160
get their fun out D 158
get into his ears D 158
get their cow out D 156
get some fun for D 156
get into his hut D 154
get some ham and D 152
get along with mom D 151
get paid for using D 150
get more wear and D 150
get more sap out D 150
get your fun out D 148
get sued for that D 148
get into this jam D 146
get more ice for D 144
get into her bath D 144
get into bed she D 144
get along with dad D 144
get some guy who D 142
get into our ears D 142
get into one car D 142
get more wear than D 140
get more real fun D 140
get milk and meat D 140
get food and raw D 140
gear into his car D 140
get your gun for D 138
get shot and die D 138
get even with tom D 138
get more gas for D 136
get more fun for D 136
get into bed you D 136
get your dad and D 132
get news for him D 132
get cash and how D 132
get their toes wet D 131
get your car for D 130
get more oil and D 130
get into bed was D 130
get bread for you D 130
get along with bob D 130
get their own car D 126
get your rag out D 125
get shot and you D 125
get their ass out D 124
get your own ass D 122
get your car going D 122
get some hay and D 122
get paid off with D 122
get paid for six D 122
get over this guy D 122
get along with tom D 122
get corn and hay D 120
get away with tax D 120
get shot for being D 118
get into its swing D 118
get your big fat D 117
get paid for singing D 117
get into this bay D 116
get bail for him D 116
get shot and then D 114
get into one bed D 114
get your dad out D 113
get shot for his D 112
get paid one way D 112
get your ass and D 110
get shoes that fit D 110
get into that van D 110
gear teeth for that D 110
get their ten per D 108
get more car for D 108
get paid and not D 106
get most fun out D 106
get your bed and D 104
get such fun out D 104
get ripe for eating D 104
get into that fog D 104
get from his car D 104
get down and tie D 104
get some ink that D 102
get into this guy D 102
get past this guy D 100
get much too hot D 100
get into his lap D 100
get into his bath D 100
get paid that day D 99
gear teeth and are D 99
get your rod and D 98
get paid that way D 98
get into that lab D 98
get bread for one D 98
get your hat for D 96
get shoes for his D 96
get milk for him D 96
get into this rig D 96
get hurt and sue D 96
get home and hit D 96
get their car and D 94
get nice and hot D 94
get from this guy D 94
get their oil and D 92
get some mud and D 92
get when you rub D 90
get more ass than D 90
get into that rut D 90
get into any row D 90
get even with dad D 90
get cozy with him D 90
get shoes for her D 88
get paid for how D 88
get more fun than D 88
get cash for her D 88
get their ears for D 86
gem tinged all her D 84
get into that hot D 82
get into bed this D 82
get from his pen D 82
get what fun you D 80
get over that guy D 80
get more sex than D 80
get home and hug D 80
get cots for them D 80
get bread for him D 80
get their kit off D 67
get fore and aft D 64
get your mom out D 52
get some ice out D 49
gear teeth can not D 49
gel when they are D 44
get well and fat D 43
get lazy and fat D 41
get angry and tear D 40
