get to know your M 70324
get the work done M 61929
get the most from M 60785
get on very well M 57295
get to know their M 39081
get to know what M 23574
get up very early M 20514
get the hell away M 17329
get the best from M 17089
get to know more M 16329
get it into your M 16314
get no help from M 16170
get it away from M 16100
get the door open M 16019
get me away from M 14388
get to know some M 14194
get on their feet M 13961
get the very best M 13945
get my work done M 12356
get on your feet M 12129
get to know these M 11641
get the same kind M 11633
get to know other M 11543
get it into their M 10278
get the last word M 9477
get to their feet M 9237
get the best view M 8322
get it back from M 8022
get up from your M 7522
get as much work M 7205
get up from their M 7100
get it back into M 6930
get so much more M 6669
get the other side M 6547
get the truth from M 6488
get my life back M 6386
get the hell back M 6317
get it from your M 6226
get us away from M 5900
get the data from M 5848
get as much done M 5774
get my hair done M 5618
get as much rest M 5522
get me some more M 5443
get my breath back M 5251
get to your feet M 5220
get up from there M 4988
get the other half M 4592
get the full meaning M 4495
get in over your M 4352
get to know those M 4276
get as much from M 4252
get to know many M 4172
get the best care M 3805
get the best work M 3784
get the same sort M 3752
get it from their M 3750
get the best deals M 3632
get to your room M 3604
get to work early M 3420
get me back into M 3400
get to know well M 3262
get it back when M 3247
get in your eyes M 3245
get no more from M 3190
get to keep your M 3181
get to their jobs M 3114
get on your high M 2968
get on very fast M 2946
get to come home M 2858
get the best jobs M 2736
get the land back M 2645
get as much help M 2578
get the kids ready M 2502
get us some more M 2499
get so much done M 2482
get the word from M 2466
get the same type M 2452
get to their work M 2310
get to keep their M 2297
get the most work M 2269
get in their work M 2241
get the data into M 2178
get so angry when M 2164
get an even more M 2153
get to meet your M 2141
get to come back M 2086
get it from other M 2086
get the hell over M 2075
get us some food M 2072
get in your face M 2067
get to look like M 2045
get the most good M 2022
get the keys from M 2018
get in over their M 2006
get the ship ready M 1996
get it next time M 1966
get up from here M 1960
get on your back M 1924
get the room ready M 1894
get to work upon M 1890
get no good from M 1812
get the same rate M 1811
get us back into M 1804
get the food ready M 1794
get as much time M 1780
get the last drop M 1778
get it from some M 1774
get in those days M 1756
get the ship into M 1748
get to stay home M 1746
get on over there M 1718
get by just fine M 1715
get the best food M 1706
get me some food M 1705
get the best rate M 1698
get as much good M 1688
get so much from M 1686
get the meaning from M 1674
get the young lady M 1668
get the hell down M 1654
get the door shut M 1652
get an even break M 1632
get the good will M 1625
get me wrong here M 1624
get the main ideas M 1622
get no work done M 1622
get to your goal M 1611
get to stay here M 1608
get the book into M 1606
get to your work M 1599
get to meet some M 1596
get to your home M 1575
get in some good M 1547
get the body into M 1536
get as much food M 1526
get the jobs done M 1498
get to know very M 1494
get the best there M 1485
get to know much M 1483
get the full range M 1460
get the kids back M 1449
get the food from M 1446
get the ship back M 1442
get the book from M 1442
get it well into M 1424
get as much land M 1424
get to know most M 1419
get in your hair M 1415
get the same high M 1404
get the food into M 1404
get the book back M 1404
get on your case M 1404
get the book done M 1380
get my mind back M 1373
get me into their M 1372
get me some help M 1366
get the boys home M 1361
get the very most M 1358
get to feel like M 1348
get as much more M 1334
get the baby back M 1323
get the rest from M 1312
get the body back M 1301
get as many ideas M 1286
get the girl back M 1283
get the call from M 1272
get the most done M 1256
get on over here M 1254
get the name from M 1238
get to know when M 1234
get the hell home M 1226
get the most help M 1224
get on down there M 1213
get us some help M 1212
get the same food M 1209
get the health care M 1208
get to know such M 1203
get the best part M 1194
get in some more M 1192
get my feet back M 1186
get at once into M 1180
get it only from M 1178
get me down from M 1174
get the kids into M 1172
get the good jobs M 1158
get an edge over M 1142
get at their meaning M 1140
get to have some M 1136
get my health back M 1134
get no more work M 1124
get my best ideas M 1122
get to know from M 1119
get the land into M 1118
get to their next M 1112
get me down there M 1104
get the other three M 1098
get to your next M 1096
get it into some M 1094
get my eyes open M 1086
get it from there M 1080
get to pick your M 1076
get it done fast M 1076
get on just fine M 1072
get on away from M 1070
get me into your M 1070
get to take home M 1069
get the gate open M 1067
get so much work M 1058
get the full text M 1054
get it over here M 1054
get it free from M 1052
get on back home M 1048
get it some other M 1046
get the data back M 1044
get the boys back M 1038
get to have their M 1030
get the next term M 1028
get to some other M 1020
get to take care M 1017
get to make your M 1004
get the best kind M 1000
get the same work M 996
get me into some M 990
get the best help M 984
get my body back M 984
get me back home M 983
get up early next M 976
get to your site M 960
get the same from M 958
get the same data M 946
get the rest when M 944
get the file name M 944
get to have your M 940
get the girl away M 936
get on your face M 932
get me some good M 928
get by very well M 924
get to keep what M 918
get the mail from M 900
get us back home M 892
get on down here M 892
get the food down M 886
get the same view M 880
get us into some M 876
get the true meaning M 872
get in some kind M 872
get the best buys M 868
get on their good M 862
get the best angle M 856
get the most food M 850
get my ideas from M 848
get to take your M 846
get the case into M 846
get the best ideas M 846
get my feet into M 842
get as many more M 838
get to their home M 837
get the next best M 834
get it down from M 832
get to work from M 820
get it back here M 820
get no kick from M 816
get up some sort M 814
get the view from M 812
get so deep into M 810
get no word from M 808
get to look upon M 805
get it over there M 804
get to work when M 800
get as much into M 800
get the very same M 798
get to know just M 796
get the case over M 791
get on your mark M 787
get to play much M 786
get to work here M 784
get no other name M 780
get the young ones M 778
get in your mind M 777
get to keep more M 776
get the wrong kind M 776
get the same good M 776
get the girl into M 774
get the full name M 774
get me over there M 773
get the heart rate M 772
get to know only M 769
get the cost down M 769
get up from time M 767
get to take part M 765
get to meet many M 764
get it from those M 764
get us from here M 760
get it back down M 754
get to make their M 750
get the land from M 742
get my wind back M 742
get me into more M 735
get the same meaning M 732
get me back there M 732
get my kids back M 726
get the best room M 724
get my heart rate M 724
get it down here M 722
get at their food M 722
get us into more M 718
get no harm from M 718
get the boys into M 714
get in some other M 714
get it along when M 713
get in their face M 708
get up very late M 703
get the land ready M 698
get the deed done M 698
get an aids test M 697
get to third base M 696
get the fish into M 696
get so much into M 694
get the best ones M 692
get in your room M 688
get to meet their M 687
get it next week M 686
get up some kind M 682
get my baby back M 674
get the other kids M 672
get to know even M 670
get the wrong ideas M 666
get the boys ready M 666
get us into their M 664
get so much less M 660
get to learn more M 658
get the same look M 656
get the full view M 656
get it into good M 656
get to talk much M 652
get me some work M 650
get the list from M 648
get as much data M 648
get as many other M 646
get an early look M 644
get the body ready M 640
get my mind clear M 638
get to some kind M 636
get to come here M 636
get the same reading M 630
get the safe open M 630
get me down here M 630
get to from here M 628
get to city hall M 628
get in line early M 627
get us into such M 626
get to meet other M 626
get the good ones M 626
get so much time M 626
get the time from M 624
get me back here M 624
get it down there M 623
get to work soon M 620
get the same kick M 604
get on your good M 604
get on your side M 603
get the word back M 600
get up once more M 596
get us some good M 594
get to make love M 593
get the army into M 590
get the other boys M 584
get on well there M 580
get in other ways M 580
get the text from M 578
get the baby ready M 576
gear to make sure M 576
get me some clean M 572
get on their high M 571
get to work more M 569
get the work into M 568
get the best land M 566
get to work late M 565
get the best health M 564
get as many good M 564
get the poor girl M 562
get the very last M 560
get no other work M 560
get to tell their M 556
get the help from M 556
get the file from M 556
get the main body M 552
get it done when M 552
get to stay there M 551
get to keep only M 549
get the ship away M 546
get the seed into M 546
get it down into M 544
get no other food M 542
get in from work M 542
get the ideas down M 540
get no more help M 538
get to keep some M 536
get the full list M 536
get the best look M 536
get the wrong side M 534
get the next word M 534
get it done more M 534
get to work making M 532
get it done soon M 532
get in their eyes M 532
get to work there M 530
get the game over M 529
get the other five M 528
get the kids from M 528
get the last term M 525
get to learn from M 524
get it wrong when M 522
get to their goal M 520
get no rest from M 520
get it some time M 520
get to their room M 516
get the truth into M 516
get my mind away M 516
get my hand into M 514
get the same size M 512
get to feel good M 510
get to live here M 506
get the file back M 502
get it done well M 501
get the trial over M 496
get an early jump M 496
get me over here M 494
get to hell away M 492
get the tree down M 492
get the book ready M 490
get on their side M 490
get to pick what M 488
get the back door M 488
get it done here M 488
get the main part M 484
get it from here M 484
get so much good M 480
get to know life M 478
get as many fish M 478
get the best type M 472
get the left side M 470
get as much free M 470
get the show back M 468
get the full worth M 468
get to your heart M 466
get the army away M 466
get in these days M 466
get the baby into M 464
get up here from M 462
get to take their M 462
get the other four M 462
get up till late M 461
get so many more M 461
get the kids home M 460
get the last part M 456
get the hell into M 456
get in there fast M 455
get the baby born M 454
get it back home M 454
get if there were M 454
get to know young M 450
get by fair means M 450
get to work like M 449
get up early when M 448
get the bait down M 447
get on much more M 447
get to make some M 446
get by other means M 445
get to walk away M 444
get the next time M 444
get so many good M 442
get at your work M 442
get the full good M 440
get no help here M 440
get the trip over M 438
get the name wrong M 438
get so much help M 438
get the body away M 436
get me some kind M 436
get the last name M 434
get on their case M 433
get to pick their M 432
get the same care M 432
get to their food M 430
get to your data M 428
get on well here M 428
get no hearing from M 428
get the other part M 426
get the city back M 426
get it done there M 426
get to learn what M 424
get the edge over M 424
get to know lots M 422
get the other kind M 422
get us down there M 421
get the next line M 420
get my mind into M 420
get the next item M 419
get in your life M 419
get my room ready M 418
get it only when M 418
get us over there M 416
get the test done M 416
get it back soon M 416
get no help there M 414
get no food from M 414
get me some cold M 413
get so angry over M 411
get the same time M 410
get on your coat M 408
get to your post M 406
get to tell your M 406
get to have more M 406
get it made into M 406
get to take over M 405
get the kids away M 400
get in their heads M 400
get it well done M 398
get it into such M 398
get it very soon M 396
get to work very M 394
get the left hand M 394
get the body moving M 394
get to live there M 391
get the same name M 390
get the fire ready M 390
get no peace from M 390
get the last three M 389
get the same room M 388
get the living room M 386
get the keys back M 386
get my food from M 386
get the same ideas M 384
get so many ideas M 384
get no hold upon M 384
get it done early M 384
get it back once M 384
get it back over M 383
get the hell gone M 382
get at their work M 382
get in till late M 381
get the heart beating M 380
get no meaning from M 380
get my name from M 378
get my hand back M 378
get me some warm M 378
get in some time M 377
get so much mail M 376
get at their true M 376
get at some clear M 376
get the next step M 374
get to town from M 373
get on very much M 372
get as good dogs M 372
get it back some M 370
get the same help M 368
get or keep jobs M 368
get to meet lots M 366
get the last line M 366
get to know kids M 364
get so very much M 364
get it back onto M 364
get to play more M 362
get to know miss M 362
get me into such M 362
get the body down M 360
get on your last M 360
get my feet warm M 360
get the case heard M 358
get on back there M 357
get to play some M 356
get the ship moving M 356
get the line back M 352
get it over soon M 351
get the wood from M 350
get on your arms M 350
get to make sure M 348
get no rest till M 348
get my body into M 348
get me wrong there M 348
get so much food M 344
get the case back M 342
get the baby from M 342
get the same jobs M 340
get the full truth M 340
get the case ready M 340
get to their heads M 338
get the same ratio M 338
get the lock open M 338
get the great mass M 338
get an item from M 338
get to hold your M 336
get the word into M 334
get up into your M 332
get to those other M 332
get the user name M 332
get up into their M 330
get in there when M 330
get it from food M 328
get up upon their M 326
get no more food M 326
get up there fast M 325
get in some work M 324
get to come along M 323
get the army back M 322
get it from these M 322
get it back there M 322
get the work over M 320
get the work from M 320
get the truth told M 320
get the tail down M 320
get on some other M 320
get on best when M 320
get up when your M 318
get the work well M 318
get the work back M 318
get the line moving M 318
get it just like M 318
get it down fast M 318
get the trial done M 316
get the show ready M 316
get the same great M 316
get no work from M 316
get to look into M 315
get on back here M 315
get to work once M 314
get the poor beast M 312
get the dogs back M 312
get the good word M 310
get my left hand M 310
get to work till M 309
get the text into M 308
get the pain over M 308
get my heart into M 306
get it over your M 306
get up there from M 302
get the note from M 302
get to look more M 301
get to have such M 301
get the unit cost M 301
get as much down M 301
get to know best M 300
get the young girl M 300
get the last bits M 300
get to your ideal M 299
get up even when M 298
get the most time M 298
get the fish back M 298
get the body from M 298
get to move into M 296
get the full rate M 296
get the best fare M 296
get the army ready M 296
get the logs down M 294
get the file size M 294
get the date wrong M 294
get my feet down M 294
get the ship clear M 292
get the meals ready M 292
get the band back M 292
get no peace till M 292
get in their good M 291
get the baby used M 290
get the ship down M 288
get the true length M 286
get or keep their M 286
get at your data M 286
get to your ship M 284
get to meet these M 284
get the same form M 284
get the knot tied M 284
get the arms from M 284
get me next time M 284
get at once from M 284
get in their home M 283
get no hint from M 282
get my coat from M 282
get it back only M 282
get the code from M 280
get no more till M 279
get my heart back M 279
get to feel what M 278
get the same mark M 278
get the ideas from M 278
get the city into M 278
get the boys away M 278
get on their list M 278
get at what lies M 278
get or http post M 276
get by these days M 276
get us some fish M 274
get the hard work M 274
get the best data M 274
get to some sort M 273
get the reading done M 272
get the fish from M 272
get the baby away M 272
get as many young M 272
get it much more M 271
get up only when M 270
get to town much M 270
get the full length M 270
get the date from M 270
get on back down M 270
get it from what M 270
get as much wealth M 270
get the same list M 268
get the same feel M 267
get up some time M 266
get to know boys M 266
get the seed from M 266
get no more good M 266
get the same three M 264
get the item back M 264
get the best time M 264
get my name into M 264
get my book back M 264
get me some wood M 264
get an even coat M 264
get to make those M 262
get the wood ready M 262
get the time wrong M 262
get the leading role M 262
get no other kind M 262
get an early copy M 262
get to work fast M 260
get to work even M 260
get to pick from M 260
get the form from M 260
get at some sort M 260
get to live like M 259
get to your door M 258
get the other into M 258
get the good from M 258
get on some kind M 258
get my wits back M 258
get me from here M 258
get it into play M 258
get the item from M 256
get or learn from M 256
get my land back M 256
get it over early M 256
get to there from M 254
get to make more M 254
get the next part M 254
get the best odds M 254
get my arms free M 254
get in there early M 254
get as much rain M 254
get as much love M 254
get as much kick M 254
get an early view M 254
get in some sort M 253
get the plan into M 252
get on your tail M 252
get me wrong when M 252
get me some from M 252
get the rest back M 250
get so busy trying M 250
get to know over M 249
get up till nine M 248
get to take some M 248
get to play very M 248
get the same health M 248
get the hard part M 248
get so much land M 248
get to town very M 246
get to feel more M 246
get the same range M 246
get the book down M 246
get so much bone M 246
get so much back M 246
get me some sort M 246
get in even more M 245
get us into deep M 244
get the item wrong M 244
get my hand away M 244
get at just what M 244
get to show their M 242
get to keep half M 242
get to come into M 242
get the true feel M 242
get the same rush M 242
get the mind into M 242
get the line into M 242
get the same test M 241
get the land free M 241
get to keep most M 240
get the logs from M 240
get no clue from M 240
get so much free M 239
get in your home M 239
get to work among M 238
get the most meaning M 238
get as deep into M 238
get to these other M 236
get the same rating M 236
get my eyes back M 236
get my arms into M 236
get an open line M 236
get up into some M 234
get the data ready M 234
get my room back M 234
get my ideas into M 234
get it from reading M 234
get in their hair M 234
get in next time M 234
get to their land M 233
get to work during M 232
get the boys from M 232
get it into type M 232
get in line there M 232
get in line like M 232
get to their arms M 230
get as much back M 229
get us into wars M 228
get up some more M 228
get to your side M 228
get to help make M 228
get the same angle M 228
get the most life M 228
get the best seed M 228
get at some truth M 228
get to have much M 227
get the time back M 226
get the kids down M 226
get the bird back M 226
get my ideas down M 225
get up into those M 224
get to hell from M 224
get the less sure M 224
get the best cuts M 224
get my book done M 224
get to meet more M 222
get it when your M 222
get it back even M 222
get in some last M 222
get to your main M 220
get to come down M 220
get the work ready M 220
get the word past M 220
get the time down M 220
get the ship home M 220
get the same item M 220
get the best fish M 220
get my door open M 220
get in life what M 220
get by heart some M 220
get to home base M 219
get to these areas M 218
get to show your M 218
get the dogs ready M 218
get on well when M 218
get in their last M 218
gear on your back M 217
get us very much M 216
get up there when M 216
get up from reading M 216
get to test your M 216
get to know nothing M 216
get the test back M 216
get the same warm M 216
get the last load M 216
get the unit back M 214
get the same word M 214
get the last four M 214
get the kids some M 214
get the game into M 214
get the full cost M 213
get to look over M 212
get to look down M 212
get to live your M 212
get the town back M 212
get the most rain M 212
get the most health M 212
get up there early M 211
get it back next M 211
get up early just M 210
get the warm side M 210
get the same length M 210
get the road ready M 210
get the next three M 210
get the fire from M 210
get the fact into M 210
get on into town M 210
get the room warm M 209
get to some more M 208
get the wind from M 208
get the other hand M 208
get the call over M 208
get it done even M 208
gear is also used M 208
get to work only M 207
get to come over M 206
get the next load M 206
get the baby home M 206
get no pity from M 206
get it done during M 206
get to walk down M 204
get the true time M 204
get the land away M 204
get the cold side M 204
get the case moving M 204
get on your list M 204
get it from home M 204
get an even flow M 203
get to test their M 202
get us back here M 200
get the pass from M 200
get on from there M 200
get it when there M 200
get it onto your M 200
get it from just M 200
get in some flying M 200
get at home from M 200
get up some other M 198
get up early some M 198
get the same into M 198
get the road open M 198
get the last look M 198
get the girl from M 198
get the fine view M 198
get so much rain M 198
get my life into M 198
get my eyes into M 198
get me some nice M 198
get it done just M 198
get in five years M 198
get as much meaning M 198
get to live their M 197
get the same break M 197
get to keep these M 196
get the trap ready M 196
get the other ones M 196
get the call when M 196
get the baby down M 196
get on some sort M 196
get my hair back M 196
get it from boys M 196
get at once such M 196
get up early during M 194
get the tree into M 194
get the same rise M 194
get the play into M 194
get the full feel M 194
get it wrong from M 194
get in line ahead M 194
get as much room M 194
get to meet such M 192
get to like some M 192
get to know during M 192
get the wrong ones M 192
get the true cost M 192
get the same done M 192
get the plan back M 192
get the ideas into M 192
get the food back M 192
get it back till M 192
get as many jobs M 192
get the same depth M 191
get us down here M 190
get up early here M 190
get to other areas M 190
get the word wrong M 190
get no good view M 190
get it sent down M 190
get it into line M 190
get it home from M 190
get in your early M 190
get the wrong meaning M 188
get the word down M 188
get the rate down M 188
get the coat back M 188
get the bird upon M 188
get it from many M 188
get it even when M 188
get in your food M 188
get the note back M 187
get as much depth M 187
get to hell back M 186
get the wrong sort M 186
get the time when M 186
get the third term M 186
get the book away M 186
get the best feel M 186
get my work into M 186
get my name wrong M 186
get me some other M 186
get in your very M 186
get the best mark M 185
get us back there M 184
get to know will M 184
get the sign from M 184
get the next month M 184
get the girl home M 184
get the copy done M 184
get me there fast M 184
get me into these M 184
get it over fast M 184
get it back just M 184
gear is made from M 184
get us there fast M 182
get us down from M 182
get up very high M 182
get the same ones M 182
get the rest done M 182
get the full face M 182
get the case open M 182
get no clear view M 182
get me some rest M 182
get me sent back M 182
get it done till M 182
gear of some kind M 182
get my hand free M 181
get up just when M 180
get the site ready M 180
get the same note M 180
get the other girl M 180
get the next size M 180
get the most play M 180
get my name back M 180
get in some early M 180
get as much snow M 180
get up here fast M 179
get to work just M 178
get to talk like M 178
get to know three M 178
get the room over M 178
get the play ready M 178
get the home rule M 178
get the duty done M 178
get it done from M 178
get in their best M 178
get as much life M 178
get to talk more M 176
get the mine into M 176
get the best living M 176
get it these days M 176
get in among those M 176
get so worn down M 175
get up there among M 174
get to your last M 174
get to play your M 174
get the next page M 174
get the next book M 174
get the much more M 174
get the game back M 174
get my feet moving M 174
get my book into M 174
get my best work M 174
get to show what M 172
get the same line M 172
get the road into M 172
get the lady into M 172
get my good side M 172
get me free from M 172
get me back down M 172
get it done very M 172
get at some other M 172
get as much wood M 172
get as many free M 172
get an echo from M 172
get an army into M 172
get to port said M 171
get us back onto M 170
get to your dream M 170
get to play along M 170
get to like these M 170
get to like their M 170
get the dogs away M 170
get the city moving M 170
get the bait well M 170
get no more time M 170
get me sent away M 170
get in your heart M 170
get in here fast M 170
get the best life M 169
get the best hold M 169
get up there soon M 168
get to those areas M 168
get to keep from M 168
get the mark upon M 168
get the hint when M 168
get the book here M 168
get so much love M 168
get my mind made M 168
get it over once M 168
get by heart what M 168
get to work much M 167
get me some time M 167
get up till half M 166
get up only once M 166
get up nothing more M 166
get to your bank M 166
get to leave here M 166
get to land till M 166
get the test over M 166
get the hall ready M 166
get the fish home M 166
get it there fast M 166
get as good work M 166
get the next file M 165
get to make many M 164
get to have what M 164
get the true form M 164
get the line open M 164
get on your mind M 164
get on their wrong M 164
get it clear what M 164
get by some means M 164
get the most cost M 163
get in your work M 163
gear to slow down M 163
get up once during M 162
get to work next M 162
get to town till M 162
get to play like M 162
get to like your M 162
get the user back M 162
get the same fine M 162
get the same back M 162
get the road well M 162
get the most hits M 162
get the line well M 162
get the best line M 162
get or keep your M 162
get me into town M 162
get me into deep M 162
get me home safe M 162
get me away into M 162
get in your good M 162
get up when there M 160
get to hand till M 160
get the shop ready M 160
get the same gift M 160
get the next data M 160
get the hand into M 160
get is worth saving M 160
get in there soon M 160
get in there just M 160
get as much vice M 160
get in till nine M 159
get as much play M 159
get to work trying M 158
get to their site M 158
get to play their M 158
get to know whom M 158
get the true bearing M 158
get the love from M 158
get the loop over M 158
get the line from M 158
get the file into M 158
get me some land M 158
get it past your M 158
get in some wood M 158
get at your home M 158
get to like what M 157
get it from time M 157
gear on their heads M 157
get us some cold M 156
get up some fine M 156
get to work were M 156
get to some good M 156
get the show moving M 156
get the same full M 156
get the same book M 156
get the room back M 156
get the logs into M 156
get the line down M 156
get the last five M 156
get the free time M 156
get or hold jobs M 156
get on less well M 156
get in your body M 156
get to your eyes M 154
get to your case M 154
get the true view M 154
get the same truth M 154
get the left bank M 154
get the last room M 154
get the full tour M 154
get on your hand M 154
get no love from M 154
get my heart beating M 154
get my breath when M 154
get at last into M 154
get as many hits M 154
get the ship over M 153
get the best sort M 153
get the best reading M 153
get to feel very M 152
get the wash done M 152
get my mind down M 152
get in three days M 152
get in there from M 152
get at your back M 152
get to look back M 151
get the next turn M 151
get the glad hand M 151
get an early reading M 151
gear in those days M 151
get the home ready M 150
get my body moving M 150
get it very well M 150
get it next month M 150
get in here when M 150
get to your rest M 148
get to know soon M 148
get the same gain M 148
get the food onto M 148
get the dogs into M 148
get the body also M 148
get my other hand M 148
get it back ever M 148
get the best break M 147
get it shut down M 147
get at your meaning M 147
get up very soon M 146
get up there just M 146
get to love their M 146
get the side view M 146
get the ship free M 146
get the rest into M 146
get the name well M 146
get the lady some M 146
get the game moving M 146
get the bird from M 146
get my girl back M 146
get in single file M 146
gear is used only M 146
get the ship along M 145
get the play back M 145
get my hand down M 145
get to name your M 144
get the work moving M 144
get the soft side M 144
get the same fair M 144
get the line over M 144
get the life back M 144
get the bone back M 144
get the bird into M 144
get in over there M 144
get in here from M 144
get in good time M 144
get the list down M 143
get up till four M 142
get to work free M 142
get to make good M 142
get to know mark M 142
get the other down M 142
get the host name M 142
get the hair into M 142
get the girl some M 142
get the boys some M 142
get me back from M 142
get it back many M 142
get at their arms M 142
get an even bearing M 142
get it done much M 141
get to keep less M 140
get the show into M 140
get the same lift M 140
get the most able M 140
get the best form M 140
get on from here M 140
get it there will M 140
get it done some M 140
get it done next M 140
get as much there M 140
get as many kids M 140
gear is much more M 140
get to town early M 139
get to your back M 138
get the tree home M 138
get the copy from M 138
get so many other M 138
get me home from M 138
get it deep down M 138
get in four years M 138
get to stay over M 137
get it over more M 137
get to take these M 136
get to know were M 136
get the same cold M 136
get the most land M 136
get the mail when M 136
get the free gift M 136
get my mind ready M 136
get my mail from M 136
get it into full M 136
get at some kind M 136
get the same four M 135
get in some very M 135
get us back down M 134
get to work some M 134
get to love your M 134
get to health care M 134
get to call your M 134
get the part from M 134
get the note into M 134
get the line clear M 134
get the last time M 134
get the hard copy M 134
get the flow rate M 134
get the deed from M 134
get the call back M 134
get so many nice M 134
get no very clear M 134
get it only once M 134
get it here from M 134
get it done over M 134
get in line when M 134
get as many boys M 134
get an open view M 134
get us what other M 132
get us some nice M 132
get up early from M 132
get to their data M 132
get to some town M 132
get to keep much M 132
get the room next M 132
get the full load M 132
get my eyes used M 132
get it just from M 132
get it into those M 132
get in most other M 132
get the last half M 131
get it from such M 131
get to your body M 130
get to know there M 130
get to know good M 130
get the union back M 130
get the text back M 130
get the ship there M 130
get the best young M 130
get the best hearing M 130
get the band into M 130
get on some high M 130
get my mind onto M 130
get me once more M 130
get in their fine M 130
get as much game M 130
get as many from M 130
get the most even M 129
get me wrong love M 129
get up from among M 128
get up early like M 128
get to your hole M 128
get to their true M 128
get to their side M 128
get to meet those M 128
get the youth into M 128
get the word when M 128
get the three great M 128
get the same code M 128
get the only clue M 128
get the most rest M 128
get so much wealth M 128
get no good there M 128
get it from most M 128
get it down your M 128
get in when there M 128
get in till well M 128
get in some fine M 128
get an early blow M 128
get us some wood M 127
get to take more M 127
get the best side M 127
get to your other M 126
get to your best M 126
get the road clear M 126
get the only kind M 126
get the length even M 126
get the leading part M 126
get the holy land M 126
get no more rest M 126
get no more jobs M 126
get me some fish M 126
get it well down M 126
get it very much M 126
get it into form M 126
get to those hard M 125
get to meet most M 125
get the same mass M 125
get the fire back M 125
get my hand over M 125
get up here soon M 124
get to town when M 124
get to their ship M 124
get to move back M 124
get the user into M 124
get the third part M 124
get the same wrong M 124
get the same fate M 124
get the poor into M 124
get the list back M 124
get the home page M 124
get the good life M 124
get so much snow M 124
get my kids into M 124
get it very good M 124
get it even more M 124
get in till half M 124
get in there like M 124
get at these ideas M 124
get at some more M 124
get as much truth M 124
get to their door M 123
get to play there M 123
get the wind more M 123
get us sent back M 122
get to play when M 122
get the talk over M 122
get the same dark M 122
get the other pair M 122
get the most fish M 122
get the load moving M 122
get the heavy snow M 122
get the food away M 122
get the angle just M 122
get on their back M 122
get my kids ready M 122
get me some shut M 122
get my faith back M 121
get in there once M 121
get to think like M 120
get to their full M 120
get to make these M 120
get to hell along M 120
get the very high M 120
get the ship past M 120
get the same pain M 120
get the other nine M 120
get the item into M 120
get the food when M 120
get the arms into M 120
get my game back M 120
get my face back M 120
get it once into M 120
get it done once M 120
get is back into M 120
get as warm over M 120
get as much fish M 120
get an early spring M 120
get an army ready M 120
get an army from M 120
get to your most M 119
get at some food M 119
get us into these M 118
get up onto their M 118
get to your stop M 118
get to their best M 118
get to tell what M 118
get the hell from M 118
get the good food M 118
get the copy back M 118
get the bait from M 118
get on here from M 118
get my tail back M 118
get me back onto M 118
get it done ahead M 118
get it back during M 118
get is when some M 118
get in very early M 118
get in three years M 118
gear to keep from M 118
gear of some sort M 118
get the food there M 117
get the food moving M 117
get at best only M 117
get us over these M 116
get up very well M 116
get to those soon M 116
get to these kids M 116
get to their last M 116
get to sell your M 116
get to hold their M 116
get to help your M 116
get the wrong sign M 116
get the same play M 116
get the same love M 116
get the room into M 116
get the other from M 116
get the main road M 116
get the mail ready M 116
get the last page M 116
get the deed back M 116
get the best plan M 116
get my keys from M 116
get me into jail M 116
get it very clear M 116
get it down when M 116
get in there very M 116
get as many such M 116
get an exam back M 116
get up very much M 115
get to have kind M 115
get it wrong more M 115
get to work last M 114
get to their main M 114
get to know here M 114
get to keep those M 114
get the same sign M 114
get the other work M 114
get the ones from M 114
get the lady away M 114
get the hint from M 114
get the deed over M 114
get the data type M 114
get the case sent M 114
get the boys over M 114
get the best home M 114
get my life moving M 114
get me down like M 114
get it into town M 114
get it from having M 114
get it even from M 114
get it down just M 114
get in other areas M 114
get in many other M 114
get in here last M 114
get at their full M 114
get us some kind M 112
get us back from M 112
get up there some M 112
get to walk into M 112
get to make such M 112
get to love such M 112
get to have those M 112
get the time over M 112
get the page from M 112
get the other book M 112
get the next clue M 112
get the name back M 112
get the most back M 112
get the moon back M 112
get the meaning when M 112
get the hour angle M 112
get the good land M 112
get the body over M 112
get on like other M 112
get my ship back M 112
get my love back M 112
get my hearing back M 112
get my face into M 112
get it done like M 112
get in some hard M 112
get as much hard M 112
get an ever more M 112
get to your baby M 111
get to town more M 111
get the full three M 111
get to your kind M 110
get to name their M 110
get to like those M 110
get to leave their M 110
get to learn their M 110
get the west bank M 110
get the video into M 110
get the true angle M 110
get the same land M 110
get the high sign M 110
get the hero into M 110
get the door down M 110
get the best bone M 110
get or post data M 110
get no clear case M 110
get my reading done M 110
get my boys back M 110
get is much more M 110
get an item into M 110
get an early hearing M 110
get an army over M 110
get the same five M 109
get us into town M 108
get up these days M 108
get to your face M 108
get to these jobs M 108
get to their base M 108
get to talk back M 108
get to feel your M 108
get the wood into M 108
get the same hearing M 108
get the most gain M 108
get the last item M 108
get the body used M 108
get the bait into M 108
get on these days M 108
get it till next M 108
get in there next M 108
get as much bone M 108
get the true reading M 107
get the same free M 107
get the best pick M 107
get my mail there M 107
get we also have M 106
get us down into M 106
get up till very M 106
get up there will M 106
get up there very M 106
get to walk home M 106
get to land when M 106
get to help pick M 106
get the union shop M 106
get the line ready M 106
get the kick away M 106
get the hard sell M 106
get the good luck M 106
get the full data M 106
get the army moving M 106
get on your next M 106
get my other work M 106
get me into those M 106
get it back fast M 106
get an early feel M 106
get it sent back M 105
get in down there M 105
get up into line M 104
get to your mind M 104
get to those jobs M 104
get to these hard M 104
get the same flow M 104
get the leading edge M 104
get the fire upon M 104
get the dark blue M 104
get the boys down M 104
get the best play M 104
get the best pair M 104
get so much ahead M 104
get no such help M 104
get no free time M 104
get my living from M 104
get my hand upon M 104
get it there from M 104
get it other ways M 104
get it done most M 104
get in your line M 104
get by living there M 104
get at your food M 104
get at their ideas M 104
gear is used when M 104
get up from what M 103
get to leave early M 103
get to those kids M 102
get to their great M 102
get to some very M 102
get to move your M 102
get to here from M 102
get to hate their M 102
get the ship from M 102
get the next call M 102
get the most wealth M 102
get the mine back M 102
get the mask back M 102
get the kids here M 102
get the keys into M 102
get the heavy work M 102
get the good part M 102
get the fish away M 102
get the deals done M 102
get the best book M 102
get so many from M 102
get in your book M 102
get to think more M 101
get to some port M 101
get an ocean view M 101
get us over here M 100
get up onto your M 100
get to your town M 100
get to these days M 100
get to step into M 100
get to other side M 100
get to learn some M 100
get to give your M 100
get to feel much M 100
get the single word M 100
get the same clear M 100
get the poor lady M 100
get the meaning clear M 100
get the last copy M 100
get the lady down M 100
get the kids there M 100
get the form back M 100
get the city ready M 100
get the baby some M 100
get the baby onto M 100
get it safe into M 100
get it open fast M 100
get it back very M 100
get as much self M 100
get as much cloth M 100
get as many into M 100
get as good food M 100
get an army sent M 100
get to work will M 99
get to town once M 99
get the more time M 99
get the best word M 99
get on their land M 99
get us next time M 98
get up when other M 98
get to your test M 98
get to work down M 98
get to other work M 98
get to open their M 98
get to last time M 98
get to kick some M 98
get the video from M 98
get the tree ready M 98
get the show over M 98
get the less able M 98
get the full depth M 98
get the fish ready M 98
get the data onto M 98
get the clue from M 98
get the clear road M 98
get the band ready M 98
get on very good M 98
get my body down M 98
get me wrong like M 98
get me more work M 98
get it very wrong M 98
get it down their M 98
get as much lift M 98
get as much gain M 98
get as much care M 98
get as good jobs M 98
get up next week M 97
get to from there M 97
get so much leave M 97
get to speak their M 96
get to some part M 96
get to look good M 96
get the unit into M 96
get the true rate M 96
get the three years M 96
get the same text M 96
get the next four M 96
get the last unit M 96
get the land when M 96
get the kids their M 96
get the gain from M 96
get the full time M 96
get the breath into M 96
get the best meals M 96
get the arms away M 96
get so angry just M 96
get my living here M 96
get me into even M 96
get me down when M 96
get it over into M 96
get in your hand M 96
get in till three M 96
get in there among M 96
get in their food M 96
get in some much M 96
get in next week M 96
get as many runs M 96
get the best hand M 95
get me home early M 95
get up upon your M 94
get up some good M 94
get up early these M 94
get to very high M 94
get to give their M 94
get the word male M 94
get the side door M 94
get the other sort M 94
get the other lots M 94
get the meaning more M 94
get the last ones M 94
get the good deals M 94
get the case away M 94
get the bird down M 94
get the best ratio M 94
get the best game M 94
get so busy making M 94
get on very very M 94
get on third base M 94
get on even when M 94
get no work there M 94
get no other means M 94
get my meals from M 94
get me among your M 94
get is just what M 94
get in your hole M 94
get in your cell M 94
get at these other M 94
get at some part M 94
get an ugly fall M 94
get an early hint M 94
get the best test M 93
get up some days M 92
get to your gate M 92
get the wrong type M 92
get the true size M 92
get the thread into M 92
get the show done M 92
get the room done M 92
get the play from M 92
get the food home M 92
get the fair maid M 92
get the case from M 92
get the case file M 92
get the best site M 92
get the best maps M 92
get the baby over M 92
get me even more M 92
get is from your M 92
get in some food M 92
get at what these M 92
get as much length M 92
get as much leave M 92
get the kids over M 91
get on your snow M 91
get in here once M 91
get us into even M 90
get up there into M 90
get to live life M 90
get to kiss your M 90
get to from your M 90
get the wrong size M 90
get the work away M 90
get the wide range M 90
get the same loss M 90
get the rest your M 90
get the other line M 90
get the next play M 90
get the hair from M 90
get the body home M 90
get so much awry M 90
get so many hits M 90
get on your wrong M 90
get on your cell M 90
get no fire till M 90
get my coat back M 90
get me back when M 90
get it when their M 90
get it ready down M 90
get by from month M 90
get as many heads M 90
gear or other part M 90
gear is even more M 90
get my name down M 89
get us some young M 88
get up from those M 88
get to talk very M 88
get to some safe M 88
get to some fire M 88
get to play these M 88
get to plan their M 88
get to next week M 88
get to give away M 88
get the very form M 88
get the soft jobs M 88
get the sets ready M 88
get the seed back M 88
get the other ship M 88
get the name just M 88
get the high rate M 88
get the good work M 88
get the door back M 88
get the blue eyes M 88
get the birth over M 88
get the army over M 88
get no keep from M 88
get my game face M 88
get my back into M 88
get me into very M 88
get it made here M 88
get it into just M 88
get in there even M 88
get in mind what M 88
get in line here M 88
get in from your M 88
get at some work M 88
get an army upon M 88
gear or some other M 88
get the same page M 87
get the girl down M 87
get the breath back M 87
get the best paying M 87
get to your core M 86
get to these more M 86
get to their root M 86
get to take time M 86
get to some city M 86
get to know lord M 86
get the wrong word M 86
get the wind soon M 86
get the ugly ones M 86
get the trial date M 86
get the same base M 86
get the room dark M 86
get the play over M 86
get the pass away M 86
get the part into M 86
get the next note M 86
get the most into M 86
get the hair back M 86
get the fire into M 86
get the evil will M 86
get the door when M 86
get the best teams M 86
get the best rest M 86
get or keep what M 86
get on your ship M 86
get no other time M 86
get no jail time M 86
get me into other M 86
get it ready made M 86
get in from time M 86
get in among these M 86
get at these more M 86
get us there more M 85
get to your part M 85
get the sixth form M 85
get so much play M 85
get us back over M 84
get up early even M 84
get to wash your M 84
get to think there M 84
get to take what M 84
get to have these M 84
get the work here M 84
get the very good M 84
get the time away M 84
get the talk away M 84
get the south back M 84
get the other room M 84
get the meaning wrong M 84
get the girl ready M 84
get the cloth from M 84
get the boys moving M 84
get the book when M 84
get the best when M 84
get the beast into M 84
get the bank into M 84
get so sick from M 84
get on well among M 84
get no other help M 84
get my keys back M 84
get my good name M 84
get my book from M 84
get me some young M 84
get me down into M 84
get it clear from M 84
get in there during M 84
get at some time M 84
get an echo back M 84
get up till just M 83
get the other back M 83
get on their tail M 83
get us home from M 82
get up here when M 82
get to your unit M 82
get to make ends M 82
get to kick back M 82
get to help other M 82
get the town into M 82
get the same fare M 82
get the past into M 82
get the other lady M 82
get the only other M 82
get the next week M 82
get the heavy load M 82
get the hard ones M 82
get the good living M 82
get the cost back M 82
get the birth rate M 82
get the best peace M 82
get the best even M 82
get so many years M 82
get so down when M 82
get no such good M 82
get no rise from M 82
get no more such M 82
get it well over M 82
get it into clear M 82
get is very poor M 82
gear to make room M 82
get to work your M 80
get to slow down M 80
get to save some M 80
get the truth over M 80
get the tour over M 80
get the other teams M 80
get the meaning into M 80
get the early bird M 80
get the best good M 80
get the beast back M 80
get no other jobs M 80
get it open when M 80
get in your arms M 80
get in there some M 80
get at their heads M 80
get as good care M 80
get in much more M 68
get up here much M 65
get on base more M 64
get the flag down M 62
get in some reading M 61
get up there much M 59
get the most well M 55
get the best cost M 54
get it into more M 54
get the best video M 53
get to meet face M 51
get to work over M 50
get to take back M 50
get in from there M 49
get to learn much M 48
get to know like M 48
get my feet free M 48
get the other third M 47
get as many well M 47
gear is very much M 47
get so tied down M 46
get it torn down M 46
get in here early M 45
get up here more M 44
get it from more M 44
get by heart those M 44
get us more food M 43
get the debt down M 43
get my food down M 42
get by these means M 42
get us shut down M 41
get up till five M 41
get to know early M 41
get the same cost M 41
get us even more M 40
get to work hard M 40
get the same over M 40
get the same life M 40
get me some half M 40
get it down deep M 40
get as many high M 40
get at least some D 11127
get the ball back D 6825
get the ball into D 6498
get at least three D 5747
get the ball over D 5427
get the news from D 4944
get my teeth into D 4778
get the task done D 4186
get the boat ready D 3496
get the best seats D 2764
get the ball away D 2711
get in their cars D 2530
get at least five D 2414
get at least half D 2364
get the boat back D 2056
get on your bike D 1988
get at least four D 1973
get the ball from D 1958
get to their seats D 1890
get an exit visa D 1883
get at least part D 1879
get the good news D 1775
get the boat into D 1396
get the ball down D 1381
get the film made D 1270
get the ball past D 1230
get the same wage D 1212
get to salt lake D 1206
get the best shot D 1142
get my wife back D 1120
get an okay from D 1116
get the okay from D 1110
get the nose down D 1099
get on their legs D 1050
get the milk from D 1032
get on your skin D 1016
get no news from D 928
get the gold from D 872
get the whip hand D 866
get up till noon D 860
get me some milk D 820
get the boat over D 818
get an aerial view D 774
get as much gold D 763
get to their cars D 762
get the film back D 750
get the cash from D 738
get me some bread D 730
get my wall done D 690
get the boat moving D 684
get my mouth open D 660
get the gold back D 645
get to cape town D 641
get us some wine D 632
get the loan from D 630
get as much cash D 630
get the other guys D 626
get to know john D 610
get on your legs D 580
get the sail down D 548
get the boat away D 546
get my foot into D 544
get to your desk D 541
get in your mouth D 527
get the same dose D 526
get the guns into D 522
get the timing down D 505
get the film into D 502
get the farm back D 500
get me some wine D 498
get up your nose D 496
get up more steam D 494
get the soil ready D 488
get as much milk D 480
get the bill into D 478
get the full dose D 476
get the camp ready D 470
get on your radio D 458
get as much corn D 454
get to play golf D 452
get the tape back D 452
get at least their D 449
get the guns ready D 448
get my legs back D 444
get us some beer D 442
get to base camp D 434
get the coal from D 428
get me some beer D 427
get the drug into D 420
get at least what D 420
get at their prey D 410
get the news into D 402
get the guns away D 400
get the soil into D 394
get the ball moving D 394
get as much rent D 386
get the cash flow D 385
get my news from D 384
get the task over D 380
get the boat along D 380
get my bathing suit D 380
get at least nine D 369
get the same news D 366
get the crew back D 366
get the ball when D 366
get the sack from D 362
get the boat down D 357
get an open shot D 354
get as much coal D 348
get the club back D 346
get in your cars D 338
get the debt paid D 336
get the milk free D 332
get the bike back D 332
get the guns from D 328
get the news back D 327
get the ball onto D 326
get my wife into D 326
get the eggs from D 322
get the canoe over D 320
get the boat from D 318
get as much media D 318
get the timing just D 316
get the boat clear D 316
get to their beds D 314
get the cash back D 314
get in some golf D 314
get the rent paid D 312
get the bill from D 312
get the best spot D 312
get the ball there D 312
get to know jack D 308
get to their guns D 304
get the salt from D 300
get to fort worth D 299
get us some grub D 298
get the mouth open D 296
get the dining room D 296
get the card back D 296
get to your seats D 294
get the most media D 294
get my butt back D 294
get the same buzz D 292
get the beds made D 288
get the tape from D 286
get the best loan D 284
get to palm beach D 282
get the pink slip D 282
get my soul into D 282
get as much news D 282
get an early crop D 278
get up full steam D 276
get us some bread D 274
get in your boat D 274
get the guns back D 272
get me some shoes D 272
get the news when D 270
get the last shot D 270
get the canoe ready D 270
get no iron rust D 265
get the wine from D 264
get the rope over D 264
get in some skiing D 264
get in your diet D 262
get us some iced D 260
get the wool from D 260
get the shot away D 256
get the dope from D 256
get the ball more D 256
get the news media D 254
get the info from D 254
get my shoes back D 254
get the corn laws D 253
get so much gold D 253
get the rope from D 252
get the dirt from D 252
get to their camp D 251
get the beds ready D 250
get me some rope D 250
get in their paws D 248
get as many eggs D 246
get the true tide D 244
get the bags from D 244
get my left foot D 244
get the least clue D 242
get the least help D 240
get the heck away D 240
get the rent from D 238
get as much gape D 238
get the next shot D 237
get to your boat D 236
get to your beds D 236
get the film from D 236
get the bread from D 234
get in their corn D 234
get the bill paid D 232
get the best grip D 232
get the tube into D 230
get the cart ready D 230
get as much info D 230
get the timing wrong D 228
get the same rank D 228
get the lure down D 227
get the pill down D 226
get me some eggs D 226
get the puck away D 224
get at your mouth D 224
get the iron from D 222
get the cars back D 222
get it from guys D 222
get to play ball D 221
get to your aunt D 220
get the same boat D 220
get the film done D 220
gel is also used D 220
get the drug from D 218
get the last inch D 216
get the next boat D 214
get the last news D 214
get the tube down D 213
get the best steak D 213
get the puck into D 212
get the herd moving D 212
get ye away from D 210
get the other foot D 209
get the hook into D 208
get my bike back D 208
get the ball high D 207
get the plot moving D 206
get the most milk D 206
get the milk into D 206
get the ball well D 206
get no milk from D 206
get the best tone D 204
get my bags from D 202
get the bank loan D 198
get the coin back D 196
get ye down into D 194
get to your amen D 194
get my land legs D 194
get the gold away D 192
get to know bill D 190
get the best wine D 190
get my soul back D 190
get as much bread D 190
get as much fuel D 189
get ye gone from D 186
get the card from D 186
get my butt over D 186
get to their boat D 184
get the film ready D 184
get my ball back D 184
get the puck past D 183
get the firm back D 182
get the canoe into D 182
get the bald fact D 182
get my wife away D 182
get to camp till D 180
get the teeth into D 180
get the shoes back D 180
get the raft into D 180
get the heavy guns D 180
get it paid back D 180
get us some milk D 178
get the crew into D 178
get the string from D 176
get the news over D 176
get the puck back D 174
get the best news D 174
get no more news D 174
get the tire iron D 172
get the robe made D 172
get the loan paid D 172
get the gold star D 171
get to fort smith D 170
get the plum jobs D 170
get the least hint D 170
get the fuel into D 170
get the same shot D 169
get to your skin D 168
get the last cent D 168
get the good guys D 168
get the golf ball D 168
get the cows back D 168
get the boot from D 168
get no news here D 168
get the next paid D 166
get to work fixing D 164
get the dust from D 164
get the club down D 164
get the sowing done D 162
get the coin into D 162
get the boat home D 162
get my boat back D 162
get as many seats D 162
get the best crop D 161
get the cars ready D 160
get my foot back D 160
get the great bulk D 158
get on their hind D 157
get the ready cash D 156
get the cows home D 156
get the boat free D 156
get my wife home D 156
get as much rice D 156
gel or some other D 156
get to their lair D 154
get to know mike D 154
get the next byte D 154
get the milk ready D 154
get the full gist D 154
get the foot into D 154
get the coal dust D 154
gel in their hair D 154
get the guns over D 153
get to your camp D 152
get the soul into D 152
get the news here D 152
get the good seats D 152
get the gold into D 152
get my legs into D 152
get my card from D 152
get my bread there D 152
get to your ball D 150
get the disk back D 150
get the dinghy ready D 150
get the cows from D 150
get so much cash D 150
get the milk down D 149
get up their steam D 148
get the sand from D 148
get the cops here D 148
get my nose into D 148
get my last iron D 148
get in their boat D 148
get the hook well D 147
get the wheat from D 146
get the mill back D 146
get at least your D 146
get the sewing done D 144
get on your pony D 144
get my bill ready D 144
get me some cash D 144
get in their seats D 144
get the shoes from D 142
get the raft ready D 142
get the farm work D 142
get the best fuel D 142
get my bill paid D 142
get in your seats D 142
get the mass media D 140
get the cash into D 140
get me some string D 140
get as much wheat D 140
get the life raft D 139
get the tube back D 138
get the sods flat D 138
get the jeep back D 138
get the fuel from D 138
get the feast ready D 138
get the cold beef D 138
get my legs moving D 138
get the least hold D 137
get the hood open D 137
get the main menu D 136
get the flat tire D 136
get the canoe back D 136
get no zest from D 136
get my legs over D 136
get my hair dyed D 136
get ye down from D 134
get to your wife D 134
get the laws made D 134
get the duct tape D 134
get the damn door D 134
get in your lungs D 134
get at least these D 134
get to know tony D 132
get the nose back D 132
get the iron into D 132
get the diary back D 132
get the cash will D 132
get no more coal D 132
get me some salt D 132
gem of truth from D 132
gear of cast iron D 132
get the lamp from D 130
get the club into D 130
get the bull into D 130
get the bomb into D 130
get the bill back D 130
get on their boat D 130
get no rent from D 130
get it very cheap D 130
gem of some kind D 130
get the left foot D 129
get the typing done D 128
get the same menu D 128
get the salt back D 128
get the least from D 128
get the atom bomb D 128
get so much junk D 128
get so much dirt D 128
get me some grub D 128
get the gold mine D 127
get up much steam D 126
get to know guys D 126
get the pony ready D 126
get the last foot D 126
get the hell shot D 126
get the gals into D 126
get my lungs full D 126
gear or vane type D 126
get thy task done D 124
get the firm into D 124
get the cart moving D 124
get the barn ready D 124
get on your boat D 124
get me some soap D 124
get me some cream D 124
get the tone just D 122
get the same media D 122
get the roof done D 122
get the next card D 122
get the most eggs D 122
get on your hind D 122
get my finger into D 122
get me some news D 121
gel is made from D 121
get to your tent D 120
get the same tone D 120
get the gist from D 120
get the gene from D 120
get the best ride D 120
get the beer from D 120
get on your shoes D 120
get up steam from D 118
get the wine into D 118
get the next crop D 118
get the mill into D 118
get the last bite D 118
get the gene into D 118
get the crew home D 118
get the cream from D 118
get the corn from D 118
get my butt down D 118
get to your nose D 116
get to know maria D 116
get the soul back D 116
get the raft back D 116
get my card back D 116
get my boat into D 116
get the wire into D 114
get the same damn D 114
get the roof made D 114
get the mare back D 114
get the cube root D 114
get the camp into D 114
get my wife from D 114
get my union card D 114
get the boat past D 113
gel in your hair D 113
get to fort hall D 112
get the wage rate D 112
get the most rent D 112
get the herd back D 112
get the exit visa D 112
get me some dope D 112
get the main tack D 110
get the last rays D 110
get the clap from D 110
get the ball just D 110
get my dime back D 110
get it from john D 110
get as much fame D 110
get up some steam D 108
get to fort union D 108
get the visa from D 108
get the single vote D 108
get the same crop D 108
get the other boat D 108
get the last sheaf D 108
get the hook back D 108
get the best milk D 108
get as many guns D 108
get the most news D 106
get the milk cows D 106
get the guys from D 106
get the clay from D 106
get the best media D 106
get it dirt cheap D 106
get in your teeth D 106
get the hook free D 105
get the best damn D 105
get up your steam D 104
get the wrong crew D 104
get the same task D 104
get the same drug D 104
get the news till D 104
get the navy ready D 104
get the joke when D 104
get the hose back D 104
get the heck back D 104
get the fort into D 104
get the flat ready D 104
get the coal into D 104
get the bill moving D 104
get the best guys D 104
get so much news D 104
get my wife some D 104
get in your wheat D 104
get to ride home D 102
get the tone very D 102
get the tent down D 102
get the steam into D 102
get the same rent D 102
get the sack over D 102
get the rope back D 102
get the rice from D 102
get the next node D 102
get the free ride D 102
get the farm ready D 102
get the crop into D 102
get the ball home D 102
get the bags down D 102
get so much milk D 102
get so much media D 102
get me some soda D 102
get as much salt D 102
gem of rare size D 102
gel is much more D 101
get the line taut D 100
get the film down D 100
get the farm into D 100
get the cars into D 100
get the bread into D 100
get the bees into D 100
get on your knee D 100
get no bread from D 100
get my butt into D 100
get my foot free D 99
get to peek into D 98
get the posing tips D 98
get the other bags D 98
get the farm vote D 98
get the belt from D 98
get the ball very D 98
get no grip upon D 98
get my vote tell D 98
get my stew ready D 98
get an early peek D 98
get the same vote D 96
get the least slur D 96
get the kite into D 96
get the doll back D 96
get so much dust D 96
get in your nose D 96
get the hook down D 95
gem of great worth D 95
get to your bunk D 94
get to these guys D 94
get to ride back D 94
get the wheat into D 94
get the vote when D 94
get the tray ready D 94
get the south spit D 94
get the mare into D 94
get the herd into D 94
get the colt from D 94
get the blue bowl D 94
get no fame from D 94
get my guns back D 94
get me some soup D 94
get as many cows D 94
get an even tone D 94
get the best rent D 93
get us some seats D 92
get to cape horn D 92
get the same card D 92
get the radio from D 92
get the piano into D 92
get the nuts from D 92
get the last boat D 92
get the fire hose D 92
get the cars from D 92
get the bread ready D 92
get the bike moving D 92
get the best bill D 92
get it into camp D 92
get at least into D 92
get us good seats D 90
get to your guns D 90
get to your farm D 90
get the tire back D 90
get the soup ready D 90
get the news only D 90
get the cows into D 90
get as many cars D 90
get an auto loan D 90
gel on your skin D 90
get to your spot D 88
get to those guys D 88
get the wire from D 88
get the salt into D 88
get the damn ball D 88
get the bill ready D 88
get my sewing done D 88
get my boat ready D 88
get it some milk D 88
get it cheap from D 88
get the radio back D 87
get to know aunt D 86
get the whip away D 86
get the pure gold D 86
get the most cash D 86
get the loving care D 86
get the haying done D 86
get the cart back D 86
get the bomb ready D 86
get the best beer D 86
get in their diet D 86
get as much iron D 86
get as much dirt D 86
get to ride their D 84
get the vast bulk D 84
get the same flux D 84
get the prey into D 84
get the note paid D 84
get the least good D 84
get the boot back D 84
get the bond back D 84
get the best film D 84
get the bags into D 84
get no more milk D 84
get my foot over D 84
get my boat home D 84
get in their digs D 84
gear in your pack D 84
get us your aunt D 82
get the wave length D 82
get the spar into D 82
get the poor chap D 82
get the guys back D 82
get the crew ready D 82
get the best cook D 82
get so much flak D 82
get on their bike D 82
get my fuel free D 82
get as much loot D 82
get up were shot D 80
get to your lungs D 80
get the yarn spun D 80
get the vote from D 80
get the tape into D 80
get the shot from D 80
get the oars into D 80
get the colt into D 80
get my shoes from D 80
get it from milk D 80
get to ride along D 74
get the kite down D 63
get the bunt down D 60
get the guns down D 59
get the shot over D 56
get the root node D 53
get the ball deep D 53
get the door ajar D 47
get the rope down D 46
get the best scan D 46
get the best audio D 44
get up into hers D 42
get the ramp down D 42
get the piano down D 42
get the news there D 42
get the canoe down D 41
get me some damn D 41
get the land cheap D 40
get my wife down D 40
