lyrics of a song D 6921
lyrics to a song D 3444
lyrics of a day D 432
lyrics in a song D 360
lynching of a man D 341
lyrics to a new D 319
lyrics of a new D 288
lynching by a mob D 281
lyrics as i met D 260
lyrics of a few D 200
lyrics of a pop D 166
lyrics in a way D 160
lyrics of a poet D 142
lyrics to a few D 133
lyrics of a rap D 117
lynching as a way D 107
lyrics of a bob D 102
