may by law provide M 60170
man in this country M 48889
man in his position M 43808
man in his fifties M 39078
man in his sixties M 25859
may be put forward M 19936
may we not suppose M 16081
man in his natural M 14931
may be put together M 14544
may be that certain M 13814
man in his present M 13354
may be thus briefly M 11506
may be too complex M 10326
may be far removed M 10278
man or his parents M 9963
may be set against M 9886
man in his relation M 9492
may we not believe M 8596
man of his position M 8226
man is not allowed M 8108
may be that because M 7662
man is not capable M 7630
may be and usually M 7418
man in this respect M 7281
may be long delayed M 7183
may be with respect M 6512
may be low because M 6431
may in this respect M 6388
man in ten thousand M 6327
may be due largely M 6282
man of his century M 5460
man of his ability M 5058
may be had against M 5030
man in our country M 4812
may be too limited M 4772
man in that country M 4736
may be that although M 4646
may be too general M 4304
man of real ability M 4202
may be had strongly M 4158
man in that position M 4084
man in his private M 4083
man to put himself M 4038
man of his liberty M 4008
may be one hundred M 3950
man of his talents M 3944
man in our society M 3883
may be thus defined M 3873
man of this country M 3834
man in our history M 3732
man to his fellows M 3686
man in this position M 3618
may on that account M 3506
man of ten thousand M 3441
man in his country M 3388
man in his company M 3310
man is not content M 3296
man in his highest M 3276
may be that several M 3246
man in his efforts M 3196
man of this century M 3084
man of his quality M 3022
man in any country M 2986
may be far distant M 2962
mad at him because M 2960
may be two hundred M 2874
man to let himself M 2830
may be read between M 2824
man of god perfect M 2780
man is not subject M 2770
man is for himself M 2750
may be thus arranged M 2740
may do this because M 2712
may be too painful M 2682
map of that country M 2656
may be two opinions M 2646
may be that parents M 2558
man in his service M 2554
man to his country M 2532
man to see himself M 2490
man of his dignity M 2480
may be for several M 2470
man is being renewed M 2432
may on this account M 2410
man of his freedom M 2400
man in his command M 2368
may be that teachers M 2352
may be too intense M 2304
man is not perfect M 2284
man of that country M 2260
may be for example M 2252
may we not imagine M 2247
man of his country M 2240
may at his pleasure M 2236
man of his natural M 2201
may be one example M 2196
may be any integer M 2192
man at his highest M 2186
may be too extreme M 2182
map of our country M 2182
mad at you because M 2157
map of this country M 2144
man of his company M 2144
man in his weakness M 2112
man in our company M 2068
may be too demanding M 2046
may be thus divided M 2004
man in his essence M 1986
may be ten thousand M 1973
man in this picture M 1956
man is man himself M 1946
man is man because M 1942
man is not material M 1911
may be all reduced M 1885
man to his natural M 1882
may be read together M 1874
may go far towards M 1860
may be one solution M 1860
man to set himself M 1859
man is his ability M 1838
may be for certain M 1816
man is not himself M 1806
man in his attempt M 1806
may be set between M 1792
may be far superior M 1790
man is not limited M 1790
may be that between M 1784
may on this occasion M 1780
may be its defects M 1778
man in this century M 1775
may be that similar M 1760
map in this chapter M 1750
man is not ashamed M 1740
man in his freedom M 1707
mad at her because M 1684
man of one hundred M 1679
man in all history M 1672
may we not presume M 1645
may be put between M 1582
man of our century M 1580
man in his general M 1568
man of our country M 1565
man he had brought M 1562
may be one element M 1556
may be that congress M 1546
may it was decided M 1534
man in his majesty M 1534
may be that members M 1524
may be ill advised M 1512
man he had injured M 1508
may be ill defined M 1497
may be that persons M 1490
man to his present M 1481
may be its ability M 1468
man on this occasion M 1458
may be too threatening M 1444
man on his journey M 1443
man in his absence M 1432
may at any instant M 1418
man in this society M 1414
may be its greatest M 1404
man of his fortune M 1394
may be that society M 1392
may be that general M 1387
man to his friends M 1384
may be his greatest M 1360
man in that respect M 1356
may be that everything M 1344
man to get married M 1338
may be our greatest M 1334
may be read against M 1328
may be two thousand M 1326
man of our company M 1324
may be any function M 1320
man in this company M 1320
man to his highest M 1288
man of his counsel M 1288
man in his journey M 1284
may be its position M 1282
man is not totally M 1278
man in our culture M 1278
man in this present M 1266
man he had trusted M 1238
man at all country M 1224
man in his seventy M 1200
may be our present M 1198
man in his pursuit M 1196
man in all matters M 1192
may be that history M 1186
man on this subject M 1182
may be run together M 1172
may be had between M 1166
may be thus carried M 1164
man of his command M 1163
man in his infancy M 1162
man he had studied M 1162
man is not exactly M 1158
may he had written M 1150
may be that despite M 1146
man of his culture M 1138
man to ask himself M 1136
may be thus brought M 1132
man by god himself M 1126
man in his vocation M 1120
man to act against M 1118
may be too closely M 1112
man to get himself M 1110
man in his letters M 1104
may be put briefly M 1102
may by law include M 1098
may be too distant M 1096
may be too crowded M 1090
may be put outside M 1067
man is not married M 1062
may be weak because M 1060
man of his peculiar M 1052
may be thus written M 1046
may be going forward M 1046
may be that private M 1044
may be thus shortly M 1040
man by his natural M 1035
may by law specify M 1032
man is not usually M 1032
may we not discern M 1028
man by his friends M 1024
man or his partner M 1018
may be too fragile M 1016
map of any country M 1010
man in his conduct M 1010
man he had written M 1010
may be his talents M 1004
may be thus applied M 1002
man in any position M 1002
may be his position M 996
man of two hundred M 991
man in his society M 986
man to rid himself M 985
man on one occasion M 981
man to act according M 974
man on that account M 974
may be his natural M 973
man as its subject M 970
may in one respect M 966
man he was following M 965
may do for himself M 962
may in that respect M 954
map of his country M 954
may on one occasion M 948
man is not endowed M 948
man is and remains M 942
may be our endless M 938
man in any respect M 932
may be our opinions M 930
man is not rational M 926
may be thus removed M 924
man he had rescued M 922
may be that females M 910
man of any country M 910
may be key factors M 900
man of any position M 896
map of this chapter M 890
may be one thousand M 880
map of his travels M 880
man on his arrival M 876
may be that religion M 868
may be thus induced M 866
may we not inquire M 858
may be too strongly M 852
may be ill adapted M 852
may be that current M 850
man in his happier M 850
may be thus reduced M 834
may be his majesty M 832
man in his deepest M 828
may it not perhaps M 826
man he had defeated M 822
man to put forward M 819
may be that language M 818
man to his destiny M 818
may be real blessings M 816
man at his pleasure M 816
man to his society M 813
may be any desired M 812
may we not suggest M 810
man to death because M 800
may be his private M 799
man is not superior M 794
may be that research M 790
man is not present M 788
man in our example M 788
may be that workers M 778
man in that company M 776
may to all intents M 772
may be for general M 770
may be his ability M 766
may go and worship M 760
may do you service M 756
may in this country M 755
may do and perform M 752
man on his travels M 752
man to man himself M 744
man in any society M 744
man in his uniform M 742
may we not compare M 740
may be thus secured M 740
mad at you anymore M 740
may be that schools M 734
man to his greatest M 734
may be his religion M 732
may be that natural M 730
may in any respect M 728
man he had admired M 728
man in his greatest M 727
may by law declare M 724
may be its effects M 724
may be too cautious M 720
may be all degrees M 718
man to run against M 716
may be set forward M 712
may be thus grouped M 708
may be this species M 706
man in his element M 706
may be two species M 700
mad at him anymore M 700
man of few friends M 698
may by his conduct M 696
may be set according M 696
man of real culture M 696
may be ten minutes M 688
may be two aspects M 686
may be put roughly M 686
may be both feasible M 686
may be two classes M 684
may be its present M 683
may be lying dormant M 682
may at its pleasure M 682
man of his pleasure M 682
may be its natural M 680
man of them escaped M 680
may be that animals M 674
man in all aspects M 674
may be thus roughly M 668
may go and welcome M 666
man of god blessed M 666
man of her parents M 662
may be that failure M 660
may be now increasing M 660
may be that western M 658
man on that occasion M 658
man he had himself M 658
man in his ability M 654
may he who blessed M 652
man of our counsel M 650
man in that picture M 650
man he had noticed M 650
man on this account M 646
man of his limited M 640
man is set against M 640
man is not measured M 640
man to hang himself M 638
may be our private M 632
man is not related M 632
may be that increasing M 628
man is not defined M 626
may be run between M 624
man is not divided M 618
may be not because M 616
may be bad because M 616
man of god replied M 610
may be too familiar M 608
may be far stronger M 608
may be that factors M 604
man to his service M 604
man to bring himself M 604
may we not perhaps M 602
man in his religion M 602
may go for several M 600
may be far inferior M 596
man to his parents M 596
may it not require M 594
may be put against M 588
may be its results M 588
may at any regular M 586
man of his superior M 586
may be that present M 582
may be doing exactly M 582
man in his eternal M 582
man is not adapted M 580
may be both general M 579
man to man defense M 578
man of each company M 576
man in its relation M 575
may be that justice M 574
may be its relation M 573
may be and perhaps M 572
man of far inferior M 570
may be his present M 568
man as his creature M 568
mad at them because M 568
man is not certain M 566
man so far removed M 562
man in her position M 562
may we not observe M 560
man in his declining M 556
man he has injured M 554
man in this passage M 552
man he had visited M 552
may be its precise M 550
man of that quality M 550
man in that doorway M 550
man he was replacing M 550
may be with justice M 548
may be that writers M 546
man to arm himself M 543
man of our society M 542
man is now capable M 542
man is too complex M 538
man in this parable M 538
man at his marriage M 536
may do and execute M 534
map of his journey M 534
may be all together M 531
man of his general M 530
man of any ability M 530
man in his thoughts M 526
man as his friends M 523
man in his poverty M 522
may be doing everything M 520
mad at god because M 518
man on any subject M 516
may be its virtues M 512
man in this climate M 512
man is one species M 510
may be his motives M 508
man to bear witness M 508
may be that success M 506
may be its primary M 504
man of any account M 504
man in its history M 504
man he can dispose M 504
man in his material M 503
man in that society M 502
may do with respect M 500
man he had watched M 500
may be due perhaps M 498
man in this culture M 498
may be its subject M 494
man of that century M 494
may be his opinions M 492
may we bring harmony M 490
may it not equally M 490
may be far simpler M 490
may be all equally M 490
man or his friends M 488
man in that wherein M 488
man in our present M 488
man in one respect M 488
man as his superior M 487
man he had wounded M 486
man by his fellows M 486
may be all brought M 484
may be too similar M 482
man of easy fortune M 482
man is not brought M 482
may be one between M 480
man in her company M 480
mad at her anymore M 478
man at two hundred M 476
man is god himself M 475
may be our friends M 474
man in his moments M 474
man as one product M 474
may be too hastily M 472
may be that marriage M 472
may be his parents M 472
may be going against M 472
may be both natural M 471
may be too ashamed M 470
man is not equally M 470
may no man reverse M 469
man in this example M 468
man in its highest M 468
map he had brought M 466
man in his division M 466
man is both creature M 464
man in any company M 464
may we not account M 460
man of his ambition M 458
man to his deceased M 457
man at his present M 457
may by law perform M 456
man to this country M 456
man is far superior M 456
man in his history M 456
may we not question M 450
may he not destroy M 449
man in his college M 449
may be his pleasure M 446
man is being carried M 446
may be our enemies M 444
may be got together M 444
may be both pleasant M 442
map of our journey M 442
may be then removed M 441
may do this himself M 438
may be age related M 438
man in our century M 438
man in his function M 438
man to his liberty M 436
may on any occasion M 434
may be that perhaps M 434
man of his immense M 434
man at his prayers M 434
man to fit himself M 432
man of far superior M 432
may be too precise M 430
may be too passive M 430
may be thus altered M 430
man on any account M 430
man he was himself M 428
map of its location M 426
man to his majesty M 426
man is not careful M 426
man to sin against M 424
man of real talents M 424
may he was ordered M 423
man to sit upright M 420
man is far removed M 420
man in his organic M 420
may be that repeated M 419
man of this company M 418
man in his glorious M 418
may be both painful M 416
man in each company M 416
may be too confusing M 414
man of two thousand M 414
may be one symptom M 412
man of god himself M 412
man in his suffering M 412
may be too diverse M 410
may be one occasion M 410
may be ill founded M 410
man to seat himself M 410
man so far becomes M 410
man of real modesty M 410
man in his despair M 410
may be too cynical M 408
may be one outcome M 408
may be its purpose M 408
may go out together M 406
man is that creature M 406
may to our persons M 404
may be six hundred M 404
man is not sincere M 404
man in his outward M 404
man do not believe M 403
may be two factors M 402
may be any element M 402
man is now beginning M 402
man in his complex M 402
man by his conduct M 402
may be that service M 400
man up and carried M 400
man on any occasion M 400
man as any country M 400
may do his country M 398
may be then applied M 398
may be that studies M 398
may be both history M 398
may do this several M 396
man in this process M 396
man in his perfect M 396
may be now briefly M 394
man of long service M 392
man of his present M 391
may be thus avoided M 390
man is too limited M 389
may be too focused M 388
may by law appoint M 386
may be that clients M 386
mad in its pursuit M 386
may be any material M 384
man do you suppose M 383
man to his position M 382
may be that material M 380
may be that anxiety M 380
may be its quality M 380
man is dead because M 380
may we not receive M 378
may be too confining M 378
may be all grouped M 378
man in his culture M 378
man in ten minutes M 374
may we not equally M 372
may be low despite M 372
may be all peculiar M 372
man is not faithful M 372
mad as any creature M 372
man in his travels M 370
man in his rational M 370
may be too obscure M 368
may be near together M 368
may be its success M 368
may be both complex M 368
man to own himself M 368
man in his affairs M 368
may be put religion M 366
may be our fortune M 366
may be had according M 366
man is thus enabled M 366
mad at his parents M 366
may we not include M 364
man of his majesty M 364
man is not familiar M 364
may be thus enabled M 362
may be that parties M 360
may be that species M 359
may be read quickly M 358
may be doing research M 358
man to cut himself M 358
man is his freedom M 358
man is his creature M 358
man in her service M 358
man he had hitherto M 356
may of this present M 354
may be too nervous M 354
may be that following M 354
may be read according M 354
may be his general M 354
may be due process M 354
man in our service M 354
man in one country M 354
man in his several M 354
man in its present M 353
man in his dignity M 352
may be his fortune M 350
map of its surface M 350
man to lay himself M 350
may be not exactly M 348
may be his conduct M 348
may at his leisure M 348
man in this quarter M 348
may be two answers M 346
may be cut between M 346
may be both helpful M 346
may be then written M 344
man to his eternal M 344
man by his outward M 344
may by this process M 342
man on that subject M 342
may be cut several M 340
man is not unhappy M 340
may be that college M 339
may be its peculiar M 338
man to man against M 338
man in his passage M 338
man to bring together M 337
man to things eternal M 336
man to bring forward M 336
man of god because M 336
man by his ability M 336
man as man himself M 336
may be two persons M 334
may be that freedom M 334
may be that chronic M 334
man is not natural M 334
may by act provide M 332
may be put shortly M 332
may be any natural M 332
man of that company M 332
man by his private M 332
man is one hundred M 331
may at one extreme M 330
may be thus deduced M 328
may be doing violence M 328
man to bear grudges M 328
may be two defects M 326
may be our destiny M 326
may be one involving M 326
may be had together M 326
man to sit quietly M 326
man is with himself M 324
man in one hundred M 324
may on this subject M 322
may be for parents M 322
man to all intents M 321
may be thus limited M 320
may be for congress M 320
man is not eternal M 320
may be for payment M 318
man as its central M 318
may do with perfect M 316
may be doing similar M 316
man as for animals M 316
may on that occasion M 314
may it was evident M 314
man of his relation M 314
may it not suffice M 311
may we not predict M 310
may on each occasion M 310
may be that primary M 310
may be that capital M 310
may be its outward M 310
may be his superior M 310
may be both present M 310
man of any dignity M 310
man he was referring M 310
may be that efforts M 308
may be fit temples M 308
man is not exposed M 308
may be its general M 306
may be any question M 306
man in its natural M 306
man he had trained M 306
may on any account M 304
may be that careful M 304
man of his intense M 304
man of all animals M 304
man is not touched M 304
may he was brought M 302
man is not altered M 302
man in this chapter M 302
man in one position M 302
man it was because M 301
may be that poverty M 300
man is not excused M 300
man in his leisure M 300
man in his endeavor M 300
man in his anxiety M 300
may be thus exposed M 298
may be that violence M 298
may be that control M 298
may be his relation M 298
man on his marriage M 298
man of his religion M 298
man he was accused M 298
man on earth because M 297
man of ten talents M 296
man is too precious M 296
man is that between M 296
man is not passive M 296
man by man himself M 296
may be that contact M 294
may be that captain M 294
man of one purpose M 294
man of near seventy M 292
man of his vocation M 292
man at its highest M 292
man as yet unknown M 291
may be two sources M 290
may be that quality M 290
may be off balance M 290
may be any numbers M 290
man of god appeared M 290
man in his devotion M 290
man he was defending M 290
man is not blessed M 289
may in its effects M 288
may be that measures M 288
may be for research M 288
man is put forward M 288
man he was expecting M 288
man of our present M 287
man as his partner M 287
may be too quickly M 286
may in all modesty M 285
may in his absence M 284
may in all honesty M 284
may be one function M 284
may be his highest M 284
man of real insight M 284
man of bad conduct M 284
mad at her parents M 284
may be that according M 282
may be its function M 282
may be for society M 282
man is not utterly M 282
man in his library M 282
man in his language M 282
man in any relation M 282
man as its highest M 281
may to him perhaps M 280
may go and examine M 280
may be set together M 280
may be set exactly M 280
man is not legally M 280
man in two thousand M 280
man he had married M 280
man by his enemies M 280
may be two versions M 278
may be too perfect M 278
man to get started M 278
may go and receive M 276
man is not crowded M 276
may be that extreme M 275
may he was invited M 274
may do him justice M 274
may be two equally M 274
may be too literal M 274
may be far fetched M 274
man or his animals M 274
man of his promise M 274
man he was certain M 274
man he had ordered M 274
may by law exclude M 272
map of each country M 272
man in each division M 272
may be one problem M 270
man or one company M 270
man of any religion M 270
man in his peculiar M 270
man in his defence M 270
may be hung against M 268
may at his request M 268
man of all parties M 268
man is his religion M 268
man in its service M 268
man in his madness M 268
may by any general M 267
man of this quality M 267
may be too natural M 266
may be that decision M 266
may be our position M 266
may be one central M 266
may be his purpose M 266
man is not suffering M 266
man in his trouble M 266
man in his limited M 266
man to war against M 265
man is his superior M 265
may no way compare M 264
may be cut shorter M 264
man in his prayers M 264
man he had decided M 264
may be set outside M 262
man he had praised M 262
may be her majesty M 261
may be with certain M 260
may be that support M 260
may be our highest M 260
may be for private M 260
may be for himself M 260
may at any general M 260
man of her destiny M 260
man in his sixtieth M 260
man he had refused M 260
may be its objects M 258
may be that ancient M 256
map of this function M 256
man of his origins M 256
man he had accused M 256
man do you imagine M 256
may be that systems M 254
may be that overall M 254
may be far happier M 254
man or any creature M 254
man is not visible M 254
man is not reduced M 254
man at all capable M 254
may we not explain M 252
may the year following M 252
may so far prevail M 252
may it was ordered M 252
may be that culture M 252
may be his efforts M 252
may be that complex M 251
man he was because M 251
may he not require M 250
may be that outside M 250
may be that cynical M 250
may be our natural M 250
may be far broader M 250
map he had studied M 250
man to man according M 250
man of his extreme M 250
man of his division M 250
man is not tempted M 250
man in his respect M 250
may be his subject M 249
man is not everything M 249
may so far presume M 248
may in all justice M 246
may be that providing M 246
may be that central M 246
may be that average M 246
man to man because M 246
man to its highest M 246
man in his opinions M 246
man in his frailty M 246
man in any natural M 246
may be thus related M 244
may be that counsel M 244
may be old friends M 244
man is not welcome M 244
man as far removed M 244
man at his command M 243
may be our verdict M 242
may be easy because M 242
man of his evident M 242
man of his college M 242
man is with respect M 242
man in this glorious M 242
may be owing perhaps M 240
man to his brothers M 240
man is his rational M 240
man at all familiar M 240
may it not contain M 238
may be one requiring M 238
may be one process M 238
man to his enemies M 238
man on his fellows M 238
man on his birthday M 238
man of them appeared M 238
man of his highest M 238
man in his worship M 238
man he had entered M 238
may in its absence M 236
may be read several M 236
may be its members M 236
may be its content M 236
man at his refusal M 236
may be war between M 234
may be that somehow M 234
may be that fortune M 234
may be all arranged M 234
man we can imagine M 234
man is not selfish M 234
man is not injured M 234
may by law correct M 233
may go and collect M 232
may be real numbers M 232
man is not listening M 232
man is not carried M 232
may of set purpose M 230
may be thus covered M 230
may be his attempt M 230
may be both primary M 230
man to get justice M 230
man or two brought M 230
man is now subject M 230
man is not unknown M 230
man is not trusted M 230
man in his studies M 230
mad on this subject M 229
may go out according M 228
may by law require M 228
may be his defects M 228
may be both rational M 228
may be all humbled M 228
may be all correct M 228
man of his destiny M 228
man is not praised M 228
man in this command M 228
mad on one subject M 228
man to his material M 227
may be thus assumed M 226
may be that victims M 226
may be his friends M 226
may be his destiny M 226
may be both written M 226
may be any mixture M 226
man in his worldly M 226
may be that southern M 225
may do him service M 224
may be our pleasure M 224
may at this present M 224
man to his passions M 224
man to his superior M 223
may go all together M 222
may be that unknown M 222
may be one general M 222
may be off because M 222
may be not unwilling M 222
may be job related M 222
may be for members M 222
man is thus brought M 222
man is bad because M 222
man he was beginning M 222
may go and prepare M 220
may be that results M 220
man to use violence M 220
man to his partner M 220
man in his darkest M 220
man at one hundred M 220
may on any subject M 218
may be too rational M 218
may be that elderly M 218
may be that critics M 218
may be our success M 218
may be for teachers M 218
may be far shorter M 218
may be but vaguely M 218
man or for society M 218
man of his weakness M 218
man of his usually M 218
man by his position M 218
may be two general M 217
may in our present M 216
may be set upright M 216
may be dying because M 216
man in his contact M 216
man at this instant M 215
may be too upsetting M 214
may be its location M 214
man of our history M 214
man at this present M 214
man to put together M 213
may we not proceed M 212
may in its general M 212
may be that limited M 212
may be his country M 212
man to die because M 212
man is not outside M 212
may be its symbols M 210
man to his freedom M 210
man of his opinions M 210
man in her thoughts M 210
man he had invited M 210
man he had carried M 210
man he had appeared M 210
man be for himself M 210
man as being capable M 210
may be using similar M 208
may be too elusive M 208
may be then certain M 208
may be read equally M 208
may be led together M 208
man to heal himself M 208
man is put together M 208
man he had pursued M 208
may be that student M 206
may be that regular M 206
may be not feasible M 206
man of mean talents M 206
man is its subject M 206
man is his relation M 206
man is his history M 206
man he was capable M 206
man by his superior M 206
man by his parents M 206
may we all receive M 205
may be this quality M 204
may be our comfort M 204
may be its outcome M 204
may be his primary M 204
may be god himself M 204
may be both similar M 204
man be thus superior M 204
may be too damaged M 203
may be why certain M 202
may be run against M 202
may be our ability M 202
may be new species M 202
may be his vocation M 202
may be doing himself M 202
may be both material M 202
man to her majesty M 202
man of that peculiar M 202
may in this passage M 200
may be thus amended M 200
may be that finally M 200
may be that article M 200
may be read plainly M 200
may be long because M 200
may be led towards M 200
may be law provide M 200
may be for persons M 200
may be any fraction M 200
may be and despite M 200
man to act hastily M 200
man in two hundred M 200
may be that effects M 199
may it not produce M 198
may be our primary M 198
may be our decision M 198
may be for current M 198
map of east central M 198
man to this position M 198
man to get between M 198
man or one country M 198
man is not revealed M 198
man is not perhaps M 198
man in any attempt M 198
man he was subject M 198
man he had started M 198
may be that together M 197
man in his century M 197
may be that towards M 196
may be her position M 196
man to buy himself M 196
man of set purpose M 196
man of god arrived M 196
man is not peculiar M 196
man in his endless M 196
man he was ashamed M 196
man he had planned M 196
man in his fortieth M 195
may be two objects M 194
may be for believing M 194
may be due because M 194
man in this division M 194
man in his advance M 194
man in due position M 194
may we not attempt M 192
may be using several M 192
may be that objects M 192
may be that friends M 192
may be one quarter M 192
may be now written M 192
may be far outside M 192
may be being watched M 192
man of her majesty M 192
man of far stronger M 192
man of any culture M 192
man is being brought M 192
man in his quality M 192
man in her majesty M 192
man by his unaided M 192
man by her parents M 192
may be using language M 191
man at that instant M 191
may in this process M 190
may in this present M 190
may be thus measured M 190
may be sad because M 190
may be its essence M 190
may be her greatest M 190
man of his descent M 190
man of all history M 190
man is not finally M 190
man in his wildest M 190
man in his decline M 190
man do with himself M 190
mad in this country M 190
man to bear defiance M 188
man on its surface M 188
man of her thoughts M 188
man is not pressed M 188
man he had opposed M 188
may so far succeed M 186
may he not receive M 186
may be too hopeful M 186
may be that concern M 186
may be that aspects M 186
may be set roughly M 186
may be his chances M 186
man so far recover M 186
man of his nervous M 186
man is both rational M 186
man in its defence M 186
man in his current M 186
man in his adopted M 186
man by his fortune M 186
may to you perhaps M 184
may be yet unknown M 184
may be going nowhere M 184
may be all unknown M 184
man to this peculiar M 184
man to his opinions M 184
man of one thousand M 184
man of low position M 184
man of his treasure M 184
man of god preached M 184
man is his natural M 184
may be for awakening M 182
may be all removed M 182
man we had brought M 182
man we are following M 182
man to his company M 182
man of real dignity M 182
man is not bothered M 182
man in his corrupt M 182
man do who searches M 182
man in that quarter M 181
man he was brought M 181
may be that matters M 180
man of this culture M 180
may be that letters M 178
may be that illness M 178
may be his thoughts M 178
may be any variety M 178
man to man between M 178
man of one century M 178
man is not following M 178
man he had enjoyed M 178
man as has brought M 178
may he was married M 177
may be his outward M 177
man it was written M 177
man do not possess M 177
man as his perfect M 177
may we not abandon M 176
may so far recover M 176
may be too austere M 176
may be that besides M 176
may be our thoughts M 176
may be our efforts M 176
may be its weakness M 176
may be its victims M 176
man to her parents M 176
man of god brought M 176
man is not granted M 176
man he was relieving M 176
man as her partner M 176
may be had because M 175
may he was released M 174
may be too loosely M 174
may be too gradual M 174
may be six thousand M 174
may be ill pursued M 174
may be her present M 174
man so far forgets M 174
man or each machine M 174
man of god refused M 174
man is not released M 174
man in any culture M 174
may be that reduced M 173
man at his greatest M 173
may be too massive M 172
may be thus arrived M 172
man to his vocation M 172
man of war arrived M 172
man is being trained M 172
man by his heavenly M 172
may be too removed M 170
may be run exposed M 170
may be his weakness M 170
man of her company M 170
man of any fortune M 170
man in that relation M 170
man as she watched M 170
may do real service M 168
may be run several M 168
may be had therefor M 168
may be dead because M 168
may be both limited M 168
may be all against M 168
man of big affairs M 168
man of any quality M 168
man is not reliable M 168
man in his twofold M 168
man be yet disputing M 168
man as his inferior M 168
may be all present M 167
man as his natural M 167
may be too anxiety M 166
may be our closest M 166
may be now defined M 166
may be his failure M 166
map in this country M 166
man to one hundred M 166
man on this journey M 166
man of them carried M 166
man is thus reduced M 166
man is not unusual M 166
man is not removed M 166
man in this college M 166
man in his fellows M 166
man in any quarter M 166
man by his rational M 166
man as was divorce M 166
mad if you believe M 166
may be both subject M 165
man on this question M 165
man on his natural M 165
man in his superior M 165
may be that profits M 164
may be led forward M 164
may be its history M 164
may be his worldly M 164
may be both correct M 164
man to his ancient M 164
man to bear himself M 164
man of two natures M 164
man of this command M 164
man of his unusual M 164
man in his primary M 164
man in all western M 164
man he was strongly M 164
man he had stopped M 164
may we now proceed M 162
may we not reflect M 162
may go for counsel M 162
may be thus gathered M 162
may be for similar M 162
may be dry because M 162
may be both confusing M 162
may be any occasion M 162
man to new degrees M 162
man on each occasion M 162
man of his account M 162
man of god against M 162
man is led forward M 162
man is being whereby M 162
man in any private M 162
man he had deposed M 162
man as one species M 162
may be too precious M 160
may be too lightly M 160
may be one against M 160
man of sin revealed M 160
man of our example M 160
man is not trained M 160
man in one company M 160
man by his freedom M 160
may no man presume M 158
may be two systems M 158
may be set several M 158
may be ill because M 158
may be his peculiar M 158
may be both visible M 158
man we see similar M 158
man is our greatest M 158
man is now reduced M 158
man is not deluded M 158
man is his concern M 158
man in his citizen M 158
map of this species M 157
man to his maximum M 157
may in its present M 156
may he had decided M 156
may do its perfect M 156
may do his pleasure M 156
may be thus claimed M 156
may be that surface M 156
may be its destiny M 156
may be his success M 156
may be her destiny M 156
may be due equally M 156
may be any complex M 156
man up and offered M 156
man to lie several M 156
man of that species M 156
man of his worldly M 156
man in this natural M 156
man in all affairs M 156
may be one uniform M 155
man at his deepest M 155
may sing his praises M 154
may be too hurried M 154
may be too awkward M 154
may be thus loosely M 154
may be this ability M 154
may be that stronger M 154
may be that perfect M 154
may be our example M 154
may be cut because M 154
map in its present M 154
man to get outside M 154
man of one country M 154
man is both subject M 154
man he was trained M 154
man he saw himself M 154
man as both subject M 154
mad on that subject M 154
may be that patient M 153
may we not promise M 152
may we all together M 152
may do them justice M 152
may by its effects M 152
may be that absence M 152
may be for shorter M 152
may be both genuine M 152
map in its correct M 152
man to use language M 152
man to run counter M 152
man of our religion M 152
man of his society M 152
man of heat replied M 152
may be had outside M 151
may so far account M 150
may in this chapter M 150
may be two primary M 150
may be that country M 150
may be now adopted M 150
may be cut together M 150
may be cut according M 150
may be both together M 150
man to pit against M 150
man or his message M 150
man on this project M 150
man of them claimed M 150
man of that fearless M 150
man of his passions M 150
man of his beliefs M 150
man is this captain M 150
man is not defeated M 150
man is not daunted M 150
man in his process M 150
man in his designs M 150
man he has brought M 150
man he had counted M 150
may be for limited M 149
man of her desires M 149
may to all outward M 148
may be with friends M 148
may be two stories M 148
may be two parties M 148
may be that married M 148
may be real objects M 148
may be now brought M 148
may be now allowed M 148
may be for damages M 148
may be any objects M 148
man to get together M 148
man of his private M 148
man of his mistake M 148
man in two minutes M 148
may he was present M 147
may be two minutes M 146
may be this process M 146
may be one vehicle M 146
may be one purpose M 146
may be now applied M 146
may be its motives M 146
may be his temples M 146
may be for material M 146
map of his subject M 146
man in each country M 146
mad on that account M 146
may be that privacy M 145
man as they entered M 145
may to this purpose M 144
may in its results M 144
may be too generic M 144
may be too compact M 144
may be that pleasure M 144
may be one species M 144
may be any surface M 144
may be all gathered M 144
map of this surface M 144
man so far forward M 144
man on earth desires M 144
man of two talents M 144
man is not worried M 144
man in that crowded M 144
man in his dispute M 144
man in any language M 144
man be not capable M 144
may be one subject M 143
may be both misleading M 143
may we not declare M 142
may be with perfect M 142
may be too private M 142
may be that payment M 142
may be than himself M 142
may be team members M 142
may be our desires M 142
may be one question M 142
may be any general M 142
map to see exactly M 142
man on earth capable M 142
man of his address M 142
man of her unlucky M 142
man in this relation M 142
man in each hundred M 142
man he had adopted M 142
man as his highest M 141
may we not imitate M 140
may go hang himself M 140
may be that removal M 140
may be low quality M 140
may be its organic M 140
may be had although M 140
may be doing several M 140
may be both private M 140
man to pit himself M 140
man to its logical M 140
man to his thoughts M 140
man to his private M 140
man to his machine M 140
man or his measures M 140
man of this society M 140
man of god becomes M 140
man is not opposed M 140
man is not between M 140
man is not against M 140
man is his primary M 140
man is far inferior M 140
man in his decision M 140
man he was invited M 140
may he who carried M 138
may be that slavery M 138
may be that genuine M 138
man to his religion M 138
man on his defence M 138
man is now married M 138
man is not written M 138
man is not inferior M 138
man is not counted M 138
man is all rational M 138
man in his illness M 138
may go out towards M 136
may go out against M 136
may go and destroy M 136
may be with persons M 136
may be that numbers M 136
may be that infancy M 136
may be our failure M 136
may be not unknown M 136
may be his problem M 136
may be for display M 136
may be both because M 136
may be any relation M 136
may be any process M 136
man to his element M 136
man to any position M 136
man of you somehow M 136
man of that religion M 136
man of his letters M 136
man is thus capable M 136
man is not founded M 136
man is his perfect M 136
man in that culture M 136
man in our college M 136
man in his gradual M 136
man he had allowed M 136
man do not deserve M 136
man at her pleasure M 136
mad at you forever M 136
may he was carried M 135
man is that wherein M 135
may we not picture M 134
may in one society M 134
may be two decades M 134
may be too exposed M 134
may be too careful M 134
may be that written M 134
may be that divorce M 134
may be ten percent M 134
may be for service M 134
may be for improving M 134
man or one council M 134
man is his pleasure M 134
man in one thousand M 134
man in his liberty M 134
man in her doorway M 134
man do not concern M 134
mad in our inferior M 134
map is not correct M 133
man or his creations M 133
may be that emotions M 132
may be one primary M 132
may be for providing M 132
may be for extending M 132
map is not exactly M 132
man of real ambition M 132
man of god ordered M 132
man is yet capable M 132
man is not nowhere M 132
man is not greeted M 132
man is his highest M 132
man in that immense M 132
man in his fullest M 132
man by his example M 132
man as his subject M 132
may be all delusion M 131
may the new century M 130
may it not protect M 130
may do with himself M 130
may do that service M 130
may be that differing M 130
may be that beliefs M 130
may be not between M 130
man to that position M 130
man of war against M 130
man of this parable M 130
man is too sincere M 130
man is ten thousand M 130
man is not ordered M 130
man is not induced M 130
man in two natures M 130
man in its fullest M 130
man in his control M 130
man in his ancient M 130
man in his account M 130
man by law supreme M 130
may be set because M 129
may at this instant M 129
may we not provide M 128
may so far operate M 128
may do that because M 128
may be with parties M 128
may be too chaotic M 128
may be thus tempted M 128
may be then brought M 128
may be that experts M 128
may be not exceeding M 128
may be but justice M 128
may be both equally M 128
may be both applied M 128
may at her pleasure M 128
math in this chapter M 128
man or not depends M 128
man or his culture M 128
man on earth devoted M 128
man of his poverty M 128
man of few talents M 128
man in his conceit M 128
man in any vocation M 128
man he was exposed M 128
man he had crossed M 128
man as this captain M 128
may in any religion M 126
may do this service M 126
may be thus injured M 126
may be that sympathy M 126
may be that superior M 126
may be that stories M 126
may be that advancing M 126
may be our parents M 126
may be one visible M 126
may be not present M 126
may be new material M 126
may be ill applied M 126
may be her fortune M 126
man to two sisters M 126
man to his fullest M 126
man or his history M 126
man of his insight M 126
man is now receiving M 126
man in that congress M 126
man in ten seconds M 126
man he had assumed M 126
man do for himself M 126
man at his leisure M 126
mad on this question M 126
man is being studied M 125
man in his average M 125
man as his private M 125
may we not achieve M 124
may go and inquire M 124
may be with matters M 124
may be two competing M 124
may be thus resumed M 124
may be that offered M 124
may be its utility M 124
may be any organic M 124
man on his primary M 124
man of our unhappy M 124
man of his function M 124
man of his comfort M 124
man is now suffering M 124
man is not unaware M 124
man is not because M 124
man in that century M 124
man in his doorway M 124
mad at her forever M 124
may be its fortune M 123
may be hung outside M 123
may we not connect M 122
may be too selfish M 122
may be thus checked M 122
may be that organic M 122
may be that intense M 122
may be that improving M 122
may be our sympathy M 122
may be one percent M 122
may be not optimal M 122
may be lying against M 122
may be led captive M 122
may be for accepting M 122
may be all carried M 122
map of this journey M 122
man to win himself M 122
man or his society M 122
man on our account M 122
man of war wrecked M 122
man of one subject M 122
man is that whereby M 122
man is not crowned M 122
man in his marriage M 122
man he was content M 122
man as his brothers M 122
may we then suppose M 121
may be not correct M 121
man at all because M 121
man as his guardian M 121
may we not reverse M 120
may be then divided M 120
may be that believing M 120
may be set depending M 120
may be one company M 120
may be now omitted M 120
may be any persons M 120
may be any benefit M 120
map of that location M 120
man to see everything M 120
man to let matters M 120
man of that dignity M 120
man of bad private M 120
man it had hitherto M 120
man is not logical M 120
man in our language M 120
man in his torment M 120
man in his supreme M 120
man by his company M 120
man as they started M 120
may he was crowned M 119
man to his supreme M 119
man is his subject M 119
man as her natural M 119
may we not dispose M 118
may in any species M 118
may he was offered M 118
may be thus revealed M 118
may be that rational M 118
may be that problem M 118
may be that maximum M 118
may be ten degrees M 118
may be set closely M 118
may be our teachers M 118
may be our problem M 118
may be our beliefs M 118
may be its failure M 118
may be any species M 118
man to his function M 118
man to his counsel M 118
man to death quickly M 118
man of his supreme M 118
man is that perfect M 118
man is being pursued M 118
man in this history M 118
man in his mastery M 118
man by any visible M 118
may be that product M 117
may we bear witness M 116
may we all prepare M 116
may by law possess M 116
may by his example M 116
may be that typical M 116
may be that suffering M 116
may be that company M 116
may be that ability M 116
may be its central M 116
may be all members M 116
man to set against M 116
man the new vessels M 116
man of his decided M 116
man of all classes M 116
man it was natural M 116
man is not renewed M 116
man is not enabled M 116
man is not assured M 116
man in this council M 116
man in his unhappy M 116
man in his genuine M 116
man in his defense M 116
man in his beginning M 116
man in any century M 116
man in any bargain M 116
man he was careful M 116
man by his society M 116
man by his efforts M 116
man as has existed M 116
may be our subject M 115
may or not include M 114
may in any assault M 114
may in all matters M 114
may be with parents M 114
may be that climate M 114
may be now removed M 114
may be his decision M 114
may be both harmful M 114
man we all admired M 114
man or one hundred M 114
man or his country M 114
man on his ability M 114
man of weak thoughts M 114
man of sin himself M 114
man of low origins M 114
man of low descent M 114
man of his cautious M 114
man of any unusual M 114
man is too selfish M 114
man is thus related M 114
man is not invited M 114
man in this material M 114
man in this blessed M 114
man in his obscure M 114
man he had claimed M 114
man he set himself M 113
may so far explain M 112
may of one thousand M 112
may in its decision M 112
may be why several M 112
may be too forward M 112
may be too cryptic M 112
may be that usually M 112
may be that suicide M 112
may be run forward M 112
may be our blessed M 112
may be not useless M 112
may be its sources M 112
may be his concern M 112
may be and subject M 112
map in this respect M 112
man to man contact M 112
man to his sisters M 112
man to death against M 112
man of that selfish M 112
man of his essence M 112
man of god entered M 112
man of all dignity M 112
man is his greatest M 112
man in this account M 112
man in our western M 112
man in his upright M 112
man as being endowed M 112
may be one imposed M 111
man in our parable M 111
may be with himself M 110
may be with general M 110
may be this equation M 110
may be read forward M 110
may be our delight M 110
may be its nominal M 110
may be her pleasure M 110
may be for fifteen M 110
map of his voyages M 110
map is not limited M 110
map in two volumes M 110
man to his culture M 110
man or his motives M 110
man of our culture M 110
man of one language M 110
man of low culture M 110
man in his generic M 110
man in his destiny M 110
man in her picture M 110
man in all classes M 110
may be that records M 109
map of this process M 109
man to man renders M 109
man it may produce M 109
man is not upright M 109
man do not consist M 109
may in that country M 108
may in one country M 108
may in his defence M 108
may be yet capable M 108
may be two totally M 108
may be too minimal M 108
may be that silence M 108
may be that reliance M 108
may be our masters M 108
may be one country M 108
may be now subject M 108
may be its highest M 108
may be her ability M 108
may be for workers M 108
may be for refusal M 108
may be for pleasure M 108
may be fit objects M 108
may be fit members M 108
map of her journey M 108
man to his bargain M 108
man of this division M 108
man of his species M 108
man of his parents M 108
man of his compass M 108
man of both parties M 108
man is too immense M 108
man is thus endowed M 108
man is doing everything M 108
man in our command M 108
man in his triumph M 108
man in her private M 108
man in her embrace M 108
man in her country M 108
man if and because M 108
man he was allowed M 108
man he had arranged M 108
man as its founder M 108
mad to get married M 108
mad at our parents M 108
may by its conduct M 106
may be using certain M 106
may be two effects M 106
may be too wrapped M 106
may be too largely M 106
may be this country M 106
may be then defined M 106
may be then deceased M 106
may be that viewers M 106
may be that shortly M 106
may be that dispose M 106
may be that adverse M 106
may be its material M 106
may be its logical M 106
may be hung between M 106
may be for support M 106
may be due according M 106
map in this article M 106
man to his youngest M 106
man to his species M 106
man of his honesty M 106
man is not receiving M 106
man is ill because M 106
man in that language M 106
man in his picture M 106
man in his emotions M 106
man in her borders M 106
man by his talents M 106
may he was finally M 105
may do this according M 104
may be thus offered M 104
may be that against M 104
may be that affects M 104
may be read perhaps M 104
may be our climate M 104
may be lying wounded M 104
may be but briefly M 104
may be and according M 104
may be all brothers M 104
max to his friends M 104
man to his support M 104
man to each machine M 104
man or his belongings M 104
man of that position M 104
man of his leisure M 104
man of any society M 104
man of all talents M 104
man of all freedom M 104
man is thus plainly M 104
man is now brought M 104
man is not deserving M 104
man in this congress M 104
man in our members M 104
man in his victory M 104
man in his elegant M 104
man do you believe M 104
man at each preceding M 104
may so far destroy M 102
may it not proceed M 102
may it not account M 102
may in its request M 102
may he not achieve M 102
may be too shortly M 102
may be that thoughts M 102
may be that strains M 102
may be that periodic M 102
may be that damages M 102
may be that achieving M 102
may be real trouble M 102
may be one related M 102
may be one library M 102
may be its origins M 102
may be its details M 102
may be his respect M 102
may be his partner M 102
man to one machine M 102
man to god himself M 102
man to act quickly M 102
man of his council M 102
man is not greatest M 102
man is not corrupt M 102
man in her history M 102
man he was usually M 102
man he had pointed M 102
man to all outward M 101
man as being superior M 101
may sing its praises M 100
may do you justice M 100
may do for herself M 100
may be with several M 100
may be too delayed M 100
may be thus noticed M 100
may be thus assured M 100
may be this element M 100
may be then carried M 100
may be then assumed M 100
may be that unusual M 100
may be that spirits M 100
may be that aesthetic M 100
may be one student M 100
may be new creations M 100
may be its culture M 100
may be how quickly M 100
may be her attempt M 100
may be for comfort M 100
may be cut exactly M 100
may be but usually M 100
may be both organic M 100
may be all deduced M 100
map he was preparing M 100
man to its present M 100
man to its natural M 100
man to her friends M 100
man or for animals M 100
man of his rational M 100
man of his greatest M 100
man of his friends M 100
man is not implied M 100
man in one eternal M 100
man in his diverse M 100
man he was present M 100
man he had briefly M 100
man at his request M 100
man is his present M 99
man in his selfish M 99
may do with justice M 98
may be yet applied M 98
may be with religion M 98
may be with altered M 98
may be two degrees M 98
may be two brothers M 98
may be that producing M 98
may be our religion M 98
may be for regular M 98
may be doing certain M 98
may be both legally M 98
man to arm against M 98
man or men present M 98
man or man against M 98
man or his guardian M 98
man on earth depends M 98
man of that society M 98
man of that corrupt M 98
man of her society M 98
man of any ambition M 98
man is not willingly M 98
man is being evolved M 98
man in his regular M 98
man in his journal M 98
man he was equally M 98
man do not suggest M 98
man do not justify M 98
may do all matters M 96
may be wet because M 96
may be two schools M 96
may be too unusual M 96
may be that victory M 96
may be that process M 96
may be that opinions M 96
may be now extinct M 96
may be may inquire M 96
may be its limited M 96
may be his designs M 96
may be had pleasure M 96
may be few because M 96
may be both regular M 96
may be both logical M 96
may be both foolish M 96
may be both desired M 96
may be big trouble M 96
may be all covered M 96
may at one instant M 96
man to his heavenly M 96
man to his account M 96
man to god because M 96
man to act himself M 96
man or his affairs M 96
man of them entered M 96
man of god started M 96
man of but limited M 96
man is not uniform M 96
man is not producing M 96
man is all perfect M 96
man in its infancy M 96
man in his beliefs M 96
man he had tracked M 96
man he had secured M 96
man do not develop M 96
man by his lessons M 96
man be thus pleasant M 96
man as far superior M 96
man as man because M 95
may we not endanger M 94
may he not protect M 94
may he not produce M 94
may be with secrecy M 94
may be too uniform M 94
may be that viruses M 94
may be that tonight M 94
may be that operating M 94
may be that content M 94
may be that adopted M 94
may be our respect M 94
may be his enemies M 94
may be his descent M 94
may be her general M 94
may be for oneself M 94
may be any logical M 94
map of her country M 94
map do not include M 94
map as two thousand M 94
man of real quality M 94
man of god carried M 94
man it was evident M 94
man is then brought M 94
man is its greatest M 94
man in one relation M 94
man in bad company M 94
man he was preparing M 94
man do not usually M 94
may go off together M 93
man or any society M 93
man on his account M 93
may we bid defiance M 92
may it was claimed M 92
may it not survive M 92
may it not suggest M 92
may it not possess M 92
may be yet remaining M 92
may be two pathways M 92
may be then covered M 92
may be that shorter M 92
may be that editors M 92
may be that adoption M 92
may be one product M 92
may be not related M 92
may be new because M 92
may be its vehicle M 92
may be had uniform M 92
may be doing penance M 92
may be any rational M 92
may be any address M 92
map in this example M 92
man up and brought M 92
man to you because M 92
man on his success M 92
man of war appeared M 92
man of this position M 92
man of any natural M 92
man of any insight M 92
man of any decided M 92
man is not stopped M 92
man is man according M 92
man is his friends M 92
man he did because M 92
man do not require M 92
man be but married M 92
man at his machine M 92
may he was beginning M 91
may be its decision M 91
man to our present M 91
may we not improve M 90
may we not develop M 90
may in this example M 90
may he see himself M 90
may be this instant M 90
may be that consent M 90
may be our witness M 90
may be our outward M 90
may be our deepest M 90
may be our concern M 90
may be long content M 90
may be its current M 90
may be for referring M 90
may be both precise M 90
may be all applied M 90
map of that journey M 90
map as lying between M 90
man to put everything M 90
man to one increase M 90
man on that dreadful M 90
man of them refused M 90
man of real religion M 90
man of real promise M 90
man of mean ability M 90
man of his eternal M 90
man of few opinions M 90
man of any century M 90
man is not truthful M 90
man is not realized M 90
man in its generic M 90
man in his parents M 90
man in his harness M 90
man he was utterly M 90
man he was assisting M 90
man he thus submits M 90
man he had trapped M 90
man do not produce M 90
man by his motives M 90
man as with animals M 90
mad of all parties M 90
may at each instant M 89
may the gap between M 88
may no man embrace M 88
may be two parents M 88
may be thus exerted M 88
may be thus delayed M 88
may be that weakness M 88
may be that optimal M 88
may be that insight M 88
may be that insects M 88
may be that including M 88
may be that details M 88
may be that classes M 88
may be that answers M 88
may be put exactly M 88
may be put depends M 88
may be now assumed M 88
may be its genesis M 88
may be its correct M 88
may be going extinct M 88
may be for tragedy M 88
may be for present M 88
may be for defence M 88
may be any impulse M 88
map of this ancient M 88
man to his promise M 88
man to ease himself M 88
man of this species M 88
man of our western M 88
man of his upright M 88
man of his material M 88
man of his decision M 88
man of both ability M 88
man of any genuine M 88
man it was perhaps M 88
man is not wounded M 88
man is not trapped M 88
man is god because M 88
man is doing exactly M 88
man in that service M 88
man in our picture M 88
man in its general M 88
man in its deepest M 88
man in his sincere M 88
man in his failure M 88
man in his delusion M 88
man he had finally M 88
man as they crossed M 88
man as that resulting M 88
man as his country M 88
man as god himself M 87
may be with members M 86
may be too evident M 86
may be that simpler M 86
may be that schemes M 86
may be that prayers M 86
may be read exactly M 86
may be put towards M 86
may be now studied M 86
may be not totally M 86
may be lying quietly M 86
may be low priority M 86
may be its compass M 86
may be her natural M 86
may be both precious M 86
may be any citizen M 86
map of this network M 86
map is not perfect M 86
man to say foolish M 86
man to mix himself M 86
man on her account M 86
man on each quarter M 86
man of his studious M 86
man is two minutes M 86
man is our superior M 86
man in this service M 86
man in his concern M 86
man he was ordered M 86
man he set outside M 86
man by his silence M 86
man at his college M 86
man as his patient M 86
man as any service M 86
mad in his conduct M 86
man to hear himself M 85
may it not succeed M 84
may be top priority M 84
may be too unwilling M 84
may be too hostile M 84
may be thus trained M 84
may be thus lightly M 84
may be that honesty M 84
may be that exactly M 84
may be ten seconds M 84
may be put equally M 84
may be our reliance M 84
may be one benefit M 84
may be man himself M 84
may be lying together M 84
may be lying between M 84
may be low although M 84
may be his closest M 84
may be for aesthetic M 84
may be both reliable M 84
may be both passive M 84
may be and although M 84
may at her liberty M 84
map of this western M 84
map of this location M 84
man we can respect M 84
man we are assured M 84
man of one culture M 84
man of his modesty M 84
man is his essence M 84
man is going forward M 84
man in this endeavor M 84
man in his refusal M 84
man he had trailed M 84
man as that between M 84
may be thus figured M 83
man in things natural M 83
may we all deserve M 82
may so far improve M 82
may do its greatest M 82
may by law abolish M 82
may be thus repeated M 82
may be thus located M 82
may be thus erected M 82
may be that program M 82
may be that beginning M 82
may be put deserve M 82
may be our purpose M 82
may be our current M 82
may be new sources M 82
may be his faithful M 82
may be for witness M 82
may be but loosely M 82
may be being applied M 82
may be all natural M 82
may at all comfort M 82
map of our position M 82
map of our northern M 82
man we are honouring M 82
man to sit between M 82
man to let anybody M 82
man or ten thousand M 82
man of this religion M 82
man of this peculiar M 82
man of his thoughts M 82
man of his purpose M 82
man of his history M 82
man is one element M 82
man is not tyranny M 82
man is not happier M 82
man is not bounded M 82
man is not accused M 82
man is his poverty M 82
man is being watched M 82
man in this question M 82
man in that instant M 82
man in that assault M 82
man in man himself M 82
man in its support M 82
man in his painful M 82
man in his foolish M 82
man in his familiar M 82
man in his embrace M 82
man in any religion M 82
man he was familiar M 82
man he had belonged M 82
man by man becomes M 82
man by his marriage M 82
man as being totally M 82
may we not foresee M 80
may we not examine M 80
may we not dismiss M 80
may we not discard M 80
may no one attempt M 80
may my god forsake M 80
may by one species M 80
may be too logical M 80
may be then arranged M 80
may be that customs M 80
may be that combining M 80
may be set certain M 80
may be run according M 80
may be real persons M 80
may be our weakness M 80
may be our unhappy M 80
may be near perfect M 80
may be led according M 80
may be going towards M 80
may be both simpler M 80
may be both prudent M 80
may be all occasion M 80
man we may suppose M 80
man to win success M 80
man or his company M 80
man or any company M 80
man of our command M 80
man of law replied M 80
man of him finally M 80
man of god uttered M 80
man of any honesty M 80
man it may require M 80
man is thus divided M 80
man is not stronger M 80
man in its ability M 80
man in his fortune M 80
man in his correct M 80
man he had managed M 80
man he had certain M 80
man by his virtues M 80
man by his answers M 80
man be not himself M 80
mad at him forever M 80
may be one extreme M 72
may do you pleasure M 69
may he was awarded M 68
man to fly nonstop M 65
may he was visited M 62
may he was removed M 60
map the way forward M 60
may be that subject M 59
man of his following M 59
man at his beginning M 59
map the area between M 55
man in that uniform M 55
may be that hitherto M 54
man to man outside M 54
may be that listening M 53
may he had arrived M 52
may it was revealed M 50
man at one extreme M 50
may go and present M 49
may be too worried M 49
may in this relation M 48
may be thus blessed M 48
may he was defeated M 47
map of this complex M 46
man to say goodbye M 46
man on earth against M 46
man in his subject M 46
man in his following M 46
may the two parties M 45
may he was granted M 44
may be now present M 44
man as being outside M 44
may it was carried M 43
may be that related M 43
may be too ingrained M 42
man to his suffering M 42
man the end product M 42
man on all matters M 42
man is not pleasure M 42
man do not present M 42
may be that exchange M 41
max the max function M 41
man is now present M 41
man in this complex M 41
man as his supreme M 41
man as being subject M 41
may do his majesty M 40
may be that network M 40
may be read outside M 40
man the two vessels M 40
man in his forties D 36900
man in his thirties D 33749
may be and however D 10836
man of his stature D 7542
man of low stature D 3448
man is not obliged D 3136
may we not venture D 3064
man of his caliber D 2953
may we not suspect D 2905
man as her husband D 2844
man in his village D 2328
man in our village D 2208
may in this context D 2108
man in this village D 1778
may be not inaptly D 1748
may we not indulge D 1716
may be her husband D 1632
may be too stringent D 1416
man of his village D 1348
may at his election D 1344
may be too shallow D 1340
may be too sanguine D 1322
may in his cottage D 1314
man in his earliest D 1280
man is her husband D 1242
man in her bedroom D 1235
man in his cabinet D 1186
may be thus classed D 1174
man of this village D 1170
man of his leprosy D 1166
may be due chiefly D 1144
may of thee partake D 1128
may be that science D 1038
man of real courage D 976
man of her husband D 914
may be its national D 904
may be too drastic D 868
man in his cottage D 854
may the earth swallow D 850
man in this context D 828
may by law empower D 817
may be too radical D 792
man in his manners D 768
may be too lenient D 764
may we not rightly D 763
may be too liberal D 762
mad at her husband D 746
may we not ascribe D 730
man is not morally D 696
may be that foreign D 690
man in all spheres D 684
man in that village D 678
man in her husband D 670
man of all mankind D 662
man he had knocked D 652
man in her kitchen D 640
may we not exclaim D 637
man in his platoon D 632
man of this caliber D 616
may be far smaller D 606
may he was elected D 596
man to tear himself D 596
may be long overdue D 594
man is not crushed D 584
may be that national D 582
man in each village D 580
man to put asunder D 562
man of our village D 550
may be that alcohol D 548
man in his bedroom D 526
man of real science D 522
may be not unworthy D 516
man of his courage D 514
may be that smaller D 510
man in her village D 504
may be too diffuse D 502
may be too excited D 494
man in his official D 490
man in hot pursuit D 488
may be that mankind D 486
man he had stabbed D 486
may be its duration D 482
may we not surmise D 480
may be that previous D 474
may be set vibrating D 472
may we not cherish D 468
man in his creative D 468
may be too brittle D 462
may be both durable D 460
may be too viscous D 458
may be that doctors D 454
may be all classed D 454
may be that someday D 448
man in this chamber D 448
may be that farmers D 442
man of each village D 440
may be too variable D 432
man in his pajamas D 414
may be too onerous D 412
man of that village D 412
may be read rapidly D 406
may be raw material D 405
man of real stature D 402
may be that genetic D 394
man to her husband D 394
man of easy manners D 394
may at its election D 392
man to new heights D 385
may by his warrant D 384
man in his boyhood D 384
man is not rightly D 382
man to pay tribute D 380
may be our biggest D 374
man of his manhood D 374
man as his servant D 374
may be that medical D 372
may be that infants D 372
may be too refined D 365
man in his exalted D 356
may in one context D 352
man in his behavior D 350
map of its streets D 346
man in his carriage D 346
may be two ploughs D 344
man he was elected D 342
man of this stature D 340
man in his chamber D 338
may be using alcohol D 336
may be that regional D 334
man on his buckeye D 334
may be thus derived D 328
man by him seduced D 326
man at his noblest D 325
may be his epitaph D 324
may be had regarding D 322
may be that lawyers D 318
man of mean stature D 318
may we not fortify D 316
man of his exalted D 314
man is not defiled D 314
may be too tightly D 312
may we not rejoice D 308
man in his hammock D 306
man of too sanguine D 300
man on his bicycle D 298
man in his youthful D 298
may be his earliest D 296
man of that stature D 296
man in our platoon D 296
map is mean arterial D 294
man in his noblest D 294
may be any variable D 293
man on his stomach D 290
man in his brigade D 288
man by any stretch D 288
may be too broadly D 286
may we not flatter D 284
may be that popular D 284
man to act rightly D 284
may the war cabinet D 283
may be read broadly D 282
man of that caliber D 282
man in ten millions D 282
man he was reputed D 282
may be too rapidly D 278
may be our national D 278
may be too sharply D 274
man is not edified D 274
may be that learners D 272
may be that behavior D 270
may be that artists D 270
may be that dickens D 266
may be too concise D 264
man of one village D 264
man of big stature D 264
man is not derived D 264
may be that couples D 262
may be any numeric D 260
man to put arsenic D 258
man by his surname D 258
man at his bedside D 258
may be that colonel D 256
may we not express D 254
may be but faintly D 254
man to his beloved D 254
man is all vinegar D 254
man in his custody D 254
man of his platoon D 250
may be our earliest D 248
may be that speakers D 244
may be one variable D 244
may be that federal D 242
man to his village D 242
may be cut asunder D 238
may be but fleshly D 238
man of his haughty D 238
man in his previous D 236
may be too fatiguing D 234
may be that vitamin D 232
may be its biggest D 230
man he was obliged D 229
may in its national D 228
man of his refined D 228
may be bad manners D 224
man in our streets D 224
man in his bathrobe D 224
may be that variation D 222
may be that creative D 222
man of his creative D 222
man in our national D 220
man in his manhood D 220
man of his kindred D 219
may be two litters D 218
may be that statues D 218
man he was attacking D 218
man in one village D 214
may be too rigidly D 212
man is not elected D 208
may be too tenuous D 206
may be that faculty D 206
man on his forehead D 206
man of his reputed D 204
man of his faculty D 204
man in his kitchen D 204
may be both morally D 200
man in his lawsuit D 200
may be for regarding D 198
man of her village D 198
man is his servant D 198
man of his sanguine D 196
man in his interior D 196
may be both socially D 194
may be bad farmers D 194
man of his liberal D 194
man in his dominion D 194
may be his official D 192
man by his manners D 192
may ring its clapper D 190
may or doth concern D 190
man of his previous D 190
man at her chamber D 190
man in his outlook D 188
may be that calcium D 186
man in his secular D 186
may be that official D 184
may be any ordinal D 184
man at her bedside D 184
may be that judicial D 182
man to act morally D 181
may be thus charged D 180
man of gay spirits D 180
man of each platoon D 180
man in his arduous D 180
man of this vitiated D 179
man to get excited D 177
may be that napoleon D 176
may be his national D 176
man of that courage D 174
man of any remnant D 174
man in his warfare D 174
man by his ingenuity D 174
may be both tangible D 172
may be that bacteria D 171
man or his assigns D 170
man in his ingenuity D 170
may be that radical D 168
may be that protein D 168
may be for medical D 168
man on his payroll D 168
man at this science D 168
man of his brigade D 166
man of any stature D 166
map of each village D 164
may be easy targets D 162
man of one science D 162
may do thee pleasure D 161
man in his fiftieth D 161
may do thee justice D 160
may be his biggest D 160
man to fling himself D 160
man in his contest D 160
man in red stockings D 158
man at his funeral D 158
may he was obliged D 156
may be low voltage D 156
may be key players D 156
man in his thirtieth D 156
may be too relaxed D 155
may be that quantum D 155
man to his chamber D 154
man in his dilemma D 154
man in her fantasy D 154
mad at being obliged D 154
man in his stomach D 153
may be his servant D 152
man we are obliged D 152
man of his outlook D 152
may be that millions D 150
may be both genetic D 150
may be being bullied D 150
max of its cognate D 150
man of that gravity D 150
man of law sneered D 150
man is not popular D 150
man in his national D 150
may be that liberal D 149
may be too profuse D 148
may be thus broadly D 148
man in our brigade D 148
man he had spotted D 148
map is being redrawn D 147
may be too sublime D 146
man of them stirred D 146
man of his probity D 146
man in his factory D 146
man in her chamber D 146
may be too slender D 144
may be too buoyant D 144
may be that marital D 144
man in this imperial D 144
man in his striped D 144
man in his habitat D 144
may be that carriage D 142
may be both smaller D 142
man of his ingenuity D 142
man in that science D 142
man in his maturer D 142
may be thin because D 140
may be that surgery D 140
may be that socially D 140
may be put regarding D 140
may be its purport D 140
man to tie himself D 140
mad by her husband D 140
may be pre scribed D 139
may be that courage D 138
may be met despite D 138
may be fed forward D 138
man he was shadowing D 138
may we not languish D 136
may be thus excited D 136
may be owing chiefly D 136
may be for national D 136
may at our election D 136
may be fed according D 134
man of his prowess D 134
man is then elected D 134
man in this dominion D 134
man in his egotism D 134
man in his drunken D 134
may be that lesbians D 132
man in his context D 132
man as his fantasy D 132
may be that welfare D 130
may be that radiation D 130
may be that portions D 130
may be its earliest D 130
man to his noblest D 130
man in that quarrel D 130
man in our economy D 130
may be that catholic D 129
may be that drivers D 128
man of his reserve D 128
man of any decency D 128
may we pay tribute D 126
may it not however D 126
may be that markets D 126
may be all charged D 126
man at all hazards D 126
may be long averted D 125
may be any voltage D 125
may be thus averted D 124
may be thus aroused D 124
may be that warriors D 124
man of them excepting D 124
map of this plasmid D 123
may by now suspect D 122
may be that reports D 122
may be that features D 122
may be for foreign D 122
man is not charged D 122
man in our welfare D 122
may be sub divided D 121
may be that players D 120
may be that musical D 120
may be lip service D 120
may be its feathered D 120
may be for millions D 120
may be air bubbles D 120
mat in his bedroom D 120
man of his dynamic D 120
man of his chamber D 120
man of his ascetic D 120
may the poet exclaim D 118
may be too diluted D 118
may be that senator D 118
may be that however D 118
man to his cottage D 118
man of his slender D 118
man of any ingenuity D 118
may be that clement D 116
map of this terrain D 116
man of this science D 116
man in this platoon D 116
man he had pitched D 116
man he had dragged D 116
may be two millions D 114
may be for obtaining D 114
man is not aroused D 114
man is all screwed D 114
man in his retinue D 114
man in his faculty D 114
man in her bathroom D 114
man if this womanly D 114
may do this rightly D 112
may be put crudely D 112
may be fed together D 112
man to run errands D 112
man is being crushed D 112
man is being charged D 112
man in his treatise D 112
man by his stature D 112
may by any stretch D 110
may by any mediums D 110
may be too reactive D 110
may be too graphic D 110
may be ten millions D 110
may be our warrant D 110
may be had mounted D 110
may be both musical D 110
may be all dressed D 110
mat in her carriage D 110
man to his comrade D 110
man or per machine D 110
man of his eminent D 110
man of god rebuked D 110
man of any courage D 110
man is now obliged D 110
man is not haunted D 110
man in his mundane D 110
man he had elected D 110
may we now venture D 108
may be that sensory D 108
may be that physics D 108
may be that dynamic D 108
may be for science D 108
may be for amounts D 108
may be cut rapidly D 108
man to his habitat D 108
man is this sergeant D 108
man in his battery D 108
man if her husband D 108
may be run overhead D 107
may be dis covered D 107
may do thee service D 106
may be too sketchy D 106
man to his bedroom D 106
man on our payroll D 106
man is not excited D 106
man is being dragged D 106
man in our battery D 106
may in its context D 104
may be that skilled D 104
may be that dietary D 104
may be that athletes D 104
may be one promising D 104
may be for mankind D 104
may be both politic D 104
may be both civilly D 104
man it was startling D 104
man is for extorting D 104
man in this scenario D 104
man in that chamber D 104
man in his scarlet D 104
may in that context D 102
may be that digital D 102
may be sung between D 102
may be its ulterior D 102
man to act sociably D 102
man so far violated D 102
man is not sterile D 102
man is not musical D 102
man is not dressed D 102
man by his exterior D 101
may it not furnish D 100
may be hot pressed D 100
may be gang members D 100
man of his noblest D 100
man is not liberal D 100
man in his sinless D 100
may be two variants D 98
may be too erratic D 98
may be too arduous D 98
may be that lenders D 98
may be that husband D 98
man to lean against D 98
man of his beloved D 98
man of bad manners D 98
man in this cabinet D 98
man he had settled D 98
man he had revered D 98
may by its express D 97
may be that variable D 97
may be too servile D 96
may be that marketing D 96
may be not untruly D 96
may at all conduce D 96
man to his convent D 96
man is his faculty D 96
man is being flogged D 96
man he had painted D 96
mad as her husband D 96
may be two dollars D 94
may be top dressed D 94
may be thus rapidly D 94
may be that tourism D 94
may be that insulin D 94
may be its fitness D 94
may be for storage D 94
may be fed several D 94
may be bad economy D 94
man to his manhood D 94
man to get elected D 94
man of his retinue D 94
man in his ramblings D 94
man in her carriage D 94
man he was popular D 94
may be that taxation D 92
may be cut smaller D 92
man to his slumber D 92
man of not unpleasing D 92
man of his caustic D 92
man is not creative D 92
man in his millions D 92
man in his doublet D 92
man he had groomed D 92
man to sit astride D 91
man the raw material D 91
may be that schooling D 90
may be sung together D 90
may be both national D 90
man to get dressed D 90
man on our faculty D 90
man on her horizon D 90
man of his youthful D 90
man by his garment D 90
may be two smaller D 88
may be thus obviated D 88
may be thus liberal D 88
may be that sections D 88
may be hit exactly D 88
may be bad science D 88
man to his kindred D 88
man to his cabinet D 88
man to his brethren D 88
man to her bedside D 88
man on his circuit D 88
man of our national D 88
man of both courage D 88
man he was arresting D 88
may be that fantasy D 87
may do for mankind D 86
may be with foreign D 86
may be that obesity D 86
may be low density D 86
may be his warrant D 86
may be any formula D 86
man on his vacation D 86
man of this stately D 86
man of that surname D 86
man in her cabinet D 86
may be using cocaine D 84
may be that fatigue D 84
may be far grander D 84
may be due however D 84
map of its interior D 84
man of mean exterior D 84
man of his impending D 84
man is being rapidly D 84
man in this contest D 84
man in that faculty D 84
may we all partake D 83
man on his sickbed D 83
may go off smoothly D 82
may be too foreign D 82
may be that seasonal D 82
may be that gravity D 82
may be both diffuse D 82
map of his village D 82
man of that faculty D 82
man of any settled D 82
may it not signify D 80
may be its diameter D 80
may be its density D 80
may be his potency D 80
may be and cognate D 80
man of this forlorn D 80
man is not cruelty D 80
man in this venture D 80
man in his straits D 80
man in his features D 80
may be too shocked D 63
may we all rejoice D 60
man or his kindred D 51
may be too exalted D 47
may be con trolled D 46
may be too stunned D 44
man as raw material D 44
man on his balcony D 43
may so far venture D 41
may be thus wrought D 41
may be that derived D 40
