may provide a way M 9068
may contain a few M 8458
may provide a new M 7400
may require a new M 6654
may require a long M 6328
may require a few M 5792
may produce a new M 4998
may provide a key M 4226
may require a lot M 3762
may develop a new M 3496
may include a few M 3389
may acquire a new M 3176
may require a bit M 3067
may suggest a new M 2454
may appoint a new M 2006
mad because i did M 1998
may produce a few M 1944
may receive a new M 1780
may involve a long M 1776
may require a year M 1740
may develop a fear M 1716
mad because i was M 1696
may reflect a real M 1568
may initiate a new M 1538
may contain a lot M 1522
man because i was M 1474
may suggest a way M 1464
mad because i had M 1418
may involve a few M 1374
may involve a new M 1360
man becomes a man M 1272
may involve a lot M 1270
may believe i was M 1214
may imagine i was M 1202
may provide a few M 1186
may present a new M 1170
may present a real M 1126
may suppose i was M 1118
may develop a few M 1118
man uttered a cry M 1116
may contain a set M 1105
man becomes a new M 1088
may reflect a bias M 1072
may appoint a fit M 1049
may include a new M 1048
man becomes a god M 991
may provide a set M 986
may suggest a few M 982
may require a two M 980
may include a set M 970
may believe a lie M 968
may destroy a man M 938
may produce a low M 923
may receive a few M 890
man remains a man M 878
man carried a long M 846
may request a new M 842
may reflect a new M 842
may reflect a low M 802
may provide a path M 784
may prevent a man M 766
may reflect a long M 758
may suppose a man M 744
may provide a real M 743
may explain a lot M 740
may produce a long M 732
may present a few M 726
may develop a set M 718
may deprive a man M 704
may suppose i did M 632
may provide a long M 632
may declare a law M 632
may propose a new M 628
may include a low M 628
may achieve a new M 624
may require a team M 616
man becomes a poet M 610
may require a low M 597
may provide a lead M 596
man because i had M 592
may produce a real M 582
may produce a net M 580
may imagine a man M 579
may produce a set M 575
may require a day M 571
may develop a low M 565
may produce a lot M 564
may present a far M 560
may provide a low M 557
may appoint a day M 548
may receive a low M 546
may include a long M 542
may reflect a fear M 540
may examine a few M 534
may require a set M 527
may imagine i did M 488
may possess a few M 486
may include a mix M 480
may attract a few M 472
may survive a few M 466
may include a lot M 450
may require a non M 444
may contain a new M 444
man because i can M 438
may contain a mix M 434
may receive a lot M 428
may develop a real M 428
man borrows a sum M 428
may develop a long M 426
may believe i did M 422
may produce a red M 419
mad because i got M 414
man stopped a few M 402
may benefit a few M 400
may require a one M 396
may produce a weak M 396
man towards a new M 396
may exhibit a low M 395
may observe a few M 394
may produce a non M 393
may persist a long M 386
may involve a set M 382
may involve a mix M 380
may require a man M 367
may request a due M 366
may provide a non M 366
may provide a lot M 366
may propose a law M 364
may explain a few M 362
may collect a few M 362
may produce a bias M 360
mad because i can M 352
may following i had M 350
may involve a bit M 349
may acquire a real M 346
may specify a set M 342
may dispose a man M 340
may justify a law M 338
man becomes a law M 337
may qualify a man M 336
may suppose i had M 328
may produce a bad M 328
may produce a dry M 326
may exchange a few M 324
man because i did M 324
may survive a long M 318
may involve a two M 314
may contain a non M 314
may suggest a low M 312
may consume a lot M 310
may deserve a few M 306
may prevent a new M 302
may include a sum M 302
may develop a bad M 302
man uttered a low M 302
may include a path M 300
may specify a few M 298
man carries a long M 298
may exhibit a few M 296
man because a man M 292
may justify a few M 290
may condemn a man M 290
may perform a few M 288
may inspire a new M 288
man carried a bag M 288
may provide a far M 287
may require a job M 284
may present a long M 284
may involve a one M 277
may command a man M 277
may produce a war M 276
may develop a dry M 276
may contain a long M 274
man becomes a real M 270
may involve a man M 269
may believe i had M 268
may justify a man M 267
may specify a new M 266
may receive a one M 266
may include a non M 261
may increase a man M 260
may believe a man M 260
may provide a bit M 259
may involve a non M 259
may attract a lot M 258
may recover a sum M 256
man against a man M 256
may involve a team M 254
may suggest a long M 252
may contain a low M 250
may produce a far M 249
may imagine a new M 246
may support a man M 244
may receive a sum M 244
may contain a bit M 243
may require a pre M 242
may require a far M 240
man appeared a few M 240
man becomes a son M 235
may forgive a man M 232
may witness a new M 228
may observe a new M 228
may endanger a man M 226
may develop a way M 226
man obtains a new M 226
may prepare a set M 224
may include a one M 223
may observe a real M 222
may involve a real M 222
may require a real M 221
may possess a man M 218
may present a set M 217
may require a mix M 216
man carried a bow M 216
may believe i can M 212
may receive a set M 210
man assumes a new M 210
may support a few M 206
may prevent a war M 206
may justify a new M 204
may suggest a non M 203
may provide a map M 202
may compare a man M 202
may reflect a non M 201
man beginning a new M 200
may install a new M 198
may acquire a few M 198
may undergo a long M 196
may present a dry M 194
may possess a low M 194
may attract a new M 194
may receive a due M 192
may produce a big M 192
may deceive a man M 192
may reflect a pre M 191
may withdraw a plea M 190
may initiate a due M 190
may develop a red M 190
may reflect a set M 189
may require a leap M 188
may provide a weak M 188
man against a big M 188
may include a pre M 185
may imagine i had M 184
may involve a low M 183
may initiate a law M 182
may discern a few M 182
may compose a poem M 182
may request a pre M 178
may include a dry M 178
may prepare a way M 176
may discuss a few M 176
may contain a bias M 176
may produce a one M 175
may welcome a new M 174
may welcome a few M 174
may include a map M 174
man carried a key M 171
may inspire a few M 170
may declare a use M 170
may develop a bias M 168
man uttered a few M 168
may uncover a new M 166
may provide a net M 166
may include a fear M 164
may destroy a few M 164
may require a heat M 161
may possess a real M 160
may require a lead M 159
may prepare a new M 158
may perform a real M 158
may include a job M 158
may embrace a far M 158
may appoint a man M 158
may support a new M 156
may undergo a few M 154
may produce a man M 154
may present a way M 154
may display a few M 154
may involve a far M 152
may include a man M 151
may prevent a few M 150
may exclude a man M 150
may reflect a weak M 148
may advance a few M 148
may involve a net M 146
may provide a one M 145
may relieve a man M 144
may receive a bad M 144
man pointed a long M 144
man asserts a poet M 144
may attract a man M 142
may require a six M 141
may mistake a year M 141
may survive a year M 140
may satisfy a man M 140
may imagine a being M 139
may exhibit a long M 138
may contain a bug M 138
may acquire a bad M 138
may imagine a poet M 136
may discern a new M 136
may consume a few M 136
man violates a law M 136
may suggest a set M 134
may receive a real M 134
may receive a job M 134
man oppress a weak M 134
may produce a son M 132
may prevent a long M 132
may prepare a meal M 132
may inherit a weak M 132
man married a non M 132
man because i saw M 132
may receive a non M 131
may require a net M 130
may justify a poet M 130
may contain a real M 130
man becomes a boy M 130
man becomes a big M 130
man entered a new M 128
may involve a fear M 127
may receive a long M 126
may present a bit M 126
may possess a weak M 126
may address a few M 126
may acquire a fear M 126
man becomes a being M 126
may produce i can M 124
may clarify a few M 124
man carried a big M 124
man assumed a new M 124
may proceed a few M 122
may execute a new M 122
may attempt a new M 122
may suggest a fear M 120
may receive a net M 120
may receive a death M 120
may produce a fear M 120
may acquire a set M 120
man outside a bar M 120
may contain a key M 119
may appoint a pro M 119
may reflect a mix M 118
may possess a set M 118
may include a bit M 118
may exhibit a non M 118
mad because i beat M 118
may prevent a too M 117
may prevent a bad M 116
may present a red M 116
may increase a bit M 116
may exhibit a weak M 116
may exhibit a new M 116
may appoint a non M 115
may inspire a man M 114
may declare a new M 114
may contain a weak M 114
may compose a song M 114
man carried a few M 114
man carried a box M 114
man arrived a few M 114
may trouble a man M 112
may publish a new M 112
may protect a man M 112
may prevent a lot M 112
may occasion a man M 112
may initiate a long M 112
may include a real M 112
may collect a lot M 112
may withdraw a bid M 110
may require a big M 110
may produce a bit M 110
may picture a man M 110
may include a ban M 110
may produce a poem M 108
may present a weak M 108
may dictate a new M 108
man uttered a long M 108
may imagine a set M 107
may display a low M 107
man receive a new M 107
may uncover a few M 106
may provide a job M 106
may produce a gap M 106
may possess a long M 106
may exclude a few M 106
may capture a few M 106
may attempt a few M 106
man started a song M 106
may suggest a real M 104
may succeed a new M 104
may present a low M 104
may exhibit a bias M 104
may elevate a man M 104
may proceed a long M 102
may impress a few M 102
may imagine i can M 102
may approve a new M 102
may torment a man M 100
may require a head M 100
may presume i may M 100
may persist a few M 100
man brought a new M 100
man brought a bag M 100
may suggest a pre M 99
may achieve a low M 99
may possess a far M 98
may explain a low M 98
may enhance a man M 98
may embrace a new M 98
may deliver a few M 98
may deceive a few M 98
may present a one M 97
may suggest a weak M 96
may produce a mix M 96
may condemn a few M 96
may brought a new M 96
may achieve a lot M 96
man against a boy M 96
man adopted a son M 96
may include a two M 95
may require a map M 94
may provide a man M 94
may observe a man M 94
may include a bias M 94
may receive a pay M 93
may provide a bias M 92
may perform a new M 92
may occasion a new M 92
may examine a man M 92
may dislike a man M 92
may correct a few M 92
may control a law M 92
may consume a year M 92
man brought a big M 92
may contain a red M 91
may conduct a two M 91
may undergo a new M 90
may require a sum M 90
may produce a dead M 90
may involve a year M 90
may improve a man M 90
may benefit a man M 90
man started a new M 90
mad because i let M 90
may subject a man M 88
may produce a sum M 88
may produce a head M 88
may develop a non M 88
man carries a bag M 88
may suggest a man M 87
may satisfy a few M 86
may provide a near M 86
may involve a pre M 86
man himself i can M 86
may produce a bud M 84
may include a head M 84
may execute a bit M 84
may develop a lot M 84
may develop a head M 84
man occupying a seat M 84
may support a real M 82
may promise a new M 82
may presume a myth M 82
may include a weak M 82
may imagine a long M 82
may compose a new M 82
man acquire a new M 82
may produce a fit M 81
may involve a big M 80
may increase a few M 80
may acquire a red M 80
may receive a two M 60
may request a one M 54
may require a key M 52
may produce a two M 51
may produce a heat M 50
may provide a two M 45
may include a day M 42
may include a box M 42
may require a top M 41
may require a pro M 41
math because i was M 41
may include a key M 40
man commits a sin D 1390
man carried a gun D 1213
may collect a fee D 1022
may receive a tax D 922
may receive a fee D 866
may require a fee D 665
may trigger a new D 612
may appoint a sub D 606
may venture a few D 572
may furnish a new D 508
man pointed a gun D 492
man carries a gun D 486
may incline a man D 442
may presage a new D 414
man detects a law D 412
may provide a tax D 410
man invents a new D 366
may furnish a key D 365
may signify a new D 346
may extract a few D 342
may provoke a new D 340
may provide a cue D 340
may furnish a few D 320
man marries a non D 310
may produce a tax D 280
may prepare a tax D 272
may develop a leak D 272
may contain a thin D 272
may entitle a man D 262
may proceed a gem D 260
may promote a new D 258
may trigger a tax D 248
may express a fear D 248
may produce a thin D 246
may provoke a war D 244
may include a tax D 225
may grumble a bit D 220
may convict a man D 220
may engender a new D 214
may require a tax D 202
may produce a wen D 202
may produce a tear D 190
man strangling a lion D 186
man promise a pig D 184
may include a fee D 183
may include a car D 180
may portend a new D 178
may express a new D 178
may request a fee D 174
may require a seal D 170
may request a tax D 168
may warrant a new D 166
may signify a real D 164
may express a real D 160
may contain a gas D 159
may deposit a sum D 156
may nullify a law D 146
may torture a dog D 140
may trigger a set D 133
man carried a tin D 132
man becomes a liar D 130
may involve a tax D 127
may involve a fee D 126
man commits a bad D 126
man becomes a tax D 126
may develop a thin D 124
may reflect a sex D 118
may produce a hot D 118
man mumbled a few D 118
may include a fax D 114
man planted a fig D 114
may digress a bit D 108
may receive a per D 106
may provoke a few D 106
man betrays a god D 104
may recover a fee D 102
may furnish a way D 102
may collect a tax D 102
man becomes a rat D 101
may trigger a fear D 100
may reflect a lag D 100
may include a thin D 100
man handled a gun D 98
man attacks a lion D 98
may include a hot D 96
may include a gas D 94
may enchant a man D 94
may acquire a fee D 94
man receive th not D 94
man against a gang D 94
may procure a man D 92
man strikes a man D 92
may trigger a long D 90
may provide a ray D 90
may contain a pun D 90
man touched a pig D 90
may stumble a bit D 89
may conduct a pat D 88
man relaxed a bit D 88
may contain a sub D 87
may warrant a few D 86
may retract a bid D 86
may require a thin D 86
may overlap a bit D 86
man blinked a few D 86
may present a neat D 84
may squeeze a few D 82
may prevail i wot D 82
may reserve a few D 80
may produce a peak D 57
