makes it hard to M 113280
makes me want to M 100601
makes me think of M 96646
makes an angle of M 79684
makes the most of M 60083
marks the site of M 54542
makes the sign of M 30354
makes the best of M 29794
makes me feel so M 29342
makes us think of M 28460
maybe it will be M 27996
makes it clear to M 26742
makes me feel as M 24150
makes me sick to M 22156
makes it seem as M 21892
makes us want to M 20332
makes the work of M 19388
marry as soon as M 18837
makes up most of M 18800
makes it look as M 16888
maybe we need to M 16674
match the size of M 16001
makes it clear in M 14416
match the rest of M 14177
makes it what it M 13518
makes us feel the M 13350
marks the birth of M 13034
makes the life of M 12246
makes us what we M 11906
makes the rest of M 11758
match the type of M 11168
makes the cost of M 10776
makes so much of M 10550
makes up part of M 9937
makes no part of M 9418
makes it part of M 9254
maybe as much as M 9026
makes me think it M 8948
marks the line of M 8736
makes it into the M 8204
maybe as many as M 7912
major as well as M 7823
match the name of M 7644
marks the edge of M 7486
makes the meaning of M 7468
maybe the best thing M 7252
makes the role of M 6874
makes no move to M 6691
match the length of M 6615
makes it seem to M 6254
makes me feel the M 6252
maybe the rest of M 6060
marry the girl he M 5886
makes the reading of M 5848
match the rate of M 5710
marks the base of M 5708
maybe we have to M 5698
makes us feel as M 5650
makes it seem so M 5627
marks the rise of M 5482
marks as well as M 5439
maker as well as M 5429
magic as well as M 5405
makes the kind of M 5340
makes me wish to M 5294
makes up much of M 5264
marks the time of M 5248
makes us able to M 5132
makes it clear he M 4994
makes me think he M 4978
marks the work of M 4964
makes us think we M 4794
maybe he will be M 4714
makes the rate of M 4584
makes it worth the M 4508
marks the date of M 4472
makes the case of M 4470
makes it safe to M 4452
marks the dawn of M 4450
makes so many of M 4450
maybe an hour or M 4160
makes it more or M 3888
makes it such an M 3836
makes me think the M 3774
maybe he went to M 3772
makes the heart of M 3772
maybe we will be M 3660
makes the loss of M 3634
match the width of M 3601
makes me think so M 3487
maker is able to M 3424
marks the coming of M 3336
makes the theory of M 3332
makes us look at M 3237
makes it back to M 3234
makes me feel at M 3186
makes it next to M 3150
makes us feel we M 3140
makes the name of M 3126
maybe the only thing M 3116
makes me glad to M 3114
makes the body of M 3112
makes us feel so M 3092
marry the girl of M 3010
makes me feel to M 2994
makes it more of M 2966
maybe it will go M 2938
makes it clear at M 2908
makes me sick at M 2876
match the range of M 2874
makes it into an M 2852
makes the length of M 2814
makes the truth of M 2808
makes it clear the M 2804
makes up what is M 2668
makes me angry to M 2652
makes it just as M 2650
makes as much as M 2644
makes it look so M 2620
makes me kind of M 2612
match the cost of M 2608
makes the fact of M 2606
makes me lose my M 2562
makes the tour of M 2522
mapping is used to M 2504
makes the lack of M 2504
marks so much of M 2502
makes me feel it M 2438
makes an idol of M 2432
maybe the three of M 2424
makes no show to M 2408
makes the form of M 2364
maybe the same thing M 2354
makes no sort of M 2354
makes the risk of M 2350
makes the love of M 2332
makes it none the M 2320
makes it able to M 2318
match the angle of M 2281
marks to show the M 2280
makes the word of M 2240
match as well as M 2235
makes us wish to M 2208
makes the trip to M 2202
makes us ready to M 2192
marry the girl to M 2166
makes the book so M 2164
makes the size of M 2156
makes the trip in M 2132
mapping as well as M 2130
makes me feel my M 2128
makes us feel at M 2114
makes the date of M 2114
maybe as high as M 2082
makes up half of M 2056
makes us feel it M 2054
marks the ending of M 2048
marks the life of M 2018
match the depth of M 2009
marks on some of M 1995
match the kind of M 1972
makes the line of M 1948
makes up what we M 1946
makes it wrong to M 1946
maybe go back to M 1934
makes us part of M 1928
marry as well as M 1919
masks as well as M 1909
makes it kind of M 1902
makes the time of M 1874
makes the goal of M 1842
makes the type of M 1836
makes me able to M 1832
makes the will of M 1830
match the rise in M 1828
makes the call to M 1818
maybe as early as M 1796
makes the ratio of M 1782
marry as early as M 1776
makes my heart to M 1766
marry the heir to M 1752
makes the book of M 1730
magic to make the M 1730
match the best of M 1713
makes no sign of M 1710
marks the loss of M 1683
maybe we want to M 1654
makes us live in M 1650
makes it clear by M 1640
makes up half the M 1626
maybe as soon as M 1624
makes as much of M 1609
makes us think it M 1606
marks at once the M 1600
makes the flow of M 1596
makes me look at M 1596
maybe the size of M 1568
makes the threat of M 1560
makes us think the M 1552
makes it worth it M 1552
makes the mind of M 1550
makes it onto the M 1548
makes it more so M 1540
makes the rule of M 1534
maybe the truth is M 1530
maybe the lack of M 1528
marks the fall of M 1526
marks the tomb of M 1515
makes me think we M 1510
match the term in M 1491
match the case of M 1471
makes the need to M 1468
makes it good or M 1458
match the form of M 1455
makes no note of M 1454
makes the gift of M 1450
makes it hard on M 1438
marks by means of M 1423
makes the face of M 1422
marks the turn of M 1407
match the flow of M 1403
makes the wealth of M 1402
makes no kind of M 1402
makes me sort of M 1396
maybe it will do M 1392
marry as many as M 1384
makes no more of M 1383
marks so many of M 1378
makes us love the M 1372
makes it past the M 1370
makes the test of M 1360
makes us feel in M 1358
magic is there in M 1348
makes the ending of M 1346
maybe he felt he M 1342
makes it less of M 1340
makes the sort of M 1328
makes no odds to M 1328
makes the taking of M 1325
makes no show of M 1322
mapping by means of M 1321
magic by means of M 1320
maybe the best of M 1312
makes the book an M 1308
makes me down to M 1308
makes the angle of M 1304
makes the time go M 1298
makes it only the M 1296
makes it seem the M 1286
marks the time at M 1284
makes my heart sing M 1278
makes us free of M 1266
makes us speak of M 1262
makes the mass of M 1262
maybe the time is M 1254
match to look at M 1254
match the name on M 1250
makes the hair on M 1250
makes the range of M 1244
makes it work is M 1242
makes it over to M 1238
marry it will be M 1234
makes me take the M 1228
makes it fair to M 1226
makes my heart go M 1225
makes the duty of M 1218
makes the list of M 1206
maybe we just do M 1202
marks the union of M 1190
match the data in M 1188
makes it clear as M 1184
maybe be able to M 1176
match as much as M 1176
makes as well as M 1174
makes the work so M 1169
makes us eager to M 1166
makes the good of M 1164
makes the birth of M 1160
makes me dream of M 1156
marry the girl or M 1142
makes the base of M 1126
maybe the kind of M 1122
makes as many as M 1118
makes the need of M 1116
makes it true or M 1116
maybe we will go M 1110
marry the girl in M 1102
makes the union of M 1102
maybe he meant to M 1094
magic is used to M 1093
marks of what is M 1086
makes me look so M 1085
makes of what he M 1082
makes it open to M 1082
makes it ideal as M 1080
maybe he knew the M 1068
match the list of M 1067
marry the lady of M 1064
makes me angry is M 1064
makes the city of M 1060
makes me wild to M 1054
makes it wise to M 1050
maybe the best in M 1036
match the ones in M 1026
makes us free to M 1026
makes so great an M 1023
makes the move to M 1022
makes me bold to M 1020
makes me ready to M 1014
makes it ready to M 1010
makes it feel as M 1009
marks the heart of M 1004
marry as young as M 1002
makes the eyes of M 994
makes it over the M 976
makes the hero of M 974
makes us wary of M 966
makes the giving of M 962
makes the case in M 962
magic as soon as M 962
match the ones on M 961
makes so bold as M 959
maybe he knew he M 958
makes the rise of M 958
match the word in M 956
makes it clear on M 956
maker is trying to M 956
match the work of M 952
makes us know the M 952
maybe he felt the M 948
mapping is said to M 942
makes the fall of M 938
match the wealth of M 928
maybe he came to M 924
match the meaning of M 924
makes the fate of M 922
makes me look as M 922
makes us take the M 918
maybe as late as M 912
mapping is done by M 910
makes us sure of M 910
makes the game so M 907
makes me think my M 900
makes the case so M 896
match the best in M 894
makes the means of M 894
makes the care of M 894
marks as part of M 891
makes the pain of M 890
maybe the four of M 888
makes me eager to M 884
makes us like to M 880
makes it from the M 878
marks the length of M 874
match the look of M 870
makes it clear it M 868
match the word to M 867
makes the play so M 867
match the word on M 863
makes it come to M 862
maybe he will go M 854
marks the depth of M 853
marks the hour of M 851
makes me weep to M 850
marks of fire on M 847
makes us think so M 846
makes the depth of M 846
maker is said to M 846
maybe the loss of M 844
makes me feel in M 840
maybe he knew it M 838
makes of what is M 838
maybe the name of M 836
makes us face the M 832
maybe the word is M 828
maybe we have the M 824
marks the rest of M 822
maxim of buying in M 820
makes us like the M 806
marry the love of M 802
marry the kind of M 798
makes the ideal of M 798
makes the work go M 797
maybe as part of M 792
match the rate at M 792
makes the worth of M 792
marry me when he M 790
makes me sure of M 788
makes me have to M 788
maker to make the M 788
makes the want of M 784
magic is part of M 778
makes me feel he M 772
makes it seem an M 772
makes us glad to M 768
marry the sons of M 758
marks of truth in M 758
makes us turn to M 758
makes the text of M 758
maybe the best we M 756
makes up some of M 754
makes the back of M 752
makes us think in M 747
marks of tears on M 744
makes the acts of M 744
marks the last of M 742
maybe as good as M 734
maybe we were in M 732
marry me when we M 728
makes me hate the M 724
marks of such an M 721
maybe in time he M 720
makes me love the M 720
makes us seem to M 718
makes it true to M 718
makes the coming of M 716
marks the range of M 713
makes me part of M 710
makes it live in M 709
maybe he will do M 708
maybe we were the M 706
makes it among the M 706
marks the ends of M 705
makes the same thing M 704
maybe he meant it M 702
makes the game of M 702
makes it like the M 702
makes me sick is M 700
makes the dream of M 694
makes us lose the M 690
maybe he said it M 688
maybe go down to M 688
makes an angle to M 686
maybe he used to M 682
makes the core of M 676
makes me keep my M 676
makes it want to M 676
makes us love it M 674
marks to make the M 673
marry the girl if M 672
makes so much in M 672
maker is free to M 672
magic is said to M 671
makes the width of M 670
major or even the M 670
makes the great thing M 666
makes it hard or M 666
makes me just as M 662
makes the link to M 660
makes us come to M 656
makes the heart to M 656
makes us wish we M 652
makes it good to M 652
marks the best of M 650
marry the heir of M 648
magic to make it M 648
match the mode of M 646
mapping is done in M 646
makes us sons of M 646
maybe he made it M 642
match as soon as M 642
marks the home of M 641
match the word or M 636
marks of some of M 636
makes my life so M 636
makes so deep an M 634
makes it seem at M 634
makes us call it M 632
maybe he felt it M 630
marks to have the M 630
makes me feel an M 628
makes it sort of M 624
makes the body or M 622
marks of what he M 620
makes the body the M 614
makes it clear we M 614
match the term on M 611
match the time of M 610
match the need of M 608
match the name in M 606
makes it ideal to M 606
makes us dream of M 598
makes the city the M 598
makes me sick of M 598
marks of what we M 594
makes the view of M 594
makes us think he M 592
makes me look up M 592
makes it true is M 590
marks the face of M 589
makes the edge of M 588
makes it fast to M 588
makes the play of M 584
maybe an hour of M 582
marks the size of M 582
mapping of some of M 582
makes the realm of M 582
makes it full of M 582
marks the time in M 580
match is said to M 577
maker of some of M 576
makes me sick in M 574
makes it cease to M 574
match to fire the M 573
match is used to M 571
maxim or rule of M 568
match the load to M 568
mapping it onto the M 568
marry or even to M 566
match the ratio of M 565
maybe the lord is M 562
makes the road to M 562
makes me more of M 562
makes in trying to M 562
match is made by M 560
makes me turn to M 560
makes it feel so M 559
major as soon as M 559
maybe it runs in M 556
makes the plan of M 556
makes us find no M 554
makes the rain to M 554
marks on many of M 550
makes the hope of M 550
makes the peace of M 546
makes the city an M 546
marry the best of M 544
marks of love in M 538
match the blue of M 536
match the ends of M 534
makes the ideas of M 534
makes us talk of M 530
makes the time to M 530
maybe the same as M 528
maybe an hour to M 528
makes us look on M 527
maybe it used to M 524
makes me hold my M 524
makes me call to M 524
marks the road to M 523
makes me like the M 522
makes the hole in M 520
marks the core of M 519
makes it hard is M 518
makes us look to M 516
magic as part of M 516
marry me just to M 510
makes the part of M 510
makes the ends of M 510
match to find the M 509
marry the girl at M 508
makes us call the M 508
makes the best in M 508
match the text in M 506
makes it also an M 504
makes the mode of M 502
match the body of M 497
marks the exit of M 497
mapping is used in M 497
makes it ever so M 496
maybe it just is M 494
makes us fall in M 491
maybe the last of M 490
mapping of data to M 490
makes me feel we M 488
magic to keep the M 488
makes us into the M 486
makes the work in M 486
makes the land of M 486
makes the last of M 484
makes me angry at M 484
makes it work in M 484
makes an ally of M 484
makes the work an M 482
makes it worth my M 482
marks the name of M 481
makes the bell ring M 480
maybe in time we M 478
maybe go over to M 478
makes the body to M 478
makes the days of M 476
makes me wish the M 476
makes it also the M 476
magic as much as M 476
makes the unit of M 474
makes the heads of M 472
makes me sick the M 472
marry the young king M 470
marry me even if M 470
makes us give up M 470
makes me look on M 469
makes us fail to M 468
makes it move in M 468
marks the kind of M 467
makes it work so M 467
makes me wish it M 466
makes me open my M 466
maybe he came in M 464
makes me turn my M 464
maybe he left it M 462
maybe as well to M 462
marry or leave the M 462
makes us free is M 462
makes us bold to M 462
makes me like it M 462
makes as good an M 462
maybe if some of M 458
match the part of M 457
match the fall in M 457
maybe he heard the M 456
match the life of M 456
match the edge of M 455
makes me seem to M 454
masks as part of M 452
makes the site of M 452
makes me wish we M 452
maybe the baby is M 450
makes us open to M 450
makes us feel to M 450
marks as soon as M 449
makes me dread an M 448
maybe he used the M 446
makes the case the M 446
maker as much as M 446
makes me less of M 444
makes me cold to M 444
marry it must be M 440
makes me wary of M 440
makes me speak of M 440
marks of years of M 438
mapping of areas of M 438
makes us more or M 436
makes the root of M 436
match the loss of M 435
makes the heart so M 435
marks of what it M 434
makes us think at M 434
maybe the last thing M 432
makes the self the M 432
makes it rise in M 432
makes it like an M 432
marks the file as M 430
makes it more to M 430
makes it less so M 430
match the term to M 429
makes my heart so M 427
maybe my life is M 426
match the ideal of M 424
makes it just the M 424
magic to turn the M 424
makes as part of M 422
marks as well the M 421
maybe the same is M 420
makes the faith of M 420
makes no call on M 420
maybe the cost of M 418
maybe if there is M 418
match is made in M 418
makes the tale of M 418
makes the body an M 418
makes or deals in M 418
makes it down to M 418
marry the sort of M 416
maybe he left the M 414
makes us view the M 414
makes me think on M 414
makes me miss my M 414
mapping the range of M 413
marks the hand of M 412
mapping as part of M 412
match the date of M 410
marry the girl as M 410
marks the text as M 409
maybe to make up M 408
maybe the threat of M 408
makes us seek the M 406
makes the home of M 404
makes by means of M 404
makes an ideal of M 404
makes it work as M 403
maybe we have no M 402
makes it cult to M 402
maybe he gave it M 400
mapping the road to M 400
makes me dread the M 400
makes the pain go M 398
maybe he made the M 396
marks as much as M 396
marks he made on M 395
masks to hide the M 392
marry my body to M 392
makes it rise up M 392
maybe he fell in M 391
mapping the flow of M 391
makes as clear as M 391
maybe we need an M 390
major by means of M 390
magic at work in M 390
maybe we will do M 388
maybe an hour at M 388
match the data of M 388
makes the third of M 388
maybe we think we M 386
marks of life in M 386
makes the heart go M 386
makes me live in M 386
marks the part of M 385
makes the turn of M 382
maybe my mind is M 380
match to those of M 380
makes me come to M 380
makes us good or M 378
makes the heart sing M 378
makes it look to M 378
maybe to make it M 376
maybe the girl is M 376
match the term of M 376
marry me when the M 376
makes the hair of M 376
makes me hope to M 376
makes the hour of M 374
makes it fall in M 373
marks the term of M 372
makes us hate the M 372
match the line of M 370
maker is ready to M 370
makes the city so M 368
marks the site at M 367
maybe he meant the M 366
match the fury of M 366
match or fail to M 366
marks as high as M 366
makes me give up M 366
makes it true in M 366
match it must be M 362
marks the fact of M 362
marks the book as M 362
marks of ideas in M 362
makes the call of M 362
magic to stop the M 361
maybe in some of M 360
makes the case as M 360
masks as much as M 358
marry the lady in M 358
makes me sore to M 358
maybe we were on M 356
makes the ways of M 354
makes me speak in M 354
major is said to M 354
marks the sign of M 353
maybe the third or M 352
match the west in M 352
makes it idle to M 352
makes the sons of M 350
marks the angle of M 349
maybe the need to M 348
marks the side of M 348
makes me talk to M 348
makes us sick to M 346
makes the book as M 346
marks the back of M 345
match the ones we M 344
marks to keep the M 344
makes us feel an M 344
makes me stay in M 344
makes it slow to M 344
maybe he said he M 342
makes me hope it M 342
maybe it made me M 340
maybe he just is M 340
mapping the site of M 340
makes us grow in M 340
makes up what he M 340
maxim is true in M 338
masks the lack of M 338
marks the body of M 338
marks the tail of M 337
makes the land so M 337
match the text of M 336
marry the girl on M 336
makes the self an M 336
maybe we have an M 334
mapping it into the M 334
makes us cease to M 334
makes the good or M 334
major to take the M 334
marks the work as M 333
maybe in five or M 332
match the data on M 332
masks the ways in M 332
marks to make it M 332
makes us look up M 332
makes it have the M 332
makes us seek to M 330
makes so much the M 330
maker as soon as M 330
maybe he died of M 328
makes the room so M 328
makes the jump to M 328
makes it best to M 328
marks it left on M 327
magic is seen as M 327
marks in most of M 326
makes me miss the M 326
makes so much as M 325
marks of time in M 324
makes me love my M 324
makes the face to M 322
makes me seem so M 322
mapping is done on M 321
maybe he kept it M 320
marks the type of M 320
makes us slow to M 320
makes me like to M 320
makes me hope he M 320
maker of such an M 320
marks the lack of M 319
match the name to M 318
marks the date at M 318
makes me into an M 318
match is made of M 317
maybe in three or M 316
marks the goal of M 316
makes us sick or M 316
makes us know we M 316
makes the cost to M 316
makes the heart the M 314
makes the best he M 314
makes me keep the M 314
makes it just so M 314
marks in some of M 313
maybe the love of M 312
masks in case of M 312
marry the lady he M 312
marks the flow of M 312
makes me more in M 312
marry or live in M 310
marks the days of M 310
marks of anger or M 310
makes it such as M 310
maybe the time to M 308
makes us rich in M 308
makes the duty to M 308
makes me yearn to M 308
maybe the meaning of M 306
marks in fact the M 306
mapping the areas of M 306
makes us miss the M 306
makes the pass to M 306
makes in from the M 306
maker to have the M 306
makes me full of M 304
makes it home to M 304
maker the good or M 304
magic is used in M 304
match is hard to M 303
makes us yearn to M 302
makes the town of M 302
makes the threat to M 302
makes the book the M 302
makes me weary of M 302
makes me fall in M 301
maybe we need the M 300
makes the mind the M 300
makes the data of M 300
makes the data in M 300
makes no break in M 300
makes it stay in M 300
maybe the moon is M 298
maybe the book is M 298
marks the line at M 298
makes the turn to M 298
makes no mark on M 298
makes me want it M 298
makes me talk of M 298
magic of some of M 298
maybe he told the M 296
marks to help the M 296
marks to find the M 296
marks an item to M 296
makes the side of M 296
makes the gain of M 296
makes me wake up M 296
match an item in M 294
masks the role of M 294
marry as much as M 294
makes the best king M 294
makes me take my M 294
makes me need to M 294
makes it ideal in M 294
makes it great is M 294
maybe my luck is M 292
makes the last to M 292
makes the case an M 292
makes me speak so M 292
maker to take the M 292
maker or user of M 292
maker of what is M 292
maker be able to M 292
maybe the life of M 290
match the cell to M 290
match it will be M 290
marks of love to M 290
makes the odds of M 290
makes me think in M 290
makes an angle at M 290
magic of love is M 290
maybe the time of M 288
maybe it means the M 288
marry is part of M 288
makes me love it M 288
makes at once the M 286
marry or give in M 285
marks the site on M 285
marks on most of M 284
makes us have to M 284
makes the will to M 284
makes it seem no M 284
maker to whom the M 284
match as part of M 283
match the face of M 282
match is held to M 282
makes us more of M 282
makes us dread the M 282
makes me hope the M 282
makes it seem in M 282
maybe the wind is M 280
maybe the pain of M 280
maybe go into the M 280
match in size the M 280
makes me dare to M 280
makes an angle the M 280
marks the ways in M 279
maybe the fact of M 278
match the trim of M 278
match the role of M 278
marks the love of M 278
makes the same as M 278
makes the areas of M 278
magic is making me M 278
marks the time to M 277
marks the break in M 277
makes no more to M 276
makes me wish he M 276
makes me talk in M 276
makes me take up M 276
makes me rage to M 276
maker by means of M 276
match the data to M 275
match is made up M 274
match if there is M 274
makes the male the M 274
makes it take the M 274
makes it grow in M 274
makes in some of M 274
match is held in M 273
maybe the part of M 272
maybe at last he M 272
match the work to M 272
makes the word to M 272
makes the trial of M 272
makes the moon to M 272
makes me walk on M 272
makes me free to M 272
match the line to M 271
maybe the means of M 270
match the rise of M 270
marks the mind of M 270
marks of time on M 270
makes us react to M 270
makes us look in M 270
makes us loath to M 270
makes up only the M 270
makes the term of M 270
marks the time by M 269
maybe he died in M 268
marks the word as M 268
makes up more of M 268
makes up from the M 268
makes me think as M 268
makes us feel he M 266
makes the theft of M 266
makes me take it M 266
match the feel of M 265
makes us only the M 264
makes the case to M 264
makes me good at M 264
makes it worth so M 264
makes as great an M 264
marks the turn to M 263
makes me feel no M 263
makes as much or M 263
masks to keep the M 262
marry me just as M 262
makes us take an M 262
makes us love to M 262
makes us great in M 262
match as many of M 261
marks the youth of M 260
makes to speak of M 260
makes the same or M 260
makes the life in M 260
makes the beast of M 260
makes me hate it M 260
maybe he told me M 258
maxim is true of M 258
marks the role of M 257
makes us seem so M 257
maker is seen as M 257
maybe the truth of M 256
maybe the role of M 256
maybe he heard me M 256
makes the body as M 256
makes it rich in M 256
match the areas of M 255
marks the date on M 255
marry the lord of M 254
marks the turn in M 254
makes us know it M 254
magic of life is M 254
marks the gift of M 253
magic to help the M 253
maybe it came to M 252
marks the want of M 252
marks the form of M 252
makes the play an M 252
makes no nest of M 252
makes me only the M 252
marks the verb as M 251
maybe the next thing M 250
match the sort of M 250
mapping of most of M 250
makes us look as M 250
makes the other an M 250
makes so clear the M 250
makes no show in M 250
magic to cure the M 250
makes the ship go M 249
maybe the type of M 248
makes me dread to M 248
makes it good in M 248
makes it turn on M 247
marks the width of M 246
makes us want the M 246
makes the mixing of M 246
makes the lord of M 246
makes the evil of M 246
makes the best tea M 246
makes the baby go M 246
makes it take on M 246
maker of what he M 246
magic is full of M 245
match the other in M 244
match the mass of M 244
makes us full of M 244
makes the third in M 244
makes me hope we M 244
makes me feel on M 244
magic of what is M 244
marks the meaning of M 243
maybe it means we M 242
marks is used to M 242
makes the pair of M 242
makes the hand of M 242
makes me more so M 242
makes to what is M 241
match the sign of M 240
makes us free in M 240
makes us feel is M 240
makes the bank of M 240
makes me look to M 240
makes it just to M 240
makes it fall on M 240
makes us just as M 239
maybe to pick up M 238
maybe the pain is M 238
maybe my lack of M 238
maybe as well as M 238
match to blow up M 238
match the goal of M 238
marks the root of M 238
makes the word an M 238
makes me just at M 238
match to make it M 237
match by means of M 237
makes is like the M 237
marks of many of M 236
mapping the ways in M 236
makes us holy by M 236
makes me angry or M 236
marks to give the M 235
marry as late as M 234
makes me know it M 234
makes me call it M 234
makes it down the M 234
maybe to look at M 232
maybe the work of M 232
maybe he went up M 232
match the item in M 232
marry to live in M 232
makes us rely on M 232
makes the work as M 232
makes the healing of M 232
makes the gift to M 232
makes the call on M 232
major to come to M 232
maybe to keep the M 230
maybe the work is M 230
maybe it meant he M 230
maybe he heard it M 230
maybe he gave me M 230
maybe as young as M 230
marry at such an M 230
makes us stop to M 230
makes the saving of M 230
makes us pity the M 228
makes up what the M 228
makes the rise in M 228
makes the port of M 228
makes the land in M 228
makes the dream so M 228
makes me leave the M 228
makes me dread it M 228
makes of some of M 227
maybe the length of M 226
maybe the goal is M 226
maxim of duty by M 226
match the fact of M 226
match the dream of M 226
masks of wood or M 226
marry as fast as M 226
marks of what the M 226
maker of seed in M 226
match is made on M 225
maybe he lost it M 224
match is made to M 224
marry so early or M 224
makes us think as M 224
makes the most he M 224
makes the book in M 224
makes the past so M 223
makes is part of M 223
maybe it went to M 222
maybe he sees the M 222
maybe he means the M 222
match the risk of M 222
match the code in M 222
match is made the M 222
makes up such an M 222
makes to meet the M 222
makes the wind to M 222
makes the text in M 222
makes the mind to M 222
makes it will be M 222
makes it take up M 222
maker is also the M 222
magic to find the M 222
maybe he gave up M 221
marks we make on M 221
marks the coming to M 221
marks is used in M 221
makes the show so M 221
match the aims of M 220
makes the talk of M 220
makes the past an M 220
makes the fire in M 220
makes me want the M 220
makes me love to M 220
magic in some of M 219
maybe to take in M 218
maybe in need of M 218
maxim to speak my M 218
marry the girl by M 218
marks of want of M 218
marks it from the M 218
makes us face up M 218
makes the will the M 218
makes the home the M 218
makes the health of M 218
makes the feet of M 218
makes my work so M 218
makes me hate my M 218
makes it look at M 218
maker to come to M 218
makes me know my M 216
makes it work or M 216
makes it look the M 216
maker to have an M 216
marks to mark the M 215
marks the site as M 215
marks the play as M 215
marks the giving of M 215
marks he left on M 215
maxim is said to M 214
match the text to M 214
makes me stop to M 214
magic ring from the M 214
marks the time as M 213
makes the land as M 213
maybe in time the M 212
mapping of what is M 212
mapping of part of M 212
makes the maid to M 212
makes me know the M 212
magic to kill the M 212
makes it half as M 211
marks or more in M 210
mapping is used as M 210
makes me envy the M 210
makes it what is M 210
marks the realm of M 209
marks the making of M 209
maybe the game is M 208
maybe he gave the M 208
marry so soon as M 208
marks of fire in M 208
makes us take it M 208
makes to some of M 208
makes it rise to M 208
match the truth of M 207
marks the user as M 207
makes is made in M 207
match the data at M 206
masks by means of M 206
marry as part of M 206
marks of feet in M 206
mapping is part of M 206
makes the gift is M 206
makes me lose the M 206
marks to meet the M 204
mapping the data to M 204
mapping of keys to M 204
makes us kind of M 204
makes the spring of M 204
makes the mark of M 204
makes me feel is M 204
makes it turn to M 204
magic is just the M 204
maxim as well as M 203
makes the trip by M 202
makes the land to M 202
makes me sore is M 202
makes it seem of M 202
makes it seem he M 202
makes it much the M 202
maker to make an M 202
maker to know the M 202
maker at work in M 202
magic is able to M 202
makes so good an M 201
maybe the trip to M 200
match to make the M 200
match the size or M 200
marry at once in M 200
makes the living of M 200
makes so clear in M 200
makes it over in M 200
magic to make me M 199
marry the lady to M 198
makes the years of M 198
makes the cure of M 198
makes no move in M 198
makes me talk so M 198
makes it good is M 198
makes an angle in M 198
marks be made on M 197
match the fire of M 196
makes the work the M 196
makes the work at M 196
makes the fire of M 196
makes so fine an M 196
makes me wish my M 196
makes it well to M 196
makes it fall to M 196
makes it back in M 196
marks to those of M 195
maybe the sort of M 194
maybe it means he M 194
match is made or M 194
masks the face of M 194
marks the doom of M 194
mapping is done at M 194
makes us look so M 194
makes the seed of M 194
makes the paths of M 194
makes the mind so M 194
makes the data on M 194
makes my tears to M 194
makes it wrong is M 194
marks the depth to M 193
marks the break of M 193
maybe to make the M 192
maybe the best he M 192
maybe he kept the M 192
masks as soon as M 192
marks of truth or M 192
makes it true by M 192
makes an item of M 192
makes an idiot of M 192
marry or break up M 191
magic is used by M 191
maybe he sees it M 190
marks on wood or M 190
makes us angry or M 190
makes the turn at M 190
makes me have the M 190
makes me drop my M 190
makes it linger in M 190
makes it hard if M 190
makes it turn in M 189
match the hole in M 188
match the base of M 188
marry the lady as M 188
marry in view of M 188
marks as those of M 188
makes us need to M 188
makes the other the M 188
makes the army of M 188
makes it seek in M 188
makes it must be M 188
major is trying to M 188
match as good as M 187
match to what the M 186
match the wood of M 186
match the ways in M 186
masks the loss of M 186
marry by means of M 186
marry as many of M 186
marks of land by M 186
makes us live the M 186
makes the text an M 186
makes the past the M 186
makes the coding of M 186
makes me sure is M 186
makes it what he M 186
makes it rest on M 186
maker to whom he M 186
makes us jump up M 185
maybe in four or M 184
maxim be true in M 184
match up well to M 184
marks of truth so M 184
marks of more or M 184
makes us find the M 184
makes the tops of M 184
makes the road of M 184
makes the reach of M 184
makes the play the M 184
makes the heart as M 184
makes me such an M 184
makes me hate to M 184
makes me hard to M 184
makes it home in M 184
magic to save the M 184
magic of life in M 184
maybe he went in M 183
marks the truth of M 183
makes to keep the M 183
maybe to stop the M 182
maybe he went on M 182
match the trim on M 182
marry the type of M 182
makes the help of M 182
makes me slow to M 182
maker to find the M 182
makes to leave the M 181
maybe in time to M 180
maybe at last to M 180
match the pair of M 180
match the pain of M 180
marry the girl the M 180
makes us male or M 180
makes us leave the M 180
makes the work to M 180
makes the word the M 180
makes the loss in M 180
makes me angry as M 180
makes it hard in M 180
makes as soon as M 180
match up when the M 179
match up some of M 178
match the theory of M 178
match the ages of M 178
masks to show the M 178
mapping the rest of M 178
makes us think an M 178
makes the look of M 178
makes the blue of M 178
magic of such an M 178
magic is just as M 177
maybe the case in M 176
match the view of M 176
marry the like of M 176
marry or reach the M 176
marks on side of M 176
mapping is from the M 176
makes us good at M 176
makes the step to M 176
makes the jobs of M 176
makes the fire as M 176
makes so much is M 176
makes it more an M 176
makes it feel the M 176
match the ones of M 175
makes or uses or M 175
maybe we have it M 174
maybe an hour in M 174
match the need to M 174
match or even to M 174
marry on pain of M 174
marks of lack of M 174
makes us work so M 174
makes us none the M 174
makes us have the M 174
makes up into the M 174
makes the text the M 174
makes the songs of M 174
makes me seek to M 174
makes it vain to M 174
magic to keep it M 174
makes me keep on M 173
maybe he means it M 172
maxim to keep the M 172
match the ideas of M 172
match the bark of M 172
match or lack of M 172
marks of time or M 172
mapping of much of M 172
makes us sick at M 172
makes the play to M 172
makes the buying of M 172
makes me keep it M 172
makes it come up M 172
maker to give the M 172
maker in case of M 172
maxim to live by M 170
match the form in M 170
marks the zero of M 170
marks is meant to M 170
marks in case of M 170
makes the land the M 170
makes me speak to M 170
makes me loath to M 170
makes it only an M 170
maker he will be M 170
marks the case as M 169
magic is done by M 169
match the reach of M 168
marry the next of M 168
makes us angry is M 168
makes the tree of M 168
makes the move of M 168
makes the mind an M 168
makes so much to M 168
makes me hold it M 168
makes it good by M 168
makes it come so M 168
maybe to some of M 166
match the gift of M 166
marry or take up M 166
marks of wealth in M 166
makes up many of M 166
makes the work on M 166
makes it true of M 166
makes it nice to M 166
makes at once an M 166
maker to look at M 166
major of these is M 166
match at last in M 165
match the span of M 164
masks the truth of M 164
marks to form the M 164
marks as used in M 164
mapping to find the M 164
makes us like it M 164
makes the tail of M 164
makes the body so M 164
makes the body do M 164
makes of life an M 164
makes me think to M 164
makes it rain in M 164
makes it fail to M 164
makes is when he M 164
maybe the name is M 162
maybe in years to M 162
maybe if more of M 162
masks the fact of M 162
marry the lady at M 162
makes us have an M 162
makes the bank the M 162
makes of what it M 162
makes me weary to M 162
makes me burn to M 162
makes it when he M 162
marks the fate of M 161
marks be used in M 161
makes the theory so M 161
makes it rain on M 161
makes it more in M 161
magic of love in M 161
magic is meant to M 161
maybe in time it M 160
maxim of life is M 160
match the view in M 160
match the rating of M 160
match the north in M 160
match the lack of M 160
match the date on M 160
marks the bearing of M 160
marks is part of M 160
makes us want it M 160
makes us rich as M 160
makes the will is M 160
makes the making of M 160
makes the earning of M 160
makes the breath of M 160
makes my heart the M 160
makes me look the M 160
makes me break my M 160
makes it what we M 160
makes it wake up M 160
makes it play the M 160
makes it clear if M 160
maker is part of M 160
marks the rise in M 159
marks in many of M 159
maybe we went by M 158
maybe the back of M 158
marry the hero to M 158
marks the rate of M 158
marks the city as M 158
makes us wake up M 158
makes us sick of M 158
makes no odds in M 158
makes me glad we M 158
makes it speak to M 158
major on duty in M 158
magic to help us M 158
marks it will be M 157
makes it show up M 157
match the blue in M 156
marry if there is M 156
makes us sort of M 156
makes us hope to M 156
makes me wash my M 156
makes me take an M 156
makes the other so M 155
major to reach the M 155
maybe he used it M 154
marry or come of M 154
makes us work to M 154
makes the youth of M 154
makes the three of M 154
makes the naming of M 154
makes me sure it M 154
makes it free to M 154
makes an epic of M 154
maker of part of M 154
maker is used to M 154
magic is only the M 154
marks the years of M 153
maybe we went to M 152
maybe the fate of M 152
mapping in areas of M 152
makes the hero an M 152
makes the heart in M 152
makes me give an M 152
magic of what he M 152
makes us more at M 151
makes me rely on M 151
major is also the M 151
maybe the root of M 150
maybe the dream is M 150
maybe it made the M 150
maybe by means of M 150
maxim in life to M 150
match the worth of M 150
match the unit of M 150
match in size or M 150
marry an heir to M 150
marks he made in M 150
makes us treat it M 150
makes us think is M 150
makes us give to M 150
makes the time in M 150
makes the text so M 150
makes the oaks to M 150
makes the deaths of M 150
makes the body in M 150
makes no nest at M 150
makes me play the M 150
maker as part of M 150
magic to break the M 150
magic is made to M 150
magic is also the M 150
match the thread to M 149
marks the site in M 149
marks the rule of M 149
makes it work on M 149
magic is seen to M 149
magic is seen in M 149
match to what we M 148
marks so well the M 148
makes us keep on M 148
makes us grow up M 148
makes me more or M 148
makes me glad at M 148
makes it much to M 148
makes it good on M 148
magic of what we M 148
makes the body go M 147
maxim is held to M 146
match the drop in M 146
marks the body as M 146
marks of feet on M 146
makes us glad we M 146
makes the step of M 146
makes the poor the M 146
makes the mind as M 146
makes the hold of M 146
makes me warm to M 146
magic to make us M 146
match as many as M 145
mapping to show the M 145
makes to spring up M 145
magic of making the M 145
maybe the years of M 144
marks on back of M 144
marks in time of M 144
mapping is used by M 144
makes us weary of M 144
makes the west the M 144
makes the thread of M 144
makes the other to M 144
makes no odds at M 144
makes me hope so M 144
makes me have an M 144
makes it such is M 144
maker to make it M 144
match the face to M 143
marks to show it M 143
magic is hard to M 143
match to burn the M 142
match the look in M 142
marry the girl is M 142
marry or have an M 142
marks so great an M 142
marks at base of M 142
mapping is also an M 142
mapping is able to M 142
makes us meet to M 142
makes the form in M 142
makes the days go M 142
makes the aims of M 142
makes me keen to M 142
makes it only to M 142
major as part of M 142
match the fire in M 141
makes the trip up M 141
maybe the making of M 140
maybe the main thing M 140
match the hair on M 140
marry so late in M 140
marks the noun as M 140
marks is said to M 140
mapping is done to M 140
makes us reach the M 140
makes us have of M 140
makes the poems of M 140
makes the other thing M 140
makes the gift in M 140
makes the city in M 140
makes me have no M 140
makes it high in M 140
maker to take it M 140
maker to meet the M 140
marks to pass the M 139
makes us hold on M 139
maybe the hand of M 138
maybe it made it M 138
marry the girl we M 138
marry at once or M 138
marks the time on M 138
mapping of form to M 138
makes us glad in M 138
makes us find it M 138
makes the trip at M 138
makes the town so M 138
makes the date the M 138
makes the cult of M 138
makes the best or M 138
makes me sure he M 138
makes me walk in M 137
makes me come in M 137
magic the name of M 137
match to some of M 136
match the type in M 136
match the time on M 136
match the hair of M 136
marry so much as M 136
marks to know the M 136
makes the urge to M 136
makes the union the M 136
makes the trip on M 136
makes the note of M 136
makes no will at M 136
makes it seek to M 136
makes it hard at M 136
makes in fact the M 136
makes me work so M 135
maybe he means to M 134
maxim to keep in M 134
maxim of what is M 134
maxim of life as M 134
match the side of M 134
match the sets of M 134
masks the meaning of M 134
marry or take to M 134
makes us live by M 134
makes us feel or M 134
makes up half or M 134
makes the play on M 134
makes the mind go M 134
makes the bearing of M 134
makes me think at M 134
makes it like to M 134
maker to view the M 134
maker in making the M 134
makes us stay in M 133
maybe the poor thing M 132
match to fire it M 132
match the list in M 132
match it from the M 132
masks the view of M 132
marry me just the M 132
marks the play of M 132
marks be used to M 132
makes us wish the M 132
makes the good to M 132
makes me think is M 132
makes me draw my M 132
makes it work to M 132
makes it bend or M 132
makes he upon the M 132
marks the need to M 131
marks of toil on M 131
makes is said to M 131
maybe the past is M 130
maybe he meant he M 130
maybe he knew we M 130
marry the lady or M 130
marry me when it M 130
marks the form in M 130
marks of beating on M 130
makes us wish he M 130
makes us turn the M 130
makes us like or M 130
makes up what it M 130
makes the seed to M 130
makes the play at M 130
makes the more he M 130
makes the food it M 130
makes the book at M 130
makes the arms of M 130
makes my mind go M 130
makes my life as M 130
makes me speak my M 130
makes me speak it M 130
makes it hurt so M 130
makes it heavy to M 130
maker to whom it M 130
makes us live on M 129
makes the case no M 129
makes me weep as M 129
maxim of some of M 128
maxim of making the M 128
maxim is used in M 128
match the means of M 128
match it even in M 128
match is seen in M 128
marry or move in M 128
marks the same as M 128
marks of most of M 128
makes us holy in M 128
makes us free by M 128
makes the wars of M 128
makes the term in M 128
makes the stem of M 128
makes the south the M 128
makes the rest to M 128
makes the lord to M 128
makes no mark the M 128
makes me tell my M 128
makes me none the M 128
makes me more at M 128
makes me deem it M 128
makes it stay up M 128
makes so many go M 127
makes as much in M 127
magic to open the M 127
maybe he came up M 126
maxim we have to M 126
maxim to seek the M 126
match the verb to M 126
match the ones he M 126
masks to make the M 126
marks the item as M 126
marks the date in M 126
marks of land in M 126
mapping of many of M 126
makes us speak in M 126
makes the wood of M 126
makes the most in M 126
makes the laying of M 126
makes the deep to M 126
makes no part in M 126
makes me sore as M 126
makes me seek the M 126
makes it worth an M 126
maker is left to M 126
major is used to M 126
maybe he grew up M 125
maybe the half of M 124
match the wits of M 124
marks the tops of M 124
marks it down as M 124
makes the rush of M 124
makes the poor of M 124
makes the hearing of M 124
makes the arch of M 124
makes my days so M 124
makes me into the M 124
makes me face the M 124
makes it flow in M 124
makes at such an M 124
makes as fine an M 124
maker of many of M 124
match to keep the M 123
marks the mode of M 123
makes the term so M 123
match the will of M 122
match the rest in M 122
match the name or M 122
match the back of M 122
masks the pain of M 122
masks in some of M 122
marry so early as M 122
marry in case of M 122
marks to work on M 122
marks the time the M 122
marks the site to M 122
marks the rise or M 122
makes us take up M 122
makes us hard to M 122
makes the user of M 122
makes the same no M 122
makes the home an M 122
makes the bird so M 122
makes it less an M 122
maker of poems in M 122
match the data as M 121
marks the page as M 121
marks the line as M 121
makes in coming to M 121
magic to help me M 121
maybe we think it M 120
maybe we like to M 120
maybe the edge of M 120
maybe an hour on M 120
match is held at M 120
match as much of M 120
marks to have my M 120
marks the line on M 120
marks the city of M 120
marks or part of M 120
marks or dots on M 120
marks of truth as M 120
marks at ends of M 120
makes to take the M 120
makes to live in M 120
makes the link in M 120
makes the hall of M 120
makes on what he M 120
makes me stop in M 120
makes me open to M 120
maker to think in M 120
major or even an M 120
magic to work on M 119
maybe to make me M 118
maybe to give the M 118
maxim of ours as M 118
maxim as true as M 118
marry or join the M 118
marks the rise to M 118
marks of four or M 118
marks as those on M 118
makes us find in M 118
makes the show of M 118
makes the gods in M 118
makes me pull up M 118
makes me pick up M 118
makes me keep to M 118
makes me give the M 118
makes it prior to M 118
makes it only in M 118
makes it hard as M 118
makes it good as M 118
major as early as M 118
marks the ruin of M 117
makes the range so M 117
maybe we were so M 116
maybe the fifth or M 116
maybe the birth of M 116
maybe it leads to M 116
maybe it fell on M 116
match the text on M 116
match the gray of M 116
masks the need to M 116
marry the ideas of M 116
marry is made by M 116
marks to tell the M 116
mapping of data in M 116
mapping of bits to M 116
mapping it onto an M 116
makes us just or M 116
makes up only an M 116
makes to help the M 116
makes the ruin of M 116
makes the moon the M 116
makes the item of M 116
makes no move at M 116
makes me take to M 116
makes me glad of M 116
makes it tell the M 116
makes it sure to M 116
makes it just or M 116
makes it come the M 116
maybe the days of M 114
maybe my body is M 114
maybe it meant the M 114
maybe do some of M 114
match the beating of M 114
marry to live on M 114
marry the maid of M 114
marry so early in M 114
marry me when my M 114
makes us glad of M 114
makes to find the M 114
makes the poor in M 114
makes the load on M 114
makes me swear to M 114
makes me once or M 114
makes me lord of M 114
makes it hold up M 114
magic is made by M 114
makes me weep so M 113
magic he used to M 113
maxim or rule in M 112
match up well in M 112
match to what is M 112
marry or fall in M 112
marry at once the M 112
marks to line up M 112
marks to help us M 112
marks the hour by M 112
mapping the role of M 112
mapping the paths of M 112
makes us live as M 112
makes up three of M 112
makes to what he M 112
makes to think of M 112
makes the town an M 112
makes the life or M 112
makes the dash of M 112
makes of what we M 112
makes my case so M 112
makes me vain of M 112
makes me tell the M 112
makes me look in M 112
makes it work by M 112
makes it work at M 112
makes it three to M 112
makes it even the M 112
makes it eager to M 112
maker we heard of M 112
maker to keep the M 112
magic is what is M 112
match the threat of M 111
marks the span of M 111
marks of faith in M 111
makes the site so M 111
makes or buys the M 111
maybe the wise no M 110
match the songs of M 110
match the loss in M 110
match the gain of M 110
masks of some of M 110
marry the rest of M 110
marks the move to M 110
makes us treat the M 110
makes us sure we M 110
makes us rich or M 110
makes the pull of M 110
makes the having of M 110
makes the fish so M 110
makes the fifth in M 110
makes the dogs go M 110
makes the debt of M 110
makes no room in M 110
makes my rate of M 110
makes me break the M 110
makes me bold in M 110
makes it what the M 110
makes it turn the M 110
makes it life to M 110
makes it into my M 110
makes in what he M 110
makes as high as M 110
makes an army of M 110
makes an angel of M 110
maker to think of M 110
maker of most of M 110
makes me work on M 109
maybe we were at M 108
maybe he woke up M 108
maybe he lost the M 108
match the line on M 108
match of wits in M 108
marry as among the M 108
makes us sick in M 108
makes up life in M 108
makes the truth or M 108
makes the note in M 108
makes the gods to M 108
makes the gain on M 108
makes the case on M 108
makes me think if M 108
makes it wrong in M 108
makes it grow the M 108
magic of reading in M 108
magic go hand in M 108
marks the tale of M 107
makes the past as M 107
maybe it held the M 106
maybe in half an M 106
maybe he sees me M 106
maxim is used to M 106
match the face in M 106
match the case in M 106
marry or take the M 106
makes we want to M 106
makes us stop in M 106
makes us pray to M 106
makes the saying of M 106
makes the room ring M 106
makes the food of M 106
makes me wish so M 106
makes me lift my M 106
makes me leave my M 106
makes me just the M 106
makes me glad in M 106
makes me find the M 106
makes me cast my M 106
makes it cost so M 106
magic of type the M 106
match is part of M 105
marks on bits of M 105
maybe the lady is M 104
maybe the case is M 104
maybe it lies in M 104
match the years of M 104
match the army of M 104
marks to make up M 104
marks the spring of M 104
marks it also in M 104
marks as aids to M 104
mapping is many to M 104
makes us such as M 104
makes us ready by M 104
makes us feel by M 104
makes us dread to M 104
makes up much the M 104
makes the sign to M 104
makes the face the M 104
makes no threat to M 104
makes me walk so M 104
makes me rich in M 104
makes me much the M 104
makes me angry by M 104
makes it warm in M 104
makes it lose the M 104
makes it good at M 104
major to whom he M 104
match the bits of M 103
makes the game go M 103
maybe to talk to M 102
maybe the look on M 102
match the test to M 102
match the fall of M 102
match is made at M 102
marry the next in M 102
marks the view of M 102
marks the line to M 102
marks it left in M 102
mapping we wish to M 102
makes us keep the M 102
makes us join in M 102
makes the wish to M 102
makes the span of M 102
makes the play as M 102
makes the name to M 102
makes no odds if M 102
makes me speak as M 102
makes me much to M 102
makes it wish to M 102
makes it seem it M 102
makes it love the M 102
makes is from the M 102
makes an open or M 102
major we speak of M 102
match the ones the M 101
match the eyes of M 101
marks the areas of M 101
makes it move on M 101
maybe to take the M 100
maybe the girl in M 100
maybe my name is M 100
match the time it M 100
match the look on M 100
match or turn on M 100
marry me only to M 100
marks the town of M 100
marks of date or M 100
mapping we need to M 100
makes us think or M 100
makes us shut it M 100
makes us bold in M 100
makes to reach the M 100
makes to have the M 100
makes the most or M 100
makes the hero or M 100
makes the game an M 100
makes the deed of M 100
makes me walk as M 100
makes it move to M 100
makes it mine by M 100
makes it like no M 100
major is used in M 100
marks the form as M 99
makes me hold on M 99
magic be used to M 99
maybe the room is M 98
maybe on some of M 98
maybe he just do M 98
maybe at last we M 98
match the seed of M 98
match the love of M 98
match the book to M 98
match of three or M 98
masks he puts on M 98
marry the pair of M 98
marry so young as M 98
marks the mind as M 98
marks is made to M 98
marks do meet in M 98
marks at once of M 98
makes us wish it M 98
makes us walk in M 98
makes us wait to M 98
makes us sick is M 98
makes us rise to M 98
makes us give the M 98
makes us draw the M 98
makes the very thing M 98
makes the third or M 98
makes the tale so M 98
makes the self of M 98
makes the post of M 98
makes the pain in M 98
makes the note is M 98
makes the load of M 98
makes the ideas in M 98
makes the exit of M 98
makes no show on M 98
makes me sure we M 98
makes me know he M 98
makes it worth to M 98
makes it burn the M 98
maker is next to M 98
magic to gain the M 98
magic is only in M 98
match is used in M 97
makes the word so M 97
magic to give it M 97
maybe the pain in M 96
maybe in trying to M 96
match to show the M 96
match the angle at M 96
masks the range of M 96
marry in time to M 96
marks the sort of M 96
marks the site is M 96
marks of pain on M 96
mapping of sets of M 96
mapping of data on M 96
mapping of areas in M 96
makes us hope it M 96
makes us holy is M 96
makes us beings of M 96
makes the past of M 96
makes the norm of M 96
makes the fire to M 96
makes the case at M 96
makes no gift of M 96
makes me stay at M 96
makes me hold the M 96
makes me clean my M 96
maker as early as M 96
major or from the M 96
marks as early as M 95
major to make the M 95
magic in what he M 95
maybe to have the M 94
maybe the best is M 94
maybe as great as M 94
maxim of such an M 94
match the work in M 94
match the line at M 94
match the food to M 94
match of love or M 94
match in time to M 94
masks the hurt of M 94
masks is used to M 94
marry at once if M 94
marks the data as M 94
marks the cell as M 94
makes us poor in M 94
makes us meet at M 94
makes the union an M 94
makes the town the M 94
makes the text on M 94
makes the text as M 94
makes the lord the M 94
makes the lake the M 94
makes the fact the M 94
makes the break in M 94
makes no sign in M 94
makes my body so M 94
makes it speak the M 94
makes it leave the M 94
makes it great to M 94
makes is means to M 94
makes in view of M 94
maker to make me M 94
magic is prior to M 94
magic in making the M 94
mapping it into an M 93
makes as many of M 93
maybe the very thing M 92
maybe the door is M 92
maxim is part of M 92
match the uses of M 92
match the dots on M 92
match of work to M 92
masks the depth of M 92
marks us from the M 92
marks the ways of M 92
marks the move of M 92
marks if there is M 92
marks by some of M 92
makes us when we M 92
makes us deny the M 92
makes to rise by M 92
makes to open the M 92
makes to draw the M 92
makes to come to M 92
makes the word or M 92
makes the wind on M 92
makes the toil of M 92
makes the gate of M 92
makes the coat of M 92
makes the best the M 92
makes on some of M 92
makes me weep in M 92
makes me live my M 92
makes me hope my M 92
makes me free of M 92
makes me find my M 92
makes it spring up M 92
makes it free of M 92
makes it cost an M 92
makes in fact no M 92
makes an arch of M 92
maker to rely on M 92
maker or from the M 92
magic of love to M 92
match or line up M 91
marks the text of M 91
marks the taking of M 91
makes the time so M 91
makes the bird sing M 91
magic to those of M 91
magic is used as M 91
maybe we have so M 90
maybe the theory is M 90
maybe the feel of M 90
maybe he want to M 90
match to come at M 90
match the wood in M 90
match the coat or M 90
match the cloth of M 90
marry to save the M 90
marry to have an M 90
marks the faith of M 90
marks the depth at M 90
marks of having at M 90
marks he gave me M 90
makes us need the M 90
makes us heir to M 90
makes the theory an M 90
makes the rain of M 90
makes the life to M 90
makes the land ring M 90
makes the hand the M 90
makes the fall in M 90
makes the case by M 90
makes no sign to M 90
makes me full on M 90
makes me cold in M 90
makes it seem by M 90
makes it like it M 90
maker to test the M 90
maker to give it M 90
magic is gone by M 90
marks to some of M 89
maker to give us M 89
maybe we feel we M 88
maybe the best on M 88
maybe in view of M 88
maybe he sent it M 88
maybe he made up M 88
maxim of most of M 88
maxim is meant to M 88
match to keep it M 88
match the cost to M 88
match is over the M 88
marks we think it M 88
marks of good or M 88
makes us stay to M 88
makes us give it M 88
makes us fail in M 88
makes to what we M 88
makes to talk of M 88
makes the uses to M 88
makes the tomb of M 88
makes the nest of M 88
makes the list in M 88
makes the drop of M 88
makes the drop in M 88
makes the code in M 88
makes the call in M 88
makes the army the M 88
makes no mark in M 88
makes my list of M 88
makes me loath he M 88
makes me join to M 88
makes me hide my M 88
makes me give it M 88
makes it void or M 88
makes it speak in M 88
makes it give up M 88
makes it during the M 88
makes an item in M 88
makes an icon of M 88
maker to work on M 88
maker to have no M 88
maker the means of M 88
maker of these is M 88
maker of note in M 88
major to have the M 88
marks we have to M 87
marks on what is M 87
makes me hate so M 87
major the hero of M 87
maybe we live in M 86
maybe to find the M 86
maybe the width of M 86
maybe the time he M 86
maybe the move to M 86
maybe the heart of M 86
maybe the body is M 86
maybe my heart is M 86
maxim is true to M 86
marry the hero of M 86
marry the girl so M 86
marks the line in M 86
marks the case of M 86
marks of many an M 86
mapping of these on M 86
makes the work he M 86
makes the turn in M 86
makes the trial by M 86
makes the rate at M 86
makes the hurt go M 86
makes of even the M 86
makes no leaps is M 86
makes my hair to M 86
makes me wait so M 86
makes me sick as M 86
makes me cite it M 86
makes it work the M 86
makes it rise or M 86
makes it have an M 86
makes as deep an M 86
makes an angle or M 86
maker of much of M 86
maker is making the M 86
mapping the data in M 85
major to join the M 85
magic is what we M 85
maybe we make it M 84
maybe we made it M 84
maybe the side of M 84
maybe the boys in M 84
maybe he knew of M 84
maybe he heard us M 84
maybe he gets to M 84
maybe as fast as M 84
maxim the truth of M 84
match to burn it M 84
match the ratio in M 84
match the pain in M 84
match the item to M 84
match the fate of M 84
match the code of M 84
match he went to M 84
marry me from the M 84
mapping to make the M 84
makes us wise in M 84
makes us think to M 84
makes us tell the M 84
makes us less of M 84
makes us call to M 84
makes up life is M 84
makes up less of M 84
makes up into an M 84
makes the young of M 84
makes the theory in M 84
makes the stay of M 84
makes the site an M 84
makes the ship to M 84
makes the most is M 84
makes so wide an M 84
makes me sore at M 84
makes me shut up M 84
makes me send it M 84
makes me react to M 84
makes me pity the M 84
makes it clear is M 84
maker to take up M 84
maker is acting as M 84
maybe to help the M 82
maybe the hint of M 82
maybe the date of M 82
maxim to keep as M 82
maxim of saving is M 82
match the time in M 82
match the room in M 82
marry to make the M 82
marry to make an M 82
marry the other to M 82
marry me till he M 82
marks the theory of M 82
makes us free as M 82
makes to show the M 82
makes the tree an M 82
makes the test the M 82
makes the risk to M 82
makes the joys of M 82
makes the fish go M 82
makes the feel of M 82
makes the evil in M 82
makes the duty on M 82
makes the copy of M 82
makes the army an M 82
makes me want my M 82
makes me stay on M 82
makes me speak the M 82
makes me pass my M 82
makes me jump in M 82
makes me drop the M 82
makes me come up M 82
maker to whom we M 82
maker to come up M 82
magic of seeing the M 82
marks as great an M 81
maybe we think of M 80
maybe the other thing M 80
maybe he went by M 80
maybe he says he M 80
maxim is just in M 80
match the ways of M 80
match the load of M 80
match or even the M 80
masks of cloth or M 80
marry the youth of M 80
marry or have the M 80
marry is said to M 80
marks on three of M 80
makes us stop at M 80
makes us note the M 80
makes the truth to M 80
makes the trip of M 80
makes the time we M 80
makes the snow so M 80
makes the play go M 80
makes the pain so M 80
makes the moon an M 80
makes the heart do M 80
makes of love an M 80
makes no show at M 80
makes my only woe M 80
makes me think no M 80
makes me sick it M 80
makes me play it M 80
makes me cease to M 80
makes it here by M 80
maker or even the M 80
maker is also an M 80
match so well the M 73
makes the same in M 65
maybe he felt as M 62
makes my heart as M 61
makes it only as M 58
major is full of M 57
match to meet the M 56
makes it come in M 56
makes it come as M 56
match as early as M 54
maxim is just as M 53
marks the date as M 53
match by making the M 51
marks as fast as M 51
magic to call up M 50
match the note of M 49
makes us work on M 49
makes me jump up M 49
makes it stay on M 48
magic to move the M 48
match is just as M 47
makes it pass as M 47
mapping is done as M 46
magic to take the M 46
magic to draw the M 46
makes it move as M 45
magic to work in M 45
marks the poems of M 44
makes of love the M 44
maybe it came in M 43
match the ones at M 43
marks to make on M 43
marks an item as M 43
makes us turn in M 43
makes the call as M 43
magic in what we M 43
match in size to M 42
marks the hour in M 42
marks he left in M 42
makes us grow as M 42
makes the poems so M 42
magic to harm the M 42
match in view of M 41
match in hand to M 41
marry me just so M 41
marks he used to M 41
marks he gets in M 41
makes the theory as M 41
maybe the same in M 40
match we have to M 40
marks to note the M 40
mapping it will be M 40
makes at last the M 40
maker is just as M 40
major is made the M 40
major as much as M 40
makes the task of D 43414
males as well as D 22693
marking the site of D 20914
march at once to D 8572
march to join the D 7768
marry the duke of D 7412
march as soon as D 6358
marking the line of D 5950
marking the edge of D 5926
marking the birth of D 5768
march to meet the D 4776
march or early in D 4468
marks the spot of D 4422
makes the mare go D 4069
march as well as D 3898
match the pace of D 3762
makes the laws of D 3312
match the mood of D 3090
march at once on D 3011
macro is used to D 2975
marry the wife of D 2828
marking the ends of D 2746
marking the time of D 2646
makes or mars the D 2556
makes the wrath of D 2554
macro as well as D 2470
march he went to D 2380
march as much as D 2380
makes the soul of D 2256
mayor as well as D 2176
marking the base of D 2172
match the tone of D 2101
makes the bulk of D 2096
march we came to D 2038
maize as well as D 2019
mates as well as D 1947
marks the spot on D 1907
march to reach the D 1902
mayor of city of D 1870
marks the apex of D 1808
makes the sale of D 1684
marking the dawn of D 1676
makes it akin to D 1624
marking the rise of D 1568
marking the date of D 1568
match the timing of D 1532
march by land to D 1508
march by land or D 1450
march an army to D 1448
march of time is D 1446
marking the spot of D 1410
march in line of D 1368
makes the theme of D 1366
march the rest of D 1346
march as fast as D 1340
march in time to D 1324
makes at least as D 1321
marking the length of D 1318
mason as well as D 1253
march of time in D 1246
maybe an inch or D 1236
marks the spot in D 1207
march up from the D 1196
march on foot to D 1166
mailing the same to D 1162
males of some of D 1160
march an army of D 1146
march as part of D 1134
makes the duke of D 1118
march the duke of D 1104
maids as well as D 1066
makes the timing of D 1058
marking the coming of D 1050
march of three or D 1050
march he came to D 1048
marks the spot at D 1034
makes the mare to D 1002
manly as well as D 973
mails as well as D 949
marking the fall of D 938
mayor of port of D 924
marsh as well as D 914
mailing the same by D 914
marking as well as D 912
maybe he took the D 910
manor as well as D 896
makes the soul to D 896
makes the film so D 887
marking the tomb of D 884
march in from the D 876
makes the soul the D 876
marks the mouth of D 874
madly in love as D 874
mains by means of D 864
march to take the D 860
madly in love at D 852
mails by means of D 848
march to join us D 828
marking the spot on D 815
makes me throw up D 797
march on into the D 790
maybe he took it D 786
makes the grid of D 786
marking the mouth of D 784
males do most of D 780
makes at least the D 777
march the army of D 776
marking by means of D 772
march it will be D 765
masking the fire of D 762
maids to wait on D 761
makes it tend to D 758
match the theme of D 757
makes us fond of D 754
makes the dating of D 754
makes us tend to D 752
mayor of york in D 750
march of four or D 746
makes the wearing of D 732
macro is used in D 728
marks the acme of D 723
marking is done by D 714
march the length of D 708
males of many of D 708
makes the tone of D 700
march up into the D 688
marks the axis of D 684
march to save the D 664
makes it okay to D 662
macro to open the D 652
makes the skin of D 648
marks of gold to D 636
makes the mouth of D 632
males in whom the D 630
mayor to have the D 626
march of time the D 626
march he took the D 626
mater of many of D 624
mayor in case of D 618
makes the bill of D 618
march to take up D 609
mares as well as D 604
march in step to D 602
march we went to D 598
makes at least an D 597
mater as well as D 590
march at break of D 590
marks the zone of D 588
marking the turn of D 588
malls as well as D 580
marks of teeth on D 578
males as part of D 578
march of time to D 576
makes the laws in D 572
marking the time by D 566
makes of cars in D 566
march of time as D 564
march as early as D 564
mains as well as D 564
marking the name of D 558
males as soon as D 558
mayor to take the D 552
mayor of cork in D 552
manly to show it D 552
marks the spot to D 548
marking the width of D 542
males by means of D 542
march to turn the D 533
mayst be able to D 532
males as much as D 530
makes me ache to D 528
mailing it back to D 527
makes the wife of D 524
march of five or D 522
makes the plot of D 518
madly to keep up D 518
march to make the D 513
march to find the D 512
marking the back of D 510
marking the work of D 508
marking the face of D 506
marking the depth of D 504
marking the union of D 498
makes the soil of D 494
march is said to D 493
maize is used as D 488
manor is said to D 484
makes the loan to D 484
makes the ball go D 484
makes the task so D 482
marks of gold in D 480
males of most of D 478
march the army to D 477
maize is sown in D 477
mayor is able to D 476
manic as well as D 476
makes the boat go D 474
marking the loss of D 470
march of mind in D 470
magma to reach the D 458
masts as well as D 457
marking the road to D 456
march to gain the D 455
mayor is trying to D 454
marking the hour of D 448
marking is used to D 448
march he told the D 448
mails it back to D 448
maize is said to D 445
makes the soul so D 443
makes the lining of D 438
marking the days of D 436
madly in love or D 436
makes the rays of D 434
mayor is said to D 430
marks the tone of D 421
maize to feed the D 419
marks in lieu of D 418
marking the apex of D 418
match the task to D 416
males to leave the D 416
marks the foot of D 412
manna to look at D 410
makes the axis of D 410
makes me cringe to D 410
march we were in D 404
march we left the D 401
males in most of D 400
march on down the D 398
makes the soil in D 398
march to give the D 397
march in arms to D 394
march in case of D 390
march the bulk of D 384
manning the guns of D 384
marking of time in D 382
makes the filing of D 380
mayor as soon as D 379
march on foot in D 378
mason is said to D 376
marking the axis of D 376
march in half an D 373
marking the time at D 364
march he left the D 364
manor by copy of D 362
march of time on D 360
mayor is also the D 358
march by break of D 358
marking the life of D 356
march the news of D 356
madly in love in D 356
march up along the D 351
mates as soon as D 350
march to mark the D 346
march is come at D 346
makes the film an D 346
maids as blue as D 342
macro as part of D 341
males at birth is D 340
marking the spot at D 338
march so fast as D 338
marking at once the D 332
masking is used to D 331
march to join me D 331
marking the side of D 330
marking of time by D 330
manor as soon as D 330
makes the papa tea D 330
maids to seem the D 330
match the tint of D 328
makes an oral or D 328
marking is done in D 327
march of some of D 326
match at least the D 325
march the army by D 324
marking the time in D 322
males as early as D 322
marking the spot in D 320
march or during the D 320
marking the sign of D 318
males to work in D 318
marsh as fast as D 316
march the last of D 314
magma to form the D 314
marsh by means of D 312
mangle the body of D 312
match the feats of D 310
makes the pope the D 310
males to take the D 308
marks the spot as D 307
march of ideas in D 306
makes the laws the D 306
madly in love to D 304
makes the sale to D 302
males do tend to D 300
makes the fixing of D 300
march on foot at D 299
marking the ending of D 298
maize is used in D 298
mayor of hull in D 296
maize by means of D 296
march of mind is D 295
makes the soil so D 295
marking the size of D 294
march at three in D 294
males is said to D 294
makes the least of D 294
makes me fond of D 294
mayor to make the D 290
masts as thick as D 288
males as young as D 288
makes the yoke of D 288
marks it bears of D 286
marks at least the D 286
magma as well as D 286
marks of shot on D 284
marking the body of D 284
march is also the D 284
march in line to D 284
males to join the D 284
makes the wife the D 284
makes me tend to D 284
mailing as well as D 284
mayor to stop the D 282
males as heads of D 282
makes the corn to D 282
mayor to fill the D 280
mayor of cork to D 280
march of time or D 280
makes me boil to D 280
manna is said to D 279
masking as well as D 278
marking the date on D 278
makes us akin to D 278
makes the wall of D 278
makes the laws to D 278
marks the rising of D 277
makes the laws by D 276
marking the bark of D 274
marking the range of D 270
marking is used in D 270
march in step in D 269
march he fell in D 269
march is come to D 268
makes the lame to D 268
makes no dent in D 268
march in face of D 267
manning the guns on D 266
makes it fond of D 266
marks the film as D 264
makes the tune to D 264
makes me itch to D 264
marking the years of D 262
marking the paths of D 262
marking the laying of D 262
march we find the D 262
makes me sweat to D 262
magma is able to D 262
marks the waning of D 261
magma to rise to D 261
march is from the D 260
makes the rearing of D 260
makes the pace of D 260
makes the fame of D 260
march he sent the D 258
madly in love is D 258
macro to make it D 257
marking the areas of D 256
makes the lips of D 256
mayor to come to D 254
marring the face of D 254
marking the feast of D 254
males to whom the D 252
males in some of D 252
mayor to keep the D 250
marsh is full of D 250
marsh as soon as D 250
march by means of D 250
magma is rich in D 250
marking the zone of D 248
makes the sins of D 248
makes the bread do D 248
march he went on D 246
mater to form the D 244
match the fame of D 244
males to those of D 244
mangle the work of D 243
marking the flow of D 242
marking the deaths of D 242
makes us scan the D 242
makes the bond of D 242
marks the feast of D 241
manor of dale in D 240
males to have the D 240
march in rows of D 239
mates by means of D 238
masts of some of D 238
marking the text as D 238
march to come to D 238
mangling the body of D 238
makes the throw to D 238
makes the roof of D 238
marks the task as D 237
makes the laws is D 236
madly to reach the D 236
makes of cars on D 235
march to break the D 234
males to make the D 234
march we made the D 232
makes the soul in D 232
march of time it D 230
march at once by D 230
males to want to D 230
maize is also the D 230
marking the home of D 228
march the army on D 228
march he made the D 228
manning the guns in D 228
males to take up D 228
makes the tips of D 228
march or even in D 226
march of time by D 226
match the tool to D 224
mason to come to D 224
match the task at D 222
marks the spot is D 222
marking the last of D 222
march at once in D 222
males in many of D 222
macro to move the D 222
mated as soon as D 220
marking the spot by D 220
march of tens of D 220
makes the news of D 220
mailing the same in D 220
marking the tops of D 218
makes the sale or D 218
march to keep the D 217
march to form the D 217
march of what is D 217
mason at work on D 216
march he sent to D 216
match the hues of D 215
mater of most of D 214
macro to save the D 213
matting of hair on D 212
mashing it into the D 212
march to meet us D 212
males to come to D 212
males the rate of D 212
males is part of D 212
makes the milk the D 212
marking the same as D 210
marking the part of D 210
makes the arts of D 210
mails to sell or D 210
maids to help me D 210
marking is done on D 209
masking it from the D 208
males to live in D 208
mailing is sent to D 208
mayor to tell the D 206
mason is able to D 206
marks the spot by D 206
marking the time on D 206
marking the time as D 205
mailing to rest of D 205
masking the lack of D 204
march us back to D 204
manor in lieu of D 204
maple as well as D 203
makes of cars as D 203
masking the odor of D 202
march he flew to D 202
manning is said to D 202
magic is akin to D 202
males is seen in D 200
mazes as well as D 199
mayor to call the D 198
marking the rest of D 198
march the town of D 198
march at dawn on D 198
manning the navy in D 198
manger to make the D 198
makes the trek to D 198
makes the hiring of D 198
makes me grit my D 198
macro to find the D 198
march in time of D 197
mater by means of D 196
marking the heart of D 196
marking the exit of D 196
march the city of D 196
march at dawn to D 196
manor or land to D 196
macro as soon as D 196
marks of gold as D 195
match the rank of D 194
marking the spot to D 194
march to stop the D 194
march of part of D 194
makes the skin on D 194
males to work on D 193
march of what we D 192
makes the laws or D 192
makes of cars by D 191
masking the rest of D 190
makes me balk at D 190
macro to make the D 189
mails to media in D 188
mails as soon as D 188
makes the soul an D 186
march of life is D 184
mails as part of D 184
match the dish at D 182
marks the brim of D 182
marking the type of D 182
march on foot of D 182
malting is here no D 182
masking the face of D 180
marks of rank in D 180
marking of some of D 180
march to fort king D 180
march so soon as D 180
march on foot the D 180
march is heard in D 180
march is full of D 180
march he made an D 180
manse to meet the D 180
makes the task at D 180
marking the rule of D 178
makes us prey to D 178
makes the vote of D 178
major the duke of D 178
marking it down as D 177
massing the bulk of D 176
mason as soon as D 176
masking the pain of D 176
marking the line at D 176
manor as part of D 176
makes of cars to D 176
maces of gold or D 176
mazes of life in D 174
maybe he lied to D 174
match the wrath of D 174
match the skin of D 174
makes the nose of D 174
madly in love the D 174
march to pass the D 172
march the term of D 172
march it fell to D 172
march as many as D 172
males at birth in D 172
mains or from the D 172
manor as early as D 171
makes the soul as D 171
mayor to sign the D 170
marks of teeth in D 170
marking the kind of D 170
marking of time is D 170
marking it down in D 170
march at four in D 170
manna to look to D 170
makes the gist of D 170
makes it cheap to D 170
maids to clean up D 170
masking is used in D 169
marsh of fire on D 168
marks the rank of D 168
mares in foal to D 168
makes me sigh to D 168
mayor to make an D 166
mayor of york to D 166
masking the role of D 166
marking the form of D 166
march to work in D 166
march to draw up D 166
march the trial of D 166
march he took up D 166
males is seen as D 166
makes of cars or D 166
makes my legs go D 166
maybe as tall as D 164
marring the work of D 164
marks of rank on D 164
marking the fact of D 164
march of mind to D 164
march he gave the D 164
march an army on D 164
manor is held of D 164
makes the race of D 164
mails or means of D 164
macro is part of D 163
marks in gold in D 162
marking the line on D 162
marking the days on D 162
males to meet the D 162
males at risk of D 162
makes the loan at D 162
maids to clean the D 162
marking the body as D 161
maybe the wife of D 160
manor is held by D 160
manna to feed the D 160
madly in love on D 160
mayor or duke of D 158
marking the text in D 158
marking the foot of D 158
manor or farm of D 158
manor of sale to D 158
marking the case so D 157
masts by means of D 156
marry the wife or D 156
march the bank of D 156
march of life in D 156
march he used to D 156
march he sent me D 156
males to have an D 156
makes the sale in D 156
makes me bite my D 156
maiming of many of D 156
march to turn my D 155
makes the skin so D 155
macro by typing the D 155
march he died in D 154
males do seem to D 154
makings of such an D 154
makes of ayes or D 154
march to come up D 153
maybe an inch in D 152
march to reach it D 152
march the army in D 152
march in step or D 152
march he took to D 152
makes the sale is D 152
mayor to dine at D 150
marring the peace of D 150
marking the heads of D 150
march us into the D 150
makes us tick as D 150
makes the teeth of D 150
makes it rank as D 150
magma to well up D 150
march it back to D 149
maybe an inch of D 148
matte as well as D 148
mason to lose no D 148
marks of rank or D 148
march he came up D 148
makes the mood of D 148
makes the beds in D 148
maids no race of D 148
march to meet it D 147
match the race of D 146
march of peace as D 146
males to keep the D 146
males the ratio of D 146
makes the pool of D 146
makes the news in D 146
maize is used to D 146
marking the spot as D 145
mayor or even the D 144
maybe the boss is D 144
march the edge of D 144
maize as early as D 144
mails or means or D 144
mailing the form to D 144
macro to copy the D 144
maids to work in D 143
maybe it took the D 142
masks the odor of D 142
march of such an D 142
males in need of D 142
makes my mouth to D 142
marks the rite of D 141
mayor as early as D 140
marking the angle of D 140
marking it down on D 140
makes us fain to D 140
makes the bread of D 140
maids to take the D 140
mates as much as D 138
match the pace at D 138
marking of what is D 138
march to have the D 138
males to vote in D 138
males in areas of D 138
males by three to D 138
makes an atom of D 138
mater or from the D 137
marks of gold or D 137
march on ahead of D 137
mayor of such an D 136
maybe the timing is D 136
marry the duke to D 136
marls as well as D 136
marking the date at D 136
march we fell in D 136
manning the oars of D 136
manioc as well as D 136
maids to keep the D 136
manning to come to D 135
maybe he sold it D 134
match the laws of D 134
match the card to D 134
marsh or lake of D 134
marking the tips of D 134
marking the time to D 134
males to fill the D 134
makes the task an D 134
makes the dumb to D 134
makes the doings of D 134
marking the depth to D 132
maize to meet the D 132
mains the same as D 132
marking the spot so D 131
manes as well as D 131
makes or mars us D 131
macro is used by D 131
mayor to clean up D 130
marking the beds of D 130
march we came in D 130
march on foot by D 130
manning the desk at D 130
males to find the D 130
males if there is D 130
makes the neck of D 130
makes the firing of D 130
makes or mars it D 130
makes no dent on D 130
maker of laws in D 130
maize in some of D 130
macro to test it D 129
match the peaks of D 128
marking the ways in D 128
marking the turn to D 128
march at five in D 128
manning the desk in D 128
males the length of D 128
makes the giant at D 128
match the string of D 127
massing of wealth in D 127
matting to keep the D 126
match the bore of D 126
masts go over the D 126
marking the text to D 126
marking of theme in D 126
march to early in D 126
march of truth is D 126
males to whom it D 126
males the range is D 126
males it will be D 126
males in having the D 126
makes my task the D 126
makes my task of D 126
makes it sink to D 126
macro is used as D 126
marking the word as D 125
mayor to sign an D 124
mates as part of D 124
match the tilt of D 124
masking the truth of D 124
masking the ends of D 124
march we have the D 124
march of many of D 124
males as late as D 124
makes the tuning of D 124
makes the shoes of D 124
makes the news is D 124
makes the mining of D 124
makes the loan in D 124
maize is eaten in D 124
mains or from an D 124
mailing the same at D 124
match the task of D 123
mayor as part of D 122
maybe an aunt or D 122
mates of mine at D 122
marking the line in D 122
males to play the D 122
males in much the D 122
makes the salt in D 122
makes the roll of D 122
madly to keep the D 122
maiming of tens of D 121
mails the form to D 121
mayor to leave the D 120
mayor of cork is D 120
maybe it took me D 120
match the lining of D 120
masts of three of D 120
marks the brow of D 120
march the work of D 120
march of life to D 120
march me back to D 120
march in most of D 120
manning the guns at D 120
makes us tick is D 120
makes the flux of D 120
makes the apex of D 120
maize is also an D 120
matting as well as D 119
march to help the D 119
march in hope of D 119
mated to rams of D 118
masts as soon as D 118
massing as well as D 118
masking as much as D 118
marsh is home to D 118
marks the crux of D 118
marking the site as D 118
marking the pace of D 118
marking it upon the D 118
marking is said to D 118
march to pick up D 118
march to join it D 118
makes the warp of D 118
makes the piano sing D 118
maker of laws he D 118
madly up from the D 118
mayst be their king D 116
maybe the laws of D 116
maybe the guys in D 116
maybe at least we D 116
mashing the side of D 116
marts as well as D 116
marking the beats of D 116
march to link up D 116
march the face of D 116
march of half an D 116
males to take on D 116
males to stay in D 116
males the rate is D 116
males is used to D 116
makes the typing of D 116
makes the odor of D 116
makes the milk of D 116
maize or rice is D 116
mails in time to D 116
maize as soon as D 115
match the flux of D 114
match the film to D 114
massing an army of D 114
marking the rate of D 114
march he told me D 114
march he heard of D 114
males to learn to D 114
makes the foot of D 114
makes it prey to D 114
mails or over the D 114
magma or from the D 114
mayor is only the D 112
marking the rank of D 112
marking the giving of D 112
marking is used on D 112
marking as part of D 112
march so full of D 112
march of their king D 112
march is coming on D 112
march at least in D 112
makes the task the D 112
makes the bill or D 112
makes the beds or D 112
mailing the copy of D 112
mates to come to D 111
masking of some of D 111
march to fall on D 111
march so much as D 111
matte is used to D 110
match the string in D 110
marking the page in D 110
marking of time on D 110
march to rule the D 110
march he gave up D 110
manning is come to D 110
makes the slip of D 110
makes the gulf of D 110
makes my mouth go D 110
makes it reel at D 110
maize or wheat or D 110
macro is ready to D 110
march to meet my D 109
march to join up D 109
march in step as D 109
march an hour or D 109
maybe the damn thing D 108
match the teeth of D 108
masking be done in D 108
marsh as firm as D 108
marring the life of D 108
marking the eyes of D 108
march us down to D 108
march me down to D 108
maple is used in D 108
manning in three or D 108
manna on those in D 108
males the tail is D 108
makes the pomp of D 108
makes the film the D 108
makes me dote on D 108
maize or beans or D 108
mayor as much as D 106
maybe my wife is D 106
matings as well as D 106
mater of some of D 106
match the mood or D 106
match the gold of D 106
marks of rent in D 106
marking the skin of D 106
marking the role of D 106
marking the bars of D 106
marking is seen in D 106
march the post of D 106
march of ideas is D 106
march is made by D 106
march he will be D 106
march an army in D 106
males to give up D 106
males as high as D 106
makes to dido in D 106
makes the wine of D 106
makes the soul at D 106
maids as ugly as D 106
madly on down the D 106
match the glow of D 105
makes of cars the D 105
mayor to whom the D 104
mayor to hold the D 104
mates to take the D 104
mated as well as D 104
masking the loss of D 104
marks the spot the D 104
marks the nose of D 104
marking the rise to D 104
march of truth in D 104
march me into the D 104
march he died at D 104
males to hold the D 104
males of these the D 104
makes the zest of D 104
makes the film of D 104
makes me pale to D 104
mails is done by D 104
maids to leave the D 104
maids as part of D 104
march to come in D 103
march in upon the D 103
maybe at least he D 102
maybe an acre of D 102
mason as much as D 102
marking is done at D 102
march to make to D 102
march the month of D 102
march on down to D 102
march is when the D 102
manor of dale to D 102
manning as well as D 102
mangoes as well as D 102
males to reach the D 102
males the same as D 102
males the body is D 102
males the base of D 102
males by four to D 102
makes the ruck of D 102
makes the deep sea D 102
makes it tick is D 102
march he drew up D 101
maize or wheat in D 101
maids to pick up D 101
mayor to call in D 100
maybe an acre or D 100
mater is more or D 100
marking to show the D 100
marking the page of D 100
marking the meaning of D 100
marking the fate of D 100
march to work on D 100
march to pile the D 100
march to late in D 100
march the date of D 100
march of most of D 100
march me down the D 100
makes the jury the D 100
makes no stir in D 100
maize as part of D 99
maybe the news of D 98
matting is used to D 98
matting is made of D 98
marsh is also the D 98
marks in gold to D 98
marking the page as D 98
marking the cost of D 98
march we took the D 98
march the land is D 98
march of john of D 98
manor of sale is D 98
manly as when he D 98
malts as well as D 98
males in case of D 98
males as there is D 98
makings of what is D 98
makes the rank of D 98
makes the pond so D 98
makes the lure of D 98
makes no laws to D 98
makes me tick is D 98
makes me sweat in D 98
march in over the D 97
maniac as well as D 97
mayor the keys of D 96
mayor or some of D 96
maybe ye think we D 96
mated by means of D 96
mason to have the D 96
mason by dint of D 96
marry the lily at D 96
marking the time the D 96
march to lift the D 96
march the tide of D 96
march the rate of D 96
march of nine or D 96
manna is laid up D 96
males to move to D 96
males to form the D 96
males or heads of D 96
makings of what we D 96
makes to throw as D 96
makes the heating of D 96
makes the grip of D 96
makes the gold of D 96
mains in case of D 96
mayst do well to D 94
mayor to give the D 94
mason is trying to D 94
marsh to come up D 94
marsh is said to D 94
marks of gold at D 94
marking the neck of D 94
marking the body in D 94
march we will be D 94
march up onto the D 94
march to make an D 94
march of such of D 94
march is along the D 94
march he gave an D 94
males to turn to D 94
makes the legs of D 94
makes or mars an D 94
maize is kept in D 94
mailing as soon as D 94
madly in love he D 94
mates to look at D 93
match the rows of D 93
march we heard the D 93
march in line in D 93
match the bulk of D 92
march we were to D 92
march we were at D 92
march to fill the D 92
march the body of D 92
march of fate in D 92
males or more in D 92
makes the soul go D 92
makes the pack in D 92
makes the dearth of D 92
makes the boat so D 92
maker of laws is D 92
major of foot in D 92
maids to make up D 92
marks the fixing of D 91
march to hold the D 91
makes ye think so D 91
mayor to call on D 90
mater of fact the D 90
mater is good to D 90
marks of shot in D 90
marking the reach of D 90
marking the line to D 90
marking so much of D 90
marking is used as D 90
marking is made on D 90
march to some of D 90
march to sign the D 90
march the name of D 90
march the airs of D 90
march is also an D 90
manning is gone to D 90
males so much as D 90
males go into the D 90
makes the sale on D 90
makes the horn of D 90
mason to work on D 89
march on some of D 89
makes the task no D 89
mailing is part of D 89
match my pace to D 88
mason to make the D 88
masks to suit the D 88
marsh is part of D 88
marks the timing of D 88
marks the soul of D 88
march by land as D 88
manor of dale be D 88
males to take an D 88
males by years of D 88
males at work in D 88
makes the loan is D 88
makes the disk of D 88
makes me pant to D 88
makes in leaving the D 88
mailing the file to D 88
maids to make the D 88
madam my name is D 87
macro by means of D 87
mayor to meet the D 86
mayor to join the D 86
mayor is seen as D 86
maybe the tone of D 86
maybe the tide is D 86
mason to take the D 86
marsh to reach the D 86
marry the scion of D 86
marring the coat to D 86
marks in gold or D 86
marking the time is D 86
marking the rise or D 86
marking the lack of D 86
marking as well the D 86
march to open the D 86
march to make in D 86
march to join in D 86
march or even the D 86
march he said he D 86
manor by means of D 86
makes the isle of D 86
makes the firm an D 86
makes it glow in D 86
major the card on D 86
mailing is used to D 86
maids to wash the D 86
manning to have the D 85
mayor to veto the D 84
mayor to open the D 84
mayor is made the D 84
maybe the joke is D 84
maybe he took me D 84
maybe he threw it D 84
match the pomp of D 84
match the guns of D 84
masts or hull of D 84
masking is done by D 84
marks the neck of D 84
marking the spot is D 84
marking the month of D 84
marking at least the D 84
march we forth in D 84
march the three of D 84
march the like of D 84
march or late in D 84
males to look at D 84
males in three of D 84
makes the sale at D 84
makes the loan or D 84
makes the bread to D 84
makes my task so D 84
makes me foam at D 84
makes it nigh on D 84
maize or corn in D 84
maize is eaten by D 84
mails as great as D 84
mailing is made to D 84
madly as soon as D 84
marks the sway of D 83
march is made to D 83
manse as well as D 83
makes thy nose so D 83
match the tone or D 82
masts as high as D 82
massing an army in D 82
marks the wall of D 82
marks the pace of D 82
marking the site on D 82
marking the doom of D 82
marking the break of D 82
marking it from the D 82
march or take the D 82
march on till he D 82
maple an inch or D 82
manse on such an D 82
manly to give up D 82
manly to face the D 82
makes the sale by D 82
makes the hart to D 82
makes it suit the D 82
manor as much as D 81
mater to reach the D 80
marking is part of D 80
march the pomp is D 80
males to make up D 80
males of whom the D 80
males in whom it D 80
makes the iron in D 80
makes of cars at D 80
makes me puke to D 80
makes me bask in D 80
makes me ache in D 80
mails in time of D 80
march to face the D 59
march in file to D 59
marks at least as D 58
macro to turn on D 57
march to what is D 56
march at dawn of D 56
mailing or faxing the D 56
masking by means of D 54
marks the belt of D 53
march on along the D 53
makes of cars is D 53
march as hard as D 49
macro to sort the D 49
mares to foal in D 48
march in five or D 47
march to port of D 46
march the left wing D 46
march on foot or D 46
march in deny on D 46
march to free the D 45
march on leaving the D 45
march on hand in D 45
march on foot as D 45
march in step at D 45
march by road to D 45
match the tips of D 44
marks the pole of D 44
march on from the D 44
march on foot up D 44
marks at least an D 43
marks the theme of D 42
marks the mood of D 42
marking the work as D 42
march on port of D 42
march is coming in D 42
march in four or D 42
march he came in D 42
maize is sold to D 42
maids to come in D 42
makes the media so D 41
makes me feel sea D 41
march we went on D 40
march he went up D 40
maize to make the D 40
