matter with you ? M 247719
matter with him ? M 59284
matter with him . M 54475
matter with her ? M 42673
matter with you . M 28302
matter with her . M 21739
market for them . M 20229
matter with them . M 16243
matter with them ? M 12658
master and man . M 9382
marked for death . M 7101
matter for him . M 7004
matter with that ? M 6124
matter with you ! M 5840
market each year . M 5436
matter for them . M 4728
matter for you . M 4670
matter for that . M 4151
matter too far . M 2302
marked with red . M 2110
matter how long . M 2036
master was dead . M 2028
matter for her . M 1972
market this year . M 1972
master them all . M 1949
market that day . M 1918
manner they can . M 1856
matter than that . M 1805
matter with him ! M 1793
matter this way . M 1789
matter than this . M 1672
manner they did . M 1550
market can bear . M 1530
marked for you . M 1429
marked him out . M 1424
matter who won . M 1386
matter one bit . M 1290
market for you . M 1190
matter how old . M 1187
marked for him . M 1175
marked its end . M 1152
market each day . M 1143
master and men . M 1113
matching his own . M 1106
manage all that . M 1094
marked for them . M 1092
manage all this ? M 1048
market with them . M 1038
matter how bad . M 979
matter how big . M 953
manner with him . M 946
matching her own . M 896
matter for now . M 876
manner with them . M 872
matter that way . M 854
matter how far . M 844
matter with that . M 843
matter with her ! M 841
manage them all . M 818
manner you can . M 814
matter how low . M 802
matter was this . M 792
market that year . M 778
manage for him . M 762
matter with this ? M 760
marrying her off . M 748
master was out . M 730
market for him . M 720
market for long . M 708
manage for them . M 694
mainly for men . M 694
matter are one . M 690
matter with god . M 666
market does not . M 666
market for meat . M 658
market with him . M 654
market for that . M 642
master did not . M 638
master with him . M 632
manner with her . M 630
masses with them . M 606
matter does not . M 604
master but god . M 604
master and you . M 598
matter for you ? M 596
market for one . M 594
marked his path . M 592
marrying this man . M 588
matter and god . M 582
manage for you . M 582
marked with age . M 580
marked them all . M 554
master for him . M 543
marked them out . M 538
manner with you . M 538
masses for them . M 528
master its use . M 522
matter for that ! M 520
manage all this . M 520
market for them ? M 514
manner for them . M 512
master and god . M 504
marrying any one . M 488
manage and lead . M 488
mainly with them . M 488
matter with them ! M 486
mainly his own . M 486
matrix are real . M 471
manage all that ? M 470
matter long ago . M 463
mature and dry . M 460
market for all . M 458
manner she did . M 454
masses and man . M 448
mature each year . M 447
matter how weak . M 446
manage with that . M 446
masses with him . M 440
market was dead . M 438
matter and ash . M 436
marrying them off . M 436
matter for men . M 434
manage with them . M 434
mature and die . M 430
master and dog . M 427
market was doing . M 426
manage with ease . M 426
marrying his son . M 424
matter for long . M 418
marked this way . M 410
manage his own . M 406
mainly for use . M 406
market one day . M 404
manner each year . M 404
manage this one . M 402
manage that way . M 402
matter and man . M 400
market with her . M 396
master with him ? M 390
marked that way . M 388
market than men . M 383
matter that day . M 381
matter each year . M 380
market was weak . M 378
mature than that . M 377
master one day . M 377
matter for god . M 373
matter and why ? M 371
masses for him . M 368
marked than now . M 368
maturing each year . M 366
master was doing . M 366
manner for him . M 364
market for both . M 360
marked for her . M 359
mature with age . M 350
master for you . M 346
manner than this . M 338
manner you did . M 334
market for her . M 333
market for this . M 330
market was low . M 326
marked than this . M 322
marked and cut . M 321
mainly for them . M 320
market can not . M 318
marked for death ? M 317
mainly for meat . M 312
marrying that man . M 308
manner was all . M 304
matter and heat . M 302
matter can not . M 300
marked with rings . M 298
market was going . M 296
mature old age . M 294
marrying her son . M 292
marked this era . M 286
market for men . M 282
market and buy . M 282
matter how few . M 279
master his fear . M 278
manage for her . M 278
manage that too . M 276
master and man ? M 274
marked them off . M 268
marked with them . M 267
mature you are . M 266
master was ill . M 264
matter too long . M 262
marked this year . M 262
manner she had . M 260
market are low . M 258
manner they are . M 258
marked you out . M 254
market did not . M 250
marked her out . M 250
maiden with him . M 250
mature they are . M 248
matter was not . M 248
mature for that . M 247
mature and age . M 243
mainly for you . M 240
matching end tag . M 238
master and use . M 238
market are not . M 238
master for them . M 236
manage and use . M 230
master that day . M 229
matter and idea . M 228
market was not . M 228
marked each year . M 228
manner his own . M 228
manage with her . M 228
matter any way . M 226
master was dying . M 226
manner each day . M 226
matter for that ? M 223
marked its path . M 222
master all things . M 221
master may use . M 220
manage for now . M 220
mayhem and death . M 218
market too long . M 214
mainly two things . M 214
market with ease . M 212
mainly with men . M 210
matter than that ! M 209
market all day . M 208
manage them both . M 208
matter each day . M 207
market that way . M 206
master buy you ? M 204
market long ago . M 204
marked his own . M 204
masses did not . M 200
matter than you . M 198
marrying with them . M 198
manage its use . M 198
manage him now . M 198
master and head . M 196
market was easy . M 194
matter how odd . M 193
matter for all . M 192
master and boy . M 192
mature than you . M 191
matter how long ? M 190
masses are not . M 190
marked this age . M 190
manual and key . M 190
matter his age . M 188
master was not . M 188
marked his way . M 188
manner with men . M 188
matter for joy . M 186
marrying this man ? M 186
market with you . M 185
marrying that man ? M 184
manner was this . M 184
manner than men . M 182
manage this war . M 181
market for each . M 180
manner was not . M 180
mainly with him . M 180
master does not . M 178
market and why ? M 178
master with them . M 177
master this one . M 177
marked them both . M 176
manage this way . M 176
malice for that . M 176
malice and fear . M 176
matter with one . M 174
mapped with pet . M 174
matter thus far . M 172
matter this year . M 172
matter for both . M 172
marked his age . M 172
matter and death . M 170
maiden with them . M 170
matter our age . M 168
marked this day . M 168
manage with one . M 168
market for you ? M 166
managing for them . M 166
marker for them . M 164
manage for you ? M 164
master with ease . M 163
manual for them . M 162
manner for you . M 162
mainly with you . M 162
matter than they . M 160
master for her . M 160
market this way . M 160
manage that one . M 160
marked for that . M 159
matter with men ? M 158
master was mad . M 158
manage with him . M 158
matter was dead . M 156
mature for them . M 155
market was bad . M 154
market for that ? M 152
matter was new . M 150
matter one day . M 150
matter and air . M 150
master each one . M 150
marked for men . M 150
manner than now . M 150
managing for you . M 150
matter and things . M 148
manner she has . M 148
matter that far . M 146
manner cut off . M 146
manner all things . M 146
master you are . M 145
matter off thus . M 144
master his own . M 144
marrying him off . M 144
marked our way . M 144
margin for them . M 144
manner for all . M 144
managing his own . M 144
matter are not . M 143
matter with that ! M 142
matter how near . M 142
matter for men ? M 142
market for this ? M 142
marked that year . M 142
manner was easy . M 142
manage them now . M 142
matter and why . M 141
master and his . M 139
matter for war . M 138
matter did not . M 138
matter and men . M 138
marrying you off . M 138
marked man now . M 138
matter her age . M 137
market any day . M 137
matter with now ? M 136
matter for him ? M 136
manner you see . M 136
manage with two . M 136
makers can use . M 136
mainly his doing . M 136
mainly for him . M 136
mature for him . M 135
master you are ! M 135
matter too far ? M 134
master was going . M 134
master can not . M 134
marked with death . M 134
marked its way . M 134
marked for death ! M 134
manage our own . M 134
manage his team . M 134
master her fear . M 132
manner was thus . M 132
manner and air . M 132
makers did not . M 132
mainly with air . M 132
matter with ease . M 131
matrix does not . M 130
master with you ? M 130
marked her path . M 130
manage that one ? M 130
master long ago . M 129
manage them all ? M 128
malice for long . M 128
matter all day . M 127
master was odd . M 126
marrying and dying . M 126
marked his man . M 126
marked for each . M 126
marked each day . M 126
manage with this . M 126
manage with that ? M 126
mature and old . M 125
master going out . M 124
marker for him . M 124
manage that now . M 123
master was near . M 122
makers are not . M 122
maiden and man . M 122
maiden for him . M 121
marrying any man . M 120
marked that era . M 120
manner this year . M 120
manner they may . M 120
matter for you ! M 119
maturing and aging . M 118
matter his own . M 118
matter and law . M 118
margin each year . M 118
manner than that . M 118
manner all day . M 118
master his job . M 116
market and why . M 116
mapped for them . M 116
manner than they . M 116
malice than wit . M 116
mature than men . M 114
matter was thus . M 114
matter how mean . M 114
manner they did ? M 114
manner that day . M 114
managing his team . M 114
manage with them ? M 114
manage than men . M 114
makers are doing . M 114
matter for man . M 113
marker for you . M 113
matter was easy . M 112
matter how ill . M 112
matter and earth . M 112
matrix for them . M 112
master them now . M 112
master for that . M 112
marked his death . M 112
manner was that . M 112
manner for long . M 112
mature are you ? M 111
matter are real . M 111
matter with this . M 110
masses for you . M 110
manner for both . M 110
managing and doing . M 110
manage his men . M 110
matter and aim . M 108
master beat him . M 108
marked with fear . M 106
marked that day . M 106
managing its use . M 106
manual for you . M 104
mainly with things . M 104
mainly with her . M 104
manual for this . M 102
maiden are you ? M 102
mature than they . M 100
matter and being . M 100
master but him . M 100
manage each one . M 100
matter how dim . M 98
matter how dear . M 98
matter his way . M 98
master and pet . M 98
marrying one day . M 98
market are doing . M 98
manual with you . M 98
manner for each . M 98
manner and way . M 98
manage that day . M 98
malice for all . M 98
matter may end . M 96
matter and use . M 96
master them both . M 96
master than god . M 96
marrying him for ? M 96
market that long . M 96
market near you . M 96
marked his era . M 96
manage this team . M 96
manage this area . M 96
manage them too . M 96
makers for them . M 96
mainly one way . M 96
mature for her . M 95
matter our own . M 95
market can use . M 94
manner you saw . M 94
manner they had . M 94
manner did not . M 94
managing his men . M 94
manage this one ? M 94
matter this way ? M 92
master too far . M 92
market for use . M 92
market for them ! M 92
marked our path . M 92
margin for him . M 92
managing for him . M 92
market and use . M 91
matter let out . M 90
master for long . M 90
manner you mean . M 90
manner she does . M 90
manage all things . M 90
matter for him ! M 89
matter and that . M 89
matter has not . M 88
master may own ? M 88
market thus far . M 88
mapped for him . M 88
mature with them . M 87
marked for use . M 87
matter for fear . M 86
marrying her now . M 86
manner with age . M 86
makers are men . M 86
master but you . M 85
mature each day . M 84
matter being read . M 84
marker for her . M 84
marked his end . M 84
marked each one . M 84
manual for that . M 84
manner for her . M 84
manage with her ? M 84
matter for them ? M 83
mature than she . M 82
matter than man . M 82
masses they lead . M 82
marked out for . M 82
malice and death . M 82
mainly for her . M 82
matter are low . M 80
master saw fit . M 80
masses for her . M 80
marked her way . M 80
manage all that ! M 80
master new things . M 49
matter and sin . M 48
mature are they ? M 42
master and all . M 40
