malicious smile , " M 1504
majority leader , " M 1393
maintain order , " M 1020
marginal notes : " M 918
marginal notes , " M 758
majority rules , " M 749
majority party , " M 490
malicious smile : " M 376
maturity model , " M 350
majority wrote : " M 331
marginal costs , " M 327
majestic words : " M 280
masterly essay , " M 274
majestic words , " M 250
majority leader : " M 248
marginal cases , " M 246
majority wrote , " M 238
majority notes , " M 230
majestic glory , " M 214
marginal people , " M 188
maturity scale , " M 182
majority noted : " M 175
manifest error , " M 172
majority noted , " M 170
malicious words , " M 168
malicious laugh , " M 166
materials testing , " M 163
majestic voice , " M 158
marginal lands , " M 146
majority group , " M 146
manifest alarm : " M 144
majestic world , " M 128
manifest image , " M 124
majestic voice : " M 118
malicious voice , " M 114
malicious laugh : " M 110
majestic river , " M 100
marginal route , " M 95
malicious irony , " M 88
majority women , " M 88
masterly style , " M 86
majestic trees , " M 86
