fro with a dull D 782
fro for a time D 390
fry them a nice D 253
fro with a view D 212
fry with a more D 145
fro with a loud D 138
fro with a slow D 136
fry and i were D 108
fro with a heavy D 91
fro with a bowl D 90
fro that i have D 90
fro with a great D 86
fro with a sort D 83
