fry in a pan D 491
fry on a hot D 318
fry in a hot D 313
fro as a rat D 279
fro in a way D 240
fry up a few D 161
fro in a long D 150
fry in a wok D 138
fro of a man D 123
fro on a swing D 101
