frame of mind to M 67022
frame of mind in M 47233
frame of mind of M 36598
frame of mind is M 25287
frees us from the M 24290
front as well as M 20213
front or back of M 19138
frame of mind he M 18128
frame of mind as M 17813
freed us from the M 12862
freed me from the M 10162
frame of mind at M 9968
freed it from the M 8908
frame is made of M 8738
frame by means of M 8677
front of some of M 8544
frame of mind the M 8052
front to back of M 7518
frame as well as M 7155
front as soon as M 6882
frame of mind by M 6623
frame is used to M 5868
frees it from the M 5257
frame to hold the M 5216
frame of mind or M 4958
front to back in M 4727
frame of mind on M 4706
frame of mind it M 4596
front or side of M 3896
front by means of M 3883
front to back to M 3810
freed me from my M 3706
fraud as well as M 3678
frame of mind we M 3644
front to meet the M 3395
frame of mind so M 3393
front of most of M 3344
freed as much as M 3340
front or from the M 3086
front of what is M 3026
front of many of M 2910
frame is made up M 2800
front to back or M 2763
front to form the M 2559
front in time to M 2455
front to keep the M 2346
front to back as M 2328
front to back is M 2297
frame of wood or M 2292
front to show the M 2263
frees me from the M 2217
freed as soon as M 2134
front to back on M 2118
front to back at M 2037
frame of mind if M 1792
front of half the M 1762
front of such an M 1742
front of those of M 1670
frame to keep the M 1660
front to clear the M 1646
front as part of M 1602
front as much as M 1508
front to take the M 1499
front to give the M 1498
front to make the M 1444
frame as soon as M 1387
frame is used as M 1351
front to join the M 1341
frame to make it M 1334
freed up from the M 1316
fraud or lack of M 1306
front of these is M 1298
front to face the M 1263
front to hold the M 1259
frame to make the M 1248
freed of some of M 1217
front to back so M 1198
frees the flow of M 1198
frame is used in M 1184
front in case of M 1169
frame is said to M 1168
frame is part of M 1150
frame is sent to M 1138
frees the mind to M 1136
frame is made to M 1134
front in face of M 1110
fraud by means of M 1108
front to reach the M 1088
front as fast as M 1080
front of whom the M 1070
fraud or want of M 1068
frame to form the M 1064
frame to hold it M 1058
frame my face to M 1052
front to back by M 1017
fraud or making the M 1012
frame is made in M 999
front of whom he M 992
frame the view of M 958
front is made of M 952
freed at last of M 948
front as early as M 946
front or face of M 936
front of these the M 936
frame or body of M 914
frame the size of M 913
front is said to M 907
freed by means of M 894
freed of most of M 888
front of what he M 864
frame as part of M 862
front of tens of M 854
frame to keep it M 854
front to make it M 845
frame as much as M 837
frees the mind of M 835
fraud in making the M 830
frame is held in M 820
front to help the M 810
frame of video is M 804
frame the rest of M 800
front is made up M 783
front of part of M 780
frame is used by M 772
front to keep up M 750
front in view of M 739
front to back the M 733
front or back or M 732
frame is made by M 728
front to break the M 723
frame the meaning of M 722
front to hide the M 707
freed of many of M 706
front or back to M 692
front to look at M 690
freed the rest of M 684
freed the city of M 678
frame to give the M 676
front of three of M 650
front of lots of M 628
front to find the M 626
frail to make the M 626
front or send to M 620
frame of data is M 618
front in time of M 598
frame to find the M 597
fraud on part of M 582
front of half of M 578
frame of what is M 557
front of base of M 556
front as high as M 553
front is seen the M 552
front of those in M 547
front to stop the M 540
freed of much of M 532
frees me from my M 526
front to form an M 523
frame to take the M 500
frame is ready to M 500
frame to give it M 496
front of three or M 492
front is full of M 488
frame is free to M 488
frame to meet the M 486
frame the work of M 484
frame the ideas of M 484
frame is cast in M 482
frame to show the M 480
front to save the M 478
frame at rest in M 472
front we have the M 471
frame of such an M 464
front is moving in M 462
front the name of M 458
front is there to M 458
frame to open the M 456
front is open to M 452
frame my will to M 452
freer to move in M 449
front to talk to M 448
freed to work on M 445
front it will be M 439
frame is also an M 432
front is used to M 430
frame it will be M 430
front to pick up M 426
front of body to M 426
front to open the M 425
fraud or theft or M 420
frame the face of M 416
front to keep it M 410
frame is sent by M 410
front is part of M 409
front to take up M 406
frame is also the M 406
front of body at M 404
frame of mind do M 402
frame is able to M 402
front of four or M 400
frame of mind no M 392
frame the ways in M 390
frees us from it M 388
freed at last by M 386
frame of three to M 386
front of what we M 382
front to fill the M 381
frame of mind be M 377
front or back is M 376
frame up from the M 376
frame the body of M 374
frame is laid on M 372
front of what the M 364
frail as well as M 362
front is made to M 361
freed at last to M 359
freed the last of M 358
freed the hand of M 352
fraud as part of M 350
front of five or M 348
front or along the M 344
freed as part of M 342
frame of wood to M 342
frame of wood is M 342
freed the land of M 338
frees the rest of M 336
fraud is said to M 336
front in line of M 334
fraud to fool the M 332
frame is from the M 332
fraud as soon as M 330
front is seen to M 329
front of even the M 328
front to meet it M 327
freed to work in M 325
front or back as M 324
front of those on M 324
frame is kept in M 324
front or back in M 322
freed the town of M 320
frame the mind to M 320
freed to live in M 316
freed to join the M 316
freed my mind of M 316
frame is full of M 316
frame the theory of M 314
freed as well as M 311
front to back it M 310
fraud as much as M 308
frame to look at M 308
fraud is used to M 304
frail as those of M 304
front is seen in M 303
freed the mind of M 302
frame an ideal of M 299
freer to talk to M 296
frame to view the M 294
frame to fill the M 292
frame if there is M 292
frees the body of M 290
frame the name of M 290
frame to reach the M 288
frame of data to M 288
frame of video in M 286
front is more or M 285
frame the kind of M 282
front as wide as M 279
front in case the M 278
frees the means of M 278
frame the breath of M 276
fraud or theft of M 274
frame of wood on M 274
frame of mind an M 274
front to stem the M 272
front of whom we M 272
frame my mind to M 269
freed us from an M 266
freed in time to M 266
front to such an M 265
front of their king M 262
frame of meaning in M 262
freed of having to M 260
freed me from it M 260
fraud to make the M 260
fraud of some of M 260
frees us from an M 259
front of body in M 258
front as from the M 258
freer to make the M 258
front of those to M 256
front in vain to M 256
front of these he M 254
front of face to M 254
fraud is sure to M 254
frame as seen in M 254
frame or form of M 253
front or over the M 252
frame to form an M 252
frame of what we M 252
frame is seen to M 252
frame is like the M 252
front to come to M 250
front is also the M 250
frame of video to M 250
frame is seen in M 250
frame is seen as M 250
freer to take the M 247
freer as well as M 246
freed the body of M 246
frees up time to M 245
front to speak to M 244
front to tell the M 243
front the rest of M 242
freed me from an M 242
fraud to gain the M 242
front to move the M 241
frame by moving the M 240
frame in case of M 239
frail to keep the M 238
front to make an M 237
front is held by M 236
frame to mark the M 236
frame or from the M 236
front of those he M 234
freed to move on M 234
frame or range of M 234
front the mark of M 232
fraud if there is M 232
frame of meaning is M 232
frees the user to M 230
front of whom is M 228
frame is also of M 228
front to those of M 227
front to hold it M 227
front to draw the M 227
frame to hold up M 225
front if there is M 224
frame of some of M 224
frame is made as M 223
frees up some of M 222
frame the range of M 222
freed to take up M 220
front we have to M 219
front the line of M 219
frees up more of M 219
front the face of M 218
frame to have the M 217
frame the plan of M 217
freed up some of M 216
frame we need to M 216
freed up when the M 214
front the arms of M 212
freer to leave the M 212
frame of body is M 212
frame as used in M 212
frame to those in M 210
front to show an M 208
front to give it M 208
front the date of M 208
frame is lost or M 208
frame in half an M 207
front is from the M 206
front the same as M 205
frame is open to M 204
fraud to make an M 202
frame to move the M 202
frame is meant to M 202
front to view the M 201
front the work of M 201
frame it must be M 200
front to back if M 198
front is along the M 198
front in much the M 198
freer he will be M 198
freed to move to M 198
frame the life of M 198
front to work in M 196
freed to take on M 196
fraud in some of M 196
frame the width of M 196
front to test the M 193
front is able to M 193
front as best he M 193
front to pull the M 191
front to learn the M 190
frame of mind my M 190
front to speak it M 189
front is just as M 189
front of body as M 188
frame in much the M 188
frame or part of M 186
frame or case of M 185
front we find the M 184
freed my mind to M 184
fraud it must be M 184
front of only the M 182
frame of life to M 182
frame is more or M 182
frame is held by M 182
front of these we M 180
front he said to M 180
fraud or theft is M 180
frame the role of M 180
front so many of M 179
front it must be M 179
freer the flow of M 179
front as seen in M 178
frame of most of M 178
frame is tied to M 178
frame in spring or M 178
frame by adding the M 178
frame we have to M 176
frame as high as M 176
front to join in M 175
front to give an M 174
front of whom it M 174
frees the time of M 174
freer it will be M 174
frame of video on M 174
frame of ours is M 174
frame as hard as M 174
frame the case in M 173
frame of video as M 173
front in some of M 172
frame of wood in M 172
frame of five to M 172
front is seen as M 171
frame the same as M 171
freed us from it M 170
fraud by making it M 170
frame we want to M 170
front to gain the M 168
freed to make the M 168
frame to stop the M 168
frame the length of M 168
frame of data in M 168
frame is used on M 168
fraud is upon the M 166
frame the text of M 166
front of much of M 164
front of mine is M 164
front of four of M 164
front is moving at M 164
frees the user of M 164
freed to take the M 164
frame of life in M 164
fraud or theft by M 162
frame to make an M 162
frame to clear the M 162
frame of heart in M 162
frame is done by M 162
frame as wide as M 162
front to push the M 161
frame is just the M 161
front to turn the M 160
front to break up M 160
frame of body or M 160
frame is used the M 160
front to feel the M 159
freer to work in M 159
front to move on M 158
frame to take up M 158
frame to help the M 158
frame the face in M 158
frame no theory of M 157
front by part of M 156
frame to pick up M 156
front to mark the M 155
freer to think of M 155
front in form of M 154
frame or base of M 154
frame of meaning to M 154
freer to look at M 152
frail to look at M 152
front to side to M 150
frame to load the M 150
frame to draw the M 150
frame of heart is M 150
frame to such an M 149
frame as early as M 149
front is also of M 148
freed the mind to M 148
freed by faith in M 148
frame the heads of M 148
frame to rest on M 147
freer we will be M 146
fraud is used in M 146
frame is moving in M 145
front to meet an M 144
front the time of M 144
front of these an M 144
freed us from so M 144
frame the type of M 144
frame the sort of M 144
frame is used it M 144
frame is just as M 143
frees the body to M 142
frame we call the M 142
frame of video or M 142
frame of three or M 142
frame is only the M 142
front to help in M 140
front is used as M 140
freer to turn to M 140
fraud is hard to M 140
fraud in making up M 140
front so much as M 139
frees the self to M 138
frees the heart of M 138
frame of wood of M 138
frame is done in M 138
frail to hold the M 138
front in most of M 137
frame to work on M 137
front of eyes to M 136
freed to move in M 136
frame we have the M 136
frail at birth of M 136
front is like the M 134
fraud is such as M 134
frame of time in M 134
frame is held up M 134
freer to speak up M 133
freed as early as M 133
front or down the M 132
front is among the M 132
front in half an M 132
front at once to M 132
front as late as M 132
frame or upon the M 132
frame or list of M 132
frame the view to M 131
front of next to M 130
front is made in M 130
fraud as early as M 130
frame to hide the M 130
frame the rule in M 130
frame so there is M 130
frame of video at M 130
frame is free of M 130
frame of what he M 129
front we came to M 128
front to wait on M 128
front to pull it M 128
front of what it M 128
front is what is M 128
freer to speak of M 128
frame to those of M 128
frame to make up M 128
frame as best he M 128
freer to work on M 127
front to speak of M 126
front to meet me M 126
front to hold up M 126
front is rich in M 126
fraud in many of M 126
frame is only an M 126
front or side or M 125
front is made by M 124
front by some of M 124
freed to leave the M 124
frame is sent on M 124
freer to take on M 123
front of your in M 122
front of these in M 122
freed to look at M 122
freed of part of M 122
front to keep in M 121
front is only the M 121
front the length of M 120
freed up time to M 120
frame is sent in M 120
front the city of M 119
front or edge of M 119
front as hard as M 119
freer to move on M 119
frame to fill in M 119
front of line of M 118
front of eyes or M 118
frees the land of M 118
freer to meet the M 118
fraud is part of M 118
fraud is held to M 118
frame the ideal of M 118
frame no sort of M 118
frame is moving at M 118
front or even the M 117
front in such an M 116
front at once on M 116
fraud in taking the M 116
frame of four or M 116
frail or sick to M 116
frail in body as M 116
front the kind of M 115
front of these on M 115
frame the list of M 115
frame in time to M 115
front to leave the M 114
front of just the M 114
front of body on M 114
front is clear of M 114
frees us during the M 114
fraud in case of M 114
frame up onto the M 114
frame to face the M 114
frame of what the M 114
frame of meaning of M 114
frame of life is M 114
frame as fast as M 113
front to make up M 112
front to fill in M 112
front of body of M 112
freed to meet the M 112
freed the city in M 112
frame is made on M 112
frail to leave the M 112
front is held in M 111
frame the case as M 111
front to open up M 110
front the view is M 110
front or ahead of M 110
front is half the M 110
freed to think of M 110
frame by making the M 110
front to pass the M 109
frame the work as M 109
front or side to M 108
front of those we M 108
freer to come to M 108
freed me most as M 108
fraud to give the M 108
frame up into the M 108
frame to test the M 108
frame the form of M 108
frame in some of M 108
front to back up M 107
front or back by M 107
frame so much as M 107
front the hair is M 106
front the form of M 106
front is ready to M 106
front in trying to M 106
freer to move to M 106
freed the bank of M 106
frame it from the M 106
frame is seen on M 106
front to give me M 105
front to seem as M 104
front to part of M 104
front to gain it M 104
front it ends in M 104
front is hard to M 104
front in many of M 104
front he puts up M 104
frees the mind is M 104
freed the sons of M 104
freed he went to M 104
fraud it will be M 104
fraud in time to M 104
frame of many of M 104
frame is lost in M 104
front at once as M 103
front to have the M 102
front to deny the M 102
front in what is M 102
frees my mind to M 102
frame of full or M 102
frame is sent as M 102
frame is left in M 102
frame is held to M 102
frame in back of M 102
frame as seen by M 102
frail to face the M 102
frail in health to M 102
front to work on M 101
front to tell us M 101
front or send it M 100
front or back the M 100
frees the theory of M 100
frame we find the M 100
frame of mine is M 100
frame is used at M 100
front to hide it M 99
front to give us M 99
front the body of M 99
front to halt the M 98
front the town of M 98
front of room to M 98
front of many an M 98
fraud to keep the M 98
frame we live in M 98
frame of tens of M 98
frame is such as M 98
front to meet us M 97
frame the ideas in M 97
front of those at M 96
front he heard the M 96
freer to open up M 96
fraud in trying to M 96
fraud in fact is M 96
frame of mind go M 96
frame he felt the M 96
frame as used by M 96
front to mask the M 94
front to link up M 94
front of five of M 94
front is moving to M 94
front as some of M 94
front an army of M 94
freed to come to M 94
freed the theory of M 94
freed the mass of M 94
frame to give an M 94
frame the work in M 94
frame is laid in M 94
frame is hard to M 94
frail to take the M 94
front to take in M 93
front the size of M 93
front to keep us M 92
front of these to M 92
front in case it M 92
freed of late by M 92
freed in name as M 92
front he puts on M 91
frame to tell the M 91
front to help us M 90
front the north or M 90
front at once in M 90
front as ever to M 90
freer to make up M 90
freed the flow of M 90
fraud or even of M 90
frame of when the M 90
frame of what it M 90
frame in turn is M 90
frail to come to M 90
front is also an M 89
front to show me M 88
front to keep an M 88
front of their foe M 88
frees up room on M 88
freer to turn my M 88
freed up during the M 88
freed of acid by M 88
fraud in view of M 88
frame to pull the M 88
frame to hold an M 88
frame or into the M 88
frame is there to M 88
frame is held at M 88
frail to walk to M 88
frail to meet the M 88
front the width of M 87
frame is made so M 87
frame is held on M 87
front to help me M 86
front to feed the M 86
front of kids it M 86
front is used in M 86
front is like an M 86
front is also in M 86
front in need of M 86
freer to live the M 86
freer to live as M 86
freed the work of M 86
fraud to cheat the M 86
fraud or when the M 86
front to fire on M 85
front to fill up M 85
frees up lots of M 85
freed to join in M 85
frame to move in M 85
front to lift the M 84
front on what is M 84
front is meant to M 84
freed in most of M 84
freed at once by M 84
fraud the hire of M 84
front we were to M 83
front the fire of M 82
fraud to take the M 82
frame we wish to M 82
frame to turn the M 82
front to those in M 80
front of what in M 80
front he told me M 80
fraud or wrong of M 80
fraud or theft in M 80
fraud or from the M 80
fraud or even the M 80
frame is left to M 80
frame in need of M 80
frame in form of M 80
front the cost of M 62
front or even in M 61
frame the ends of M 57
freer the play of M 54
front to move in M 53
frame the text in M 53
frame the edge of M 53
front is coming in M 51
front or back so M 50
frame the means of M 49
front or even to M 47
frame the back of M 47
frame in view of M 46
front the mass of M 44
frame the book as M 44
front the road to M 43
front or back on M 43
fraud is seen as M 43
frame or even to M 43
freed as many as M 42
front we call the M 41
front to play the M 41
frame the text as M 41
frame the reading of M 41
front to free the M 40
freeing it from the D 15454
fruit as well as D 9995
freeing us from the D 7830
fruit of years of D 6486
fresh as well as D 5231
fruit the size of D 4182
fruit is said to D 3788
fruit is used in D 3022
fresh as when he D 2902
fresh as when it D 2850
fruit is eaten by D 2660
fruit is used as D 2632
fruit as soon as D 2535
framing the plan of D 2338
fruit is used to D 1930
fresh as when we D 1884
freeing me from the D 1850
fruit is ready to D 1708
frame of film is D 1572
freeing me from my D 1466
fruit is ripe in D 1458
frank as well as D 1455
fresh as when the D 1420
fruit is ripe it D 1334
fruit of faith in D 1324
fruit is rich in D 1312
freeing the mind of D 1282
fraud in sale of D 1246
fringed the edge of D 1226
fresh in from the D 1204
frost as well as D 1171
front of rows of D 1170
frogs as well as D 1160
freeing the flow of D 1138
fruit of some of D 1136
fruit by means of D 1136
fruit of love is D 1124
fresh in mind the D 1092
frame the laws of D 1080
fresh as those of D 1064
fruit of such an D 1056
framing as well as D 1020
friars as well as D 1004
fruit of faith is D 998
fruit is like the D 934
froze as soon as D 934
fresh as ever in D 932
fruit the tree is D 858
fruit is ripe the D 848
fruit is full of D 822
fruit or seed of D 812
fruit as much as D 802
fruit is eaten in D 797
framing the laws of D 786
front of your ear D 780
fruit is sold in D 768
freeing the rest of D 712
fruit as early as D 692
frogs to come up D 682
fruit is high in D 666
frame of film in D 654
fruit is good to D 642
fruit is sent to D 634
froze as hard as D 632
fruit of what we D 630
fresh as from the D 628
fruit of ages of D 626
freeing the body of D 620
fruit in some of D 600
fruit as part of D 600
fruit of what he D 596
frogs the size of D 592
fringes of what is D 580
frank as soon as D 578
fringes as well as D 560
fruit or seed is D 554
fruit is held in D 550
fruit to make it D 544
fruit is more or D 544
fruit in time to D 544
fruit of love to D 512
freeing the mind to D 512
framing the view of D 507
fried in lard or D 492
frank to come to D 492
framing the bill of D 492
fresh to look at D 486
freeing the land of D 486
fruit is left on D 476
frost is said to D 471
fruit is eaten as D 464
frost is past in D 461
fruit as fast as D 452
fresh up from the D 450
fresh or used in D 450
fruit of what is D 440
fruit is sold by D 436
froze as fast as D 436
froze the heart of D 432
frank is able to D 432
fruit is used by D 428
fruit is from the D 428
fruit is made up D 423
frame is hinged to D 422
fringes of hair on D 420
fruit is seen in D 418
frame of film to D 418
fruit be here to D 416
fringed the bank of D 416
fruit is left to D 412
frank to take the D 410
fresh in mind to D 408
fruit it bears is D 396
fruit to feed the D 394
freeing up time to D 392
fruit to make the D 390
fringes of some of D 390
framing the face of D 389
frame of film or D 382
fried in ghee or D 381
fringed the base of D 380
frank is trying to D 376
fruit in years to D 374
fruit of love in D 372
fruit of life is D 358
fruit is kept in D 356
fruit is sold at D 354
fresh as soon as D 353
fruit to grow in D 346
frost in spring is D 345
fruit to keep it D 338
fruit to fall to D 338
fruit of these is D 336
freeing up some of D 334
fruit to sell to D 332
fruit it must be D 332
fresh to stir to D 332
frank as much as D 330
fruit be used in D 322
fruit of life in D 320
frame of film at D 316
fruit is part of D 310
frost by means of D 310
freeing up more of D 308
fruit is sold to D 306
fruit is such as D 304
fringes the edge of D 303
freeing the city of D 302
frank in saying so D 302
framing the list of D 302
fruit of most of D 298
frame of iron or D 298
fruit if there is D 294
framing is used to D 294
frost is over in D 292
frees the soul of D 292
fruit or from the D 288
fruit is sure to D 286
fruit is ripe or D 284
fruit of many of D 282
framing the laws by D 282
frost to kill the D 280
fruit to such an D 278
fruit is hard to D 278
framing the meaning of D 278
framing by means of D 277
fruit or nuts or D 276
fruit it will be D 276
fruit as when on D 276
frost is leaving the D 276
fruit to snap at D 274
fresh by means of D 274
frame to suit the D 272
fruit to give to D 268
frank to tell me D 268
fried or used in D 266
fresh or used to D 262
fresh as ever to D 262
fruit the good of D 260
freed the soul of D 258
fruit to fill the D 256
frost or snow in D 256
fruit of good or D 254
fresh as ever it D 254
fruit at last in D 252
fruit of what the D 250
fruit is sold on D 247
frame is hinged at D 246
frock is when he D 244
freeing the user to D 244
front or abut on D 241
fruit to look at D 240
fruit it bears in D 240
friars to come to D 240
frost to form on D 238
friars in many of D 238
fruit is left in D 236
framing of some of D 235
fruit to take to D 232
freeing my mind of D 232
frame the bill of D 232
fruit on some of D 230
front of cars to D 230
front of cars or D 230
fresh in mind as D 230
fruit is just as D 229
framing of what is D 225
fruit to come to D 224
froze so hard as D 224
fruit of love of D 222
frill of lace or D 222
fried the fish in D 222
fruit is like an D 220
friars be sent to D 220
fraud in filing the D 220
framing of such an D 220
fruit at once of D 218
frill of lace at D 218
fruit or fish or D 216
frown of thine is D 216
freeing us from it D 216
framing is used in D 215
fruit to keep the D 214
frost is rare in D 212
frank to give me D 212
fruit to reach the D 210
fringes by means of D 210
freeing the time of D 210
frank in what he D 210
framing an ideal we D 210
frame the laws by D 210
fries as well as D 209
fruit is oval in D 208
freeing the other to D 208
fruit to sell in D 206
fruit as good as D 206
fruit or prey it D 204
froze the rest of D 204
frost to make the D 204
freeing of some of D 204
freed of dust by D 202
fruit on wood of D 200
freeing the mass of D 200
fruit to meet the D 198
fruit the same as D 198
frond is said to D 198
fruit or seed to D 196
framing of laws to D 196
freed on bail in D 194
framing the face in D 194
fruit of life as D 193
frost or snow or D 193
front in lieu of D 193
fruit or pods of D 192
fruit in part of D 192
framing the rest of D 192
framing the body of D 192
fruit to come of D 190
froze the breath in D 190
freed on bail of D 190
fruit as mild as D 188
fresh to talk to D 188
frank the diary of D 188
framing the code of D 188
frame is clad in D 188
frown as well as D 187
fresh to tell us D 186
franc as well as D 186
frost in most of D 185
framing the work of D 185
fruit is ripe on D 184
fringes of what we D 184
fruit is held at D 182
fringes of many of D 182
fruit is seen to D 180
frost as hard as D 180
frees the soul to D 180
freeing the bulk of D 180
fruit of peace is D 178
frank the means of D 178
fringed the foot of D 176
freeing the town of D 176
freeing the form of D 176
freed the soil of D 176
frame the laws to D 176
fruit to send to D 174
fruit of life to D 174
fresh tea into the D 174
fruit is among the D 172
frank to make the D 172
frank is said to D 172
fruit to grow on D 170
fruit in trying to D 170
freeing the soul of D 170
framing the kind of D 170
frock is made of D 169
fruit to speak of D 168
fruit the heads of D 168
fruit is also of D 168
fruit is also an D 168
fruit as thick as D 168
fresh as ever on D 168
frank to leave the D 168
freaks as well as D 167
fruit in lieu of D 166
froze at what he D 166
freed the bulk of D 166
fruit or seed in D 165
fruit we have in D 164
fruit is made to D 164
fruit in many of D 164
freeing the soil of D 164
frank is sent to D 164
frank in some of D 164
fruit or nuts to D 162
fruit in most of D 162
fruit as late as D 162
front he threw up D 162
freed to roam the D 162
framing of many of D 162
frown on such an D 161
fruit to sell at D 160
fruit is what the D 160
frame of film on D 160
frame my lips to D 160
fruit the mark of D 158
fruit is able to D 158
froze the sweat on D 158
frost as early as D 157
framing of laws in D 157
fruit to some of D 156
fruit of three or D 156
frank to give up D 154
framing of laws is D 154
frame the shot so D 154
freeing the soul to D 152
frank to come up D 152
frost is able to D 151
fried in lots of D 151
fruit of living in D 150
fruit is lost in D 150
froze so hard in D 150
front the gleam of D 150
frost in spring or D 149
fruit of work is D 148
fruit is what we D 148
fruit is only the D 148
fruit in what is D 148
frank is ready to D 148
frame the news in D 148
fruit is eaten at D 146
fresh in mind of D 146
freed on bail or D 146
frank as part of D 146
framing of laws by D 145
fruit so soon as D 144
fruit of many an D 144
fruit is meant to D 144
fruit at time of D 144
frost as late as D 144
fringed by rows of D 144
freaks so much to D 144
frank to talk to D 144
frame in lieu of D 143
fruit to spring up D 142
fruit of some is D 142
fruit is worth the D 142
frank to look at D 142
frank to help me D 142
frank to have the D 142
frank is just the D 142
fruit up from the D 140
fruit in time of D 140
fruit as those of D 140
fruit is eaten to D 138
frost or snow on D 138
front to ride in D 138
frisk it over the D 138
freeing it from an D 138
frank as those of D 138
framing an ideal of D 138
fruit to grow to D 136
fruit to give it D 136
fruit the name of D 136
fruit is gold in D 136
freeing the body to D 136
freeing of most of D 136
fruit on sale in D 134
fruit is done by D 134
frost to take it D 134
framing the back of D 134
frame of soul in D 134
fruit of love as D 133
frost in spring to D 133
fruit is also the D 132
frost is sure to D 132
frank to take it D 132
frame the laws in D 132
fruit is laid on D 130
fruit in five or D 130
front to suit the D 130
front of cars on D 130
fringed the bank he D 130
frank in saying he D 130
fruit is oval or D 128
frost is past the D 128
fringes of life in D 128
friars to dine at D 128
frown as much as D 126
front of heaps of D 126
fringed the back of D 126
fresh in mind it D 126
fresh in mind by D 126
freeing the ends of D 126
frank is also the D 126
framing is made of D 126
framing as best we D 126
fruit in days to D 124
frost of fact by D 124
frame of film as D 124
fruit of peace in D 122
front of cars in D 122
fringes the base of D 122
fresh it will be D 122
fresh in mind he D 122
freed my soul in D 122
frame of iron to D 122
fruit the tree of D 120
frown or look of D 120
front by pots of D 120
fringes of most of D 120
fresh to make the D 120
freeing the heart of D 120
fruit at least in D 118
fruit as fine as D 118
frost or snow is D 118
front in facing the D 118
fresh as those in D 118
freed of salt by D 118
franc to make up D 118
fruit to make up D 116
fruit or nuts in D 116
fruit in much the D 116
froze the sale of D 116
frost is trying to D 116
front by bringing the D 116
framing the oval of D 116
fruit of much of D 114
fruit is what is D 114
fruit in three or D 114
fruit at length in D 114
froze on deck to D 114
front of troy the D 114
front of beds or D 114
front is ashy or D 114
freeing the ship of D 114
freeing as much of D 114
franc to keep it D 114
frame the task of D 114
frame of iron at D 114
fruit is sold as D 113
framing the role of D 113
fruit or none at D 112
fruit it bore in D 112
frogs by means of D 112
fresh to tell me D 112
fresh as upon the D 112
freeing us from an D 112
frank is coming to D 112
framing the text of D 112
frame of wire or D 112
fruit to give the D 110
fruit is there to D 110
fruit is there in D 110
fruit is made of D 110
frost to break up D 110
frost of spring to D 110
front he took up D 110
fresh as when my D 110
framing the theory of D 110
frame of saws in D 110
frame as tall as D 110
fritz as soon as D 109
fruit at once in D 108
frost to speak of D 108
frank to pick up D 108
framing the part of D 108
frame of soul is D 108
frank to come in D 107
frame the task in D 107
fruit of work in D 106
froze the cloth on D 106
froze so hard it D 106
frost to snow as D 106
fresh it must be D 106
freeing the last of D 106
freed the duke of D 106
fruit to fall on D 105
fruit is ripe is D 104
froze up like an D 104
front the mouth of D 104
frond is more or D 104
fresh tea from the D 104
fresh or from the D 104
fresh in mind is D 104
frank to join us D 104
framing the life of D 104
frame or grid of D 104
frost as soon as D 103
fruit to gnaw at D 102
froze so hard on D 102
fresh as much as D 102
framing the case in D 102
frame of film by D 102
friars to live in D 101
fruit is what he D 100
front of york is D 100
fringed the side of D 100
fresh as fast as D 100
freed on bail on D 100
framing the form of D 100
frame the skin is D 100
freeing as well as D 99
fruit to show the D 98
fruit or bread or D 98
fruit of many is D 98
fruit is sent by D 98
fruit is much the D 98
fruit is made in D 98
fruit is eaten or D 98
froze the flow of D 98
frame of iron in D 98
frame my mouth to D 98
fruit or even the D 96
fruit if there be D 96
fruit by dint of D 96
fruit at just the D 96
frown of anger on D 96
frost to stop the D 96
frock he wore in D 96
fresh or kept in D 96
frank as face of D 96
framing is part of D 96
fruit or nuts of D 94
fruit is ripe to D 94
fruit is kept at D 94
fruit is good in D 94
front of cars at D 94
fritz is trying to D 94
fried in lard to D 94
fresh as ever the D 94
frank to take me D 94
framing the heads of D 94
frame of gold or D 94
frame he bore the D 94
fruit of want of D 92
front by bringing up D 92
friars to give up D 92
fresh in many of D 92
framing the range of D 92
framing of laws as D 92
framing to hold the D 91
fruit we know the D 90
fruit in four or D 90
frown of pain on D 90
front of hers to D 90
fringed by some of D 90
friars as early as D 90
freeing the skin of D 90
freeing the self of D 90
freeing the means of D 90
frank to join the D 90
framing an ideal on D 90
frame an inch or D 90
fruit is sent in D 89
fruit to make an D 88
fruit so well as D 88
fruit of toil or D 88
froze the size of D 88
front of your ex D 88
fresh or loud in D 88
fresh as ever at D 88
freeing the mind is D 88
freeing it over the D 88
freed on bail by D 88
framing the name of D 88
framing of wood or D 88
frame or yoke of D 88
frame or casing of D 88
friars to work in D 87
fruit we have to D 86
fruit of peace or D 86
fruit in case of D 86
froze up during the D 86
froze the tips of D 86
froze the back of D 86
froze as well as D 86
frogs as part of D 86
frock of what is D 86
fried as soon as D 86
friars to leave the D 86
fraud or sham or D 86
frank to think of D 86
frank to keep the D 86
front it bears the D 85
fruit to form the D 84
fruit the rest of D 84
fruit is late in D 84
front of left ear D 84
fringes of silk or D 84
fried in some of D 84
friars to teach the D 84
fresh in half the D 84
fresh as rose in D 84
franc is tied to D 84
fruit to take on D 82
fruit to last us D 82
fruit or work of D 82
fruit is made by D 82
fringes of pearl as D 82
friars as much as D 82
fresh ox bile to D 82
fresh or used as D 82
freeing the user of D 82
freed on bail to D 82
frank is only the D 82
framing it will be D 82
fresh as those on D 81
froze the tears on D 80
front is hinged to D 80
frogs is part of D 80
fresh in tone as D 80
fresh in mind we D 80
freed the crew of D 80
freed by heating the D 80
frank to leave an D 80
frank to have it D 80
frank in giving the D 80
fried the last of D 67
front at least as D 64
fruit to feed on D 63
frost or when the D 62
frost or snow to D 60
fried the eggs in D 55
frost it will be D 54
frost as much as D 52
fried as well as D 47
framing is made up D 47
fruit to come in D 45
frost to break the D 45
frame the theme of D 45
frown on some of D 44
frown at such an D 44
frost is seen in D 44
front the open sea D 44
frond of fern or D 44
fried or used as D 44
frown on even the D 43
frown as soon as D 43
frost so well as D 43
frost in north of D 43
framing as part of D 43
frock the name of D 41
framing the ways in D 41
fruit is hanging on D 40
frank to come on D 40
frame the roof of D 40
frame at least as D 40
