friends of the earth M 161844
friends of the new M 23777
freedom in the use M 16112
freedom of the air M 14837
friends in the east M 14232
friends of the dead M 14078
friends of the old M 12768
friends of my own M 11540
fraction of the area M 11423
fraction of the heat M 10332
freedom in the new M 9669
fraction of the earth M 9588
freedom in the age M 8548
friends in the area M 8427
freedom of the new M 8279
friends in the old M 8217
friends in the new M 7506
friends of the two M 7487
freedom on the one M 7040
fraction of the year M 6876
friends on the way M 5932
fraction of the sum M 5564
freedom at the end M 5355
friends to the end M 5307
friends at the end M 4960
friends of the poet M 4902
fraction of the real M 4898
fraction of the new M 4883
fraction of the sun M 4797
freedom in the way M 4598
friends of the man M 4356
friends at the bar M 4214
freedom in the air M 4185
freedom to do things M 4078
fraction of the day M 3900
friends to go with M 3780
freedom to go out M 3685
friends as if they M 3668
freedom of an old M 3598
freedom of the poet M 3514
fraction of the mean M 3332
friends of the men M 3204
freedom to do this M 3078
friends on the one M 3018
freedom to do all M 2998
freedom to be who M 2985
fraction of the two M 2926
friends in the war M 2870
fraction of the air M 2842
freedom of the man M 2816
fraction of the sky M 2809
freedom of the two M 2800
freedom of the old M 2790
fraction of the net M 2745
freedom of the one M 2601
friends as he had M 2446
friends to the new M 2426
freedom in the east M 2389
freedom to go and M 2318
friends in the way M 2280
friends on the team M 2197
friends to go and M 2190
friends as he was M 2184
fraction of the old M 2164
freedom to do and M 2150
freedom on the job M 2130
friends of the law M 2084
freedom to do that M 2076
freedom to be and M 2053
friends as to his M 2030
friends as we are M 2024
freedom of the act M 1972
fraction of the men M 1948
freedom as if they M 1926
fraction of the way M 1862
friends to go out M 1859
friends to be with M 1836
fraction of the non M 1830
freedom in the old M 1822
friends on the day M 1816
friends at the new M 1805
freedom as an end M 1781
freedom as to how M 1770
freedom of my own M 1768
freedom of the ego M 1694
freedom of the sky M 1612
friends in the two M 1610
friends of the red M 1606
fraction of the age M 1584
friends on the job M 1564
freedom in the area M 1558
freedom is the one M 1545
freedom to do with M 1530
freedom is the key M 1516
friends in the bar M 1508
fraught as it was M 1501
freedom in an age M 1487
friends of the dying M 1486
fraction of the things M 1448
fraction of it was M 1446
friends in my own M 1436
friends in the far M 1430
friends in the rear M 1424
fraction of the long M 1396
fraction of the low M 1389
freedom to do his M 1380
friends by the way M 1366
freedom to be one M 1354
friends of the boy M 1344
freedom in the end M 1341
friends at the east M 1337
friends to me and M 1336
freedom is to them M 1334
fraction is the sum M 1321
freedom to be with M 1309
freedom in the long M 1294
freedom of the few M 1238
freedom as he had M 1238
friends at the top M 1234
friends of the one M 1218
freedom as it was M 1216
freedom to the new M 1198
fragile as it was M 1198
freedom in the act M 1188
fraction of the one M 1174
freedom in so far M 1166
fraction of the gap M 1150
freedom at the age M 1138
friends in the big M 1132
freedom in the two M 1118
freedom of the earth M 1105
friends in the end M 1099
fraction of it that M 1096
freedom we do not M 1088
friends of the day M 1083
friends we do not M 1080
friends to the old M 1068
friends as to how M 1062
fraction of it can M 1030
freedom is the way M 1022
friends on the east M 1010
fraction at the end M 997
friends in the air M 986
freedom it is not M 980
friends of the war M 975
friends as it was M 974
freedom of the men M 970
freedom as it has M 967
freedom of the for M 954
fraction of the pre M 950
friends at the head M 926
friends of the air M 922
friends of the east M 916
fraction of the dry M 914
friends to go for M 912
friends if he had M 910
friends or to his M 906
friends as we had M 900
friends in the long M 898
fraction of the pay M 898
friends in to see M 896
friends on the new M 895
freedom if we are M 891
freedom of the law M 890
friends to do this M 886
friends by the end M 882
friends at the old M 875
friends in the year M 872
friends as he has M 860
friends to do things M 856
fraction of it has M 848
freedom of the east M 845
friends as he did M 834
fraction of the job M 832
fraction of the man M 818
freedom of the head M 814
freedom of the son M 808
friends to be his M 804
friends as if she M 802
friends at my own M 798
freedom is the law M 788
friends in the day M 778
fraction of the set M 778
friends in the real M 761
friends it is not M 752
fraction of the red M 750
freedom to us and M 742
freedom of it all M 728
fraction of the top M 724
friends as he can M 704
freedom is an end M 697
freedom is an idea M 682
freedom in the real M 677
freedom of the non M 673
freedom is the end M 670
freedom he or she M 658
fraction of the end M 654
friends of the long M 653
freedom of the big M 646
freedom as he was M 642
friends at the age M 638
freedom to do one M 637
freedom in the war M 637
friends of the act M 636
freedom in my own M 634
freedom at the top M 624
freedom to be won M 616
friends of my son M 615
freedom to the end M 605
freedom of the use M 602
friends of my dear M 600
freedom in the near M 598
friends to do for M 596
friends if we are M 596
fraction of an idea M 592
friends of the then M 590
friends he or she M 588
freedom to go off M 587
friends in the eye M 584
friends to do that M 578
freedom to be his M 576
freedom of us all M 574
freedom of the age M 573
freedom is the real M 571
friends or as foes M 568
fraction is in its M 568
friends in the law M 566
friends in the mid M 558
friends on my own M 556
friends of my age M 556
fraction of it may M 554
friends in the pit M 552
friends in the low M 548
freedom of an act M 548
friends in the red M 541
fraction at the top M 539
friends to eat with M 534
freedom in the day M 532
freedom to be all M 523
freedom is in this M 520
fraction of the going M 520
freedom is an act M 516
friends of the son M 515
freedom to the man M 514
freedom of the low M 513
freedom in the year M 513
freedom in the one M 513
freedom is the sum M 511
friends to tea and M 510
friends of the real M 509
friends if it was M 508
fraction of the lead M 508
fraction of it and M 504
friends or of his M 502
freedom as we are M 502
freedom to be real M 496
friends at the war M 490
friends in the near M 488
freedom of the day M 488
friends or the foes M 478
friends of the bar M 476
fraction of the bit M 473
friends in my new M 470
friends to do all M 466
freedom of the weak M 464
friends to the top M 459
freedom of the arm M 459
friends in or near M 458
freedom to be had M 455
freedom to be our M 454
freedom in the far M 453
freedom to the men M 452
freedom of the idea M 448
freedom if he had M 445
friends to eat and M 444
friends as he and M 444
fraction of the web M 442
fraction is the one M 442
friends in the non M 441
friends of the sun M 440
friends on the earth M 438
friends as to who M 438
freedom if he can M 434
fraction of the path M 434
freedom is in its M 432
fraction of the lot M 430
friends on the far M 428
freedom in the mid M 427
friends or in his M 426
friends to the day M 424
freedom as to his M 422
friends to the law M 416
friends in an old M 416
friends of the death M 414
freedom on the earth M 412
fraction of the big M 410
freedom to do any M 409
freedom in no way M 408
freedom to be out M 407
freedom to eat and M 406
friends so as not M 404
friends on the top M 404
freedom by the use M 404
freedom of the god M 403
friends if we had M 402
fraction of the dead M 399
friends as to her M 398
freedom as it had M 396
friends of the big M 394
friends as by his M 392
fraction of the all M 392
fraction of the aid M 392
fraction of it for M 392
friends to us and M 388
freedom to be for M 387
friends or by his M 384
freedom to do its M 384
freedom to the weak M 380
friends if he was M 378
freedom of the boy M 378
freedom in the sky M 378
friends or to any M 374
freedom as we can M 374
fraction of the head M 374
friends if it had M 372
friends if he did M 372
freedom as he has M 370
friends in the box M 364
friends as it had M 364
friends as of old M 362
fraction of the map M 360
friends in the sky M 359
friends to the east M 357
freedom in the law M 357
freedom as he did M 356
freedom to be her M 355
friends of an old M 350
freedom to go with M 349
freedom to be that M 348
freedom to go his M 346
freedom of the long M 346
friends or go out M 344
friends of the dear M 344
friends if he has M 344
freedom or to die M 344
friends to the death M 342
freedom to the few M 342
freedom to do our M 342
friends as to its M 340
freedom as the key M 340
freedom of the eye M 338
fraction in the sum M 337
friends to do him M 334
friends as to foes M 334
freedom is as old M 334
freedom by the end M 334
freedom as he can M 334
freedom as the end M 333
friends in my old M 332
freedom to the one M 330
friends on the set M 328
freedom on the day M 328
friends on the path M 326
freedom is in our M 326
friends or of foes M 324
fraction of the six M 324
friends as he does M 322
fraction of the war M 322
fraction of the ash M 322
friends up to this M 320
freedom is in his M 320
freedom is at its M 320
freedom as an idea M 318
friends do it for M 316
freedom is to say M 316
freedom is it that M 316
freedom as we had M 316
frailty of the man M 315
freedom is the idea M 314
fraction of the ten M 313
friends on my way M 312
freedom by the law M 312
fraction of the key M 312
fraction in the two M 310
friends as we can M 308
friends on the net M 304
friends of the kings M 304
freedom in the era M 304
fraction of it had M 304
friends go to see M 302
freedom as he does M 301
friends on the long M 300
fraction of an arc M 300
friends of the year M 298
friends of the idea M 296
friends in so far M 296
friends at my age M 296
freedom to do her M 294
freedom of the real M 294
freedom as the men M 294
fragile of the two M 294
fraction of the meat M 291
freedom is the aim M 290
freedom if we can M 288
friends to do his M 284
friends in the few M 284
freedom of the out M 284
freedom as the one M 284
freedom as the law M 284
friends if we can M 282
friends as to why M 282
freedom in the job M 282
friends of the god M 281
freedom of the war M 280
fragile as it may M 280
friends of the non M 279
friends in or out M 278
freedom to be both M 278
freedom by the aid M 278
friends of the pre M 277
friends to me than M 276
friends or do you M 276
friends on the old M 276
freedom if he does M 276
freedom in the low M 275
freedom as it does M 274
frailty of the old M 274
friends to be her M 272
fraction of the joy M 272
freedom as an act M 270
freedom as we now M 268
freedom to be god M 264
friends of us all M 260
friends is the one M 260
friends if he does M 260
freedom if he has M 260
fraction of the bar M 260
friends in the one M 259
friends to be one M 258
fraction of the beat M 256
friends so we can M 254
friends or to get M 254
freedom as it did M 254
friends of the head M 252
friends of the due M 248
friends in the earth M 248
friends to the real M 246
freedom in an era M 246
fragile as he was M 246
fraction of the weak M 246
friends in the mean M 245
friends or to our M 244
friends of the ill M 244
friends in the top M 244
friends in the act M 244
friends to go off M 242
freedom to go its M 242
friends at the big M 240
freedom on the death M 240
freedom is in any M 240
freedom in the non M 239
friends or to see M 238
friends at my new M 238
fraction of the box M 237
freedom if it does M 236
friends be to you M 234
freedom to go for M 233
fraction of an earth M 232
friends so it was M 230
friends of the six M 230
friends of my old M 230
friends as the man M 230
fraction in the low M 230
fraction by the use M 230
friends up to his M 228
freedom to do god M 228
freedom is the act M 228
freedom of the area M 226
freedom to the two M 224
friends of the team M 222
friends in the death M 222
friends at my old M 222
freedom to eat meat M 222
fraction of the law M 222
freedom in an area M 221
friends to do them M 220
friends to be put M 220
friends or to her M 220
friends to be thus M 218
freedom in so doing M 218
fraction of the use M 218
freedom to the non M 216
freedom in the fit M 216
friends at the red M 215
freedom of the being M 215
friends in the men M 214
fraction of it being M 214
freedom to the air M 213
friends if he can M 212
freedom to do them M 210
freedom to be not M 210
fraught to me with M 210
fraction as the sum M 210
freedom of the end M 209
freedom in the sun M 209
friends to go see M 208
freedom to an end M 208
freedom of the pre M 208
freedom is to use M 208
freedom as the non M 208
fraction of the near M 208
friends of the now M 205
friends to the bear M 204
friends in it and M 204
friends by so doing M 204
fraction of the mix M 204
fraction of my day M 203
friends up to that M 202
freedom as it can M 202
freedom of the red M 201
freedom if it was M 201
friends in an area M 200
freedom to be you M 200
freedom on the way M 200
frailty of my own M 200
freedom to the law M 199
friends to the man M 198
friends or do not M 198
freedom on me and M 198
friends at the far M 197
freedom to the poet M 196
freedom as to its M 196
fraction of the bias M 195
friends to the men M 194
friends he is not M 194
friends go so far M 194
friends as it does M 194
freedom is to him M 194
fraction of the arc M 193
freedom to the old M 192
freedom on the air M 192
freedom is to mean M 192
freedom is to act M 192
freedom if he was M 192
friends or if they M 190
friends if we did M 190
fraction of my own M 190
fraction of it goes M 190
friends as if you M 188
freedom to the use M 188
freedom in the earth M 188
fraction of the wet M 188
friends as the one M 187
friends as my dear M 186
freedom to be let M 186
fraction of the run M 186
friends of no one M 184
freedom on to see M 184
fraction in the air M 184
freedom as of old M 183
friends to the big M 182
friends on the head M 182
friends of us both M 182
friends in the dear M 182
friends by the use M 182
freedom so as not M 182
freedom is in one M 181
friends to my own M 180
friends is of this M 180
friends of the dog M 179
friends to me for M 178
friends on the death M 178
friends at or near M 178
freedom by an act M 178
freedom as if she M 178
friends to be our M 176
friends as we did M 176
friends as an act M 176
freedom is the being M 176
fragile thing if its M 176
fraction of the death M 176
freedom of the dead M 174
freedom in the idea M 174
fraction of the few M 174
friends to be near M 172
friends to be dead M 172
freedom to the death M 172
fraction of the then M 171
freedom in the big M 170
fraction of the mid M 170
fraction of an area M 170
freedom if he did M 169
friends to us both M 168
freedom is to see M 168
freedom in the out M 168
fraction of the far M 168
freedom of the six M 167
friends to the use M 166
freedom in it and M 166
freedom as we did M 166
fraction in the top M 165
friends to be too M 164
friends or be they M 164
friends is to get M 164
friends as it has M 164
friends as he may M 164
freedom by the new M 164
frailty of the new M 164
friends to the war M 163
friends to the two M 163
freedom of the fit M 163
friends to me are M 162
friends or if you M 162
friends as in his M 162
freedom to the head M 162
freedom is the man M 162
freedom at the head M 162
fraction of it with M 162
freedom is to let M 160
freedom by the death M 160
fragile in the long M 160
freedom if it can M 159
friends up to now M 158
friends to do with M 158
friends in no way M 158
freedom as if you M 158
freedom is so far M 157
friends to us than M 156
friends to do her M 156
friends to be not M 156
friends or we can M 156
friends in the wings M 156
freedom or of his M 156
freedom is to get M 156
freedom is to bring M 156
freedom is by this M 156
friends to the dead M 155
friends to no one M 154
friends on the run M 154
friends as to any M 154
freedom or to death M 154
freedom is the non M 154
friends to the idea M 152
friends to an old M 152
freedom to sing and M 152
freedom of the job M 152
freedom of the bar M 152
freedom as is not M 152
freedom as he saw M 152
fraction of the team M 152
friends is to ask M 150
friends at the seat M 150
freedom of the sum M 150
freedom in the pre M 149
friends to the area M 148
friends the king had M 148
friends or in any M 148
friends of the few M 148
friends in the use M 148
friends in the sun M 148
friends as it did M 148
freedom at the war M 148
friends of the far M 147
friends to the bar M 146
friends of my god M 146
friends as my own M 146
freedom to be led M 146
freedom of the run M 146
freedom is the path M 146
freedom is the new M 146
freedom in an act M 146
friends to us all M 144
friends or of our M 144
friends in the team M 144
friends by the arm M 144
freedom to do new M 144
freedom on the far M 144
freedom of the all M 144
freedom is to aim M 144
freedom if it has M 144
freedom by the men M 144
fraction of it all M 143
friends of the weak M 142
friends of the things M 142
friends he is all M 142
friends be at ease M 142
friends as of his M 142
freedom is to die M 142
freedom is no way M 142
freedom at the death M 142
freedom as the old M 142
freedom as it may M 142
friends on the two M 140
friends on the lot M 140
freedom on the plea M 140
freedom as we use M 140
friends in the heat M 138
freedom to us all M 138
freedom to the east M 138
friends at the air M 137
friends up to her M 136
friends in to hear M 136
friends in my eye M 136
friends as by its M 136
freedom in the things M 136
freedom he is not M 136
freedom as the man M 136
fragile as the wings M 136
friends by the death M 134
frailty of the earth M 134
freedom of the set M 133
friends to sing and M 132
friends to be had M 132
freedom to the idea M 132
friends on the web M 131
freedom to eat his M 131
freedom of the top M 131
freedom of the sun M 131
friends as to our M 130
friends as the new M 130
freedom on my own M 130
freedom is at all M 130
freedom is an old M 130
fraction of the meal M 130
friends of the sad M 128
friends go to him M 128
freedom to do for M 128
freedom is to ask M 128
freedom if it had M 128
fraction of an eye M 128
friends in so doing M 126
friends he be not M 126
friends as the two M 126
fraction of the cut M 126
friends to the one M 125
freedom or of this M 124
freedom is to put M 124
freedom in the bud M 124
friends at the day M 123
friends or in our M 122
friends on the big M 122
friends as we got M 122
friends as we all M 122
freedom to the long M 122
freedom to be its M 122
freedom of the poem M 122
fraction of the eye M 121
friends is the way M 120
friends is an old M 120
frailty on the one M 120
freedom in the set M 119
friends to do any M 118
friends of my new M 118
friends as we sat M 118
freedom is in god M 118
freedom as in this M 118
friends to do but M 116
friends on the idea M 116
freedom to the earth M 116
freedom is an odd M 116
freedom as in any M 116
friends to the red M 115
friends or of one M 115
freedom as the way M 115
friends or to one M 114
friends it is all M 114
friends is of all M 114
friends as the dead M 114
friends as he saw M 114
freedom is to set M 114
freedom is to run M 114
freedom of the far M 113
fraction to the sum M 113
friends to do and M 112
friends of the kid M 112
friends is to let M 112
friends do so too M 112
friends as he sat M 112
freedom to the way M 112
freedom or do they M 112
freedom is as real M 112
freedom as to her M 112
frailty if it had M 112
fragile as the old M 112
freedom as the two M 111
friends or to foes M 110
friends or on his M 110
friends in an easy M 110
friends do to this M 110
friends do it and M 110
friends at the rear M 110
friends as he goes M 110
freedom of the now M 110
freedom of it and M 110
freedom is the use M 110
frailty of the weak M 110
frailty in the way M 110
fraction in the new M 110
freedom in the arm M 109
fraction of the out M 109
friends or to read M 108
friends or by foes M 108
friends of me and M 108
freedom so we can M 108
freedom if it did M 107
friends to the boy M 106
friends to it and M 106
friends to be doing M 106
friends or of any M 106
friends or my foes M 106
friends in the poem M 106
friends at the two M 106
friends at the law M 106
friends as we few M 106
friends as the real M 106
freedom to the arm M 106
freedom is by way M 106
freedom is as yet M 106
freedom by so doing M 106
fraction of an old M 106
fraction is so low M 106
friends up to see M 104
friends so he can M 104
friends or at any M 104
friends of the way M 104
friends of king and M 104
freedom is the song M 104
freedom as an aid M 104
friends or to use M 102
friends or as men M 102
friends in the idea M 102
friends as an old M 102
freedom on the path M 102
freedom of the song M 102
freedom in the man M 102
fragile it is and M 102
freedom as to all M 101
friends to be dying M 100
friends or of its M 100
friends in the head M 100
freedom to my own M 100
freedom to be non M 100
freedom ring the let M 100
freedom of it was M 100
friends or by any M 98
friends in the six M 98
friends he is going M 98
friends at an old M 98
freedom to the day M 98
freedom to be weak M 98
freedom to be bad M 98
freedom is in being M 98
freedom is as far M 98
fragile to be put M 98
fraction to be got M 98
fraction of the log M 98
fraction is by far M 98
friends in an age M 96
friends at the death M 96
friends as we may M 96
freedom to the eye M 96
freedom to be men M 96
freedom so he can M 96
freedom is of two M 96
freedom is by far M 96
fragile as an old M 96
fraction in the non M 95
friends to eat them M 94
friends in on this M 94
friends as the men M 94
freedom of an age M 94
freedom as the real M 94
freedom as in our M 94
fragile in the way M 94
fraction of the ill M 94
freedom to the god M 93
friends to us for M 92
friends to be won M 92
friends is to see M 92
friends in the pre M 92
friends go on with M 92
friends go in with M 92
freedom is the death M 92
freedom by the way M 92
freedom as the new M 92
freedom as the aim M 92
fraction of it did M 92
friends is the key M 91
friends or to buy M 90
freedom to the act M 90
freedom to me and M 90
freedom to go our M 90
freedom of my new M 90
freedom is of all M 90
freedom at an end M 90
fraction to the new M 90
fraction of the now M 89
friends or the old M 88
friends go to his M 88
friends by the aid M 88
friends as by foes M 88
freedom or of any M 88
freedom or it may M 88
freedom of the era M 88
freedom is to try M 88
freedom in the path M 88
freedom as in that M 88
fraction of the and M 88
fraction as it was M 88
friends on the air M 87
friends to sing with M 86
friends to me one M 86
friends or of her M 86
friends do as they M 86
friends by my own M 86
freedom in it for M 86
freedom as an aim M 86
fraction of the poem M 86
friends to the head M 84
friends or at his M 84
friends on the plea M 84
friends of the bad M 84
friends it is easy M 84
friends is to put M 84
friends at the long M 84
friends as to that M 84
friends as if his M 84
freedom to be thus M 84
freedom is no use M 84
freedom as to any M 84
fraction of the fear M 84
fraction of the dog M 83
friends to do was M 82
friends to be far M 82
friends is an act M 82
friends go in and M 82
friends do so for M 82
friends as the poet M 82
freedom to be this M 82
freedom of the year M 82
freedom is no easy M 82
freedom in the joy M 82
freedom as in his M 82
frailty of the men M 82
freedom as the war M 81
friends or my own M 80
friends in on his M 80
freedom is the lot M 80
freedom is in him M 80
freedom is by its M 80
freedom at the cry M 80
freedom at an age M 80
fragile as it had M 80
friends of the ten M 59
freedom of the lay M 59
friends to be out M 57
fraught to us with M 57
fraction of the fly M 57
fraction of the east M 52
freedom to go one M 51
frailty of the one M 50
friends in the age M 49
friends of the pro M 48
friends in the then M 48
freedom of the mean M 47
friends it is that M 42
freedom it is that M 42
freedom as the son M 42
friends to me that M 41
fraction to be one M 41
friends in the now M 40
freedom in the then M 40
fragile as the one M 40
freedom of the seas D 205828
framers of the act D 15880
friction of the air D 14152
fraction of the gas D 7262
framers of the law D 7121
framers of the new D 6904
fraction of the beam D 6524
fraction of the oil D 4127
frowned up at him D 3634
fraction of an ohm D 3393
fraction of the ions D 3076
friction of the earth D 3034
friction of the two D 2523
friends of the earl D 2459
fraction of the peak D 2314
frowned on the idea D 1996
fraction of the bed D 1970
frowned at me and D 1934
fraction of the tax D 1932
frankly we do not D 1892
frowned as he read D 1702
fraction of the fat D 1632
frowned as he saw D 1614
friction of the gas D 1465
friends in the art D 1433
friends in the car D 1370
frowned on the use D 1358
frowned as if she D 1358
fraction in the gas D 1337
friction in the air D 1287
friends of the zoo D 1284
friends of the art D 1278
freedom of the pen D 1239
frowned up at her D 1174
frowned at the man D 1140
friends in the pub D 1074
freedom on thy being D 1054
friction of the ice D 1044
friends on the eve D 1008
friends in the oil D 935
friends in the bay D 935
frowned at the idea D 910
friends at the inn D 910
freedom of the gas D 899
frankly as it was D 866
frankly it is not D 836
friction of the oil D 805
fraction of the raw D 799
fraction of the ore D 778
frantic at the idea D 758
friction at the die D 754
freeman of the age D 754
freedom on the seas D 736
friends of the deaf D 734
freezes up the heat D 724
frowned at the two D 718
frankly as he had D 718
friends in the rue D 711
fraction of the rat D 694
friction of the bow D 678
friction in the two D 614
fruition at the end D 603
frankly in the eye D 602
fragile as an egg D 593
fraction of the leaf D 591
friends on the bus D 588
fraction of the gel D 575
friends in the gay D 574
friction in the area D 572
fruition in the new D 565
friends of the hon D 564
frescoes in the new D 559
frowned on by his D 552
fraction of the hot D 552
friends at the pub D 530
frowned at the boy D 518
fresher of the two D 515
friction of the pen D 512
freedom of the sod D 510
friction of the bed D 509
friction at the end D 504
frowned at it and D 500
frowned at me for D 490
friction at the top D 488
fraction of the pie D 488
frowned at the old D 484
fraction of the ice D 479
friction of the head D 478
fraction in the bed D 476
fraction of the dye D 472
friction of the rod D 470
friends of my art D 466
freedom of the chi D 465
frescoes of the old D 460
friction of the shoe D 456
freemen of the age D 446
friction of the car D 442
fraction of the per D 437
frigate in the bay D 434
frowned at the way D 430
frailty of the sex D 430
fraction of the fee D 427
frankly as it had D 426
friends at the gym D 416
freshly as he did D 407
fraction of the lung D 404
friends in the gang D 400
friction in the earth D 400
fraction of the egg D 398
freedom of the sex D 396
freshen up the old D 390
fruition in the near D 389
friction on the bed D 380
fraction of the doc D 377
frowned at it for D 376
friction by the use D 366
freemen of the new D 366
freezes in the air D 364
framers of it had D 364
fraction of the jet D 364
frescoes in the old D 362
freight as if she D 354
friction of the ions D 348
frowned at the map D 344
frowned at the sky D 332
friends do the seas D 324
fraction of the tar D 323
freedom at an inn D 322
friends of my dad D 320
freeway on the way D 318
freedom of the ions D 318
frankly as he did D 318
frowned as he put D 316
friction at the earth D 314
frowned on by all D 312
friends at an inn D 312
frowned as he sat D 310
frowned on as being D 306
friends in the mob D 298
friction of the rings D 298
friction of the pin D 298
fruition in the mid D 297
frowned on by both D 296
framers of the two D 293
fronted on the east D 292
friction in the new D 292
freedom in the art D 288
frescoes in the two D 287
fruition of the idea D 286
freemen of the old D 286
freight on the new D 280
freight at the end D 280
friction in the oil D 277
fruition of the new D 274
friends by the ears D 274
freshly as if they D 271
fruition of the path D 270
frowned on in this D 270
fraction of the sub D 269
fruition by the end D 266
freedom of my pen D 264
fruition of the long D 262
friction of the dry D 262
friction of the ram D 260
friction in the die D 260
friction on the air D 259
frowned at the odd D 258
frankly he is not D 258
friends of the dean D 257
fresher at the end D 254
fraction of the art D 252
friends in the lab D 250
freight in the car D 250
framers of the old D 250
frowned at the red D 246
friends of the bay D 246
friction of the nut D 246
friction or by any D 244
friction on the top D 244
friction in the gear D 241
frowned on it and D 240
framers of the oath D 238
frowned on in our D 236
friction of the gear D 236
fruition of the things D 234
frowned at me with D 234
freedom of the art D 232
friction on the earth D 230
fraction of the car D 230
friction as the air D 222
freight to the east D 222
freedom of the beam D 222
fruition of an idea D 220
friends in the row D 220
friction in the long D 220
fraction of the urea D 219
frowned on by her D 218
friction on the job D 218
friction on the rod D 216
friction in the use D 216
frantic as he was D 216
fraction of the wax D 216
freedom in the chi D 215
freight to the new D 214
frankly as if you D 212
frankly as he does D 212
fraction of the rod D 212
friends in the van D 208
friction of the cam D 208
friction in the gas D 208
frankly if he had D 206
frescoes of the new D 205
friction on the pin D 204
friction of the long D 204
freedom in the gas D 202
frankly to me that D 202
friction on the one D 201
freedom of the bay D 201
friends to be met D 200
friction is at its D 200
fruition of the one D 199
friends at the ale D 196
friction is of two D 196
freezes in my pen D 196
freshly on the day D 195
frowned on the new D 194
friction is to use D 194
friends at the zoo D 193
freedom of the car D 192
fruition of the year D 191
framers of the con D 191
friends at the bus D 190
friction on the two D 190
frankly at the end D 190
friction at the bed D 188
frescoes on the east D 188
frowned as he did D 186
friends of the gun D 184
friends in the gym D 184
freight to be had D 184
freeway on the east D 183
friction of an oil D 182
fretted at the bit D 182
friction in the hinge D 180
freshen it up with D 180
freemen of the two D 178
freeman of the bay D 178
freshen the sea for D 177
frowned at the long D 176
frigate of the old D 176
friends at the bay D 176
fruition of the earth D 175
frowned at the big D 174
fronted to the east D 174
friction is the sum D 174
friction in the bed D 174
friction at the two D 174
friction at the hinge D 174
freeman of the new D 174
freedom to be gay D 174
frantic as it was D 174
fraction of the par D 173
frowned as he got D 172
friction of the wings D 170
frankly to the new D 170
freedom of the oil D 169
frosted in the air D 168
friction of the one D 168
fraction of the ism D 167
friends of the lad D 166
freight on the raw D 165
fruition of the end D 164
frowned as he ran D 164
freight on the way D 164
frowned at the dog D 162
friction on the way D 162
fraction of the tin D 162
frowned up at his D 160
frowned at the use D 160
freedom on the eve D 160
fraction of an oil D 160
friction on the set D 159
frowned on by our D 158
frowned at the new D 158
friends of the van D 158
freezes to an ice D 158
fraction of the bod D 156
friction in the far D 155
freight to the end D 155
fronted by an old D 154
frowned on the old D 152
frowned at the men D 152
friends as we met D 152
friction on the end D 152
friction of the jet D 152
freshen it up and D 152
freemen of the area D 152
fraction of the fig D 151
friction at the rim D 150
fraction in the gel D 149
friction of the new D 148
freshly as the day D 148
freemen in the old D 148
fronted by the long D 146
friends on the ice D 146
fraction of the sic D 146
friction of the sun D 145
freedom of the sub D 145
freshen up if you D 144
frankly to me and D 144
friction at the pin D 143
frescoes of the two D 143
friends at the lab D 142
freedom in the swing D 142
friction of the saw D 141
friends of the gay D 140
freight of an old D 140
freezes in the pen D 140
frantic as he had D 140
friends of the tax D 139
friends of the dial D 139
friends on the sly D 138
friends of the rue D 138
friction on the die D 138
fraction of the ingot D 138
frisson in the air D 137
fraction of an iota D 137
fretted me in all D 136
fretted at the idea D 136
friction of the box D 134
friction is so low D 134
friction at the head D 134
frescoes at the end D 134
framers of it did D 134
fraction of the tip D 134
friends of my mom D 132
fraction of the peat D 131
frowned at us and D 130
friends of the guy D 130
friends in the hot D 130
fretted so he was D 130
freedom of the jaw D 130
frankly if it was D 130
fraction of the cod D 130
frowned at the bad D 128
friction on the car D 128
friction of the end D 128
friction in the way D 128
freedom of the gay D 128
frankly at the head D 128
frowned as he hung D 126
friends to the zoo D 126
friction of the hot D 126
fretted by the moth D 126
freight on the two D 126
freight as it was D 126
freeman at the end D 126
frankly as if they D 126
fraction in the oil D 125
fruition of the act D 124
frowned at the top D 124
frowned at the box D 124
frowned as the man D 124
friction of the seal D 124
freight to be put D 124
freedom of sea and D 124
freight on the one D 123
fronted on the bay D 122
frizzling in the sun D 122
friends of the sex D 122
friends of the gang D 122
friction of the pad D 122
friction of the beam D 122
freezes at the end D 122
freshen up the air D 120
freeman to be put D 120
friction on the ice D 119
freshen on the year D 119
frowned at the cat D 118
friends is an art D 118
friction of the top D 118
friction of the seat D 118
friction of the bit D 118
frescoes of the end D 118
frantic at the end D 118
framers of an act D 118
fruition of my own D 116
frowned on the man D 116
friends in the fur D 116
freemen of the art D 116
frankly as we can D 116
frankly as to his D 116
freezes to the ice D 115
freedom of an inn D 115
fronted the sea and D 114
friends of the fox D 114
friends is the tax D 114
friction of the mud D 114
friction it is not D 114
fretted me to death D 114
freezes on the way D 113
frigate in the war D 112
friezes of the old D 112
frescoes on the end D 112
frankly as if she D 112
friction in the east D 111
fruition in the age D 110
friends as the earl D 110
freshen up an old D 110
freezer at the top D 110
fraction of the sex D 110
freemen of the bay D 109
frowned at the cup D 108
friends in the hut D 108
friction of the gut D 108
friction in the near D 108
freemen in or out D 108
frowned on if they D 106
fretted by the ill D 106
freezes me to death D 106
frankly of my own D 106
frankly if we are D 106
friction in the end D 105
fruition of the old D 104
friction on the box D 104
friction of the lid D 104
friction of the cup D 104
friction as the two D 104
freeway on my way D 104
frankly as of his D 104
friction to the area D 103
friction in the pin D 103
friction of the wet D 102
friction of the thin D 102
freight of the east D 102
freemen on the day D 102
freedom of the mob D 102
freedom of the fox D 102
freedom of an art D 102
frailer of the two D 102
fraction of the mud D 102
friends of the mob D 100
friction of the leg D 100
freight on the car D 100
freedom of the swing D 100
framers of the tax D 100
fraction of the zeal D 100
friezes at the top D 99
fraction of an amp D 99
freight by the use D 98
frantic as to sit D 98
framers of the myth D 98
fruition in the way D 97
friction to the air D 97
freezer on the top D 97
frowned as he set D 96
friends in an inn D 96
friends at the art D 96
friction in the heat D 96
frantic to be rid D 96
frankly as we may D 96
fraction of an egg D 96
frigate in the year D 95
freeway to the east D 95
frowned as if his D 94
frowned as he met D 94
friction of the war D 94
friction of the hinge D 94
friction of the arm D 94
friction in the rod D 94
friction in the car D 94
fretted as he was D 94
freezes us in our D 94
freemen in the year D 94
frosted in the bud D 93
friends of the oil D 93
frowned on me and D 92
frowned at me but D 92
frowned as the two D 92
froward as he was D 92
friends to an inn D 92
friends as he met D 92
friction is by far D 92
friction in the low D 92
freezer at the end D 92
freemen of the earth D 92
freedom of the bath D 92
frowned as if not D 90
freshen me up and D 90
freight me up with D 90
freemen in the eye D 90
friction to be set D 88
friction on the head D 88
frescoes on the rear D 88
frescoes at the new D 88
frankly if it had D 88
friends to the car D 86
friends in the bus D 86
friction of the rear D 86
friction of an old D 86
fraction of the pot D 86
frowned up at them D 84
friction on the area D 84
friction is at all D 84
friction in the old D 84
friction as it was D 84
frankly of it and D 84
frailty of my sex D 84
fraction of the bus D 84
frowned on if not D 82
frowned as if this D 82
frowned as he lit D 82
friction in the team D 82
freedom in the sex D 82
friends of the pen D 81
friends in the ark D 81
frowned at the thin D 80
frowned at the car D 80
frigate on the way D 80
freeman or the weak D 80
fraction of the gay D 80
fraction of the sol D 71
freezes at the top D 65
fraction in the rat D 65
freckle in the sun D 63
fraction of the ray D 63
frizzling in the pan D 61
fruition in the year D 57
frantic to be off D 53
friction in the rear D 51
friction of the eye D 50
friends go to bed D 48
friction in the day D 46
fretted to be off D 45
freezes in the ice D 44
frailer by the day D 44
fruition in the end D 42
freeman is he that D 41
frigate in the east D 40
friends of the con D 40
