during that year . M 80214
during this year . M 32934
during this era . M 31490
during this war . M 17138
during one year . M 12414
during that era . M 11640
during that day . M 11564
during that war . M 10064
during each year . M 10032
during old age . M 8388
dull red heat . M 7438
during each day . M 5194
during its use . M 5086
during one day . M 5080
during this age . M 4734
duty that day . M 3666
during this day . M 2760
during his day . M 2734
duty for him . M 2588
during all this ? M 2512
during that age . M 2384
during each run . M 2102
duty for them . M 1974
during all this . M 1968
during any year . M 1930
dull and dry . M 1912
dull for you . M 1806
during that year ? M 1618
dull and dead . M 1496
during this year ? M 1446
during its run . M 1382
during his era . M 1284
duty for you . M 1252
duty with him . M 1103
during this run . M 1036
dull for her . M 920
duty for both . M 898
duty with them . M 846
during this war ? M 840
during our meal . M 838
duty all day . M 827
dull and sad . M 826
dull you are ! M 812
duty for all . M 796
dull for him . M 778
during this era ? M 770
dull and weak . M 646
duty each day . M 645
during this act . M 636
duty for her . M 614
during this one . M 604
during each meal . M 588
during that run . M 568
during that meal . M 568
duty and law . M 524
during this meal . M 514
dull for them . M 476
during each beat . M 470
during her day . M 466
dull with age . M 466
during that day ? M 462
during his meal . M 424
during his act . M 422
duty each year . M 420
during our war . M 416
during his age . M 414
during our day . M 398
during each one . M 398
duty and off . M 385
during year one . M 378
during that act . M 354
dull and dim . M 340
dull and mean . M 338
during one run . M 334
dull for you ? M 334
during any day . M 332
duty and god . M 318
during this song . M 316
dull and wet . M 308
during any war . M 306
during each era . M 304
duty than this . M 302
during year two . M 300
during that war ? M 294
during one meal . M 274
dull all day . M 274
dull with use . M 270
during his run . M 250
duty this day . M 248
during her act . M 248
during one year ? M 246
duty with you . M 242
during old age ? M 238
duty for man . M 230
during our era . M 228
during its day . M 228
dull and old . M 224
during her era . M 222
during each set . M 222
dull and red . M 222
duty than this ? M 220
dull and long . M 218
during his own . M 216
duty and sin . M 212
duty with her . M 200
during that era ? M 200
dull and low . M 198
during that year ! M 194
duty led him . M 190
dull with him . M 190
duty and fear . M 186
dull old man . M 186
dull they are ! M 184
during this day ? M 182
during his year . M 182
during his death . M 182
duty too long . M 180
duty for two . M 170
during leap year . M 170
during this age ? M 166
during each year ? M 164
duty for god . M 162
during one day ? M 162
during any run . M 162
duty for one . M 160
dull red hue . M 158
dull for that . M 158
during all that . M 156
duty that day ? M 155
duty and all . M 153
during our run . M 152
duty was owing . M 150
duty this year . M 148
dull they are . M 148
duty and joy . M 140
duty was low . M 138
duty near you . M 138
during her run . M 138
duty for that . M 136
during this run ? M 136
during our own . M 136
duty this was . M 134
during this job . M 134
during this war ! M 132
during that one . M 132
duty that year . M 130
dull for long . M 128
during that deal . M 124
duty was due . M 122
during its year . M 122
duty does not . M 120
during new year . M 120
during our age . M 118
dull you are . M 116
during each use . M 114
during her song . M 112
dull one too . M 112
dull for you ! M 112
during this year ! M 110
during his set . M 110
during die war . M 110
dull with fear . M 110
during this gap . M 108
dull old age . M 108
dull and bad . M 108
duty with pay . M 106
duty than that . M 106
duty for him ? M 106
dull with her . M 106
duty for men . M 104
duty for pay . M 102
during that song . M 102
duty long ago . M 98
during die day . M 98
duty won out . M 96
duty was not . M 96
duty that way . M 96
duty see you . M 94
duty for each . M 94
duty and death . M 94
during one set . M 94
duty and die . M 92
during its era . M 92
dull this year . M 92
during any year ? M 90
duty and see . M 88
during end use . M 88
during each war . M 88
during each day ? M 88
during each cut . M 88
dull than any . M 88
duty one day . M 86
duty any day . M 86
during any age . M 86
dull with you . M 86
during any meal . M 84
during any era . M 84
dull all day ! M 84
duty too far . M 82
during her meal . M 82
duty for you ? M 80
dull and few . M 80
duty with you ? M 40
