during his stay in M 291939
during this time the M 291661
during this time he M 151474
during his term of M 123202
during this time of M 107312
during his stay at M 101842
during that time the M 96228
during that time he M 93300
during his years in M 69613
during his time in M 68096
during this part of M 56072
during our stay in M 54884
during his years of M 50748
during her stay in M 40883
during his years as M 39366
during any part of M 39116
during our stay at M 37760
during his years at M 33618
during his term as M 32747
during his tour of M 32136
during his time at M 31588
during this time it M 28094
during his time as M 28058
during his trip to M 26080
during this time we M 25066
during this time in M 23348
during this time is M 22016
during his life he M 20666
during that time we M 20484
during that time it M 19766
during that time of M 19688
duty not only to M 19590
during that part of M 18660
during her stay at M 17682
during his life in M 17412
during his term in M 16652
during this time to M 16064
during two years of M 15186
during that time to M 12818
during that time in M 11874
during his life on M 11790
during his stay he M 11668
during her time in M 11390
during her years in M 11322
during his time of M 10768
during this type of M 10652
during this time as M 10316
during his days as M 10295
during ten years of M 10094
during her years of M 10092
during his stay on M 10062
during one part of M 9958
during its stay in M 9604
during long years of M 8542
during one week in M 8268
during his time on M 8214
during its years of M 7824
during one half of M 7654
during each month of M 7536
during his days in M 7453
during his tour in M 7450
during six years of M 7432
during this time no M 7426
during this time my M 7385
during that time is M 7274
during his work on M 7268
during his life to M 7266
during its term of M 7242
during her years at M 6958
during his stay of M 6808
during his youth he M 6700
during his life as M 6656
during this stay in M 6578
during her time at M 6460
during her years as M 6394
during this month of M 6266
during our time in M 6228
during his life the M 6202
during this time by M 6190
during that time no M 6071
during his days of M 5944
during his years on M 5936
during this month the M 5926
during his youth in M 5884
during his days at M 5710
during his time the M 5626
duty they owed to M 5596
during our stay on M 5536
during that time my M 5512
during his life or M 5384
during this time an M 5324
during each step of M 5138
during two days of M 4914
during our stay we M 4598
during and prior to M 4570
during this kind of M 4538
during his trial in M 4486
during his work in M 4418
during this span of M 4370
during this time at M 4320
during that time as M 4186
during its rule of M 4044
during each hour of M 3976
during her time of M 3922
during this week of M 3916
during his rise to M 3862
during her time as M 3766
during her term of M 3708
duty not only of M 3698
during her trip to M 3688
during its time of M 3662
during any time of M 3662
during that time by M 3626
during two years in M 3604
during his life of M 3560
during our trip to M 3512
during that month the M 3430
during that month of M 3320
during our years of M 3314
during one week of M 3286
during her tour of M 3248
during six days of M 3238
during this trip he M 3236
during his term the M 3198
duty was laid on M 3180
during this term of M 3146
duty had been to M 3138
during his life by M 3112
during his life at M 3088
duty was owed to M 3064
during this trip to M 3060
during each week of M 3050
during that week of M 3042
during this tour of M 2958
during our years in M 2886
during our stay of M 2872
during one month in M 2796
during that time at M 2790
during one hour of M 2780
during one month of M 2754
during this week the M 2702
during his term he M 2700
during her life in M 2648
during any month of M 2646
during any type of M 2634
during this stay at M 2632
during his rule the M 2624
during our tour of M 2616
duty that must be M 2562
during her life or M 2516
during this step the M 2480
during any kind of M 2478
during its time in M 2470
during our time of M 2372
during his stay the M 2356
during this time on M 2347
during that week in M 2332
during that span of M 2306
during his life is M 2286
duty and love to M 2279
during that week the M 2252
during that time an M 2220
during that spring of M 2188
during his work at M 2184
duty and love of M 2182
during her days of M 2172
duty can only be M 2141
during our stay the M 2100
duty too well to M 2088
during her term as M 2036
during two days in M 2034
during this tour he M 2032
during this step of M 2030
during her life to M 2016
during his trial he M 2012
during this time so M 1981
during our work on M 1968
duty was only to M 1920
during this test the M 1912
during his work as M 1910
duty has been to M 1908
during our time at M 1898
duty and what is M 1888
during its years in M 1864
during this hour of M 1860
during its life of M 1848
during his days on M 1820
duty and leave the M 1798
during his term at M 1778
during this lull in M 1760
during its stay at M 1758
during his tour he M 1740
during her life as M 1723
during that week he M 1714
during this time or M 1702
during its life in M 1696
during his stay as M 1664
during ten days of M 1660
during lead time is M 1654
during that time on M 1648
duty they have to M 1646
during ten years in M 1644
during that length of M 1638
during two years he M 1588
during each part of M 1584
during his leave of M 1550
during its days of M 1546
during two years the M 1530
during this time if M 1504
during her time on M 1487
duty she owed to M 1476
during that time or M 1468
during that month in M 1466
during his tour to M 1448
during his trial at M 1442
during that month he M 1436
during her life the M 1408
during his rule of M 1368
during her stay on M 1361
during its tour of M 1358
during our time on M 1344
during its rise to M 1340
duty may also be M 1338
dull and heavy in M 1332
during her life of M 1328
during her days as M 1328
duty and sent to M 1322
during any form of M 1320
during this trip the M 1310
during two days the M 1306
during his fits of M 1292
dull and full of M 1292
during our work in M 1288
during that term of M 1278
during six years in M 1270
during two years at M 1252
during any month in M 1248
during this form of M 1238
during and unto the M 1236
during that hour of M 1234
during her years on M 1233
during this month in M 1194
during its life the M 1184
duty and mine to M 1174
during his trip in M 1172
during her days in M 1172
during both years of M 1168
during this length of M 1156
during one term of M 1150
during each unit of M 1144
during our life on M 1140
during its life it M 1132
during that trip to M 1124
during six days in M 1122
during long ages of M 1118
during his reading of M 1118
during one trip to M 1112
during our term of M 1108
during his tour as M 1106
during his rule in M 1106
dull and heavy as M 1101
during this month he M 1096
duty you have to M 1086
during this week in M 1080
during our days of M 1074
during his trip he M 1074
during our years at M 1066
during this spring of M 1060
during his time he M 1048
during this term the M 1044
duty was owed by M 1034
during our walk we M 1034
duty set forth in M 1028
during this sort of M 1028
during her life at M 1008
during his week in M 1004
during ten days in M 1000
during this work the M 988
during any time in M 988
during this step is M 980
duty that fell to M 976
during this stay he M 974
duty one owes to M 970
during his wars in M 966
during any hour of M 964
during all three of M 956
during this month is M 950
during that time so M 950
during her stay of M 948
during ten years he M 940
during each half of M 934
during one turn of M 918
during that stay in M 916
during any length of M 914
during that time if M 906
during her days at M 904
dull for want of M 902
during that week we M 894
during its years as M 894
during his week of M 894
during our days in M 888
duty and will be M 885
during that fall of M 880
duty and from the M 875
duty was also to M 874
during its life is M 868
during this step in M 864
during his youth the M 864
during each step in M 864
duty and there is M 862
during this step to M 860
during its life as M 856
duty for want of M 854
during his term on M 850
during our walk to M 848
during this week we M 844
during his trial the M 842
during ten years the M 840
during each month in M 840
during one hour in M 830
dull and slow of M 830
during our tour in M 826
during his month in M 826
during that month to M 824
duty she owes to M 822
during this trip we M 822
during his youth at M 822
during his rule he M 822
during its term in M 818
during that term he M 816
during this mode of M 814
duty that will be M 812
during her tour in M 804
during each type of M 802
during his hour of M 794
during this month we M 790
during his life it M 786
during his leave in M 786
during her youth in M 782
dull and slow in M 780
duty and done it M 776
during this term he M 776
during six years the M 762
duty and must be M 759
duty and lack of M 759
during its stay on M 758
during its life on M 754
duty not only as M 750
during this tour the M 742
during this half of M 742
during her work on M 742
during her life on M 742
during this week to M 740
during that week at M 740
duty was held to M 732
during his trial by M 732
during our trip we M 730
during this stay of M 728
during that hour the M 728
during that time be M 725
during its case in M 720
duty not just to M 716
during her term in M 714
duty and went to M 713
during this month to M 712
during each term of M 712
during two years as M 711
during that week to M 702
during this week he M 694
duty has been the M 692
during his youth to M 686
duty has been so M 678
duty has nothing to M 676
during our halt at M 676
during our week in M 672
during her work in M 668
during our talk he M 664
during this test is M 658
during that trip he M 652
duty but also the M 646
during his halt at M 644
duty was left to M 640
during that half of M 636
during long days of M 636
during its time as M 636
during his stay to M 636
during his month of M 632
duty all over the M 630
during his walk to M 630
during that hour he M 628
during this work he M 626
during our life in M 624
during this tour in M 622
during this hour the M 622
duty may well be M 620
during each turn of M 618
duty and care of M 615
during his walk he M 602
during his youth as M 597
during this work of M 594
during one half the M 590
during his life an M 590
during each pass of M 588
dull and boring to M 586
duty owing from the M 584
during six years he M 580
during two years or M 574
duty was done by M 572
during this month it M 572
dull and hard to M 572
during our week of M 570
during this time be M 556
during his work of M 556
during one hour at M 552
during one unit of M 550
during ten years at M 546
during his trial on M 546
during our walk in M 542
during his term to M 542
dull and there is M 542
during his work he M 540
duty than those of M 538
during this trial the M 538
during our work we M 538
during one week the M 538
duty for most of M 534
duty and work of M 526
during his youth by M 526
duty not only in M 524
during its days as M 522
dull and gray as M 520
during two years to M 518
duty had been the M 516
during this lull the M 516
during our stay to M 514
dull and heavy to M 514
during this work it M 512
during six years as M 512
during one week at M 510
during her trial in M 510
during his life if M 508
during his talk he M 504
duty they were to M 502
during his term or M 502
during her life is M 502
during one month the M 500
during his stop in M 500
during any term of M 500
during war time the M 494
during one third of M 492
duty and also the M 490
during this life of M 488
during his tour at M 482
duty and make the M 480
during all years of M 480
dull and slow to M 480
during long years in M 478
during his time it M 476
during his rule as M 472
dull and boring in M 466
during his time to M 462
during her work as M 461
duty you will be M 458
duty can also be M 456
during this time do M 456
during that term the M 452
during our stay he M 452
during that hour in M 448
during her life by M 448
during his walk in M 446
during his leave he M 446
during any sort of M 446
during her work at M 444
duty they owed the M 442
during that kind of M 442
during two days at M 440
dull and void of M 440
duty has made me M 438
during her hour of M 438
duty and take the M 435
duty and role of M 432
during that tour of M 432
duty had been so M 430
during our walk he M 430
during one time of M 430
during ten years to M 428
during six years at M 428
during his talk at M 428
during our talk in M 426
duty than will be M 424
duty for three or M 422
during its time on M 422
during her stay the M 422
during all three the M 420
duty and made the M 418
during ten years as M 418
during our trip in M 418
during that month is M 416
during one week he M 416
during its hour of M 416
during his meals he M 414
duty and when the M 413
during his tour on M 410
during his life no M 410
during day time in M 410
duty and also to M 409
during any week of M 408
during any week in M 408
during any step of M 408
during this term in M 404
during this trip of M 402
during this unit of M 400
during her life he M 398
during that week or M 396
during not only the M 396
duty was said to M 394
during our tour we M 394
during his week at M 394
during his three or M 394
duty not only on M 392
duty may call me M 392
duty had come to M 392
during this trial of M 392
during our years as M 390
during all ages of M 390
duty and those of M 387
during that month we M 386
duty was clear to M 384
during each step the M 384
during that month by M 382
dull for lack of M 380
during its trip to M 378
during this life the M 376
during her life if M 376
during any month or M 376
during this month at M 374
during that month at M 374
duty due from the M 373
duty and left the M 373
during our work at M 372
during his life so M 372
during that term to M 370
during each week in M 370
duty that came to M 368
during our stay by M 366
during one step of M 366
duty and ready to M 365
duty was cast on M 362
during this work we M 362
during this life in M 362
duty and what he M 360
during this tour we M 360
during this hour is M 360
during this halt the M 360
dull that there is M 360
during his stay by M 358
during this break in M 356
during any month is M 356
duty they will be M 354
during our life we M 354
dull and boring as M 354
during two years by M 350
during our days at M 350
during one pass of M 348
during long ages the M 348
duty but also as M 347
duty and obey the M 346
during that week is M 346
during our reading of M 346
during each test the M 346
dull men will be M 346
during this week is M 340
during that month it M 340
duty and keep the M 338
during that hour or M 336
during ten days the M 334
during her week in M 332
duty may have to M 330
during one game in M 330
during his turn at M 330
duty was part of M 328
during one week by M 328
during her month of M 328
during her life an M 328
during any time is M 326
duty that there is M 324
duty may seem to M 324
duty and part of M 324
during this life is M 322
during his life be M 320
duty hath been or M 318
duty and loss of M 318
during his stay we M 318
duty and trying to M 316
during one hour on M 316
during his trip of M 316
during each trial the M 316
during two days we M 314
during that trip the M 314
during may when the M 314
duty but also to M 312
during that month or M 312
during its life to M 312
during its fall to M 312
during dry years the M 312
duty and even the M 310
during his trial to M 310
during his trial as M 310
during his four or M 310
during this term we M 306
during this life or M 306
duty had nothing to M 304
duty but also of M 302
during this walk he M 302
during our week at M 302
during war time is M 300
during this work is M 300
during this trip in M 300
during that reading or M 300
during long years to M 300
duty and cost of M 299
during our time as M 297
duty man owes to M 296
duty has come to M 296
duty had been in M 296
during war time in M 296
during that trip we M 296
during that spring the M 296
during his want of M 294
dull and must be M 292
duty was coming to M 290
duty and make it M 290
during his youth on M 290
during its life or M 288
during this test to M 286
during this talk the M 284
during its time at M 284
during her fits of M 284
during day time the M 284
during his time by M 282
duty and means of M 280
duty and acts of M 280
during war time to M 280
during two years on M 280
during our years on M 278
during one month at M 278
during its span of M 278
during all four of M 278
during this hour or M 276
during one tour of M 276
during his term by M 276
during his stay is M 276
duty and what it M 274
duty and when he M 272
duty and have the M 272
during this month or M 272
during his youth or M 272
dull red from the M 272
duty and need to M 271
during its life by M 270
during one stay in M 268
during his span of M 266
duty can best be M 264
dull and cold in M 264
during this time king M 262
during this month by M 262
during this life to M 262
during our stop at M 262
during its term the M 262
during his hall of M 262
dull and heavy on M 262
dull and dark in M 262
during this stay the M 260
during this life we M 260
during that time do M 260
duty and come to M 258
during each month or M 258
during any time the M 258
during war time or M 256
during each tour of M 256
duty for lack of M 254
during ten years by M 254
during his call at M 254
during her time the M 254
duty was upon the M 252
during six days the M 252
during this walk the M 250
during each week or M 250
during each month is M 250
duty and will do M 248
duty and give the M 248
during this life on M 248
duty and work in M 246
duty and mine is M 246
during our youth the M 246
duty and wish to M 244
during one hour is M 244
during both years the M 244
during and from the M 244
duty not only by M 242
during this step it M 242
during his trip on M 242
during his tour the M 240
during each week to M 240
dull and grey in M 240
duty and need of M 238
during that month on M 238
during its tour in M 238
during his youth is M 238
during her reading of M 238
duty was meant to M 236
duty but also an M 236
during his fast in M 236
duty can ever be M 234
during this hour he M 234
duty and love in M 232
during six years to M 232
during one term in M 232
during near half an M 232
during his talk to M 232
dull and cold as M 232
during that week it M 230
dull that even the M 230
duty and went on M 228
during its work on M 228
during its stay the M 228
during his time or M 228
during any unit of M 228
during aging there is M 228
duty had been as M 226
during our walk the M 226
duty being left to M 224
during this work to M 224
during ten years on M 224
during its rule in M 224
dull and more or M 224
during that month as M 223
duty was made by M 222
during this rise in M 222
during this month as M 222
during his time is M 222
during his term is M 222
during his stop at M 222
during each trial of M 222
during any time he M 220
during all time to M 220
during that unit of M 218
during her walk to M 216
duty and able to M 215
duty has been in M 214
duty for those of M 214
during this week at M 214
during our days as M 214
during his fast the M 214
during day time is M 214
duty and save the M 212
during that spring he M 212
during one month is M 212
dull day when the M 212
dull and cold to M 212
duty was seen as M 211
duty and came to M 211
duty but also in M 210
duty and gave the M 210
duty and duty of M 210
dull and dark as M 210
during this range of M 208
during that week as M 208
during that spring in M 208
during one type of M 208
during his tour is M 208
during her leave of M 208
dull with nothing to M 208
duty was done in M 206
duty being only to M 206
during one week to M 206
during his walk on M 206
during her week of M 206
during each month the M 206
during both days of M 206
during her stay as M 205
duty that made the M 204
duty that lies on M 204
duty and want of M 204
during this step we M 204
during that week by M 204
during that hour to M 204
during our talk on M 204
dull and gray in M 204
duty and some of M 203
during this tour to M 202
during one break in M 202
dull and hard at M 202
duty has made it M 200
duty and have no M 199
duty they must be M 198
during two years we M 198
during this week or M 198
during our stay it M 198
during his trip up M 198
during her rise to M 198
during this test of M 196
during this month on M 196
during his youth of M 196
duty and what the M 194
during run time to M 194
during his trial is M 194
during and upon the M 194
duty and most of M 193
during one month to M 192
during one hour to M 192
during his trial of M 192
during his duty in M 192
during her days on M 192
during each play of M 192
duty has been or M 190
duty and will to M 190
during this work on M 190
during this trial to M 190
during this third of M 190
during his turn of M 190
duty with those of M 188
during this hour to M 188
during run time by M 188
during our game of M 188
during his stay it M 188
during any month the M 188
during wet years the M 186
during any lull in M 186
duty was laid by M 184
duty and join the M 184
duty and even to M 184
duty and even of M 184
during this week it M 184
during ten years or M 184
during its rise in M 184
duty then will be M 182
duty than from the M 182
duty but what is M 182
during this tour is M 182
during this term as M 182
during his part of M 182
during his five or M 182
dull dead wind is M 182
during our talk the M 180
during our days on M 180
during its stay it M 180
during his fast of M 180
during his role as M 179
duty was owed in M 178
during this reading the M 178
during our month of M 178
during one week is M 178
during long years the M 178
during his trial it M 178
during her stay to M 178
during each time of M 178
during any time or M 178
duty and work is M 176
during day time or M 176
during ten days at M 174
during our hour of M 174
during long years he M 174
dull you must be M 174
dull and heavy at M 174
duty that made me M 172
duty and faith in M 172
during each step is M 172
duty was made to M 170
duty and made it M 170
during two days to M 170
during one week it M 170
during each mode of M 170
during year prior to M 168
during this trip is M 168
during that tour he M 168
during our life at M 168
during any other of M 168
duty and help the M 166
duty and acting in M 166
during too much of M 166
during this work by M 166
during this week as M 166
during his rule at M 166
during his call on M 166
during ten years is M 164
during one week or M 164
during one lull in M 164
during long days in M 164
during dry years in M 164
duty and have to M 163
duty and also of M 163
during her life so M 163
duty that tied me M 162
duty are among the M 162
during this trial is M 162
during low flow in M 162
during its stay of M 162
during its fall is M 162
during his trial or M 162
duty and love is M 160
during ten days it M 160
during one month or M 160
during any life or M 160
duty with some of M 159
dull and grey as M 159
duty lay upon the M 158
duty are part of M 158
duty and care to M 158
during ten days or M 158
dull all over the M 158
duty was such as M 157
duty one must go M 156
duty has been of M 156
during its month of M 156
during his rise in M 156
during his hour is M 156
duty had been at M 154
duty for half an M 154
duty but also by M 154
during war years in M 154
during two days on M 154
during that week on M 154
during its work in M 154
during her week at M 154
during both wars the M 154
dull and boring if M 154
duty being owed to M 152
during two days he M 152
during that stay he M 152
during one month by M 152
during lead time of M 152
during his talk on M 152
during each call to M 152
dull red like the M 152
duty and during the M 151
duty all along the M 151
duty was over he M 150
duty not from the M 150
duty not even of M 150
duty may only be M 150
during war time it M 150
during that walk to M 150
during one hour the M 150
during his month at M 150
dull and bare as M 150
duty hath been to M 148
duty and means to M 148
during this time up M 148
during this fall of M 148
during his life we M 148
during each trip to M 148
during each test to M 148
duty that leads to M 146
duty but such as M 146
duty and also in M 146
during this test it M 146
during ten days to M 146
during long ages by M 146
during lead time in M 146
during each month to M 146
during each month by M 146
during each month at M 146
during all days of M 146
dull and poor to M 146
duty and free to M 145
duty are made to M 144
duty and tell the M 144
dull and heavy of M 144
duty and give me M 143
duty and acting as M 143
duty was made in M 142
duty and many of M 142
duty and fail to M 142
during this hearing the M 142
during six years by M 142
during our stay as M 142
during its fall it M 142
dull and some of M 142
duty that lies in M 140
duty not only at M 140
duty lying upon us M 140
during this span the M 140
during our work of M 140
during long years as M 140
during lead time to M 140
during its term by M 140
dull and ugly as M 139
duty now will be M 138
duty for part of M 138
during this spring the M 138
during her stay we M 138
during day time to M 138
duty being laid on M 137
duty that lies at M 136
duty and told to M 136
during that trip in M 136
during six years an M 136
during our trip on M 136
during our month in M 136
during one term at M 136
during its term as M 136
during his tour by M 136
during each month as M 136
during both sets of M 136
dull for most of M 136
duty and meant to M 135
duty you talk of M 134
duty was also the M 134
duty put upon the M 134
duty for some of M 134
duty and kept the M 134
during this move the M 134
during this hour in M 134
during one month he M 134
during his time no M 134
during his call to M 134
duty was able to M 132
duty for those in M 132
duty being owed by M 132
duty and made no M 132
during this trip by M 132
during six days he M 132
during run time is M 132
during long years by M 132
during her month in M 132
during day time as M 131
duty has been an M 130
duty and free of M 130
during any part or M 130
during this life as M 129
duty and hard at M 128
duty and find the M 128
during war there is M 128
during this talk he M 128
during that hour is M 128
during our walk on M 128
during our halt the M 128
during her trial at M 128
during her life it M 128
during any step in M 128
dull his mind to M 128
duty was just to M 126
duty for much of M 126
duty and full of M 126
during its week of M 126
during his talk in M 126
dull than those of M 126
during war time as M 125
during each week as M 125
duty you owed to M 124
duty was owed the M 124
duty was only the M 124
duty had gone to M 124
during this wait the M 124
during this part the M 124
during this line of M 124
during long ages in M 124
during his wars of M 124
during his walk of M 124
during die time of M 124
during bad years the M 124
dull and slow at M 124
dull and boring or M 124
duty and want to M 123
during any month as M 123
duty was among the M 122
duty than ever to M 122
during this walk we M 122
during this step by M 122
during that term in M 122
during our call on M 122
during one week on M 122
during one hour by M 122
during his turn in M 122
duty was laid of M 120
duty was laid in M 120
during war time of M 120
during this life by M 120
during that lull in M 120
during his turn to M 120
during his reading he M 120
during his move to M 120
during his case in M 120
duty one owed to M 118
duty may have the M 118
duty and take up M 118
duty and even in M 118
during two years is M 118
during this term to M 118
during this term is M 118
during this life he M 118
during that hour we M 118
during ten days he M 118
during our talk we M 118
during its term to M 118
during his dash to M 118
during each test is M 118
during both years in M 118
during all years in M 118
duty was trying to M 116
duty had been on M 116
duty and leave it M 116
duty and duty to M 116
during that walk in M 116
during that type of M 116
during that stay at M 116
during six years on M 116
during its term or M 116
during its fall the M 116
during his fits he M 116
during any week or M 116
dull and boring by M 116
duty and none of M 115
duty and peace of M 114
during this week on M 114
during this trial he M 114
during this test in M 114
during this month no M 114
during this game of M 114
during that span the M 114
during one hour or M 114
during his wait in M 114
during each step to M 114
during any time at M 114
duty and told me M 113
duty was felt to M 112
duty may have no M 112
duty may come to M 112
duty and when it M 112
duty and gone to M 112
during war when the M 112
during our youth in M 112
during long days at M 112
during its move to M 112
during his work or M 112
during any other in M 112
dull eye upon me M 112
duty was more or M 110
duty and face the M 110
during war must be M 110
during use must be M 110
during this step as M 110
during this more or M 110
during this month an M 110
during our term in M 110
during our halt in M 110
during her rule in M 110
during each month on M 110
during any week is M 110
dull dead look of M 110
duty was made so M 108
duty was just the M 108
duty that lies to M 108
duty and those in M 108
during this plan the M 108
during this break the M 108
during our trip up M 108
during long years at M 108
during its fall in M 108
during his week on M 108
during each third of M 108
duty was more to M 106
duty may best be M 106
duty but from the M 106
duty and work to M 106
duty and love at M 106
duty and hope of M 106
duty and gave me M 106
duty and fate of M 106
during two days by M 106
during this work in M 106
during this turn the M 106
during this hour we M 106
during this gale the M 106
during our unit on M 106
during any three of M 106
during all time of M 106
dull with lack of M 106
dull and many of M 106
duty but upon the M 104
duty but there is M 104
duty and only the M 104
duty and know the M 104
during war years the M 104
during this walk of M 104
during this trial in M 104
during that span he M 104
during that sort of M 104
during run time of M 104
during his work to M 104
during his trip the M 104
during each hour is M 104
during and leading up M 104
dull red line of M 104
dull low kind of M 104
dull day when he M 104
dull and boring it M 104
duty with loss of M 102
duty was seen to M 102
duty that some of M 102
duty had made the M 102
duty for such an M 102
duty for four or M 102
duty are such as M 102
duty and role to M 102
duty and debt of M 102
during war from the M 102
during two days it M 102
during this reading of M 102
during his work is M 102
during each hour on M 102
during each hour in M 102
dull old town of M 102
dull and boring the M 102
during its rise as M 101
duty was made the M 100
duty put upon us M 100
duty not even the M 100
duty and role in M 100
duty and meet the M 100
duty and living the M 100
duty and live up M 100
during this step or M 100
during this spring he M 100
during this life it M 100
during this fall the M 100
during our span of M 100
during one spring he M 100
during long ages an M 100
during his third or M 100
during his early or M 100
during each kind of M 100
during each breath is M 100
during all five of M 100
during one week as M 99
duty for five or M 98
duty are said to M 98
duty and leads to M 98
duty and keep up M 98
duty and also as M 98
during war years to M 98
during this stay on M 98
during our time we M 98
during our talk at M 98
during one time or M 98
during its turn to M 98
during how much of M 98
during his fall no M 98
during her trial by M 98
dull and slow as M 98
dull and boring at M 98
duty was none the M 96
duty was held in M 96
duty they have no M 96
duty than such as M 96
duty she owed the M 96
duty set forth by M 96
duty may wish to M 96
duty for half the M 96
duty and mode of M 96
duty and making the M 96
duty and into the M 96
during wet years in M 96
during this unit the M 96
during this trial it M 96
during that walk the M 96
during that five or M 96
during our life is M 96
during one trip in M 96
during one game he M 96
during her term at M 96
dull and most of M 96
duty was over in M 94
duty was clear as M 94
duty she felt to M 94
duty has cost the M 94
duty for what is M 94
duty and told the M 94
duty and make an M 94
during this game the M 94
during that walk is M 94
during that half an M 94
during our time is M 94
during may were as M 94
during its years at M 94
during its work the M 94
during his days the M 94
during her youth at M 94
during each pass on M 94
during day time on M 94
during our stay so M 93
duty they have in M 92
duty may fall to M 92
duty for years in M 92
duty for their king M 92
during this trip on M 92
during that hour it M 92
during our stop in M 92
during our life as M 92
during its turn in M 92
during its life if M 92
during his leave to M 92
during her stay by M 92
during her life be M 92
during each test by M 92
dull and heavy the M 92
duty not only the M 90
duty may have in M 90
duty goes back to M 90
duty can have no M 90
duty but only at M 90
duty but must be M 90
duty and work as M 90
duty and what we M 90
duty and were to M 90
duty and more of M 90
duty and felt the M 90
during two acts of M 90
during this leave he M 90
during that third of M 90
during one term as M 90
during one stay at M 90
during its life an M 90
during his reading in M 90
during and what is M 90
dull red down to M 90
dull and weary in M 90
dull and cold of M 90
duty has gone up M 89
duty you have so M 88
duty who were in M 88
duty may take the M 88
duty had been an M 88
duty for such as M 88
duty being done by M 88
duty and used to M 88
duty and seek to M 88
duty and dread of M 88
during two sets of M 88
during this unit to M 88
during that week my M 88
during six days to M 88
during one term to M 88
during his dream of M 88
during her walk in M 88
during her call on M 88
during her trial as M 87
duty with more or M 86
duty was open to M 86
duty this time of M 86
duty that ties us M 86
duty than most of M 86
duty not even to M 86
duty but also on M 86
duty and were on M 86
duty and upon the M 86
duty and seem to M 86
duty and debt to M 86
during this halt of M 86
during this flow of M 86
during that walk he M 86
during six years we M 86
during our acts of M 86
during its four or M 86
during his rule to M 86
during her case in M 86
during heat must be M 86
dull and poor in M 86
duty out there in M 85
duty you have is M 84
duty was none of M 84
duty was made an M 84
duty but only of M 84
duty and work on M 84
duty and those on M 84
during that term is M 84
during its life at M 84
during his term if M 84
during her youth on M 84
during her trip in M 84
dull day when we M 84
duty you speak of M 82
duty was sent to M 82
duty and living up M 82
duty and live in M 82
duty and duty is M 82
during war time by M 82
during this unit on M 82
during this spring to M 82
during that hour at M 82
during our move to M 82
during its flow to M 82
during its fall by M 82
during his time an M 82
during her tour to M 82
during and over the M 82
dull and bare to M 82
duty was used to M 80
duty was also in M 80
duty then must be M 80
duty than what is M 80
duty can there be M 80
duty and more in M 80
duty and living in M 80
duty and died in M 80
during war years is M 80
during two years it M 80
during this rest at M 80
during this pass the M 80
during this last of M 80
during its time it M 80
during his turn on M 80
during his rule it M 80
during any three or M 80
dull they were in M 80
dull and heavy by M 80
dull and gray by M 80
duty was just as M 50
during lead time as M 49
during bad years as M 49
duty they owed as M 46
during this step so M 44
during this trip as M 43
duty and come in M 42
duty far from the M 41
duty and made to M 41
duty now fell to M 40
during this month so M 40
during his month on M 40
dull and just as M 40
dust and dirt of D 7344
dump them into the D 4047
dust and bits of D 3864
dust and dirt in D 3598
duly set forth in D 3572
duke was able to D 3436
duke and peer of D 3224
dusk was coming on D 3208
dust all over the D 3139
dust and dirt on D 2721
duty was paid on D 2594
dust hung over the D 2358
duct and into the D 2293
dust lay thick on D 2247
dust and sweat of D 2048
dull red glow of D 1870
dust and dirt to D 1660
dust that rose in D 1408
dusk and during the D 1344
duke had come to D 1294
dust was once the D 1232
duke had gone to D 1166
dust may also be D 1117
duke was ready to D 1114
dust that clung to D 1100
dust and sand in D 1082
duke had sent to D 1063
dust and toss the D 1060
duke had been in D 1052
dull and aching in D 1046
dust and dirt is D 1044
dust and dirt as D 1040
dust and sand of D 1036
duke had been the D 1028
dust can also be D 1027
duty was paid in D 977
duct may also be D 964
during this wave of D 962
dupe and tool of D 962
dust and threw it D 942
duly set down in D 874
dust and mire of D 852
duke and some of D 849
duke was sent to D 839
during our ride to D 828
dust and filth of D 820
duel was kept up D 812
dump him into the D 784
duke was born in D 770
dust and from the D 760
dust and dirt by D 746
dust was thick on D 739
dues are paid by D 726
dues are paid to D 718
duty and task of D 714
dusk and into the D 706
duke had said to D 694
dust and toil of D 686
dues are paid in D 671
dust cap from the D 664
duke had been so D 664
dull red glow in D 662
dust was seen to D 656
duke was fond of D 654
duty was paid by D 650
duke was said to D 647
duke was trying to D 641
dust and clean the D 640
dust and soil of D 632
dust lay over the D 613
dust and soot of D 608
duct can also be D 596
duct that leads to D 594
dues and fees to D 590
dust was seen in D 586
dust fly from the D 564
during his ride to D 562
duke had nothing to D 556
dusk they came to D 554
dusk and dawn in D 547
dupe and play the D 526
duke had died in D 521
dump his body in D 520
duke had left the D 518
duly set forth by D 517
dust and soot in D 514
dust and dirt or D 512
dust that rose up D 506
dust and lack of D 498
duke had been at D 498
dust that clings to D 496
dust that blew in D 487
during low tide the D 470
dusk was upon us D 462
dust and heard the D 446
dust was used as D 442
dues are paid up D 442
duck that runs the D 442
dump her body in D 440
dull thud upon the D 420
dust off some of D 410
dust and grit of D 410
dust and sand to D 404
duke had made the D 402
dust got into the D 400
dump you into the D 400
duke had told me D 400
dues are used to D 400
dust all over my D 398
duke was glad to D 396
dust all over it D 392
dust that made the D 384
during low tide in D 380
during his raid on D 380
dues and fees of D 380
duct may join the D 380
dump him from the D 378
dust and dirt the D 376
dust and dirt at D 374
dust and make the D 370
dumb for want of D 368
duke was made to D 368
dust and grit in D 366
dust lying thick on D 364
dust that lies in D 362
dust and some of D 362
dust and roar of D 362
dull thud into the D 362
duke who made the D 362
dust that will be D 361
duke was wont to D 352
dust was thick in D 350
dust and rain at D 348
during our ride we D 348
dump her into the D 348
dumb yet kind of D 344
duct and from the D 344
duty was paid at D 342
dust was used to D 340
dust and scum of D 340
dump them over the D 340
duly set forth the D 338
during low tide to D 336
dust was seen on D 334
duty being paid to D 328
duke and those of D 328
dust was used in D 326
dump its load of D 326
dumb and full of D 322
dust and rust of D 316
duke had been to D 312
dust all over me D 311
dust and sand on D 310
dust and made the D 304
dust that blew up D 303
duty being paid on D 302
dull thud from the D 302
dust and keep the D 300
duke was left to D 300
dust and there is D 296
dusk had come on D 296
dust and cool the D 292
dull and drab in D 290
duke and lord of D 290
duel had been the D 290
duke and heir to D 288
dust and mold of D 286
dust was flying in D 285
dust was made by D 282
dumb men throng to D 282
duke had sent me D 282
dusk and dawn of D 278
duke had been an D 277
duty was paid to D 276
duty per unit of D 276
dust and lint in D 276
dust and into the D 276
during this heating the D 276
duke too well to D 276
dust and full of D 274
dusk and dawn to D 274
during this rite of D 274
during this feast the D 274
dull red glow on D 274
duke had made up D 274
dust and also to D 272
dull and flat as D 272
dust that fell on D 270
dust that used to D 268
dusk and dusk to D 268
dull red edging of D 268
duke had been on D 268
duke and most of D 268
during each wave of D 266
duet that will be D 264
dust and sweat in D 262
dust and must be D 262
duke was eager to D 262
dust had time to D 260
dust and even the D 260
dust and blew it D 260
during this rite the D 260
dump them onto the D 260
duke has made on D 260
dust and soot on D 258
dust and sand is D 258
dust and reek of D 258
dust and over the D 258
during one bout of D 258
duns that keep on D 258
duly set forth on D 258
dust and trying to D 256
dust and haze of D 256
during low tide at D 256
dull and flat in D 256
duty and took the D 252
dust and wind of D 252
duke was full of D 252
dust was rising in D 246
dust got into my D 246
dust that made it D 244
duke was heard to D 244
dust and throw it D 240
duct and duct of D 239
dust lay upon the D 238
dust lay thick in D 238
duet they were so D 238
dull and aching or D 236
duke then said to D 235
dust that lies on D 234
dust and keep it D 234
during this orgy of D 234
dust that must be D 231
duke had made in D 230
dust and soil in D 228
dust and fury of D 228
dust out into the D 226
dust and sand as D 224
dump him over the D 224
duke has gone to D 224
dust get into the D 223
dust and making the D 222
dusk and mist of D 222
dues and from the D 222
dust and make it D 220
dusk and dawn the D 220
duke was also the D 219
dusk and made the D 218
duke had heard of D 218
dust all along the D 216
duff was born in D 216
dust for want of D 215
dust was left in D 214
dust that make up D 214
dust and cast it D 214
dust that rose to D 212
dust and clay of D 212
during this task the D 212
during low tide or D 212
during his last sea D 212
during bis stay in D 212
duke was told to D 212
dust and grit on D 210
duke had time to D 210
duel with duke of D 210
dues and fees as D 209
dust and heaps of D 206
duke has come to D 206
dust seal from the D 204
dust and lint on D 204
dust and dirt do D 204
dusk you used to D 204
dusk and from the D 204
duke was back in D 204
duff was able to D 204
dust and when the D 202
dump them down the D 202
dull and drab as D 202
during his trek to D 200
during this raid the D 198
during his bout of D 198
duly put into the D 198
dues not only on D 198
duct and some of D 198
dust put into the D 197
dust has been the D 196
dust far down the D 196
dusk they were in D 196
during peak years of D 196
duke had among the D 196
dust can only be D 194
dust and sweat on D 194
dust and fume is D 194
dusk was full of D 194
dusk and soft as D 194
dust and among the D 192
duke and went to D 192
during our ride in D 190
duke then went to D 190
duke and peer in D 190
dust had died of D 188
dust and sand by D 188
duke did love me D 188
dust and grit to D 186
during low tide on D 184
during air drying of D 184
duel for life or D 184
dusk lay over the D 182
dues are paid on D 182
dues and fees in D 182
during our ride up D 181
dust that flew up D 180
dues that must be D 180
dust they kick up D 179
dust that hangs in D 178
dust and flung it D 178
during low tide is D 178
dust and most of D 176
dust and grit by D 176
during his ride he D 176
duke had made no D 176
dump them into an D 174
duke had made to D 174
dust mop over the D 172
dusk and time to D 172
dune and into the D 172
dull and earthy in D 172
dull red glow at D 170
dull not away thy D 170
dump them down in D 168
dust are among the D 166
dust and ruin of D 166
dust and mist of D 166
dues they owed to D 166
duck out into the D 165
dues not seem to D 164
duck our heads to D 164
duct and part of D 163
dust cap over the D 162
dust and will be D 162
dust and wash the D 162
dust and damp of D 162
dust and kiss the D 160
dust and damp by D 160
dusk and hush of D 160
duke has been in D 160
duke had come up D 160
dumb she went on D 159
dust and taking up D 158
dusk and went to D 158
during bed rest in D 158
duke was born on D 158
duke had seen the D 158
duct may fail to D 158
dust and odor of D 156
dust and lift up D 156
dusk and dawn is D 156
duke nor peer at D 156
dust and dirt so D 155
during hot days in D 154
duke got home to D 154
duke and hoping he D 154
duke doth love me D 153
dust and dirt it D 152
duke was among the D 152
dues and fees on D 152
dust and soot to D 150
during his ride in D 150
dump you over the D 150
duke had done it D 150
duke for leaving the D 150
dust off from the D 149
dusk hung over the D 148
dusk and took the D 148
duly read over to D 148
duct and there is D 148
dust and sand at D 146
dusk and dawn on D 146
during his lease of D 146
dune and down the D 146
dude was trying to D 145
dust hung over it D 144
dust and tidy the D 144
dust and take it D 144
dust and many of D 144
dust and grit is D 144
during our ride the D 144
dull thud when the D 144
duke was gone to D 144
duke was coming to D 144
dust that even the D 142
dusk had shut in D 142
dunk them into the D 142
duct may have to D 142
duct may have the D 141
during this bout of D 140
during bis term of D 140
dumb and dour to D 140
duke was free to D 140
dust and filth in D 138
dust and blow it D 138
during his ride on D 138
duke who used to D 138
duke was fain to D 138
duke had done in D 138
dust rag over the D 136
dust goes back to D 136
dust and steam of D 136
dust and fume in D 136
duty being paid by D 134
dust was laid by D 134
dust not only the D 134
dust and sent it D 134
dust and mold in D 134
dust and made it D 134
dust and left the D 134
dust and give the D 134
dust and also the D 134
duke then told me D 134
duke had made it D 134
duke had left it D 134
dust for lack of D 132
dust and went to D 132
during each scan of D 132
dump his load of D 132
duke had only in D 132
duke had flung the D 132
duck and weave to D 131
dust and leave the D 130
dust and gave it D 130
dust and clay is D 130
duly met when the D 130
dull red ball of D 130
duke how much he D 130
duet that ends the D 130
dust man took up D 129
duct and reach the D 129
dust and tears on D 128
dust all over us D 128
during this ride we D 128
duke sat down in D 128
duty and task to D 126
dust and wind in D 126
during his raid in D 126
duly put down in D 126
dull and thick as D 126
duke had only to D 126
dune area south of D 125
duke for those in D 125
dust was left on D 124
dust that made up D 124
dust that gets in D 124
dust seal into the D 124
dusk was thick in D 124
during his sack of D 124
dune and onto the D 124
dump and into the D 124
dues are paid at D 124
duty and task go D 123
dust and threw the D 122
dump him back in D 122
duke sat next to D 122
duke did nothing to D 122
dusk she came to D 120
during this task is D 120
during that ride to D 120
dump them back in D 120
dull red glow is D 120
duke had told the D 120
dust was laid to D 118
dust that made us D 118
dust and loss of D 118
during this feast of D 118
duel had been in D 118
duck meat from the D 118
duck can also be D 118
dust that stung the D 116
dust for most of D 116
dust are used to D 116
dust and rain of D 116
during his wooing of D 116
during each bout of D 116
dumb and next to D 116
dull red spot on D 116
dues you have to D 115
dust lay heavy on D 114
dust can have no D 114
dust and came to D 114
during one scan of D 114
duke sat down to D 114
duke sat down on D 114
duct that ends in D 114
duct and along the D 114
dust was from the D 112
dust had made the D 112
dull red glow to D 112
dull red gleam of D 112
duke with such an D 112
duke had said he D 112
dues that went to D 112
dues and sale of D 112
duct and neck of D 112
duly set forth as D 111
dust that thick in D 110
dust that fill the D 110
dust lay deep in D 110
dune area along the D 110
dump him down in D 110
duly set down by D 110
duke got wind of D 110
duke for what he D 110
duct was seen in D 110
duct and ends in D 110
duck can find us D 110
dust that made me D 108
dust goes into the D 108
dust and part of D 108
dust and making it D 108
duke had sent an D 108
dues and sums of D 108
duck goes into the D 108
dust you will be D 107
dust that form the D 106
dust lay deep on D 106
dust but also to D 106
dust and rust in D 106
dusk and dawn or D 106
during this time la D 106
duos and trios in D 106
dump its load in D 106
dump his body on D 106
dump her from the D 106
dumb and void of D 106
duly set forth to D 106
dull thud when it D 106
dull and flat to D 106
duke with some of D 106
duke was laid to D 106
duke was deep in D 106
duke has been the D 106
duke had made an D 106
dust and wipe the D 105
dust hung heavy in D 104
dust had been the D 104
dust and clay to D 104
dusk and there is D 104
during one raid on D 104
during low tide by D 104
during her bout of D 104
during egg laying in D 104
dull fat eyes of D 104
dues being paid to D 104
duel and trial by D 104
duel and sewn on D 104
dude who lets the D 104
duty and leaving the D 102
dust was sent to D 102
dust that fell in D 102
dust are used in D 102
dust and send it D 102
dust and said to D 102
dust and leave it D 102
dusk and said in D 102
during two eras of D 102
during our trek to D 102
during his race to D 102
during bis stay at D 102
dune and over the D 102
duke was used to D 102
duet was kept up D 102
duel was held in D 102
dude who used to D 102
dusk and dawn as D 101
dump all over the D 101
dust was heavy in D 100
dust and lame of D 100
dust and haze in D 100
dusk and when the D 100
during this lime the D 100
during her ride to D 100
dump her over the D 100
duke was seen to D 100
duke did what he D 100
duke and many of D 100
duel can save me D 100
duct was used to D 100
duty and took up D 98
dust with those of D 98
dust for years in D 98
dust and want of D 98
dust and dirt we D 98
dusk they were at D 98
during nap time or D 98
dump them down on D 98
dump its load on D 98
dump and pick up D 98
dumb and left the D 98
duly set down on D 98
dull thud onto the D 98
dull and drab to D 98
duke was away at D 98
duke that there is D 98
dude had come to D 98
duct can only be D 98
duck out when the D 98
dust that went up D 97
dust was laid in D 96
dust and have to D 96
dusk and cold is D 96
during this tine the D 96
during his slay in D 96
dump them back on D 96
dumb and made no D 96
dull and tame in D 96
dull and sunk in D 96
duke has heard of D 96
duke has been so D 96
dues are paid or D 96
duel and fled to D 96
duct and down the D 96
duck who came to D 96
duck are among the D 96
duck and when to D 96
dust thee like my D 94
dust that when the D 94
dust that rose at D 94
dusk was upon the D 94
during this tune the D 94
during our ride of D 94
during his solo on D 94
during bed rest or D 94
duos and trios of D 94
dump oil into the D 94
duke was living in D 94
duke sat down at D 94
duke has left the D 94
dues may also be D 94
dust and lint as D 93
dust was seen at D 92
dust and warm the D 92
dust and hold it D 92
dust and come to D 92
dusk and most of D 92
dusk and early in D 92
during this tide the D 92
dumb man trying to D 92
dumb are able to D 92
duct may reach the D 92
dust out over the D 91
dust out from the D 90
dust may turn the D 90
dust lie upon it D 90
dust and turn to D 90
dust and rock of D 90
during this tide of D 90
dump him onto the D 90
dull and tend to D 90
dull and tame as D 90
dull and flat by D 90
duke was there to D 90
duke set eyes on D 90
duff that came to D 90
dues and cost of D 90
duel was over in D 90
duct that ends at D 90
duct and body in D 90
duck was shot on D 90
dust are seen in D 88
dust and feel the D 88
dust and damp in D 88
during this ride of D 88
dupe them into the D 88
dues and have the D 88
duel you want to D 88
dust that lies at D 86
dust and sand so D 86
dust and only the D 86
dust and lots of D 86
dusk they went to D 86
dusk they leave the D 86
dusk and damp of D 86
during this tide in D 86
during egg laying the D 86
during ebb tide the D 86
dumb kid from the D 86
duke was back at D 86
duke hung over the D 86
duke has told me D 86
duke had left to D 86
duke had died of D 86
dues and fees is D 86
duct and also the D 86
dust that came up D 85
duke had left no D 85
dust and turn the D 84
dust and lint to D 84
dust and left to D 84
dust and held it D 84
duke was such as D 84
duke was such an D 84
duke has come as D 84
duke had leave to D 84
duty was paid or D 82
dust was said to D 82
dust was left of D 82
dust was full of D 82
dust that gets up D 82
dust lying over the D 82
dust and upon the D 82
dust and fire of D 82
dust and echo of D 82
dust and dirt if D 82
during this time ah D 82
during low tide it D 82
during any such re D 82
dump any kind of D 82
dump all over me D 82
duke had died at D 82
duke and said in D 82
duel with burr in D 82
duty being paid at D 80
duty and took it D 80
dust was rising up D 80
dust was left to D 80
during this firing the D 80
during that wave of D 80
during lean years of D 80
dump had gone up D 80
duke with whom he D 80
duke and from the D 80
duck our heads as D 80
duck fat from the D 61
dust and tidy up D 59
dune area north of D 59
dust that came in D 58
duct are seen in D 56
dust per unit of D 51
dust that rose as D 50
dump you live in D 50
dust you tread on D 49
dust and soil as D 49
dust and grit as D 49
dust hang over the D 48
dust and dirt up D 48
duel that went on D 47
dusk and went on D 46
duke than from the D 46
duke had come in D 45
dust you will eat D 44
dust and clean up D 44
duck and dive to D 44
dusk they came in D 42
dust and dirt be D 41
during his ride up D 41
duke was just as D 41
duck was able to D 41
during this time ho D 40
