just like before . M 11242
just like always . M 9624
just been through . M 9268
just gone through . M 7110
just been killed . M 6424
just look around . M 5952
just left behind . M 5162
just come through . M 5106
just been stated . M 5058
just been opened . M 4760
just been issued . M 4684
just such another . M 3842
just like another . M 3590
just been quoted . M 3498
just hanging around . M 3344
just days before . M 3101
just been created . M 2948
just been formed . M 2756
just left school . M 2446
just like humans . M 2202
just been studying . M 2190
just been passed . M 2162
just went through . M 2118
just fell asleep . M 2022
just like myself . M 1974
just been washed . M 1746
just been raised . M 1606
just good enough . M 1578
just been signed . M 1564
just been standing . M 1526
just came through . M 1448
just been buried . M 1434
just walk around . M 1278
just been broken . M 1276
just fall asleep . M 1250
just days earlier . M 1155
just these reasons . M 1154
just been taught . M 1150
just been served . M 1138
just been caught . M 1128
just like family . M 1122
just been called . M 1116
just been cleaned . M 1020
just been reached . M 1010
just been fought . M 1010
just turn around . M 1004
just been engaged . M 996
just like adults . M 970
just been closed . M 942
just like normal . M 900
just been filled . M 886
just been changed . M 882
just these issues . M 840
just been through ? M 808
just pass through . M 776
just fool around . M 755
just been spoken . M 748
just been played . M 748
just kill myself . M 740
just when needed . M 730
just come aboard . M 710
just such issues . M 700
just last summer . M 700
just those reasons . M 698
just such reasons . M 698
just gets better . M 696
just been handed . M 690
just been stolen . M 680
just said something . M 660
just like itself . M 654
just kept silent . M 652
just these points . M 650
just been placed . M 648
just been picked . M 642
just feel better . M 636
just kept laughing . M 620
just been cleared . M 594
just been lifted . M 588
just over twenty . M 574
just coming through . M 552
just been watching . M 550
just your friend . M 544
just been burned . M 536
just been proved . M 534
just keep watching . M 516
just work harder . M 514
just gone before . M 514
just wait awhile . M 496
just been listed . M 492
just been learned . M 486
just been posted . M 484
just take orders . M 482
just three points . M 456
just look around ! M 450
just been visiting . M 450
just made mention . M 448
just past eleven . M 440
just like school . M 440
just been treated . M 436
just warm enough . M 420
just play around . M 418
just such events . M 416
just been relating . M 416
just come across . M 410
just went through ? M 406
just been traced . M 398
jump high enough . M 384
just their bodies . M 380
just high enough . M 378
just their nature . M 376
just made public . M 376
just such changes . M 374
just heard something . M 370
just come inside . M 370
just once before . M 364
just stop worrying . M 358
just kept climbing . M 338
just been admiring . M 334
just like babies . M 328
just been bought . M 328
just like anyone . M 326
just been reborn . M 322
just been fighting . M 320
just when wanted . M 318
just like summer . M 318
just moving around . M 316
just went inside . M 314
just like before ? M 312
just gone through ? M 312
just taking orders . M 310
just hate myself . M 300
just saying something . M 298
just step inside . M 296
just been landed . M 296
just been noticing . M 294
just kept building . M 290
just been through ! M 290
just obey orders . M 288
just laying around . M 288
just felt better . M 288
just keep silent . M 286
just look around ? M 284
just more subtle . M 282
just move around . M 280
just your family . M 276
just wait around . M 276
just stay inside . M 276
just coming around . M 276
just like before ! M 274
just from watching . M 274
just wide enough . M 272
just from memory . M 272
just feel guilty . M 272
just walk through . M 270
just kick myself . M 268
just been solved . M 268
just sits around . M 264
just been sleeping . M 260
jump even higher . M 259
just been denied . M 256
just been poured . M 254
just what occurs . M 252
just been kicked . M 252
just such methods . M 248
just well enough . M 244
just hangs around . M 242
just gone public . M 242
just learn something . M 240
just from school . M 240
just felt lonely . M 238
just been loaded . M 234
just high school . M 232
just four points . M 232
just good advice . M 228
just give orders . M 228
just like reality . M 226
just keep climbing . M 226
just come around . M 226
just such advice . M 224
just hard enough . M 224
just been killed ? M 222
just pure chance . M 220
just their defect . M 218
just look inside . M 218
just like plants . M 218
just been enjoying . M 218
just been chosen . M 218
just fast enough . M 216
just life itself . M 215
just quit school . M 214
just died laughing . M 214
just losing weight . M 212
just kept watching . M 212
just been swimming . M 212
just past twenty . M 208
just loud enough . M 208
just like another ? M 206
just been pulled . M 206
just have something . M 204
just been tested . M 204
just been ruined . M 202
just felt guilty . M 198
just making noises . M 196
just fell through . M 196
just been gained . M 196
just three seasons . M 194
just been joined . M 194
just keep fighting . M 192
just been turned . M 192
just very strange . M 190
just fine anyway . M 190
just like nature . M 186
just hanging around ? M 184
just such actions . M 180
just look pretty . M 180
just like church . M 180
just left behind ? M 178
just felt strange . M 178
just came aboard . M 178
just help myself . M 176
just love babies . M 172
just went silent . M 170
just look stupid . M 170
just been guilty . M 170
just such reasoning . M 168
just gone inside . M 168
just walk around ? M 162
just time enough . M 160
just such claims . M 160
just last winter . M 158
just from unjust . M 158
just rest awhile . M 156
just kept fighting . M 156
just felt stupid . M 156
just feel stupid . M 156
just been asleep . M 156
just been alluding . M 156
just more obvious . M 154
just flying around . M 154
just your feelings . M 150
just trying harder . M 150
just those points . M 150
just good design . M 150
just gave orders . M 150
just felt scared . M 150
just been seized . M 150
just been dwelling . M 150
just years earlier . M 148
just three colors . M 148
just those issues . M 148
just such abuses . M 148
just done something . M 148
just seen something . M 144
just giving orders . M 142
just your weight . M 140
just went insane . M 140
just want something . M 140
just such training . M 140
just more slowly . M 140
just been erased . M 140
just past sunset . M 138
just half enough . M 136
just been wasted . M 136
just years before . M 135
just look better . M 134
just give advice . M 134
just been killed ! M 134
jump into something . M 134
just such another ! M 132
jump into another . M 132
just such tricks . M 130
just pure energy . M 130
just know something . M 130
just gets harder . M 130
just went without . M 128
just walk across . M 128
just such points . M 128
just five points . M 128
just three states . M 126
just such another ? M 126
just been stated ? M 126
just been combed . M 126
just such feelings . M 124
just stop fighting . M 124
just kept swimming . M 124
just your nature . M 122
just these values . M 122
just said before . M 122
just giving advice . M 122
just very curious . M 120
just such meetings . M 120
just like winter . M 120
just left prison . M 120
just been scared . M 120
just your memory . M 118
just your clothes . M 118
just more honest . M 118
just kept sleeping . M 118
just gets better ! M 118
just feel rotten . M 118
just deep enough . M 118
just gone eleven . M 116
just five states . M 116
just been praising . M 116
just very simple . M 114
just such groups . M 114
just stay silent . M 114
just poor planning . M 114
just making sounds . M 114
just heart disease . M 114
just good planning . M 114
jump fast enough . M 114
just their actions . M 112
just stay around . M 112
just been warned . M 112
just been stupid . M 112
jump most freely . M 112
just such powers . M 110
just pick something . M 110
just gone through ! M 110
just cool enough . M 110
just been argued . M 110
just lose weight . M 108
just fine without . M 108
just trying something . M 106
just these fields . M 106
just bare ground . M 106
just your sister . M 104
just your brother . M 104
just three issues . M 104
just their number . M 104
just their mothers . M 104
just like clothes . M 104
just been agreed . M 104
just three nights . M 102
just seen happen . M 102
just miss something ? M 102
just been banned . M 102
just your friend ? M 100
just work better . M 100
just step through . M 100
just some nobody . M 100
just pull through . M 100
just keep swimming . M 100
just heard myself . M 100
just fine indeed . M 100
just been laughing . M 100
just been hinted . M 100
just been actors . M 100
just stay afloat . M 98
just says itself . M 98
just like murder . M 98
just feel something . M 98
just been studying ? M 98
just very special . M 96
just three blocks . M 96
just such causes . M 96
just fine before . M 96
just been proven . M 96
just been curious . M 96
just lost something . M 94
just here visiting . M 94
just have worked . M 94
just fell silent . M 94
just feel strange . M 94
just fall through . M 94
just been spared . M 94
just been preaching . M 94
jump much higher . M 93
just past twelve . M 92
just like always ! M 92
just felt something . M 92
just been shared . M 92
just been missed . M 92
jump into battle . M 92
just days before ? M 91
just your excuse . M 90
just stay behind . M 90
just soon enough . M 90
just like fighting . M 90
just laid around . M 90
just keep searching . M 90
just have enough . M 90
just been stolen ! M 90
just been active . M 90
just turn around ? M 88
just such errors . M 88
just need something . M 88
just know better . M 88
just good actors . M 88
just feel scared . M 88
just come through ? M 88
just been pursuing . M 88
just such crises . M 86
just like prison . M 86
just hurt myself . M 86
just from church . M 86
just four states . M 86
just four colors . M 86
just what degree . M 84
just three groups . M 84
just those colors . M 84
just some advice . M 84
just over eighty . M 84
just having babies . M 84
just gets deeper . M 84
just four issues . M 84
just feel lonely . M 84
just came around . M 84
just been united . M 84
just very serious . M 82
just take notice . M 82
just such values . M 82
just such matter . M 82
just like swimming . M 82
just less obvious . M 82
just gone twelve . M 82
just came across . M 82
just been worked . M 82
just been hidden . M 82
just went swimming . M 80
just such doubts . M 80
just like matter . M 80
just kept circling . M 80
just gets through . M 80
just asking around . M 80
just land reform . M 44
