judgment on it . M 11236
judgment of it . M 6706
judgment on me . M 3118
judgment on us . M 1780
judgment of me . M 1590
judgment in it . M 1520
judgment of us . M 1038
judgment on me ? M 690
judgment on it ? M 520
judgment of the . M 514
judgment to it . M 434
judgment on me ! M 366
judgment it is . M 261
judgment of me ? M 242
judgment to us . M 226
judgment to me . M 224
judgment to be . M 218
judgment of it ? M 186
judgment on us ? M 172
judgment on us ! M 118
judgment on the . M 112
judgment by it . M 88
justifying of it . M 40
