but for a long M 126058
but for a few M 101422
but that i was M 84718
but that i had M 69216
but now i see M 68386
but now i was M 67644
but now i can M 55836
but with a few M 51640
but then i was M 50914
but with a new M 44453
but then i had M 40368
but then i saw M 37464
but that i may M 35003
but now i had M 30774
but not a man M 30725
but all i can M 28950
but for a man M 27833
but that i did M 27070
but this i can M 26358
but that i can M 26151
but now a new M 24634
but then i did M 24558
but that a man M 23782
but then i got M 23448
but not a lot M 21082
but not a few M 19606
but not a bit M 18897
but may i ask M 18544
but for a day M 18137
but this i say M 16838
but now i saw M 13650
buy you a new M 12851
but let a man M 12666
but with a long M 12328
but then i can M 11628
but being a man M 10451
but with a lot M 10379
but that a new M 9815
but with a low M 9737
but for a year M 9718
but for a new M 9597
but all i got M 9294
but not a real M 9029
buy him a new M 9016
but all i saw M 8802
buy her a new M 8717
but with a man M 8371
but with a bit M 8327
but that a few M 8317
but not a bad M 8129
but then a new M 8078
but had i not M 7898
but with a far M 7748
but may i not M 7684
but yet i can M 7674
buy you a cup M 7572
but not a new M 7213
but this i did M 7124
but then i see M 6920
but all i had M 6880
but now i did M 6782
but was a man M 6693
but this i may M 6564
but with a real M 6159
but all i did M 5512
but has a long M 5094
but with a big M 5008
but not a day M 4931
but that i fear M 4741
but then a man M 4688
but did i not M 4506
but then i get M 4474
but now i hear M 4458
but not a one M 4440
but then a few M 4400
but for a real M 4189
but this i was M 4158
but has a low M 4131
but may i say M 4062
but now i fear M 4050
but now i say M 3934
but all i see M 3922
but yet i was M 3864
but not a long M 3863
but then i read M 3858
but for a lot M 3801
but that i see M 3587
but that i saw M 3532
but has a few M 3508
but now i ask M 3436
but had a long M 3330
but can a man M 3287
but not a big M 3276
but then i hear M 3062
but was a bit M 3043
but with a set M 3032
but then a lot M 3018
but with a bad M 2933
but all i was M 2920
but can i ask M 2826
but yet i had M 2822
but then i say M 2818
but with a weak M 2728
but now a man M 2620
but now i get M 2592
but has a lot M 2527
but this i had M 2516
but then i ask M 2462
but had a lot M 2446
but now i got M 2428
but for a boy M 2382
but now a few M 2306
but all i get M 2306
but with a head M 2300
but with a sad M 2246
but had a few M 2224
buy for a few M 2119
but yet i did M 2080
but for a far M 2074
but all i ask M 2074
but with a non M 2070
but with a red M 2056
but now i may M 2048
but can i get M 1904
but not a god M 1839
but how i can M 1838
but then i put M 1818
but with a two M 1797
but was i not M 1762
but with a mean M 1748
but can i not M 1740
but with a due M 1732
but not a law M 1702
but how a man M 1689
but then i may M 1686
but all i hear M 1682
but ere i had M 1670
but was a long M 1654
but that i now M 1652
but now i read M 1598
but yet a man M 1597
but this i saw M 1566
but add a few M 1554
but with a bias M 1499
but all i say M 1494
but how i was M 1490
but that a lot M 1487
but are a bit M 1483
but that a long M 1470
but one i had M 1439
but was a real M 1434
but not a poet M 1424
but who i was M 1422
buy them a new M 1420
but then i ran M 1404
but yet i may M 1402
but had a bad M 1390
but yet i hear M 1372
but can i say M 1330
buy him a few M 1312
but did i say M 1308
but with a one M 1304
but has a real M 1300
but with a cry M 1264
but not a war M 1261
but with a dry M 1253
but for a non M 1243
but did i hear M 1236
but had a low M 1232
but was a new M 1222
but one i was M 1217
but not a dog M 1214
but then i sat M 1178
but not a boy M 1158
but one i can M 1152
but then i let M 1146
but now i mean M 1132
but with a net M 1113
but that a real M 1107
but had a real M 1092
buy her a few M 1090
but for a bit M 1090
but has a new M 1070
buy you a few M 1066
but for a way M 1061
but yet i see M 1050
but for a set M 1049
but not a way M 1048
but does a man M 1044
but let a few M 1040
but with a joy M 1034
buy you a meal M 1032
but with a gap M 1017
but now a lot M 1016
but has a far M 1013
but can i see M 1010
but for a big M 977
but for a low M 975
buy and i may M 974
but now i sit M 972
but now i beg M 970
but not a two M 968
but for a two M 965
but with a key M 951
but why a man M 947
but yet i fear M 942
but not a dead M 939
but not a sin M 934
but with a bang M 923
but had a way M 918
but had a new M 916
but now a long M 910
but this i see M 904
but this i fear M 896
but with a war M 889
but now i use M 884
but how i did M 860
buy you a lot M 834
but not a and M 834
but why i can M 824
but that i hear M 821
but you i can M 818
but for a poet M 814
but has a bad M 812
but why i did M 806
but being a new M 803
but had a big M 802
buy him a cup M 800
but was a way M 800
but now i try M 800
but with a way M 783
but with a dead M 778
buy her a cup M 776
but not a year M 772
but for a war M 771
but add a new M 770
but yet i say M 768
but not a head M 762
but how i got M 758
bud and i had M 752
but goes a long M 750
buy him a toy M 746
but both a and M 744
but was a far M 742
buy for a song M 736
but not a set M 732
buy you a big M 730
buy you a dog M 719
buy him a meal M 718
but has a weak M 718
but not a son M 712
but with a bow M 708
but now i put M 708
but that i got M 705
but did a lot M 704
but that a being M 703
but for a one M 701
buy them a few M 700
but had a far M 698
but that a set M 694
but with a god M 691
but then a big M 688
but that a year M 684
but with a dim M 682
buy you a real M 677
but that i and M 676
but with a boy M 672
but that a law M 664
but had i had M 658
but with a not M 652
but was a few M 648
but then i fear M 648
but now i let M 644
but for a dog M 637
but how i had M 636
but then i try M 632
but then a year M 628
but may i beg M 626
buy her a box M 619
but was a lot M 618
but may i see M 616
buy her a big M 612
but for a job M 611
but for a sum M 603
but was a big M 600
but had a son M 599
but not a non M 598
but that a day M 595
but not a mean M 594
but now i set M 592
but one i did M 589
but then a day M 584
but has a big M 584
but that a far M 579
but all i mean M 578
but got a bit M 569
but may i add M 560
but not a cat M 556
but this i mean M 551
but are a way M 546
but not a red M 542
but how i may M 540
but set a new M 538
but with a son M 537
but had a job M 532
but being a real M 532
but now i sat M 530
but that a way M 528
but that a and M 522
but for a bad M 522
but being a poet M 518
but with a top M 516
but was i going M 516
but then a long M 510
but for a kid M 507
but did i get M 506
but why i was M 504
but being a bit M 504
but now a real M 502
but both i and M 498
but yet a few M 496
but that a war M 494
but with a poet M 488
but with a song M 486
but with a job M 486
but not a weak M 486
but fear i can M 480
but with a fear M 479
but not a low M 479
but now i add M 478
but not a cry M 478
but being a boy M 478
but has a way M 476
but now i die M 474
but that a poet M 467
bug bit a big M 466
but did i see M 462
but now i long M 460
but how i long M 460
but has a non M 455
but this i ask M 454
buy you a box M 448
but that i too M 446
but with a lead M 442
but say a few M 442
but with a ten M 440
but not a job M 436
buy him a set M 435
but with a cut M 434
but with a pre M 431
but with a six M 430
but had a weak M 430
but with a and M 428
but now a big M 428
but for a son M 428
but now i too M 422
but this i now M 418
but this i beg M 418
but say i was M 414
but are a long M 414
but yet a real M 412
but with a dog M 412
but then i add M 412
but that s not M 412
but has a mean M 410
but for a god M 409
but are a real M 408
but with a law M 407
but then a boy M 404
but was a weak M 402
but may i die M 402
but got a job M 402
but can i use M 402
but with a team M 401
but not a key M 398
but mad i was M 398
but had i any M 398
but now a bit M 396
but put a few M 394
but then i mean M 393
buy them a meal M 387
but had a bit M 386
but that a bad M 384
but now i not M 384
but put a man M 382
but read a few M 380
but got a lot M 380
buy him a box M 378
but does a lot M 378
but now i own M 374
but for a due M 374
but that a boy M 373
but not a top M 372
but with a plea M 368
but then a real M 368
but that a god M 368
buy her a meal M 364
but has a head M 364
but had a red M 364
but has a red M 363
but with a year M 358
but long i sat M 358
but not a lie M 356
but being a bad M 354
but now i bring M 350
but with a mix M 348
but that a non M 346
but was a law M 345
but not a being M 345
bud and i are M 345
but with a heat M 339
but not a dry M 338
but with a bar M 336
but now a far M 336
but are a lot M 336
but not a net M 333
but that i say M 330
but that i owe M 330
but has a man M 330
but now a year M 329
but for a weak M 329
buy them a cup M 328
but with a yet M 328
but that i put M 328
buy for a long M 327
but now i lie M 326
but not a pre M 324
but can i let M 324
but not a sad M 322
but not a death M 322
but that a two M 320
but that a low M 320
but now i lay M 320
but for a law M 318
but for a fit M 317
but this i put M 314
but with a sky M 313
but that a son M 313
but for a yet M 313
but then i too M 312
buy you a red M 306
but get a few M 306
but with a map M 304
but how i run M 304
but now i bid M 300
but with a shy M 298
but that a big M 298
but with a deal M 296
but was a bad M 296
but then i run M 296
but two i can M 294
but that a sum M 294
but has a net M 294
buy you a toy M 293
buy her a lot M 292
but with a poem M 292
but with a death M 292
but for a red M 292
buy him a big M 290
but not a poem M 290
but has a two M 289
but may i put M 288
but was a key M 287
but for a head M 286
but with a being M 285
but has a set M 285
but for a team M 285
but that a has M 284
but not i fear M 284
but can i bring M 284
but with a too M 282
but using a new M 282
but not a bar M 282
buy her a dog M 280
but with a wet M 278
buy her a set M 277
but that i beg M 277
but one a year M 277
but then i set M 276
but one a day M 276
but for a six M 276
but won a seat M 272
but saw i was M 272
but now i run M 272
but are a new M 272
but not a team M 269
but with a seat M 268
buy her a real M 266
but with a pro M 264
but all a man M 264
but with a near M 262
but now i cry M 260
but that i get M 258
buy him a dog M 256
but who a few M 256
but not a use M 256
but now i pay M 254
but did i ask M 254
but why i had M 252
but for a fear M 252
buy him a seat M 249
but hear i can M 248
but ask a man M 248
but for a near M 247
but with a leap M 246
but for a dead M 246
but now a day M 242
but not a fit M 241
but with a dot M 240
but let a new M 240
but has a son M 240
but had i then M 240
but was a non M 239
buy her a toy M 238
but that i try M 238
but has a bit M 238
but get a new M 238
but get a job M 238
but are a set M 238
bud with a new M 238
but that a dead M 237
but not i and M 236
but get a lot M 236
but can i put M 236
but then a dog M 235
but yet i run M 234
but not a path M 234
but was a year M 232
but that i use M 229
but not a deal M 226
but are a few M 226
but with a bag M 222
but that i read M 222
but that i die M 222
but that i own M 220
but for a wet M 220
but all i fear M 218
but with a mad M 216
but who i had M 216
but not a song M 216
but not a bear M 214
but being a long M 214
buy all i can M 212
but with a dip M 212
but put a lot M 212
but now a cry M 212
but with a cup M 210
but for a cat M 210
but being a weak M 210
but that a joy M 208
but how a new M 208
but for a vow M 208
but ere i was M 208
but was a fit M 207
but ask a few M 206
but was a poet M 204
but then i sit M 204
but that a due M 204
buy him a real M 202
but for a ten M 202
but can i now M 202
but had a key M 201
but that a dog M 200
but one i saw M 200
buy you a set M 199
but with a box M 199
but was a day M 198
but see a way M 198
but not a sum M 197
but who i can M 196
but was i being M 196
but had i read M 196
buy them a lot M 195
but for a too M 195
but with a cat M 194
but yet i saw M 192
but that i then M 192
but for a sin M 192
but was a being M 190
but use a lot M 190
but them i did M 190
but has a job M 190
but has a dry M 190
but got a new M 190
but with a day M 189
but with a wit M 188
but saw a man M 188
but had a head M 186
but being a kid M 186
but not a fear M 185
but then i cut M 184
but was i any M 183
but was a dead M 183
but being a non M 183
buy you a seat M 182
buy him a lot M 182
but was a low M 182
but pay a due M 182
but now a heap M 182
but not a box M 181
but yet i use M 180
but with a myth M 180
but got a bad M 180
but try a few M 178
but did i mean M 178
but with a now M 176
but see a man M 176
but not a too M 176
but got a few M 176
but being a big M 176
buy him a red M 175
but use a new M 174
but that i set M 174
but she i can M 174
but for a song M 174
but for a poem M 174
but not a wet M 173
buy off a few M 172
but using a few M 172
but not a far M 172
but doing a lot M 172
but buy a new M 172
but for a being M 171
but then a low M 170
but that a weak M 170
but how i say M 170
but has a bar M 170
but had a net M 168
but fear i may M 168
but add a bit M 168
buy for a new M 167
but had a mean M 167
but now i don M 166
but was a son M 164
but that i let M 164
but had a cup M 164
but has a one M 163
buy you a bag M 162
but own i was M 162
but mean a lot M 162
but that a deal M 160
but saw a lot M 160
but see a day M 158
but say i did M 158
but not a seat M 158
but not a map M 158
but had a fear M 158
but for a sad M 158
but for a pre M 158
but that a too M 157
but see a year M 154
but say i had M 154
but put a new M 154
but not a kid M 154
but may i use M 154
but for a box M 154
but with a beat M 153
but that i who M 152
but had a man M 151
but for a dear M 151
but then i use M 150
but sings a lie M 150
but say i saw M 150
but put a sky M 150
but now a set M 150
but got a big M 150
but not a meal M 149
but had a two M 149
but with a rear M 148
but then i end M 148
but had a sad M 148
but few i fear M 148
but being a few M 148
but for a meal M 147
buy him a one M 146
buy her a bit M 146
but why a new M 146
but not a mix M 146
but for a dim M 146
but doing a job M 146
buy for a man M 145
but not a pro M 145
buy him a six M 144
but that i mean M 144
but with a dying M 142
buy them a toy M 140
but with a path M 140
but was a sad M 140
but then i both M 140
but using a set M 139
but has a being M 139
but being a dog M 139
but saw a few M 138
but now i and M 138
but was a war M 137
buy her a bag M 136
but set a bad M 136
but now a war M 134
but for a web M 134
but then a bit M 133
bud and a few M 133
but that a was M 132
buy them a year M 130
but for a run M 130
but for a bar M 130
but are a key M 130
but doing a bit M 129
but all a bit M 129
but this a man M 128
but now a way M 128
but did i owe M 128
but not a ten M 127
but not a six M 127
but are a far M 127
buy him a bag M 126
but that a bit M 126
but one a man M 126
but not a joy M 126
but mean a being M 126
but for a cup M 126
but but i was M 126
but bring a few M 126
but yet a long M 124
but this i set M 124
but not a dot M 124
but all i read M 124
but has a key M 123
buy you a one M 122
but using a non M 122
but saw a new M 122
but may i try M 122
but let a real M 122
bud and i did M 122
but not a cut M 121
but with a bear M 120
but was a dry M 120
but hear a few M 120
but with a use M 118
but was i too M 118
but that i ask M 118
but now a sad M 118
but not a ban M 118
but for a death M 118
but that i long M 117
buy her a red M 116
but yet i own M 116
but with a sum M 116
but that i lay M 116
but that a one M 116
but one a few M 116
but not a leap M 116
but not a gap M 116
but its a long M 116
but has a bias M 116
but for a gap M 116
but for a dry M 116
but for a mean M 115
bud and i got M 115
but yes i did M 114
but with a web M 114
but lay a long M 114
but him i can M 114
but had a non M 114
but had a bar M 114
but all i now M 114
buy for a year M 113
but that a sad M 112
but put a big M 112
but him i had M 112
but eating a lot M 112
but can a few M 112
buy with a few M 110
but with a lie M 110
but with a kid M 110
but who i did M 110
but not a dying M 110
but cut a few M 110
but can i bear M 110
but bring a real M 110
but not a fly M 109
but yes i was M 108
but then i act M 108
but then a cry M 108
but not a run M 107
buy them a big M 106
buy for a low M 106
but then i pay M 106
but see i can M 106
but now i owe M 106
but how i see M 106
but had a near M 106
but get a big M 106
but for a heap M 106
but did i then M 106
but bring a new M 106
bud with a poet M 106
bud was a man M 106
but was a box M 105
buy than a new M 104
but yet i mean M 104
but with a meat M 104
but not a cup M 104
but has a seat M 104
but has a gap M 104
but had a meal M 104
but fear i had M 104
buy you a bit M 102
but was i now M 102
but that a pre M 102
but that a mean M 102
but that a gap M 102
but now a red M 102
but not a wit M 102
but not a toy M 102
but can i then M 102
but was a near M 101
but that a sin M 100
but that a dry M 100
but see a few M 100
but say a lot M 100
but may a man M 100
but its a lot M 100
but has a sad M 100
but buy a few M 100
but that a key M 99
but then a bad M 98
but that t was M 98
but that a team M 98
but now a gap M 98
but how i saw M 98
but but i can M 98
but not a win M 97
but had a fit M 97
but get a bit M 97
but being a war M 97
buy but a few M 96
but with a ban M 96
but using a lot M 96
but that i bring M 96
but now a fear M 96
but not a nun M 96
but going a bit M 96
but don t let M 96
but can a god M 96
but yet a dead M 94
but sat a long M 94
but now i buy M 94
but now i all M 94
but now a boy M 94
but not a mad M 94
but her i had M 94
but has a near M 94
but for a dying M 94
but did a few M 94
but being i was M 94
buy both a put M 92
buy and a lot M 92
but with a sin M 92
but who i now M 92
but was a top M 92
but then i owe M 92
but then a gap M 92
but read a deal M 92
but one i fear M 92
but now i ran M 92
but now a joy M 92
but not a don M 92
but may i now M 92
buy for a boy M 90
but yet a way M 90
but with a leg M 90
but that a can M 90
but ran a few M 90
but one i got M 90
but how i get M 90
but has a fear M 90
but ere a year M 90
but add a lot M 90
but being a son M 89
but with a she M 88
but with a log M 88
but was a net M 88
but singing a song M 88
but not i but M 88
but not a log M 88
but not a leg M 88
but not a bow M 88
but ere i die M 88
but are a mix M 88
but for a seat M 87
but with a heap M 86
but using a low M 86
but use a few M 86
but then i lay M 86
but then i beg M 86
but had a dry M 86
but for a not M 86
but did a man M 86
bud with a bit M 86
but that a wet M 85
buy them a bag M 84
buy out a few M 84
but that i ease M 84
but not i was M 84
but may i bring M 84
but for a use M 84
buy things i can M 83
but now a low M 83
buy you a year M 82
but can a new M 82
but are a law M 82
bud was a big M 82
but two a day M 80
but that i not M 80
but that i joy M 80
but that i being M 80
but set a few M 80
but read a lot M 80
but with a run M 61
but with a sun M 58
but was a one M 58
but being a day M 58
but for a lay M 55
but using a two M 50
but use a two M 50
but for a cut M 50
but had a set M 49
buy you a six M 48
but was a god M 48
but for a key M 48
buy her a one M 46
bud and i sat M 46
buy and i was M 45
but with a mid M 45
buy you a two M 43
but with a lay M 41
but was a pre M 41
buy you a can M 40
but with a fit M 40
but that a near M 40
but has a top M 40
but then i met D 5110
but with a lag D 2294
but with a tinge D 2258
but with a thin D 2043
buy you a car D 1810
but not a tear D 1702
buy him a car D 1642
buy her a car D 1574
but not a ray D 1272
but not a gun D 1223
but not a jot D 1214
but not a leaf D 995
but for a thin D 976
but with a peak D 844
but that a tax D 837
but with a pen D 830
but with a sly D 828
but with a row D 822
but then i hit D 822
bus and i was D 814
but for a fee D 794
bun and a cup D 774
but for a guy D 770
but this i fay D 766
bus for a few D 754
but with a wry D 740
but with a gun D 721
bus for a long D 688
but with a zeal D 671
but with a nod D 640
but not a car D 638
buy you a hot D 618
but with a hot D 617
but not a bed D 589
buy him a hat D 574
but with a gay D 567
but thee i now D 562
buy you a hat D 514
but with a tax D 505
buy her a fur D 495
but with a cap D 476
but with a car D 472
but with a sting D 448
but with a pang D 442
but then a car D 436
but with a ray D 431
bus and a car D 420
but with a tear D 418
but with a rod D 406
buy them a car D 394
but not a cow D 386
but not a sou D 380
but had i met D 378
but for a gas D 376
bus for a day D 374
but not a liar D 371
but with a swing D 360
but has a peak D 348
bus and i had D 346
but with a pin D 337
buy him a wig D 336
but not a tax D 335
buy him a bed D 332
but not a hot D 326
but with a guy D 320
but with a hat D 316
buy him a gun D 314
but has a thin D 314
but with a gas D 301
buy her a hat D 300
but not a spy D 300
but with a neat D 299
but that i met D 298
but not a gay D 292
but not a pig D 288
but now i wear D 285
but that a hot D 283
but for a row D 280
bus and a few D 280
bud and a leaf D 280
bus with a lot D 278
but not a doer D 276
but being a cop D 274
buy you a fur D 268
but with a lion D 266
but with a beam D 264
but for a lad D 260
bus that i had D 256
but for a gay D 252
buy you a gun D 242
but then a guy D 242
bus that i was D 240
bus with a few D 236
but for a tax D 230
but now i met D 228
but was a tax D 222
but not a bee D 220
bus with a big D 218
but with a sub D 210
but not a pin D 210
but not a bath D 208
but for a car D 206
but not a hat D 200
bus with a new D 196
buy him a tie D 193
bus was a long D 192
buy her a hot D 190
but that a thin D 190
but being a liar D 188
but for a bed D 187
but with a leaf D 185
but not a fat D 182
but with a fat D 181
but not a beam D 178
buy him a cow D 172
but with a ringing D 172
but with a bed D 172
buy you a bus D 170
buy her a bus D 166
but with a sob D 164
but not a tie D 164
buy you a bed D 162
but that a ray D 162
but not a rat D 162
bus and i saw D 162
but with a tang D 160
but had a thin D 160
but for a hot D 158
but with a lid D 157
but not a lion D 156
bus and i did D 156
but with a per D 153
but not a sex D 150
but for a raw D 150
bus and i got D 148
but was a hit D 146
but with a pun D 144
bus and a man D 144
but not a hit D 142
but with a rim D 141
buy him a hot D 140
but for a fat D 138
but with a raw D 137
buy him a bus D 134
but not a thin D 134
but with a din D 132
but for a sew D 132
but not a fee D 130
but for a beam D 130
but that i axe D 128
but now i ken D 128
but not a pot D 128
but not a pie D 128
but had a row D 128
but with a lean D 124
but with a jet D 124
but now a dingy D 122
but with a pot D 120
but for a fig D 120
but with a lip D 119
but was a dud D 118
but now a ray D 118
but had a gun D 118
but with a wax D 116
bus and i can D 116
bun with a few D 116
buy her a bra D 114
but with a tip D 114
but has a row D 114
but for a tap D 114
but that a lion D 112
but has a neat D 112
bus was a big D 112
bus and a new D 112
but with a tie D 111
but with a fee D 111
but with a fog D 110
but with a fan D 110
but then a ray D 110
but now a thin D 110
but not a rag D 110
but with a fig D 109
bus for a two D 109
but with a sex D 108
but hum a few D 108
but not a gas D 107
but with a lad D 106
but with a beak D 106
but with a bat D 106
bus with a man D 106
buy you a tie D 105
but was a liar D 104
but pay a fee D 104
but not a seal D 104
but had a bed D 104
buy thee a new D 102
but was a neat D 102
but that a mob D 102
but now i hew D 102
but not a ton D 102
but this i ken D 101
but that a riot D 101
but with a tug D 100
but with a tin D 100
but with a jaw D 100
bus for a year D 100
bun and a mug D 100
buy you a cow D 98
bus and a van D 98
but has a tinge D 97
but use a bed D 96
but not a sob D 96
but gin i had D 96
but with a ton D 95
but with a mat D 94
but with a bath D 94
but not a cop D 94
but for a hat D 94
buy you a wig D 92
buy her a wig D 92
but was a hot D 90
buy her a bed D 89
bus for a one D 89
but with a rag D 88
but being a hot D 88
buy him a tin D 86
but with a lax D 86
but rob a man D 86
but not a row D 86
but for a mob D 86
but for a bath D 86
bus was a new D 86
bus and i see D 86
bus and i sat D 86
bus and a bus D 86
but with a coy D 84
but now i wot D 84
but was a fee D 82
but then a thin D 82
but that a car D 82
but not a fox D 82
but not a bus D 82
but with a pig D 81
but with a seal D 80
but was a spy D 80
but that a fee D 80
but met a man D 80
but had a car D 80
but for a rag D 80
but with a fur D 55
but not a raw D 52
bum for a few D 52
bud and i met D 50
but not a sub D 48
but with a tan D 44
but had a peak D 40
