but what ? " M 52018
but good . " M 10065
but once . " M 9586
but when ? " M 6088
but true . " M 6050
but here . " M 5560
but love . " M 4878
but mine . " M 4877
but wait . " M 4814
buy some . " M 3243
buy food . " M 3185
but soon . " M 3050
but wait ! " M 2994
but nice . " M 2699
but look ! " M 2570
buy more . " M 2316
but work . " M 2152
but fine . " M 2052
but evil . " M 2030
but fair . " M 2014
but life . " M 1897
but time . " M 1888
but ours . " M 1865
but look . " M 1803
but sure . " M 1720
but talk . " M 1687
but nothing . " M 1665
but some . " M 1554
but there . " M 1536
buy some ? " M 1524
but many . " M 1495
but truth . " M 1488
but name . " M 1488
buy time . " M 1306
but three . " M 1278
but peace . " M 1242
but here ! " M 1236
but lies . " M 1220
but come . " M 1216
but mind . " M 1204
but here ? " M 1204
but good ! " M 1078
but harm . " M 1068
but alas ! " M 1057
but there ! " M 976
but free . " M 940
but when . " M 926
but come ! " M 896
buy land . " M 886
but these . " M 868
but just . " M 848
but pain . " M 814
but obey . " M 794
but more . " M 788
but live . " M 786
but pray . " M 770
but nothing ! " M 766
but four . " M 760
but well . " M 758
but lost . " M 757
but deep . " M 730
but down . " M 722
but think . " M 718
but love ? " M 718
but safe . " M 716
but help . " M 713
but rest . " M 712
but dull . " M 682
but slow . " M 678
but know . " M 646
buy what ? " M 645
but weep . " M 638
buy food ? " M 631
but also . " M 630
but hope . " M 620
but wind . " M 610
but cold . " M 593
but wrong . " M 589
buy these ? " M 588
but great . " M 587
but once ! " M 576
but grow . " M 576
but poor . " M 570
but speak . " M 566
but clean . " M 554
buy here . " M 545
but young . " M 542
but fast . " M 534
but mine ! " M 526
but five . " M 516
but fail . " M 506
but home . " M 484
but wise . " M 474
but boring . " M 468
but gone . " M 454
but clear . " M 450
buy more ? " M 441
buy these . " M 436
but faith . " M 426
but knew . " M 424
but kind . " M 422
but food . " M 420
buy back . " M 412
but speak ! " M 412
but mine ? " M 406
but made . " M 400
but what ! " M 376
buy nothing . " M 371
but calm . " M 370
but fish . " M 356
but lies ! " M 348
but over . " M 342
but obey ! " M 342
but hell . " M 342
buy into . " M 334
but once ? " M 332
but what . " M 328
but whom ? " M 322
buy fish . " M 314
but duty . " M 308
buy mine . " M 306
but play . " M 305
but love ! " M 305
but true ! " M 300
but living . " M 294
but good ? " M 294
but ideas . " M 292
buy there . " M 290
but ruin . " M 290
but nine . " M 290
buy much . " M 284
but work ? " M 284
but tears . " M 272
but rich . " M 272
but leave . " M 272
but walk . " M 265
but last . " M 264
buy love . " M 261
but lust . " M 260
but cool . " M 260
but hard . " M 259
but fire . " M 254
but lazy . " M 252
bud forth . " M 251
but loss . " M 250
but snow . " M 248
but self . " M 246
but rare . " M 246
but pity . " M 244
but feel . " M 242
but knew ! " M 240
but these ! " M 238
but less . " M 236
but will . " M 234
but coming . " M 234
buy from . " M 232
but home ? " M 226
buy land ? " M 224
but wait ? " M 224
but know ! " M 222
but evil ? " M 222
but talk ? " M 220
buy arms . " M 218
but warm . " M 216
but hold ! " M 212
but luck . " M 210
but fact . " M 208
buy peace . " M 207
buy here ? " M 203
but stop ! " M 202
but hurt . " M 202
but boys . " M 202
but dogs . " M 200
but blue . " M 200
but food ? " M 198
but mode . " M 196
but hate . " M 194
but dream . " M 193
but done . " M 193
buy those . " M 192
but glad . " M 190
but toys . " M 188
but ugly . " M 186
but half . " M 184
but stay ! " M 182
buy those ? " M 181
buy there ? " M 181
but youth ! " M 178
but years . " M 178
but eager . " M 178
but stay . " M 176
but there ? " M 174
but heavy . " M 172
but felt . " M 172
but form . " M 170
buy less . " M 166
buy from ? " M 166
but live ! " M 164
but work ! " M 162
but three ! " M 162
but lord ! " M 162
but stop . " M 161
but pure . " M 158
but lies ? " M 158
but weep ? " M 156
but land . " M 156
but ready . " M 154
but most . " M 152
but kill . " M 152
but died . " M 152
but calm ! " M 152
but late . " M 151
but these ? " M 150
but soon ? " M 150
but gain . " M 149
but wood . " M 148
but heard . " M 148
buy some ! " M 146
but help ? " M 144
but fast ! " M 143
but three ? " M 141
but wild . " M 138
but rain . " M 138
but fall . " M 138
but wealth . " M 134
but care . " M 132
but vice . " M 130
buy food ! " M 129
but free ! " M 128
but talk ! " M 127
but acts . " M 126
but soon ! " M 120
but holy . " M 120
but sell . " M 118
but pray ? " M 116
but ours ! " M 116
but wide . " M 114
but obey ? " M 114
but mind ? " M 114
but nine ! " M 113
but bone . " M 112
buy last ? " M 111
buy none . " M 110
but peace ! " M 108
but ideal . " M 108
but health . " M 108
but breath . " M 108
but bend . " M 108
bug free . " M 108
buy seed . " M 106
but much . " M 106
but kids . " M 104
but such . " M 100
but born . " M 100
but back . " M 100
but think ! " M 98
but mice . " M 96
but like . " M 96
but hope ? " M 96
but four ! " M 96
but angry . " M 96
but vain . " M 95
but soft . " M 94
but rash . " M 94
but means . " M 94
but learn . " M 94
but those . " M 92
but know ? " M 92
but heart . " M 92
but full . " M 92
buy time ? " M 91
but sick . " M 90
but rage . " M 90
but hell ! " M 90
buy toys . " M 88
but teach . " M 88
but loud . " M 88
but idle . " M 88
but gods . " M 88
but envy . " M 88
but anger . " M 88
buy next ? " M 86
but busy . " M 86
but body . " M 86
but away . " M 86
buy love ? " M 84
but sons . " M 84
but pray ! " M 84
but pain ? " M 84
but healing . " M 84
buy ours . " M 83
buy more ! " M 82
but wish . " M 82
but truth ! " M 82
but myths . " M 82
but must ! " M 82
but caring . " M 82
but home ! " M 80
but five ! " M 80
but acting . " M 80
buy list . " M 47
but lost ! " M 47
buy side . " M 46
buy mine ? " M 44
