burn a hole in M 12227
buying a pair of M 10740
buying a home in M 4826
buying a home is M 4582
buying a copy of M 4062
buys a pair of M 3772
buying a home or M 2624
buys a copy of M 1767
busy i must be M 1645
burn a copy of M 1012
buying a home on M 980
buying a book on M 932
buying a book or M 888
buying a part of M 744
buying a book of M 742
burn a part of M 675
buying a home to M 606
buying a case of M 602
buys a home in M 540
buying a load of M 458
buying a good or M 458
buys a good or M 450
buying a home of M 450
burn a length of M 440
buying a work of M 428
bury a part of M 426
buys a book on M 424
buying a home as M 400
burn a pile of M 390
bury a body in M 388
buys a case of M 378
buying a word of M 378
buying a unit of M 368
buying a length of M 328
buying a home at M 320
buying a range of M 312
buys a unit of M 301
buys a book of M 287
buys a load of M 264
buying a call is M 262
buying a call on M 244
busy a life to M 244
buying a book in M 242
burn a fire in M 224
buys a book or M 216
buying a unit in M 206
buying a good at M 206
buying a call at M 202
buys a part of M 196
buying a kind of M 194
buying a call or M 190
buying a maid of M 188
buying a book at M 186
buying a list of M 184
busy a life as M 178
buying a third of M 166
burn a kind of M 162
buying a book to M 160
buying a book by M 158
buying a book is M 150
buying a good in M 146
busy a time as M 146
burn a mass of M 146
buying a fifth of M 140
buys a book at M 138
bury a bone in M 136
buying a pile of M 132
buys a work of M 130
buys a home on M 130
busy a time of M 130
burn a mark on M 126
buys a call on M 124
buys a cake of M 124
buying a bank in M 116
busy i have no M 114
buys a range of M 112
buys a home or M 112
burn a town or M 112
burn a third of M 111
buys a book in M 110
buying a single thing M 110
burn a city to M 110
buying a side of M 108
burn a city or M 108
buying a type of M 104
bury a bone or M 102
buying a home by M 100
buying a form of M 100
burn a tree in M 100
burn a pair of M 100
buying a gift or M 98
buying a copy or M 98
busy i have to M 98
burn a fire on M 98
busy a part of M 96
buys a third of M 95
buys a copy on M 94
busy a city as M 94
buying a used or M 90
buying a coat of M 90
buys a book to M 89
busy a port as M 87
buying a sort of M 86
buying a line of M 86
buying a cake of M 86
bury a fish in M 86
buys a unit in M 84
buys a home he M 82
buying a copy at M 82
buying a ship to M 80
burn a load of M 80
buying a book as M 48
buying a loaf of D 2234
buying a pack of D 1584
buying a farm in D 1464
buys a bill of D 1120
buying a plot of D 1118
buys a loaf of D 951
buying a suit of D 856
buys a pack of D 653
buys a suit of D 630
buying a bill of D 618
buys a plot of D 600
buying a farm of D 482
buying a sack of D 430
buying a pint of D 386
burn a kiln of D 372
buying a farm or D 346
buying a roll of D 338
buys a farm in D 330
buying a farm on D 306
bury a pail of D 300
buys a yard of D 296
buying a tube of D 286
buys a bill on D 284
burn a lamp in D 274
buys a bond at D 270
burn a string to D 270
buying a bond at D 246
buys a pint of D 233
burn a lump of D 230
buying a flat in D 226
bust a hole in D 223
buying a string of D 222
buying a farm is D 208
buys a sack of D 206
buys a roll of D 198
buying a suit or D 196
buying a farm at D 196
buying a bond or D 194
buying a boat to D 182
buying a kilo of D 178
buying a herd of D 178
buying a bond is D 174
buying a flat or D 160
buying a bill on D 148
buys a bond or D 140
buying a vote or D 136
buying a yard of D 132
burn a gram of D 132
buying a farm to D 130
buying a boat or D 130
buying a boat is D 130
bums a dime in D 130
butt a sick or D 126
buys a bale of D 124
burn a finger of D 124
buys a pool of D 120
buck a rule or D 120
buying a radio or D 116
burn a wife of D 114
buying a bond of D 112
buying a yoke of D 110
burn a bull on D 110
bush a foot or D 109
buying a plot in D 108
buys a tube of D 104
buys a farm or D 104
buying a boat in D 104
buys a farm on D 96
buying a goat or D 96
buying a bolt of D 96
buying a bale of D 96
bush a copy of D 96
burn a barn or D 96
bulk a means of D 96
buys a bowl of D 94
buying a tank of D 94
buys a kilo of D 92
bush a mile or D 92
burn a cord of D 86
buying a farm the D 82
buying a bowl of D 80
bust a move on D 61
