build him a new M 2962
built him a new M 1760
build them a new M 1730
built and a new M 1707
build you a new M 1692
burns with a long M 1493
build her a new M 1492
burning for a long M 1301
built for a man M 1279
burns with a red M 1267
built for a long M 1158
built for a few M 1071
built them a new M 1022
built for a new M 990
burnt with a red M 905
burns with a non M 901
built but a few M 872
built with a low M 793
burning with a red M 767
burning for a few M 727
burns was a man M 714
built with a long M 703
built and a few M 667
burns for a long M 658
built with a few M 633
burning with a long M 622
burst with a bang M 581
built her a new M 566
built with a new M 526
buyer for a big M 522
built him a log M 510
built all i had M 468
burning with a new M 458
buyer for a new M 453
burning and i was M 447
burns was a poet M 418
built for a day M 418
burst and i was M 392
built with a lot M 368
burning with a low M 352
burnt for a few M 350
built with a set M 311
burnt for a long M 308
built and i was M 273
build for a new M 268
built and i had M 266
built using a set M 260
built with a two M 258
build for a long M 251
burns and a few M 240
burns for a few M 236
build for a few M 234
burning for a day M 233
burning and a few M 232
build out a new M 232
burns with a new M 228
burnt all i can M 226
build you a big M 224
burns with a low M 222
burning and i had M 214
build him a big M 214
built for a sum M 212
burns and i had M 210
burnt out a few M 204
burning with a heat M 197
build than i had M 197
buyer with a low M 194
buyer was a man M 188
burns was a bad M 188
built for a war M 173
build with a long M 173
build you a real M 170
burns with a weak M 158
build him a log M 156
build for a man M 156
built for a big M 155
burning for a year M 153
built for a year M 152
burning and i can M 151
burning off a few M 150
built with a big M 149
buyer for a long M 144
burst out a few M 144
burst and i had M 142
burnt and a new M 142
built and a lot M 142
burst with a new M 141
built with a red M 141
built using a new M 139
buyer with a few M 138
built her a big M 138
build both a new M 138
burns that i had M 130
built not a few M 130
built for a low M 128
built with a top M 125
burning and i saw M 124
built them a log M 124
burning with a mad M 122
buyer for a few M 120
built but a year M 120
burning with a dim M 118
build for a day M 118
burnt and a few M 116
build them a log M 116
build her a big M 116
built him a big M 114
built for a one M 111
buyer and a new M 110
buyer with a new M 106
burst all i had M 104
built that i can M 104
build him a two M 100
built with a due M 98
burns with a dim M 96
burnt with a low M 94
built and a year M 93
buyer has a pre M 92
built that a man M 92
burning with a dry M 90
built than i had M 90
built for a two M 90
built for a god M 90
burnt with a heat M 89
built and a man M 89
built with a sum M 88
buyer for a sum M 86
burst with a big M 86
built you a new M 86
built with a mix M 86
built for a far M 86
burning with a sad M 84
built her a log M 82
burning and a lot M 66
built with a one M 58
built him a two M 49
built with a six M 48
burst and a few M 47
burns with a heat M 47
burnt and i was M 45
build with a few M 45
build and a long M 45
built with a box M 44
built for a six M 43
built for a set M 42
burnt with a hot D 1348
burns with a hot D 1300
burning with a hot D 1060
buddy and i had D 902
built him a hut D 876
bulls and a cow D 626
burning with a zeal D 547
build him a hut D 516
bucks for a new D 494
buddy and i are D 436
buses and a few D 392
bucks was a lot D 384
bucks for a few D 368
built her a hut D 328
build you a hut D 326
buddy and i got D 322
burst with a pop D 321
bully and a liar D 310
build her a hut D 306
bucks and a few D 286
bulbs and a few D 270
bulls and a few D 250
built them a hut D 234
bureau and a few D 224
bunting for a hit D 222
bunny and i are D 214
bunks for a few D 202
buddy and i did D 202
bureau for a long D 200
bucks for a cup D 200
built with a thin D 193
bunny and i had D 190
butch and i had D 183
bully and a thug D 182
buzzing with a new D 178
budge for a long D 176
build them a hut D 174
bucks and a lot D 172
buggy and a team D 162
bucks for a cab D 162
built with a row D 158
bulbs for a few D 156
burnt with a raw D 149
bully and a cad D 144
burial and a few D 140
buggy with a man D 138
bulge out a bit D 133
bunks and a few D 126
buses for a year D 125
buses for a day D 124
burial for a man D 124
buggy with a big D 124
burgh for a year D 123
burial for a long D 122
built with a lean D 122
burns with a thin D 120
bureau and a bed D 119
bully with a big D 119
built with a hinge D 117
built with a beam D 116
busting for a pee D 115
built him a neat D 114
bucks for a one D 111
bucks for a day D 111
busts and a few D 110
bucks and i was D 108
bureau for a year D 107
buggy with a top D 105
bursa and a pad D 104
burning and a pot D 103
burning near a bed D 102
built him a dial D 102
bulbs has a mean D 101
bucks and i got D 100
bucks for a two D 97
buses for a few D 96
bumps and a few D 96
buses are a bit D 92
bureau for a few D 92
built him a bed D 92
bulging with a wad D 90
bucks for a car D 90
buyer for a fee D 86
burial for a dead D 86
bureau and i was D 86
buggy for a long D 84
buffing with a dry D 84
bucks that i had D 84
buses for a long D 82
bumping off a few D 82
bully him a bit D 82
build him a car D 82
buddy that i was D 80
butch and i are D 52
bully and i was D 40
