weak for such a M 1958
web has been a M 740
weak and have a M 652
weak and heavy a M 608
wet and cold i M 393
weak that ever i M 360
wet with many a M 336
weak and only a M 314
weak that only a M 298
weak that when i M 288
weak that even a M 270
web and find a M 252
wet and have a M 237
wet with tears i M 197
weak man into a M 196
weak and poor a M 176
weak and weary i M 152
wed and have a M 148
weak and sick i M 148
wet day when i M 146
weak and even a M 139
weak with only a M 130
wet and cold a M 127
web has come a M 126
weak and like a M 126
weak that from a M 120
wet for such a M 118
wet and made a M 116
wet and having a M 110
weak and when i M 108
wed with such a M 106
weak and need a M 106
wet and mild a M 104
weak and having a M 104
wet head like a M 102
wet and when i M 100
web you need a M 98
web may have a M 94
weak and lack a M 94
weak and such a M 92
web can have a M 88
wet and form a M 43
wear out like a D 2610
wear them when i D 1466
wear them like a D 870
wean him from a D 802
wean and weary a D 455
wean them from a D 418
wear him like a D 272
wear this when i D 270
wear out even a D 260
wear and what i D 251
wear her like a D 240
wear out over a D 231
wear off when i D 222
wear one when i D 216
wear not only a D 216
web that took a D 204
wear you like a D 204
wee may have a D 192
wear for such a D 181
wee get into a D 172
wear and have a D 170
weal that call i D 150
wear them upon a D 142
wear has been a D 141
wee bit like a D 140
wear out many a D 134
wear him down a D 132
wear his hair a D 128
wear off over a D 116
wean her from a D 110
wear but half a D 103
wear her hair a D 98
wee had made a D 96
wear out half a D 92
wean you from a D 90
wet his lips a D 88
weak and tame a D 88
wee had such a D 84
wear them down a D 82
wear out during a D 80
wear for many a D 48
wear had been a D 45
wear for life a D 42
