url that does not M 646
url that you can M 301
url for this web M 220
url that you use M 148
url that you are M 99
url for that web M 88
urn urn urn urn D 137
urea and does not D 82
urea does not act D 80
urn and its lid D 49
urn inn inn inn D 42
