url of the web M 6514
url in the url M 920
url to the web M 863
url is the url M 760
url of the new M 582
url on the web M 491
url in the web M 436
url at the top M 380
url at the end M 348
url in the box M 332
url to the new M 244
url is the path M 185
url of the map M 154
url is the web M 144
url of the top M 141
url to the url M 117
url is the one M 42
urn at the top D 642
urn on the top D 530
urea is the end D 431
urn at the end D 344
urea is an end D 281
urea in the urea D 266
urea is by far D 258
urea in the gel D 237
urn at the head D 189
urea via the urea D 168
urea by the urea D 162
urn of the dead D 133
urea as the end D 130
urea at the end D 116
urea in the rat D 111
urea as an end D 110
urea on the one D 108
urn of tea and D 106
urea in the dog D 106
urea in the two D 91
urn at the far D 44
