urges a man to M 1574
urged a ban on M 736
urged a man to M 450
urged a war of M 188
urged a cut in M 174
urged a law to M 150
urges a man on M 138
urged a set of M 90
urged a tax on D 156
urine a red or D 45
