date was set for M 31102
data that are not M 23998
data are not yet M 22989
dare say you are M 21622
dare not say that M 15519
data that can not M 14500
days they did not M 13956
data that does not M 13584
dare you say that M 10944
dare say that you M 9748
days and did not M 9660
days are long and M 8174
days she did not M 7966
dare say they are M 7511
dare say you can M 6754
days ago she had M 6486
data that you can M 6356
data set does not M 6355
data and does not M 5253
days you did not M 5058
days you can not M 4866
data that has not M 4664
data that are being M 4476
days that she had M 4156
data that did not M 4144
days and had not M 4122
data for each year M 4093
data and can not M 3932
days she had not M 3870
days that they had M 3762
days than they are M 3756
dare say she was M 3726
days that she was M 3700
data that was not M 3696
dare not say how M 3680
dawn was not far M 3535
data has not yet M 3491
data that may not M 3486
dare not ask for M 3468
date this has not M 3417
days they had not M 3336
days with him and M 3238
days that are not M 3222
data and are not M 3167
data are now being M 3156
dark and she was M 3122
date has not yet M 3111
dare say you may M 3082
dare not ask you M 3074
data for that year M 3070
dawn had not yet M 3053
days and does not M 3032
data that you are M 3029
days and one year M 2991
days ago they had M 2988
dare say you did M 2982
data are too few M 2938
dare say she has M 2910
data set for each M 2896
dare say that this M 2894
days ago and was M 2888
days and was not M 2862
days and she was M 2854
days and then they M 2842
data that they are M 2811
days ago that she M 2802
data set for this M 2796
data and one for M 2749
data are set out M 2724
days ago and had M 2616
data but does not M 2600
days ago that you M 2558
data set that was M 2551
data set that has M 2548
days she was not M 2546
days you can see M 2538
days than not for M 2494
data you can use M 2487
days had not yet M 2481
days and was then M 2457
data set and then M 2438
data and how they M 2410
days and can not M 2400
dark and did not M 2350
days but did not M 2302
date and does not M 2290
days and that they M 2286
data set that can M 2280
days and see how M 2254
dark you can not M 2242
days ago she was M 2214
days that they are M 2174
date and did not M 2138
data for men and M 2136
dare say that they M 2064
data that they can M 2062
date was set and M 2056
days and that was M 2040
data does not mean M 2028
days now and then M 2019
data for one year M 2019
data for use with M 2008
days off with pay M 1991
data are for all M 1961
days and you can M 1936
days and she had M 1934
data for its own M 1914
days and they are M 1870
data that are now M 1862
days one did not M 1830
dare not let him M 1824
days you are going M 1820
days that you are M 1818
days and then was M 1810
days are few and M 1802
data for this and M 1802
data may not add M 1800
date set for his M 1792
data does not fit M 1782
days and they had M 1772
data and did not M 1766
days are not long M 1734
dare not let them M 1710
data for any one M 1705
days they are not M 1702
date with her for M 1701
dark and you can M 1696
days and this was M 1692
days for any one M 1691
dark man who had M 1688
days that did not M 1678
days she had had M 1674
dare not let you M 1674
data did not fit M 1667
data and our own M 1663
days with her and M 1650
days she does not M 1646
dark and they had M 1646
days they had had M 1642
days ago and she M 1632
dare not ask him M 1626
data are not being M 1620
days ago and that M 1602
days one and two M 1601
days and then you M 1598
days each year for M 1588
days and was now M 1582
data and then use M 1579
days and are then M 1576
data set can not M 1551
days she was going M 1542
data are not all M 1535
dare say that she M 1526
data for his own M 1510
days and then she M 1498
dark that you can M 1474
days each year and M 1466
days ago and has M 1466
data are few and M 1462
data set did not M 1458
days one can not M 1452
dare say she did M 1450
date that does not M 1447
dark and she had M 1442
days this was not M 1438
days and then had M 1434
data and they are M 1430
days she and her M 1426
days ago and now M 1426
dark and wet and M 1426
date and can not M 1422
days ago that they M 1396
days with you and M 1392
data for this year M 1384
days that are now M 1378
data and use them M 1376
days she was dead M 1372
days and who had M 1366
data are not easy M 1362
data set was not M 1356
days and that she M 1354
days that are dead M 1348
data set and its M 1344
data that had not M 1322
days ago and they M 1314
dare not and can M 1308
days you are not M 1306
dare say she had M 1304
days and are not M 1276
data are far too M 1276
dark with age and M 1276
data but can not M 1267
dark and can not M 1258
date set for its M 1255
days now she had M 1252
date had not yet M 1250
data for this area M 1238
data that are both M 1230
dawn and did not M 1229
data that can then M 1226
date that they are M 1215
days and has not M 1210
data that they had M 1207
days with them and M 1202
dare not let her M 1198
days and our own M 1190
dare say that was M 1190
days that was not M 1164
days are not far M 1164
data are not too M 1158
data that you may M 1155
data and its use M 1149
data for this are M 1146
date and that they M 1145
date with him for M 1136
data set that are M 1136
data for each day M 1134
days who did not M 1130
days than she had M 1128
days that you can M 1124
days they had all M 1122
data set and for M 1122
dare say she does M 1118
dare say they did M 1112
data now that you M 1105
data bear this out M 1105
data set was then M 1102
days for each year M 1101
data and may not M 1100
days with his old M 1094
data and that they M 1089
date for new year M 1080
days and then set M 1078
days for men and M 1076
days and one day M 1066
data one can not M 1066
days you can get M 1058
data are read out M 1054
dare not say they M 1054
days and who was M 1050
days are not yet M 1048
data are read and M 1046
days that does not M 1042
days and that this M 1032
date does not mean M 1032
dark and does not M 1030
days and you are M 1028
days with his son M 1017
dare say you had M 1014
date and his death M 1010
days and then put M 1006
data set for all M 1005
days now they had M 1004
dare say that all M 1004
data but are not M 1002
days men did not M 998
dark man who was M 996
days and all that M 990
dare not say out M 989
days old and had M 988
days are not all M 985
data and see how M 979
data are all that M 974
date and are not M 972
data for them are M 968
data but did not M 968
days and then for M 967
date that has not M 961
data that one can M 960
data has its own M 960
date with her and M 954
date with him and M 935
days that are yet M 934
days they can not M 928
date for his death M 922
dare not say this M 916
data that was being M 914
dare you say you M 908
dare not for fear M 902
data set are not M 892
dare not ask her M 890
days that can not M 884
data set may not M 884
data and his own M 883
data does not get M 882
days and then are M 872
data that are too M 868
days for each day M 866
dare say that his M 866
days and one for M 864
days are too long M 862
dawn has not yet M 851
data that are then M 850
days ago and you M 842
days does not mean M 840
data bear out this M 840
dare say they had M 836
days was that they M 830
data and then using M 830
days that she did M 822
days but does not M 822
data that can lead M 822
data are not now M 820
days and how they M 818
data you are using M 812
days one does not M 810
days with his own M 808
dark that one can M 796
days was too long M 795
days and each day M 794
days and may not M 792
date that you are M 791
days did not mean M 788
days that are long M 786
days and that you M 784
date that can not M 784
dare say you saw M 784
days and then let M 778
date and was not M 773
data are being read M 773
days and then one M 768
data set and that M 766
dare say they can M 766
days than they had M 758
days and all his M 754
days she has not M 750
days was not yet M 748
days that they may M 746
dark and sad and M 746
days she has had M 740
dare not yet hear M 738
days are all too M 734
days and that his M 734
date set for this M 732
days and for long M 726
data had not yet M 726
data but not for M 724
days and his bad M 720
data and two new M 718
data set with two M 716
data for all six M 716
data than are now M 714
data set that you M 714
data for each area M 711
days and had had M 710
data and using them M 707
dawn was not yet M 703
data with both death M 702
dark and you are M 702
date they are due M 701
data you can get M 701
days one can see M 696
dare you say this M 689
days but had not M 684
date and that all M 682
dark that they had M 682
data for all but M 680
dare not say with M 680
dare say she may M 676
dare say this was M 670
days and then get M 668
date set for our M 668
data for each age M 663
dare not use them M 660
date and that you M 659
days are not too M 658
data you are going M 656
data are for one M 656
dare say you all M 656
days and are now M 654
date but does not M 653
days and they did M 652
data set and are M 650
dare say you and M 648
data for this map M 646
data are that they M 646
data and how you M 646
dark and she did M 646
dark and not too M 646
days old they are M 644
data and put them M 642
days that this was M 638
days ago and then M 632
dark that she had M 632
days for each and M 630
dark that they are M 628
date that you can M 622
dare say that for M 622
data you can not M 619
data one can see M 617
data set that may M 614
data but they are M 614
days you may not M 608
data that deal with M 606
data set for use M 606
data and are thus M 606
data for each run M 604
days that they can M 602
days than they did M 602
data that they may M 602
data that are read M 601
days each year with M 598
dark and they are M 598
days off each year M 597
days and let you M 596
days who does not M 594
data set and can M 594
dark that they can M 590
dare not say any M 590
days ago with his M 588
date for its own M 586
dawn and set out M 584
date but did not M 584
data that they use M 584
data for each new M 580
days with her son M 578
date that did not M 578
dare you use that M 578
days and she did M 572
days they are going M 570
data they are using M 568
data that you use M 568
days she can not M 566
data and use this M 566
data and that are M 566
dare say that our M 564
date and has not M 563
dark head with its M 562
days and not one M 560
data they are not M 558
data and that this M 558
days she was too M 556
days and she has M 556
days old and was M 554
days and for all M 554
data they can not M 554
days you may see M 552
dark and long and M 552
days with his new M 550
date that was not M 550
data than they can M 550
days has not yet M 548
days are now long M 548
date that they had M 547
days and that all M 544
date set for her M 543
days but was not M 542
data does not yet M 541
days and was one M 540
days ago you had M 536
data and for his M 536
days and was led M 534
dawn each day and M 534
dare say you mean M 534
dare not see him M 534
date and may not M 532
days ago that his M 530
date they had not M 530
data and you can M 530
dark and wet with M 530
dare not say but M 530
data for one day M 529
dare you bring that M 529
days and then try M 528
days was not easy M 526
days that you may M 526
days and not see M 526
data that may lead M 526
dare say all this M 526
dark they can not M 524
date being set for M 522
data and its own M 522
days that she has M 520
date now and then M 520
data and thus can M 520
dare say you see M 516
dark red and his M 514
dare say they may M 514
days for him and M 512
data that was read M 512
days she had her M 510
data with his own M 510
date with you and M 509
data with its own M 508
data does not lead M 508
days not long ago M 507
data and that can M 507
days was not all M 506
days and then die M 506
days set out for M 504
days are not going M 504
date and they are M 504
dark they did not M 504
days you can buy M 502
days ago that this M 502
data are for two M 501
date for you and M 500
data set can then M 500
days that one can M 499
dare all things for M 498
date and she was M 497
days and then with M 496
date for this was M 496
data for each one M 496
data and was not M 490
days and his death M 488
data may not fit M 488
dark red and then M 488
dare let him see M 488
days and let him M 486
days all that was M 486
dawn they set out M 484
data than you can M 484
date for his own M 483
days are dead and M 482
data can not yet M 482
dash out and buy M 482
data set with one M 479
date was not set M 478
data for its use M 478
days she was with M 477
dare not say all M 476
days old and has M 472
data for this age M 472
dark and they did M 472
data than they are M 471
data for each set M 471
days that they did M 470
data and thus are M 470
data set and not M 468
dare ask him for M 468
days was all that M 467
days but not for M 466
days and that for M 466
days and his own M 466
date not too far M 465
data and they can M 464
data and not for M 464
dare one say that M 463
days that now are M 462
days but they are M 462
days and you may M 462
dare you ask for M 462
days was not long M 459
dare not say one M 459
days and then got M 458
days and her bad M 458
data that are easy M 458
date that she had M 456
date can not now M 456
dark for too long M 455
data with that for M 454
dare not let his M 454
date and had not M 453
dare say that that M 453
days they set out M 452
dark that she was M 452
dare not let our M 450
days who had not M 448
days each year that M 448
data for age and M 448
data may mean that M 444
dare say that any M 444
date for each year M 443
days and our bad M 442
days and let them M 442
data for our own M 442
days for him who M 440
days ago and saw M 440
data that are far M 440
dare say that one M 439
dark she did not M 438
days that she and M 434
days are far too M 432
days with her own M 430
data and not with M 430
dare not ask them M 430
date that she was M 426
dark with fear and M 424
dare any one say M 423
dare not let this M 422
date and that this M 421
days she was out M 420
data are thus not M 420
days off and then M 418
data than can fit M 418
data for each job M 418
days this did not M 416
days are not for M 416
data set has not M 416
days they are all M 414
data set for our M 414
date was not yet M 412
data that she had M 412
dare say that not M 412
data are not for M 411
data are then read M 410
date for that year M 409
days that you had M 408
date set for any M 406
dark and that they M 406
dare say that with M 406
days and that had M 404
dare that they are M 404
data set and use M 403
days are long now M 402
days and then goes M 402
data you can see M 402
days and you get M 400
dark and that she M 400
date and you can M 399
days with all his M 398
data for that day M 398
dare not put them M 398
dark now and she M 396
dare not put his M 396
dare not ask any M 396
days but this was M 394
date them with any M 394
data are and how M 394
data are for both M 392
dare not deal with M 392
days each and one M 390
days did not bring M 390
days and one that M 390
data for this new M 390
dare say now that M 389
days with joy and M 388
date with all that M 388
dare and die for M 386
date that this was M 384
date and who has M 384
data and use that M 384
date and his own M 383
days was not that M 382
days now and had M 382
days and they can M 382
date they are not M 379
data was not yet M 378
data set and thus M 378
date and that was M 377
days was that she M 376
data set that does M 376
data and that you M 374
data and for each M 374
dare say that few M 374
dare say she can M 374
dare not say you M 374
days for one year M 373
data and that for M 373
days she had sat M 372
days did not get M 372
data did not bear M 372
dare not say for M 372
days that was all M 371
data and for this M 371
days that you did M 370
days that had not M 370
days but she was M 370
days ago and who M 370
dare say not one M 369
days not too long M 368
days and then all M 368
dawn and cry for M 368
data you did not M 368
data and deal with M 368
days that you and M 366
days for all who M 366
days with his head M 364
days ago you did M 364
days ago and are M 364
date she had with M 364
dark old man was M 364
days had its own M 362
days but that was M 362
days and then not M 362
data set for both M 362
data and how this M 361
dare not use any M 360
days this area was M 358
days each year are M 358
days and now they M 358
date does not fit M 356
data any way you M 356
data and one that M 355
days was not too M 354
days that are too M 354
days now she has M 354
days ago was not M 354
data for each and M 354
dare ask you for M 354
days for each one M 353
dawn and she was M 353
days but can not M 352
date and that she M 352
data with our own M 352
days old and that M 350
date for him with M 350
data set with all M 350
dare you try and M 350
days ago and did M 348
data yes yes yes M 348
date she had not M 347
days for his own M 346
date and she had M 346
data for that area M 346
date for this year M 345
days than our own M 344
date for this new M 344
dark red and has M 344
days and how she M 342
dark and low and M 342
dark and all was M 342
dare say that may M 342
data they did not M 341
days they may not M 338
days and now you M 338
days and had then M 338
dark and old and M 338
date men who are M 337
days who was now M 336
data and has not M 336
dark man with his M 336
days for men who M 334
date can not yet M 334
data set you are M 334
data set and each M 334
days and for two M 332
data does not bear M 332
dark you can see M 332
days old and then M 331
date and day for M 331
days old and are M 330
days off now and M 330
days are you going M 330
data but not with M 330
days pay for each M 326
days for that day M 326
days ago was that M 326
date she did not M 326
data set has two M 325
days and has had M 324
data that they did M 324
daring man who had M 324
dare not see you M 324
date but not yet M 323
date and one that M 323
days who was not M 322
date was not far M 322
dare you bring this M 322
date was put off M 320
data they use are M 320
data they can use M 320
data that can aid M 320
days are all that M 319
date they did not M 319
days was that you M 318
data that you did M 318
data are all too M 318
data and this has M 318
dark head and his M 318
days they had got M 316
days off for each M 316
days for you and M 316
date that you put M 316
data that can now M 316
data that are put M 316
dare any man say M 316
days off and was M 314
days for them all M 314
days and for this M 314
dare not fix with M 314
date are not yet M 313
dark for any one M 313
days and you had M 312
data and that all M 312
date and you may M 310
dare say now you M 310
dare not get out M 310
days than you can M 308
days and who now M 308
date that are not M 308
data set for any M 308
data set but not M 308
days out she was M 306
days now and she M 306
days and that each M 306
data set that had M 306
data for air and M 306
data are fit with M 306
data and how that M 306
dare not for his M 306
days and you did M 304
days and was going M 304
date that they can M 304
date than our own M 304
dark and then they M 304
date than his own M 303
data set and one M 303
days both men and M 302
days and who has M 302
days and put them M 302
data did not lead M 302
dark sky with its M 302
dare not yet say M 302
dare not cry out M 302
dare and then put M 302
days this was one M 300
days ago and this M 300
data set and how M 300
data and can use M 300
days and for that M 299
date and you are M 298
date and that his M 298
dark you may see M 298
dare she say that M 298
dare say they all M 298
date with you for M 296
date she has not M 296
days his men had M 294
date than that with M 292
data that she has M 292
dark and they can M 292
date each year and M 291
days did not end M 290
days and its bad M 290
data for each are M 290
data and this can M 290
dark and dry and M 290
dare not see her M 290
days for fear that M 289
date with his own M 289
date for each day M 289
days off and get M 288
days and that her M 288
data thus far are M 288
data that you see M 288
dare say that god M 287
days old and not M 286
days and they all M 286
data that you had M 286
data set for that M 286
data set for one M 286
data for one set M 286
data are real and M 286
dare not put off M 286
days did not see M 284
days and see that M 283
date than they are M 283
days and all day M 282
days ago that all M 282
days ago did not M 282
date was not going M 282
date for each job M 282
data that has led M 282
dark one can not M 282
days who has not M 280
days they let him M 280
days and then two M 280
days and set out M 280
days and not for M 280
days ago but had M 280
data but may not M 280
data and thus may M 280
data and for all M 280
date she had had M 279
days was far too M 278
data are not that M 278
days with this man M 276
days and who are M 276
days and this may M 276
days and ask for M 276
days ago with all M 276
date you had with M 276
dark but not too M 276
dare not use his M 276
dark and all that M 275
days long ago and M 274
data was that they M 274
data and using this M 274
dark man did not M 274
dare not say yes M 274
date and say that M 273
days ago and his M 272
date was then set M 272
data and for its M 272
daring men who had M 272
dark now and they M 271
days now and was M 270
data that one has M 268
data set and all M 268
dark path that led M 268
date but was not M 267
days that are going M 266
days each year than M 266
data and then try M 266
dash for his own M 265
days was not one M 264
days and they may M 264
days and now she M 264
days ago was now M 264
date for her with M 264
data does not lie M 264
dare say was not M 264
date they had set M 262
data for this run M 262
data are all for M 262
dark and got with M 262
date who did not M 261
data that can fit M 260
dark and are not M 260
days now and they M 258
days for one man M 258
days and then has M 258
data that are going M 258
dark with his own M 258
dark but did not M 258
dare say you read M 258
dare not say his M 258
days ago that her M 257
dare not put out M 257
days off that they M 256
days but are not M 256
dawn and does not M 256
date was now set M 256
data for both men M 256
data can and can M 256
dark with its own M 256
date with him that M 255
date and that its M 255
days not too far M 254
days ago and got M 254
date and for each M 254
dark man and his M 254
dark and had not M 254
data that are out M 253
data area for each M 253
days each way and M 252
days ago she and M 252
data for you and M 252
dark and let them M 252
dare not bring them M 252
days who are not M 250
days for all they M 250
days ago and not M 250
data was not being M 250
data that you get M 250
data and this may M 250
dark red and her M 250
dare say any man M 250
days who can not M 248
days are one day M 248
days and that too M 248
days and may then M 248
days and can then M 248
date for each one M 248
data for this set M 248
data for one and M 248
data are old and M 248
dare not say who M 248
date for one year M 247
dash dot dot dot M 247
dare not let that M 247
days that try men M 246
days but they had M 246
days are dry and M 246
date that was set M 246
data are not new M 246
dark and big and M 246
dare not let any M 246
data set has its M 245
days that end with M 244
days but you can M 244
days but they did M 244
days but that they M 244
days but she had M 244
days are sad and M 244
days ago that was M 244
data using its own M 244
data set and may M 244
dark all day and M 244
days and now that M 243
date and that are M 243
data for all ten M 243
dash now and then M 243
days she was ill M 242
days bring with them M 242
days and was being M 242
days and then his M 242
days and for one M 242
dare not own that M 241
days you can use M 240
days with one day M 240
days and then bring M 240
days and not get M 240
data they deal with M 240
data that may aid M 240
data set and with M 240
data for doing this M 240
date with this man M 239
date for him and M 239
days that are all M 238
days she may not M 238
days and then may M 238
days and that one M 238
days ago with her M 238
date than that for M 238
data was fit with M 238
data for man are M 238
dare not use this M 238
dare all that may M 238
data that are all M 237
days they had both M 236
days are too few M 236
days and all but M 236
dawn and set off M 236
date one can not M 236
data are then put M 236
dark and red and M 236
dare you ask that M 236
days that has not M 234
days did you use M 234
data set than that M 234
data for all our M 234
dark and one was M 234
daring than his own M 234
days and then fly M 232
data that this was M 232
data set and using M 232
data may not sum M 232
data are read for M 232
daring him with her M 232
dare not put this M 232
dare not ask god M 232
date but can not M 231
days they had sat M 230
days did you say M 230
date and that any M 230
data does not add M 230
dare not say too M 230
days was not far M 228
days and then going M 228
days ago had not M 228
data that can and M 228
data for men are M 228
data can not fit M 228
dark but for one M 228
dare let him out M 228
data may not yet M 227
dark that was not M 227
days for any man M 226
days are not now M 226
date and this was M 226
data set was too M 226
dark and with her M 226
days that god has M 224
days for them both M 224
days for each man M 224
days and add them M 224
data mean and how M 224
dark sky and then M 224
dark and that was M 224
dark and that his M 224
dare you say she M 224
date for you with M 223
data for this one M 223
data and see that M 223
days with her new M 222
days than for one M 222
days for our own M 222
days and then see M 222
days and all our M 222
date you can not M 222
date with her that M 222
date and its use M 222
data you can put M 222
data can not lead M 222
dark that did not M 222
dark and she has M 222
dark and all but M 222
data set for two M 221
data for any year M 221
dash out and run M 221
days men who had M 220
date with him was M 220
data for all age M 220
data and ask for M 220
dare ask him any M 220
dark all day long M 219
days ago this was M 218
data that you put M 218
data for both are M 218
data both with and M 218
data are thus far M 218
dark and then she M 218
dark and his head M 218
dare they say that M 218
dare say that her M 218
dare ask him how M 218
dash out and get M 217
days you may get M 216
days one may see M 216
data set that they M 216
data and you are M 216
dare not ask that M 216
data set was that M 215
dare and did not M 215
days was not going M 214
data set and was M 214
data and they may M 214
data and are then M 214
dark but for two M 214
dark and they all M 214
days with you all M 213
days you can hear M 212
days with our own M 212
days with her old M 212
days with all that M 212
days this man had M 212
days old they can M 212
days old does not M 212
days now and you M 212
days did not lead M 212
days but was now M 212
days and then use M 212
days and that its M 212
days and long for M 212
data set and has M 212
data for all its M 212
data did you use M 212
dare you bring him M 212
dare say all that M 212
dare let him get M 212
days with his men M 210
days they all had M 210
days that you lie M 210
days she was off M 210
days are but few M 210
days and has now M 210
date that this act M 210
data for may and M 210
dark and was not M 210
dare not bid you M 210
dare let her see M 210
days that she does M 208
days that one has M 208
days old and they M 208
days are all but M 208
days and things that M 208
days and then cut M 208
days and let her M 208
days all this was M 208
date but has not M 208
data that was then M 208
data for low and M 208
date and for that M 207
days was his own M 206
days his head was M 206
days can not but M 206
days ago you ran M 206
days ago that had M 206
data than any one M 206
data set and this M 206
dark mean one and M 206
daring and fear are M 206
days you can sit M 204
days and see for M 204
days and had long M 204
days and bring them M 204
days ago but was M 204
date with her new M 204
data are weak and M 204
data are being put M 204
data and may lead M 204
dark and with his M 204
dare say one has M 204
dare ask him why M 204
dare ask her for M 204
dare ask for any M 204
dark does not mean M 203
dare say did not M 203
days with our son M 202
days has its own M 202
days and two long M 202
days and bow our M 202
days and all her M 202
date than they did M 202
date and all that M 202
data are for year M 202
dark red and may M 202
dark man with long M 202
dark and sad are M 202
days ago that one M 201
data set has one M 201
data one can use M 201
days with our old M 200
days old are not M 200
days are bad for M 200
days and then read M 200
days and not yet M 200
days and had his M 200
date with any new M 200
date for its use M 200
date did not mean M 200
date but had not M 200
dash for him and M 200
dark with all that M 200
dark that one way M 200
days off and they M 198
days and for each M 198
data this does not M 198
data are too weak M 198
data and two for M 198
data and then you M 198
data and one with M 198
dare not set them M 198
dare ask for that M 198
days and saw that M 197
date and how they M 197
days with men who M 196
days they had but M 196
days and with his M 196
date did you say M 196
data are not going M 196
dark now with this M 196
dark and you may M 196
dare say they act M 196
dare not get too M 196
days old she was M 194
days for one day M 194
days each way for M 194
data are then fit M 194
data are for men M 194
dark now that she M 194
dark boy who had M 194
dare fit him out M 194
dare all for our M 194
days for all that M 193
date and who was M 193
days she was all M 192
days men had not M 192
days did not use M 192
days and this has M 192
days and now was M 192
data was fit using M 192
data for all new M 192
data and can thus M 192
dare not set her M 192
days ago with one M 191
days this does not M 190
days old and she M 190
days old and may M 190
days his death was M 190
days and then being M 190
days ago and read M 190
data has thus far M 190
dark that men cry M 190
dark head and her M 190
dark and then try M 190
dare say all you M 190
days and one can M 189
data but has not M 189
days this man was M 188
days off and had M 188
days and then add M 188
date and one for M 188
data that are non M 188
data but was not M 188
dark that one had M 188
dark but can not M 188
dare say this may M 188
dawn and they had M 187
dare let you out M 187
days are now being M 186
days and set off M 186
days and ask him M 186
date they can not M 186
data they can get M 186
data one can then M 186
data for them and M 186
data and then with M 186
data and add new M 186
days ago and one M 185
data are not read M 185
days for one who M 184
days but she did M 184
days and then head M 184
dawn they set off M 184
date but are not M 184
dark and you had M 184
dare not wed this M 184
days for that year M 183
dark for fear that M 183
days that has long M 182
days out and had M 182
days old did not M 182
days for them and M 182
days all day long M 182
days ago who had M 182
date and who had M 182
dark that they did M 182
dare say had not M 182
date has not had M 181
data for fear that M 181
days with him then M 180
days and old age M 180
days and now had M 180
dawn was near and M 180
dawn one day and M 180
data are too old M 180
data and then ask M 180
dark man who has M 180
dark man was being M 180
dark and then get M 180
data for any two M 179
days this year and M 178
days she was one M 178
days one was not M 178
days but are now M 178
dawn and had not M 178
date and see how M 178
data set with its M 178
data and this was M 178
data and for her M 178
daring that they are M 178
dare not put our M 178
days that had now M 176
days for our new M 176
days for her and M 176
dawn and then sun M 176
dawn and saw that M 176
date for this poem M 176
data with all its M 176
days with all its M 174
days was one who M 174
days was not due M 174
days her own and M 174
days for god and M 174
days are one long M 174
days and not let M 174
days and had two M 174
days and all this M 174
days all you had M 174
dawn and she had M 174
date that had not M 174
date set for that M 174
date and one year M 174
data are too low M 174
data are read with M 174
data and who has M 174
dark they are all M 174
dark she was not M 174
dark and this was M 174
dark and sad than M 174
dare not read them M 174
date with them for M 173
date and they had M 173
dark now that they M 173
days that are set M 172
days and with all M 172
days and then off M 172
days and she and M 172
days and all you M 172
days ago you saw M 172
date not too long M 172
data one can get M 172
data and can lead M 172
dark out now and M 172
dark and dead and M 172
daring her with his M 172
dare you let him M 172
dare you bring her M 172
dare say you two M 172
days with one man M 170
days this was all M 170
days she sat and M 170
days she had read M 170
days off and that M 170
days any man who M 170
days ago has not M 170
data with ease and M 170
data that she was M 170
data that led him M 170
data that goes with M 170
data set with this M 170
data set and two M 170
data for new and M 170
data and can then M 170
dark with his head M 170
dark they set off M 170
dark red and she M 170
dark and put his M 170
dare say that had M 170
dare let them see M 170
days that his son M 169
data did not yet M 169
dark they set out M 169
days are our own M 168
days are long but M 168
days ago but for M 168
days ago and put M 168
data for this was M 168
data and that its M 168
days with but one M 166
days was not for M 166
days they had set M 166
days and she does M 166
days and say that M 166
date and saw that M 166
data and who can M 166
data and say that M 166
dark with sin and M 166
dark red and red M 166
dark day for our M 166
dark but she was M 166
dare you say things M 166
dare say that both M 166
dare read them that M 166
days war that put M 165
days she had two M 164
days she had put M 164
days one way and M 164
days old and his M 164
days now that she M 164
days can not now M 164
days ago you and M 164
data but they can M 164
data are not due M 164
data and then see M 164
data and then run M 164
data and let them M 164
data and how can M 164
data and are now M 164
dark she can not M 164
dare say you get M 164
dare not ask why M 164
dare all things and M 164
dare all for his M 164
date that one can M 163
date she had set M 163
date for any one M 163
data and that each M 163
days they set off M 162
days off and she M 162
days but has not M 162
days and was too M 162
days and how you M 162
date for her death M 162
date and are now M 162
data that has yet M 162
data that are due M 162
data set with each M 162
data set are then M 162
data set are all M 162
data are for end M 162
data and then add M 162
dark and one can M 162
dare not bring any M 162
days are not that M 161
date you can use M 161
date and who are M 161
dash with all his M 161
days you had not M 160
days with all this M 160
days was set for M 160
days was one that M 160
days they had put M 160
days not one was M 160
days and her death M 160
days ago this man M 160
days ago but did M 160
date than they had M 160
date for this and M 160
data does not end M 160
data can not get M 160
data and one can M 160
dark with sun and M 160
dark day for him M 160
dark and she saw M 160
dark and set off M 160
dare say that man M 160
dare not ask his M 160
days and this one M 159
days and for ten M 159
date they had had M 159
dark age was not M 159
days with ease and M 158
days set out with M 158
days off with her M 158
days had not then M 158
days for man and M 158
days ago for this M 158
days ago did you M 158
days ago and all M 158
dawn with his men M 158
date but they are M 158
data for this day M 158
data for lead and M 158
dark for fear they M 158
dare not say she M 158
days all but one M 157
data are not real M 157
dark and too far M 157
days had his own M 156
days for all but M 156
days and not all M 156
days ago for his M 156
date for this has M 156
date and ask for M 156
data they use and M 156
data being read and M 156
dark she had not M 156
dark red and had M 156
dark red and are M 156
dark man was not M 156
dark and set out M 156
days had run out M 155
date with this new M 155
date for its end M 155
data and then fit M 155
days now that they M 154
days did not yet M 154
days and use them M 154
days and then dry M 154
days and put him M 154
days ago but she M 154
date with her was M 154
date that you had M 154
data set and our M 154
data path and can M 154
data and then for M 154
dash out his own M 154
dark that they may M 154
daring and doing with M 154
dare not say its M 154
days old and one M 153
date one year ago M 153
days with one who M 152
days now that you M 152
days did not run M 152
days any one who M 152
days and then pay M 152
days and for his M 152
days ago she got M 152
days ago and with M 152
date she was not M 152
data set and does M 152
data and for any M 152
dark and then set M 152
dare say that now M 152
dare not see his M 152
dare not read him M 152
dare not put him M 152
dare ask for fear M 152
date she has had M 151
data and end with M 151
days with him had M 150
days each man had M 150
days are put for M 150
date you are going M 150
date with each new M 150
date was not for M 150
data that not all M 150
data that may bear M 150
dare say she saw M 150
days with him that M 149
date you can see M 149
days was that all M 148
days too long and M 148
days things did not M 148
days that she saw M 148
days had all but M 148
days are his due M 148
days are but one M 148
dawn that day and M 148
dawn not far off M 148
date and his age M 148
date and for all M 148
data than they had M 148
data are not far M 148
dark head that was M 148
dark but you can M 148
daring than any man M 148
days off are not M 147
daring for its day M 147
days that had long M 146
days off and you M 146
days had not had M 146
days but may not M 146
days and that both M 146
days and cut off M 146
days ago with that M 146
days ago that our M 146
date but may not M 146
data you ask for M 146
data was read and M 146
data set with that M 146
data can not all M 146
data but not all M 146
data and bring them M 146
dark was not easy M 146
dark man who sat M 146
days had long ago M 145
date and then you M 145
data and not all M 145
daring man who was M 145
days too long for M 144
days that any one M 144
days old you are M 144
days now and are M 144
days men see that M 144
days for all things M 144
days being now long M 144
days and that our M 144
days ago two men M 144
days ago and her M 144
dawn that they had M 144
date with his new M 144
date who had not M 144
date than this one M 144
data that any one M 144
data set can lead M 144
data for her own M 144
data are new and M 144
dark and dim and M 144
dare not die and M 144
dare let her out M 143
days with pay and M 142
days was long and M 142
days and now has M 142
days ago who was M 142
days ago set out M 142
date and for any M 142
data with them and M 142
data can not but M 142
data and how long M 142
dark with his two M 142
dark and put her M 142
dare say has not M 142
dare not say our M 142
dare not lay them M 142
dare not ask who M 142
days off for his M 140
days now and not M 140
days had but one M 140
days for being too M 140
days for all his M 140
days are not easy M 140
days are long for M 140
days and get all M 140
days and for not M 140
date who does not M 140
date and that does M 140
date and not yet M 140
date and for this M 140
data for his map M 140
data for each lot M 140
data for any area M 140
data can not and M 140
data are for each M 140
data and yet not M 140
data and who are M 140
dark that she did M 140
dark one who had M 140
daring than they are M 140
dare not hear you M 140
data that you and M 139
days yes yes yes M 138
days with his two M 138
days was for each M 138
days they can get M 138
days they are too M 138
days for kings and M 138
days and two and M 138
days and see him M 138
date now set for M 138
date for that day M 138
data than for any M 138
data set but with M 138
data set and you M 138
dark red and with M 138
dare say you set M 138
days that had led M 136
days for not being M 136
days and thus had M 136
days and that has M 136
days and one was M 136
days ago and for M 136
date with his old M 136
data this can not M 136
data may lead one M 136
data and with each M 136
data and that any M 136
dark sky that was M 136
dark and she can M 136
dare not hang him M 136
dare not bring him M 136
data set was fit M 135
data and using that M 135
days she saw him M 134
days off for all M 134
days god and his M 134
days for all this M 134
days but who had M 134
days and then ask M 134
days and that now M 134
date that any one M 134
data for any but M 134
data and that both M 134
dark and they saw M 134
dare say that men M 134
dare say does not M 134
days than this one M 133
date for this one M 133
dark with god than M 133
dark for his own M 133
days with pay for M 132
days was not his M 132
days they had now M 132
days for its own M 132
days each and then M 132
days and yet not M 132
dawn was not too M 132
date set for may M 132
date are few and M 132
date and how long M 132
data was not easy M 132
data that are real M 132
data set one can M 132
data for two new M 132
data are yet too M 132
data are for use M 132
data and thus does M 132
data and that his M 132
data and her own M 132
dark than men can M 132
dark and then you M 132
days than you are M 130
days than she was M 130
days are his own M 130
days and are thus M 130
days ago does not M 130
date its use has M 130
date and they can M 130
data that they then M 130
data did not get M 130
dark red and was M 130
dark but does not M 130
dark and set with M 130
daring than she had M 130
dare say this has M 130
dare ask for one M 130
days for that one M 129
date this does not M 129
days that may not M 128
days old and can M 128
days for two men M 128
days and that any M 128
days and saw him M 128
days and bring you M 128
dawn and can not M 128
data you use for M 128
data than that for M 128
data set with both M 128
data for men who M 128
data did not add M 128
data and you may M 128
data and with our M 128
data and that one M 128
dash this way and M 128
dark and you see M 128
daring and for his M 128
dare not use our M 128
dare not lay his M 128
dare not die for M 128
dare ask her how M 128
date you set for M 127
data but that they M 127
dare say too that M 127
days that she lay M 126
days she was doing M 126
days old they had M 126
days but that did M 126
days but cry out M 126
days and was put M 126
days and then did M 126
days and she can M 126
days and his son M 126
days ago all was M 126
dawn they had all M 126
dawn and all day M 126
date was far too M 126
data you can fit M 126
data that one may M 126
data one does not M 126
data are for low M 126
data any way they M 126
data and thus has M 126
data and may thus M 126
data and had not M 126
dark that but for M 126
dark day for all M 126
dark both day and M 126
date with them and M 125
date this was not M 125
data set and fit M 125
dare say each one M 125
days with that son M 124
days each year they M 124
days all they had M 124
days ago with two M 124
date with him this M 124
date that you and M 124
date set was may M 124
data set and see M 124
data both for and M 124
dash off his idea M 124
dark with all his M 124
dare all for her M 124
dawn and you are M 123
days with each day M 122
days they all got M 122
days she had got M 122
days off with his M 122
days off and see M 122
days for going out M 122
days are for man M 122
days and with this M 122
dawn his eye was M 122
dawn and day and M 122
data they use for M 122
data that led them M 122
data that has two M 122
data set than for M 122
data for that age M 122
data are but one M 122
data and lay out M 122
dark than they are M 122
dark men who had M 122
dark for him and M 122
dark and then had M 122
dare not set out M 122
days with her two M 121
days and each one M 121
date set for each M 121
date and how you M 121
data and with his M 121
days was not bad M 120
days off did not M 120
days for all our M 120
days are not being M 120
days and then ran M 120
days and had yet M 120
days ago and how M 120
dawn that had not M 120
date and deal with M 120
data set and any M 120
data may not lead M 120
data for all non M 120
data for air are M 120
data does not use M 120
data are few for M 120
data and ask them M 120
dark path that lay M 120
dark out and she M 120
dare say you hear M 120
dare say one can M 120
dare not sit with M 120
days and was off M 119
days and that then M 119
days with all her M 118
days was all she M 118
days she did her M 118
days one can hear M 118
days one can get M 118
days had they not M 118
days for her own M 118
days did not pay M 118
days but now she M 118
days and you see M 118
days and then her M 118
days and then can M 118
days and had now M 118
days and had got M 118
days and did all M 118
days and bring him M 118
dawn did not say M 118
date with new and M 118
date was not too M 118
data and thus not M 118
data and that has M 118
data and for that M 118
dark and sad with M 118
date who was not M 117
date now that you M 117
date and for long M 117
dare say but that M 117
days with two men M 116
days they did this M 116
days she set out M 116
days for both men M 116
days but they can M 116
days and was due M 116
days and end with M 116
date for her own M 116
data with this new M 116
data that she can M 116
data are not and M 116
data and one set M 116
data and let you M 116
dark red heat and M 116
dare say that each M 116
dare not for one M 116
dare not but bring M 116
dare not ask too M 116
date and then use M 115
date and she did M 115
date and set out M 115
days that was how M 114
days that may yet M 114
days that are and M 114
days but was then M 114
days are long with M 114
days and her son M 114
days ago but they M 114
days ago are now M 114
date than she has M 114
date and see that M 114
data that you read M 114
data that has now M 114
data than they did M 114
data for one run M 114
data and for how M 114
dark that our own M 114
dark now and then M 114
dark and hung with M 114
daring and did not M 114
dare not lay too M 114
days with his dear M 113
days with any one M 113
data one can say M 113
days was all but M 112
days that all that M 112
days than she did M 112
days she sat with M 112
days one may not M 112
days had led him M 112
days and now this M 112
days and all had M 112
days ago this had M 112
dawn she does not M 112
dawn but did not M 112
dawn and you can M 112
date was set with M 112
date was set but M 112
date not one has M 112
date for his son M 112
data they are being M 112
data set and run M 112
dark they had not M 112
dark head and long M 112
dark and put them M 112
dare not put her M 112
dare not lead them M 112
dare ask for her M 112
days long and that M 111
data and all that M 111
dare say has long M 111
days was that his M 110
days they are being M 110
days and now his M 110
days and for any M 110
data that has had M 110
data for one area M 110
data for any new M 110
data and has led M 110
data and for use M 110
data and both are M 110
dark sky was lit M 110
dark for one day M 110
dark and then for M 110
dark and saw that M 110
daring and bad men M 110
dare you let her M 110
dare say his head M 110
dare not try and M 110
dare not say her M 110
dare not get rid M 110
date with her but M 109
dark now and all M 109
days with all our M 108
days for him that M 108
days each man was M 108
days and who did M 108
days and was his M 108
days and then each M 108
days and see you M 108
days and her own M 108
dawn she set out M 108
date she does not M 108
data than does any M 108
data set can now M 108
data for our use M 108
data for each map M 108
data are few but M 108
data and saw that M 108
data and how are M 108
dark that you are M 108
dark and you did M 108
dark and that this M 108
dark and red with M 108
dare you then say M 108
dare you run off M 108
dare that things are M 108
dare say all who M 108
dare not use all M 108
dare not for our M 108
dare not ask how M 108
days are cut off M 107
days with her had M 106
days was that this M 106
days they had run M 106
days that you get M 106
days that god had M 106
days than you did M 106
days old can not M 106
days did not fit M 106
days and yet you M 106
days and all they M 106
days ago she did M 106
days ago one was M 106
days ago and can M 106
dawn and head for M 106
date you did not M 106
date than any one M 106
data you are not M 106
data set was run M 106
data for all men M 106
data but had not M 106
data and why they M 106
data and then let M 106
data and then how M 106
data and how far M 106
data and fit them M 106
dark red and not M 106
dark day for you M 106
dark and she sat M 106
dare not use for M 106
dare not put any M 106
dare not bid him M 106
days they say that M 105
date that they may M 105
date are too few M 105
data was then fit M 105
days with our new M 104
days things are not M 104
days they had her M 104
days than she has M 104
days she had him M 104
days had had its M 104
days but has now M 104
days and that god M 104
days and pay for M 104
days and each year M 104
days and die with M 104
days ago for her M 104
days ago but now M 104
dawn and dead ere M 104
date was one year M 104
date was one day M 104
date that she has M 104
date for each new M 104
data are you going M 104
data and that our M 104
data and not being M 104
dark men with long M 104
dark man with one M 104
dark for you and M 104
daring than they had M 104
dare vow for her M 104
dare say for you M 104
date and that each M 103
dare say one that M 103
days with not one M 102
days with men and M 102
days than his own M 102
days old and with M 102
days for his being M 102
days for fear they M 102
days but that she M 102
days and this can M 102
days and that day M 102
days and see his M 102
days and one had M 102
days and not being M 102
days and get them M 102
date for her and M 102
date any man who M 102
data with you and M 102
data was that for M 102
data that may then M 102
data that has one M 102
data had led him M 102
data for use and M 102
data and then set M 102
data and then get M 102
data and for both M 102
dash being all that M 102
dark has its own M 102
dark but she did M 102
dark and was now M 102
dark and they sat M 102
dark and not being M 102
dark and all things M 102
dare say you was M 102
dare say they got M 102
dare say both you M 102
dare not own them M 102
dare ask them for M 102
dare ask her why M 102
days and was far M 101
dawn you may see M 101
date with all new M 101
days with her head M 100
days was all they M 100
days that she can M 100
days she had with M 100
days old that had M 100
days does not bring M 100
days are one and M 100
days and with her M 100
days and thus are M 100
days and they got M 100
days and then this M 100
days and one and M 100
days and had all M 100
days and for our M 100
days all men are M 100
days ago has now M 100
date are set out M 100
date and was one M 100
date and she has M 100
data you use are M 100
data that are new M 100
data set and they M 100
data but that are M 100
data but its own M 100
data are fit using M 100
data and one bit M 100
dark that you may M 100
dark and yet not M 100
dark and wet for M 100
dark and dim with M 100
dare you let that M 100
dare say this boy M 100
dare not cut off M 100
dare ask for his M 100
dawn and all that M 99
data for our two M 99
days she was put M 98
days off and let M 98
days off and for M 98
days long ago had M 98
days his son had M 98
days for going and M 98
days are for you M 98
date set for them M 98
date and they did M 98
date and then they M 98
data that was both M 98
data path that can M 98
data path for each M 98
data has one and M 98
data for his use M 98
data each day and M 98
data but this does M 98
data bear out our M 98
data are and are M 98
data and then not M 98
data and has its M 98
dash out and try M 98
dark you did not M 98
dark with her head M 98
dare you use this M 98
dare she ask him M 98
dare say you say M 98
dare say you got M 98
dare say that has M 98
days they ran out M 97
days can not long M 97
days are far off M 97
daring men who are M 97
days who was then M 96
days they had few M 96
days that men and M 96
days ten men out M 96
days she was his M 96
days now and has M 96
days not far off M 96
days but not all M 96
days and was thus M 96
days and thus can M 96
days and that with M 96
days and that are M 96
days and put his M 96
days and not him M 96
days and may lead M 96
days and how long M 96
days and his head M 96
days and all was M 96
days ago but has M 96
dawn and was now M 96
date that you set M 96
date has not led M 96
date and thus are M 96
date and then not M 96
date and are being M 96
data thus far has M 96
data that can bear M 96
data that are for M 96
data has not led M 96
data for two and M 96
data does not say M 96
data area and then M 96
data and you get M 96
data and was then M 96
data and then they M 96
dark that she can M 96
dark but she had M 96
daring than any that M 96
dare they ask for M 96
dare not see them M 96
dare not let out M 96
dare not lead you M 96
dawn with all its M 95
date and this has M 95
days with you are M 94
days with him was M 94
days they are now M 94
days that are for M 94
days old was not M 94
days off for this M 94
days now and all M 94
days get long and M 94
days and who can M 94
days and then run M 94
days and then both M 94
days and see all M 94
days and both are M 94
date with her this M 94
date and then add M 94
data that you saw M 94
data for each team M 94
data for each pay M 94
data but they may M 94
data are you using M 94
data are read off M 94
data are fit for M 94
dash for her and M 94
dark red heat for M 94
dark and all too M 94
dare say with all M 94
dare not bring his M 94
days all year long M 93
date each year for M 93
data can lead one M 93
days with her that M 92
days was all too M 92
days they did all M 92
days they bring him M 92
days than they now M 92
days than not and M 92
days she has won M 92
days off and fly M 92
days long and are M 92
days and our old M 92
days and can lead M 92
days ago they did M 92
date that she did M 92
date does not bear M 92
date and they may M 92
data with him and M 92
data that they see M 92
data set has both M 92
data for each man M 92
data did not mean M 92
data but not both M 92
data and that may M 92
data and add them M 92
dark that hid her M 92
dark red and dry M 92
dark out and you M 92
dark one did not M 92
dark old man with M 92
dark and that her M 92
dare say they mean M 92
dare not put you M 92
dare not for her M 92
date she and her M 91
data for that one M 91
dark and not yet M 91
days you ask for M 90
days that they who M 90
days that that was M 90
days say that they M 90
days out and two M 90
days off but that M 90
days let all his M 90
days his head had M 90
days but they may M 90
days both men had M 90
days and why they M 90
days and this day M 90
days and then heal M 90
days and see her M 90
days and head for M 90
days and had set M 90
days and each man M 90
days and deal with M 90
days ago but you M 90
date with her boy M 90
date than that now M 90
date did not get M 90
date and this can M 90
date and let him M 90
data was not due M 90
data this was not M 90
data that you add M 90
data that led you M 90
data set they are M 90
data set than was M 90
data for area and M 90
data and then are M 90
data and that was M 90
dark one was not M 90
dark men and they M 90
dark and not easy M 90
daring that led him M 90
daring men who with M 90
dare say but few M 90
dare not try any M 90
dare not say them M 90
dare for fear that M 90
dare ask for them M 90
days for each act M 89
date but she was M 89
days with one eye M 88
days that war was M 88
days she was her M 88
days old and all M 88
days going with her M 88
days for this new M 88
days are yet few M 88
days and read them M 88
days and one who M 88
days and how things M 88
days and can get M 88
days ago she saw M 88
date with you this M 88
date that may not M 88
date than has yet M 88
date she was going M 88
date does not yet M 88
date and you get M 88
date and year and M 88
date and thus can M 88
date and how she M 88
data you can add M 88
data was that this M 88
data that for all M 88
data than are yet M 88
data set was for M 88
data set using this M 88
data set using both M 88
data for him and M 88
data for east and M 88
data are read using M 88
data are all but M 88
data and get out M 88
data and are being M 88
dash off with them M 88
dark one who was M 88
dark one does not M 88
dark had not yet M 88
dark boy who was M 88
dark and heat and M 88
dark and has not M 88
dark and far too M 88
dare you not say M 88
dare you let this M 88
dare she ask for M 88
dare say has had M 88
dare not cry for M 88
date with her son M 87
date who are not M 87
date and put them M 87
dare not let fly M 87
days you may hear M 86
days with him she M 86
days with fear and M 86
days she had all M 86
days old and her M 86
days for this one M 86
days did not say M 86
days and then using M 86
days ago are not M 86
days ago and yet M 86
dawn and death and M 86
date was too far M 86
date was not due M 86
date that this has M 86
date her and she M 86
date for his new M 86
date and then had M 86
date and for its M 86
data was that all M 86
data that fit this M 86
data may lead you M 86
data for heat and M 86
data are one and M 86
data are not out M 86
data and how each M 86
dark you can hear M 86
dark man she had M 86
dark but that she M 86
dark and with all M 86
dark and cut off M 86
dare say are not M 86
dare act that way M 86
date and with all M 85
dark can not bear M 85
dark and wet that M 85
days with him for M 84
days this idea was M 84
days they had won M 84
days they had him M 84
days that now you M 84
days off and not M 84
days off and did M 84
days for you yet M 84
days for they are M 84
days each for each M 84
days each and are M 84
days and yet she M 84
days and thus may M 84
days and then lay M 84
days and then eating M 84
days and meat for M 84
days and had won M 84
days and had one M 84
days and had led M 84
days and all she M 84
days ago for new M 84
dawn with his own M 84
date they had for M 84
date they are put M 84
date that you did M 84
date than one who M 84
date and was now M 84
data set but are M 84
data for this job M 84
data for men with M 84
data can not now M 84
data and with its M 84
dark with her and M 84
dark red hue and M 84
dark one can see M 84
dark head and then M 84
dark day for new M 84
dark and shy and M 84
dark and his own M 84
dark and for all M 84
dare say that its M 84
dare not say him M 84
dare not for this M 84
days she goes out M 83
days each and six M 83
days bring them out M 83
dawn that was not M 83
dark now and you M 83
days with his leg M 82
days was with him M 82
days they set him M 82
days they are led M 82
days that one does M 82
days that one day M 82
days that are bad M 82
days that all this M 82
days for this and M 82
days does not get M 82
days dead and this M 82
days are now far M 82
days are not sad M 82
days and was for M 82
days and set them M 82
days and not too M 82
days and ask them M 82
days all this has M 82
days all that had M 82
days ago with this M 82
days ago and our M 82
date was new year M 82
date has had its M 82
date and year are M 82
data you may not M 82
data than has yet M 82
data may one day M 82
data for man and M 82
data for dry and M 82
data and then goes M 82
data and for using M 82
data all that are M 82
dark one had not M 82
dark but that they M 82
dark and how you M 82
dare you say who M 82
dare let you see M 82
date for them than M 81
days they ran with M 80
days they can see M 80
days they are apt M 80
days that may lie M 80
days one year and M 80
days near her son M 80
days how she was M 80
days his job was M 80
days had she and M 80
days did not try M 80
days did not lie M 80
days but then had M 80
days but now they M 80
days are wet and M 80
days are not any M 80
days and this had M 80
days and see them M 80
days and one with M 80
days and men and M 80
days and had them M 80
days and had but M 80
days and any new M 80
days and all things M 80
days all but two M 80
days ago was one M 80
dawn they let her M 80
dawn they led him M 80
date and was then M 80
data that had led M 80
data that can add M 80
data that are thus M 80
data for our new M 80
data did not lie M 80
data but they did M 80
data are not put M 80
dash and are not M 80
dark with her own M 80
dark they are not M 80
dark sky and saw M 80
dark head that lay M 80
dark and then put M 80
dark and that got M 80
dark and mean and M 80
dare say that can M 80
dare say his own M 80
dare not fix any M 80
dare say that out M 77
dark can not see M 68
data bear out that M 67
dawn that has not M 66
days they are out M 64
days and was out M 60
dare not let one M 60
days was that one M 59
daring that they had M 58
dare say any one M 56
date each year with M 55
date than any that M 54
data for this key M 54
date not yet set M 53
dark for all that M 52
dare let them out M 52
days and then that M 51
dawn that she was M 51
date this year and M 50
data bring out that M 50
days and get out M 49
date its use was M 49
daring for his own M 49
days ago but that M 48
dark that does not M 48
dark and wet out M 48
dare not use that M 48
days you are out M 47
date that deal with M 47
dark that can not M 46
days they had two M 45
days now and that M 45
days and got out M 45
date and not all M 45
date and how far M 45
data all day long M 45
days they are off M 44
date with its own M 44
date was not that M 44
data are not age M 44
days and with that M 43
date for any year M 43
date all that can M 43
data are for mid M 43
data and for two M 43
dark and that one M 43
dare say this one M 43
days than any one M 42
days but one that M 42
dawn that she had M 42
dawn she was out M 42
dawn and that they M 42
date was all that M 42
date and use them M 42
dare you put that M 42
days she saw that M 41
days for his son M 41
date was one that M 41
data for too long M 41
dark with age that M 41
days with that man M 40
days that are out M 40
days doing things that M 40
date you can get M 40
data that had long M 40
days per year and D 5866
days per year for D 5750
days are hot and D 3004
days per year with D 2876
days per year per D 1892
damp but not wet D 1774
days per year that D 1538
days per year are D 1342
damn who you are D 1252
damn him and his D 1237
dark and thin and D 1214
days off per year D 1118
days per year than D 1100
dark and hot and D 842
damn him for being D 806
dart this way and D 790
data are then fed D 682
dark and dingy and D 674
data that are fed D 664
damn him for his D 654
damp with dew and D 624
days per year was D 606
data bus and then D 602
data for each row D 582
damn near did not D 500
damn her and her D 487
date with this guy D 482
damn his fat head D 475
dart did not fly D 466
damn him for not D 457
data for each sex D 436
damn any man who D 431
damn for any art D 428
dark and lean and D 414
daze and did not D 390
damn old for this D 383
damn her for being D 372
dash for his car D 366
damp and she was D 360
data bus and can D 354
days and then fed D 352
damp nor too dry D 352
damp and did not D 341
days and are fed D 334
damn how you are D 332
damn you for being D 328
dale and his men D 324
damp and hot and D 310
days they met with D 306
dare say him nay D 303
days are hot but D 302
days per man per D 300
date was not met D 296
days per year due D 292
damp but not too D 284
data for oil and D 272
damn them for not D 264
days and met with D 258
dark and dingy with D 258
damn her for her D 258
dame and her cat D 258
days they had met D 256
dams are now being D 254
dating and going out D 250
damn that she was D 250
dating this guy for D 248
days did not wear D 246
dating men who are D 244
data tab and then D 242
damp and not too D 242
damp earth and wet D 236
days per year but D 234
damn you for not D 231
damn but she was D 230
dare not say nay D 228
dash for her car D 227
daub with this new D 226
dame that she was D 221
days are too hot D 220
dare not ask thee D 218
damp and wet and D 218
data for that row D 216
dare say thou art D 216
dating has not yet D 214
damp bed that had D 214
damn him one way D 214
damp air does not D 210
dating does not mean D 208
days she had met D 204
dark with mud and D 204
days per year may D 202
days per year has D 202
damn who they are D 200
date with that guy D 194
days per year can D 190
dating this guy who D 188
damn you and all D 182
days per year off D 178
data are not mar D 176
days they are fed D 174
data are too thin D 174
days per year had D 172
dark with yew and D 170
dating and all that D 167
dams that are being D 166
damn any man that D 166
days and ram them D 164
damn you for doing D 164
damn for all that D 161
dame who did not D 158
data for this row D 156
damn men for not D 156
dale did not say D 156
dabs with his paw D 156
data was then fed D 154
damp and red with D 154
damp and dry rot D 154
damn near got him D 154
damn for any one D 154
days they met and D 152
dare not let thee D 152
data for each sub D 149
days each per year D 148
damp and she had D 147
days are fed with D 146
data that was fed D 146
damp with his own D 145
days with rod and D 144
data bus and are D 144
damn you for that D 144
damn lie and you D 144
damn him for doing D 144
damn him for all D 144
date due doc feb D 143
dark and hot with D 142
dame who does not D 142
data pro and con D 141
damp and does not D 141
data are being fed D 140
damp and heat and D 138
days for each egg D 136
data are mar and D 136
dash and vim and D 136
damn them all for D 136
dale had not yet D 132
dating this guy and D 130
dark with fog and D 130
dark red tie and D 130
days too hot and D 128
dating and did not D 128
dare not fay that D 128
damp earth and new D 128
days per year each D 126
days and had met D 126
dams that are not D 126
dating him for two D 125
data bus does not D 124
damp and dry air D 124
dale did not get D 124
days with mom and D 122
days god doth not D 122
damn that old man D 122
damn her for not D 122
data bus and its D 120
damp that they are D 120
dale did not see D 120
days with his ears D 118
damn any man for D 118
dale was not one D 118
days with any lad D 116
days per year they D 116
date has met with D 116
damp rag and then D 116
dark and dingy hue D 114
dare not wear them D 114
dank and wet with D 114
damn him now and D 114
data for sex and D 112
data for one row D 112
dark and his jaw D 112
damp and raw and D 112
data bus that can D 110
dark red tie with D 110
dart with all his D 108
damp air that had D 108
damn way you can D 108
damn things are not D 106
dale was not going D 106
dads who are not D 106
dart out and run D 105
days with fog and D 104
damp with her own D 104
damp earth and dead D 104
damn who she was D 104
damn them and god D 104
days with fog for D 102
dark and thin with D 102
damn who saw them D 102
dark car that had D 100
damp our zeal for D 100
damp earth with his D 100
damp and can not D 100
damp air all day D 100
damn who saw him D 100
damn near got you D 100
dart that hath both D 98
damn how you get D 97
days they had dug D 96
days that are hot D 96
dare fay you are D 96
damp and fit for D 96
damp and bad for D 96
damn how old you D 96
damn him and all D 96
damn near had him D 95
days with bob and D 94
dating and she was D 94
dating and sex and D 94
days with his dad D 92
dating her off and D 92
data bus for each D 92
dare not hear thee D 92
dams that did not D 92
damp and hot with D 92
days for noel and D 90
data bus can not D 90
dark with oil and D 90
dark men dug them D 90
dark and dingy but D 90
dare not bid thee D 88
days with tom and D 86
days with fin and D 86
days that she met D 86
data for each gas D 86
data are fed and D 86
damp and wet with D 86
date due doc oct D 85
daft can you get D 85
days had met with D 84
dawn and eve with D 84
dark and fat and D 84
dare you say pip D 84
damp air that was D 84
damp air hit her D 84
damn for any man D 84
dame who was not D 84
damp and wet are D 83
damn for you and D 83
days and fed them D 82
data are not met D 82
dart cut off his D 82
damn things did not D 82
dame had her own D 82
days she met with D 80
days and met his D 80
dating had not yet D 80
dark and hug him D 80
dare not wag his D 80
damn you for this D 80
date due doc may D 70
damn easy for you D 66
dale and his son D 58
dash for his gun D 53
damn all men and D 47
dare you wear that D 46
damn near all day D 45
dash and swing that D 42
days old and fed D 41
damn easy for him D 40
