date i am unable M 340
days i am afraid M 242
days i am always M 202
days i am filled M 124
days i am almost M 112
days i am unable M 98
days i am without M 92
date i am afraid M 92
data i am unable M 92
