at exactly the same M 187784
at roughly the same M 124169
at present we have M 74616
at liberty to make M 63901
at present the most M 50249
at liberty to take M 43808
at present the only M 42305
at liberty to give M 30434
at liberty to leave M 18673
at liberty to speak M 18077
at liberty to tell M 15852
at present we know M 14330
at exactly the time M 13534
at present we must M 12933
at present the best M 12908
at liberty to sell M 12092
at daybreak the next M 11659
at present to give M 10800
at present the case M 10375
at present to make M 10367
at liberty to call M 9644
at present the main M 9199
at liberty to form M 9112
at sunrise the next M 8997
at several of these M 8786
at liberty to move M 8399
at present to have M 8281
at liberty to come M 8212
at liberty to have M 8156
at present is very M 7984
at liberty to draw M 7792
at present is only M 7693
at liberty to turn M 7592
at liberty to treat M 7502
at present it will M 7340
at liberty to think M 7276
at liberty to send M 7118
at present we will M 7068
at present so much M 7052
at liberty to seek M 6833
at moments of great M 6193
at liberty to show M 6062
at present no other M 5859
at liberty to work M 5674
at present no means M 5657
at present the great M 5474
at liberty to join M 5253
at liberty to quit M 5242
at liberty to look M 5178
at present no such M 5149
at liberty to hold M 4954
at present no more M 4909
at present in most M 4907
at exactly the wrong M 4885
at present in many M 4746
at present in their M 4708
at liberty to pass M 4694
at liberty to keep M 4444
at present in some M 4388
at present to take M 4341
at liberty to talk M 4190
at liberty to walk M 4176
at present it must M 4146
at liberty to break M 4080
at present in great M 4000
at present we need M 3908
at present in view M 3903
at present be made M 3845
at liberty to name M 3776
at present in such M 3724
at present is more M 3716
at present we only M 3699
at daybreak we were M 3585
at liberty to live M 3539
at moments of high M 3530
at present the same M 3444
at liberty to deny M 3432
at perhaps the most M 3383
at present be said M 3356
at present at work M 3310
at present we find M 3262
at improving the health M 3102
at liberty to find M 3044
at beginning of month M 2854
at liberty to play M 2836
at present to show M 2784
at present in hand M 2757
at present the work M 2722
at everything he said M 2720
at present the term M 2710
at present as well M 2670
at present the cost M 2643
at pleasure by means M 2615
at present no clear M 2556
at improving the living M 2488
at present in these M 2464
at roughly the time M 2415
at present as much M 2401
at liberty to help M 2401
at present in your M 2382
at present to speak M 2350
at quarter to nine M 2310
at quarter to five M 2302
at present the data M 2302
at liberty to stay M 2302
at himself as well M 2288
at present to know M 2262
at present the more M 2239
at present to find M 2196
at present the city M 2192
at present we lack M 2184
at present the rate M 2159
at present is much M 2130
at present an open M 2094
at sunrise we were M 2063
at liberty to vary M 2046
at leisure to make M 2040
at present we seem M 2012
at liberty to open M 2007
at liberty to sign M 2000
at several of their M 1950
at liberty to obey M 1950
at beginning of note M 1944
at leisure to think M 1938
at leisure to look M 1930
at present the means M 1918
at liberty to plead M 1910
at liberty to kill M 1906
at present to what M 1904
at liberty to omit M 1870
at present the name M 1852
at leisure to give M 1852
at liberty to will M 1842
at sixteen he went M 1828
at liberty to pick M 1772
at present so many M 1760
at present no data M 1720
at present to think M 1696
at present is such M 1686
at liberty as soon M 1678
at present the leading M 1660
at present be done M 1654
at present so great M 1644
at present to draw M 1638
at liberty at once M 1592
at present no single M 1588
at present in good M 1570
at achieving the same M 1554
at present the town M 1549
at present to form M 1542
at present to leave M 1530
at liberty in their M 1520
at exactly the rate M 1516
at quarter to four M 1507
at present of their M 1496
at present the very M 1468
at present no less M 1440
at present the land M 1429
at present to keep M 1422
at present is most M 1419
at present no good M 1417
at present is from M 1416
at liberty to file M 1384
at present to tell M 1364
at present the theory M 1361
at beginning of line M 1332
at present we were M 1326
at listening to their M 1320
at present to send M 1305
at present is like M 1298
at present in full M 1298
at quarter to three M 1290
at beginning of next M 1286
at present is used M 1282
at leisure to take M 1280
at liberty to fill M 1276
at present to call M 1274
at present in south M 1270
at liberty to teach M 1268
at present the three M 1265
at present the word M 1256
at present in very M 1253
at present to hold M 1242
at present the site M 1239
at present it only M 1238
at present to meet M 1232
at present of only M 1226
at certain of these M 1200
at present in making M 1186
at present the role M 1172
at increasing the rate M 1168
at present be used M 1166
at present to come M 1164
at present the time M 1161
at liberty on giving M 1160
at answers to these M 1156
at liberty to meet M 1154
at present be seen M 1148
at present to those M 1144
at liberty to stop M 1132
at liberty at their M 1122
at fifteen he went M 1090
at present to look M 1088
at present he only M 1074
at present is less M 1056
at liberty to range M 1047
at present the vast M 1046
at present to such M 1040
at present is just M 1036
at present the union M 1031
at everything at once M 1028
at present he must M 1027
at present the need M 1022
at leisure to turn M 1017
at present to treat M 1016
at present we feel M 1012
at because of their M 1012
at sixteen he left M 1006
at present the last M 1005
at present the high M 1004
at present no sign M 984
at present in those M 980
at present in town M 974
at beginning of test M 974
at present is also M 972
at liberty to hire M 966
at present we think M 964
at present of great M 961
at present we wish M 958
at present be only M 958
at present of what M 956
at present as many M 956
at liberty to land M 952
at present the south M 945
at present is what M 934
at present on their M 924
at present so very M 922
at present be more M 922
at liberty to hunt M 920
at present the ratio M 910
at achieving the goal M 902
at present the home M 889
at present to help M 886
at beginning of life M 880
at present the rule M 875
at improving the life M 871
at liberty to step M 866
at present the bank M 865
at present be left M 857
at present we live M 856
at present the army M 856
at present my mind M 854
at present to some M 850
at present is their M 822
at liberty to push M 822
at present the road M 807
at present to more M 806
at parties or other M 806
at present no theory M 804
at liberty to feel M 804
at liberty to view M 802
at liberty to cast M 802
at present the third M 798
at several of those M 794
at present is made M 794
at present in what M 794
at present by their M 794
at present go into M 786
at increasing the size M 782
at present the line M 781
at present no part M 781
at present on leave M 778
at present by many M 778
at present be able M 776
at liberty to wait M 774
at present in high M 763
at present he will M 762
at present be very M 760
at daybreak the wind M 756
at herself as well M 753
at present of more M 750
at present is nothing M 746
at present of much M 742
at present of very M 740
at present by those M 740
at receiving so much M 738
at liberty to urge M 736
at liberty to test M 736
at achieving the best M 734
at present the fact M 732
at present we make M 730
at present of three M 730
at moments he felt M 730
at liberty to part M 730
at present by some M 729
at liberty on their M 726
at improving the well M 725
at present no great M 724
at present at home M 724
at upwards of three M 720
at leisure to talk M 718
at present of such M 716
at present the poor M 715
at present in need M 714
at present we give M 712
at liberty to rise M 704
at providing the best M 702
at present no very M 699
at present to reach M 696
at everything he sees M 696
at present the young M 692
at quarter of nine M 690
at present no need M 690
at present to work M 688
at present he felt M 688
at present by means M 688
at fifteen to work M 688
at liberty to drop M 686
at leisure in their M 682
at increasing the role M 680
at present in north M 675
at everything in life M 673
at present the full M 672
at present is said M 672
at fifteen he left M 670
at present or have M 666
at liberty to pray M 666
at present to pass M 664
at present the north M 663
at himself as much M 662
at present so well M 660
at quality of life M 656
at present on hand M 654
at thirteen he went M 648
at beginning of time M 645
at present it need M 644
at roughly the rate M 638
at present we want M 638
at present the range M 638
at present in other M 634
at present to note M 632
at present my only M 632
at present as there M 632
at quarter of five M 625
at liberty to fire M 625
at present to their M 618
at liberty to swear M 618
at liberty to rest M 610
at liberty to copy M 610
at present the other M 608
at present of those M 608
at present to talk M 606
at liberty to shut M 606
at present in want M 604
at sixteen to work M 598
at liberty to fall M 598
at producing the best M 596
at present is well M 594
at present is over M 584
at beginning of book M 584
at beginning of term M 582
at present we take M 580
at present do more M 575
at moments of deep M 572
at present is done M 568
at exactly the hour M 568
at enhancing the role M 568
at present the plan M 566
at present the life M 564
at present on what M 564
at present it lies M 564
at present to these M 560
at present no cure M 560
at moments of time M 558
at marriage of those M 558
at present the post M 557
at windows to keep M 556
at present the lack M 556
at selecting the best M 555
at present the list M 554
at daybreak to take M 552
at present of these M 550
at liberty by their M 550
at daybreak he went M 550
at improving the work M 548
at members of their M 546
at liberty to lend M 546
at present no view M 542
at upwards of four M 534
at sunrise he went M 532
at present is some M 528
at present we hold M 526
at present the true M 526
at present of four M 526
at liberty to steal M 526
at liberty to fish M 526
at achieving the full M 524
at increasing the flow M 520
at leisure to mind M 518
at present of some M 516
at present we speak M 514
at present to only M 514
at present we call M 506
at present is worth M 506
at pleasure the most M 505
at beginning of list M 504
at present in only M 498
at present of making M 494
at liberty to love M 490
at daybreak to find M 490
at marriage is also M 488
at certain of their M 488
at present the west M 486
at liberty to vest M 486
at everything he says M 486
at relieving the pain M 484
at liberty to weep M 482
at present the four M 481
at leisure to speak M 480
at quarter of four M 478
at present the lake M 478
at present is upon M 478
at liberty to hope M 476
at achieving the most M 475
at present to hand M 474
at leisure at home M 470
at present it means M 468
at marriage as well M 467
at providing the means M 466
at present to test M 466
at present on these M 464
at present no time M 464
at central as well M 462
at academy of fine M 461
at listening to what M 458
at beginning of word M 456
at baptism the name M 456
at sunrise the army M 454
at producing the same M 454
at present to seek M 454
at present he knew M 452
at liberty to pour M 452
at defiance the most M 452
at present the mass M 451
at present he owns M 450
at present the size M 449
at present the duty M 448
at liberty to learn M 448
at concealing the fact M 448
at liberty to pull M 444
at liberty to bind M 444
at upwards of five M 442
at present the single M 442
at liberty to feed M 442
at command the means M 442
at liberty the next M 441
at liberty to save M 440
at quarter of three M 438
at present the rich M 438
at daybreak we left M 438
at present by most M 436
at present to fill M 434
at present at their M 434
at present on view M 432
at present of five M 432
at moments of need M 432
at present is full M 430
at present at hand M 430
at neutral or acid M 430
at present the port M 428
at daybreak the army M 428
at present we pass M 424
at daybreak he heard M 424
at exactly the most M 421
at present to move M 418
at present is held M 418
at exactly the angle M 418
at members of other M 416
at present to name M 415
at liberty to grow M 414
at present on duty M 413
at present in much M 413
at selecting the most M 412
at daybreak he came M 412
at present to turn M 410
at present no work M 410
at moments in time M 410
at present my time M 408
at beginning of text M 406
at present on trial M 405
at present is making M 404
at increasing the range M 404
at producing the most M 403
at liberty to bend M 402
at present to over M 399
at present the view M 398
at present or even M 398
at command of their M 398
at pleasure by their M 396
at leisure to come M 396
at present at peace M 395
at present of nothing M 394
at beginning of third M 392
at present we leave M 391
at liberty to lift M 391
at present in more M 390
at leisure to feel M 390
at present the form M 388
at present to face M 386
at similar or even M 382
at leisure to find M 382
at private as well M 376
at liberty to know M 376
at everything in their M 376
at liberty to hate M 374
at present is living M 373
at present in work M 372
at providing the most M 370
at decreasing the risk M 370
at beginning of week M 370
at moments in their M 369
at thirteen to work M 366
at extending the range M 364
at college as well M 364
at aspects of their M 364
at present is good M 362
at liberty to rule M 362
at present to open M 360
at sunrise we left M 359
at present the lord M 356
at present is trying M 356
at present as having M 354
at present the length M 352
at present be laid M 352
at liberty to plan M 352
at beginning of part M 352
at liberty to cease M 350
at thirteen he left M 348
at present no hope M 348
at liberty the said M 348
at several or many M 346
at present the test M 346
at present the health M 346
at present no clue M 346
at present is there M 346
at present in health M 344
at daybreak we will M 344
at present the part M 343
at species as only M 342
at present the loss M 342
at leisure to play M 342
at present in part M 340
at sunrise the wind M 338
at present so busy M 338
at present is able M 338
at present in arms M 338
at command to make M 338
at present do nothing M 336
at liberty to skip M 336
at liberty to load M 335
at herself as much M 335
at defiance the will M 333
at present to live M 332
at present the good M 332
at daybreak to make M 332
at present we look M 330
at present if there M 330
at liberty to gain M 330
at liberty to burn M 330
at liberty to mark M 328
at liberty to hand M 328
at sixteen to join M 326
at opinions the most M 326
at moments the most M 326
at present in jail M 324
at liberty to free M 323
at returning to their M 322
at present of your M 322
at present my health M 322
at genesis the next M 322
at present the book M 320
at everything we meet M 320
at current as well M 320
at beginning of trial M 319
at sunrise to find M 318
at present to rely M 318
at present to gain M 318
at present or will M 318
at present on very M 318
at present by these M 318
at perhaps no other M 318
at present by only M 316
at present the boys M 314
at present it runs M 314
at present as free M 314
at liberty to cite M 314
at present he says M 312
at moments of such M 312
at examining the role M 312
at present is seen M 310
at beginning of last M 310
at present the risk M 309
at present the vice M 308
at present to your M 306
at present in west M 306
at liberty to lose M 306
at present the body M 304
at present to very M 302
at liberty by those M 302
at assessing the role M 302
at present no well M 300
at moments of their M 300
at present as high M 299
at present be held M 296
at moments he even M 296
at concealing the truth M 296
at between the ages M 296
at pleasure the ideas M 294
at expanding the range M 294
at present no name M 293
at assisting the poor M 293
at present the type M 292
at present on good M 292
at present is best M 292
at success in life M 290
at present so high M 290
at present is open M 290
at present he held M 290
at present by three M 289
at present is even M 288
at objects in their M 288
at present the said M 286
at improving the flow M 286
at college he made M 286
at present the mind M 285
at species as having M 284
at schools as well M 284
at present to join M 284
at present to fall M 284
at present he sees M 284
at present as great M 284
at liberty so soon M 284
at everything we said M 284
at present the unit M 282
at present the five M 282
at liberty to clear M 282
at present to stop M 280
at leisure on their M 280
at daybreak he sent M 280
at perhaps the same M 278
at schools of their M 276
at present is great M 276
at answers to such M 276
at liberty to reach M 274
at fifteen or even M 274
at beginning of file M 274
at listening to other M 272
at present is three M 270
at sixteen in some M 268
at liberty to link M 268
at schools in their M 266
at providing the kind M 264
at present to break M 264
at pleasure be made M 264
at liberty to rely M 264
at daybreak we heard M 264
at attaining the same M 264
at present of most M 263
at schools in other M 262
at present or upon M 262
at present on such M 262
at present on some M 262
at combining the best M 262
at present we just M 261
at present to three M 261
at present we note M 260
at present is your M 260
at present as good M 260
at leisure by those M 260
at present the mode M 258
at leisure to help M 258
at liberty on paying M 256
at present in having M 254
at command to give M 254
at restoring the lost M 253
at producing the kind M 252
at present to sell M 252
at present to part M 250
at present the want M 250
at present of giving M 250
at present by more M 250
at everything in your M 250
at present of taking M 248
at present is taking M 248
at everything we have M 248
at upwards of half M 246
at present on your M 246
at leisure we will M 246
at junction of body M 246
at present the mine M 245
at junction of hard M 245
at schools or other M 244
at present in fact M 244
at present at some M 244
at liberty in such M 244
at liberty by means M 244
at defiance the best M 244
at daybreak we went M 244
at reduced or zero M 243
at present no rule M 243
at several of your M 242
at providing the same M 242
at present to play M 240
at present no room M 240
at leisure to their M 240
at present as part M 238
at present as more M 238
at marriage of their M 238
at liberty to note M 238
at leisure to pour M 238
at leisure on what M 238
at daybreak he left M 238
at marriage is very M 236
at listening to such M 236
at liberty in case M 236
at increasing the birth M 236
at improving the land M 236
at present be most M 235
at liberty to fell M 234
at leisure to have M 234
at fifteen my mind M 234
at liberty to ship M 233
at present by other M 232
at listening to your M 232
at liberty at home M 232
at present to rest M 230
at moments to have M 230
at receiving so many M 228
at present it also M 228
at liberty at last M 228
at present to view M 226
at present the evil M 226
at present of nine M 226
at liberty to flow M 226
at liberty as well M 226
at expanding the role M 226
at daybreak we made M 226
at college we were M 226
at present to many M 224
at present to feel M 224
at parties or when M 224
at daybreak the ship M 224
at command to meet M 224
at samples of their M 222
at present my work M 222
at pleasure to their M 222
at present to urge M 220
at present to save M 220
at present as some M 220
at providing the user M 218
at educating the young M 218
at current or even M 218
at present to deny M 216
at present the open M 216
at leisure in your M 216
at exploring the role M 216
at command of your M 216
at present as most M 215
at present of less M 214
at present no body M 214
at liberty he will M 214
at leisure to send M 214
at junction of left M 213
at extending the life M 213
at sixteen to take M 212
at present the game M 212
at present in love M 212
at liberty to flee M 212
at liberty in other M 212
at defiance in such M 212
at sixteen to make M 210
at present the odds M 210
at largely the same M 210
at increasing the cost M 209
at enhancing the well M 209
at present by such M 207
at present no sure M 206
at present the less M 205
at present the free M 205
at everything he ever M 205
at sunrise we will M 204
at receiving no word M 204
at present of trying M 204
at present is poor M 204
at present is lack M 204
at liberty to risk M 204
at liberty he went M 204
at himself to find M 204
at herself in these M 204
at compile or link M 204
at college or work M 203
at present the fate M 202
at liberty to base M 202
at liberty he gave M 202
at increasing the wealth M 202
at answering the same M 202
at present the date M 201
at thirteen to help M 200
at sunrise we came M 200
at present the wild M 200
at present be told M 200
at present the snow M 199
at present we treat M 198
at present is having M 198
at present in trying M 198
at present if these M 198
at parties in their M 198
at marriage to live M 198
at marriage in these M 198
at concealing the true M 198
at present of over M 197
at present on many M 196
at present no plan M 196
at marriage is more M 196
at leisure to what M 196
at improving the city M 196
at primary as well M 194
at present in three M 194
at present in taking M 194
at present the well M 193
at beginning of work M 193
at present to learn M 192
at perhaps an even M 192
at daybreak to work M 192
at present is away M 190
at present be kept M 190
at detaching the heart M 190
at present is left M 189
at present in four M 189
at moments of self M 189
at present to other M 188
at present on those M 188
at between the three M 188
at present we face M 186
at present to push M 186
at present the areas M 186
at present be much M 186
at present at your M 186
at pleasure by adding M 186
at liberty to kiss M 186
at liberty to bury M 186
at attaining the goal M 186
at wonders of life M 184
at sunrise is clear M 184
at present to making M 184
at present to lend M 184
at present the birth M 184
at present so full M 184
at present he uses M 184
at present be dealt M 184
at pleasure in their M 184
at service in their M 182
at present he said M 182
at present he heads M 182
at present be well M 182
at liberty to kick M 182
at between the said M 182
at present to link M 180
at present the room M 180
at present be sure M 180
at pleasure of their M 180
at liberty in your M 180
at according to their M 180
at sunrise to take M 178
at present no book M 178
at present as their M 178
at liberty the five M 178
at liberty in some M 178
at increasing the self M 177
at surface of body M 176
at receiving the gift M 176
at present to teach M 176
at present to grow M 176
at present in mind M 176
at perhaps as much M 175
at receiving the same M 174
at present is high M 174
at moments to take M 174
at fifteen to join M 174
at daybreak to meet M 174
at daybreak the meaning M 174
at command the same M 174
at present the food M 173
at present in hiding M 173
at present by what M 173
at present to rule M 172
at present the next M 172
at present no lack M 172
at liberty to drag M 172
at daybreak to look M 172
at control of their M 172
at thirteen to have M 170
at receiving it from M 170
at present or during M 170
at present be less M 170
at liberty on such M 170
at seventy or more M 169
at present to mark M 168
at present so rare M 168
at present is nine M 168
at present in giving M 168
at advancing the date M 168
at present is kept M 167
at present as ever M 167
at marriage is much M 167
at sixteen he made M 166
at retaining as much M 166
at present the goal M 166
at present on other M 166
at present of having M 166
at perhaps the best M 166
at increasing the food M 166
at present is five M 165
at denotes the time M 165
at sixteen or even M 164
at returning to work M 164
at present of other M 164
at perhaps the only M 164
at defiance by those M 164
at crossings of other M 164
at present to feed M 162
at present as during M 162
at marriage or when M 162
at marriage of boys M 162
at liberty to warn M 162
at liberty the same M 162
at leisure to live M 162
at leisure to keep M 162
at aspects of life M 161
at worship in their M 160
at present no case M 160
at moments the clear M 160
at daybreak to their M 160
at daybreak to join M 160
at thoughts of what M 159
at sixteen he came M 158
at liberty in time M 158
at improving the self M 158
at improving the rate M 158
at everything or nothing M 158
at closely the same M 158
at present to most M 157
at suicide by taking M 156
at present be sent M 156
at present as when M 156
at liberty to fail M 156
at liberty in these M 156
at thirteen he made M 154
at defiance the rest M 154
at aspects of your M 154
at present to plead M 152
at present in port M 152
at present as making M 152
at present an ideal M 152
at liberty to mind M 152
at improving the food M 152
at daybreak we walk M 151
at strains of less M 150
at quality of care M 150
at present no ally M 150
at present is hard M 150
at present by having M 150
at preparing the young M 150
at position at time M 150
at pleasure to make M 150
at parents as well M 150
at sunrise the great M 148
at results the most M 148
at present to stay M 148
at present to omit M 148
at present to burn M 148
at present the kind M 148
at present it were M 148
at present in lord M 148
at present do much M 148
at parties in town M 148
at moments to hold M 148
at liberty to rush M 148
at improving the care M 148
at depends on their M 148
at command on those M 148
at present no full M 147
at improving the cost M 147
at present in case M 146
at present by lack M 146
at college the same M 146
at producing the good M 145
at present the will M 145
at sunrise to make M 144
at suffering no more M 144
at sixteen he fell M 144
at present we rely M 144
at present it owns M 144
at present be many M 144
at pleasure to give M 144
at liberty to swim M 144
at decreasing the size M 144
at decreasing the rate M 143
at present it more M 142
at present in poor M 142
at pleasure an ideal M 142
at observing the want M 142
at liberty to jump M 142
at everything in reach M 142
at college he gave M 142
at present to date M 141
at present go much M 141
at pleasure so much M 141
at increasing the well M 141
at suicide by hanging M 140
at restoring the health M 140
at present of many M 140
at present in deep M 140
at parents of young M 140
at moments of rest M 140
at liberty we will M 140
at instant of time M 140
at herself to make M 140
at failure is also M 140
at daybreak it fell M 140
at daybreak he made M 140
at college to make M 140
at present as only M 139
at present we work M 138
at present we also M 138
at present by wrong M 138
at oneself as well M 138
at marriage of these M 138
at liberty to till M 138
at liberty to like M 138
at liberty as many M 138
at leisure to learn M 138
at assessing the risk M 138
at answers to some M 138
at present the meaning M 137
at daybreak we came M 137
at restoring the faith M 136
at present to hope M 136
at parties at home M 136
at moments of trial M 136
at liberty to side M 136
at liberty to care M 136
at liberty it will M 136
at because we were M 136
at providing the poor M 135
at improving the reading M 135
at sixteen or less M 134
at producing as many M 134
at present or ever M 134
at present my good M 134
at moments to feel M 134
at members of your M 134
at liberty to harm M 134
at leisure to form M 134
at fifteen to help M 134
at present the fifth M 133
at restoring the body M 132
at present to lack M 132
at present to copy M 132
at present no safe M 132
at present no hard M 132
at leisure to note M 132
at providing as much M 131
at junction of three M 131
at removal is made M 130
at present is paying M 130
at present in ours M 130
at present he laid M 130
at present as very M 130
at parties as well M 130
at leisure to walk M 130
at leisure to meet M 130
at gatherings in other M 130
at control of these M 130
at beginning of fifth M 130
at command the best M 129
at present to less M 128
at present on show M 128
at present by your M 128
at numbers of other M 128
at liberty he fled M 128
at leisure the next M 128
at including as many M 128
at history we find M 128
at anatomy to find M 128
at sixteen to help M 126
at producing the type M 126
at present the peace M 126
at present the fish M 126
at present is four M 126
at present in areas M 126
at moments the girl M 126
at liberty to thank M 126
at letters or other M 126
at improving the range M 126
at command so young M 126
at analyzing the role M 126
at present the wind M 125
at present the ideal M 125
at present the fine M 125
at present no land M 125
at present we turn M 124
at present to five M 124
at present so lost M 124
at present or what M 124
at present no snow M 124
at present my heart M 124
at marriage is high M 124
at liberty of those M 124
at extending the reach M 124
at daybreak to hunt M 124
at between the union M 124
at beginning of play M 124
at accepting the fact M 124
at failure is less M 123
at sunrise on their M 122
at society at many M 122
at present we keep M 122
at present the flow M 122
at present is slow M 122
at perhaps no more M 122
at everything in turn M 122
at present is peace M 120
at present is clear M 120
at present in ways M 120
at present in dealing M 120
at present in cold M 120
at moments of anger M 120
at leisure to hunt M 120
at himself as soon M 120
at enhancing the self M 120
at sunrise the same M 118
at seventy or even M 118
at schools in areas M 118
at present we plan M 118
at present the heads M 118
at present the anti M 118
at present of seeing M 118
at present is part M 118
at present is lost M 118
at present is giving M 118
at present is acting M 118
at pleasure by those M 118
at liberty to dream M 118
at liberty on your M 118
at leisure to work M 118
at leisure to tell M 118
at improving the data M 118
at defiance the great M 118
at defiance by their M 118
at daybreak to bathe M 118
at beginning of game M 118
at exactly the best M 117
at despite the fact M 117
at producing the sort M 116
at present to wait M 116
at present the depth M 116
at present so self M 116
at present my great M 116
at present an army M 116
at prayers in their M 116
at marriage is less M 116
at increasing the length M 116
at daybreak to help M 116
at command is used M 116
at beginning of trip M 116
at because we have M 116
at producing as much M 115
at present we lose M 115
at present no dealing M 115
at fifteen or more M 115
at present the early M 114
at present no free M 114
at present is free M 114
at present is among M 114
at present as will M 114
at present an over M 114
at matters in their M 114
at liberty as ever M 114
at leisure to fill M 114
at himself to think M 114
at herself to find M 114
at exploring the ways M 114
at efforts to make M 114
at college or during M 114
at suicide or self M 113
at present by saying M 112
at present by making M 112
at present be even M 112
at pleasure by moving M 112
at matters of fact M 112
at marriage in years M 112
at leisure as well M 112
at everything to make M 112
at decreasing the time M 112
at daybreak he fell M 112
at command of those M 112
at present the core M 111
at sunrise or soon M 110
at present to whom M 110
at present the heavy M 110
at present or were M 110
at present it very M 110
at present in even M 110
at leisure on these M 110
at freedom to help M 110
at depends on what M 110
at analyzing the data M 110
at upwards of nine M 108
at present the user M 108
at present the debt M 108
at present be worth M 108
at moments of some M 108
at members of these M 108
at leisure to push M 108
at leisure the lake M 108
at leisure in what M 108
at daybreak on their M 108
at college to learn M 108
at moments of most M 107
at sunrise as well M 106
at schools of fish M 106
at present to saying M 106
at present the ruin M 106
at present no mode M 106
at present in debt M 106
at present he want M 106
at marriage to join M 106
at marriage in many M 106
at liberty to tread M 106
at leisure to your M 106
at leisure to call M 106
at himself to make M 106
at gatherings of young M 106
at daybreak the rain M 106
at daybreak the girl M 106
at daybreak or soon M 106
at achieving as much M 106
at present is laid M 105
at present at what M 105
at present at most M 105
at sunrise the bell M 104
at sunrise he came M 104
at religion by whom M 104
at present to cite M 104
at present so poor M 104
at present or when M 104
at liberty by paying M 104
at leisure to seek M 104
at fifteen to take M 104
at fifteen he will M 104
at everything the other M 104
at directing the flow M 104
at daybreak to learn M 104
at daybreak the union M 104
at college to find M 104
at closely it will M 104
at answering the type M 104
at leisure the most M 103
at present to blow M 102
at present the ship M 102
at present the rage M 102
at present no wish M 102
at present is when M 102
at present is here M 102
at present he also M 102
at present by four M 102
at prayers the next M 102
at neutral or high M 102
at liberty to ruin M 102
at liberty to ally M 102
at everything in such M 102
at defiance in their M 102
at daybreak the three M 102
at beginning of their M 102
at because of what M 102
at against the good M 102
at present be felt M 101
at sunrise we went M 100
at samples of work M 100
at quality as well M 100
at present the threat M 100
at present the self M 100
at present the care M 100
at present is lord M 100
at moments the wind M 100
at marriage is only M 100
at liberty the four M 100
at fifteen we find M 100
at everything he came M 100
at college the next M 100
at thoughts of self M 99
at enhancing the health M 99
at sunrise to rest M 98
at solution of these M 98
at present to base M 98
at present the lazy M 98
at preparing the food M 98
at pleasure to play M 98
at minimum of cost M 98
at liberty to post M 98
at leisure to thank M 98
at increasing the life M 98
at beginning of fall M 98
at because of your M 98
at sunrise to wake M 96
at sunrise he will M 96
at sources of food M 96
at sixteen the young M 96
at schools in south M 96
at roughly the turn M 96
at recalling the past M 96
at present we pour M 96
at present the youth M 96
at present the wide M 96
at present the tree M 96
at present the many M 96
at present no sort M 96
at present be best M 96
at present at more M 96
at present as those M 96
at pleasure to other M 96
at marriage is seen M 96
at liberty to hint M 96
at leisure to wait M 96
at improving the means M 96
at exactly the depth M 96
at daybreak to walk M 96
at daybreak to have M 96
at failure is much M 95
at restoring the text M 94
at receiving the call M 94
at present we wait M 94
at present to risk M 94
at present the hero M 94
at present my life M 94
at present is mine M 94
at present if such M 94
at present he leads M 94
at present he gets M 94
at liberty to hide M 94
at liberty he came M 94
at leisure to view M 94
at leisure to stay M 94
at everything we were M 94
at everything the wrong M 94
at everything on your M 94
at disposing of their M 94
at defiance to have M 94
at daybreak the gale M 94
at college we have M 94
at certain of those M 94
at supplying the void M 92
at present we hope M 92
at present the lady M 92
at present on sick M 92
at present no true M 92
at present no home M 92
at present it puts M 92
at present he need M 92
at pleasure to take M 92
at nominal or very M 92
at moments of dire M 92
at improving the user M 92
at freedom as ever M 92
at finishing the work M 92
at failure is only M 92
at exactly the kind M 92
at daybreak the great M 92
at daybreak he said M 92
at college or high M 92
at capturing the city M 92
at beginning of unit M 92
at assisting the user M 92
at present or past M 91
at friends of mine M 91
at roughly the half M 90
at producing the wrong M 90
at present we dare M 90
at present to wish M 90
at present to sort M 90
at present to four M 90
at present the wealth M 90
at present the mail M 90
at present the door M 90
at present the angle M 90
at present so good M 90
at present no threat M 90
at present is heavy M 90
at present at best M 90
at persons to whom M 90
at perhaps the last M 90
at parties to show M 90
at moments we seem M 90
at moments of very M 90
at marriage in some M 90
at liberty to weave M 90
at liberty to fold M 90
at liberty to cheat M 90
at increasing the depth M 90
at improving the poor M 90
at fifteen he made M 90
at failure is very M 90
at exactly the cost M 90
at concealing it from M 90
at college to have M 90
at college of arms M 90
at college is very M 90
at beginning or ending M 90
at sunrise to look M 88
at sixteen he quit M 88
at seemingly the same M 88
at schools in your M 88
at request of some M 88
at present to want M 88
at present to clear M 88
at present the talk M 88
at present no ready M 88
at present at such M 88
at perhaps the other M 88
at moments of loss M 88
at marriage of sons M 88
at marriage of last M 88
at marriage in most M 88
at liberty the young M 88
at leisure to hold M 88
at leisure to cast M 88
at increasing the body M 88
at daybreak to wake M 88
at daybreak the last M 88
at command in case M 88
at college to help M 88
at college or other M 88
at animals in their M 88
at affecting the heart M 88
at sunrise to their M 86
at sunrise the young M 86
at present the ones M 86
at present the band M 86
at present of want M 86
at present of saying M 86
at present no test M 86
at present no road M 86
at present no form M 86
at present is wrong M 86
at present in wide M 86
at present in whom M 86
at present if their M 86
at present do have M 86
at intakes of less M 86
at fifteen he felt M 86
at fifteen he fell M 86
at failure as well M 86
at defiance as soon M 86
at comparing the length M 86
at balancing the need M 86
at achieving the good M 86
at present is self M 85
at sunrise the ship M 84
at reversing the flow M 84
at retaining the most M 84
at present to mine M 84
at present no open M 84
at present is into M 84
at present an able M 84
at parties or during M 84
at onetime or other M 84
at marriage or birth M 84
at leisure to draw M 84
at leisure in some M 84
at history to find M 84
at daybreak to seek M 84
at daybreak the city M 84
at attending to their M 84
at attempt is made M 84
at acquiring the same M 84
at trouble to come M 82
at supplying the most M 82
at present we view M 82
at present on land M 82
at present my most M 82
at present is leading M 82
at present he sits M 82
at present as your M 82
at pleasure to form M 82
at moments to call M 82
at liberty to hurt M 82
at improving the home M 82
at expanding the base M 82
at exactly the site M 82
at educating the poor M 82
at defence of life M 82
at sunrise to work M 80
at sunrise to give M 80
at sunrise or during M 80
at sixteen to live M 80
at present we meet M 80
at present the face M 80
at present no hint M 80
at present in safe M 80
at present at these M 80
at present as also M 80
at moments to think M 80
at moments of love M 80
at liberty the three M 80
at leisure to pass M 80
at following the same M 80
at extending the theory M 80
at exploring the meaning M 80
at exactly the length M 80
at daybreak to hire M 80
at quarter or half M 77
at perhaps the very M 66
at receiving no more M 57
at present the ocean M 57
at achieving the ideal M 55
at present the base M 54
at present in face M 51
at liberty to many M 51
at assessing the cost M 51
at present on half M 48
at present an evil M 48
at producing the very M 47
at present the male M 47
at improving the road M 47
at defiance the very M 47
at present the moon M 46
at present on most M 41
at liberty to fast M 41
at increasing or well M 41
at present the left M 40
at present as such M 40
at present an even M 40
at marriage is well M 40
at present at least D 13021
at liberty to vote D 3726
at variance in their D 3674
at autopsy to have D 3472
at liberty to throw D 3390
at defiance the laws D 2942
at corners of mouth D 2333
at liberty to roam D 2244
at present the least D 2165
at national as well D 2028
at heights of from D 1971
at present the bulk D 1758
at liberty on bail D 1586
at present the sole D 1562
at sleight of hand D 1366
at exactly the spot D 1296
at heights of over D 1170
at broadly the same D 1156
at autopsy the lungs D 1098
at heights of more D 948
at capture of fort D 946
at liberty to coin D 932
at bedtime to help D 918
at liberty to shew D 852
at autopsy the heart D 826
at variance in many D 816
at variance in some D 784
at present on loan D 780
at liberty to sail D 763
at enlarging my cave D 754
at puberty or during D 728
at present the laws D 700
at present the task D 658
at surgery to have D 656
at variance on many D 640
at present the firm D 620
at receiving the news D 598
at liberty to levy D 590
at sundown we were D 586
at expense of other D 578
at askance by many D 574
at present the bane D 556
at present on foot D 553
at regional as well D 534
at liberty to ride D 534
at receiving no news D 526
at obtaining the best D 516
at bedtime or during D 510
at luncheon the next D 506
at present the drug D 501
at variance on some D 490
at liberty to rove D 488
at heights of less D 478
at present no firm D 477
at autopsy or during D 470
at liberty to avow D 466
at liberty to lease D 458
at present we tend D 440
at present the mere D 434
at national or even D 429
at present to shew D 426
at liberty to wage D 418
at askance by some D 412
at bedtime or when D 410
at variance to those D 406
at marriage is rising D 396
at present the gold D 383
at fifteen he took D 382
at autopsy in some D 374
at daybreak the camp D 369
at present the wife D 367
at junction of neck D 358
at society of arts D 353
at promoting the health D 344
at providing at least D 336
at marriage the wife D 334
at puberty in boys D 324
at sixteen he took D 322
at everything he took D 322
at present the duke D 321
at farthest the third D 321
at beholding the face D 314
at liberty to gaze D 312
at sundown the next D 310
at college he took D 306
at present in york D 304
at present to cope D 298
at present the tide D 298
at present my wife D 298
at variance as well D 288
at liberty to stir D 288
at variance to what D 286
at sundown the wind D 284
at pleasure to suit D 284
at leisure to etch D 284
at liberty to rail D 278
at present the soil D 276
at present to throw D 274
at present the ruling D 274
at present it bears D 272
at autopsy in these D 268
at promoting the good D 267
at federal as well D 267
at present the mining D 266
at sundown we came D 264
at puberty or even D 264
at millions of bits D 264
at daybreak he took D 256
at autopsy the only D 254
at autopsy in many D 254
at present the park D 252
at variance on other D 250
at promoting the well D 250
at present on sale D 250
at present the farm D 247
at present so rife D 244
at marriage of wife D 242
at liberty to mingle D 242
at autopsy or from D 240
at puberty is said D 238
at askance by those D 238
at regaining the lost D 237
at stomach of sour D 234
at present is paid D 234
at askance by their D 234
at liberty to aver D 232
at prolonging the life D 229
at present in camp D 229
at liberty to veto D 228
at charges to keep D 228
at moments at least D 227
at present the fund D 226
at luncheon the other D 224
at liberty to soar D 224
at exactly the pace D 224
at beholding so many D 224
at heights as great D 222
at askance by most D 220
at variance no more D 216
at regional or even D 216
at puberty or soon D 216
at priests to jeer D 216
at present the sale D 216
at liberty to slay D 216
at farthest the next D 214
at bedtime to keep D 212
at obtaining the most D 211
at expense of city D 210
at liberty to rank D 204
at bedtime he said D 204
at auctions or from D 204
at liberty to sink D 202
at expense of their D 202
at present the race D 200
at present the deer D 200
at present is mere D 200
at liberty to whip D 200
at present the coal D 199
at autopsy in most D 199
at puberty in many D 198
at promoting the sale D 198
at heights of only D 196
at liberty to fend D 194
at heights of five D 192
at beginning of lease D 191
at thirteen he took D 190
at present the club D 190
at liberty at least D 190
at junction of wall D 189
at sundown we went D 188
at portions of their D 188
at autopsy in only D 188
at variance in other D 186
at millions of years D 186
at mealtime or when D 186
at autopsy the left D 186
at autopsy in such D 184
at present it pays D 182
at obtaining as much D 182
at bedtime as well D 182
at obtaining the same D 180
at autopsy in more D 180
at receiving the card D 176
at present the crop D 176
at liberty to plot D 176
at liberty to defy D 176
at dosages as high D 176
at present of mere D 174
at present of bringing D 174
at pleasure the cock D 174
at beholding in what D 174
at autopsy the most D 174
at council ye dare D 172
at autopsy the bone D 172
at cudgels the other D 164
at billions of bits D 164
at beholding the tears D 164
at rentals of from D 162
at obtaining the dues D 162
at liberty to dine D 162
at achieving at least D 162
at variance by such D 160
at liberty to rent D 160
at corners of eyes D 160
at bedside in case D 160
at puberty as well D 158
at concord the other D 158
at bedtime to make D 158
at bedtime is also D 158
at present the fort D 154
at modelling in clay D 154
at corners of lips D 154
at bologna as early D 154
at liberty to suit D 152
at heights of four D 152
at dinners or other D 152
at heights of some D 150
at daybreak we took D 149
at present the soul D 148
at present the pole D 147
at present the navy D 146
at harvest or other D 146
at daybreak he rose D 146
at buffalo on lake D 146
at autopsy the body D 146
at autopsy in three D 145
at present the mill D 144
at college of arts D 144
at stations of high D 142
at present the pope D 140
at liberty to prey D 140
at corners or other D 140
at academy of arts D 140
at variance to their D 138
at variance to some D 138
at present as cheap D 138
at liberty to jingle D 138
at liberty to cede D 138
at bedtime to take D 138
at sundown he came D 136
at executing the acts D 136
at capturing the mood D 136
at variance on these D 134
at softening the blow D 134
at pleasure the laws D 134
at economy of time D 134
at autopsy to find D 134
at anytime in your D 134
at puberty to live D 132
at heights of many D 132
at cruelty is very D 132
at variance or even D 130
at variance as those D 130
at shanghai in early D 130
at luncheon at lady D 130
at liberty to vent D 130
at increasing the pace D 130
at harvest or during D 130
at bologna by pope D 130
at autopsy as well D 130
at ambient as well D 130
at autopsy in aids D 129
at official as well D 128
at liberty to chat D 128
at expense of time D 128
at bologna as well D 128
at autopsy in those D 128
at present the rank D 127
at outbreak of great D 127
at sundown to their D 126
at profaning the most D 126
at present at fort D 126
at heights so great D 126
at harvest is very D 126
at beholding the young D 126
at anytime in their D 126
at wrestle or race D 124
at variance as were D 124
at squeezing the last D 124
at offside of dream D 124
at liberty on bond D 124
at improving the firm D 124
at targets on land D 122
at strands of hair D 122
at promoting the role D 122
at present is facing D 122
at liberty to blab D 122
at farthest to find D 122
at parties or bars D 120
at cologne we find D 120
at present in flux D 119
at heights of three D 119
at surgery or during D 118
at stations on land D 118
at promoting the best D 118
at present is luring D 118
at beholding so much D 118
at robbery of their D 117
at variance in these D 116
at targeting the poor D 116
at puberty the girl D 116
at freedom the morn D 116
at puberty the male D 115
at present in gaol D 114
at dribbling the ball D 114
at beholding the great D 114
at present the fees D 112
at present it wears D 112
at present in john D 112
at meridian the wind D 112
at mealtime or during D 112
at liberty to glean D 112
at liberty to farm D 112
at enrolling the great D 112
at autopsy in over D 111
at present to defy D 110
at present the star D 110
at daybreak or dusk D 110
at autopsy in young D 110
at shanghai as well D 108
at purifying the soul D 108
at puberty in some D 108
at producing the sale D 108
at napoleon in rags D 108
at liberty he took D 108
at liberty by john D 108
at corners to form D 108
at liberty to wreak D 106
at liberty to pack D 106
at cologne as early D 106
at buffalo the next D 106
at wrestling in these D 104
at producing at least D 104
at present no drug D 104
at present he pays D 104
at improving the tone D 104
at harvest is made D 104
at bologna the fact D 104
at surgery the mass D 102
at present the iron D 102
at present be sold D 102
at harvest as well D 102
at enlisting the help D 102
at college at least D 102
at wrestling he wold D 100
at variance as ever D 100
at puberty the boys D 100
at present in bringing D 100
at loosening the grip D 100
at puberty or when D 98
at luncheon we were D 98
at improving the soil D 98
at cricket as well D 98
at cologne on their D 98
at autopsy in four D 97
at sundown to find D 96
at present be paid D 96
at liberty to wave D 96
at depicting the life D 96
at bologna or some D 96
at beginning of string D 96
at autopsy to show D 96
at marbles or push D 95
at puberty the body D 94
at puberty or just D 94
at present the cape D 94
at present at york D 94
at increasing the pool D 94
at increasing the firm D 94
at daybreak the boat D 94
at beholding the cope D 94
at enlarging the size D 93
at thoughts of leaving D 92
at shanghai to make D 92
at service of duke D 92
at reports of their D 92
at liberty to tease D 92
at liberty to roll D 92
at leisure to melt D 92
at dosages of less D 92
at daybreak we rose D 92
at bridges or other D 92
at achieving the twin D 92
at puberty in these D 90
at present the wine D 90
at present the steam D 90
at present the roof D 90
at liberty to blot D 90
at daybreak the firing D 90
at chiefly by those D 90
at bettering the life D 90
at bedtime we were D 90
at variance at once D 88
at liberty the duke D 88
at daybreak the guns D 88
at receiving the ball D 86
at puberty is more D 86
at faculty of arts D 86
at expense of some D 86
at bedtime the next D 86
at variance no less D 84
at surgery or from D 84
at stations as well D 84
at shrines in their D 84
at screech of dawn D 84
at puberty is also D 84
at present no laws D 84
at potency of truth D 84
at mealtime as well D 84
at luncheon he told D 84
at luncheon at your D 84
at liberty to cull D 84
at harvest the crop D 84
at cologne as well D 84
at village or town D 82
at stations in other D 82
at present the rent D 82
at present is sunk D 82
at liberty to slip D 82
at dessert he even D 82
at bonanza at four D 82
at billions of years D 82
at askance by other D 82
at present the tube D 80
at present no fund D 80
at present be mere D 80
at present as tame D 80
at optical or radio D 80
at luncheon in their D 80
at leghorn the same D 80
at enforcing the laws D 80
at beginning of tape D 80
at expense of half D 64
at bedtime or early D 55
at present the wage D 53
at present in cock D 49
at liberty to feast D 49
at bedtime is more D 49
at targets in north D 45
at puberty or early D 44
at recreating the past D 42
at harvest or sowing D 42
at skilled or semi D 41
at promoting the most D 40
