after labor day . M 17396
after every meal . M 14524
after every use . M 3462
after meeting him . M 2016
after civil war . M 1650
after meeting her . M 1280
after every war . M 936
after brain death . M 924
after working out . M 814
after meeting them . M 708
after first year . M 702
after killing him . M 689
after getting wet . M 606
after every meal ? M 604
after first use . M 578
after meeting you . M 572
after getting out . M 562
after killing them . M 552
after every run . M 504
after every act . M 484
after writing them . M 464
after labor day ? M 434
after opening day . M 432
after earthly things . M 393
after every day . M 372
after killing her . M 366
after every one . M 356
after evening meal . M 336
after every song . M 334
after writing this . M 320
after creating them . M 296
after cleaning them . M 292
after world war . M 274
after thanking him . M 272
after every cut . M 266
after passing out . M 262
after passing them . M 261
after every job . M 254
after falling ill . M 250
after right now . M 240
after every death . M 226
after cutting out . M 224
after opening them . M 222
after seven now . M 216
after earthly death . M 214
after junior year . M 198
after feeding him . M 196
after learning them . M 194
after knowing this ? M 194
after adult age . M 194
after testing them . M 188
after eight now . M 188
after first aid . M 186
after finding them . M 162
after feeding them . M 162
after reaching death . M 154
after short use . M 152
after cutting them . M 152
after knowing you . M 148
after every year . M 144
after falling off . M 142
after reaching them . M 140
after getting them . M 140
after every win . M 140
after seven rings . M 136
after cutting off . M 134
after people die . M 132
after knowing him . M 132
after eight rings . M 132
after check box . M 132
after copying them . M 128
after finding out . M 126
after every deal . M 126
after broke out . M 126
after finding her . M 124
after killing you . M 120
after breathing out . M 120
after finding him . M 116
after every using . M 114
after joining them . M 110
after daily use . M 110
after knowing her . M 108
after feeding her . M 108
after every meal ! M 108
after meeting him ? M 106
after signing off . M 104
after passing him . M 104
after ingesting them . M 100
after every set . M 100
after human death . M 98
after found dead . M 98
after turning pro . M 96
after taken off . M 94
after selling them . M 94
after getting off . M 94
after closing them . M 94
after drawing them . M 92
after writing that . M 86
after which they . M 86
after every heat . M 86
after selling out . M 84
after meeting you ? M 84
after killing him ? M 84
after thanking her . M 82
after found her . M 82
after found him . M 46
