affect the results . M 42376
affect the outcome . M 27634
afford to neglect . M 10274
affect the question . M 9466
afraid of everything . M 9461
affect the decision . M 5624
afraid of failure . M 5576
affect the process . M 5366
afraid of anybody . M 4230
afraid of himself . M 3762
affect the company . M 3114
affect to despise . M 3002
affect the results ? M 2922
afraid of silence . M 2818
affect the product . M 2650
affect the patient . M 2432
affect the project . M 2424
affect the outcome ? M 2356
afraid of herself . M 2348
affect the solution . M 2300
affect the problem . M 2298
affect the climate . M 2166
afford to despise . M 2120
affect the present . M 1738
afford an example . M 1568
affect the elderly . M 1540
affect the position . M 1494
affair in question . M 1464
afford to provide . M 1432
afraid to believe . M 1390
affect the balance . M 1378
afraid of success . M 1354
affect the program . M 1336
afraid of marriage . M 1256
afraid of freedom . M 1150
affect the picture . M 1144
affect the decision ? M 1086
afford to support . M 1046
afraid to proceed . M 1042
afraid of trouble . M 1032
afraid of lightning . M 1028
affect the country . M 1018
afraid or ashamed . M 990
afraid of animals . M 988
afraid of shadows . M 936
afraid of suffering . M 934
affect the quality . M 916
affect the verdict . M 910
affect of anxiety . M 910
afford it anymore . M 906
afraid of violence . M 864
afraid of poverty . M 806
affect the passions . M 806
afford the journey . M 802
afford the service . M 770
affect the problem ? M 750
affect the surface . M 746
afford to consume . M 740
affect my decision . M 736
afford at present . M 734
affect the emotions . M 732
afford me pleasure . M 724
afraid to testify . M 710
afford the product . M 708
afford to replace . M 654
affect the subject . M 650
affect the pattern . M 638
afford us pleasure . M 624
affect the schools . M 624
affect the figures . M 610
affair of religion . M 604
affect the question ? M 594
afraid of failure ? M 590
affect the process ? M 580
afraid of anymore . M 570
affect the average . M 568
affect the compass . M 566
affect to believe . M 558
affect the marriage . M 538
affect the workers . M 536
afraid to advance . M 530
afraid of offending . M 528
affect the message . M 528
affect the company ? M 524
afford to sustain . M 520
affect the content . M 520
affect the society . M 508
affect the project ? M 506
affect the network . M 504
affect the climate ? M 504
afford to produce . M 488
affect the answers . M 480
afraid to protest . M 478
afford to compete . M 478
afraid to respond . M 472
affect an outcome . M 472
afraid of everything ! M 470
afford to abandon . M 470
affect the patient ? M 466
affect my position . M 464
afraid to attempt . M 460
affect the current . M 454
afraid to explore . M 436
afford to operate . M 432
affect the culture . M 430
afraid to inquire . M 418
afraid to confess . M 418
affect the material . M 416
afraid of marriage ? M 412
affair at present . M 412
afraid of spirits . M 400
affect the service . M 394
afraid of success ? M 378
affect to support . M 378
affect the animals . M 372
affect the solution ? M 366
afraid to succeed . M 356
afraid of everything ? M 348
affair or marriage . M 344
affair in silence . M 340
affect in language . M 338
afraid to compete . M 336
affect the equation . M 334
afraid to bargain . M 332
affect the student . M 330
affect the exchange . M 330
affect the parties . M 322
affect in general . M 310
afraid or worried . M 306
afraid of religion . M 302
afraid of enemies ? M 298
afford to dismiss . M 294
affect the species . M 294
affect the program ? M 294
afraid to publish . M 290
affect the display . M 290
affect the numbers . M 286
afraid to question . M 284
afford to discard . M 284
affect the library . M 284
afraid to conquer . M 278
affect the language . M 278
afraid to discuss . M 274
afraid of lightning ? M 274
afford to rebuild . M 272
affect the research . M 272
afraid of poverty ? M 270
affect the account . M 266
affect me anymore . M 266
afraid of suffering ? M 264
afford the increase . M 264
afraid to imagine . M 262
afford to concede . M 262
affair is arranged . M 262
afford to develop . M 254
afraid of society . M 246
afford no example . M 246
afraid to descend . M 244
affirm the decision . M 243
affect the function . M 240
affect the product ? M 238
afraid or nervous . M 234
afraid of numbers . M 234
afraid of illness . M 234
afford it shelter . M 234
affect the parents . M 234
affair to congress . M 234
afford to decline . M 232
affect the country ? M 232
afraid of anybody ! M 228
affect the profits . M 226
afford it himself . M 224
afford to publish . M 220
affect the outputs . M 220
affect my conduct . M 220
affect the reactions . M 218
affect the bargain . M 218
afford us shelter . M 214
afford to acquire . M 214
affair of history . M 212
afford to marriage . M 208
affect the members . M 206
afraid of madness . M 204
afford no defence . M 204
affect the following ? M 202
afford to receive . M 200
afford an utility . M 200
afford an abortion . M 200
affirm or dismiss . M 198
afraid of himself ? M 196
afford the repairs . M 196
afford the lessons . M 194
afford the payment . M 192
affect it equally . M 190
affair is decided . M 186
afraid to perform . M 182
afraid of contact . M 182
affect the message ? M 182
affect my spirits . M 182
afraid to explain . M 180
afford to withdraw . M 180
afraid or corrupt . M 178
afford to satisfy . M 178
afford the program . M 178
afford the passage . M 178
afford me support . M 178
afford it support . M 178
affect the present ? M 178
afraid of service . M 176
afford to display . M 176
affect the picture ? M 176
afford to possess . M 174
afraid of justice . M 172
affect the analogy . M 172
affair of marriage . M 172
affect the location . M 170
affair to himself . M 170
afford to forgive . M 168
affect the relation . M 168
afraid of anybody ? M 166
afford me shelter . M 166
affect the schools ? M 166
affect the adhesion . M 166
affair in oblivion . M 166
afraid of liberty . M 164
afraid of insects . M 164
affect the position ? M 164
afraid to whisper . M 162
affirm the arrival . M 160
affect us strongly . M 156
affect to despise ? M 156
affect my results . M 156
afraid to disturb . M 154
afraid of divorce . M 154
afford the uniform . M 154
affect the control . M 154
affect is present . M 154
affect in question . M 154
affair is unknown . M 154
afraid of pursuit . M 152
afraid of history . M 152
affect or control . M 152
afraid to examine . M 150
afloat in himself ! M 150
affect the profile . M 150
affect the marriage ? M 146
affect the illness . M 146
afford no solution . M 142
affect the citizen . M 140
afraid of pleasure . M 138
afford to collect . M 138
affect the returns . M 138
afraid of boredom . M 136
affect of sadness . M 136
afford the project . M 134
afford no comfort . M 134
affect the deficit . M 134
afraid to promise . M 132
afield of himself ? M 132
afford is immense . M 132
affair of motives . M 132
afraid to operate . M 130
afraid of illness ? M 130
afford to imitate . M 130
afford no pleasure . M 130
affect us vitally . M 130
affirm or reverse . M 129
afraid to succeed ? M 128
afraid of emotions . M 128
affect the signals . M 128
affect my decision ? M 128
affair to herself . M 128
afraid of novelty . M 126
afford to himself . M 126
affect the measures . M 126
affect the exchange ? M 126
afraid to reflect . M 124
afraid of teachers . M 124
afford to believe . M 124
affect my marriage . M 124
afraid or unhappy . M 120
afraid of herself ? M 120
affect the conduct . M 120
afraid of suicide . M 118
affect to condemn . M 118
affect the college . M 118
afford the present . M 116
afford no shelter . M 116
affect the elderly ? M 116
affair as marriage . M 116
afraid of parents . M 114
afraid of anarchy . M 114
afraid of silence ? M 112
afraid of enemies . M 112
afford to proceed . M 112
afford to destroy . M 112
affect the rotation . M 112
affair of jealousy . M 112
afraid of victory . M 108
afford us delight . M 108
afford to educate . M 108
afford the solution . M 108
afford the product ? M 108
afford the occasion . M 108
affect the machine . M 108
affect in marriage . M 108
affair is general . M 108
afraid to deliver . M 106
afford me comfort . M 106
affect the division . M 106
affair to proceed . M 106
afraid of corpses . M 104
afford to embrace . M 104
affect the witness . M 104
affect the objects . M 104
afraid to attempt ? M 102
affect the tyranny . M 102
affect the accused . M 102
affair so lightly . M 102
affair is obscure . M 102
afraid to receive . M 100
afford to install . M 100
afford to exchange . M 100
affirm or declare . M 100
affect the student ? M 100
affect the choices . M 100
affair of language . M 100
affair in general . M 100
afraid of history ! M 98
afford me leisure . M 98
affect the channel . M 98
afraid to enforce . M 96
afraid of returning . M 96
afford to divorce . M 96
affect the clients . M 96
affair is revealed . M 96
afford to service . M 94
affect the current ? M 94
affect on society . M 94
affect my country . M 94
affair is dropped . M 94
afraid of traffic . M 92
affect the modulus . M 92
affair of seconds . M 92
afraid to embrace . M 90
afraid of troubling . M 90
afraid of spirits ? M 90
affair of slavery . M 90
affect the stories . M 88
affair as follows . M 88
afraid to address . M 86
afraid of shadows ? M 86
afraid of results . M 86
affect or anxiety . M 86
affect me forever . M 86
affair of routine . M 86
afraid to comment . M 84
afford it pleasure . M 84
affect the damages . M 84
affirm the present . M 83
afraid of cameras . M 82
afford to deliver . M 82
affect the pattern ? M 82
affect the deficit ? M 82
affect it strongly . M 82
affair in advance . M 82
afraid of trouble ? M 80
afraid of animals ? M 80
affect the colours . M 80
