end of last year M 59665
end of next year M 17638
end of life and M 16831
end of time and M 16368
end the cold war M 14084
end of their long M 14076
end of cold war M 13576
end be like his M 12413
end up paying for M 10897
end of part one M 9734
end of their own M 9692
end in view that M 9645
end of what was M 9601
end of these things M 9336
end up like this M 8646
end in view and M 7879
end up like that M 7535
end of town and M 7533
end to their own M 7332
end of those who M 7243
end of these two M 7214
end in view was M 7203
end in view than M 7140
end of more than M 6874
end in nothing but M 6439
end by saying that M 6266
end the same way M 5998
end of their day M 5890
end of their being M 5827
end of what had M 5572
end of note add M 5554
end if next end M 5074
end of part two M 4762
end of their year M 4720
end of those things M 4649
end to know how M 4608
end of such year M 4346
end the need for M 4180
end of those two M 4024
end up like her M 3980
end of life was M 3912
end of life for M 3822
end to what they M 3686
end in view but M 3634
end to what was M 3577
end in view they M 3480
end of third year M 3459
end to what had M 3392
end of your day M 3367
end the book with M 3321
end of what has M 3280
end of what they M 3247
end in their own M 3088
end it will not M 2996
end of their two M 2968
end of book one M 2966
end of life are M 2957
end of time was M 2856
end of your own M 2735
end of life but M 2693
end of spring and M 2594
end up like him M 2564
end of life with M 2562
end of days and M 2547
end of what you M 2535
end in less than M 2402
end is used for M 2385
end up dealing with M 2379
end of three and M 2334
end of time for M 2306
end is more than M 2276
end of their run M 2228
end up living with M 2194
end of term and M 2176
end is very near M 2137
end to more than M 2128
end of what may M 2104
end of file has M 2096
end to what you M 2010
end up like them M 2005
end of what she M 1980
end up like his M 1968
end no more than M 1920
end of town was M 1788
end of life can M 1786
end to those who M 1781
end of book two M 1774
end of life that M 1770
end of time with M 1766
end the play with M 1760
end of their meal M 1705
end the next day M 1695
end of fifth year M 1684
end we find that M 1664
end of these men M 1644
end up saying that M 1624
end of time that M 1616
end it once and M 1557
end is less than M 1525
end of life may M 1524
end of work and M 1510
end in only one M 1504
end he said that M 1459
end to find out M 1443
end in view being M 1426
end in view she M 1423
end of many things M 1418
end the same may M 1416
end of your arm M 1411
end to what has M 1349
end of life has M 1338
end of your being M 1326
end of four and M 1320
end up like you M 1317
end to their long M 1311
end my days with M 1302
end of town near M 1277
end in view for M 1274
end of your long M 1266
end of their six M 1254
end he will not M 1247
end of peace and M 1240
end at once and M 1234
end the game and M 1217
end in some way M 1213
end by making him M 1212
end of only one M 1205
end up hating each M 1196
end to these things M 1188
end of those ten M 1184
end of these long M 1181
end the line with M 1175
end of their path M 1168
end in view may M 1158
end in view has M 1157
end to what can M 1142
end he gave his M 1135
end of some long M 1120
end of your meal M 1117
end in mind and M 1117
end of time but M 1112
end of great bear M 1098
end in view can M 1098
end is open and M 1096
end in view are M 1090
end the only way M 1087
end of time had M 1086
end of time has M 1080
end we were all M 1079
end of love and M 1070
end of time are M 1059
end of line and M 1054
end it when you M 1052
end up like one M 1047
end to wars and M 1044
end he gave way M 1031
end to keep them M 1028
end of those six M 1022
end my life with M 1013
end of life than M 1002
end of hope for M 1002
end of days was M 1002
end is nothing but M 1000
end to what she M 984
end of five and M 976
end up losing all M 969
end he lost his M 968
end the game with M 967
end of their way M 964
end of these ten M 951
end to show that M 948
end to make them M 940
end of living and M 934
end up making things M 921
end the young man M 894
end we find our M 891
end up giving you M 884
end to these long M 883
end of file and M 882
end in time for M 882
end of less than M 879
end is free and M 874
end of wars and M 872
end of body and M 869
end of pain and M 868
end of these six M 866
end we learn that M 860
end of life they M 856
end of reading this M 854
end of youth and M 851
end of work for M 850
end in mind that M 850
end the pain and M 849
end to have them M 845
end in view had M 840
end in ruin and M 836
end up making you M 825
end of week one M 823
end of their war M 820
end of what can M 819
end in their being M 819
end in tears and M 814
end of town with M 813
end of those long M 808
end of time all M 798
end of last may M 798
end at last with M 790
end up saying things M 787
end of time can M 787
end to life and M 784
end of book for M 784
end of such things M 782
end if loop end M 781
end up saving you M 777
end of days that M 774
end of their use M 772
end it like this M 770
end we have not M 768
end up giving them M 764
end to find that M 761
end in line with M 755
end up like all M 747
end of cell and M 744
end of their era M 736
end no less than M 734
end it will all M 734
end to give them M 732
end in peace and M 728
end by noting that M 726
end he made his M 722
end he felt that M 720
end we know not M 716
end of very long M 716
end we will not M 712
end up losing his M 712
end of body with M 711
end of their song M 700
end of their one M 694
end by those who M 690
end up paying too M 685
end up only with M 680
end it here and M 680
end to what one M 678
end to make use M 678
end my life and M 678
end up making them M 675
end of your job M 674
end on their own M 673
end in pain and M 672
end it came out M 669
end he says that M 665
end up when you M 663
end to what may M 658
end of good things M 650
end we know that M 648
end of week two M 644
end of their ten M 642
end to form long M 640
end of hope and M 633
end he sent his M 632
end to pain and M 628
end up hating you M 627
end of your run M 626
end up caring for M 625
end of tenth year M 624
end of life being M 624
end by their own M 624
end up asking for M 620
end by losing all M 620
end at last and M 620
end of town for M 618
end in time and M 617
end up giving him M 616
end of time they M 614
end the fact that M 612
end of sons and M 610
end the call and M 606
end of term was M 601
end of some two M 601
end he told her M 599
end we must all M 598
end to such things M 596
end in view with M 596
end in more than M 596
end up here with M 594
end we were not M 593
end in your being M 593
end of those few M 592
end up paying far M 589
end of last and M 586
end up back with M 584
end of file was M 577
end of years they M 576
end of plan year M 575
end up hating him M 573
end we note that M 569
end by making them M 569
end of some ten M 566
end to give way M 565
end he kept his M 565
end of line two M 562
end if note that M 554
end of town that M 550
end of town are M 548
end to work for M 544
end he came out M 540
end up having two M 538
end of time you M 536
end of word war M 530
end of good and M 530
end up taking them M 527
end in fire and M 520
end or goal that M 519
end we find him M 514
end of time god M 512
end to cold war M 511
end he made use M 511
end of other things M 510
end of from two M 510
end is good and M 508
end he bent all M 508
end of those that M 507
end if there are M 506
end of making them M 503
end to make him M 501
end of their old M 500
end we feel that M 498
end in dealing with M 495
end the plan was M 494
end of side one M 488
end of your path M 484
end to your own M 480
end to make one M 480
end by seeing that M 479
end the only one M 478
end the list with M 475
end up having one M 473
end to keep out M 473
end of what one M 472
end of their act M 472
end of just one M 472
end of their new M 471
end we were both M 470
end the work was M 470
end in life was M 470
end by asking for M 468
end we will win M 466
end we will all M 466
end on time and M 466
end of town has M 466
end of only six M 466
end we will see M 465
end to know that M 463
end of line end M 463
end up paying out M 461
end up coming out M 460
end of their set M 459
end of their beat M 459
end the show with M 456
end is sure and M 452
end the great war M 450
end to have had M 448
end up hanging out M 442
end he knew that M 442
end we must not M 439
end he gave them M 438
end by giving him M 438
end he said with M 437
end it will pay M 436
end to make his M 434
end to time and M 433
end the case was M 432
end of these are M 432
end up just being M 430
end of your year M 430
end the work with M 429
end up losing her M 428
end up losing our M 427
end the tail was M 425
end of years one M 424
end he sent for M 423
end of these few M 422
end to form one M 421
end of term for M 421
end up making him M 420
end of gone with M 420
end is even with M 418
end to their being M 415
end of these and M 415
end of time may M 408
end we have had M 406
end to think that M 406
end the next year M 406
end of book six M 406
end by giving her M 405
end in what all M 404
end up like our M 403
end up losing both M 402
end at once all M 402
end to these and M 401
end of truth and M 400
end the week with M 398
end of union with M 398
end in life and M 398
end of four big M 397
end he went off M 397
end up owning all M 395
end of town had M 394
end of life you M 394
end of time this M 393
end of said year M 392
end of life his M 392
end up losing out M 391
end of from one M 391
end of your leg M 390
end of ninth year M 390
end it cost him M 390
end we make use M 388
end up losing them M 387
end to their use M 387
end it once for M 387
end of your fly M 386
end of month and M 385
end of those men M 384
end my book with M 384
end to their war M 383
end of most men M 380
end of faith and M 378
end by making you M 378
end the line and M 377
end in your own M 377
end up giving her M 376
end of your two M 376
end of time she M 376
end of sixth year M 376
end of evil and M 376
end of your new M 375
end of work day M 375
end he used his M 375
end of birth and M 374
end of from ten M 373
end of life had M 372
end is such that M 372
end to help you M 370
end up poor and M 368
end to less than M 368
end of line one M 364
end by making her M 364
end to look for M 363
end it will bring M 363
end he gave her M 363
end up taking her M 360
end he went out M 360
end is worth all M 358
end to evil and M 356
end is only and M 356
end he knew not M 356
end of much that M 354
end to give him M 353
end to form two M 353
end to their way M 352
end is union with M 352
end to hold them M 350
end of such men M 350
end in making them M 348
end up hating her M 347
end he left his M 347
end or goal for M 345
end of some few M 344
end it will lead M 344
end in ways that M 344
end up when they M 342
end is left long M 342
end by giving them M 342
end of three long M 341
end of their age M 341
end the month with M 339
end by giving you M 339
end to many things M 338
end to birth and M 336
end of time men M 334
end of making him M 334
end of last war M 334
end of making that M 332
end he bent his M 332
end of mass and M 330
end is tied with M 330
end up making all M 328
end of only two M 328
end of next and M 328
end in view all M 328
end of their job M 326
end of dealing with M 326
end the book was M 325
end it like that M 324
end be best for M 323
end is made with M 322
end up taking all M 321
end up lost and M 320
end if there was M 319
end up making her M 317
end to side with M 316
end of from six M 316
end of data for M 315
end up paying all M 314
end or good for M 314
end the city was M 313
end up taking one M 311
end if next set M 311
end of toil and M 310
end as there was M 309
end of tail and M 306
end my days thus M 306
end up more than M 303
end up liking him M 302
end to these two M 302
end of third and M 302
end of male with M 302
end of life does M 302
end is coming and M 302
end to come out M 300
end in love with M 300
end is only one M 299
end he gave him M 299
end to keep his M 298
end up taking you M 297
end of these was M 296
end is what you M 296
end in making him M 295
end up taking out M 294
end to show how M 294
end he told them M 293
end of third day M 292
end of term with M 292
end by losing his M 292
end of such six M 291
end of what are M 290
end in these two M 289
end up living and M 288
end of fall and M 288
end he told his M 288
end of trial and M 285
end in making her M 283
end up crying and M 282
end of days has M 282
end he sent him M 282
end or goal and M 280
end of prior year M 278
end up very dead M 276
end to work out M 275
end of making her M 274
end up hurt and M 273
end of their lot M 272
end of time his M 270
end by liking all M 270
end of what now M 269
end we have set M 268
end up less than M 268
end to give you M 268
end of side two M 265
end of page one M 265
end up rich and M 264
end up buying one M 264
end of file for M 264
end to help him M 263
end to peace and M 262
end to make way M 262
end to live for M 261
end up buying them M 260
end to work long M 260
end by giving way M 260
end to their old M 258
end to their going M 258
end of life one M 258
end he sent out M 258
end of four long M 256
end of care and M 256
end in what they M 255
end is held with M 254
end in life but M 254
end up living out M 253
end up angry and M 253
end the only real M 253
end in their death M 253
end by more than M 253
end up here for M 252
end up here and M 252
end of over two M 252
end of life this M 252
end he made them M 251
end up paying them M 250
end in life than M 250
end we will use M 249
end the last day M 249
end we have two M 248
end to find him M 248
end is there any M 248
end is left with M 248
end in your death M 248
end up having all M 247
end up acting out M 247
end up paying off M 246
end to keep him M 246
end to keep her M 246
end the other way M 246
end up like old M 245
end of some one M 245
end he will get M 245
end of term she M 244
end of such day M 244
end by asking you M 243
end up taking him M 242
end to those things M 242
end of your old M 242
end of town you M 242
end in what was M 242
end the call with M 241
end of acts and M 241
end to show for M 240
end we need not M 239
end the play was M 239
end up taking two M 238
end up paying two M 238
end of time our M 238
end is good for M 238
end in loss and M 238
end the same day M 237
end to make this M 235
end to give her M 235
end the case for M 234
end is clear and M 234
end up saying yes M 233
end my days and M 233
end by making his M 232
end up there and M 231
end we toil and M 230
end up making one M 230
end of work that M 230
end it there and M 230
end to stay with M 229
end to make her M 229
end of thread and M 228
end in view you M 228
end he lost all M 228
end up there for M 227
end up having too M 226
end of time one M 226
end of some six M 226
end of said lot M 226
end is peace and M 226
end we have now M 224
end or last sum M 224
end of their pre M 224
end of many long M 224
end my life now M 224
end in love and M 224
end we hope that M 222
end we find them M 222
end to save him M 222
end of town but M 222
end of line for M 222
end of fine things M 222
end of days for M 222
end is their own M 222
end to wait for M 221
end to save his M 221
end of poor old M 221
end up hating them M 220
end of your six M 220
end he went with M 220
end the unit with M 219
end the best way M 219
end or ends are M 219
end to send his M 218
end is pain thus M 218
end is like that M 218
end so soon and M 217
end of your set M 217
end to take them M 216
end to other men M 216
end the trial and M 216
end the army was M 216
end of well doing M 216
end of text end M 216
end of spring they M 216
end of thread that M 215
end of text and M 215
end of range and M 215
end to have his M 214
end of time who M 214
end of some old M 214
end of days all M 214
end of their woes M 212
end is wide and M 212
end up owning you M 211
end up paying him M 210
end up making bad M 210
end of land and M 210
end is coming for M 210
end in giving him M 210
end by saying this M 210
end to work with M 209
end the land was M 209
end up paying his M 206
end to make you M 206
end of time than M 206
end up living for M 205
end up buying things M 205
end of term that M 205
end of month for M 205
end to turn out M 204
end to tell you M 204
end of town who M 204
end of time does M 204
end of next may M 204
end is very far M 204
end in view not M 204
end we must ask M 203
end by hating him M 203
end of other men M 202
end he knew his M 202
end the wars and M 201
end up buying two M 200
end the poor man M 200
end it means that M 200
end is theft and M 200
end is bent and M 200
end he made two M 200
end to love and M 199
end no other way M 198
end or back end M 197
end of such long M 197
end of life who M 196
end of good for M 196
end in mind for M 196
end to week end M 195
end he left her M 195
end be like this M 195
end up making out M 194
end to meet him M 194
end of your song M 194
end of life she M 194
end in view two M 194
end by means that M 194
end by liking him M 194
end to tell him M 193
end of next day M 193
end to such aid M 192
end of want and M 192
end up taking too M 191
end to make its M 191
end the lord hath M 191
end in view this M 191
end to find any M 190
end the lord has M 190
end of time each M 190
end if next for M 190
end he will pay M 190
end be more than M 190
end we must see M 188
end to hope for M 188
end to even this M 188
end is here and M 188
end up liking each M 187
end up having his M 187
end he will use M 187
end as there are M 187
end up just going M 186
end or from both M 186
end of town they M 186
end the word with M 185
end of town off M 185
end up losing its M 184
end or along one M 184
end of making man M 184
end of making his M 184
end of life not M 184
end is upon you M 184
end is open for M 184
end to draw near M 183
end the book has M 183
end of range for M 183
end of line six M 183
end up some day M 182
end it when they M 182
end he went and M 182
end is tied off M 181
end we have all M 180
end of line with M 180
end of days god M 180
end my life for M 180
end up mating with M 177
end up losing him M 177
end to their woes M 176
end of your big M 176
end of north and M 176
end the game for M 175
end my talk with M 175
end it will mean M 175
end it says that M 175
end by hating you M 175
end to make all M 174
end to help with M 174
end the ship was M 174
end of your box M 174
end of jobs for M 174
end of data has M 174
end as when they M 174
end of life all M 173
end by making one M 173
end we must use M 172
end up wiping out M 172
end up liking them M 172
end to life but M 172
end the name with M 172
end of work with M 172
end of some things M 172
end of page two M 172
end of love for M 172
end in mind than M 172
end in anger and M 172
end he used all M 172
end we must say M 171
end the life and M 171
end of data and M 171
end up living off M 170
end to their age M 170
end to theft and M 170
end the town and M 170
end up just doing M 169
end in life for M 169
end we will get M 168
end up having this M 168
end to nothing but M 168
end the text with M 168
end of these new M 168
end of nothing but M 168
end of health and M 168
end of days had M 168
end in your dying M 168
end he gets his M 168
end to give his M 167
end the life that M 167
end in view his M 167
end in union with M 167
end in making man M 167
end in cold and M 167
end he sees that M 167
end to want and M 166
end of life nor M 166
end is only too M 166
end up losing this M 165
end to your day M 165
end to those that M 165
end the line was M 165
end he will see M 165
end up liking her M 164
end to those few M 164
end to feel that M 164
end of reading and M 164
end of peace for M 164
end of giving his M 164
end he must not M 164
end he must die M 164
end we must try M 163
end up paying that M 163
end to look out M 163
end the west end M 163
end of such two M 163
end by what was M 163
end up liking you M 162
end to those long M 162
end of time its M 162
end of some year M 162
end of self and M 162
end of living for M 162
end of even this M 162
end of days are M 162
end in mind but M 162
end in faith and M 162
end we have our M 161
end to what are M 161
end of their big M 161
end he held that M 161
end up there with M 160
end is high and M 160
end if stop end M 160
end be nothing but M 160
end we came out M 159
end to saying that M 159
end the show and M 159
end the play and M 159
end of data set M 159
end the tour with M 158
end on their way M 158
end of work now M 158
end of term they M 158
end is best for M 158
end we felt that M 157
end to take his M 157
end to take her M 157
end to come and M 157
end the road was M 157
end my life that M 157
end up saying and M 156
end up paying you M 156
end up making this M 156
end to once and M 156
end the work that M 156
end of their joy M 156
end of talk and M 156
end of nine and M 156
end of month two M 156
end of meaning and M 156
end it meant that M 156
end up taking his M 155
end to make men M 155
end the union was M 155
end the game was M 155
end up paying with M 154
end up making our M 154
end of some day M 154
end of fury and M 154
end the town was M 153
end is left out M 153
end up having them M 152
end up buying and M 152
end the same year M 152
end of part six M 152
end is ready for M 152
end in open war M 152
end if when you M 152
end up losing that M 151
end of half year M 151
end up sick and M 150
end to help all M 150
end of your war M 150
end of these they M 150
end of step one M 149
end up very far M 148
end up paying one M 148
end to teach and M 148
end to keep off M 148
end the more than M 148
end of fifth day M 148
end the case with M 147
end of such one M 147
end in case you M 147
end by their being M 147
end up hating our M 146
end to once for M 146
end the case and M 146
end of free and M 146
end of book ten M 146
end my mind was M 146
end by hating each M 146
end by asking how M 146
end to their day M 145
end to make out M 145
end the room was M 145
end the great and M 145
end he sent one M 145
end by dealing with M 145
end up seeing things M 144
end to wars that M 144
end to make that M 144
end the threat that M 144
end of your web M 144
end of what for M 144
end of three year M 144
end of their law M 144
end of room and M 144
end in making you M 144
end an open path M 144
end up there too M 143
end up losing one M 143
end up having her M 143
end of break and M 143
end up longing for M 142
end to have her M 142
end of time not M 142
end in view let M 142
end he sees and M 142
end he died for M 142
end up owning this M 141
end to meet with M 141
end to make any M 141
end of month one M 141
end of great war M 141
end in tears for M 141
end in only two M 141
end we must put M 140
end we just had M 140
end we hope this M 140
end up giving too M 140
end up angry with M 140
end the other team M 140
end the list and M 140
end he laid his M 140
end up only being M 139
end the work day M 139
end the love you M 139
end the city had M 139
end of making our M 139
end of file with M 139
end it went with M 139
end by saying how M 139
end of your bow M 138
end of what his M 138
end of vice and M 138
end of said six M 138
end of play and M 138
end of making men M 138
end it must not M 138
end in what are M 138
end in view did M 138
end as those who M 138
end up paying both M 136
end up hating one M 136
end to these sad M 136
end the young men M 136
end the girl was M 136
end of making this M 136
end of main and M 136
end it gave way M 136
end he went too M 136
end as well and M 136
end we must now M 134
end up seeing them M 134
end up making that M 134
end up losing you M 134
end to what god M 134
end to break off M 134
end the union with M 134
end the book and M 134
end the best that M 134
end of their team M 134
end of text for M 134
end up making two M 133
end to tell her M 133
end of their singing M 133
end up making any M 132
end up like they M 132
end up having both M 132
end up having any M 132
end to vice and M 132
end to tail end M 132
end of what god M 132
end of their ill M 132
end of such and M 132
end of five year M 132
end of five long M 132
end my days near M 132
end is soft and M 132
end in saving his M 132
end in early may M 132
end in early death M 132
end he told him M 132
end up taking this M 131
end he left for M 131
end we find out M 130
end or open end M 130
end of your lead M 130
end to gain and M 129
end in view one M 129
end to these old M 128
end to their bad M 128
end the tale with M 128
end of their sad M 128
end of term you M 128
end of making all M 128
end he made him M 128
end he left him M 128
end be good for M 128
end is other than M 127
end we have got M 126
end to much that M 126
end to make both M 126
end to learn that M 126
end to fill out M 126
end the wise man M 126
end the term with M 126
end the south was M 126
end the pain that M 126
end of week six M 126
end of seeing that M 126
end of bone and M 126
end my life this M 126
end is down and M 126
end in ruin for M 126
end by means with M 126
end be good and M 126
end to take him M 125
end to open end M 125
end so much that M 125
end of term one M 125
end in view does M 125
end by making all M 125
end up like she M 124
end up asking you M 124
end the game now M 124
end the face has M 124
end or high end M 124
end of your act M 124
end of file not M 124
end it will lay M 124
end it soon and M 124
end in nothing and M 124
end at home and M 124
end the trial was M 123
end of your top M 123
end of term had M 123
end of list and M 123
end he will try M 123
end he uses his M 123
end up like any M 122
end up having our M 122
end up asking her M 122
end or goal but M 122
end of step two M 122
end of giving them M 122
end he sets out M 122
end up safe and M 121
end up high and M 121
end to high end M 121
end the text has M 121
end or ends that M 121
end by losing both M 121
end up nothing but M 120
end up making his M 120
end up asking him M 120
end to many old M 120
end to make things M 120
end to leave his M 120
end or side and M 120
end of your url M 120
end of your bar M 120
end of word and M 120
end in giving one M 120
end he will win M 120
end do more for M 120
end up next year M 119
end the other end M 119
end is just that M 119
end the test and M 118
end of your way M 118
end of their going M 118
end of days they M 118
end it made him M 118
end the other day M 117
end of what our M 117
end of file read M 117
end in just one M 117
end up having its M 116
end up buying all M 116
end to what this M 116
end to stem end M 116
end of work each M 116
end of their wings M 116
end is when you M 116
end he made her M 116
end he brings his M 116
end to save her M 115
end to help them M 115
end the hero has M 115
end he came and M 115
end by having his M 115
end at their own M 115
end up when she M 114
end up living our M 114
end to work and M 114
end the tears and M 114
end of wealth and M 114
end of these that M 114
end of love was M 114
end of fifth and M 114
end is what may M 114
end he sent her M 114
end the threat and M 113
end so well for M 113
end is also not M 113
end we just put M 112
end to rise and M 112
end to find his M 112
end the wars with M 112
end the page with M 112
end is zero and M 112
end is north and M 112
end is life and M 112
end he will say M 112
end he left them M 112
end up having that M 111
end the wars that M 111
end the last war M 111
end the good man M 111
end we think that M 110
end up late for M 110
end up cold and M 110
end he lost both M 110
end to draw them M 109
end or from end M 109
end we must get M 108
end up taking our M 108
end up paying top M 108
end to toil and M 108
end to their joy M 108
end to care and M 108
end the trip with M 108
end of young men M 108
end of three out M 108
end of those old M 108
end of pure and M 108
end of more and M 108
end of mark and M 108
end in nothing being M 108
end he will die M 108
end he left with M 108
end up taking that M 107
end to learn how M 107
end of page and M 107
end of days with M 107
end in late may M 107
end by leading men M 107
end up trying too M 106
end up saying they M 106
end up making too M 106
end to make two M 106
end of time two M 106
end of their son M 106
end of their few M 106
end of play for M 106
end he will bring M 106
end he held out M 106
end at once this M 106
end as more and M 106
end we have one M 105
end up giving all M 105
end to what that M 105
end the view that M 105
end is dealt with M 105
end by saying too M 105
end up owning two M 104
end to their fear M 104
end to hope and M 104
end to hail and M 104
end the three men M 104
end the hero and M 104
end the baby was M 104
end of your dear M 104
end of town now M 104
end of term but M 104
end of living things M 104
end of half its M 104
end my pain and M 104
end in view our M 104
end by having them M 104
end it when she M 103
end in well doing M 103
end we find her M 102
end up seeing each M 102
end up reading this M 102
end up losing any M 102
end up heading for M 102
end to these new M 102
end to lift them M 102
end to come with M 102
end of your poem M 102
end of these one M 102
end of their arc M 102
end of tears and M 102
end of such war M 102
end of mine and M 102
end of living was M 102
end of help and M 102
end he went for M 102
end he must set M 102
end by those that M 102
end the hope that M 101
end or ends for M 101
end of your dog M 101
end of test and M 101
end he must use M 101
end he acts for M 101
end up reading them M 100
end up paying her M 100
end up owning one M 100
end to your long M 100
end to tears and M 100
end to take off M 100
end to other end M 100
end to help her M 100
end or goal can M 100
end of years and M 100
end of their log M 100
end of even one M 100
end it will get M 100
end is also its M 100
end he opts for M 100
end be only one M 100
end at last was M 100
end we want them M 99
end we have this M 99
end the body was M 99
end so great and M 99
end we must let M 98
end we find this M 98
end to leave its M 98
end to debt and M 98
end the pain was M 98
end of what this M 98
end of spring was M 98
end of male and M 98
end of food and M 98
end it gave him M 98
end the rest are M 97
end the army had M 97
end by flying off M 97
end up taking off M 96
end up paying any M 96
end up having him M 96
end the truth was M 96
end the plan had M 96
end the list was M 96
end of week and M 96
end of wars for M 96
end of some new M 96
end of just two M 96
end my pain who M 96
end be less than M 96
end be just and M 96
end up there are M 95
end to send them M 95
end to open and M 95
end the fire was M 95
end in such and M 95
end he asks for M 95
end we will try M 94
end we will now M 94
end we were our M 94
end we made our M 94
end up like two M 94
end to ward off M 94
end the trial with M 94
end the only things M 94
end of some low M 94
end of peace with M 94
end of nice things M 94
end of making war M 94
end of home and M 94
end of deep and M 94
end is upon him M 94
end in view each M 94
end in time can M 94
end he only had M 94
end he must see M 94
end if there had M 93
end we were for M 92
end up liking this M 92
end up here too M 92
end up hating both M 92
end to their ill M 92
end to send him M 92
end to month end M 92
end to lose his M 92
end to live with M 92
end the talk and M 92
end the note with M 92
end the best and M 92
end the army and M 92
end of town she M 92
end of town can M 92
end of their deal M 92
end of sixth and M 92
end of rest and M 92
end of mass she M 92
end of hate and M 92
end of anger and M 92
end it here with M 92
end is ideal for M 92
end is also put M 92
end in fine and M 92
end to turn them M 91
end to their air M 91
end of line was M 91
end is what they M 91
end up losing and M 90
end to these few M 90
end to know who M 90
end on those who M 90
end of wood and M 90
end of time her M 90
end of theory and M 90
end of line has M 90
end of book and M 90
end is told with M 90
end he fell ill M 90
end up having far M 89
end to pick them M 89
end to make our M 89
end to have any M 89
end the heart and M 89
end of their death M 89
end we lost all M 88
end we look for M 88
end up once they M 88
end up beating you M 88
end to leave her M 88
end to keep things M 88
end of their area M 88
end of line are M 88
end of life now M 88
end of caring for M 88
end is left for M 88
end he just had M 88
end as their own M 88
end we knew that M 87
end the pain for M 87
end of same year M 87
end by saying with M 87
end we must win M 86
end we left him M 86
end up owning and M 86
end up more and M 86
end up asking them M 86
end to your war M 86
end to talk and M 86
end to pull out M 86
end to find all M 86
end to cost him M 86
end the means are M 86
end or rule than M 86
end of spring with M 86
end no years can M 86
end in mind they M 86
end he knew was M 86
end by liking you M 86
end up paying this M 85
end to find its M 85
end we lost our M 84
end up making far M 84
end up hating and M 84
end to mate with M 84
end to have all M 84
end the test with M 84
end the poor old M 84
end of these old M 84
end of these big M 84
end of making its M 84
end of half that M 84
end of airs and M 84
end is want and M 84
end we went for M 83
end we hope for M 83
end to show its M 83
end to care for M 83
end in view both M 83
end up seeing her M 82
end up living near M 82
end up buying new M 82
end to what our M 82
end to have its M 82
end the root had M 82
end of time being M 82
end of many who M 82
end of days you M 82
end is torn off M 82
end is shut off M 82
end to have this M 81
end the good and M 81
end of life did M 81
end up giving his M 80
end the holy one M 80
end of road and M 80
end of making each M 80
end of buying and M 80
end it left him M 80
end is even now M 80
end at home with M 80
end in giving them M 78
end by asking him M 73
end on your own M 71
end the rate war M 70
end in some one M 70
end by taking his M 67
end my love for M 64
end in what has M 64
end at once with M 63
end the last two M 62
end if next this M 61
end by living with M 61
end of your ten M 60
end is coming near M 58
end to life that M 57
end or good that M 56
end up buying that M 55
end of their tow M 55
end to take out M 54
end the third and M 54
end by fire and M 54
end the other two M 53
end the fast and M 53
end of even that M 53
end by seeing them M 53
end to years end M 52
end on more than M 52
end of west end M 52
end of hope that M 52
end in making all M 52
end in calm and M 52
end by taking her M 52
end by making this M 52
end we went out M 51
end to your being M 51
end to west end M 51
end so soon that M 51
end by making our M 51
end up seeing that M 50
end to deny that M 50
end the evil that M 50
end is also near M 50
end he made all M 50
end by taking them M 50
end at once his M 50
end to side and M 49
end the gods are M 49
end by acting for M 49
end the hope for M 48
end in making men M 48
end up there one M 47
end the very day M 47
end of hall and M 47
end in life that M 47
end by making use M 47
end to meet his M 46
end the work and M 46
end the same for M 46
end is just one M 46
end he dealt with M 46
end we were going M 45
end up moving out M 45
end to back end M 45
end so there was M 45
end it runs out M 45
end in those who M 45
end at your death M 45
end as well for M 45
end up back out M 44
end to hate and M 44
end to find them M 44
end in some far M 44
end he knew how M 44
end he held his M 44
end by taking out M 44
end the same and M 43
end so soon was M 43
end in what may M 43
end in their day M 43
end at once for M 43
end as food for M 43
end the third day M 42
end the show was M 42
end or even that M 42
end of their non M 42
end of such ten M 42
end of said two M 42
end in other than M 42
end in nothing that M 42
end he sent them M 42
end by hating her M 42
end by adding that M 42
end at once its M 42
end up meaning that M 41
end up giving each M 41
end to their two M 41
end the date and M 41
end of their man M 41
end of their arm M 41
end my life but M 41
end by some one M 41
end to make and M 40
end the cost was M 40
end of their then M 40
end of their lead M 40
end of love that M 40
end is very long M 40
end is there for M 40
end in talk and M 40
end by losing its M 40
end up having sex D 3196
end of cape cod D 2854
end of cheap oil D 2384
end if exit sub D 1868
end of your bed D 1287
end of romeo and D 1034
end of your tax D 1020
end the film with D 1006
end the rearing and D 926
end the bill was D 921
end of tibia and D 884
end up voting for D 867
end of loch awe D 862
end of your car D 854
end the gulf war D 787
end of their bed D 677
end of their row D 620
end is flat and D 595
end of your rod D 592
end of iron age D 506
end he took his D 504
end at least one D 460
end of your gun D 445
end of lent and D 444
end of loch earn D 441
end in dust and D 440
end of your pen D 436
end of much ado D 423
end the poll tax D 422
end of tube and D 412
end of fine art D 407
end of rows with D 406
end up paying tax D 404
end of their car D 400
end of rope and D 391
end up siding with D 384
end of their art D 354
end of anal fin D 354
end in leaving our D 340
end of tube with D 338
end to cope with D 332
end of tithing all D 320
end of last row D 319
end of wire and D 318
end in coma and D 317
end is thick and D 312
end of lake mead D 296
end of java and D 294
end of next row D 291
end of gulf war D 287
end of their tax D 283
end of pipe and D 281
end of west bay D 278
end the inning and D 276
end of your row D 270
end the lease and D 267
end of main rod D 266
end by loving him D 264
end it paid off D 254
end the feud with D 249
end in tiny air D 249
end of great art D 244
end of string and D 243
end of camp and D 242
end at least two D 238
end by fusing with D 237
end up facing each D 236
end of your toes D 236
end up opting for D 234
end of their toes D 234
end of your swing D 228
end of lake van D 214
end of their swing D 213
end of sins and D 212
end the wall was D 210
end of south bay D 210
end the soil was D 203
end of bringing all D 202
end he took her D 202
end of fuss and D 200
end of their sex D 198
end by bringing them D 198
end up leaving them D 193
end the vote was D 192
end of ulna and D 192
end the film was D 191
end of nose and D 190
end of bringing out D 190
end at least for D 189
end up filing for D 186
end to their fun D 186
end of tibia with D 186
end up leaving you D 180
end of wage and D 180
end the boat was D 178
end of crop year D 176
end he rose and D 176
end up leaving him D 174
end the feud and D 174
end of bringing them D 172
end the rope was D 170
end of wire with D 164
end to laws that D 161
end he paid for D 160
end he threw his D 158
end he took out D 153
end by loving her D 153
end of rats for D 152
end it took him D 152
end the pope was D 150
end of their pen D 148
end of rope that D 147
end by wearing out D 147
end up leaving her D 146
end the inning with D 146
end of cord and D 145
end on foot ere D 143
end of said car D 143
end up like mom D 142
end of your sex D 142
end be paid for D 142
end it took its D 141
end up leaving with D 140
end the task was D 140
end at least with D 137
end of tape and D 136
end of rope with D 136
end up loving him D 134
end up like dad D 134
end by loving you D 131
end of north bay D 130
end of bringing him D 130
end my wife and D 130
end is nigh and D 130
end of nave and D 129
end of their pew D 128
end of bull run D 128
end it took two D 128
end of your dad D 126
end of coil and D 126
end he took all D 126
end of park row D 125
end of such tax D 124
end is very thin D 124
end is shod with D 124
end of your shoe D 122
end of gold and D 122
end at least was D 121
end up loving them D 118
end of last ice D 118
end of heating and D 118
end of cape may D 118
end of your tie D 117
end up having fun D 116
end to thick end D 116
end the string with D 116
end at least hath D 115
end up wearing them D 114
end of town rang D 114
end of tail fin D 114
end by leaving you D 114
end by leaving her D 114
end of jack and D 112
end of yarn and D 111
end he took him D 111
end to vote for D 110
end of dust and D 110
end of bread and D 110
end of rock and D 108
end up ruling out D 106
end up loving her D 106
end of rows and D 106
end of radio and D 106
end of iron and D 106
end of back bay D 106
end the wire was D 105
end of cheap and D 104
end the race for D 103
end he took off D 103
end of true art D 102
end of their sting D 102
end he took with D 102
end of their beak D 101
end by loving his D 101
end up coping with D 100
end of yarn with D 100
end of salt and D 100
end is hinged and D 100
end of film and D 99
end he took them D 98
end to their ears D 96
end up voting with D 94
end the gold may D 94
end of bringing men D 94
end up leaving for D 93
end of tubing with D 93
end the puma and D 92
end is nigh for D 92
end of lent was D 90
end by leaving them D 90
end to cull out D 89
end the navy had D 89
end up leaving out D 88
end of their fun D 86
end of loch long D 86
end up loving each D 85
end to rioting and D 84
end to race and D 84
end the feud that D 84
end of pomp and D 84
end of guns and D 84
end he drew his D 84
end we took him D 82
end up hiring you D 82
end the laws can D 82
end the joke was D 82
end or foot that D 82
end of waging war D 82
end of their gun D 82
end of cord that D 81
end of race and D 80
end in bringing sir D 80
end he paid his D 80
end by voting for D 61
end the tube was D 60
end the pope had D 57
end of tubing and D 53
end of nose with D 46
end at least six D 46
end an inch and D 46
end the bars are D 42
end the bill had D 41
end to mingle with D 40
end the duke was D 40
end the cans are D 40
end it took them D 40
