ends are to be M 14714
ends and in the M 8290
ends and at the M 5415
ends than in the M 3760
ending one of the M 3044
ends this is the M 2574
ends one of the M 2468
ends not in the M 2253
ends had to be M 2207
ends and to the M 2206
ends are in the M 2138
ends and on the M 2136
ends than at the M 2046
ends and of the M 2045
ends out of the M 1966
ends are at the M 1668
ends and it is M 1434
ends with the king M 1340
ends due to the M 1336
ends are on the M 1296
ends are of the M 866
ends and by the M 843
ends that it is M 784
envy are at an M 682
ending had to be M 664
ends each of the M 581
ends and to be M 571
ending with the king M 554
ends may be of M 528
ending was to be M 511
ends has to be M 494
ends set by the M 486
ends but in the M 484
envy him in the M 478
ending has to be M 472
ends and so on M 448
ends may be in M 447
ends may be the M 434
ends both of the M 434
envy than if it M 408
ends lie in the M 400
envy you in the M 378
ends and as to M 378
envy them in the M 375
ends and he is M 373
ends was to be M 358
ends than to the M 358
ends than it is M 357
ends not to be M 354
ending and in the M 350
ends lie on the M 342
ending each of the M 336
ends all of the M 330
ending that is the M 330
ends than on the M 316
ends lying on the M 315
envy and so on M 305
ending day of the M 302
envy any of the M 296
ending and of the M 294
ending and it is M 292
ends with the so M 283
ends set up by M 283
ends can be the M 276
ends can be so M 276
envy and to the M 270
ending that it is M 268
ends lying in the M 266
ending out of the M 258
ends are to the M 256
ending may be the M 249
ends that go to M 248
ends that is the M 246
ends but it is M 245
ends being in the M 244
ends being at the M 242
ends and if the M 241
ends that of the M 234
ends not on the M 227
ends and as the M 225
envy and of the M 224
ends war of the M 224
ending year of the M 220
ends that we do M 216
ends not at the M 213
ends off of the M 211
ending than in the M 210
ends and in so M 203
ends and is the M 201
ending with the so M 201
envy was at the M 200
ends but to the M 195
ends him on the M 194
ends but of the M 184
ending due to the M 180
envy him as he M 176
ends may it be M 176
ends lay in the M 176
ends and to do M 176
ends but at the M 173
ends led to the M 172
ends cut at an M 168
ending aid to the M 168
envy him if he M 166
ending them in the M 166
ends with an in M 164
ending and at the M 163
envy out of the M 162
ending not in the M 162
ending day of it M 160
ends than he is M 159
ends may be so M 154
ends lay on the M 154
ends and so the M 150
ending was in the M 150
ending song of the M 150
envy you to be M 148
ending ere it is M 148
ends not in an M 145
ends and we go M 144
ending and so is M 144
ends owing to the M 143
envy not to be M 142
ends may be as M 139
ending war in the M 134
ends lead to the M 129
envy and by the M 127
ends out on the M 127
ends may be to M 127
ends are as if M 126
ending use of the M 126
ends and is in M 125
ends than is the M 124
envy you is the M 122
ends that he is M 120
ends out to the M 120
ends are by no M 120
ends out in the M 119
ends but on the M 118
ends but as the M 118
ends with it in M 117
ending and by the M 117
envy that it is M 116
envy him as we M 116
ends with an up M 116
ending that is in M 116
envy out of my M 114
envy that is so M 113
envy and on the M 112
ending and to the M 112
envy that is the M 111
ends than do the M 111
ends for us in M 111
ends and up to M 109
ending war on the M 108
envy may be the M 106
ends but by the M 106
ends and is to M 106
ends with is the M 104
ending that is no M 104
ends than by the M 103
ends set in the M 102
ends may be at M 102
ending was by no M 102
ends set up in M 101
ends are in an M 101
ends may be an M 98
ending tag is the M 98
ends but is the M 97
ends are in no M 97
ends but as an M 95
ends than of the M 94
ends for us to M 94
ending him by the M 94
envy and it is M 93
ends lie at the M 93
ends that is to M 92
ends and as an M 92
ends and so to M 91
envy may be an M 90
envy any of my M 90
ends was in the M 90
ending joy to the M 90
envy that he is M 89
ends and we do M 89
ending with it in M 88
envy that of the M 85
ending all of the M 84
ends and go to M 83
envy has to be M 81
ends thus in the M 80
ends both in the M 70
ends with it as M 68
ending but in the M 68
ending but it is M 65
ends out at the M 59
ending and on the M 59
ends yet to be M 56
ends add up to M 56
ends that in the M 53
ends out of an M 53
envy one of the M 51
ending that is so M 51
ends with us in M 50
ending that is as M 49
ending are to be M 47
ends being on the M 46
ending path of the M 46
envy and at the M 45
ending can be the M 44
envy and to be M 42
ends cut on the M 42
ending may be an M 42
ends and if it M 41
envy and in the M 40
ends than as an M 40
ends for us the M 40
ends and the sea D 853
ends with the re D 296
ends with the sea D 214
ends met in the D 161
ending with the re D 127
ends met by the D 104
ends with an ad D 98
envy sung at the D 94
ends near the sea D 40
