gap which i had M 274
gap until a new M 166
gap where i had M 156
gap which i was M 86
gap within a few M 80
gay since i was D 328
gas within a few D 316
gay scene i had D 176
gas after a few D 162
gay until i was D 126
gas pedal a few D 122
gas while i was D 106
gas under a long D 102
gas casts a long D 102
gas pedal a bit D 92
gas within a gas D 71
