go up and down M 171866
go on with your M 96507
go on for ever M 87433
go on with their M 64380
go on for years M 33896
go to his room M 33202
go to any length M 32070
go to her room M 30816
go of her hand M 28619
go to war over M 21065
go to and from M 20005
go on with what M 19817
go in and take M 18843
go on for some M 18544
go as far back M 16943
go in and have M 16850
go of his hand M 16681
go on and tell M 16628
go to his home M 16621
go if you want M 16444
go to any other M 16356
go so far away M 13183
go on for many M 12777
go on for days M 12316
go in and tell M 11917
go in and look M 11872
go in and talk M 11564
go on doing what M 11239
go on with life M 11068
go at any time M 10989
go on and make M 10628
go up and take M 10038
go so far back M 9800
go on and take M 9562
go of each other M 9486
go so far from M 8798
go to for help M 8389
go in and make M 8369
go up and look M 8363
go to any part M 8267
go to see what M 7963
go to see your M 7853
go up and tell M 7752
go to his work M 7544
go at each other M 7486
go in and find M 7302
go to her home M 7206
go if you like M 7166
go on this trip M 7056
go on and have M 7024
go to all those M 7022
go up and talk M 6998
go up and have M 6788
go on with these M 6248
go by that name M 6205
go on any more M 6170
go by all means M 6148
go to him when M 5851
go on and leave M 5842
go to each other M 5841
go in for such M 5672
go on with such M 5520
go at this time M 5300
go to one side M 5210
go to war when M 5201
go to get away M 5153
go to any more M 4868
go in and come M 4854
go on and find M 4758
go if you wish M 4729
go at that time M 4697
go on for three M 4682
go as far away M 4653
go in and help M 4527
go on and give M 4522
go in for some M 4481
go on for more M 4354
go to that part M 4231
go up and speak M 4188
go on out there M 4151
go as far north M 3823
go to all these M 3758
go to see their M 3750
go to our room M 3724
go if you will M 3628
go as they will M 3594
go as far south M 3586
go so far into M 3534
go on and play M 3531
go in for more M 3484
go if you have M 3404
go to get your M 3369
go in and give M 3362
go on with other M 3354
go to this site M 3314
go on and talk M 3306
go in and speak M 3296
go in any case M 3251
go if you must M 3204
go of her hair M 3185
go on with some M 3172
go to that city M 3167
go on and live M 3127
go on with more M 3108
go up and come M 3034
go up and over M 2973
go if you were M 2921
go to any great M 2870
go to get help M 2833
go to this length M 2803
go up and make M 2790
go to her when M 2770
go on for five M 2716
go to that length M 2701
go to see some M 2684
go in with your M 2643
go on one side M 2642
go to get their M 2631
go to war only M 2605
go on for ages M 2604
go on and look M 2540
go in and clean M 2532
go in and rest M 2514
go in for these M 2506
go in and play M 2496
go if they were M 2461
go on for very M 2459
go up and help M 2406
go on and show M 2406
go in and wait M 2395
go on that trip M 2384
go in any other M 2362
go up and find M 2320
go to get some M 2306
go to day care M 2288
go on for much M 2272
go by his name M 2258
go as they wish M 2235
go up and fall M 2231
go in and pick M 2214
go to get what M 2189
go to them when M 2135
go to that much M 2125
go to key west M 2096
go to that other M 2083
go on for half M 2070
go on with great M 2030
go in for what M 2000
go in and kill M 1994
go by this name M 1989
go up and give M 1956
go in that room M 1953
go up and stay M 1945
go on with those M 1932
go as you like M 1931
go on and work M 1891
go of her arms M 1878
go on doing your M 1871
go to his shop M 1868
go to his help M 1868
go on for four M 1843
go of all your M 1842
go in and meet M 1786
go on and keep M 1775
go to his bank M 1767
go on and learn M 1752
go at any length M 1734
go to pay their M 1730
go as you wish M 1720
go in and join M 1714
go to that side M 1701
go on doing their M 1689
go as far west M 1668
go to that land M 1634
go to get back M 1629
go to this much M 1622
go as far down M 1614
go so far north M 1608
go to that room M 1595
go up and meet M 1594
go in and call M 1589
go to his post M 1588
go in and work M 1578
go to see these M 1577
go as they like M 1562
go to our heads M 1560
go of his anger M 1558
go up for ever M 1547
go in and face M 1546
go at all well M 1546
go up and join M 1538
go to his next M 1524
go to our work M 1513
go in and shut M 1506
go to her work M 1489
go of her anger M 1478
go to them from M 1470
go on and speak M 1467
go as far into M 1466
go in his room M 1446
go in and stay M 1442
go to see miss M 1428
go to that town M 1425
go in and pray M 1420
go to this book M 1417
go in and wash M 1415
go on you will M 1412
go to that great M 1409
go in for those M 1406
go to that page M 1403
go to war even M 1396
go as they were M 1376
go on and meet M 1372
go in with their M 1354
go in for your M 1348
go to his rest M 1340
go if they want M 1331
go on all over M 1325
go in two days M 1321
go to any city M 1319
go to new south M 1315
go if you need M 1307
go on being used M 1302
go at any rate M 1289
go to our home M 1286
go up that hill M 1282
go on being what M 1280
go to him from M 1279
go to that site M 1270
go as far from M 1270
go in and show M 1261
go at one time M 1260
go to that same M 1258
go on doing good M 1251
go to any such M 1244
go in and just M 1238
go to that kind M 1236
go in for their M 1232
go to see those M 1228
go up one side M 1217
go to and what M 1210
go on and call M 1208
go in for much M 1206
go to this other M 1200
go to his side M 1197
go so far down M 1195
go to hear mass M 1194
go to and play M 1181
go on and help M 1181
go to his heart M 1177
go to too much M 1173
go up all over M 1162
go to too many M 1160
go to get more M 1142
go up and wash M 1140
go of his hair M 1138
go in and wake M 1138
go in her room M 1131
go to and come M 1127
go of old ways M 1124
go to her next M 1122
go on and kill M 1120
go at this hour M 1112
go in and turn M 1106
go to his heir M 1104
go in his name M 1103
go to her side M 1096
go in for high M 1090
go in for self M 1080
go to get there M 1065
go in and live M 1057
go to his cell M 1056
go on any other M 1056
go at any hour M 1056
go of our need M 1050
go in for making M 1042
go by any other M 1042
go so far even M 1028
go up and call M 1026
go to war must M 1020
go to get home M 1015
go to him there M 1013
go to our lord M 1012
go on too much M 1010
go on lying there M 1007
go on with only M 1004
go in and break M 1004
go to and stop M 997
go by with their M 991
go if you think M 990
go on and fill M 987
go up and play M 982
go on doing just M 982
go on and join M 980
go on not only M 978
go on and will M 978
go to his door M 976
go on too fast M 975
go on each side M 975
go so far south M 969
go to sit down M 968
go on and come M 966
go to war from M 960
go in and kiss M 959
go to his other M 958
go to war were M 956
go on and wait M 955
go up and back M 954
go so far wrong M 954
go on and grow M 954
go of all those M 954
go as they came M 953
go of his arms M 952
go in and save M 945
go up and kiss M 944
go to lie down M 940
go on with many M 936
go on and there M 931
go of his hold M 927
go on being good M 925
go in for heavy M 920
go up and some M 918
go to one more M 918
go to our lady M 916
go to say good M 914
go as you will M 914
go as they have M 913
go to law over M 904
go to our next M 892
go on with work M 888
go if she were M 888
go on this road M 884
go in and keep M 884
go up and wait M 878
go to her help M 874
go the way your M 872
go to war upon M 870
go in this case M 867
go by too fast M 867
go so far when M 862
go on doing nothing M 860
go to his sons M 856
go to hear what M 850
go in for mass M 848
go in and there M 847
go in his ship M 844
go to any kind M 842
go on being made M 841
go by and nothing M 837
go to any town M 834
go in and warm M 831
go be with your M 831
go on far into M 826
go to with their M 824
go in and clear M 821
go to you when M 820
go to his doom M 818
go to his left M 807
go in and stop M 800
go to his town M 795
go to buy some M 794
go on with less M 792
go on for only M 789
go to any port M 788
go to all their M 788
go on for over M 780
go of our fears M 780
go to her door M 770
go on being just M 769
go if they have M 769
go by and there M 767
go on doing these M 766
go up any more M 762
go on one more M 762
go to our rest M 760
go to get food M 759
go to this land M 758
go to this great M 758
go to see such M 754
go on this tour M 754
go on and think M 754
go at all into M 754
go to that tree M 752
go in and grab M 752
go on being your M 750
go to this kind M 746
go to that shop M 740
go by and pick M 740
go on being angry M 738
go up and rest M 736
go to all three M 736
go to war will M 734
go to get into M 729
go on and turn M 727
go to god when M 723
go to buy food M 723
go at that hour M 719
go in this time M 718
go in and pull M 716
go in and leave M 714
go on and pass M 704
go to this room M 702
go on that side M 701
go to all your M 700
go to war just M 698
go to buy your M 697
go on with mine M 694
go in for other M 690
go up and there M 688
go up and show M 688
go on and open M 688
go to that door M 684
go on using your M 684
go on using these M 684
go to with your M 678
go in with some M 678
go on our trip M 674
go of our anger M 672
go up this road M 668
go up this hill M 668
go on and save M 667
go to long beach M 666
go of old ideas M 658
go in this town M 657
go up that road M 656
go up one step M 656
go on for their M 656
go by that road M 654
go to him just M 650
go to war like M 648
go on and when M 638
go on and even M 638
go up than down M 636
go up and turn M 636
go to his tomb M 636
go on and seek M 628
go to its making M 627
go up with their M 622
go to that home M 622
go in ten days M 622
go to him like M 620
go on with living M 620
go on that road M 616
go in and what M 615
go if you feel M 615
go of our self M 611
go of her past M 610
go on being like M 609
go on and pick M 606
go up and work M 603
go to her heart M 603
go to pay your M 602
go if they wish M 600
go on and what M 597
go in and open M 597
go to war there M 592
go at any other M 590
go to this page M 582
go of his past M 580
go in and walk M 580
go in this life M 579
go in and learn M 576
go to this work M 574
go at any cost M 574
go on all their M 573
go on and face M 571
go up with your M 568
go to his lord M 568
go on and stay M 568
go in one side M 566
go as you want M 565
go up and bury M 563
go in and hold M 561
go to that very M 560
go on with much M 560
go as they list M 555
go to war once M 554
go on and hope M 550
go in for very M 550
go on using their M 547
go in and drag M 546
go to his duty M 544
go to her till M 538
go in too much M 538
go up and live M 537
go up and stop M 536
go to this town M 536
go to his land M 536
go to any good M 532
go or you will M 532
go on was what M 532
go by any means M 532
go in this part M 531
go to his last M 530
go on this great M 530
go on and must M 530
go my own ways M 530
go on and rest M 529
go on with ever M 528
go in too deep M 528
go by you will M 526
go by this road M 525
go up and keep M 524
go of his life M 524
go on and break M 522
go of this life M 522
go up and when M 520
go in one door M 520
go in for life M 520
go in for half M 519
go up nor down M 518
go to top early M 518
go to any bank M 518
go to his ship M 517
go to any means M 517
go to this play M 516
go to that sort M 515
go in that door M 515
go or how much M 514
go of his dream M 513
go of our past M 510
go to him very M 509
go up for your M 506
go to our deaths M 506
go of all these M 506
go to far away M 504
go to buy their M 500
go up too high M 498
go to that show M 498
go on for such M 498
go up and wake M 496
go to hear some M 496
go up one more M 494
go to his book M 494
go to her rest M 494
go of them when M 494
go in any time M 492
go so far along M 490
go on they will M 490
go on and sell M 490
go of her fears M 490
go in for having M 490
go in and steal M 490
go on long leave M 489
go as you have M 485
go to for their M 484
go in this book M 484
go of her face M 483
go on and name M 482
go to them only M 478
go on for nine M 478
go on this side M 477
go to him once M 475
go up for some M 472
go up and kill M 471
go by with nothing M 471
go on with till M 470
go up that high M 468
go on for page M 468
go on doing wrong M 468
go to that port M 466
go on being born M 466
go of her need M 466
go at that rate M 466
go in and feed M 465
go to this same M 464
go by and tell M 464
go on for most M 463
go on and list M 462
go so far west M 461
go on lying here M 460
go to him soon M 458
go on and teach M 458
go on all your M 458
go if they need M 458
go so far only M 456
go in for good M 456
go to this city M 455
go to get from M 454
go of his need M 454
go in and kick M 453
go in and fill M 453
go to lay their M 450
go on and hold M 450
go in and sign M 449
go in this room M 448
go in this city M 447
go so far ahead M 446
go on each page M 445
go on and reach M 442
go to that there M 438
go up and pick M 436
go to this very M 436
go to him till M 435
go to that lady M 434
go to our jobs M 434
go to its full M 434
go to any body M 434
go on with good M 434
go in for free M 434
go up and break M 432
go to you from M 432
go to her like M 432
go on for your M 432
go in that time M 432
go of one hand M 430
go in this work M 430
go in that case M 429
go to her only M 428
go on one step M 428
go up for their M 426
go up and their M 426
go on his land M 426
go in and when M 426
go to things like M 425
go on all four M 424
go of that dream M 424
go to any ends M 423
go to and talk M 423
go on this date M 420
go on being there M 420
go to this side M 419
go if you tell M 418
go in and teach M 416
go in for just M 415
go in and land M 415
go to and stay M 414
go on and just M 413
go to his meals M 412
go on for what M 411
go up too much M 410
go to url text M 410
go to top other M 410
go to that game M 410
go as they come M 410
go on and stop M 409
go to two other M 408
go to him even M 407
go up and your M 406
go to see other M 406
go on and walk M 406
go in and wipe M 406
go up and view M 402
go to war during M 402
go on and send M 402
go by and your M 402
go as you came M 400
go to that poor M 398
go on and cite M 398
go to one part M 396
go to its help M 394
go to her shop M 394
go on that ship M 394
go on his trip M 394
go on and lose M 392
go up too fast M 391
go in for nothing M 388
go to him whom M 387
go to his city M 386
go in for work M 386
go by and look M 385
go by and talk M 382
go to see lady M 378
go in his ways M 378
go on for just M 377
go of her dream M 377
go to that high M 374
go on with very M 372
go by and take M 371
go on and draw M 368
go up and walk M 366
go to his great M 366
go to get these M 366
go to for your M 366
go on and gain M 366
go to his cave M 364
go in and view M 364
go if you take M 364
go by this post M 364
go to any depth M 363
go at this rate M 363
go to that good M 362
go in for many M 362
go in and thank M 362
go on and risk M 360
go on all these M 359
go to for what M 358
go on one last M 358
go on being kind M 358
go to her there M 356
go so far here M 356
go of that part M 356
go to one cell M 355
go by and leave M 355
go to see poor M 354
go to get well M 354
go on long like M 354
go to and live M 353
go on that date M 353
go on being poor M 353
go to this part M 352
go my own dark M 352
go in and edit M 352
go to say mass M 351
go in and sell M 351
go to war have M 350
go to war among M 350
go to him only M 350
go on with nothing M 350
go on out into M 350
go of her hold M 350
go on dry land M 348
go to too great M 346
go of its hold M 344
go in with those M 344
go to each side M 343
go to any sort M 342
go on doing more M 342
go of that anger M 342
go if you give M 342
go is not clear M 341
go if you come M 340
go to his fate M 338
go to for more M 338
go up and will M 337
go up and just M 336
go to that nice M 336
go of his coat M 336
go if you know M 336
go in his life M 335
go if she will M 334
go to this show M 332
go to its home M 332
go on our ways M 332
go to get good M 330
go on doing work M 330
go as far along M 330
go in any kind M 328
go to his liking M 327
go my own road M 327
go up and open M 326
go to see lord M 326
go to her soon M 326
go of his breath M 325
go to that bank M 324
go if you leave M 323
go to that well M 322
go to its very M 321
go in each case M 321
go in for three M 320
go to her from M 318
go on eating their M 318
go of her when M 318
go in and blow M 317
go up and face M 316
go to this young M 316
go on doing well M 315
go on being nice M 314
go by they will M 314
go to that hill M 312
go on with full M 312
go of and what M 311
go in and swim M 311
go to get warm M 310
go in you will M 310
go in for deep M 309
go to that line M 308
go to and when M 308
go on our next M 308
go on any kind M 308
go in for five M 308
go in each other M 308
go up and clean M 307
go in her life M 307
go in and draw M 307
go to her bank M 306
go to each room M 306
go to all four M 306
go of his body M 306
go in for love M 306
go do not know M 305
go on any such M 304
go in any more M 304
go to war till M 302
go to cut wood M 302
go on this time M 302
go as they want M 302
go up for gain M 300
go up and vice M 300
go to her sons M 300
go in for reading M 300
go to see when M 299
go of her breath M 299
go at his work M 299
go up that tree M 298
go to his mind M 298
go of him when M 298
go by with only M 297
go in for show M 295
go to war more M 294
go to our good M 294
go on being true M 294
go as they seem M 294
go to her just M 292
go to and make M 292
go so far over M 292
go on singing their M 292
go in real life M 292
go by this time M 292
go to that holy M 290
go to bring back M 290
go on eating your M 290
go of her life M 290
go on any trip M 289
go in one hour M 289
go up and pull M 288
go so you will M 287
go to this lady M 286
go on and form M 286
go of her body M 286
go in for full M 286
go in and lock M 286
go to him next M 284
go to her last M 284
go on this very M 284
go in that ship M 284
go in his great M 284
go in too many M 282
go in any part M 282
go up and leave M 281
go to any high M 281
go up and grab M 280
go to that next M 280
go to that dark M 280
go to our bank M 280
go on that there M 280
go of our pain M 280
go by for giving M 280
go on and wash M 279
go to that young M 278
go to our great M 278
go on doing such M 278
go in this ship M 278
go if and when M 278
go to web site M 276
go the old road M 276
go in for when M 276
go in for buying M 276
go if she left M 276
go up and thank M 275
go up and away M 275
go to this well M 275
go on for even M 275
go up this time M 274
go on being able M 274
go in with these M 274
go if they will M 274
go if they knew M 274
go to that most M 272
go to that girl M 272
go to and vest M 272
go on doing evil M 272
go in for pure M 272
go to that hell M 271
go or they will M 271
go on with just M 270
go of all other M 270
go to her high M 269
go if they like M 269
go by one name M 269
go to and have M 268
go on being sick M 268
go to get such M 267
go to that lake M 266
go to get ready M 266
go so that when M 266
go on all those M 266
go in for great M 266
go up and pray M 264
go to put their M 264
go on they must M 264
go on than just M 264
go up and clear M 263
go to his living M 263
go on one line M 263
go in and send M 263
go by his side M 263
go to our last M 262
go in for less M 262
go of his self M 261
go to her even M 260
go to box hill M 260
go in her face M 260
go at his will M 260
go to that play M 258
go to its root M 258
go to any shop M 258
go on that line M 258
go on for those M 258
go to her lord M 257
go to that fine M 256
go on this ship M 256
go on that tour M 256
go in her name M 256
go on and love M 255
go on and feel M 255
go up and those M 254
go to this home M 254
go to them there M 254
go of his face M 254
go in that part M 254
go to old town M 252
go on two feet M 252
go on long into M 252
go on and nothing M 252
go of her self M 252
go up and hold M 251
go in for hard M 251
go to this last M 250
go to that body M 250
go to one whom M 250
go on this wild M 250
go on his last M 250
go on being done M 250
go to her very M 249
go to all ends M 249
go on with even M 249
go to her face M 248
go to any page M 248
go to any home M 248
go on that hill M 248
go on being more M 248
go in our room M 248
go in one pile M 248
go at any great M 248
go in and bathe M 247
go by this mail M 247
go to one shop M 246
go to him upon M 246
go to hear such M 246
go on than what M 246
go on but their M 246
go of his tail M 246
go to his part M 245
go up any time M 244
go to this girl M 244
go to earn their M 244
go the way their M 244
go of this anger M 244
go in two ways M 244
go if she knew M 244
go to war soon M 243
go to who will M 242
go to our other M 242
go to its bank M 242
go on his tour M 242
go on for want M 242
go of his game M 242
go in and warn M 242
go to web page M 241
go to that book M 240
go to his only M 240
go to her nest M 240
go to for ideas M 240
go on that show M 240
go on being very M 240
go to her once M 239
go to her other M 238
go on his face M 238
go of that pain M 238
go if you just M 238
go up this side M 237
go to all other M 237
go on and move M 237
go of all their M 237
go by any name M 237
go to them just M 236
go to any land M 236
go in and feel M 236
go by and have M 236
go to them very M 234
go to one room M 234
go to his three M 234
go to his lady M 234
go on two days M 234
go on his back M 234
go as far even M 234
go to war also M 233
go to our very M 233
go on his show M 233
go by and said M 233
go by air from M 233
go up with great M 232
go to this type M 232
go to hear their M 232
go on his next M 232
go on but there M 232
go on and were M 232
go by than what M 232
go to any post M 231
go to that beach M 230
go on doing some M 230
go in with what M 230
go in for home M 230
go to try their M 228
go on that last M 228
go of his fears M 228
go in and seek M 228
go by but their M 228
go in too soon M 227
go to this shop M 226
go to his dark M 226
go to bring home M 226
go on being such M 226
go of her baby M 226
go in and think M 226
go if they left M 226
go at them upon M 226
go up with some M 224
go to two more M 224
go to that work M 224
go to men like M 224
go to law when M 224
go to his ruin M 224
go on and pull M 224
go of any need M 224
go up that much M 223
go to that fair M 223
go to and there M 222
go to and find M 222
go on this last M 222
go on one page M 222
go in all their M 222
go by that line M 222
go to this fair M 220
go in and drop M 220
go to its doom M 219
go to them even M 218
go to his love M 218
go to get those M 218
go to death upon M 218
go on this line M 218
go on this hunt M 218
go if you left M 218
go do not want M 218
go at him like M 218
go on our road M 217
go at this from M 217
go to that cell M 216
go to his safe M 216
go in due time M 216
go in all these M 216
go to her cell M 215
go on one date M 215
go to war along M 214
go to for some M 214
go on for other M 214
go in his turn M 214
go up and drop M 213
go to any time M 212
go on and treat M 212
go of its tail M 212
go in and hide M 212
go if you knew M 212
go as and when M 212
go on and test M 211
go in his face M 211
go to them also M 210
go to his word M 210
go to his trial M 210
go on and also M 210
go if you ever M 210
go on and mind M 209
go in her mind M 209
go at them from M 209
go up his back M 208
go to pay back M 208
go to new hope M 208
go to her doom M 208
go on that walk M 208
go of our egos M 208
go of his left M 208
go in and sort M 208
go by its name M 208
go by each other M 208
go to this game M 207
go to its rest M 207
go to him early M 207
go to any single M 206
go to and learn M 206
go in for open M 206
go as any other M 206
go by his door M 205
go to that will M 204
go to that cold M 204
go to his arms M 204
go on for tens M 204
go on for life M 204
go of that last M 204
go by this rule M 204
go up and learn M 202
go to hear your M 202
go the way from M 202
go if they feel M 202
go by that time M 202
go as far wrong M 202
go to put your M 201
go to and leave M 201
go on too late M 201
go we may find M 200
go to his male M 200
go to him three M 200
go on singing till M 200
go on being young M 200
go to see many M 199
go on his part M 199
go to them like M 198
go to our cave M 198
go to law upon M 198
go on using such M 198
go on his road M 198
go on being told M 198
go on and said M 198
go of any part M 198
go to her baby M 197
go up and into M 196
go to win back M 196
go to this sort M 196
go to get work M 196
go on with lord M 196
go on and their M 196
go of her left M 196
go of all else M 196
go in with just M 195
go to this here M 194
go on you must M 194
go on with miss M 194
go on and some M 194
go of any anger M 194
go by that rule M 194
go by and pass M 194
go to buy more M 193
go up each time M 192
go to this poor M 192
go to his feet M 192
go to her three M 192
go to for such M 192
go on his note M 192
go on and fall M 192
go no one knew M 192
go in our time M 192
go to our town M 191
go on with half M 191
go in and lift M 191
go as you plan M 191
go to ask your M 190
go so far just M 190
go on and those M 190
go in any wise M 190
go in and part M 189
go up and send M 188
go to war three M 188
go to that many M 188
go to that cave M 188
go on but what M 188
go in his mind M 188
go in all over M 188
go to our duty M 186
go to his life M 186
go the one step M 186
go so far upon M 186
go on with reading M 186
go on and know M 186
go of his last M 186
go in this land M 186
go in each room M 186
go he can drag M 186
go as far ahead M 186
go to this tree M 185
go to that last M 184
go to say their M 184
go to one city M 184
go on and many M 184
go in this wide M 184
go in and pass M 184
go if they went M 184
go by and make M 184
go to each home M 183
go to one town M 182
go to each cell M 182
go on this list M 182
go on all week M 182
go in for land M 182
go in for four M 182
go at all when M 182
go in one step M 181
go to see from M 180
go to one site M 180
go to new areas M 180
go to hear these M 180
go to for wise M 180
go to cut down M 180
go to any beach M 180
go on our walk M 180
go on his feet M 180
go in for fine M 180
go up and kick M 179
go to get past M 179
go of that kind M 179
go of this need M 178
go to top list M 176
go on that plan M 176
go on being here M 176
go of that hand M 176
go in and move M 176
go as she came M 176
go to top life M 175
go up with those M 174
go to them once M 174
go to that file M 174
go to our many M 174
go to his high M 174
go to his face M 174
go to his best M 174
go on her trip M 174
go on both hand M 174
go in and burn M 174
go in all four M 174
go at them like M 174
go to get down M 173
go in this great M 173
go to that spring M 172
go in this your M 172
go to any site M 171
go by and give M 171
go to you know M 170
go to this icon M 170
go to pay these M 170
go to any type M 170
go or with whom M 170
go on this kind M 170
go on has been M 170
go of you when M 170
go of her pain M 170
go in one room M 170
go in and push M 170
go up for more M 169
go up and move M 169
go to this next M 168
go on that same M 168
go on his side M 168
go on but when M 168
go on being part M 168
go of our ideas M 168
go in this line M 168
go in this door M 168
go in for only M 168
go if you plan M 168
go by and wait M 168
go by and their M 168
go up and hunt M 167
go on and very M 167
go in with only M 167
go up and pass M 166
go to this holy M 166
go to his poems M 166
go to her great M 166
go of his pain M 166
go up her back M 165
go up and what M 165
go to this high M 165
go to one single M 165
go of too much M 165
go to our side M 164
go to one other M 164
go on thus much M 164
go on and hunt M 164
go of that hope M 164
go of old ones M 164
go in this rain M 164
go in for early M 164
go in and weep M 164
go by that were M 164
go as they went M 164
go up and left M 163
go to that time M 163
go up all those M 162
go to them soon M 162
go to him more M 162
go to him during M 162
go to and tell M 162
go the low road M 162
go on with when M 162
go on eating till M 162
go of his feet M 162
go in all three M 162
go at his call M 162
go as they think M 162
go so that your M 161
go to his girl M 160
go the long road M 160
go on out back M 160
go of her other M 160
go of her last M 160
go in his arms M 160
go in and hunt M 160
go if she once M 160
go up this week M 158
go to see more M 158
go to get laid M 158
go to both these M 158
go on being wrong M 158
go it was just M 158
go in his paths M 158
go if they must M 158
go by his true M 158
go as you hope M 158
go to his very M 157
go on with three M 157
go in this kind M 157
go in for saving M 157
go up with these M 156
go up and more M 156
go to that wood M 156
go to that link M 156
go to him some M 156
go to any play M 156
go on using those M 156
go on thus from M 156
go on that very M 156
go on her face M 156
go on eating like M 156
go by that town M 156
go as far here M 156
go on and only M 155
go to that fire M 154
go to see just M 154
go to his play M 154
go on this walk M 154
go on this duty M 154
go on and pray M 154
go of that need M 154
go of her feet M 154
go in this week M 154
go as she will M 154
go of this book M 153
go in with three M 153
go in any sort M 153
go if they know M 153
go as you were M 153
go up they will M 152
go to its site M 152
go to his army M 152
go to her come M 152
go to hear good M 152
go on being their M 152
go on and plan M 152
go of her just M 152
go of her only M 151
go do not have M 151
go as you list M 151
go up and push M 150
go to war ever M 150
go to this beach M 150
go to his wake M 150
go to his half M 150
go to him will M 150
go to get wood M 150
go on any road M 150
go by but what M 150
go in two years M 149
go in for food M 149
go by one road M 149
go at this late M 149
go up you must M 148
go to this lake M 148
go to them next M 148
go to that depth M 148
go to its heart M 148
go to her young M 148
go to all such M 148
go on nor turn M 148
go in with other M 148
go if one sees M 148
go by any road M 148
go to any show M 147
go at him from M 147
go up and cast M 146
go to you there M 146
go to one kind M 146
go to his beach M 146
go to him fast M 146
go to her heir M 146
go to and feel M 146
go on and push M 146
go by that there M 146
go by air mail M 146
go as you think M 146
go on had been M 145
go of his other M 145
go up for trial M 144
go up for those M 144
go to our land M 144
go on for good M 144
go on being busy M 144
go in and plead M 144
go if you went M 144
go up and feel M 142
go to this hunt M 142
go to see life M 142
go to her sick M 142
go to get free M 142
go so low down M 142
go of one side M 142
go of all hope M 142
go it had been M 142
go in and wish M 142
go an age back M 142
go to you next M 141
go if she felt M 141
go up and warn M 140
go to war next M 140
go to her must M 140
go to any room M 140
go or she will M 140
go on but some M 140
go in you have M 140
go in this game M 140
go by and spring M 140
go as she went M 140
go to its most M 138
go to his young M 138
go to his eyes M 138
go to him also M 138
go to get jobs M 138
go to far more M 138
go on that land M 138
go of this pain M 138
go it has been M 138
go in that same M 138
go in his eyes M 138
go in for taking M 138
go in and pour M 138
go in and hand M 138
go by his home M 138
go up and shut M 137
go to and form M 137
go up you will M 136
go to war single M 136
go to that type M 136
go to her tomb M 136
go or are sent M 136
go on doing those M 136
go in too early M 136
go in this hole M 136
go if she told M 136
go to war less M 135
go to this time M 135
go to see only M 135
go to put down M 135
go or how many M 135
go on and sign M 135
go by and these M 135
go to you will M 134
go to war made M 134
go to his sick M 134
go to and take M 134
go of his work M 134
go of both keys M 134
go in that other M 134
go by and more M 134
go by and just M 134
go at his time M 134
go to that post M 133
go to hear live M 133
go on not just M 133
go on but will M 133
go in and only M 133
go up with high M 132
go up for life M 132
go to this fine M 132
go to red hill M 132
go to our door M 132
go to and some M 132
go on too many M 132
go on ten years M 132
go on any part M 132
go on and clear M 132
go in with great M 132
go in that hole M 132
go in for jobs M 132
go in for anti M 132
go in and root M 132
go by this ship M 132
go by her name M 132
go at this work M 132
go up and hide M 131
go up and burn M 131
go to this hell M 131
go on and jump M 131
go if you stay M 131
go to war some M 130
go to his back M 130
go to her best M 130
go to fit into M 130
go to any able M 130
go so that there M 130
go so that nothing M 130
go on than their M 130
go on she said M 130
go on long runs M 130
go on her feet M 130
go on for these M 130
go of old fears M 130
go in with full M 130
go in one more M 130
go in for wild M 130
go by was what M 130
go by and think M 130
go up and fill M 129
go to far west M 129
go on with ours M 129
go in and down M 129
go up not only M 128
go up for three M 128
go up and drag M 128
go to god only M 128
go to get even M 128
go to each line M 128
go to and were M 128
go to and look M 128
go on this page M 128
go on not seeing M 128
go on for lack M 128
go in they will M 128
go in one ship M 128
go in all trial M 128
go to war means M 127
go on you know M 127
go in and shop M 127
go up that side M 126
go to this bank M 126
go to his hold M 126
go to her some M 126
go on with hope M 126
go on two years M 126
go on this case M 126
go on singing when M 126
go on out here M 126
go on and went M 126
go of that girl M 126
go in for post M 126
go in and lose M 126
go by his room M 126
go at any risk M 126
go up and feed M 125
go to win their M 124
go to them during M 124
go to his good M 124
go to and work M 124
go on and feed M 124
go on and burn M 124
go of our hold M 124
go in this good M 124
go in her eyes M 124
go if you told M 124
go to real life M 123
go of our will M 123
go as had been M 123
go to this post M 122
go to our ship M 122
go to one such M 122
go to buy what M 122
go to any meals M 122
go on that theory M 122
go on for from M 122
go in this other M 122
go in that cave M 122
go in for peace M 122
go by with some M 122
go by that door M 122
go at our work M 122
go at his side M 122
go to lay down M 121
go in and risk M 121
go to sit next M 120
go to its next M 120
go to hear those M 120
go to buy fish M 120
go on that list M 120
go on that kind M 120
go on nor back M 120
go of his side M 120
go of his safe M 120
go of his mind M 120
go of her coat M 120
go in with such M 120
go in this same M 120
go in one body M 120
go in nor come M 120
go in for lots M 120
go in for giving M 120
go in any such M 120
go by that ever M 120
go at that late M 120
go up and fire M 119
go so they will M 119
go on and clean M 119
go by and will M 119
go to this good M 118
go to our cold M 118
go to one when M 118
go to its great M 118
go to his toil M 118
go to his game M 118
go to any work M 118
go to air your M 118
go on with making M 118
go on but very M 118
go on being free M 118
go on and your M 118
go on and plead M 118
go of his rage M 118
go in doing what M 118
go if they leave M 118
go by she will M 118
go on far more M 117
go of things here M 117
go of any hope M 117
go in with more M 117
go by and when M 117
go up and hand M 116
go to them more M 116
go to one unit M 116
go to his hanging M 116
go to bear lake M 116
go to any cell M 116
go so far forth M 116
go on with high M 116
go of his faith M 116
go of him even M 116
go in his time M 116
go in and fire M 116
go to his well M 115
go on each other M 115
go up for many M 114
go to pay down M 114
go to earth like M 114
go to each page M 114
go the way other M 114
go on she must M 114
go on not having M 114
go on and more M 114
go on and ever M 114
go of all ideas M 114
go in you must M 114
go in this vast M 114
go in our life M 114
go if you find M 114
go as far when M 114
go or how fast M 113
go on and soon M 113
go on and fire M 113
go of this self M 113
go in and mark M 113
go up one unit M 112
go up all along M 112
go to this link M 112
go to its ruin M 112
go to his show M 112
go to her feet M 112
go to her fate M 112
go to hear other M 112
go to each site M 112
go to and nothing M 112
go or she must M 112
go on thus like M 112
go on this show M 112
go on that page M 112
go on her show M 112
go on and left M 112
go of his true M 112
go in his term M 112
go in her once M 112
go in and treat M 112
go in and know M 112
go by them like M 112
go as they move M 112
go up and reach M 111
go of this kind M 111
go up with more M 110
go to say what M 110
go to our most M 110
go to has been M 110
go to get over M 110
go to for these M 110
go to bring their M 110
go on her walk M 110
go on doing till M 110
go on being hurt M 110
go on any time M 110
go of any self M 110
go of all anger M 110
go in this type M 110
go in this sort M 110
go in this month M 110
go if not here M 110
go he had been M 110
go by him like M 110
go by and keep M 110
go up and sell M 109
go to this week M 109
go to his third M 109
go of all fears M 109
go to sun city M 108
go to his union M 108
go to his food M 108
go to had been M 108
go to god from M 108
go to get rich M 108
go to for food M 108
go to and give M 108
go on that hunt M 108
go on and ruin M 108
go of this last M 108
go of that role M 108
go of that past M 108
go of her even M 108
go in one month M 108
go by and find M 108
go at one step M 108
go in too fast M 107
go in and pile M 107
go in and back M 107
go up this vast M 106
go up and sign M 106
go to you also M 106
go to that wild M 106
go to that ship M 106
go to see even M 106
go to our main M 106
go to men from M 106
go or has gone M 106
go on with next M 106
go on with most M 106
go on our tour M 106
go on now till M 106
go on not paying M 106
go on for mile M 106
go on far less M 106
go on doing like M 106
go on but your M 106
go of its past M 106
go of his line M 106
go of him till M 106
go of any fears M 106
go in this dark M 106
go in for trying M 106
go in any ship M 106
go if you stop M 106
go up and draw M 105
go to our three M 105
go in one line M 105
go in and test M 105
go up one size M 104
go to you like M 104
go to war their M 104
go to see sick M 104
go to our meals M 104
go to her during M 104
go to get ahead M 104
go to bring some M 104
go to all five M 104
go or had gone M 104
go on then very M 104
go on now from M 104
go on for hour M 104
go on being living M 104
go of any ideas M 104
go it was only M 104
go in his shop M 104
go if you only M 104
go to war what M 103
go to that hole M 103
go to him last M 103
go of things when M 103
go if they felt M 103
go up you have M 102
go up and fish M 102
go to this vast M 102
go to our doom M 102
go to one last M 102
go to his unit M 102
go to get high M 102
go to death from M 102
go to buy these M 102
go to buy from M 102
go on this plan M 102
go on his ship M 102
go on each time M 102
go of this dream M 102
go of her love M 102
go of any other M 102
go in and spring M 102
go at this kind M 102
go as low down M 102
go to our high M 101
go to not only M 101
go if they think M 101
go up one line M 100
go up nor come M 100
go up for just M 100
go to this depth M 100
go to that jail M 100
go to see good M 100
go to oak hill M 100
go to her whom M 100
go to god just M 100
go to bring forth M 100
go or you stay M 100
go on our list M 100
go on doing harm M 100
go on but these M 100
go on being heard M 100
go on all during M 100
go of her eyes M 100
go in for dogs M 100
go in for back M 100
go in and free M 100
go in and fall M 100
go by and come M 100
go as they must M 100
go to two very M 99
go to this hill M 99
go of this hand M 99
go in for birth M 99
go at all cost M 99
go up with time M 98
go to that safe M 98
go to one port M 98
go to his ward M 98
go to his five M 98
go to him asking M 98
go to her ruin M 98
go to end their M 98
go on our side M 98
go on one trip M 98
go on any sort M 98
go on and warn M 98
go on and these M 98
go of her rage M 98
go of her hope M 98
go in for flying M 98
go in and some M 98
go by with less M 98
go by for ever M 98
go by and what M 98
go as you need M 98
go to her post M 97
go on this week M 97
go in that kind M 97
go in for even M 97
go by with these M 97
go by and only M 97
go up two more M 96
go to war save M 96
go to this spring M 96
go to them five M 96
go to her full M 96
go to and their M 96
go on for tears M 96
go on and shut M 96
go on and note M 96
go of this case M 96
go my way from M 96
go in any depth M 96
go in and will M 96
go do not look M 96
go up and lock M 95
go to that hearing M 95
go to his reading M 95
go to any book M 95
go of that door M 95
go in and calm M 95
go to this file M 94
go to that word M 94
go to see great M 94
go to its last M 94
go to its food M 94
go to her rich M 94
go to each part M 94
go to any game M 94
go to and even M 94
go the web site M 94
go of her mind M 94
go in this file M 94
go if you send M 94
go by and stop M 94
go by and life M 94
go at each step M 94
go up and wish M 93
go to her late M 93
go on being rich M 93
go to this most M 92
go to that rich M 92
go to that item M 92
go to sit there M 92
go to our sons M 92
go to our site M 92
go to our best M 92
go to our beach M 92
go to our army M 92
go to his poor M 92
go to beg from M 92
go the way those M 92
go on with faith M 92
go on with bent M 92
go on its ways M 92
go on and made M 92
go in with nothing M 92
go in that shop M 92
go in had been M 92
go if she went M 92
go by one more M 92
go by her door M 92
go as they need M 92
go as far left M 92
go up and bathe M 91
go on his leave M 91
go of that hurt M 91
go in and cast M 91
go up and even M 90
go to them till M 90
go to them some M 90
go to one game M 90
go to him must M 90
go to her true M 90
go to her poor M 90
go to her also M 90
go to get clean M 90
go to die upon M 90
go or not when M 90
go on thus till M 90
go on this fool M 90
go in for help M 90
go in for hanging M 90
go in for acting M 90
go in and cool M 90
go in and also M 90
go up not down M 89
go to that life M 89
go to get ideas M 89
go on his great M 89
go on being held M 89
go at that very M 89
go up with young M 88
go to them much M 88
go to his site M 88
go to his rich M 88
go to her eyes M 88
go to each city M 88
go to each bank M 88
go to buy such M 88
go the way many M 88
go on with from M 88
go on singing like M 88
go on our last M 88
go on our dark M 88
go on how much M 88
go on for great M 88
go on and told M 88
go on all three M 88
go in that sort M 88
go if you love M 88
go if they only M 88
go by they grow M 88
go by his shop M 88
go at her tail M 88
go as has been M 88
go to his most M 87
go of any kind M 87
go in for health M 87
go up one hill M 86
go to that rest M 86
go to new ones M 86
go to its nest M 86
go to him saying M 86
go to beg food M 86
go to ask what M 86
go so you know M 86
go or any other M 86
go on was your M 86
go on that great M 86
go on than your M 86
go on are some M 86
go on and other M 86
go on and bury M 86
go in that line M 86
go in that dark M 86
go in both ways M 86
go in any great M 86
go in and fish M 86
go by this line M 86
go by and many M 86
go by all these M 86
go up each week M 85
go to her much M 85
go on with four M 85
go of you till M 85
go of not only M 85
go up for these M 84
go to you just M 84
go to this safe M 84
go to one show M 84
go to one home M 84
go to its work M 84
go to his fire M 84
go to her made M 84
go to earn some M 84
go to bring down M 84
go to bear their M 84
go on was their M 84
go on this type M 84
go on this same M 84
go on they were M 84
go on his walk M 84
go on for month M 84
go on far away M 84
go on being great M 84
go of her till M 84
go of her role M 84
go in its self M 84
go in for fish M 84
go in any room M 84
go in and nothing M 84
go if you make M 84
go if you look M 84
go if you felt M 84
go if not into M 84
go by and knew M 84
go by and hurt M 84
go at that work M 84
go to run away M 83
go in one week M 83
go to that lord M 82
go to our city M 82
go to his gate M 82
go to him full M 82
go to him along M 82
go to ask their M 82
go on that these M 82
go of his love M 82
go my way when M 82
go it weak here M 82
go in you speak M 82
go in this wise M 82
go in this cold M 82
go in then when M 82
go in that hour M 82
go in for truth M 82
go of this part M 81
go as kings like M 81
go up any hill M 80
go to you soon M 80
go to war very M 80
go to use your M 80
go to them will M 80
go to law even M 80
go to any cost M 80
go to and other M 80
go so that their M 80
go on was some M 80
go on this sort M 80
go on being seen M 80
go on all along M 80
go in using their M 80
go in for idle M 80
go in for huge M 80
go in for fair M 80
go by with very M 80
go by our door M 80
go up and sort M 70
go at him when M 69
go at this very M 66
go is not only M 64
go to her left M 63
go on long past M 61
go to her half M 58
go in this very M 55
go to her early M 54
go in that very M 54
go in and jump M 54
go up and heard M 53
go on being only M 52
go up and jump M 51
go to big bend M 51
go on that much M 51
go on are those M 51
go in for body M 51
go up and knew M 50
go of his hurt M 50
go is not just M 49
go up and only M 47
go to his birth M 47
go so far there M 47
go on and swear M 47
go of his will M 47
go of all past M 47
go up and test M 46
go on eating more M 46
go of all self M 46
go in for fast M 46
go up and half M 45
go up and blow M 45
go to our book M 45
go to her back M 45
go to our back M 44
go of our life M 44
go is far more M 44
go in one hand M 44
go at you like M 44
go on using more M 43
go on this fine M 43
go on that most M 43
go on eating what M 43
go on and land M 43
go in but once M 43
go in and yell M 43
go up and warm M 42
go to top mass M 42
go to that list M 42
go to our five M 42
go to any health M 42
go on and dream M 42
go of that life M 42
go in for hair M 42
go in and those M 42
go up and went M 41
go to any well M 41
go on and drop M 41
go up and other M 40
go on being hard M 40
go on and view M 40
go of her hurt M 40
go in for most M 40
go to new york D 186940
go to bed early D 86850
go to bed when D 23909
go to his wife D 12301
go to bed till D 9425
go to bed late D 8320
go to bed soon D 4785
go to bed very D 4273
go in his stead D 4136
go to this fund D 3966
go ye and teach D 3646
go to his club D 3423
go to bed angry D 3348
go to bed like D 3309
go to her aunt D 3084
go ye and learn D 2836
go to bed last D 2610
go to bed only D 2524
go to bed just D 2442
go to his desk D 2106
go to his tent D 2061
go to this ball D 1922
go in new york D 1794
go to his farm D 1705
go to his camp D 1700
go thy way into D 1574
go ye out from D 1566
go to one pole D 1492
go to our beds D 1398
go to that spot D 1355
go up for sale D 1213
go to gay bars D 1190
go to his aunt D 1160
go to sir john D 1152
go of his wife D 1112
go thy way forth D 1098
go to her desk D 1095
go to his flat D 1072
go to his boss D 1042
go ye and make D 1004
go of his neck D 1004
go on eating binges D 994
go in her stead D 949
go of his grip D 930
go ye out into D 916
go ye and tell D 900
go to bed there D 884
go up and pack D 854
go to bed even D 850
go to bed much D 768
go on his bond D 767
go to her flat D 766
go to that ball D 756
go of her chin D 740
go to bed during D 736
go ye now unto D 714
go to bed here D 680
go to this spot D 666
go to our camp D 654
go to that camp D 649
go on two legs D 632
go in with guns D 624
go in two canoe D 604
go up and throw D 603
go up thou bald D 584
go on that boat D 580
go of her neck D 564
go to see aunt D 552
go on this ride D 552
go to see john D 546
go to bed will D 538
go by bus from D 538
go to bed half D 527
go to bed from D 524
go of its prey D 510
go in his boat D 510
go to that club D 506
go thy way till D 497
go to this camp D 496
go in and vote D 492
go to bed more D 470
go to bed once D 467
go to bed also D 454
go by car from D 454
go to bed lest D 452
go of that rope D 452
go to each pole D 449
go to that park D 446
go to day camp D 446
go to this club D 444
go of her legs D 438
go ye not into D 436
go to bed some D 436
go of his legs D 430
go on this boat D 426
go on being paid D 420
go to any spot D 406
go to his mouth D 404
go to bed well D 400
go to dig gold D 398
go of his prey D 398
go to his bunk D 396
go at that pace D 392
go to bed wearing D 388
go in for racing D 388
go in and throw D 388
go to our seats D 384
go the dew upon D 380
go in and chat D 380
go of her grip D 374
go to bed crying D 372
go in and dine D 366
go of her mouth D 362
go in that boat D 357
go to his task D 356
go on bed rest D 348
go via new york D 346
go on this diet D 344
go to buy bread D 340
go to ole miss D 338
go to bed leaving D 334
go to her mouth D 330
go at his task D 330
go of her foot D 328
go to his boat D 326
go to that damn D 323
go of his nose D 322
go to her boss D 320
go to this feast D 315
go on that ride D 314
go to her farm D 310
go to bed full D 310
go to bed upon D 306
go to her tent D 300
go of his foot D 298
go up and vote D 295
go to old nick D 293
go at low tide D 292
go of his chin D 290
go my own gait D 290
go to bath till D 286
go in for cheap D 286
go in two cars D 276
go to that cafe D 264
go in and bomb D 264
go at his pace D 260
go to one spot D 256
go in and cook D 255
go to his berth D 254
go in this boat D 254
go in one boat D 254
go to our tent D 252
go in and pack D 252
go to bed saying D 248
go in for golf D 242
go at this pace D 242
go to bed cold D 240
go on and camp D 240
go to bed hoping D 236
go to bed over D 233
go of his soul D 232
go at any pace D 228
go to that farm D 227
go to bed sick D 226
go on this raid D 226
go on being fond D 226
go in and toot D 226
go of his cock D 222
go in and stir D 220
go on and fret D 218
go by his foul D 216
go as his wife D 216
go in and slay D 215
go the lee fore D 213
go of its grip D 208
go on his boat D 206
go to bed having D 204
go to this park D 198
go to one knee D 198
go to her piano D 198
go of her nose D 198
go to that rock D 196
go the long haul D 196
go to that desk D 192
go of his rope D 192
go on his bail D 190
go to that dumb D 186
go to bed among D 184
go to her prom D 182
go to our farm D 181
go to hear john D 181
go on this outing D 178
go to that sink D 174
go to see jack D 174
go of his belt D 174
go to her club D 172
go in for mining D 170
go on with hers D 169
go in for boxing D 169
go to this farm D 168
go on being rude D 168
go in for rowing D 166
go on one knee D 162
go up his nose D 158
go to that pool D 158
go at her pace D 158
go if thou wilt D 157
go to cab work D 156
go on any diet D 156
go by that boat D 156
go by new york D 156
go to bed most D 155
go to bed your D 154
go on that diet D 154
go of his finger D 154
go in for fads D 154
go to her ball D 153
go in and tweak D 152
go to bed have D 150
go up and nail D 148
go to his lair D 148
go to bed three D 148
go to bay city D 148
go of his mouth D 148
go to this firm D 146
go to his piano D 146
go to buy shoes D 146
go to bed lock D 146
go to any club D 146
go of his beard D 146
go in his mouth D 145
go to that card D 144
go to pot like D 144
go to bed said D 144
go up and chat D 142
go to shoe lane D 142
go to see maria D 142
go on one foot D 142
go on his lips D 142
go on and tend D 142
go on his knee D 141
go to red rock D 140
go on dry dock D 140
go in that tiny D 140
go in for mere D 140
go in for cash D 140
go up and slap D 139
go on this hike D 137
go up her nose D 136
go on his bike D 136
go in for gold D 136
go to pot when D 135
go to that pond D 134
go to his barn D 134
go to her camp D 134
go to bed making D 134
go on that hike D 134
go on her bond D 134
go to see rose D 132
go thy way unto D 132
go on and vote D 132
go in her mouth D 132
go to his guru D 131
go to see tiny D 128
go to any camp D 128
go in his canoe D 128
go to that feast D 126
go to bath next D 126
go my own pace D 126
go in and mess D 126
go to see mama D 124
go to any feast D 124
go to our aunt D 122
go to her berth D 122
go to bed were D 122
go of his cane D 122
go of her hips D 122
go to her papa D 121
go to this cafe D 120
go to our task D 120
go to our boat D 120
go as may suit D 120
go to his ball D 119
go to bed next D 118
go to any damn D 118
go in for steam D 118
go in and bust D 118
go if you paid D 118
go in and tidy D 117
go up and jerk D 116
go to oak park D 116
go to his dorm D 116
go to any ball D 116
go on and ride D 116
go to his mill D 115
go on and tire D 114
go on any ride D 113
go to bed these D 112
go in our canoe D 112
go in and whip D 112
go in and cash D 111
go to our club D 110
go to bed take D 110
go to any farm D 109
go in each boat D 109
go to this film D 108
go in for milk D 108
go up and dine D 107
go in and haul D 107
go in and poke D 106
go ye two back D 104
go to our cars D 104
go on one card D 104
go in for rape D 104
go on and plow D 103
go in our boat D 103
go in for polo D 103
go up and stab D 102
go to that sale D 102
go to that race D 102
go to see bill D 102
go to get news D 102
go to and rack D 102
go on his lease D 102
go by and wave D 102
go up and camp D 100
go on long bike D 100
go on and throw D 100
go as thin clad D 100
go up and rout D 98
go so oft from D 98
go on eating bread D 98
go of her prey D 98
go in for riding D 98
go up and coax D 96
go to this damn D 96
go to see papa D 96
go to his feast D 96
go to bed clean D 96
go in our cars D 96
go in for wheat D 95
go to our boss D 94
go on this gait D 94
go in our stead D 94
go in and lick D 94
go at his beck D 94
go to that fort D 92
go the thin high D 92
go of his spear D 92
go to her task D 90
go to get bread D 90
go to bed five D 90
go to bed boys D 90
go in for hats D 90
go in and mingle D 90
go at this task D 89
go up with rising D 88
go to her hips D 88
go of his knee D 88
go of her knee D 88
go in and dust D 88
go to this pool D 86
go to that tune D 86
go on one tank D 86
go of her aunt D 86
go in and rout D 86
go to that film D 84
go to our spot D 84
go to bed fearing D 84
go of her lips D 84
go in and sink D 84
go to that barn D 82
go to any film D 82
go on and defy D 82
go of this rope D 82
go in with john D 82
go to his belt D 80
go to get paid D 80
go to get milk D 80
go to bed many D 80
go to any mall D 80
go eat ice cream D 80
go in and slug D 57
go as thou hast D 55
go up and peer D 54
go to that firm D 49
go in for coal D 49
go to that flat D 47
go to our pork D 47
go to hear jazz D 47
go to that fund D 45
go on and pack D 45
go of his leash D 44
go to her sewing D 43
go in and peek D 43
go up and tidy D 41
go of his farm D 41
go on and cook D 40
