got over it . M 49632
god help me ! M 36923
got into it . M 34196
god help us ! M 29374
god help me . M 24618
god help us . M 18694
going into it . M 11784
goes into it . M 10458
got into me . M 9978
got hold of . M 9132
god save us ! M 6866
god made it . M 6786
got from it . M 5114
going over it . M 4744
god gave us . M 4482
god made me . M 4418
got used to . M 4410
god gave me . M 4370
god made us . M 4308
god will do . M 3744
god sees it . M 3656
god among us . M 3040
going back to . M 2950
got from me . M 2828
god sees us . M 2530
got held up . M 2456
god upon it . M 2378
god save us . M 2284
god sees me . M 2114
god says so . M 2036
god upon us . M 1876
god save me ! M 1864
got back up . M 1770
going from me . M 1726
going back up . M 1716
got hold of ? M 1684
god said so . M 1584
god gave it . M 1576
goes over it . M 1570
god said it . M 1534
god must be . M 1534
got into me ? M 1478
got tied up . M 1404
god into it . M 1242
god there is . M 1222
god pity me ! M 1210
got back on . M 1204
god told me . M 1196
got from us . M 1180
got over it ? M 1154
god upon me . M 1128
goes back up . M 1102
going from it . M 1080
got into it ? M 1070
god sent me . M 1030
got past it . M 1000
god help me ? M 910
going back to ? M 906
god from us . M 896
god into me . M 864
god knew it . M 860
god love me ? M 840
god save me . M 820
god will be . M 816
god into us . M 806
god make me ? M 802
god pity us ! M 786
got over it ! M 766
going down it . M 764
going from us . M 752
god sent it . M 746
god leads us . M 742
god said no . M 740
got onto it . M 728
god love us ? M 674
god hears us . M 672
god unto us . M 658
god make us ? M 620
god heard me . M 612
going past it . M 596
got past me . M 588
going home to . M 564
god send it ! M 560
god says it . M 536
got into it ! M 532
got some id ? M 512
god come in ? M 510
going into it ? M 506
god from it . M 492
got upon it . M 490
god made me ! M 490
got over me . M 482
goes into it ? M 476
god from me . M 476
god love us . M 474
god made us ? M 470
god help us ? M 470
got into me ! M 456
goes back on . M 448
god says no . M 448
going rate is . M 436
god hears me . M 424
god upon me ? M 416
goes ever on . M 405
going back in ? M 404
god leads me . M 404
got from it ? M 402
got used up . M 390
god help it . M 390
got wind of . M 384
got some tea . M 382
got nothing on . M 374
god made it ! M 372
got into us . M 364
going past me . M 358
god will do ? M 350
god help it ! M 350
goes back to . M 348
goes from me . M 342
got sent up . M 334
god over us . M 328
got more so . M 326
god heard us . M 326
going along it . M 322
god made it ? M 318
got past us . M 316
going back on . M 314
god sees me ? M 314
god love me . M 308
god mend me ! M 306
god give us ? M 300
god said so ? M 298
god over it . M 298
god heals it . M 298
god send it . M 290
god gave us ? M 290
god into it ? M 286
going into it ! M 282
got quit of . M 280
got nothing on ! M 280
going over me . M 278
god told us . M 278
going into me . M 272
god will it . M 270
god hears it . M 268
god keep us ! M 264
god unto me . M 262
god sent us . M 262
got coming up . M 258
god make it ? M 256
god said it ! M 254
going home to ? M 252
god heard it . M 248
going over it ? M 246
god must go . M 244
goes past it . M 240
god gave me ? M 240
god must do . M 234
god meant it . M 232
going upon it . M 228
going over us . M 228
god pity us . M 228
god save me ? M 226
god save it ! M 226
got eaten up . M 224
god sees us ? M 224
god says so ! M 224
god hate me ? M 222
got hard up . M 220
god love us ! M 220
god their king . M 218
god uses it . M 216
god kill me ? M 216
going into the . M 214
god said it ? M 214
god must be ! M 210
going past us . M 208
god save us ? M 208
god keep me ! M 208
got hold of ! M 206
got from me ? M 206
god give it ? M 206
got torn up . M 204
god take me . M 202
god said so ! M 198
god will do ! M 196
god hears me ! M 196
god made us ! M 194
god just is . M 190
going back up ? M 188
god went on . M 188
god stop it ? M 186
god sees it ? M 184
god upon it ? M 176
god have it . M 174
got into the . M 172
goes from us . M 172
god take me ? M 164
got back to . M 160
god have we ! M 160
god know it ? M 158
god among us ? M 158
god upon us ? M 156
goes from it . M 154
god kept me . M 152
god pity me . M 151
god will it ! M 150
god made me ? M 150
got clear of . M 146
god owns it . M 142
got down to . M 140
going from me ? M 140
god want me ? M 140
god sees it ! M 140
got ready to . M 136
got hold on ? M 136
got nothing by . M 134
goes past me . M 134
god mend it ! M 134
god gave us ! M 134
god gave me ! M 134
going back in ! M 132
god keep us . M 132
god tell me ! M 130
got onto me . M 128
got from me ! M 128
god sees me ! M 128
goes into the . M 126
god knew us . M 126
god done it ? M 126
god from me ! M 124
god there be . M 122
god give me . M 122
goes flying by . M 120
god says no ? M 120
god save it . M 120
god know me . M 120
god bids us . M 120
goes over me . M 118
god sees us ! M 118
god will it ? M 116
god like me . M 116
got made up . M 114
god means it . M 114
god left it . M 114
got onto us . M 112
got coming up ? M 110
goes into it ! M 110
got from us ? M 108
god came up . M 108
got laid up . M 106
god uses us . M 106
goes down it . M 104
god used it . M 104
god tell us ? M 104
god came in . M 104
going from me ! M 102
god over me . M 102
god told me ! M 100
god puts it . M 100
god among us ! M 100
god unto it . M 98
god says so ? M 98
god know it . M 98
god bids me . M 98
got among us . M 96
god owns us . M 94
god like me ? M 92
going back up ! M 90
god used me . M 90
god give me ? M 90
god also is . M 90
going among us . M 88
god uses me . M 88
god meant us . M 88
god tell me . M 86
god said to . M 86
god give us . M 86
god there is ! M 84
god send it ? M 84
god must be ? M 84
god mend me . M 84
god love so ? M 84
going back be ? M 82
god knew me . M 82
going make it . M 80
goes over us . M 80
god done it . M 80
