good chance of a M 8010
goal should be a M 6106
good enough as a M 4500
good standing as a M 4174
good standing of a M 4078
good record as a M 3774
gone through in a M 3590
good measure of a M 3146
good effect in a M 2948
good points of a M 2850
good wishes of a M 2766
good choice as a M 2588
good teacher is a M 2460
good effect of a M 2400
good nature of a M 2388
good standing in a M 2378
gone through as a M 2308
good friend or a M 2224
good answer to a M 2196
good advice to a M 2126
good member of a M 1816
good enough in a M 1702
good friend of a M 1676
good effect as a M 1662
good choice of a M 1492
good person or a M 1442
gone through by a M 1432
good design is a M 1400
good effect on a M 1368
good friend in a M 1282
good memory is a M 1266
good friend is a M 1238
good points in a M 1234
good chance at a M 1174
good figure of a M 1146
good access to a M 1110
good sample of a M 1108
good writer is a M 1106
good friend to a M 1082
good breeding of a M 1048
good choice is a M 1036
good teacher or a M 1022
good school is a M 998
good nature is a M 996
good person is a M 934
good source of a M 906
good design of a M 898
good teacher in a M 866
gone around in a M 860
gone abroad on a M 822
good choice in a M 816
gone before in a M 814
good instead of a M 804
good result in a M 800
good advice in a M 774
good standing or a M 764
good speech is a M 764
good judges of a M 756
good advice of a M 702
good person in a M 692
good spirit or a M 672
good doctor is a M 672
good return on a M 654
good wishes to a M 598
gone abroad as a M 588
goal instead of a M 588
good doctor or a M 566
gone swimming in a M 534
gone before as a M 532
good design in a M 528
gone through at a M 516
good planning is a M 515
good training in a M 508
good actions of a M 508
gone before is a M 500
good points as a M 498
goal serves as a M 498
good edition of a M 492
good enough so i M 488
good wishes in a M 482
good writer or a M 476
good lighting is a M 474
good merely as a M 472
good effect by a M 466
good school in a M 460
good family in a M 452
good breeding is a M 452
good sleeping in a M 450
good effect at a M 448
good parent or a M 444
good standing at a M 436
good nature in a M 436
good result of a M 424
good fellow of a M 424
good breeding in a M 424
gone through it a M 422
good memory or a M 420
good except in a M 416
good enough as i M 416
good advice on a M 416
good supply of a M 414
good enough if i M 410
good friend as a M 406
good parent is a M 396
good report of a M 392
good choice or a M 388
good figure in a M 382
good family or a M 374
good source is a M 372
good should be a M 362
good editor is a M 360
good nature as a M 358
good master of a M 358
good finish to a M 352
good doctor in a M 344
good record of a M 340
good advice as i M 340
good worker or a M 338
good thought or a M 338
good training as a M 336
good friend at a M 332
good advice as a M 332
good critic is a M 328
good reasons in a M 326
good enough to a M 326
good record in a M 322
good reasons of a M 320
good profit on a M 318
good measure as a M 316
good habits in a M 314
good lighting in a M 308
good enough on a M 296
good return to a M 294
gone instead to a M 292
good yields of a M 290
good version of a M 290
good design as a M 288
good except as a M 286
gone through on a M 286
good morals in a M 284
good chance in a M 282
good simply as a M 280
good serves as a M 278
good served as a M 278
good family as a M 274
good school or a M 272
good family is a M 270
good actions in a M 268
good worker is a M 266
good worker in a M 264
good repair as a M 262
good nature as i M 258
gone through is a M 254
good aspect of a M 252
good profit in a M 250
good person as a M 250
good letter is a M 250
good nature to a M 248
good measure to a M 248
good enough if a M 242
goal itself is a M 242
good speech in a M 240
good enough is a M 238
good fellow in a M 236
good feelings of a M 236
good judges as a M 234
good result as a M 230
good clothes in a M 230
gone before to a M 230
gone through of a M 228
good standing is a M 226
good choice if a M 226
good measure in a M 224
good measure by a M 222
good enough at a M 222
good advice or a M 222
good writer of a M 218
good priest is a M 218
good nature or a M 218
gone abroad in a M 218
good report is a M 216
good memory of a M 216
gone further in a M 216
good advice is a M 214
good wishes as i M 212
good teacher as a M 212
good habits as a M 210
good thought is a M 208
good chance if i M 208
good teacher of a M 206
good creation of a M 206
gone better if i M 206
good parent to a M 204
good system is a M 202
good habits is a M 202
good feelings in a M 202
good breeding as a M 202
good advice at a M 202
good speaker or a M 200
good friend as i M 200
good repair is a M 198
good result or a M 196
good reasons as i M 196
good writer in a M 194
good sample is a M 192
good report as a M 192
good future as a M 192
good actions as a M 192
good prices in a M 190
good choice on a M 188
gone before by a M 188
good enough by a M 186
good measure is a M 184
good excuse if i M 184
good speaker is a M 182
good nature by a M 182
good friend if i M 182
good fellow or a M 182
good effect to a M 182
good lesson to a M 180
good figure on a M 180
good building in a M 180
good appears as a M 178
good spirit of a M 176
good speech at a M 176
good return of a M 176
good feelings as a M 176
good except to a M 172
good effect or a M 172
good report on a M 170
gone public in a M 170
good speech or a M 168
good exists in a M 168
good master or a M 166
good answer of a M 166
good ordering of a M 164
good report in a M 162
good friend on a M 162
good design to a M 162
good models of a M 160
gone inside of a M 160
gone adrift in a M 160
good points to a M 158
good morals of a M 158
good itself is a M 156
good habits of a M 156
gone insane as a M 156
good school to a M 154
good school as a M 154
good memory as a M 154
good ground as a M 154
gone almost in a M 154
good plants in a M 152
good genius of a M 152
good solely as a M 150
good remedy in a M 150
good indeed as i M 150
good fellow is a M 150
good enough of a M 150
good letter to a M 148
gone through as i M 148
gone myself if i M 148
good spirit in a M 146
good mentor is a M 146
good teacher if i M 144
good resume is a M 144
gone through to a M 144
good wishes as a M 142
good supply at a M 142
good reasons as a M 142
good profit to a M 142
gone through it i M 142
goal sought by a M 142
good priest or a M 140
good figure as a M 140
good earnest by a M 140
good copies of a M 140
gone abroad to a M 140
good handling of a M 138
good training is a M 136
good scheme to a M 136
good judges as i M 136
good design or a M 136
good caused by a M 136
good belonging to a M 136
good answer is a M 136
good ground as i M 134
good prince is a M 132
good person if i M 132
good object is a M 132
good measure on a M 132
gone across to a M 132
good object as a M 130
good fellow as a M 130
good critic of a M 130
good proofs of a M 128
good prices on a M 128
good critic or a M 128
gone through if a M 128
good repair at a M 126
good morals is a M 126
good effect if a M 126
good animal in a M 126
good voyage or a M 124
good system or a M 124
good advice by a M 124
gone around to a M 124
goal values of a M 124
good editor of a M 122
good building is a M 122
good aspect to a M 122
good standing by a M 120
good script is a M 120
good genius to a M 120
good enough or i M 120
good credit as a M 120
gone abroad of a M 120
good symbol of a M 118
good speech as a M 118
good repair by a M 118
good handle on a M 118
good causes as a M 118
good standing to a M 116
good result on a M 116
good result is a M 116
good readers in a M 116
good return if a M 114
good planning as a M 114
good ground of a M 114
good garden is a M 114
good effect if i M 114
good values of a M 112
good return in a M 112
good hermit of a M 112
good earnest of a M 112
good choice at a M 112
good chance or a M 112
good chance as a M 112
good building on a M 112
good reasons is a M 110
good master in a M 110
good genius or a M 110
goal states of a M 110
good system in a M 108
good reasons to a M 108
good number in a M 108
good morals or a M 108
good existing in a M 108
good claims to a M 108
good advice if i M 108
gone except in a M 108
good writer if i M 106
good judges in a M 106
good teacher to a M 104
good spirit is a M 104
good speech to a M 104
good result by a M 104
good number of a M 104
good wishes on a M 102
good wishes at a M 102
good object in a M 102
good except at a M 102
good verses as i M 100
good speaker in a M 100
good record is a M 100
good ground in a M 100
good future in a M 100
good fiction is a M 100
good earnest as a M 100
good clothes as i M 100
gone before us a M 100
good yields in a M 98
good speech on a M 98
good second in a M 98
good matter in a M 98
goal sought is a M 98
good points as i M 96
good market in a M 96
good brother or a M 96
good actors in a M 96
good strain of a M 94
good design on a M 94
good answer in a M 94
gods should be a M 94
good supply in a M 92
good remedy is a M 92
good effect is a M 92
good doctor as a M 92
gone through if i M 92
gone swimming at a M 92
good belongs to a M 91
good standing on a M 90
good record or a M 90
good parent if i M 90
good moment in a M 90
good credit is a M 90
good church is a M 90
good prices as a M 88
good murder or a M 88
good lesson as a M 88
good family am i M 88
good doctor if i M 88
good clothes to a M 88
good actions is a M 88
good repair in a M 86
good master as i M 86
good fellow on a M 86
good family to a M 86
good effect as i M 86
good actions by a M 86
good points is a M 84
good morals as a M 84
good lesson if i M 84
good friend so i M 84
good demand as a M 84
good church in a M 84
good amount of a M 84
good repair on a M 82
good reaction to a M 82
good profit at a M 82
good pieces in a M 82
good demand at a M 82
gods merely as a M 82
gods instead of a M 82
good market as a M 80
good figure at a M 80
good graces of a D 6474
good opinion of a D 4172
golf course is a D 3584
good portion of a D 2076
gold mosaic of a D 2060
golf course in a D 1658
golf course or a D 1452
good dinner at a D 1312
golf course on a D 1250
good policy in a D 1044
golf course as a D 1010
gold medals in a D 958
good dinner in a D 948
good repute as a D 926
gold occurs in a D 911
gold pieces in a D 902
gone astray in a D 846
gold locket on a D 834
good temper is a D 824
gold statue of a D 769
gold figure of a D 712
good salary as a D 686
good reflex of a D 686
gold instead of a D 677
gone ashore in a D 640
gown instead of a D 638
goat cheese in a D 624
good review of a D 594
good painting of a D 584
good lawyer or a D 582
good horses of a D 578
gold pieces to a D 576
good dinner is a D 566
goat instead of a D 548
golf course to a D 546
good career as a D 534
good office to a D 518
good lawyer is a D 512
good spelling is a D 496
good painting is a D 484
good grades in a D 466
good income as a D 464
good sketch of a D 434
gold medals at a D 430
gold hidden in a D 429
good dinner or a D 428
gold pieces as a D 427
good grades as a D 412
gold buried in a D 400
gold chains of a D 395
golf course at a D 394
goat cheese on a D 380
gold belonging to a D 378
gold bullion at a D 374
gone ashore on a D 362
gold served as a D 353
gold serves as a D 344
gold medals as a D 339
good feature of a D 338
good temper of a D 332
good artist or a D 330
good survey of a D 322
good grades so i D 322
good artist is a D 322
good painting or a D 320
gold pieces on a D 318
good polish in a D 306
good repute of a D 304
gold changed to a D 302
good coffee in a D 294
good farmer or a D 290
good feature in a D 288
good farmer is a D 288
good grooming is a D 282
good hunter or a D 280
good dinner to a D 276
gold should be a D 274
good opinion is a D 268
gold dollar is a D 268
gold belongs to a D 268
good salary in a D 266
gone astray on a D 266
good grades is a D 264
gold nugget in a D 260
good section of a D 258
gone astray as a D 256
good player on a D 250
good sermon by a D 246
good slices of a D 244
goat island is a D 241
good opinion if i D 238
good morale is a D 238
golf course by a D 234
gold exists in a D 234
good graces by a D 232
good despot is a D 232
good bishop of a D 224
good supper at a D 222
good office of a D 222
good grades or a D 222
gold pieces of a D 220
good fruits of a D 214
goal scored by a D 214
good opinion by a D 212
good sermon is a D 210
good horses in a D 210
gold crowns on a D 210
gold bullion of a D 210
good dishes to a D 208
good dinner on a D 208
good lawyer in a D 206
good french as i D 204
good refers to a D 203
good budget is a D 202
good policy is a D 200
good opinion as a D 198
good traits of a D 196
good morale in a D 196
gold button or a D 195
good vacuum in a D 194
good rector of a D 194
gold dollar as a D 194
good grades if i D 186
gold supply of a D 186
gold plates in a D 186
good salary to a D 184
good player in a D 182
good income in a D 176
good grades on a D 176
goal refers to a D 174
good driver is a D 172
good temper by a D 168
good review in a D 168
good motive or a D 168
good dinner as a D 168
gold bullion as a D 167
good painting by a D 166
good matron in a D 166
goat cheese is a D 166
gold bullion in a D 164
goat standing on a D 164
gone ashore as a D 160
gold market as a D 160
good pastor is a D 158
good estate of a D 158
good graces in a D 156
good engraving of a D 156
golf course of a D 156
gown caught on a D 154
good orator in a D 154
good athlete or a D 154
good temper in a D 152
good grades at a D 152
gold number of a D 152
gold bullion is a D 152
goat belonging to a D 152
good traits in a D 150
good player or a D 150
good estate as a D 148
gold digger or a D 148
good policy as a D 146
good motive in a D 146
gold fields as a D 143
good policy of a D 142
good supper in a D 140
good coffee is a D 140
gold clause in a D 140
gold caused by a D 140
goat cheese or a D 140
gown topped by a D 138
gold dollar or a D 138
good sermon of a D 136
good houses in a D 136
good dancer or a D 136
gold handle of a D 136
gold freely at a D 136
gold placed on a D 135
good knight of a D 134
good headway on a D 134
gone shopping at a D 134
good salary is a D 132
good feature is a D 132
gone shopping in a D 132
gold itself is a D 131
good motive is a D 130
gold occurs as a D 129
good opinion in a D 128
good claret at a D 128
good vacuum is a D 124
good policy or a D 124
good places in a D 124
good bridge to a D 124
good athlete as a D 124
gone sailor in a D 124
gold script on a D 124
gold crowns as a D 123
gold bricking in a D 122
good hunter is a D 120
good driver in a D 120
gold alloys as a D 118
goat island as a D 118
gold market is a D 117
good sermon or a D 116
good salary at a D 116
good lately to a D 116
good drawings of a D 116
good damask in a D 116
good talker is a D 114
gold ducats as a D 114
good knight or a D 112
good income or a D 112
good comedy is a D 112
gold valued at a D 112
gold merely as a D 111
good graces as a D 110
good ghosts on a D 110
good athlete is a D 110
gone ashore at a D 110
gold pencil in a D 110
gold appears as a D 110
good repute is a D 108
good estate in a D 108
gold pieces at a D 108
gold lilies on a D 108
good houses at a D 106
good fruits in a D 106
good dancer is a D 106
gold dollar in a D 106
good teller of a D 104
good surgeon or a D 104
good repute in a D 104
good orator is a D 104
good lawyer be a D 104
good desert of a D 104
gone astray is a D 104
good statue of a D 102
good player is a D 102
good butter in a D 102
good brandy in a D 102
good temper as a D 100
good horses to a D 100
golf course as i D 100
gold placed in a D 100
gold fields in a D 99
good sermon as i D 98
gold stored in a D 98
gold powder in a D 98
gold existing in a D 98
gold stocks as a D 97
good temper or a D 96
good sermon to a D 96
good orator or a D 96
good opinion to a D 96
good opinion as i D 96
good horses at a D 96
gold holdings as a D 96
gold bullion to a D 96
good skills as a D 94
good farmer on a D 94
gold pieces as i D 94
good timber in a D 92
good driver of a D 92
gold strike in a D 91
good seafood in a D 90
good scores on a D 90
good gallop on a D 90
good device is a D 90
gold fishes in a D 90
good shooting in a D 88
good career in a D 88
gold bullion on a D 88
gold anodes in a D 88
goat caught in a D 88
goal scored in a D 88
gold fillings in a D 87
good review or a D 86
good orator of a D 86
good driver or a D 86
golf should be a D 86
gold digger is a D 86
gold apples in a D 86
gold pieces is a D 85
good comedy or a D 84
gold ground of a D 84
good upbringing in a D 82
good policy at a D 82
good office in a D 82
good layout of a D 82
good french in a D 82
gold turned to a D 82
gold topped by a D 82
good broker is a D 80
gold crowns to a D 80
gold chains at a D 80
gold supply as a D 59
gold coated in a D 54
gold nugget on a D 52
gold pencil on a D 47
gold supply is a D 46
gold brooch of a D 46
gold anchor on a D 44
gold shield of a D 42
gold prices as a D 41
gold alloys is a D 41
gold standing on a D 40
gold chains on a D 40
