was a thing that M 38240
way i do not M 29434
was a king who M 19262
was i do not M 16860
was i to get M 13498
was a thing not M 11012
war i he was M 10766
was i to say M 10750
was a king and M 10050
war i it was M 8318
way i am going M 7556
was a thing she M 6454
way i am now M 6353
was i to see M 6106
war i he had M 4356
way i do things M 4282
was a thing for M 4260
way i do now M 3986
was a thing they M 3856
war i do not M 3525
way i am not M 3448
way i am and M 3368
was i at all M 3194
was i to hear M 2908
was i the one M 2725
was a thing too M 2694
was a thing you M 2294
was a king with M 2186
was i in for M 2164
was i in this M 2156
was a no man M 2128
was i in any M 2036
was a thing with M 2024
was i at that M 1982
was i by this M 1942
way i do and M 1940
war i it had M 1878
way i am with M 1672
way i do with M 1648
way i am doing M 1526
was i to let M 1514
was a ring with M 1488
was a king that M 1365
way i am using M 1320
was i to put M 1232
was i in that M 1200
was i of this M 1158
was i at this M 1150
was a thing one M 1133
was i in his M 1046
was i to pay M 1028
way i do this M 1018
was i by him M 1009
was i am not M 1000
was i or they M 948
was i to him M 894
was i to ask M 874
was a ring that M 868
was i or was M 776
was i to act M 772
was a ring and M 768
was i to die M 738
was i of being M 738
was a thing out M 718
was i of his M 714
was i to her M 700
way i do for M 699
was i to sit M 694
was i to you M 692
was i to set M 692
was i by his M 676
way i do that M 636
war i in his M 636
was a no win M 633
was i to bring M 620
war i is not M 618
was i in all M 603
way i am being M 596
war i as one M 591
was a do not M 588
was i by any M 586
way i do you M 584
was i to this M 562
was i to try M 560
war i is that M 556
was i by her M 542
was i to deal M 510
way i do them M 504
was i to read M 496
was i so far M 494
was a thing long M 492
was a thing far M 486
war i the new M 484
war i the war M 471
war i we had M 470
war i it has M 470
was i the man M 468
was i to them M 460
was i so bad M 458
was i in him M 454
war i in this M 452
was a thing then M 444
was i at his M 438
was a it was M 438
was a ring set M 428
was i on that M 402
war i in that M 398
was a king for M 396
was i to use M 380
was a king but M 376
was a thing and M 372
was a he was M 370
was a thing fit M 368
war i am going M 366
was i to run M 362
was i on this M 362
war i am not M 358
was a thing new M 356
was i by that M 353
was i to his M 350
was i of that M 342
war i so that M 340
war i in its M 334
war i the two M 330
was a ring for M 320
was a tea and M 312
way i is not M 310
war i he saw M 310
was a thing all M 307
was i so weak M 304
was a he and M 296
war i to his M 296
war i is one M 294
was i of her M 292
was i so long M 288
war i to bring M 286
war i the idea M 286
was i so near M 284
way i am for M 282
was a king not M 280
war i he did M 276
war i as they M 274
war i the area M 272
was i at any M 266
was a tea for M 260
was i of its M 258
way a thing can M 254
way i am too M 252
was i in her M 252
was i of all M 250
war i the use M 244
was i it was M 238
was a king too M 238
war i the old M 238
war i in new M 238
was i to lie M 236
was i as one M 235
way i do all M 232
was i to bear M 230
war i to its M 230
war i he and M 226
was i so mad M 224
was a thing now M 220
was a thing set M 218
was a thing yet M 216
war i in both M 214
was a thing our M 210
was i to fly M 206
way a thing was M 198
was a thing men M 198
was a thing easy M 198
was i to lead M 196
was i to earn M 196
was i so sad M 196
was a thing both M 194
was i to lay M 192
war i to get M 192
was i to win M 190
was a thing his M 190
way i am all M 188
war i to deal M 188
was a tea set M 186
war i or that M 186
way i do but M 182
way i eat and M 180
way i go now M 178
war i to see M 178
was i he was M 176
was i am ere M 176
was a no mean M 176
was a go for M 176
war i to aid M 176
was i as bad M 174
was i am his M 174
was a go and M 174
war i as being M 172
war i to use M 170
war i am now M 168
was i at one M 166
way a thing may M 164
was a wing for M 164
was a thing her M 160
war i on his M 160
war i by his M 160
was i by all M 158
was a wing with M 158
war i is now M 158
was a foe who M 156
was i at her M 154
was a foe and M 154
war i in east M 153
way i am but M 152
was a wing that M 152
war i as his M 152
was i to that M 148
was i to fit M 148
was i by its M 144
was a thing god M 144
war i or who M 142
was i the son M 141
way i am this M 138
war i he led M 138
way i am far M 136
war i in all M 136
way i am led M 134
was a foe that M 134
war i on both M 134
war i he won M 134
was a ring she M 128
war i or had M 128
war i to one M 127
was a ring box M 126
war i on this M 126
was i in fear M 124
was a thing few M 124
was a ping and M 124
was a he had M 124
war i the red M 123
war i to try M 122
war i to end M 118
war i at its M 118
was i so easy M 114
was a tea bag M 114
was a by now M 114
was i so mean M 113
war i in one M 112
war i at age M 112
war i by both M 110
was i in our M 108
was i if not M 108
was a thing but M 108
was a wing and M 106
was a thing going M 106
way i go out M 105
was i to all M 104
was i or she M 104
was a foe not M 104
war i by its M 104
way i or any M 102
way i am you M 102
was i up for M 102
was a thing any M 102
was a king one M 102
war i in may M 100
was a he one M 98
way i am than M 96
was i so ill M 96
was i at ease M 96
was a king then M 96
war i it did M 96
way i am one M 95
was i to end M 94
was i the boy M 94
was i of not M 94
war i as did M 94
war i the fear M 92
was i in than M 91
was t do not M 90
was i to fear M 90
was i or any M 90
was i at being M 90
war i in her M 90
was i up than M 88
was i by now M 88
way a thing has M 86
was i by them M 86
was a thing put M 86
war i as head M 84
way i go with M 82
was i so low M 82
was i am going M 82
was a king had M 82
was i in and M 80
was a king was M 80
war i to win M 80
was a no one M 59
way i am that M 47
war i no one M 40
was i in bed D 450
was a sea and D 424
was a sea god D 390
was a sea that D 360
was a sea lion D 353
was a doe and D 232
was i to wear D 214
was i to thee D 199
was a pi phi D 166
wad i be they D 126
was a ping pong D 117
was a sea with D 112
was a doe with D 112
was a sea dog D 106
way i am met D 100
was i to ken D 98
was a sea fog D 95
war i by sir D 94
was a hoe and D 82
war i he met D 80
