was at a loss M 318296
was in a very M 234076
was in a great M 151394
was of a very M 140860
way to a more M 128230
was in a good M 117624
was at a time M 92689
was to a great M 71378
was of a more M 60608
was of a kind M 53922
was in a most M 49228
was in a fair M 42293
war as a means M 39856
was in a high M 38240
was in a more M 37888
was at a very M 37430
was in a deep M 34582
was in a room M 34088
was in a rage M 33152
was of a most M 31454
was as a rule M 31406
was in a much M 31260
was of a high M 25974
was at a great M 24164
was in a dream M 23408
was on a very M 22484
was at a high M 21901
was of a much M 21658
was of a good M 21578
was of a dark M 21330
was of a type M 21017
was it a good M 19453
was in a kind M 18240
was on a high M 17958
was it a dream M 17907
was in a sort M 17768
was on a trip M 17625
was in a poor M 17371
was on a hill M 15674
way of a good M 15115
war at a time M 14884
was in a dark M 14681
was on a much M 14394
was of a mind M 14116
was on a tour M 14058
was of a deep M 13792
was of a sort M 11925
was to a very M 11552
was in a rush M 11486
was in a fine M 11210
way to a much M 10816
was on a ship M 10595
way to a great M 10494
was he a good M 10426
way of a more M 10284
was in a fury M 10154
was in a cast M 9797
was in a cold M 9576
was of a great M 9558
was in a city M 9415
was at a much M 8782
was it a case M 8722
was of a young M 8576
was of a mild M 8474
was of a less M 8250
way to a very M 8181
was in a part M 8175
way at a time M 8157
was in a bind M 8052
way as i have M 7876
way to a kind M 7675
way of a ship M 7663
was in a town M 7570
way to a good M 7508
was of a fine M 7365
was on a more M 7110
was in a less M 7108
way to a full M 7086
war is a great M 7050
was in a time M 6954
was in a safe M 6878
was as i have M 6862
was in a case M 6748
was of a size M 6673
was he a great M 6386
was in a cave M 6330
was in a wild M 6290
was as a young M 6148
was in a book M 6086
was it a sign M 6040
was in a half M 5994
was at a safe M 5956
was in a blue M 5938
was in a single M 5930
was in a trap M 5924
was in a cell M 5892
was at a depth M 5790
was in a full M 5678
was in a play M 5604
way in a very M 5567
was in a hole M 5382
was on a list M 5378
was in a land M 5377
was of a rich M 5370
war is a very M 5349
was at a rate M 5322
was in a form M 5320
way to a single M 5218
way to a life M 5148
was in a line M 5146
war as i knew M 5062
was in a huge M 4998
way to a high M 4912
way to a less M 4878
was in a cage M 4854
was on a good M 4613
was as a means M 4548
was of a dull M 4538
war is a good M 4518
was of a single M 4471
way of a great M 4440
was it a great M 4408
was on a line M 4385
way of a free M 4323
was on a fine M 4281
was on a road M 4261
war is a game M 4249
way to a true M 4246
way as a means M 4217
way of a single M 4131
way of a full M 4112
way to a deep M 4108
way to a third M 4041
was by a very M 4032
way of a very M 4014
was in a well M 3998
way is a very M 3994
way up a hill M 3991
was on a side M 3990
war in a time M 3972
was in a tree M 3960
war as a great M 3894
was in a home M 3873
was it a very M 3857
was on a cold M 3846
was on a date M 3790
war to a peace M 3754
was in a heavy M 3744
way to a wide M 3716
was of a soft M 3686
was in a rare M 3662
way of a clear M 3626
was in a band M 3576
way to a clear M 3490
way is a good M 3478
was in a nice M 3468
was in a back M 3441
was in a soft M 3436
way as a single M 3355
way to a look M 3328
was in a wood M 3318
was of a like M 3298
was on a fast M 3282
was in a hell M 3255
way to a sort M 3247
way if i were M 3200
was of a rare M 3170
way to a free M 3169
was of a fair M 3126
was on a three M 3124
way of a gift M 3112
was in a ship M 3105
was in a shop M 3072
was at a good M 3068
way to a room M 3058
was in a like M 3053
was up a tree M 3027
was it a trap M 3022
was in a vast M 3014
was of a poor M 2984
way of a true M 2936
war in a very M 2929
was on a great M 2928
was in a free M 2924
war as a kind M 2911
way to a form M 2874
was it a part M 2861
way to a door M 2832
was of a clear M 2832
was by a single M 2826
way of a note M 2824
was he a fool M 2794
was to a high M 2770
was as a part M 2768
was in a raging M 2754
way in a single M 2744
war in a single M 2735
way to a well M 2734
was at a late M 2724
war in a more M 2665
was at a more M 2654
was in a bank M 2652
way to a city M 2635
way of a fool M 2632
way to a view M 2622
was it a fact M 2621
was it a time M 2611
was in a side M 2566
was in a warm M 2565
was it a kind M 2562
was in a third M 2531
was in a true M 2518
was in a life M 2504
was on a dark M 2501
was of a girl M 2478
war or a threat M 2470
was on a wide M 2458
was on a case M 2444
way to a vast M 2434
was on a single M 2397
was in a hard M 2374
was in a three M 2372
way to a just M 2348
way of a fair M 2344
was in a wide M 2336
was at a full M 2328
was he a very M 2323
way of a young M 2320
was in a clear M 2316
was in a mild M 2314
was as a great M 2314
was of a cold M 2301
war is a part M 2295
was on a leave M 2268
way of a third M 2242
was on a beach M 2238
way to a fair M 2233
was by a great M 2222
was in a body M 2220
was it a fair M 2212
was to a young M 2208
war as a form M 2198
was in a knot M 2194
was on a wild M 2184
was in a slow M 2182
way of a theory M 2174
way to a fire M 2154
way to a safe M 2153
way do i want M 2132
way as i went M 2130
way is a great M 2110
was of a warm M 2109
was on a warm M 2098
was of a well M 2090
war on a great M 2090
way of a kind M 2087
was of a pure M 2084
war is a means M 2084
way of a fine M 2071
was on a part M 2056
war as a last M 2034
was in a young M 2014
was it a true M 2008
way to a theory M 2004
was in a ward M 2000
was as a beast M 1998
way of a hint M 1972
was to a much M 1972
way to a goal M 1966
war as a game M 1955
way to a town M 1946
was of a hard M 1945
war is a case M 1944
way of a well M 1942
was of a blue M 1926
was it a gift M 1918
was in a word M 1895
was on a break M 1893
was it a nice M 1888
was by a young M 1884
was of a vast M 1878
was on a main M 1877
way to a land M 1876
was of a bold M 1860
was it i said M 1838
war as a part M 1833
war at a blow M 1830
way to a dark M 1828
was as a kind M 1820
was as i said M 1814
was in a calm M 1813
was it a hard M 1811
war by a single M 1811
was on a full M 1796
way in a great M 1788
was in a rich M 1784
was on a kind M 1782
way of a peace M 1780
was on a rise M 1774
was of a truth M 1748
was in a post M 1740
was in a range M 1737
war as a test M 1732
way in a more M 1718
way to a peace M 1712
way to a cold M 1701
way to a most M 1687
way up a tree M 1679
way to a post M 1678
was on a week M 1672
was on a sort M 1669
war to a more M 1666
was it a test M 1638
way to a cure M 1628
was in a hall M 1624
was he a true M 1620
way to a fine M 1618
way of a test M 1618
war is a fact M 1618
was in a dull M 1614
way of a land M 1612
way to a side M 1610
was of a form M 1610
way to a port M 1608
was on a huge M 1608
way to a wild M 1606
was of a full M 1600
was it a more M 1595
way to a self M 1590
war is a form M 1590
was at a cost M 1585
way of a just M 1580
war is a just M 1573
was it a form M 1568
war as a young M 1568
way of a case M 1556
way as a kind M 1552
was of a heavy M 1546
way of a book M 1544
was on a most M 1544
way to a young M 1542
was in a self M 1542
was it a bird M 1541
way of a high M 1539
was on a clear M 1536
was it a girl M 1536
way as a young M 1530
war is a more M 1526
was he a hero M 1524
way to a huge M 1520
was in a dire M 1518
war as a time M 1511
way of a trial M 1499
was at a most M 1499
way of a treat M 1494
was in a fire M 1480
was in a game M 1477
was on a site M 1476
was it a threat M 1472
way to a slow M 1468
was of a wild M 1466
was in a work M 1466
way by a single M 1461
was on a wrong M 1458
war is a most M 1457
was it a single M 1437
was of a free M 1428
war as a sort M 1426
was in a pair M 1422
way do i wish M 1415
way to a dull M 1414
way of a maid M 1408
way to a rich M 1406
was it a means M 1403
was it a sort M 1402
was in a living M 1400
way to a soft M 1397
war is a kind M 1394
way of a road M 1393
was on a fair M 1392
way to a time M 1382
was it a wise M 1374
was in a four M 1374
way to a warm M 1373
was in a show M 1373
way of a last M 1368
was as a youth M 1368
was in a gray M 1364
way in a dark M 1362
was of a meek M 1360
war to a halt M 1360
was on a vast M 1358
way of a sort M 1339
way as a part M 1337
way as a good M 1336
war as a holy M 1336
was on a four M 1332
was in a jail M 1332
was on a sick M 1330
was on a late M 1330
was as a fire M 1325
was of a huge M 1318
was in a hand M 1306
was on a time M 1304
war is a time M 1302
was as a girl M 1300
war as a very M 1300
was it a lack M 1298
war as a fact M 1286
was by a sort M 1284
was as a very M 1282
was of a time M 1281
was in a moving M 1273
way of a side M 1270
was on a busy M 1270
was on a five M 1268
way of a self M 1264
was as a sort M 1264
way of a cure M 1251
was it a game M 1248
was in a busy M 1226
way in a kind M 1221
was in a girl M 1210
was on a tree M 1206
was to a more M 1200
was as a dream M 1200
way to a three M 1190
was on a fool M 1189
way in a wood M 1186
way to a back M 1184
way to a host M 1182
was on a walk M 1182
war is a much M 1162
way in a city M 1161
way of a wide M 1160
way of a plan M 1160
was of a self M 1156
was on a spring M 1143
was as a bird M 1143
was by a kind M 1142
was on a hunt M 1136
way at a very M 1120
was of a date M 1114
was it a love M 1104
was of a calm M 1101
way of a union M 1099
was in a clean M 1099
was in a north M 1098
was by a door M 1098
was on a slow M 1090
was on a bare M 1088
was in a fast M 1087
way to a part M 1082
way in a case M 1082
was in a late M 1082
way in a most M 1078
was in a sore M 1078
was on a back M 1075
way as a rule M 1074
was to a single M 1072
was on a work M 1072
was in a nest M 1072
way to a hard M 1067
way of a threat M 1064
way is a kind M 1063
was at a town M 1060
was in a mind M 1058
way to a mass M 1054
way as a great M 1050
was of a grey M 1048
was on a well M 1047
war at a cost M 1046
war as a threat M 1046
was to a life M 1043
was of a city M 1038
was in a pile M 1034
was on a lake M 1032
was on a book M 1029
way on a single M 1020
way of a life M 1018
way by a very M 1016
was at a heavy M 1010
war as i have M 1010
war at a single M 1008
was it a work M 1007
way to a game M 1001
war in a just M 997
way of a sign M 994
was as a book M 992
was it a heart M 986
was in a shed M 986
was in a lady M 982
way of a door M 980
war is a holy M 978
way to a range M 976
was in a five M 972
way of a bird M 971
was as a drop M 970
way of a back M 967
way as a sort M 962
way of a living M 958
way to a girl M 954
was on a note M 949
way to a type M 947
way to a union M 946
way is a form M 946
was at a post M 946
way or i will M 940
way of a three M 938
way to a calm M 936
way of a poor M 936
way to a pair M 934
was by a wide M 934
was at a fair M 933
way to a pure M 932
war as a just M 929
was on a call M 920
way to a tree M 917
was by a good M 916
was it a book M 914
war on a more M 913
was in a week M 912
war in a month M 912
was in a vice M 908
way to a home M 907
way to a living M 898
was of a male M 898
was on a cell M 897
way to a cool M 896
way as a form M 896
was in a rest M 896
was in a union M 895
was by a well M 895
war as a free M 890
way as i came M 888
was at a halt M 888
way of a work M 887
was on a peace M 880
war as a full M 880
was of a lady M 878
was it a plan M 878
war in a great M 876
was on a month M 874
war as a good M 874
was as a baby M 871
was at a play M 870
way of a home M 868
way to a heavy M 866
was by a road M 866
way of a deep M 862
was in a gale M 862
was in a cool M 861
was in a bare M 860
was in a mist M 859
way to a road M 858
way up a dark M 856
was in a note M 853
was of a slow M 852
was in a tomb M 852
was of a bird M 850
was in a wrong M 850
was if i were M 846
was as a sign M 846
way to a line M 844
was to a good M 844
was on a less M 843
was he a young M 838
war as a sign M 838
war on a very M 829
war in a most M 823
way of a line M 822
was on a bank M 820
was in a losing M 815
way of a dream M 812
way is a sign M 810
war as a single M 810
was on a life M 808
was at a vast M 806
was to a lady M 804
was it a full M 798
was it a week M 797
was at a stop M 796
was on a fact M 794
was of a late M 790
was at a bend M 790
way to a bank M 789
way to a love M 784
way if i have M 782
was on a self M 781
was in a road M 781
way of a rich M 780
was to a girl M 780
was as a single M 780
way to a half M 778
war of a very M 778
war in a week M 778
was of a life M 776
way of a love M 774
was it i heard M 774
way to a spring M 767
was on a hard M 766
way to a ship M 765
was as a high M 761
was it a wild M 760
was in a grey M 760
way to a need M 758
was he a nice M 758
way to a four M 756
was in a south M 755
was of a length M 754
was on a need M 752
was by a show M 749
was it a young M 746
was in a lull M 745
was of a pair M 744
was it a clear M 744
was as a fact M 743
way of a body M 742
was he a part M 741
way on a dark M 740
was on a third M 739
way in a body M 737
was on a trial M 737
way of a girl M 734
way is a more M 734
was in a holy M 734
was in a past M 732
was in a mass M 732
was in a pure M 730
was in a west M 727
way by a great M 726
way at a great M 722
was of a gray M 718
was in a unit M 718
was at a huge M 716
way to a lady M 712
was at a site M 711
was at a lost M 711
way as a free M 710
was it a last M 710
was on a half M 709
was in a ratio M 708
war as a case M 708
war is a test M 707
was of a land M 706
way in a wide M 704
war at a very M 702
way of a most M 701
was on a calm M 698
way to a show M 696
way to a call M 695
was in a down M 694
way to a late M 688
was on a soft M 688
was by a most M 688
way to a body M 686
was at a single M 686
way is a most M 682
way as i know M 682
was at a well M 680
was as a form M 676
way in a week M 675
was it a hint M 674
was as a free M 674
war in a much M 674
was on a losing M 673
way in a deep M 672
way by a sort M 670
way on a very M 668
way in a free M 668
way of a rule M 666
war is a hard M 665
was it a well M 664
war of a kind M 664
way at a cost M 663
war as i will M 662
way up a very M 658
was in a crib M 658
was as a city M 658
was at a slow M 656
was he a free M 654
was as a good M 654
way of a thank M 652
was it a life M 651
way to a date M 650
was on a cool M 650
was to a city M 645
way in a book M 644
war is a clear M 644
war on a much M 643
was as a last M 642
was in a bleak M 640
was at a show M 640
way in a good M 638
war to a great M 636
way up a wide M 630
was in a male M 628
was it a poor M 626
was it a male M 624
was in a name M 623
way of a much M 622
way of a moving M 619
war is a sign M 618
way of a deed M 617
way is a part M 617
way to a mild M 616
way or a wrong M 616
way as a full M 616
was it a duty M 616
was on a buying M 614
way of a form M 610
was in a realm M 610
way of a text M 608
way of a post M 608
war as a union M 608
was in a void M 607
was of a depth M 606
was by a more M 606
was it a fire M 605
way to a cave M 604
way of a dark M 604
was it a pure M 604
war on a vast M 604
war is a sort M 604
way do i turn M 602
was at a kind M 602
was of a cast M 601
was on a north M 599
was in a leading M 598
was as a living M 598
way of a call M 597
was at a date M 597
was as a base M 597
way as a work M 595
way of a pure M 594
way as a sign M 594
was in a copy M 594
way to a work M 593
was in a loud M 592
way to a hill M 590
way in a month M 590
way as i think M 590
was in a sick M 590
way to a mode M 588
was as a mark M 588
was it a call M 585
was on a bleak M 584
was in a file M 584
way of a pair M 582
way in a time M 582
way up a high M 580
war by a peace M 579
war by a great M 578
way of a vast M 576
way as a book M 574
was it a step M 571
way at a more M 570
was he a poor M 570
way to a holy M 568
was it a self M 568
was in a port M 568
way as a more M 567
was it a high M 565
was on a young M 564
was on a hiding M 564
was of a wide M 562
was of a part M 562
was by a deep M 562
was on a dull M 556
was of a line M 556
war to a much M 555
way as i used M 554
was up i went M 554
was in a bend M 554
way of a tree M 553
way in a much M 552
was on a down M 552
was on a test M 548
way as a living M 547
was it a look M 546
was it a name M 542
war is a fine M 542
way on a road M 540
was in a waking M 540
was in a coat M 540
was as a body M 540
war or a great M 540
way as a very M 539
was of a cool M 539
way as a body M 538
was at a side M 538
was to a town M 536
was as i told M 534
was on a free M 533
way to a plan M 532
was on a paying M 532
was in a month M 532
war or a peace M 532
way in a north M 529
was it a ship M 528
war on a single M 528
war in a book M 528
was it a cold M 527
way at a slow M 526
was at a young M 526
way in a well M 524
was it a free M 524
war is a vast M 524
way as a bank M 522
was it a fine M 522
way to a depth M 520
way of a huge M 516
way at a good M 516
was at a range M 515
way to a faith M 514
war is a last M 512
way of a clue M 510
was on a show M 510
was of a just M 510
was at a less M 510
way at a fast M 509
was on a wind M 508
was by a gate M 508
was on a sure M 506
was on a holy M 506
way at a rate M 504
was on a flying M 504
way of a pass M 503
was it a city M 501
was in a trying M 501
way as a high M 500
was to a poor M 500
was it a slow M 498
way to a lake M 497
was of a three M 496
was in a mine M 496
was in a lake M 496
was it a month M 493
way to a rush M 492
was of a true M 492
was in a fish M 492
war to a very M 490
was it a word M 487
way to a rule M 486
way to a heart M 486
way as a tree M 486
was it a just M 486
war as a more M 486
way to a fast M 482
way as a ship M 482
was in a bold M 482
was at a sort M 482
way of a will M 480
way of a reading M 479
was in a turn M 479
way by a kind M 478
way to a stop M 477
was on a page M 477
was by a slow M 476
way to a poor M 474
way to a five M 472
way of a rest M 472
way of a hole M 472
was up a very M 472
was on a form M 472
was as a ship M 471
way to a gray M 470
was as a full M 470
way of a mass M 468
was it a face M 468
way of a heavy M 466
was of a baby M 466
was in a lost M 466
was at a clear M 466
way up a side M 465
way of a ready M 464
was on a cost M 462
way on a line M 460
way by a young M 460
way as a true M 460
was as a gift M 460
was on a rare M 458
was on a post M 458
was as a self M 458
way to a nice M 456
way to a beach M 456
was it a deep M 456
was in a list M 456
was by a bare M 456
was at a beach M 456
war in a good M 456
war as a unit M 456
way in a half M 455
was he a born M 455
way of a trap M 454
was on a heavy M 453
was on a south M 452
was in a role M 452
was at a spring M 451
way on a clear M 450
way as a word M 450
way as a gift M 450
way in a high M 449
way in a post M 448
way as a line M 448
was on a hair M 448
was in a left M 448
way of a bank M 447
was at a home M 447
war to a high M 447
way to a loud M 446
was on a safe M 446
war is a huge M 446
war as a mode M 446
way if i want M 444
way as a pair M 444
was of a clean M 444
was up a hill M 442
was in a love M 442
was it a rare M 440
way of a time M 438
was it a dark M 438
war at a great M 438
way of a fast M 437
war in a land M 437
way to a trial M 436
way to a truth M 434
way to a play M 434
way do i feel M 433
was on a nice M 432
was of a nice M 432
way in a line M 431
war is a true M 430
was it a trial M 429
way of a play M 428
was it a tree M 428
was in a code M 428
was he a kind M 428
was of a face M 427
way of a slow M 426
was in a just M 426
way of a half M 425
way as a baby M 425
way to a sick M 424
way of a fire M 424
way is a much M 424
was it a less M 424
way by a more M 423
way of a view M 422
was it a third M 422
way do i have M 421
way am i trying M 420
was of a ship M 420
was it a safe M 420
was at a mass M 419
way of a mild M 418
was on a heading M 418
was on a talk M 416
was on a gray M 416
was by a high M 415
way to a shop M 414
was he a fine M 412
was at a fire M 409
way to a gate M 408
way of a safe M 408
was it a need M 408
was it a loss M 408
way to a blue M 406
was it a body M 406
was he a monk M 406
way of a four M 404
way is a means M 404
was it i told M 404
was in a lift M 404
was at a fast M 402
way of a town M 401
way of a prior M 401
was on a moving M 401
was it a blue M 399
was of a town M 398
was as i left M 398
was as a wild M 398
way to a case M 396
way of a word M 396
was it a wish M 396
way in a town M 395
way to a reading M 394
way in a land M 394
was it a huge M 394
way as a moving M 393
way as i feel M 392
was in a trial M 392
way of a hearing M 390
way of a gate M 390
way at a single M 390
was in a baby M 390
was by a trap M 390
way of a step M 389
way on a ship M 387
was on a city M 387
was in a snow M 386
was at a third M 386
way of a game M 385
was it a vain M 384
war as a base M 384
was of a body M 383
way so i will M 382
way on a trip M 382
way in a slow M 382
was to a less M 382
was it a play M 382
was it a copy M 382
way to a rise M 380
way as a bird M 380
was it a hope M 380
war is a poor M 380
way in a south M 378
was on a like M 378
was it a move M 378
way of a show M 377
way of a wise M 376
way in a room M 376
way at a walk M 376
was on a fire M 376
way in a work M 375
way in a mass M 375
way as a test M 374
was on a plan M 374
way to a dream M 372
was on a mild M 372
was on a grey M 372
was of a tree M 372
was by a fine M 372
way to a base M 371
way to a hall M 368
was on a step M 368
war is a young M 368
way of a name M 366
was as a well M 365
was as a land M 365
way in a wild M 364
was it a land M 364
was it a heavy M 364
way as a self M 362
way as a male M 362
was on a home M 361
way in a snow M 360
way do i think M 360
war to a single M 359
way to a clean M 358
was of a living M 358
was as i knew M 358
way of a hard M 357
way as a text M 356
was to a well M 356
was he a hard M 356
was at a book M 356
war is a well M 356
war as a hero M 354
way of a holy M 352
way in a sort M 352
way in a dream M 352
way as a pure M 352
way by a good M 350
was at a part M 350
was as a link M 350
was it a mark M 348
war of a more M 348
way to a book M 347
way to a sure M 346
way to a rest M 346
way of a duty M 346
way of a city M 346
way as i knew M 346
way as a unit M 346
was it a pose M 346
was in a youth M 346
was in a mode M 346
way of a break M 345
was at a bank M 345
way of a lady M 344
way is a clear M 344
way at a high M 344
was of a mass M 344
was in a cult M 344
was as a poor M 344
way in a heavy M 342
was to a home M 342
war is a threat M 342
was he a well M 341
war at a rate M 340
was to a kind M 339
was of a saving M 339
way on a wide M 338
way of a nice M 338
was at a game M 338
was as a dark M 338
way as a fine M 337
way to a wood M 336
was to a depth M 336
was on a deep M 336
was by a union M 336
way to a lost M 335
way to a loss M 334
way as a girl M 332
way of a rare M 330
way in a hard M 330
way as a case M 330
was it a clean M 330
was on a reading M 329
was in a flying M 329
way of a hand M 328
way by a band M 326
way as a threat M 326
was of a third M 326
was of a safe M 326
was of a daring M 326
was it a wrong M 326
was he a threat M 326
was by a full M 326
war by a young M 326
way to a wise M 324
was of a half M 324
was it a lady M 324
was at a fine M 324
was as i went M 324
was as a test M 323
way of a list M 322
way to a site M 321
war on a third M 321
was to a land M 320
was it a loud M 320
was he a rich M 320
war as a high M 320
was as a step M 319
way of a part M 318
way in a cold M 318
was on a bend M 318
was he a more M 317
was it a living M 316
was by a true M 316
way to a word M 315
way by a third M 315
was on a health M 315
was in a type M 315
way of a less M 314
was up a good M 314
was on a ward M 314
was it a rule M 314
was in a wind M 314
was at a city M 313
was it i knew M 312
was in a health M 312
was at a shop M 312
was as a unit M 312
was as a thorn M 312
way in a mist M 311
way in a life M 311
was in a spring M 311
way to a grey M 310
was of a make M 309
way of a fall M 308
was to a third M 308
was of a cloth M 308
was at a lull M 308
way to a hearing M 307
was in a buying M 307
way is a sure M 306
way if i went M 306
was as a maid M 306
way on a more M 304
way of a rise M 304
way of a kiss M 304
way as a hand M 304
way am i saying M 304
was by a hole M 304
was be a good M 304
war to a good M 304
war is a high M 303
way to a pile M 302
was on a blue M 302
was of a room M 302
war is a male M 302
way to a cell M 301
way be a good M 300
way at a much M 300
was in a last M 300
was in a talk M 299
was as a tree M 299
way is a hard M 298
way be a part M 298
was it a half M 298
was at a wake M 298
was by a deed M 297
was as a work M 297
way to a last M 296
way to a halt M 296
way of a fish M 296
was it a risk M 296
was in a walk M 296
was by a lady M 296
was as a fish M 296
was to a part M 295
was by a word M 295
way as a well M 294
was he a self M 294
war as a step M 294
way to a fifth M 293
was by a call M 293
way to a bare M 292
way of a link M 292
way as i best M 292
way as a poor M 292
was of a dream M 292
was in a face M 292
was as a birth M 292
war on a wide M 292
was on a range M 291
way to a lack M 290
way to a hunt M 290
was of a book M 290
was it a fish M 290
was at a bare M 290
war as a leading M 290
way to a test M 289
was in a test M 289
way to a leading M 288
way to a fall M 288
way of a warm M 288
was it i felt M 288
was if i knew M 288
was by a much M 288
way as a fire M 287
was at a ratio M 286
war is a duty M 286
way of a tail M 285
way of a wild M 284
way of a tour M 284
way by a road M 284
was in a live M 284
was at a trial M 284
was at a pass M 284
was as a leading M 284
war in a third M 284
war as a vast M 284
was it a longing M 282
was it a late M 282
was it a goal M 282
was he a most M 282
was at a base M 282
was as a lost M 281
way to a main M 280
was on a pair M 280
was it a baby M 280
was in a taking M 280
was by a line M 280
war is a trial M 280
way to a band M 278
way of a wind M 278
way if i ever M 278
was of a youth M 278
was by a pair M 278
way to a break M 276
was on a base M 276
was he a pure M 276
was by a huge M 276
way of a flag M 275
was by a third M 275
was it a blow M 274
was in a lazy M 274
was at a deep M 274
way to a health M 273
war is a mass M 273
way to a bold M 272
way on a great M 272
way is a slow M 272
way is a fine M 272
was it a hand M 270
was it a clue M 270
was by a side M 270
was as a food M 270
way of a trip M 268
way of a face M 268
was to a rich M 268
was as a port M 268
way to a food M 267
was it a home M 267
way to a hiding M 266
way of a port M 266
was of a holy M 266
was in a loop M 266
way to a hole M 265
was he a leading M 265
was at a half M 265
way to a baby M 264
way of a walk M 264
way of a goal M 264
way by a body M 264
way as a term M 264
war as a body M 264
was at a lake M 263
way to a wish M 262
way to a note M 262
way to a longing M 262
was to a huge M 262
was on a sign M 262
was it i came M 262
war in a vain M 262
way as a will M 261
was up a side M 261
was of a fire M 261
way to a rage M 260
way is a fact M 260
way as a drop M 260
was on a pile M 260
was in a tail M 260
was by a band M 260
way of a bait M 259
was it a show M 259
was as a type M 259
way of a youth M 258
way of a north M 258
was to a vast M 258
was of a peace M 258
was it a date M 257
way to a meet M 256
way is a true M 256
was it a type M 256
was by a pure M 256
way as a type M 255
was to a living M 255
was of a birth M 255
was in a fifth M 255
way of a data M 254
way in a ship M 254
way in a game M 254
way as a rise M 254
was of a ready M 254
was of a bare M 254
was he a wise M 254
was by a host M 254
was on a pass M 253
way is a gift M 252
was he a lord M 252
way up a bank M 250
way is a huge M 250
way in a form M 250
was if i went M 250
was he a cold M 250
was at a hearing M 250
war of a week M 250
war as a male M 250
way to a weary M 248
way as a hard M 248
way as a fish M 248
was to a most M 248
was of a play M 248
was in a fool M 248
was in a boys M 248
was by a body M 248
way of a rate M 247
way to a means M 246
way to a dread M 246
was on a theory M 246
was in a sixth M 246
was as a third M 246
was as a live M 246
war of a great M 246
way on a case M 244
way as i love M 244
was of a lack M 244
was in a vain M 244
war in a part M 244
was on a bearing M 243
was as a home M 243
war in a less M 243
way is a mark M 242
way as a user M 242
was to a room M 242
was by a five M 242
way at a loss M 240
was on a loop M 240
was it a much M 240
was at a three M 240
way as a base M 239
was on a nine M 239
war of a sort M 239
way to a week M 238
way to a wealth M 238
war at a most M 238
was of a past M 237
was of a four M 237
was on a mass M 236
was it a code M 236
was in a base M 236
was he a mind M 236
was at a youth M 236
was of a hand M 235
way on a full M 234
way is a road M 234
way as a trial M 234
was so i went M 234
was of a fact M 234
was it i went M 234
was in a call M 234
way of a mind M 232
was in a wash M 232
was in a text M 232
was by a free M 232
was at a reading M 232
was as a hard M 232
war as a duty M 231
way to a south M 230
way to a keen M 230
way if i knew M 230
was at a health M 230
was as i tell M 230
war as a clear M 230
war as a self M 229
way to a male M 228
way of a truth M 228
way is a sort M 228
way by a wide M 228
way as i will M 228
way as i felt M 228
way as a mark M 228
was on a true M 228
was on a poor M 228
was on a hand M 228
was it i just M 228
was as i grew M 228
was as a breath M 228
war is a single M 228
was to a body M 227
was in a fact M 227
way up a pair M 226
way to a tour M 226
way of a type M 226
was on a west M 226
was is a very M 226
was at a port M 226
was at a lady M 226
war at a more M 226
was of a home M 225
way in a vast M 224
way as a theory M 224
way as a dream M 224
was to a mind M 224
was to a form M 224
was in a hill M 224
was in a food M 224
was by a rare M 224
was by a lake M 224
was as a worm M 224
was at a five M 223
was as a page M 223
way up a great M 222
way of a nest M 222
way of a flying M 222
way in a male M 222
way as i ever M 222
was so i have M 222
was on a live M 222
war of a single M 222
war as a trial M 222
way of a cold M 221
was by a tree M 221
way to a busy M 220
way to a bleak M 220
way on a cold M 220
way of a wish M 220
was of a fish M 220
was it a mask M 220
was in a lose M 220
was by a fair M 220
was as i used M 220
was as i came M 220
war to a safe M 220
war on a plan M 220
war in a form M 220
war at a high M 220
way of a five M 219
way is a fool M 219
was by a heavy M 219
way of a room M 218
was it a kiss M 218
was it a help M 218
was it a fall M 218
was as a site M 218
war is a wrong M 218
war as a most M 218
way to a youth M 217
war as a cure M 217
way by a line M 216
was in a main M 216
was in a giving M 216
was he a sort M 216
was at a rest M 216
was am i blue M 216
was up a high M 215
was on a game M 215
was it a line M 215
was at a hill M 215
way to a shed M 214
way to a rare M 214
was in a lock M 214
was by a hand M 214
was as a town M 214
was as a holy M 214
way in a less M 213
was of a work M 213
war in a half M 213
way of a soft M 212
way as a city M 212
was to a full M 212
was it a theft M 212
was in a core M 212
was at a busy M 212
war in a case M 212
way as a noun M 211
way up a road M 210
way so i just M 210
way of a health M 210
was it a warm M 210
war to a length M 210
war of a much M 210
way of a range M 208
way of a past M 208
was at a door M 208
way of a saving M 207
way is a book M 207
way in a huge M 206
was so i told M 206
was in a worn M 206
was by a lack M 206
was by a blow M 206
was at a nice M 206
was in a reading M 205
way to a sixth M 204
way of a toll M 204
way in a safe M 204
was of a case M 204
was in a crying M 204
was by a dark M 204
way of a video M 203
way to a flow M 202
way as i said M 202
was to a fair M 202
was so a part M 202
was of a rash M 202
war to a most M 202
war as a life M 202
way in a rush M 201
was in a video M 201
way to a realm M 200
way in a part M 200
way as a band M 200
way am i ever M 200
was on a heart M 200
was of a wood M 200
was he a wild M 200
was as a pure M 200
war on a huge M 200
war as a youth M 200
way as a heavy M 199
way on a high M 198
way of a copy M 198
way of a code M 198
way of a blow M 198
was it a dread M 198
war by a bold M 198
way of a clean M 197
way do i need M 197
way to a vice M 196
way is a single M 196
was to a fine M 196
was of a hero M 196
was it a mass M 196
was in a cloth M 196
was at a dull M 196
war is a book M 195
way to a deed M 194
way in a text M 194
way by a well M 194
was at a sick M 194
war is a term M 194
was of a heart M 193
was at a rare M 192
was at a boys M 192
was as a hero M 192
was as a heavy M 192
war to a full M 192
way of a hero M 190
way am i giving M 190
was it i used M 190
was by a hard M 190
was by a gift M 190
was by a dream M 190
was at a mile M 190
was as a time M 190
war is a rare M 190
way is a step M 189
way on a date M 188
way in a gale M 188
way as i treat M 188
way as a three M 188
was on a text M 188
was in a rain M 188
was by a poor M 188
was by a form M 188
was by a bold M 188
was at a walk M 188
war is a link M 188
war at a safe M 188
war as a work M 188
war as a rule M 188
way is a well M 187
was on a dare M 187
way to a ready M 186
way to a healing M 186
way of a host M 186
was to a miss M 186
was of a lone M 186
was of a base M 186
was as a true M 186
was as a threat M 186
war as a true M 186
was at a union M 185
war in a body M 185
way of a send M 184
way of a mark M 184
way of a food M 184
way is a poor M 184
way is a line M 184
way as i walk M 184
way as a main M 184
was so i said M 184
was as a root M 184
was as a lone M 184
way as a cold M 183
was at a turn M 183
was at a back M 183
way as i find M 182
way am i taking M 182
was on a door M 182
was of a busy M 182
was it a term M 182
was in a wish M 182
was he a full M 182
was at a work M 182
war on a high M 182
war is a work M 182
war is a losing M 182
war in a city M 182
way of a base M 181
way as a time M 181
was in a loss M 181
way in a fast M 180
way as i left M 180
way as a youth M 180
was of a keen M 180
was at a four M 180
way as a call M 179
way to a nest M 178
way of a down M 178
was on a girl M 178
was in a ready M 178
was as a peace M 178
war in a fair M 178
way in a note M 177
was of a turn M 177
was in a fold M 177
way of a meaning M 176
way of a main M 176
way of a debt M 176
way as i look M 176
was up a great M 176
was of a vain M 176
was it a truth M 176
was it a most M 176
war to a just M 176
way on a good M 174
way by a heavy M 174
was on a last M 174
was it a peace M 174
was by a note M 174
was as a monk M 174
war at a much M 174
way on a tour M 172
was via a single M 172
was to a post M 172
was so i just M 172
was it a beast M 172
was in a torn M 172
was in a pose M 172
was as a play M 172
was as a huge M 172
was as a hand M 172
war or a cold M 172
way in a third M 171
way of a move M 170
way of a left M 170
way in a last M 170
way as i told M 170
way as a play M 170
was to a wide M 170
was it a theory M 170
was if i told M 170
was as a cure M 170
war to a draw M 170
way up i heard M 168
was of a wrong M 168
was of a trip M 168
was it a deed M 168
was by a like M 168
was by a late M 168
was at a road M 168
way to a drop M 167
was it a fake M 167
way at a depth M 166
was on a lone M 166
was it a busy M 166
was by a hair M 166
war is a risk M 166
way as a land M 165
was of a width M 165
was in a lone M 165
was as a three M 165
way of a bold M 164
way as a third M 164
was on a pure M 164
was of a week M 164
was of a road M 164
was in i said M 164
war in a wide M 164
was to a time M 163
was by a male M 163
way to a moving M 162
way to a list M 162
way of a heart M 162
way as i send M 162
way as i hope M 162
way as a wild M 162
way as a fall M 162
was on a unit M 162
was of a fading M 162
was in a know M 162
was in a bent M 162
was at a poor M 162
way of a term M 161
war is a self M 161
way of a user M 160
way of a late M 160
way if i live M 160
way if i came M 160
way by a host M 160
way as a road M 160
was on a type M 160
was it i seen M 160
was it i meant M 160
was in a used M 160
was if i made M 160
was he a lone M 160
war of a most M 160
war in a kind M 160
way to a fury M 158
way of a male M 158
way by a side M 158
way as a file M 158
way am i like M 158
was of a wise M 158
was if i ever M 158
was by a vast M 158
was by a draw M 158
was as a mask M 158
war in a calm M 158
war as a type M 158
war as a gift M 158
was to a book M 157
was in a pass M 157
way if i told M 156
way by a back M 156
was on a lazy M 156
was in a prior M 156
was in a bird M 156
was as a more M 156
war or a time M 156
war on a young M 156
war in a town M 156
war by a more M 156
way on a much M 155
was on a wood M 155
way of a weary M 154
way of a loss M 154
way is a type M 154
way is a nice M 154
way in a clear M 154
way as a sick M 154
way as a home M 154
was of a band M 154
was it i gave M 154
was in a beach M 154
was as a love M 154
was as a copy M 154
war of a type M 154
way of a spring M 152
way of a fifth M 152
way is a holy M 152
way in a calm M 152
way by a pair M 152
way by a deep M 152
way as a seed M 152
way as a deed M 152
way as a debt M 152
was on a rest M 152
was of a loud M 152
was it a moan M 152
was by a girl M 152
was by a fire M 152
was at a lose M 152
way or a more M 151
way up a vast M 150
way do i speak M 150
way as a loss M 150
was to a line M 150
was as a seed M 150
was as a clear M 150
war to a game M 150
war is a life M 150
war if i were M 150
way as a most M 149
was on a video M 149
was on a land M 149
way up a deep M 148
way to a threat M 148
way to a pass M 148
way to a hope M 148
way in a vain M 148
way in a fine M 148
way as i made M 148
way as a rich M 148
way as a game M 148
was on a mail M 148
was on a draw M 148
was by a three M 148
was as a fine M 148
war on a full M 148
war is a hell M 148
way of a baby M 147
way as a spring M 147
was it a break M 147
way to a clue M 146
way is a rare M 146
way is a high M 146
way in a three M 146
was on a nest M 146
was of a union M 146
was it a pair M 146
was in a nine M 146
was at a talk M 146
was at a risk M 146
war is a step M 146
war in a high M 146
was at a mine M 145
war or a game M 145
war is a less M 145
way to a like M 144
way to a cult M 144
way on a fine M 144
way of a look M 144
way do i look M 144
was to a rare M 144
was of a five M 144
was in a such M 144
was in a mask M 144
was in a lack M 144
was by a life M 144
war to a fair M 144
was as a line M 143
was as a hell M 143
was of a lazy M 142
was in a heart M 142
was in a daring M 142
was by a mass M 142
was at a blow M 142
war in a holy M 142
way to a west M 141
was as a snow M 141
was as a clean M 141
war on a peace M 141
way up a good M 140
way to a pain M 140
way of a calm M 140
way is a vast M 140
way as a wise M 140
way as a gain M 140
was to a work M 140
was to a late M 140
was so i felt M 140
was on a lady M 140
was it a vast M 140
was in a door M 140
was as i think M 140
was as a pair M 140
was as a bank M 140
way to a mind M 139
way is a life M 139
was of a left M 139
way on a walk M 138
way as a mode M 138
way as a list M 138
was of a prior M 138
was it a view M 138
was in a gift M 138
was he a keen M 138
was at a meet M 138
war in a last M 138
war by a just M 138
war as a huge M 138
way as a wood M 137
was on a snow M 137
way to a wake M 136
way to a face M 136
way so i have M 136
way of a monk M 136
way of a lock M 136
way of a flow M 136
way if i wish M 136
way by a most M 136
way as a life M 136
was up a full M 136
was on a clean M 136
was at a wide M 136
way is a test M 135
way as a step M 135
way to a rash M 134
way is a case M 134
way as a blow M 134
was in a plan M 134
was in a healing M 134
was in a depth M 134
was as a lake M 134
war in a vast M 134
way to a left M 133
was by a cold M 133
way to a wrong M 132
way to a code M 132
way or a like M 132
way on a wild M 132
way of a thread M 132
way of a band M 132
way in a range M 132
was in a bell M 132
was he a heavy M 132
was by a monk M 132
was as a meek M 132
war is a mine M 132
was on a body M 131
was it a post M 131
was at a baby M 131
was as a call M 131
way to a vain M 130
way to a name M 130
way to a live M 130
way to a hint M 130
way or a good M 130
way of a sage M 130
way in a back M 130
way by a high M 130
way at a fair M 130
way as a name M 130
was to a sick M 130
was on a rich M 130
was as a most M 130
war or a good M 130
way up a back M 129
way by a male M 129
was of a post M 129
war is a base M 129
way to a text M 128
way to a bird M 128
way of a unit M 128
way of a gale M 128
way do i deny M 128
way by a huge M 128
was on a role M 128
was of a lost M 128
was it i think M 128
was it a room M 128
was in a weary M 128
was by a rule M 128
war by a safe M 128
way to a flag M 127
way as a video M 127
way as a data M 127
was of a south M 127
way of a busy M 126
way is a pure M 126
way in a fair M 126
way as a duty M 126
was to a site M 126
was on a play M 126
was of a view M 126
was as a wide M 126
war is a type M 126
war by a well M 126
way of a lift M 125
was of a fast M 125
way of a shop M 124
way is a time M 124
way as i speak M 124
was to a tree M 124
was to a ship M 124
was of a sick M 124
was at a wild M 124
way as a food M 123
was of a leading M 123
was in a mail M 123
way to a raging M 122
way is a fair M 122
way if i stay M 122
way by a slow M 122
way as i want M 122
way as i once M 122
was it a note M 122
was in i felt M 122
was in a burn M 122
was at a hard M 122
was as a shop M 122
war or a high M 122
way of a means M 121
way in a self M 121
was he a high M 121
was by a four M 121
was as a tale M 121
war by a word M 121
way to a mine M 120
way of a faith M 120
way by a full M 120
way as a four M 120
way as a copy M 120
was on a rush M 120
was it a town M 120
was it a soft M 120
was he a dream M 120
was as a theory M 120
was as a lady M 120
was as a healing M 120
was as a bell M 120
war is a dream M 120
war is a cure M 120
way to a lone M 119
way to a hanging M 119
way as a verb M 119
war as a side M 119
way to a tomb M 118
way of a cool M 118
way at a young M 118
was to a free M 118
was on a kick M 118
was it a breath M 118
was in a draw M 118
was in a care M 118
was at a girl M 118
was as a deep M 118
war or a more M 118
war is a wild M 118
war is a sure M 118
way of a stop M 116
way of a cave M 116
way is a theory M 116
way is a deep M 116
way in a talk M 116
way in a play M 116
way do i know M 116
was by a fall M 116
was as a rich M 116
war by a body M 116
war as a site M 116
way to a meaning M 115
was on a port M 115
was of a month M 115
was at a week M 115
was as a trial M 115
was as a road M 115
was as a male M 115
war as a much M 115
way of a kick M 114
way is a lack M 114
way am i able M 114
was to a case M 114
was of a gift M 114
was it a road M 114
was he a less M 114
was at a like M 114
war to a time M 114
war to a post M 114
war of a free M 114
war is a heavy M 114
war in a peace M 114
way to a void M 113
way by a work M 113
way as a half M 113
was on a swim M 113
was it a five M 113
way to a north M 112
way to a lust M 112
way of a mask M 112
way of a live M 112
way of a drag M 112
way as a last M 112
was on a youth M 112
was on a view M 112
was it a pity M 112
was in a will M 112
was in a once M 112
was by a wild M 112
was by a back M 112
was as a vice M 112
was as a fair M 112
war is a fair M 112
war as a mass M 112
way of a loop M 111
was to a warm M 111
was as a term M 111
way to a unit M 110
way so i went M 110
way of a hill M 110
way of a help M 110
way of a date M 110
way of a coat M 110
way in a full M 110
way if i take M 110
way if i leave M 110
way if a single M 110
way by a bold M 110
way as a hearing M 110
was the t test M 110
was it a will M 110
was in a need M 110
was in a hide M 110
was by a half M 110
was at a flow M 110
was as a text M 110
war or a single M 110
way to a page M 109
way or a means M 109
way as a mass M 109
was of a north M 109
was in a hold M 109
way up a rise M 108
way up a heavy M 108
way to a coming M 108
way is a work M 108
way in a warm M 108
way by a lady M 108
way by a free M 108
way at a late M 108
was in i think M 108
was at a loop M 108
was as a thread M 108
war by a last M 108
way to a snow M 107
was to a port M 107
was on a mine M 107
was by a part M 107
war to a land M 107
way up a huge M 106
way to a will M 106
way on a test M 106
way as a link M 106
was to a bank M 106
was the a self M 106
was tea a heavy M 106
was of a wily M 106
was by a rich M 106
was as i take M 106
war on a city M 106
war is a call M 106
war in a free M 106
war as a pure M 106
way on a well M 105
way of a risk M 105
was in a hearing M 105
way up a girl M 104
way to a gale M 104
way on a busy M 104
way in a poor M 104
way if i said M 104
way by a much M 104
way as a safe M 104
way am i ready M 104
was to a type M 104
was of a moving M 104
was of a monk M 104
was in a make M 104
was by a faith M 104
was by a clear M 104
was at a love M 104
war or a love M 104
war in a poor M 104
war in a cold M 104
way of a wood M 103
way as a page M 103
way to a past M 102
way to a bell M 102
way of a snow M 102
way of a role M 102
way of a bell M 102
way of a beach M 102
way of a bare M 102
way in a past M 102
way in a blue M 102
way as a union M 102
way as a huge M 102
was up a week M 102
was up a half M 102
was to a text M 102
was to a show M 102
was on i went M 102
was it a lost M 102
was as a game M 102
war to a life M 102
war on a calm M 102
war is a city M 102
war in a union M 102
war in a port M 102
war as i ever M 102
way or a three M 101
was of a coming M 101
way to a wary M 100
way to a user M 100
way to a birth M 100
way of a stay M 100
way in a young M 100
way in a pair M 100
way if i know M 100
way be a means M 100
way as i make M 100
way as a note M 100
was on a copy M 100
was it a role M 100
was it a mild M 100
was is a good M 100
was in a peace M 100
was by a land M 100
was at a hall M 100
was at a gate M 100
was as i heard M 100
was as a case M 100
war on a land M 100
war is a tale M 100
war is a deep M 100
war by a kind M 100
war as a wise M 100
way on a page M 99
way of a lone M 99
was it a cure M 99
was by a spring M 99
was by a ship M 99
was at a fifth M 99
war is a peace M 99
way to a width M 98
way as a live M 98
was it a holy M 98
was he a vain M 98
was by a work M 98
was at a past M 98
was as a winged M 98
was as a tour M 98
was as a spring M 98
was as a role M 98
was as a host M 98
was as a duty M 98
war of a young M 98
war in a sort M 98
war by a full M 98
war as a dire M 98
way on a hill M 97
was of a lake M 97
was at a line M 97
war by a very M 97
way up a single M 96
way to a fish M 96
way on a huge M 96
way is a third M 96
way in a test M 96
way do i find M 96
way by a spring M 96
way by a girl M 96
way at a most M 96
way as a slow M 96
way as a goal M 96
was up i made M 96
was on a town M 96
was of a bank M 96
was it a grey M 96
was in a sign M 96
was in a host M 96
was as a vast M 96
was as a name M 96
was as a half M 96
war on a note M 96
war is a hero M 96
way in a four M 95
was in a deed M 95
was in a cost M 95
war as a peace M 95
way up i came M 94
way to a next M 94
way to a many M 94
way to a link M 94
way to a fact M 94
way of a mode M 94
way in a rain M 94
was to a mass M 94
was so i must M 94
was on a coat M 94
was of a west M 94
was it i left M 94
was it a bold M 94
was in a site M 94
was as a fate M 94
war on a most M 94
war is a wise M 94
war as a rich M 94
way of a lake M 93
was on a male M 93
was in a hanging M 93
was at a word M 93
was at a peace M 93
was as a five M 93
war in a north M 93
way to a liking M 92
way on a slow M 92
way of a make M 92
way of a gray M 92
way is a wise M 92
way as a town M 92
way am i coming M 92
was to a hero M 92
was on a turn M 92
was of a loss M 92
was of a beach M 92
was it i have M 92
was it a flying M 92
was at a prior M 92
was at a fish M 92
was as a wise M 92
war is a rich M 92
war is a full M 92
war is a draw M 92
war in a wild M 92
war in a safe M 92
war by a month M 92
was on a load M 91
way up i kept M 90
way up a well M 90
way to a trip M 90
way to a lazy M 90
way or a road M 90
way of a sure M 90
way of a keen M 90
way is a loss M 90
way if i need M 90
way if i gave M 90
way if a girl M 90
way by a range M 90
way as a lack M 90
way am i less M 90
was to a half M 90
was on a duty M 90
was it a rich M 90
was in a wise M 90
was in a flow M 90
was by a kiss M 90
was as a word M 90
war is a mode M 90
way on a side M 89
way on a part M 89
way be a great M 89
was by a self M 89
was by a base M 89
was as a health M 89
war or a just M 89
war by a most M 89
way to a talk M 88
way is a word M 88
way is a threat M 88
way is a noun M 88
way is a heavy M 88
way at a full M 88
way as a site M 88
was so i know M 88
was so i knew M 88
was on a lord M 88
was of a plan M 88
was it a hole M 88
was it a flaw M 88
was it a cave M 88
was he i sent M 88
was by a look M 88
was at a dream M 88
was as a mode M 88
was as a blow M 88
war is a loss M 88
war by a ship M 88
war as a third M 88
war as a theory M 88
way to a turn M 87
was it a bank M 87
war to a third M 87
way to a jail M 86
way on a pair M 86
way of a cease M 86
way is a self M 86
way do i seek M 86
way as a code M 86
was of a winged M 86
was of a game M 86
was if i said M 86
was by a love M 86
was by a just M 86
was at a dark M 86
was as a sage M 86
war to a stop M 86
war or i will M 86
war by a lack M 86
war at a late M 86
war as a term M 86
war or a ship M 85
war is a lost M 85
way to a mark M 84
way of a hail M 84
way is a duty M 84
way by a fine M 84
way as i heard M 84
was up i felt M 84
was to a plan M 84
was to a cave M 84
was it a union M 84
was in a same M 84
was in a bone M 84
was if i kept M 84
was he a lost M 84
war to a kind M 84
war is a gain M 84
war in a cave M 84
way in a hole M 83
way as a norm M 83
was he a third M 83
way up a line M 82
way to a walk M 82
way is a free M 82
way do i hold M 82
way do a great M 82
way by a dream M 82
way as a pile M 82
way as a cell M 82
was up i knew M 82
was on a hint M 82
was on a fall M 82
was it a live M 82
was it a debt M 82
was it a dare M 82
was in a some M 82
was in a monk M 82
was by a will M 82
was as a slow M 82
was as a safe M 82
war on a case M 82
war in a fine M 82
war if i knew M 82
way to a mans M 81
way to a hero M 80
way of a blue M 80
way is a term M 80
way is a goal M 80
way in a busy M 80
was to a youth M 80
was to a slow M 80
was to a holy M 80
was to a cold M 80
was by a rise M 80
war or a hunt M 80
war of a wide M 80
war is a dark M 80
war in a nice M 80
way of a cost M 73
was in a hair M 67
way to a nine M 63
was on a face M 63
was it a side M 62
was as a mass M 62
way is a living M 59
way as a post M 59
was of a once M 58
was as a side M 58
was as a back M 58
way of a leading M 56
was of a clinging M 56
was in a hiding M 56
way of a mine M 55
way as a door M 55
way to a step M 54
way as a side M 54
was in a musing M 54
was by a less M 54
way of a hair M 53
way at a well M 53
was of a snow M 53
was at a hair M 53
way of a drop M 51
was to a male M 51
was as a four M 51
war as a well M 51
way in a living M 49
was on a living M 49
was he a much M 49
was as a door M 49
way to a file M 48
was it a calm M 48
was by a living M 48
way on a three M 47
way of a lost M 47
way by a self M 47
war is a living M 47
was as a much M 46
was as a life M 46
war on a part M 46
way to a saving M 45
way of a coming M 45
way of a birth M 45
was of a door M 45
was in a size M 45
was by a step M 45
way to a hand M 44
way of a cell M 44
way as a leading M 44
was on a union M 44
was on a bird M 44
was at a west M 44
way to a cost M 43
way on a hand M 43
way of a take M 43
way of a pick M 43
way in a word M 43
way as a just M 43
was to a three M 43
was on a food M 43
was in a trim M 43
was as a reading M 43
was as a mine M 43
war as a lost M 43
way to a rate M 42
way at a less M 42
way as a much M 42
way as a fact M 42
was to a past M 42
was in a move M 42
was by a leading M 42
was as a mail M 42
war as a cold M 42
was in a debt M 41
war on a mass M 41
way to a move M 40
way is a drop M 40
way do i take M 40
way do i make M 40
way as a length M 40
was on a take M 40
was it a mine M 40
was in a vest M 40
was by a south M 40
war to a less M 40
war by a hair M 40
war as a land M 40
was in a mood D 59936
was in a coma D 33408
was on a roll D 31888
was in a daze D 19636
was in a foul D 15351
was in a mess D 12194
way of a joke D 11692
was it a mere D 10272
was of a pale D 9394
was in a boat D 9242
was on a boat D 7044
was in a tone D 6976
was on a diet D 6640
was at a ball D 6538
was in a semi D 6172
was in a sweat D 5708
was in a race D 5270
was on a farm D 5116
way of a loan D 4920
was in a tiny D 4396
was in a taxi D 4104
was in a spot D 4084
was of a tall D 3932
was in a glow D 3760
was in a tent D 3572
way to a spot D 3436
was in a funk D 3348
was in a camp D 3308
was of a race D 3164
was it a joke D 3110
was by a mere D 3096
was he a mere D 2944
was in a suit D 2882
was in a maze D 2882
was in a thick D 2554
was in a canoe D 2552
was at a spot D 2524
was on a gold D 2390
was in a vile D 2354
was in a roar D 2310
was in a flat D 2159
was in a sour D 2142
was in a cafe D 2142
was on a flat D 2094
was in a park D 1988
was on a firm D 1868
was on a rock D 1831
war as a mere D 1806
was by a vote D 1804
was in a haze D 1799
way to a mood D 1768
was on a rising D 1752
was in a pool D 1750
was in a zone D 1734
was in a stew D 1734
way to a ball D 1702
was in a barn D 1612
was in a film D 1578
was as a robe D 1562
was on a cash D 1534
was at a desk D 1531
was in a club D 1504
was in a tearing D 1500
was at a club D 1475
was on a leash D 1468
was in a buzz D 1466
was as a mere D 1456
was on a raft D 1446
was at a feast D 1446
way in a maze D 1442
was in a snit D 1438
was at a camp D 1424
was in a drug D 1416
was in a vise D 1414
was in a tall D 1406
war as a tool D 1390
way of a mere D 1384
way of a sale D 1372
was in a stir D 1364
was of a semi D 1356
way to a farm D 1350
was of a roving D 1330
war is a mere D 1328
way of a writ D 1304
was on a bill D 1286
was in a booth D 1274
way to a mere D 1268
was of a dual D 1258
was in a plot D 1210
way of a jest D 1204
was on a radio D 1200
was in a huff D 1196
was in a spin D 1188
was on a spot D 1180
way to a flat D 1175
was in a rock D 1164
was in a rude D 1138
was in a pink D 1138
was in a grim D 1132
way of a lump D 1123
was at a farm D 1088
was in a teasing D 1086
way of a bill D 1070
was on a tiny D 1062
was on a sofa D 1048
way to a tiny D 1044
was in a jeep D 1036
was in a tank D 1016
way to a rising D 1008
way in a boat D 1008
was of a pink D 1000
was in a firm D 984
way of a boat D 978
was in a pine D 974
way to a firm D 966
was on a jury D 965
was of a pious D 926
was as a wife D 914
way to a wave D 906
way of a suit D 906
was as a star D 893
was of a rank D 892
war is a grim D 880
was of a thick D 872
way to a thick D 860
was as a tool D 860
war in a camp D 857
way is a thief D 842
way to a camp D 830
was it a bomb D 826
was on a dirt D 824
was in a vein D 820
was in a pale D 813
was in a robe D 804
was in a bowl D 804
way of a coup D 798
was of a firm D 794
was in a riding D 794
was as a singer D 788
was in a cheap D 786
was he a thief D 784
way to a sale D 782
was on a dais D 782
was by a jury D 766
was in a boom D 764
was on a wall D 761
way to a race D 736
was in a lane D 730
was on a spur D 722
was on a raid D 721
was in a flux D 706
was it a ruse D 702
was on a bike D 696
was of a rude D 686
way of a cash D 680
was in a bathing D 676
was in a ball D 672
was in a navy D 663
way to a booth D 662
was in a farm D 660
was in a yard D 658
was on a sand D 654
was in a joking D 651
way of a soul D 650
was in a cart D 650
way of a wife D 646
was in a slum D 646
was in a sack D 642
was it a hoax D 640
was in a damp D 640
was in a gold D 633
way to a rock D 631
way to a wall D 629
was in a flap D 629
was of a loving D 628
was on a reef D 625
was as a wall D 620
way to a grim D 616
was on a mule D 614
was in a giant D 612
war as a theme D 606
way to a dirt D 604
was on a golf D 604
was it a slip D 602
was as a lamb D 602
was on a string D 598
way to a club D 584
was in a loft D 580
way of a lease D 570
was on a siding D 568
way to a cafe D 566
was in a dive D 564
was on a card D 563
was of a giant D 562
way of a lien D 561
way of a coda D 560
war by a vote D 556
way to a boat D 550
was of a mere D 550
was by a writ D 550
way to a pale D 548
way of a tube D 542
was it a plot D 542
way of a firm D 540
was it a sigh D 538
was in a gown D 538
was in a mining D 536
was in a sulk D 532
was on a skiing D 526
way to a feast D 520
was on a tray D 512
way in a canoe D 510
was on a roof D 508
way to a gold D 507
wax is a very D 504
was in a silk D 504
was he a tall D 504
was it a ploy D 502
was to a jury D 499
was in a peck D 494
was in a fret D 494
way to a tall D 492
way of a rope D 490
way of a vein D 488
was in a steam D 488
way of a duct D 486
was on a spying D 486
was on a drug D 485
way to a cheap D 484
was in a leaky D 484
way to a zone D 482
was it a wolf D 477
was in a loving D 477
way by a mere D 476
way as a tool D 476
was of a flat D 476
way in a thick D 472
was it a jest D 464
way as a mere D 462
was of a cheap D 462
was as a giant D 462
was at a sale D 460
was on a pony D 458
was in a doze D 458
was as a dumb D 458
way to a taxi D 457
way to a grin D 456
was of a sour D 456
was in a radio D 456
way to a pool D 454
was on a tall D 452
was it a thief D 448
was in a duel D 448
was in a bush D 446
was in a sheath D 442
was on a milk D 440
was in a bunk D 440
way of a pipe D 436
was on a wave D 435
was on a theme D 432
was in a coal D 430
was on a desk D 428
way up a wall D 425
way of a sail D 424
was on a hook D 424
war in a mood D 422
was in a mere D 420
way to a semi D 418
way of a vote D 416
way to a sofa D 414
was in a mill D 412
wax is a good D 409
was on a hike D 404
was in a snug D 401
way of a plot D 400
way as a film D 400
was on a ride D 400
was at a race D 400
way to a park D 398
was in a fist D 398
was at a fork D 398
was on a solo D 392
was at a task D 390
was in a fume D 388
was in a fort D 388
way as a sole D 387
was on a rack D 386
was on a pole D 386
was in a foam D 384
was by a rope D 382
way at a trot D 380
was of a mood D 380
was as a tent D 380
way at a pace D 378
was in a belt D 378
was to a spot D 376
was on a slab D 376
was at a fund D 375
was on a film D 374
was of a tiny D 374
was it a boat D 370
way of a lark D 366
was in a deck D 364
war as a duel D 364
was in a desk D 362
was of a waxy D 360
was as a cook D 360
was of a rose D 358
was as a rock D 357
was on a slip D 356
was in a wall D 355
was of a ripe D 354
way of a spur D 352
was in a bill D 348
was he a whit D 348
was at a cafe D 348
wag of a tail D 348
way of a bond D 347
way to a desk D 346
way in a taxi D 346
was on a pace D 344
was on a cart D 344
was in a cove D 344
was in a card D 344
was as a reed D 344
way to a tide D 338
wax is a hard D 338
was on a semi D 338
was in a wine D 334
way up a rock D 333
was on a pine D 333
way of a string D 330
was at a flat D 329
way to a string D 328
was on a rail D 328
was in a muse D 326
was in a cash D 324
way to a barn D 322
way of a ramp D 322
way of a levy D 318
was on a boom D 318
was at a mill D 318
was in a bomb D 316
was on a tram D 315
way of a tiny D 314
was on a spit D 314
was on a giant D 313
was to a farm D 312
was in a mall D 312
way of a steam D 310
was at a card D 309
way up a tall D 308
was in a boxing D 306
was on a rope D 304
was on a lark D 304
was in a corn D 304
way to a belt D 302
was at a tiny D 302
war is a foul D 302
way to a drug D 301
way of a diary D 301
way as a ball D 301
war to a mere D 300
was of a slim D 298
was on a drip D 296
was in a pony D 296
was on a bond D 295
way to a tone D 294
was in a gala D 294
was on a fund D 293
way to a golf D 292
was of a nude D 290
was in a chat D 290
was at a rock D 289
wad be a pity D 289
was on a limb D 288
was in a sand D 288
way to a rude D 286
way to a radio D 286
way to a mouth D 286
way as a rope D 286
way to a mill D 284
way of a quid D 284
was in a dual D 282
was by a bill D 282
was in a nook D 281
way of a film D 278
was in a glen D 278
was as a farm D 277
way to a film D 276
was to a mere D 276
was in a beer D 276
way in a cart D 274
was in a nose D 274
way of a quiz D 272
way do i throw D 272
was in a grip D 272
way of a tall D 270
way of a foot D 270
was on a plot D 270
was on a hiking D 270
was of a gold D 270
was on a tape D 269
was in a dish D 268
was in a dining D 267
was it a race D 266
was in a siding D 266
way of a rent D 264
way as a radio D 264
was in a cream D 264
was in a sale D 262
was in a dorm D 262
was in a blur D 262
was at a pool D 262
was as a joke D 262
war or a coup D 262
was it a whim D 261
was in a pond D 260
was in a fuss D 260
way to a lush D 258
way of a shot D 258
way to a sane D 256
was in a sane D 256
way of a ball D 255
way to a bill D 254
way of a belt D 254
was on a navy D 254
was on a crew D 254
was as a radio D 254
way to a damp D 252
way of a radio D 252
way is a mere D 252
was of a bill D 252
way am i leaving D 251
was on a pier D 251
way on a bill D 250
way as a cash D 250
wax to a depth D 250
was in a muck D 250
was he a drug D 250
was on a mere D 248
was it a rock D 248
was at a booth D 248
was it a freak D 247
way on a boat D 246
was in a tube D 244
was in a neck D 244
way to a tent D 242
was of a club D 242
was by a coup D 242
was at a foot D 242
was it a star D 240
was in a posh D 240
was in a cozy D 240
was he a snob D 240
was at a mere D 240
way of a wage D 238
way of a feast D 238
way as a wave D 238
was of a sect D 238
was as a nail D 238
was in a pack D 236
was as a tiny D 236
way to a pond D 234
way of a cheap D 234
way as a steam D 234
was on a canoe D 234
was in a herd D 234
was in a glum D 234
was at a piano D 234
was of a cream D 232
was of a coal D 232
was by a rude D 232
was in a dour D 231
way as a bill D 230
was in a tram D 230
way to a gust D 228
way as a lens D 228
was in a news D 228
way of a pious D 226
was at a park D 226
was at a fort D 226
was at a fete D 226
way of a wire D 225
way to a joke D 224
way of a whet D 224
was in a diving D 224
way of a farm D 223
way to a boom D 222
way of a theme D 222
way in a rude D 222
way as a wife D 222
was in a wire D 222
was in a lump D 222
was in a hazy D 222
was in a froth D 222
was in a ford D 222
was at a pace D 222
was as a film D 222
way of a news D 220
way by a rope D 218
was in a foot D 217
way as a flat D 216
was it a shot D 216
wad be a great D 216
way of a loving D 214
was of a rosy D 214
way of a foil D 212
way as a wall D 212
was in a rising D 212
way to a roar D 210
way of a roof D 210
way to a sigh D 208
was of a tone D 208
was as a bale D 208
was on a deer D 207
was in a damn D 207
way to a fort D 206
was on a race D 206
was in a drab D 206
was on a task D 204
was on a sled D 204
was on a nail D 204
was it a task D 204
was in a bull D 204
was at a boil D 204
war as a grim D 204
way to a jury D 203
was in a wheat D 203
way of a ruse D 202
way is a task D 202
way as i took D 202
way as a singer D 202
way as a sale D 202
was on a disk D 202
was it a deer D 202
way to a star D 201
way to a maze D 201
way to a cozy D 200
way of a flat D 200
was on a soap D 200
was it a sham D 200
was at a mall D 200
was of a drab D 199
way to a shot D 198
was in a boil D 198
way on a farm D 196
was in a slit D 196
was as a wolf D 196
way to a giant D 195
was in a raving D 195
was up a foul D 194
was in a punt D 194
was in a golf D 194
was in a roll D 193
way as a thief D 192
way as a card D 192
way as a boat D 192
was in a rose D 192
was in a mews D 192
was to a firm D 191
was in a salt D 190
was in a pout D 190
was as a spur D 190
war on a radio D 190
way to a piano D 188
way to a duel D 188
way of a dirt D 188
way at a foot D 188
was to a wife D 188
was in a pram D 188
war is a duel D 188
way to a dining D 187
way of a navy D 187
way of a drug D 187
was on a lease D 187
way as a string D 186
was of a smug D 186
was on a wire D 185
way to a dual D 184
way in a daze D 184
way as a firm D 184
was in a berth D 184
war is a theme D 184
way in a camp D 182
was at a ford D 182
was as a bond D 182
was in a limo D 181
way on a flat D 180
was of a boat D 180
was in a crew D 180
way to a whim D 178
was on a salt D 178
was on a finger D 178
way to a vote D 176
was in a soap D 176
was in a slip D 176
was as a rose D 176
was as a babe D 175
was on a rant D 174
was in a string D 174
was in a rice D 174
was at a rodeo D 174
was at a film D 174
was in a vase D 173
wax at a time D 172
was in a rosy D 172
was in a coil D 172
was in a clay D 172
was by a ford D 172
was at a boxing D 171
way to a snug D 170
way to a mining D 170
way of a rising D 170
way in a tone D 170
was at a golf D 170
war as a rite D 170
was of a bulk D 169
was in a wave D 169
was in a star D 169
way to a cash D 168
way of a race D 168
way of a bite D 168
was on a loan D 168
was in a raid D 168
war by a duel D 168
was as a teen D 167
way in a suit D 166
way in a race D 166
was on a steam D 166
was on a lawn D 166
war is a task D 166
way of a giant D 165
way in a jeep D 164
wax in a fire D 164
was of a vile D 164
was by a pool D 164
was as a foil D 164
was in a duck D 163
way to a berth D 162
way of a tame D 162
war at a desk D 162
war as a joke D 162
way to a news D 161
way as a rock D 161
way to a gleam D 160
way to a ford D 160
way of a pact D 160
way as a jury D 160
was on a neck D 160
was as a fuel D 160
war at a camp D 160
way to a loving D 159
way up a dirt D 158
way to a soul D 158
was it a drug D 158
was it a cheap D 158
was in a milk D 158
was at a radio D 158
was at a gala D 158
was as a solo D 158
war on a mere D 158
way to a beer D 157
was in a crap D 157
way of a fork D 156
way by a firm D 156
was of a grim D 156
was in a rack D 156
was in a fork D 156
was if i took D 156
was by a thick D 156
was as a lamp D 156
was as a ball D 155
war is a moot D 155
way of a wolf D 154
way of a dual D 154
was at a gaming D 152
way as a lamp D 150
wax to a prong D 150
was to a tiny D 150
was it a flat D 150
was in a soup D 150
was as i took D 150
war on a wave D 150
way of a piano D 149
was of a pearl D 149
was it a giant D 149
was in a rank D 149
way to a tank D 148
was on a foot D 148
was it a coup D 148
was in a slot D 148
was in a dock D 148
was in a dell D 148
was by a lane D 147
way to a rosy D 146
way of a wall D 146
way of a grim D 146
way of a bull D 146
was to a wall D 146
was on a thick D 146
was of a clan D 146
was in a dumb D 146
was on a toot D 145
was in a mini D 145
was at a dame D 145
way to a raid D 144
way of a pump D 144
way of a lane D 144
was on a park D 144
was in a heck D 144
was at a barn D 144
war is a joke D 144
way of a park D 142
way of a mouth D 142
way of a cart D 142
way as i rode D 142
way as a frog D 142
was in a lush D 142
was by a boat D 142
wan me t take D 142
way is a moot D 141
was by a shot D 141
wag of a finger D 141
way to a sand D 140
way as a tape D 140
was it a feast D 140
was in a ripe D 140
was at a trot D 140
way of a semi D 139
way up a pine D 138
was in a boot D 138
was he a mining D 138
was at a wine D 138
was at a pump D 138
was at a dock D 138
war as a plot D 138
way of a thick D 136
was of a tint D 136
was it a loan D 136
was in a punk D 136
was in a gene D 136
was in a dank D 136
was by a vine D 136
war as a race D 136
war is a sham D 135
way to a wife D 134
was of a farm D 134
was it a wire D 134
was as a lily D 133
way by a vote D 132
was on a whim D 132
was on a dual D 132
was on a dock D 132
was on a damp D 132
was of a soil D 132
was it a tool D 132
was it a mess D 132
was in a rout D 132
was by a suit D 132
way of a neck D 131
way as a lump D 131
was on a news D 131
way of a pack D 130
way of a jury D 130
way by a jury D 130
way as a drug D 130
was on a mare D 130
was on a dish D 130
was in a tidy D 130
was in a pipe D 130
was in a kilt D 130
was as a limb D 130
war is a race D 130
way up a veil D 128
way up a ramp D 128
way to a bull D 128
was to a race D 128
was on a coal D 128
was in a numb D 128
was as a loan D 128
was as a dove D 128
war as a boon D 128
way to a gala D 127
was on a camp D 127
was at a beer D 127
way of a bomb D 126
was by a ruse D 126
was at a rout D 126
way to a wine D 124
way to a hazy D 124
way to a glow D 124
way of a ford D 124
way as a cook D 124
was up i took D 124
was on a vote D 124
was on a cusp D 124
was of a sale D 124
was in a leafy D 124
way of a duel D 122
way as a wire D 122
way as a joke D 122
was on a trek D 122
was on a bunk D 122
was of a dome D 122
was of a clay D 122
was it a grin D 122
was by a wife D 122
war by a mere D 122
war by a coup D 122
way to a solo D 121
way to a steam D 120
way to a pine D 120
way to a jazz D 120
way on a dirt D 120
was on a clay D 120
was of a wife D 120
was of a wall D 120
was in a gilt D 120
was at a yard D 120
was as a bull D 120
way to a dock D 118
was of a roan D 118
was of a milk D 118
was of a fawn D 118
was of a bull D 118
was it a grim D 118
was in a soil D 118
was in a rope D 118
was in a pail D 118
was in a halo D 118
was by a bull D 118
war in a snug D 118
way of a card D 117
was on a deck D 117
was of a dove D 117
way to a task D 116
way of a task D 116
wax in a very D 116
was to a camp D 116
was on a cord D 116
was in a feud D 116
was in a dirt D 116
was by a wall D 116
was by a ramp D 116
way to a slim D 114
way to a bout D 114
way of a rude D 114
way of a crop D 114
way am i wearing D 114
was on a dive D 114
was it a tall D 114
war is a tool D 114
way as a loan D 113
wax as a means D 113
was it a wall D 113
way up a tiny D 112
way to a pawn D 112
way of a menu D 112
way of a hoax D 112
was on a pack D 112
way to a fund D 111
way of a mule D 111
way of a fund D 111
way at a club D 111
was he a giant D 111
was at a firm D 111
was as a deer D 111
way of a rock D 110
was on a tide D 110
was on a mesa D 110
was on a club D 110
was on a cheap D 110
was on a bull D 110
was in a sexy D 110
was he a dope D 110
was on a tilt D 109
was on a star D 109
was in a skiing D 109
way to a clay D 108
way at a lope D 108
was up a mere D 108
was of a soul D 108
was it a spot D 108
was in a folio D 108
was in a bale D 108
was at a drug D 108
way as a star D 107
was on a pogo D 107
was in a freak D 107
was in a deer D 107
was at a polo D 107
was as a drug D 107
wad be a clean D 107
way to a yard D 106
way to a diet D 106
way on a bike D 106
way in a tiny D 106
way as a gold D 106
was to a ball D 106
was so i took D 106
was on a ford D 106
was it a farm D 106
was in a jazz D 106
was at a news D 106
way to a rodeo D 105
way am i facing D 105
way to a theme D 104
way to a pink D 104
way to a lamp D 104
way in a flat D 104
wax to a high D 104
wax or a coat D 104
was in a throng D 104
was in a pious D 104
was in a bike D 104
was he a boss D 104
was as a semi D 104
was as a race D 104
was as a news D 104
way of a wave D 103
way of a club D 103
was on a ball D 103
was by a foot D 103
was at a stag D 103
way to a khan D 102
way of a tune D 102
way of a pool D 102
way of a desk D 102
way of a cook D 102
way as a bull D 102
was on a ramp D 102
was on a pink D 102
was on a bier D 102
was of a rising D 102
was of a puny D 102
was it a raid D 102
was it a ball D 102
was is a moot D 102
was in a womb D 102
was in a memo D 102
was in a hiring D 102
was as a gleam D 102
war by a firm D 102
wan at a time D 102
was in a palm D 101
was as a loving D 101
way of a boon D 100
way as a thick D 100
was on a bush D 100
was of a hale D 100
was of a dour D 100
was in a twin D 100
was in a raft D 100
was in a hush D 100
was he a tool D 100
was he a mess D 100
was at a dose D 100
was as a club D 100
war on a cash D 100
way to a wage D 99
was as a clog D 99
way to a gush D 98
way of a gold D 98
way as a tube D 98
way as a tall D 98
was on a roving D 98
was on a paid D 98
was on a moor D 98
was in a task D 98
was in a slim D 98
was in a john D 98
war as a tank D 98
way to a paid D 97
way up a rope D 96
way to a rout D 96
way to a rack D 96
way to a coup D 96
way of a star D 96
way of a ruling D 96
way of a nose D 96
way of a mast D 96
way is a disk D 96
was in a rowing D 96
was in a dinghy D 96
war on a farm D 96
way to a firing D 95
way in a semi D 95
was of a fund D 95
was of a buff D 95
was as a paid D 95
way to a numb D 94
way to a loan D 94
way on a wall D 94
way of a sane D 94
way of a memo D 94
way is a tiny D 94
way in a mere D 94
was on a feast D 94
was in a wrath D 94
was in a sink D 94
was in a cone D 94
was by a tiny D 94
was by a slim D 94
was at a toss D 94
war as a radio D 94
way as a coal D 93
way as a bond D 93
was on a racing D 93
was as a pearl D 93
was to a tune D 92
was in a wife D 92
was in a tuft D 92
was in a rapt D 92
was in a pact D 92
was in a joke D 92
was in a howl D 92
was in a dory D 92
was by a slip D 92
war on a whim D 92
way on a rock D 91
way at a farm D 91
was on a quiz D 91
was in a skid D 91
was as a hack D 91
way to a rose D 90
way of a tape D 90
way of a lure D 90
way as a solo D 90
was to a bill D 90
was on a diving D 90
was of a wiry D 90
was of a rock D 90
was in a cask D 90
was he a star D 90
was by a steam D 90
was as a rising D 90
was as a bolt D 90
war or a race D 90
was of a ruling D 89
way to a heady D 88
way to a fork D 88
way to a drab D 88
way or a mere D 88
way of a pore D 88
way of a herd D 88
way of a drum D 88
way of a beard D 88
was of a deer D 88
was in a sari D 88
was in a nude D 88
was in a lawn D 88
was as a mining D 88
was in a hack D 87
way up a spur D 86
way of a tool D 86
way of a taxi D 86
way of a chin D 86
way in a wheat D 86
way by a wall D 86
way as a news D 86
way as a farm D 86
way as a disk D 86
was to a rock D 86
was on a pond D 86
was on a belt D 86
was in a vale D 86
was in a gulf D 86
was in a dime D 86
was at a cheap D 86
was as a rope D 86
was it a wink D 85
was by a sale D 85
was as a coal D 85
way to a dump D 84
way so i took D 84
way of a maze D 84
was on a knee D 84
was on a cane D 84
was of a hazy D 84
was in a veil D 84
was in a mock D 84
was in a leaking D 84
was at a soda D 84
was at a prep D 84
was at a posh D 84
was as a prey D 84
was as a cheap D 84
way to a fete D 82
way of a mill D 82
way of a camp D 82
way at a spot D 82
way as a vent D 82
way as a herd D 82
wax or a hard D 82
wax is a dark D 82
was on a dump D 82
was of a plot D 82
was it a sale D 82
was in a coop D 82
was by a string D 82
was as a pool D 82
way to a mania D 80
way of a singer D 80
way in a film D 80
way by a string D 80
was it a howl D 80
was it a film D 80
was it a crow D 80
was at a rack D 80
was as a pale D 80
was as a clap D 80
war to a farm D 80
war as a cheap D 80
was by a firm D 69
wax in a test D 68
was as a piano D 68
was in a firing D 66
was by a rising D 62
way to a roll D 61
was it a reed D 60
was it a gold D 60
way of a swinging D 59
was in a fringe D 59
was in a solo D 58
was in a hoop D 57
way as a foot D 55
way of a rail D 53
way of a plug D 53
was by a palm D 53
way to a rank D 52
was in a sewing D 51
way as a giant D 50
war as a giant D 50
was in a lace D 49
was in a dust D 49
way to a foot D 48
was on a duck D 48
was in a racing D 47
way to a prom D 46
was in a piano D 46
was as a balm D 46
way of a folk D 45
was on a wage D 45
was in a jury D 44
was by a rock D 44
was it a camp D 43
was in a skin D 43
was in a loge D 43
was in a lime D 43
way as a wage D 42
was on a lane D 42
was it a spur D 42
was in a vine D 42
was he a sham D 42
was at a jazz D 42
was at a cock D 42
way of a mole D 41
way at a dike D 41
was on a writ D 41
was of a wave D 41
was at a sewing D 41
way to a skiing D 40
way on a sled D 40
was at a corn D 40
