wait for a reply M 28314
wait for a while M 21199
wait for a table M 9907
walk for a while M 8952
wake with a start M 6610
wait for a change M 6555
wait for a train M 6300
waking with a start M 5994
ways that i could M 5932
wait for a later M 5518
wait for a period M 5005
wait for a short M 3305
warn you i shall M 2176
wait for a child M 2074
wait for a woman M 1922
wait for a phone M 1892
wait for a final M 1826
ways than i could M 1724
ways that i never M 1648
wait for a pause M 1544
wait for a whole M 1528
walk for a short M 1456
wait for a longer M 1451
wait for a passing M 1406
ways for a woman M 1398
warm for a while M 1376
wait for a large M 1286
walk off a short M 1240
ways that i might M 1116
ways that a child M 1048
wash with a small M 1018
ways for a while M 1017
wait out a storm M 904
wars and a major M 888
wash and a change M 878
ways that i shall M 874
wait for a meeting M 866
walk with a white M 862
ways that a woman M 842
wait for a place M 842
warm and i could M 829
wait for a major M 828
want with a woman M 818
wait for a small M 770
wait for a plane M 751
wait for a given M 714
wait for a green M 706
walk with a light M 699
wait for a light M 686
ways for a child M 674
wait for a buyer M 663
wait yet a while M 655
wait for a group M 654
wait for a visit M 638
ward off a danger M 636
walk for a whole M 635
wait for a quiet M 619
want for a while M 602
wars and a world M 592
wait for a check M 583
walk but a short M 582
wait for a sunny M 578
wait but a short M 564
wait for a night M 554
ways that a given M 544
wait for a party M 536
want for a change M 534
wait for a season M 524
ward for a while M 520
wait for a storm M 519
walk with a woman M 516
wait for a legal M 515
wait for a total M 507
ways that a group M 496
warm for a short M 489
walk with a child M 486
wait for a strong M 480
want and i shall M 479
wait for a first M 478
warm that i could M 466
ward for a period M 466
walk with a drift M 459
wait for a guide M 452
walk and i could M 448
wait for a local M 445
wait for a nurse M 438
wait for a space M 437
wait for a knock M 426
wait for a lucky M 421
walk with a group M 418
wait for a leader M 417
wait for a brief M 411
warm for a change M 408
want with a house M 407
ware with a black M 406
warm with a light M 386
wait for a piece M 382
wait for a really M 376
wait for a human M 373
wars was a period M 366
wake with a sense M 364
wait for a lower M 360
ware with a white M 353
walk with a small M 353
wait for a vision M 352
ways for a small M 349
walk with a steady M 341
ward off a sense M 340
wait for a happy M 335
want with a child M 333
walk was a short M 332
wait for a white M 332
ways can a group M 330
wait out a longer M 327
wait for a fixed M 325
ways that i found M 324
wake with a feeling M 323
wait but a while M 318
walk with a wider M 317
ways for a given M 316
wait for a lengthy M 315
warm with a small M 314
wait for a steady M 306
want for a given M 302
walk for a change M 302
wait for a fully M 301
walk with a sense M 300
want with a bunch M 294
wait for a sound M 294
warm for a longer M 291
wait was a short M 290
wait for a voice M 284
wait for a state M 279
walk for a longer M 276
wait for a guard M 271
wait for a search M 269
wait for a laugh M 269
walk with a train M 266
wait for a price M 266
wait for a reader M 265
wait for a world M 264
wait for a fitting M 264
walk with a guide M 260
wait for a story M 253
walk with a quick M 252
ways that i began M 250
ways for a group M 250
wait for a motion M 245
wait for a still M 244
warm and i began M 243
ward for a short M 243
wait for a class M 242
warm with a sense M 239
wait for a house M 239
ward off a major M 235
walk with a large M 231
wait for a judge M 231
wait for a reason M 229
wait for a fight M 224
ward with a large M 220
ways that a human M 217
wake with a noise M 216
wait for a grand M 215
ways and i could M 214
ware with a light M 214
walk with a walking M 214
wait for a paper M 212
wait for a valid M 208
wait for a safer M 207
wait for a study M 206
warm and a light M 203
walk with a short M 203
wait for a feeling M 203
ways for a leader M 202
wait for a sense M 202
ways that i still M 198
ward was a large M 198
ways that a large M 196
want and i could M 196
wait for a bunch M 196
want with a white M 195
ward off a feeling M 193
walk and a short M 193
wait for a morning M 189
ward read a paper M 188
wake for a while M 187
wait for a point M 187
wait for a shift M 184
wait for a crowd M 184
ways and i shall M 182
wary for a while M 182
ways for a state M 180
want for a child M 179
wait for a stage M 179
wait for a block M 179
want that i could M 178
ways that a small M 177
walk and a drive M 176
wait for a black M 175
want with a place M 173
walk that i might M 172
walk for a child M 171
wait for a royal M 171
wait for a smile M 169
wait for a cloud M 169
ways that a mother M 168
wash out a large M 168
ward off a thrust M 168
wait for a guest M 167
wait for a draft M 167
wait with a quiet M 166
waking with a feeling M 164
wash for a short M 160
ward off a curse M 160
want for a season M 160
walk with a human M 160
warm for a period M 159
ways that a leader M 158
wars and a period M 158
ward was a small M 158
ways for a period M 156
walk that i could M 156
ways for a short M 154
wash and a quick M 154
wait for a healthy M 153
wait for a quick M 152
wash with a strong M 150
wait and i shall M 150
ward off a deadly M 148
wash off a blood M 146
want for a price M 146
wait for a print M 146
want for a short M 145
walk with a smile M 143
walk and a visit M 143
wake with a smile M 143
ways that a state M 140
wait for a query M 140
wait for a proof M 140
wait for a count M 139
ways for a large M 138
ward with a bunch M 138
walk but i could M 138
wait for a clock M 136
wait and i watch M 136
ways for a human M 135
want you i shall M 134
wait out a period M 134
wait for a river M 134
walk and a climb M 133
ways and i never M 132
ward off a growing M 132
want for a place M 131
walk for a block M 131
wait for a start M 131
ways that a reader M 130
wars was a major M 130
want for a whole M 130
walk with a visit M 130
wait for a truly M 129
ways was a proof M 128
ways that a sense M 128
ward with a small M 128
walk for a space M 127
wait for a round M 127
ways with a large M 126
warn you i might M 126
walk with a proud M 126
walk for a healthy M 126
wake her i could M 126
wait for a repeat M 125
walk for a total M 123
ways that a father M 122
want being a lodging M 122
walk was a small M 122
ware that i could M 120
want with a small M 120
warm with a large M 119
walk with a party M 119
walk out a short M 119
wars had a major M 118
wars and a growing M 118
wars and a civil M 118
waking with a sense M 118
ways was a model M 116
ways that a focus M 116
ward was a strong M 116
ward off a storm M 116
want with a piece M 116
walk with a frame M 116
wait with a smile M 115
wait for a match M 115
ways that i tried M 114
ways that a nurse M 114
want has a limit M 114
walk for a period M 113
wait for a close M 113
ways and a large M 112
ware and a black M 112
wait for a rather M 112
wait for a chair M 112
wash with a large M 111
ward off a feared M 111
walk with a loose M 111
warm with a piece M 110
ward and a strong M 110
want for a house M 110
wait for a value M 110
wait and i could M 110
wait for a spare M 107
ways for a whole M 106
ward off a falling M 106
want and a grief M 106
wait for a board M 106
walk with a grace M 105
ways that i really M 104
ways that a change M 104
ways can a child M 104
wash out a trail M 104
wake than a party M 104
walk with a crowd M 103
ways with a woman M 102
walk and i found M 102
wait with a cloak M 102
wait for a fourth M 102
want but a small M 101
wait with a large M 101
wait for a pupil M 101
wait for a power M 101
ways that a virus M 100
ward with a nurse M 100
ward has a claim M 100
walk with a strong M 100
wait for a trend M 100
wait for a loved M 100
want for a father M 99
wait for a wider M 99
wait for a crown M 99
ways that a plant M 98
wait for a crime M 98
ward and i could M 97
walk with a blind M 97
wait for a share M 97
wait for a press M 97
wait for a force M 97
ways that a people M 96
ward for a longer M 96
walk with a vague M 96
wait for a cause M 96
ward for a night M 95
warm but i could M 94
ware has a white M 94
want that i shall M 94
walk and a quiet M 94
wait for a right M 94
ways that a world M 93
wait for a mother M 93
wars are a major M 92
wars and a large M 92
want for a first M 92
walk with a right M 92
wait for a weather M 92
walk off a plane M 91
wait for a feeding M 91
walk for a woman M 90
walk and a small M 90
wake with a sweet M 90
ways and i found M 88
wash out a wound M 88
warm with a steady M 88
ward off a final M 88
walk with a badly M 87
ways that i hoped M 86
ways that a field M 86
ways for a mother M 86
wars with a large M 86
wars for a while M 86
want any i shall M 86
wait for a solid M 86
wait for a nearer M 86
ware and a small M 84
ward was a woman M 84
wait for a landing M 84
wait for a clearing M 83
ways that i often M 82
ways that a study M 82
ways and a strong M 82
wary that i might M 82
wars for a period M 82
ward with a group M 82
ward has a right M 82
ward had a large M 82
want and i never M 82
wait for a warning M 82
warm and a large M 81
ways with a sense M 80
warm with a mother M 80
ware and a large M 80
walk with a freer M 80
wait for a magic M 80
walk with a feeling M 63
wash for a while M 59
want for a small M 53
walk and a place M 53
wait for a blood M 47
wash for a whole M 46
walk with a rather M 42
wait for a stray M 42
want for a leader M 41
walk with a loved M 41
ward off a panic M 40
walk was a turning M 40
wait for a catch M 40
wall was a large D 7152
wall was a small D 3973
walk with a stick D 3817
wave and a smile D 3401
wall and a small D 3319
wall with a small D 3197
wall with a large D 3156
wall and a large D 2930
wall and a ditch D 2797
wave with a period D 2688
wall hung a large D 1998
wall with a piece D 1811
wall for a while D 1717
ways that i would D 1646
wall for a short D 1368
wall with a crash D 1298
wash and a shave D 1296
wage for a given D 1254
ward off a chill D 1251
wall for a light D 1168
walk off a cliff D 1151
wait for a court D 1145
wall with a force D 1080
wave with a phase D 1078
wall and i could D 998
wall with a sharp D 997
wall with a black D 991
wait for a fresh D 964
ways for a nation D 909
wage for a period D 867
wage for a woman D 864
wait for a savior D 829
wave has a phase D 792
walk with a stoop D 759
wait for a truck D 728
wave has a period D 712
wall was a shelf D 692
wall and a strong D 676
wall that i could D 670
wave for a given D 664
walk with a stiff D 643
wait for a rainy D 642
wall was a stone D 632
wall has a large D 628
wait for a donor D 624
wage for a working D 619
wash and a brush D 613
wall with a knife D 605
wall with a ditch D 605
wall with a stone D 604
wait for a mouse D 586
wait for a pilot D 581
wall with a stick D 576
wall and a tower D 576
wall with a strong D 570
wave with a given D 561
waif and a stray D 556
wall and a table D 550
walk with a staff D 541
wave with a small D 539
wall was a sheet D 506
wall was a black D 506
wall with a light D 496
wall with a glass D 471
wall and a stone D 471
walk with a lofty D 470
wait for a drink D 462
wall had a large D 454
wall was a table D 452
wall and a short D 446
wall and a floor D 444
ways and i would D 440
wall with a smooth D 437
wall with a solid D 436
wage and a share D 432
wall with a white D 429
wall with a layer D 425
wall was a glass D 424
wave with a large D 418
wall with a brush D 404
wall and a ceiling D 403
wait for a horse D 401
wall with a speed D 400
wait and i would D 396
wall and a broad D 388
wait for a token D 386
wall and a piece D 382
wall and a hedge D 382
wall was a broad D 380
wall for a given D 378
walk with a glass D 377
wall was a solid D 372
want for a wedding D 366
want with a horse D 363
wall with a short D 358
wall was a niche D 348
wave and a small D 338
wall has a small D 338
wait for a treaty D 330
wait for a ferry D 329
wave with a crest D 328
wall was a bench D 328
wake with a scream D 327
wall with a sloping D 320
wage and a lower D 318
wall with a round D 316
wall with a crack D 316
wall was a mural D 316
wall with a broad D 315
wall was a white D 312
wall and a white D 308
wait for a spell D 307
wall with a tower D 306
wash and a drink D 305
warm with a scoop D 304
wall and a black D 304
wave with a short D 300
wall and a fence D 296
wait for a sight D 296
wave with a steep D 294
wave and a plane D 292
wall with a plumb D 291
wall was a ditch D 290
wait for a wedding D 286
wall and i would D 283
wage and a forty D 280
wall hung a small D 278
wall for a period D 278
wall and a light D 278
walk with a brace D 278
wall with a sound D 275
wait for a lover D 271
wave has a large D 270
wall with a metal D 269
wall and a water D 268
wait for a coach D 267
wave has a speed D 266
wall with a brick D 266
wave has a crest D 264
wait for a social D 259
wave with a speed D 258
wave and a shout D 256
want and i would D 255
wave with a fixed D 254
wall and a brick D 254
wart with a piece D 252
wall and a smooth D 252
wall was a round D 249
ways than i would D 248
warp and a white D 246
wall with a space D 246
wall was a group D 246
wait for a dozen D 243
wall with a chair D 236
wall was a piece D 236
wall was a faded D 236
wall has a smooth D 236
wall with a slope D 235
wall was a print D 230
wall for a house D 230
walk and i would D 230
wage and a bonus D 230
wall was a photo D 229
wall with a blunt D 228
wave has a small D 224
wall with a groan D 224
wall with a chain D 224
wall and a chair D 224
wall with a rusty D 222
wait for a wagon D 222
wall with a steel D 221
wait for a windy D 221
ward off a fatal D 218
walk with a rolling D 217
wall was a chart D 216
wall had a small D 216
wait for a tardy D 216
wait for a movie D 215
warm with a brush D 214
wall with a stiff D 214
wall was a short D 214
wall was a board D 212
wall and a point D 212
wait for a cargo D 212
wall that i would D 210
warm with a blush D 208
wall and a solid D 208
wall and a round D 207
wade that a woman D 206
warm and i would D 205
wall was a party D 205
wave with a plane D 204
wall with a niche D 204
wall and a metal D 204
wall with a dozen D 201
wall and a rough D 201
wall with a green D 200
wall with a vision D 198
wait for a stock D 197
wall was a crude D 194
wall was a metal D 193
warm with a flame D 192
want with a cargo D 192
walk and a smoke D 192
walk with a mincing D 191
wait for a parking D 189
wall was a chest D 188
wave and a large D 186
wall with a mural D 186
wall and a green D 185
wall with a total D 184
wall for a small D 184
wall and a glass D 184
wait for a glass D 184
wave for a while D 183
wall and a fluid D 183
wash with a brush D 182
walk for a wager D 182
wave with a lower D 180
wall was a stack D 180
wall for a brief D 180
wait for a flock D 180
wall with a plain D 179
walk with a swaying D 179
wage for a forty D 178
wave with a sharp D 176
wave has a lower D 176
warm day i fancy D 175
wage for a fixed D 174
wall with a rough D 172
wall with a group D 172
wait for a rally D 172
ware with a smooth D 170
wall with a sliding D 170
wall was a brick D 170
wait for a clerk D 170
wall with a water D 168
wall and a bench D 168
waif with a salvo D 168
wave has a value D 166
wall was a woman D 166
wall has a total D 166
wall for a large D 166
wall and a plane D 166
wait for a pitch D 166
wave and a short D 164
warp and a filling D 164
wall with a spike D 164
walk and a drink D 164
wage for a white D 164
wave with a longer D 163
walk with a rapid D 163
wall with a paint D 160
wall and a lower D 159
wait for a taste D 159
wall with a rifle D 158
wall with a frown D 158
wall with a faint D 158
wait for a flood D 158
wall and a group D 157
wave than a prone D 156
wall was a space D 156
wave has a sharp D 154
wall was a floor D 154
wall has a strong D 154
wall has a lower D 154
wall with a table D 152
wall for a space D 152
wall and a stile D 152
wait for a flash D 152
wave with a shock D 150
wave with a rapid D 150
want with a knife D 150
wall was a layer D 150
wall for a whole D 150
wall was a clock D 149
wall was a built D 149
wait for a swell D 149
wave with a linear D 148
wall and a steel D 148
wave with a foaming D 147
want with a sword D 147
wall was a green D 147
wall with a quick D 146
wall with a level D 146
wall was a couch D 146
wall and a woman D 146
wage than a woman D 146
ways that a social D 144
wave and a sound D 144
wall was a rather D 144
wall with a sheet D 143
wall with a local D 143
wall and a shelf D 142
wake with a sober D 142
wave with a smile D 141
wall with a tongue D 141
wave and a stream D 140
wall with a spoon D 138
wall was a place D 138
wall and a layer D 138
wall and a house D 138
wage for a group D 138
walk with a broad D 137
wave has a fixed D 136
ward off a swarm D 136
wall with a fixed D 136
wave has a strong D 134
walk with a strut D 134
wall and a cross D 133
wave for a short D 132
wall with a broom D 132
wall was a steep D 132
wall and a sloping D 132
wave and a shock D 131
wall with a built D 131
wall with a child D 130
wage with a bonus D 130
wave with a broad D 129
wash out a stain D 129
wave and a light D 128
wall was a rough D 128
wall and a lumen D 128
walk with a looping D 128
ward off a fresh D 126
wall with a cross D 126
wall for a horse D 126
walk with a brisk D 126
wage for a short D 126
walk with a springy D 125
wave with a strong D 124
wall was a house D 124
wall and i found D 124
wait out a siege D 124
walk with a lover D 123
wait for a smooth D 123
wall near a small D 122
wall but i could D 122
wage for a whole D 122
wall with a smile D 121
warn you i would D 120
wall with a sponge D 120
wall was a major D 120
wait for a spark D 120
wash with a sponge D 119
ware with a brush D 119
wall with a shelf D 119
wall was a drawing D 119
walk for a spell D 119
wait for a lorry D 119
wave and a pulse D 118
wall with a fence D 118
wall was a strip D 118
wage for a small D 118
wall with a bench D 117
wail and a dirge D 117
ways had a charm D 116
wall with a shout D 116
wall has a solid D 116
wars and a dozen D 114
wall with a grunt D 114
wall was a later D 114
wall that i might D 114
wall hung a clock D 114
wake was a milky D 114
wall with a sheer D 113
wall was a cross D 113
wait for a frank D 113
wave with a pulse D 112
wall and a drain D 112
wall and a bunch D 112
wall and a stack D 111
wall and a dozen D 111
walk with a horse D 111
wave and a broad D 110
wall with a towel D 110
wall with a drain D 110
wall was a strong D 110
wall was a sliding D 110
wait for a sales D 109
warm bed i would D 108
wall and a gable D 108
wash out a glass D 107
wave and a laugh D 106
wall was a steel D 106
walk with a jerky D 106
wait for a batch D 106
wage for a miner D 106
wage for a black D 106
ways that a nation D 104
warp and a rayon D 104
ward with a dozen D 104
wall with a paper D 104
wall with a blank D 104
wall was a sheer D 104
wall was a color D 104
wait for a cable D 104
wave and i would D 103
wart with a small D 102
wall was a blank D 102
wall and i stood D 102
wait for a staff D 102
wail for a chief D 101
wall are a large D 100
wall and a steep D 100
wall and a space D 100
wage that a woman D 100
wage for a truck D 100
wage and a legal D 100
wall with a screw D 99
wall was a plain D 99
wave for a period D 98
wave and a rapid D 98
warm with a glass D 98
wall with a strip D 98
wall with a splat D 98
wall and a voice D 98
wall and a mound D 98
wait for a papal D 98
wall and a block D 97
wage for a hired D 97
ward with a score D 96
wall with a railing D 96
wall with a curse D 96
wall was a brown D 96
wall and a couch D 96
walk and a canny D 96
wait for a chest D 96
wage for a rural D 96
wage and a small D 96
wall with a steep D 95
wall with a bunch D 95
wall was a light D 95
wall for a longer D 95
wave with a power D 94
wave with a group D 94
wave had a period D 94
wave and a final D 94
wars and a social D 94
wall with a frame D 94
wall with a divan D 94
wall and a stool D 94
wage for a large D 94
wall with a right D 93
wall with a dense D 93
wall was a ledge D 93
walk with a buddy D 93
wave with a force D 92
wand that i could D 92
wall has a round D 92
wall has a rough D 92
wall and a place D 92
wake with a shock D 92
wait with a shawl D 92
ward and i would D 90
wall with a drink D 90
wall hung a print D 90
wall and i asked D 90
wall and a rather D 90
wait for a senior D 90
wait for a dance D 90
wall with a running D 89
wait for a solar D 89
wave has a short D 88
wall with a saucy D 88
wall with a noise D 88
wall was a scene D 88
wait for a trade D 88
wade and i would D 88
wade and i tried D 88
wave and i could D 87
wall with a stile D 87
wall and a wider D 87
wall and a strip D 87
waking with a scream D 87
wall with a given D 86
wall ran a broad D 86
wall has a stone D 86
wall has a niche D 86
wall had a legal D 86
wall for a grand D 86
wall and a panel D 86
wait for a relay D 86
wall with a burnt D 85
wall and a plain D 85
wave and a quick D 84
wave and a given D 84
wart with a sharp D 84
wand and i could D 84
wall with a spray D 84
wall with a smack D 84
wall with a jarring D 84
wall and a whole D 84
walk and a cigar D 84
wage and i never D 84
wave with a white D 83
wall and a fourth D 83
wave has a shape D 82
wash him i would D 82
warm with a sauce D 82
wand and a crown D 82
wall ran a ditch D 82
wall lay a large D 82
wall and a sharp D 82
walk hung a rogue D 82
wait til i catch D 82
wait for a barge D 82
wage but a daily D 82
wall with a feeling D 80
wait for a plate D 80
wait for a liver D 65
wall for a total D 57
wage and a fixed D 57
wall was a brass D 54
walk with a speed D 53
walk with a hitch D 53
wait for a slack D 52
wave with a front D 51
wait for a breach D 50
wall was a water D 48
wall has a cross D 46
ward off a sword D 43
walk with a sober D 43
walk that i would D 43
wait for a frost D 43
wait for a fleet D 43
wave with a varying D 42
wait for a sailing D 42
walk with a torch D 41
walk with a broom D 41
wall with a stout D 40
walk with a gliding D 40
