watching her with a M 17108
watching him with a M 15054
washed out with a M 13402
walked out with a M 9116
walked off with a M 8524
watching him for a M 7998
watching her for a M 6244
warned him that a M 5836
washed off with a M 5702
watching them for a M 5442
watching them with a M 4690
wanted was not a M 4565
wanted him for a M 4390
warned him that i M 3918
warned you that i M 3566
wanted her for a M 3498
wanted now was a M 3044
watching you for a M 2970
wanted her with a M 2786
warned them that a M 2676
waited for him a M 2338
waited long for a M 1884
walked with him a M 1832
wanted you for a M 1774
walked out and i M 1708
warned her that a M 1620
wanted him with a M 1582
walked out for a M 1582
warned them that i M 1548
warned her that i M 1464
warned him with a M 1410
watching out for a M 1295
washed out and a M 1264
wanted them for a M 1204
walker was not a M 1110
wanted and that i M 1094
wanted one for a M 1034
wanted was that i M 992
waited for you a M 990
watching you and i M 974
warned her with a M 918
waited two and a M 884
walked two and a M 856
wanted this for a M 812
walked with her a M 798
waited but for a M 686
wanted and had a M 666
waited for her a M 662
washed off and a M 622
wander off for a M 620
wanted you and i M 616
wanted was for a M 610
wanted and got a M 610
walked off and i M 600
warded off for a M 596
warded off with a M 568
waited not for a M 552
wanted one with a M 534
watching him and i M 520
washed them with a M 516
wanted and how i M 500
walked with them a M 488
wanted him and i M 474
waited and then i M 462
watching you with a M 456
washed out for a M 444
waited for him i M 412
wanted her and i M 406
waters was not a M 402
waited for them a M 400
walked one and a M 396
waited for with a M 384
waited for her i M 382
walked now with a M 364
waiver was not a M 362
wanted that for a M 356
wander off with a M 356
watching this for a M 352
waters and has a M 350
wanted then was a M 342
watching them was a M 332
watching him was a M 330
wanted and now i M 328
wanted them and i M 320
walked off for a M 312
warned off with a M 308
watching them and i M 298
watching her and i M 296
watching him that i M 292
warmed him with a M 292
wanted was that a M 291
wanted and then i M 290
watching them that i M 284
wanted one and i M 284
waters that had a M 276
washed and had a M 275
warned you that a M 264
walked him for a M 258
wanted man with a M 253
washed him with a M 248
waters and with a M 244
watching her that i M 242
waited for was a M 240
waters are not a M 230
walked out and a M 230
washed her with a M 228
wanted out and i M 228
wanted and why i M 226
warned them with a M 224
warmed her with a M 222
waters that are a M 220
warned that for a M 212
waited for for a M 212
warmed them with a M 210
walker had had a M 210
warned you and i M 206
wasted two and a M 200
warily and with a M 200
watching was not a M 197
waters and for a M 194
wander out for a M 194
wanted and all i M 192
wanted and with a M 186
walked and had a M 186
wanted now but a M 184
walker who was a M 182
waited one and a M 176
walker let out a M 174
walked with one i M 168
waited for this a M 166
wanted and not a M 164
waters and had a M 162
walker has had a M 162
wanted them with a M 160
wanted out for a M 160
wanted but that i M 160
watching and had a M 158
washed out using a M 158
watching her was a M 154
wanted too big a M 154
washes them with a M 152
waters and that a M 150
washed off for a M 150
waited for them i M 150
washed out and i M 148
wanted man and a M 148
wastes are not a M 146
wanted and for a M 144
waited thus for a M 144
wanted for her a M 142
watching for was a M 138
walked with him i M 136
washed and with a M 130
waited and had a M 130
watching this with a M 128
wanted one and a M 128
warnings are not a M 124
wanted all that i M 124
walked thus for a M 124
waters and are a M 120
warned that with a M 120
waited now for a M 118
watching and then i M 116
wanted this and i M 114
wanted that and i M 114
wanted one but i M 114
wanted and was a M 114
warmed them for a M 112
waters had cut a M 106
waters and was a M 106
watching this and i M 106
watching them and a M 106
walker and not a M 105
washed off using a M 104
warned him was a M 104
wanted now for a M 104
wanted and who i M 104
wanted and that a M 104
wanted and get a M 104
waters has had a M 102
waters are for a M 102
wastes that are a M 102
wanted not for a M 102
wanted men with a M 102
waited then for a M 100
warned that not a M 98
walked she had a M 98
walked and ran a M 98
waited too long i M 98
waters and saw a M 96
wanted her but i M 96
watching him that a M 94
walked this path a M 94
walked one day a M 94
waited for you i M 94
waited and got a M 94
watching him and a M 92
washed them for a M 92
walker and then a M 92
waters may for a M 90
watching her and a M 90
wasted them with a M 90
wanted then but a M 90
waited too long a M 90
wasted and that i M 88
wanted but for a M 88
warmed him for a M 86
walked this way a M 86
waived and had a M 86
watching and not a M 85
waters and get a M 84
watching and that i M 84
wasted day was a M 84
walked east for a M 84
waters run with a M 82
waited and then a M 82
wasted and not a M 80
warned this was a M 80
warmed her for a M 80
wanted you but i M 80
wanted men and a M 40
watering can with a D 1805
warren was not a D 758
walnut bed with a D 639
warmly and with a D 638
warrior and not a D 604
watering them with a D 518
watering can and a D 502
warrior who was a D 426
warrior who had a D 370
walled off with a D 344
walled and has a D 342
walled and with a D 324
waiter who was a D 318
watering pot with a D 317
walnut leaf for a D 278
wallet and put a D 260
wallet and buy a D 256
warmer and has a D 240
wagged his head a D 204
warrior was not a D 198
walnut and has a D 194
waylay him with a D 190
waiter bring him a D 182
walled box with a D 180
warrior who has a D 178
warhead and has a D 177
waiter who had a D 176
wanted sex with a D 148
watery and has a D 147
wanted sex and i D 147
walled and had a D 147
walled off for a D 146
washer and then a D 142
walker met with a D 140
warren had had a D 138
walnut and had a D 130
warrior let out a D 127
warmly and had a D 126
warhead and had a D 124
walled area with a D 123
warrior who led a D 120
warrior and had a D 120
walled off and a D 118
warrior and then a D 116
wallet and with a D 116
warren has had a D 114
waiter was not a D 108
warmly but with a D 106
walled hut with a D 106
warren who was a D 104
warmer air has a D 104
wagons and with a D 104
warped and that i D 103
walnut bed and a D 102
waiter and then a D 102
warmer and had a D 101
waters met for a D 98
warmer than any i D 98
waiter and had a D 94
watering pot and a D 88
warmer sun and a D 88
watery eye and a D 86
waylay and beat a D 84
warren has not a D 82
walled cup with a D 82
warrior and was a D 80
wagged her head a D 80
wattle hut with a D 40
