ran back to his M 23910
ran back to her M 17196
ran over to him M 13756
ran into an old M 12581
ran down the path M 12138
ran over to her M 10688
ran along the top M 9856
ran ahead of him M 4972
ran down the long M 4866
ran over to his M 4382
ran over to see M 4264
ran back the way M 4242
ran ahead of his M 4240
ran ahead of them M 4086
ran down to his M 3730
ran over in his M 3682
ran along the path M 3662
ran over to them M 3660
ran down to see M 3496
ran from the top M 3478
ran down to her M 3434
ran away to her M 3368
ran ahead of her M 3160
ran along the east M 3038
ran back to get M 3004
ran back to our M 2980
ran back to him M 2970
ran home to his M 2776
ran away to his M 2726
ran away in fear M 2676
ran over the top M 2394
ran away to new M 2312
ran high on both M 2310
ran into the rear M 2178
ran home to get M 1938
ran away to get M 1904
ran back to see M 1814
ran into my old M 1668
ran from the end M 1649
ran down to him M 1648
ran home to her M 1534
ran past me and M 1522
ran into the man M 1472
ran into the old M 1384
ran over in her M 1342
ran from the east M 1290
ran into it and M 1210
ran cold in his M 1200
ran away in all M 1152
ran along the rear M 1120
ran down the old M 1090
ran into me and M 1050
ran along the far M 1023
ran over to get M 1008
ran back to its M 990
ran down the two M 981
ran only as far M 976
ran back to them M 966
ran into the big M 958
ran into the end M 927
ran from the old M 923
ran into the two M 908
ran when he saw M 903
ran away in his M 894
ran back in and M 888
ran over it with M 886
ran down to get M 868
ran into the path M 864
ran west to east M 850
ran over to our M 826
ran away the day M 790
ran five or six M 786
ran down to our M 760
ran till he was M 743
ran into the new M 729
ran over to one M 726
ran high in both M 722
ran into the bar M 686
ran down my leg M 682
ran into the red M 680
ran down to them M 678
ran into the men M 670
ran crying to her M 670
ran over an old M 657
ran from the head M 654
ran down the east M 652
ran over it and M 650
ran back as far M 644
ran cold as she M 636
ran high at this M 635
ran back to that M 620
ran over the old M 618
ran from the mid M 611
ran high on this M 608
ran down the man M 606
ran down my arm M 598
ran away at age M 596
ran over the man M 585
ran along the old M 580
ran into the head M 574
ran over me and M 562
ran from the rear M 558
ran high in this M 548
ran away or was M 540
ran down as far M 532
ran from the two M 518
ran along it for M 506
ran away he was M 504
ran away to see M 494
ran into the one M 493
ran from the area M 489
ran away on his M 484
ran high at that M 474
ran ahead to get M 466
ran deep in his M 458
ran crying to his M 458
ran along by his M 454
ran down on his M 446
ran into it with M 438
ran over to say M 434
ran down on both M 428
ran down the boy M 414
ran when he was M 410
ran along it and M 404
ran ahead to see M 404
ran past the old M 400
ran home to see M 400
ran from it and M 398
ran away as far M 388
ran from the man M 387
ran past me with M 386
ran along the low M 386
ran risk of being M 384
ran upon it all M 378
ran over at his M 374
ran over the dog M 373
ran into the wings M 372
ran away so that M 372
ran back to say M 370
ran along the end M 367
ran high in that M 364
ran down to new M 362
ran along by our M 362
ran away at our M 360
ran away to try M 358
ran like he was M 356
ran from the bar M 356
ran into the long M 354
ran from the red M 354
ran away at his M 354
ran high in new M 352
ran high in all M 350
ran over the boy M 348
ran into the net M 348
ran over to ask M 342
ran over the long M 340
ran from the box M 339
ran along the two M 339
ran till the end M 336
ran into an area M 336
ran past the two M 335
ran cold in her M 334
ran high in his M 330
ran along the long M 330
ran along the sky M 322
ran from me and M 314
ran ahead of its M 314
ran past us and M 312
ran over to try M 312
ran away on all M 312
ran three to one M 310
ran ahead of all M 310
ran past the end M 309
ran down the far M 307
ran past it and M 306
ran over the cat M 306
ran over me with M 302
ran from the new M 302
ran away or hid M 302
ran away on her M 302
ran many of them M 300
ran over to that M 298
ran down an old M 294
ran down it with M 290
ran down it and M 288
ran wild in his M 286
ran along the earth M 285
ran true to his M 284
ran over to new M 284
ran into the area M 284
ran into my own M 282
ran into the earth M 280
ran down in his M 280
ran wild in its M 276
ran over my dog M 276
ran into the boy M 276
ran home to ask M 274
ran down on her M 272
ran away to you M 272
ran away to our M 270
ran down to let M 268
ran down the few M 266
ran away to him M 264
ran back up and M 262
ran into the east M 260
ran down to its M 260
ran into the sky M 258
ran into the low M 256
ran from the big M 256
ran deep in her M 256
ran over my head M 254
ran over the two M 252
ran away at all M 252
ran among the men M 252
ran from the one M 250
ran down the wet M 250
ran along the wet M 250
ran some of his M 248
ran over the dead M 247
ran stem on for M 246
ran along in this M 246
ran away as they M 244
ran past us with M 242
ran away it was M 242
ran some of them M 240
ran more in her M 240
ran high on all M 240
ran down at this M 240
ran into the box M 239
ran past the man M 236
ran from the law M 236
ran along the head M 236
ran away to this M 234
ran during the day M 232
ran when it was M 230
ran high as they M 230
ran into the real M 228
ran from the bow M 228
ran back to try M 228
ran down the red M 226
ran along the dry M 226
ran like he had M 222
ran from the path M 222
ran along the log M 222
ran into an air M 220
ran over the new M 216
ran from the dog M 207
ran into the son M 206
ran back to ask M 204
ran deep in him M 202
ran back to one M 202
ran most of its M 200
ran from the far M 199
ran down the sky M 199
ran wild in one M 198
ran down on each M 198
ran away at top M 197
ran over to this M 196
ran north as far M 196
ran into the pit M 196
ran away in two M 196
ran ahead of both M 196
ran into us and M 192
ran home to awe M 192
ran during the war M 190
ran away in her M 190
ran away if you M 190
ran along the new M 190
ran along by him M 190
ran most of his M 188
ran down the leg M 188
ran over the earth M 186
ran over my leg M 186
ran cold at this M 184
ran from the wings M 182
ran away to that M 182
ran away if they M 182
ran home to our M 180
ran into me with M 178
ran ahead of our M 178
ran into the eating M 177
ran down to this M 174
ran back to new M 174
ran ahead of you M 174
ran over the head M 172
ran into the top M 172
ran away or not M 172
ran down to ask M 170
ran deep on both M 170
ran most of them M 168
ran fast to get M 168
ran from the day M 166
ran from the cut M 166
ran along at his M 166
ran upon the man M 164
ran deep in this M 164
ran away to cry M 164
ran down the top M 162
ran away in one M 162
ran down the one M 161
ran wild in any M 160
ran half the way M 160
ran from the death M 160
ran down to put M 160
ran down the arm M 160
ran down on him M 160
ran along it with M 160
ran into the way M 158
ran home to put M 158
ran down my own M 158
ran down to that M 156
ran down the area M 156
ran cold to his M 156
ran away or got M 156
ran away as his M 154
ran ahead of that M 154
ran down to one M 152
ran down the men M 152
ran down the big M 152
ran down in her M 152
ran back to you M 152
ran back to this M 152
ran back to old M 152
ran away as she M 152
ran next to him M 150
ran into the far M 150
ran away at ten M 150
ran wild in all M 148
ran past the men M 148
ran into the air M 148
ran along the way M 148
ran along an old M 148
ran past the dead M 147
ran into the now M 147
ran like an old M 146
ran back as they M 146
ran away to war M 146
ran along the tow M 145
ran over the few M 144
ran down to say M 144
ran back to bring M 144
ran back to put M 142
ran wild as she M 140
ran till he got M 140
ran over us and M 140
ran from an old M 140
ran away on being M 140
ran ahead of god M 138
ran past the rear M 137
ran true to its M 136
ran over to you M 136
ran high in her M 136
ran over the way M 134
ran into me this M 134
ran down in two M 134
ran back in with M 134
ran away in that M 134
ran away as was M 134
ran into my head M 132
ran from my head M 132
ran from as low M 132
ran down the new M 132
ran cold to hear M 132
ran past the big M 130
ran over to put M 130
ran over the things M 130
ran into the log M 130
ran into it for M 130
ran cold at her M 130
ran back in his M 130
ran along the near M 130
ran along the bar M 130
ran into the dead M 129
ran over the bar M 128
ran into in his M 128
ran down the rear M 128
ran down on all M 128
ran back on rings M 128
ran away he had M 128
ran away at this M 128
ran down the low M 127
ran wild in this M 126
ran into on his M 126
ran back in for M 126
ran away on our M 126
ran down to try M 124
ran down to hear M 124
ran back in fear M 124
ran away to die M 124
ran over the red M 122
ran from us and M 122
ran down the dim M 122
ran away at that M 122
ran along on our M 122
ran when he had M 120
ran over the dry M 120
ran down to bring M 120
ran crying up and M 120
ran away to one M 120
ran away to god M 120
ran next to her M 118
ran like it was M 118
ran into no one M 118
ran from the pit M 118
ran from the low M 118
ran five to one M 118
ran away to pay M 118
ran along on all M 117
ran four to six M 116
ran away or who M 116
ran till it was M 114
ran into the law M 114
ran down the tow M 114
ran down the six M 114
ran away is not M 114
ran down to and M 112
ran away or did M 112
ran part of this M 110
ran along on top M 110
ran upon an old M 108
ran over the men M 108
ran four to one M 108
ran back in her M 108
ran away on that M 108
ran home to bring M 106
ran back in long M 106
ran over the low M 105
ran onto the set M 105
ran into the lot M 104
ran half the day M 104
ran into the lead M 103
ran well in all M 102
ran into the ill M 102
ran from the boy M 102
ran away to them M 102
ran also in his M 102
ran along on its M 102
ran into the dog M 101
ran into the poet M 100
ran from the dead M 100
ran forth to see M 100
ran ahead to her M 100
ran much in his M 98
ran into the dry M 98
ran hard to get M 98
ran back on our M 98
ran along to her M 98
ran along as far M 98
ran from the set M 97
ran wild in her M 96
ran south of this M 96
ran over the wet M 96
ran over the map M 96
ran home in fear M 96
ran high at all M 96
ran from the year M 96
ran from the bag M 96
ran from me with M 96
ran away so they M 96
ran along the red M 96
ran along the air M 96
ran from the bear M 94
ran down in one M 94
ran cold to see M 94
ran ahead to his M 94
ran into the war M 93
ran till he had M 92
ran past it with M 92
ran over the air M 92
ran onto an old M 92
ran next to that M 92
ran like the few M 92
ran into the cup M 92
ran high in our M 92
ran during the year M 92
ran down on them M 92
ran away to put M 92
ran along on both M 92
ran past an old M 90
ran down by his M 90
ran deep in all M 90
ran away or they M 90
ran there to see M 88
ran over to sit M 88
ran next to each M 88
ran many of his M 88
ran into the bad M 88
ran into an odd M 88
ran from the men M 88
ran from my own M 88
ran down my son M 88
ran down as she M 88
ran cold as his M 88
ran back to sit M 88
ran back to let M 88
ran away on this M 88
ran among us that M 88
ran along to see M 88
ran away at one M 87
ran only in one M 86
ran into the day M 86
ran into my eye M 86
ran into in this M 86
ran down the dry M 86
ran down in all M 86
ran cold in our M 86
ran away or yes M 86
ran away on two M 86
ran into my son M 85
ran home at top M 85
ran just as far M 84
ran from us with M 84
ran down on our M 84
ran upon it and M 82
ran over the end M 82
ran over the day M 82
ran much of its M 82
ran into me one M 82
ran high on that M 82
ran ever so long M 82
ran away so far M 82
ran past the long M 80
ran over the real M 80
ran back to god M 80
ran along in his M 80
ran past me out M 52
ran into the sun M 50
ran down so that M 40
ray from the sun D 5558
rang just as she D 2694
ran from the car D 2092
ran into the bay D 2076
ran foul of each D 1986
ran into the hut D 1810
ray tube so that D 1255
ran into the car D 1088
ray from the top D 1070
ran over to hug D 1040
rap over the head D 997
rag doll in his D 982
raw data is not D 974
rat race is that D 964
ray tube is not D 934
ray from the eye D 921
ray told me that D 879
raw pain in his D 858
raw data so that D 844
rang back to say D 798
rag doll in her D 780
ray upon the eye D 768
ran into the den D 724
ran back to bed D 712
ran foul of one D 678
ran from the hut D 660
raw milk is not D 642
raw data do not D 624
rang upon the air D 604
ran from the tip D 523
rang just as they D 512
ray said he was D 510
ran along the rim D 486
raw data of this D 470
raw data in this D 468
raw edge of each D 452
raw edge to raw D 450
raw data of his D 436
raw data of our D 430
ran down the bed D 414
ran into the guy D 404
ran into my car D 400
raw fish or meat D 398
raw edge of his D 398
raw coal is fed D 393
ray said he had D 390
ray tube is then D 387
raw pain in her D 386
ran along the row D 376
ran into the bed D 354
ray film is not D 351
ran along the ice D 347
ray said it was D 346
ran down the rue D 336
ran into the inn D 328
ran from the tap D 328
rang when he was D 326
ran foul of her D 322
raw need in his D 320
ran down the row D 318
ran foul of him D 316
ray knew he was D 314
ran over the ice D 311
ran along the bed D 309
raw silk is not D 302
ran into the fog D 298
rag doll to her D 292
ran into the ice D 286
ray when he was D 284
raw fish is not D 284
ran into the gym D 284
raw yolk of egg D 280
ran from the bus D 280
raw spot on his D 278
raw data is then D 278
raw food is not D 276
ran along the bay D 275
ray came up with D 274
rat when it was D 274
raw edge to his D 272
raw data of all D 272
rang five or six D 270
ran into the mud D 268
ram disk is not D 267
ran along the beam D 264
rang true to his D 262
ran over my bed D 261
raw edge of one D 256
rang true in his D 256
ray from the tip D 254
ray data do not D 252
rang true to her D 248
ray from it has D 246
ran into the tub D 244
ran into the bath D 244
ray eyes to see D 240
rang loud in his D 238
ran over the rim D 237
ray knew he had D 236
rat trying to get D 236
ray came in and D 234
rat race is not D 228
ran from the bay D 228
ray used to say D 226
rang clear in his D 224
raw data as they D 220
rang true to him D 220
raw from the sun D 219
ray film is then D 216
ran past the car D 214
ran from the inn D 214
raw data to see D 210
ray said he did D 206
ray went to his D 204
rat when he was D 204
ray held up his D 202
raw data of each D 202
raw edge of her D 200
ran down the earl D 200
rang when it was D 196
ran down the bay D 194
ray film on top D 190
rang clear in her D 190
ram disk is that D 190
ray from the head D 188
raw truth is that D 188
ray said to her D 186
raw skin on his D 186
ran down the brae D 186
ray fell on his D 184
ran foul of his D 184
rag tied to one D 184
ran foul of this D 182
ran from the bed D 181
raw milk or raw D 180
raw data by using D 180
ran from the gym D 180
ran over the dam D 176
ray tube is that D 174
ran into the bus D 172
ray film is being D 171
raw skin of his D 170
raw silk in this D 170
raw data in fig D 169
ran from the rue D 168
ray knew it was D 166
ran over the leaf D 164
rag back in his D 164
ray went to and D 162
ray said as they D 162
raw silk is now D 162
rat went so far D 162
ray tube in its D 160
rag doll as she D 160
ray tube of fig D 159
ran into an ice D 159
rag over the top D 159
ray went to see D 158
raw data on each D 158
ran into my mom D 158
ran along the rue D 158
ray came to bear D 156
raw anger in his D 156
rang into the air D 156
raw data is that D 155
raw even of its D 154
rang next to her D 154
ran into the pen D 154
ran into the lab D 154
ray film so that D 152
raw spot on her D 152
raw from the axe D 152
ran over the bed D 152
ran foul of them D 152
raw data in its D 150
ray tube of this D 149
ray film of his D 148
raw data on all D 148
ran back to hug D 148
ran onto the ice D 147
ray tube in this D 146
raw fact is that D 144
rang loud in her D 142
ran thick on each D 142
raw hemp at one D 140
raw edge of hem D 140
ran over the hot D 140
ran over the floe D 140
ran into the rue D 140
ray came to see D 138
raw skin on her D 138
raw data of any D 138
raw fury in his D 136
raw edge to her D 136
rang from the old D 136
rag doll on her D 136
ran into the mob D 134
ran into the cow D 134
ram disk an area D 134
ray tube is being D 133
raw spot in his D 132
raw data in each D 132
ran into the hot D 130
ran foul of our D 130
ran down the car D 130
ray tube is one D 129
ray tube in one D 128
ray from the sky D 128
rang true in her D 128
rang during the day D 128
raw fish or raw D 127
ram flew on with D 126
ray said to him D 124
raw hide on his D 124
raw eggs or raw D 124
rang true to them D 124
raw ache in his D 122
ram told me that D 122
rat pups do not D 120
ran into my dad D 120
ray tube is now D 118
raw silk in its D 118
raw pain of his D 118
raw land is not D 118
rag tied to his D 118
rat race to get D 117
ray cuts the one D 116
ran into the wee D 116
ray flux is not D 115
rat race of new D 115
raw skin of her D 114
rang down the long D 114
ray tube is set D 112
raw silk to her D 112
raw silk of her D 112
ran past the hut D 112
ran over to tom D 112
ran from the bath D 112
ray told me you D 110
raw data in any D 110
raw beef is not D 110
ran from the van D 110
ran down the rod D 110
ran away to bath D 110
ray told us that D 109
ray came in with D 108
ray along the path D 108
rang just at that D 108
ram down the wet D 108
rag tied to its D 108
raw bank of earth D 107
ran from the cab D 106
ran foul of and D 106
ran down the thin D 106
raw silk of all D 104
raw note in his D 104
raw form is not D 104
ran along the seam D 104
rah boys in our D 104
rag doll in one D 104
raw data we can D 102
ran over the lip D 102
ran into my ears D 102
ran home to bed D 102
rag tied to her D 102
ray data is not D 101
ray felt he was D 100
raw data is being D 100
raw ache in her D 100
rang from the top D 99
ran from the gas D 99
ray theory is not D 98
raw edge of this D 98
raw edge in his D 98
raw data if they D 98
raw back of his D 98
ran upon the ice D 98
rag will do that D 98
ray back to its D 96
rang just as you D 96
rag hanging in mid D 96
ray felt he had D 94
raw silk of his D 94
raw edge so that D 94
raw edge on each D 94
raw edge of fear D 94
rang back to her D 94
ran over my toes D 94
ran from the den D 94
ran from the dam D 94
ran cold as ice D 94
ram when he was D 93
ray said to his D 92
ray rose to his D 92
raw eggs in his D 92
raw data to its D 92
rat trap to pay D 92
ran down the gang D 92
ray tube in fig D 90
raw wool to any D 90
rat race in new D 90
ran over to dad D 90
ran into an oil D 90
ran down the icy D 90
raw milk do not D 88
raw eggs is not D 88
raw data to get D 88
raw cold as they D 88
rat tearing to get D 88
ran into the pub D 88
ran into the gas D 88
rag over the pot D 88
ray tube in use D 86
raw milk in this D 86
raw beef in his D 86
rang over the bay D 86
rang down on this D 86
ran into the gang D 86
ran away by gad D 86
ray said in his D 84
rang peals of joy D 84
ran foul of two D 84
ran amok in his D 84
ran along the lip D 84
ran along the car D 84
ram disk if you D 84
raw sore on his D 82
raw scar on his D 82
raw edge of things D 82
ran over the car D 82
rag from an old D 82
raw wool in this D 80
raw kind of way D 80
raw fish in his D 80
rat into the air D 80
ran into the van D 80
ran from the pen D 80
ray from an off D 61
ray theory is that D 57
ray film in this D 52
ram down the earth D 52
raw from the long D 51
ran along the lee D 49
ran down the ice D 45
raw data of one D 44
ray data is that D 43
ray data of this D 42
raw silk so that D 42
ray tube in two D 41
raw data in one D 41
ray paths do not D 40
rat fleas do not D 40
