ran down to a M 6090
ran away in a M 4840
ran away to a M 4216
ran over to a M 4028
ran back to a M 2218
ran down in a M 2154
ran back in a M 2078
ran away as a M 1014
ran home in a M 838
ran cold as i M 796
ran away at a M 774
ran over by a M 676
ran along in a M 564
ran away on a M 558
ran third in a M 458
ran over in a M 448
ran along at a M 376
ran next to a M 366
ran wild in a M 352
ran high as a M 334
ran wild on a M 330
ran ahead to a M 312
ran into at a M 300
ran back at a M 290
ran wild as a M 286
ran only to a M 260
ran free in a M 238
ran last in a M 224
ran down at a M 218
ran high in a M 198
ran into in a M 194
ran ahead of a M 182
ran crying to a M 180
ran along on a M 178
ran down as a M 174
ran only on a M 164
ran south to a M 160
ran fast as i M 158
ran clear as a M 150
ran along to a M 146
ran ahead in a M 144
ran only in a M 138
ran down on a M 134
ran away as i M 134
ran more of a M 132
ran along by a M 132
ran deep in a M 130
ran from me i M 124
ran once as a M 122
ran north to a M 122
ran away so i M 122
ran high at a M 118
ran down by a M 118
ran along as a M 118
ran high of a M 116
ran hard on a M 110
ran fast on a M 106
ran away up a M 106
ran well in a M 100
ran wild as i M 96
ran past on a M 96
ran past in a M 96
ran away is a M 96
ran true as a M 94
ran cold as a M 94
ran along as i M 94
ran just as i M 90
ran into as a M 90
ran down as i M 90
ran true to a M 86
ran over at a M 86
ran fast as a M 86
ran into on a M 84
ran once in a M 82
ray tube is a D 2610
raw data in a D 2062
ran foul of a D 2040
rang just as i D 2024
ray tube in a D 1810
ray tube as a D 1616
raw data to a D 1608
rag tied to a D 1478
ray film of a D 1408
raw data of a D 1130
ray film in a D 1110
rat there is a D 998
ray tube of a D 906
ray tube or a D 898
ray tube at a D 768
ray paths in a D 728
rang clear as a D 724
rag doll in a D 702
raw edge of a D 676
ray film as a D 601
ray there is a D 588
ray film or a D 560
raw data on a D 536
ram disk is a D 529
ray film is a D 514
raw data is a D 462
raw milk is a D 459
ray said in a D 454
raw eggs in a D 446
ray tube by a D 422
raw data as a D 418
ray gave me a D 414
ran amok in a D 404
rat hole of a D 364
raw fish is a D 362
ray view of a D 360
raw milk in a D 352
rag doll of a D 352
rat leads to a D 346
raw data or a D 342
rag doll or a D 340
ray will be a D 331
raw silk in a D 328
ray tube to a D 310
raw hide of a D 306
raw silk is a D 303
raw milk as a D 290
raw fish in a D 272
raw data by a D 268
rag doll on a D 254
ray lies in a D 250
rag cast on a D 250
ray flux as a D 232
rat race of a D 231
raw coal as a D 214
raw silk as a D 212
raw cold of a D 206
raw look of a D 204
ray full on a D 202
raw milk to a D 200
ray film to a D 199
ray must be a D 196
raw silk to a D 194
rag tied on a D 186
raw silk at a D 172
raw beef in a D 172
raw heart of a D 170
raw data at a D 170
raw beef on a D 168
rat trap of a D 168
rang true as a D 166
ray went to a D 164
ray ending in a D 162
ram disk to a D 162
raw wool in a D 156
ran rats in a D 156
raw silk on a D 154
raw land in a D 154
rat race is a D 153
ray scan of a D 152
raw land is a D 152
ray tube on a D 151
raw form as a D 150
raw silk of a D 148
raw milk at a D 148
raw hide to a D 144
raw fish on a D 144
raw skin of a D 142
ray clue to a D 138
raw milk of a D 136
raw fish at a D 136
rat kept on a D 134
rat living in a D 133
raw land to a D 132
ray data of a D 131
raw rice in a D 130
rag doll to a D 130
rat heart as a D 128
ram there is a D 128
ram tied to a D 120
ray film by a D 119
raw jute at a D 118
raw coal in a D 118
ray held up a D 116
rat race as a D 116
raw wool to a D 114
raw onion in a D 114
raw fish as a D 112
rat hole in a D 112
rang true to a D 110
rag hanging on a D 110
ram disk or a D 107
ray beams in a D 105
ray unit is a D 104
raw land as a D 102
raw food to a D 102
raw eggs at a D 102
rag doll is a D 102
rag tied in a D 100
rang down on a D 96
ray told me i D 92
ray data on a D 92
raw onion is a D 92
ray film on a D 90
raw food in a D 90
raw eggs as a D 90
raw clay in a D 90
rat race in a D 89
ray data in a D 87
ray flux of a D 86
raw wool as a D 86
raw life of a D 86
ray ends in a D 84
ray died of a D 84
raw onion on a D 84
raw hide or a D 84
raw food is a D 84
rag used as a D 84
raw side of a D 80
raw onion or a D 80
raw eggs on a D 80
rang true in a D 80
ray maps of a D 55
ray flux at a D 53
ray paths of a D 52
ram used as a D 52
ram acts as a D 50
ray flux is a D 43
rat pups in a D 43
ray unit in a D 41
ray data as a D 41
ray film at a D 40
