jean was able to D 1462
jean was born in D 926
jean had gone to D 806
jean had come to D 498
jean was trying to D 496
jet and flew to D 482
jean was sent to D 472
jean had been in D 424
jean had told me D 368
jean had left the D 338
jet can also be D 334
jet was used to D 328
jean had been the D 312
jet that gird the D 302
jean sat down on D 290
jet and into the D 288
jean had said to D 286
jean was born on D 280
jet may also be D 276
jean was ready to D 274
jet lag from the D 242
jean has been in D 238
jean had been so D 216
jet all over the D 192
jean sat down in D 184
jean was back in D 172
jean put down the D 166
jean has told me D 166
jet out from the D 164
jean was born at D 160
jean was full of D 158
jean had been an D 158
jean had seen the D 154
jean are here at D 152
jean had been to D 148
jean had been on D 146
jean sat down at D 142
jean had nothing to D 142
jet was ready to D 140
jean has gone to D 140
jean was used to D 138
jean was glad to D 138
jet was used in D 134
jean was left to D 134
jean was living in D 132
jet was able to D 130
jet out into the D 130
jean had made the D 130
jean was among the D 126
jean had time to D 126
jean see also ca D 125
jean was fond of D 120
jean had told the D 116
jean had been at D 114
jet can only be D 112
jean had gone on D 112
jean sat next to D 108
jean had come up D 108
jet lag will be D 106
jean was there to D 106
jean and some of D 100
jean was eager to D 98
jean has come to D 98
jean had made it D 92
jean had made up D 90
jean had died in D 88
jean had heard the D 86
jean was glad of D 82
jean not here to D 82
jean has been the D 82
jet was coming in D 43
