jean was in the D 1272
jet out of the D 1110
jean was on the D 636
jet and in the D 624
jean and me to D 556
jet due to the D 498
jean out of the D 496
jean was to be D 460
jean sat on the D 456
jet and of the D 452
jean was at the D 446
jean sat in the D 424
jet had to be D 386
jet lag is the D 370
jet set of the D 322
jet has to be D 320
jet lag is to D 300
jet and on the D 300
jet was in the D 282
jean had to be D 278
jet ace of the D 258
jet off to the D 254
jet lag or the D 254
jet lag in the D 242
jean goes to the D 236
jet was on the D 224
jean ran to the D 222
jet age in the D 216
jean and in the D 212
jean sat at the D 198
jet and at the D 184
jet than in the D 180
jean had to go D 180
jet set in the D 174
jean met me at D 168
jet are in no D 162
jean hung up the D 150
jet area to the D 146
jet and by the D 138
jean was in no D 138
jean let go of D 134
jet set at the D 128
jet and it is D 128
jet lag on the D 124
jean and me in D 124
jet sat on the D 116
jet ace in the D 116
jean goes on to D 114
jet out to the D 106
jet and to the D 106
jean was of the D 104
jet was to be D 102
jet ski in the D 102
jean one of the D 102
jean lay in the D 102
jean was to go D 96
jean had to do D 96
jean got up to D 96
jet lag of the D 92
jean and to the D 92
jean and at the D 88
jean that he is D 86
jean lay on the D 86
