essentials , " above M 730
especially , " added M 730
estimates , " which M 302
essentials , " which M 196
estimated , " wrote M 185
establish , " which M 174
estimation , " which M 166
especially , " wrote M 102
estimation , " wrote M 86
especially , " which M 86
estimates , " world M 66
