touch a woman . M 6255
touch a woman ? M 368
touch a child . M 330
toils i write . M 264
today s world . M 206
total t cells . M 174
touch a cloud . M 118
touch a relic . M 112
touch a woman ! M 96
touch a wound . M 40
