do anything for a M 29532
do anything that i M 12231
do anything with a M 10835
do anything that a M 3759
do anything and i M 2594
do allow for a M 1749
do admit that i M 1711
do people say i M 1269
do agree that a M 1202
do exist for a M 1097
do either with a M 1018
do rather than a M 894
do claim that i M 864
do people with a M 860
do worse than a M 796
do begin with a M 674
do anything but a M 640
do trust that i M 604
do today and i M 590
do occur with a M 590
do anything but i M 542
do point out a M 498
do carry out a M 493
do claim that a M 468
do today that i M 448
do argue for a M 436
do admit that a M 436
do start with a M 413
do exist and a M 399
do worse than i M 390
do women bear a M 390
do agree that i M 349
do rather with a M 330
do begin for i M 330
do imply that a M 322
do stand for a M 319
do daily use a M 306
do occur and a M 301
do apply for a M 298
do worse for a M 288
do after that i M 288
do stuff that i M 280
do about being a M 279
do people get a M 276
do today with a M 274
do exist are a M 271
do argue that a M 257
do agree with a M 253
do right and i M 250
do order that a M 240
do exist and i M 240
do anything was a M 210
do people use a M 192
do right and a M 190
do occur for a M 190
do anything and a M 190
do people buy a M 187
do worry that i M 182
do marry that i M 178
do either for a M 176
do reveal that a M 175
do offer you a M 172
do badly for a M 170
do exist with a M 164
do today for a M 162
do women with a M 160
do enjoy being a M 154
do appear with a M 154
do alone with a M 152
do about that i M 150
do write with a M 148
do count for a M 148
do gives you a M 142
do anything for i M 142
do yours and i M 136
do occur are a M 134
do state that a M 132
do right with a M 130
do faced with a M 128
do search for a M 126
do again for a M 122
do really ask a M 120
do state that i M 118
do about how i M 117
do first with a M 114
do easily with a M 112
do again with a M 112
do every day a M 110
do blame you a M 110
do which was a M 108
do allow that a M 108
do right that i M 104
do every day i M 104
do right for a M 102
do trust that a M 98
do really with a M 98
do which has a M 96
do serve for a M 96
do makes you a M 96
do people earn a M 92
do gives them a M 92
do first put a M 92
do build you a M 92
do prove that a M 90
do stuff and i M 86
do right than a M 86
do music for a M 86
do woman with a M 85
do today has a M 84
do later with a M 84
do first for a M 84
do first and i M 84
do after all i M 81
do write her a M 80
do magic with a M 80
do drugs and i D 292
