does or does not M 251589
does it mean that M 226185
does it all mean M 65816
does it mean for M 58291
doing the things that M 31406
doing or not doing M 28040
does he mean that M 22057
doing it this way M 20283
doing so does not M 19872
does it say that M 18024
does he say that M 17489
doing so they are M 17032
doing it that way M 13770
doing it for you M 12286
doing of any act M 12018
does it not mean M 11921
does to this day M 10752
does it deal with M 10710
does the man who M 10276
does it for you M 10220
doing the things you M 10122
doing it for him M 9768
does he not say M 9730
does the man mean M 9328
doing the job for M 9166
doing the things they M 8604
doing it for her M 8358
does no one any M 8340
doing it for them M 7918
doing so was that M 7773
doing so was not M 7446
doing so they had M 7414
doing it all for M 7035
does he get his M 6710
does he not see M 6516
does it mean you M 6462
doing so they can M 6434
does he deal with M 6118
doing so they may M 6086
does it not say M 6062
does in his own M 5994
doing the job and M 5962
doing so did not M 5802
does the old man M 5630
doing the job that M 5278
does it fit with M 4628
doing so are not M 4572
does it not then M 4508
does it all add M 4452
does the job for M 4382
doing it for his M 4316
doing so you are M 4300
does it for him M 3912
does the idea that M 3904
doing so she was M 3876
does the poet use M 3786
does it get you M 3784
does the law say M 3748
doing it does not M 3718
doing the job they M 3714
dog it was that M 3623
doing in this area M 3541
doing so you can M 3534
doing so she had M 3486
doing the things she M 3446
does it all end M 3422
does he ask for M 3420
does in our own M 3396
does it all for M 3294
does the one who M 3262
does the poet say M 3247
does so with his M 3242
does it for them M 3230
does it get its M 3214
does he use his M 3196
does he see that M 3191
doing so that they M 3168
doing it all his M 3162
doing so may not M 3076
doing he does not M 3064
doing as she was M 3064
does it mean and M 2994
does the poet mean M 2949
does he get out M 2891
does it mean they M 2880
does it mean then M 2870
does it with his M 2866
doing so can not M 2786
dog of his own M 2770
does it end with M 2730
does he say this M 2688
doing he did not M 2680
does on his own M 2668
does it for his M 2650
does it all with M 2638
doing it his way M 2634
doing so and that M 2618
does it this way M 2600
doing the job you M 2550
does it that way M 2546
does it not lead M 2535
doing of that act M 2468
doing no one any M 2466
doing in his own M 2458
doing my job and M 2408
doing as they are M 2402
does it bear any M 2398
does the way you M 2390
does of his own M 2390
does it not bring M 2340
does the things that M 2316
doing it and that M 2300
dog or cat that M 2257
doing an act that M 2230
doing so you may M 2204
doing it with all M 2203
doing so she has M 2200
doing it all with M 2178
does the man say M 2175
does he owe you M 2166
does it owe its M 2156
doing so that you M 2124
doing it and then M 2110
does in its own M 2096
does so for his M 2070
does he see any M 2070
does he get off M 2068
does it get any M 2044
doing it and you M 2034
does to his own M 1992
does he pay for M 1966
doing as they did M 1964
doing so has not M 1956
doing the job with M 1924
does it for her M 1924
doing it was not M 1922
does at this day M 1922
doing it all her M 1914
does in all his M 1914
doing it for all M 1875
does the job and M 1852
doing so they did M 1836
does he not use M 1824
doing it with her M 1820
does it mean but M 1816
does he use them M 1814
doing so can lead M 1800
does he not mean M 1800
does it all lead M 1794
does he see his M 1780
does he use this M 1770
dot the top with M 1760
does it not all M 1760
does the sun set M 1744
does in this way M 1714
doing it and how M 1712
does he get this M 1702
doing on his own M 1678
doing it and they M 1678
doing it for real M 1672
does he get that M 1668
doing it with his M 1654
does on its own M 1646
does he pay you M 1632
does he not then M 1620
doing it with him M 1614
doing as you are M 1614
does he get them M 1612
doing it for two M 1609
does it pay for M 1608
doing he was not M 1596
does it with all M 1594
doing of all things M 1590
doing it for god M 1588
does he put his M 1586
does so with all M 1582
doing it for our M 1556
does it not now M 1554
does so for all M 1550
does so for two M 1536
doing it and doing M 1522
dog or cat can M 1516
doing or why they M 1514
doing so for fear M 1512
doing it and not M 1512
does he get for M 1508
does to its own M 1500
doing so had not M 1494
doing an act with M 1494
doing so may lead M 1492
does he not bring M 1486
doing it with you M 1468
does it not bear M 1463
does so not for M 1454
does it not lie M 1446
doing as they had M 1444
doing in our own M 1438
does it mean not M 1430
doing of things that M 1426
dog or cat may M 1414
doing we are not M 1400
does he get all M 1390
dog to sit and M 1378
doing or how they M 1376
doing it our way M 1374
doing so for two M 1343
does to and for M 1334
does he not now M 1328
doing so they not M 1324
dog of her own M 1324
does he not put M 1320
doing it are two M 1318
does he not get M 1314
doing my bit for M 1294
does an old man M 1290
doing to her and M 1282
does he pay his M 1280
doing so one can M 1275
doing it all day M 1275
doing it for that M 1270
doing so with his M 1258
does it mean she M 1250
doing of his own M 1238
dog or cat and M 1238
does he then but M 1238
dog or cat has M 1235
does it mean now M 1234
dog or cat with M 1226
does it say how M 1218
doing to his own M 1210
does it bring you M 1198
doing to deal with M 1194
does the job with M 1192
does he get any M 1190
doing it did not M 1182
does it ask for M 1178
does it say you M 1168
does he not act M 1168
does it all fit M 1167
doing as she had M 1166
does it set out M 1166
doing of all this M 1160
does he beat you M 1156
does it mean being M 1154
does it mean any M 1148
does it and how M 1142
does he who has M 1142
does it then mean M 1138
does the eye see M 1118
does he ask you M 1102
doing to him and M 1096
does it lie with M 1096
does it lead you M 1094
dog is not going M 1088
doing if they are M 1086
does so not out M 1082
does he can not M 1078
doing on that day M 1077
doing if you are M 1066
does he see them M 1064
doing it can not M 1052
does an act that M 1046
doing so with all M 1038
doing to you and M 1026
doing in all this M 1022
does it use its M 1022
dog in his own M 1018
doing so and thus M 1016
does it mean all M 1016
does he owe his M 1012
doing of all that M 1005
does he long for M 1004
does he fear that M 1003
does he not ask M 1002
does is his own M 992
doing the things for M 990
dog is one that M 990
does it cry and M 986
does to you and M 976
does he hang out M 976
does so with its M 974
does he use any M 974
doing so and then M 970
does he not yet M 966
does it mean one M 964
don we now our M 962
doing it for ten M 960
does he let you M 958
doing it now and M 952
does he not hear M 950
doing so and was M 946
doing my job for M 946
doing in this way M 944
does it with her M 940
doing so with any M 938
does the poem say M 924
doing it now for M 922
doing it and why M 918
does it does not M 914
does he say now M 914
does it mean this M 908
doing it with them M 892
does the man with M 890
doing so that she M 888
does it get out M 888
doing in its own M 884
does the job that M 882
doing it for one M 880
does the job pay M 879
doing if they had M 878
does an act with M 878
does in her own M 866
does in any way M 866
dog or cat for M 862
does he now see M 862
doing in that area M 858
doing it for any M 854
does so and then M 854
does it pay off M 854
does go too far M 853
doing at any one M 848
does it bring out M 848
doing the job she M 846
doing we can not M 844
doing to them and M 844
doing so and for M 844
doing it are not M 844
does he say how M 844
does he not let M 844
does it can not M 838
does the poem mean M 837
doing so for all M 830
doing it was that M 826
does so not with M 826
doing so can they M 818
doing as she did M 816
does it not read M 816
does he cry out M 814
does he bring his M 808
doing so was his M 804
doing it with one M 804
doing so and had M 794
dog is that you M 792
does he does not M 790
doing on its own M 788
doing it for its M 788
doing so and are M 780
does by his own M 780
doing it one way M 776
doing in all things M 776
does the way that M 772
does he let his M 768
does he bring out M 765
does so for one M 763
doing to this day M 760
doing it with that M 759
does he see her M 758
does it not add M 756
does he not fear M 756
doing on her own M 754
doing he can not M 748
does in his poem M 748
doing so are that M 746
does it his way M 746
doing so they put M 742
does to say that M 740
doing or did not M 738
doing it her way M 738
does he not try M 738
does it not for M 736
does he now say M 736
does it not pay M 733
does it put you M 730
does it add any M 730
doing the job are M 728
doing it and she M 722
doing an end run M 718
does he use for M 716
doing it has not M 714
does it not put M 710
doing in this war M 709
does he see how M 708
dog or cat was M 704
does he set out M 703
does the boy mean M 702
doing so for one M 699
does so with her M 698
does he mean this M 698
does the sun not M 694
does it let you M 694
doing so being that M 693
doing so they set M 692
dog in any way M 688
doing on this earth M 686
doing it and was M 682
dog eat dog and M 682
doing the two things M 680
doing it all and M 680
doing in any way M 678
does in this poem M 676
does he say why M 676
doing so for his M 674
doing as you say M 674
doing at all was M 672
does the new law M 670
does he see and M 670
does so for its M 668
does in our day M 668
doing it for long M 666
does it not run M 664
doing the job but M 662
doing so and not M 662
dog on his own M 656
does the law mean M 656
does it with that M 654
doing it not for M 648
doing as you did M 648
does it not set M 648
doing so and they M 644
doing so one has M 642
does he not pay M 640
does he does for M 640
doing so for long M 639
does he see this M 638
does he let them M 634
does he not set M 632
dot at one end M 631
doing to and for M 630
dog in this way M 626
does on her own M 626
doing so for any M 622
does the boy who M 620
does of its own M 620
does he use that M 619
doing to her was M 616
doing so she may M 616
does it and then M 616
doing the act that M 614
does he not owe M 614
does no man any M 612
does it for our M 612
doing the job was M 598
does he pay any M 598
doing so than any M 594
doing it with any M 586
does it for one M 586
doing in his new M 582
does it not fit M 582
does he put them M 578
does the way they M 576
does if you are M 572
doing so may mean M 570
dog to beg for M 570
does in one way M 570
doing of any one M 567
doing the things one M 566
does so can not M 566
dog or two and M 565
doing to her now M 564
doing to get them M 564
doing so one may M 564
doing if you had M 564
dog of any age M 564
dog if you are M 564
does at his own M 564
doing it this year M 563
doing the one and M 562
doing so was one M 560
doing as you ask M 560
dog is doing this M 560
does it say for M 558
does it all and M 558
doing it and for M 550
does by its own M 550
doing it that you M 548
does in all things M 546
doing to her own M 544
doing is not for M 544
does it say who M 544
doing to you now M 542
doing so she can M 542
doing it for six M 542
doing is that they M 538
doing in her own M 536
does it get them M 536
does is for our M 536
does in all men M 532
does he say they M 532
doing the act was M 528
does he not die M 528
doing in our day M 525
doing he has not M 524
does the boy say M 523
doing the job than M 522
doing so they act M 522
does he see you M 522
doing of new things M 520
does so does not M 520
does it and does M 520
doing to get him M 518
doing so not for M 518
does he say you M 516
does in this area M 514
does the air get M 512
does he see but M 512
doing so are too M 510
doing it for both M 510
dog he did not M 508
does the poet see M 506
dog so that you M 504
does to our own M 502
does no one see M 502
dog to get out M 500
doing so was too M 498
doing it you are M 498
doing is not going M 496
doing he had not M 496
does it not hang M 495
doing the act with M 494
doing so with her M 494
doing so and can M 494
does the math for M 494
doing to all men M 492
doing so now and M 490
dog to deal with M 490
does the one that M 490
does it lead them M 488
does he not add M 486
does it get that M 485
does the one and M 484
doing an act for M 482
dog on his way M 482
does he set his M 482
doing it with our M 480
doing it all our M 480
does it bring any M 478
does it bear out M 476
doing to see that M 474
dog as you are M 474
does it and why M 474
does it not get M 472
doing it one day M 471
does he mean all M 468
doing the old things M 466
does in this one M 466
doing to him now M 464
doing to try and M 462
does to them and M 462
doing in that way M 460
doing if she had M 460
does the god who M 460
does to earn his M 458
does it get this M 458
does he bring them M 458
does he ask his M 456
dog to him and M 454
does the man not M 454
does the job you M 454
doing to our own M 452
doing so can you M 452
doing so and may M 452
does it for this M 452
does to one who M 450
doing an odd job M 448
does it for all M 448
does the sun get M 446
does it ask you M 446
doing it too long M 444
doing it that they M 444
doing we did not M 442
doing the things god M 442
doing to him was M 440
doing it his own M 440
does to deal with M 440
does so with ease M 440
does he does with M 440
does so with one M 438
doing it and being M 436
doing in each area M 436
does it mean with M 436
doing it they are M 434
doing it for this M 434
doing it and who M 434
dog or cat who M 432
does it lead him M 432
does he not run M 432
doing the bad things M 430
does it not act M 430
does he not read M 430
dog of them all M 428
does it for that M 428
dot at each end M 426
doing so than that M 426
does to all her M 426
does so with any M 426
does it not see M 426
doing the act and M 424
doing or how you M 424
doing it now with M 424
dog if you can M 424
does an act for M 424
does he say any M 422
does go out with M 422
doing to get her M 420
doing so with one M 420
doing so that are M 420
doing so now that M 419
dog to his own M 418
does it bring with M 418
doing so they use M 416
doing on our own M 416
does to her own M 416
does it not with M 412
does he mean his M 412
does it now mean M 411
dog in his day M 409
doing if you did M 408
does it get him M 408
doing it and had M 406
does the act with M 406
dog to get his M 404
does the sun and M 404
does the ease with M 404
does in all its M 404
does he hear any M 404
doing so has led M 402
dog to you and M 402
does it and that M 400
dog to dog and M 398
dog is not dead M 398
does the things she M 398
does he own his M 398
does no one hear M 397
does it say this M 396
does it fit you M 396
does it fit our M 396
does he say his M 396
does he earn his M 396
doing in and for M 394
does it bring them M 394
does it with ease M 392
doing so this year M 390
doing so and this M 390
doing it and are M 390
does the god mean M 389
doing on our way M 388
does it with one M 388
does he say and M 388
doing so they run M 386
doing so all day M 386
dog to get him M 386
dog at all but M 386
does the poet not M 386
doing so they both M 384
doing or that they M 384
does is her own M 384
doing so and his M 382
does he not sit M 382
does it all get M 381
does so with this M 380
does so with that M 380
doing on this day M 378
doing in this new M 378
does he put all M 377
doing so they get M 376
doing or why you M 376
does he ask her M 376
doing at that age M 374
dot is and see M 372
does so and that M 372
does it now and M 372
doing so can one M 369
dog on its own M 368
does it say why M 368
does is sit and M 368
does he not cry M 368
doing so they bring M 366
doing so are far M 366
doing so and our M 366
doing on and off M 366
doing it you can M 366
does so for any M 366
does he not thus M 366
does he let her M 366
doing the old man M 364
does to all men M 364
does it use any M 364
doing the real job M 362
does the poem use M 362
does it not thus M 362
doing it but not M 360
doing to get his M 358
doing the dead man M 358
doing so for its M 358
doing it with this M 358
dog in that way M 358
does to him and M 358
does of her own M 358
doing it now was M 356
dog on his head M 356
does it for now M 356
doing it and did M 354
does to any one M 354
does it say they M 354
does it cry out M 354
does he see all M 354
does the poem end M 353
doing so was for M 352
doing so they ran M 352
doing so but that M 352
does we can not M 352
does to and with M 352
does he get rid M 352
doing the big things M 350
does to all who M 350
does the song say M 350
does so for her M 350
dog of our own M 348
does the poet ask M 348
dot on this map M 346
dog to lead him M 346
dog to death with M 346
does the man get M 346
does so with two M 345
doing so far out M 344
does in and for M 344
does he who does M 344
does he owe this M 344
does he mean any M 344
does he ask them M 344
doing so she does M 342
dog is not too M 342
does he say all M 342
does he mean then M 342
doing or why she M 340
dog is dead and M 340
does he say then M 340
dog or cat does M 338
doing to that man M 337
doing the job all M 334
doing so and has M 334
doing is not that M 334
dog is not for M 334
does the earth not M 334
dog in and out M 333
doing to get rid M 332
doing the job now M 332
doing so and how M 332
does it use for M 332
does it see that M 332
doing to this man M 331
does the big bang M 330
does it not end M 330
does so with both M 328
does it not lay M 328
does in that way M 328
does if they are M 328
doing to get out M 327
doing so than they M 326
doing of our own M 326
doing it may not M 326
doing if you can M 326
does it with any M 326
does it use them M 326
doing the job may M 324
doing if they did M 324
does the law not M 324
does it one way M 324
does it not fly M 324
does the path lead M 323
doing to and with M 322
doing so now with M 322
does go out and M 322
doing so she did M 320
does he read them M 320
does he lay his M 320
doing is not being M 318
dog to get rid M 318
dog is not being M 318
does in his job M 318
does the one with M 317
does so with far M 316
does it mean our M 316
does he see him M 316
doing to that boy M 314
doing the things men M 314
doing it than any M 314
doing he was doing M 314
dog the way you M 314
does it lay any M 314
does he say who M 314
does at that age M 314
doing so that his M 312
doing in this poem M 312
does so that she M 312
does so for both M 312
does it and you M 312
doing my own things M 310
doing at this day M 310
does so that you M 310
does it pay its M 310
doing so can bring M 308
doing my own job M 308
does it end and M 308
does it bug you M 308
does it all day M 308
doing so but for M 306
does it mix with M 306
does he bring you M 306
doing so his own M 304
doing of things for M 304
does it pay you M 304
does is let you M 304
doing the job can M 302
doing is that you M 302
dog he had with M 302
doing it than that M 301
doing to his son M 300
doing the math and M 300
doing the act has M 300
doing so for ten M 300
doing in this job M 300
doing he may not M 300
doing at his own M 300
does the job but M 300
does it say now M 300
does it get rid M 300
does the new age M 299
doing to earn his M 298
doing the job has M 298
doing so one day M 298
doing it that she M 298
does the math and M 298
does the act say M 298
does it his own M 298
does in this and M 298
doing up this way M 296
doing so are two M 296
doing or that you M 296
dog is not doing M 296
does the map say M 296
does so you can M 296
does is for her M 296
does the new year M 295
doing to this boy M 294
doing so for this M 294
dog of his day M 294
does it not use M 294
does he but lead M 293
doing is not easy M 292
dog or cat are M 292
does the old boy M 292
does he get mad M 292
does he beat her M 292
does in one year M 291
doing the big job M 290
doing so was due M 290
doing so for each M 290
doing of its own M 290
doing it and this M 290
does the man you M 290
does on his job M 290
doing so for him M 288
doing it with each M 286
dog is not mad M 286
does so for him M 284
does it mean god M 284
does as she has M 284
dog to see that M 283
doing it with ease M 282
doing in one day M 282
does the things you M 282
does the one for M 282
does so has not M 282
doing so and did M 280
doing it off and M 280
doing as they read M 280
doing an act and M 280
dog or cat had M 280
does or how she M 280
does he mean with M 280
doing so all his M 278
does to men and M 278
does it pay any M 278
does it fit all M 278
does he not lie M 278
doing to get that M 277
does he hear that M 277
doing so they cut M 276
doing so are now M 276
doing it and all M 276
does the son does M 276
does it all sum M 276
does he mean for M 276
doing so they too M 274
doing or how she M 274
doing it for each M 274
does to his son M 274
does is for his M 274
does in any one M 274
doing so now was M 272
doing or for not M 272
does the one you M 272
does it with this M 272
does it all hang M 272
doing of her own M 270
doing in her new M 270
dog to use his M 270
does the man ask M 270
doing it with two M 269
doing so with its M 268
doing so and with M 268
doing by not doing M 268
does in one day M 268
does the song mean M 267
doing so not out M 266
doing it for and M 266
dog is one who M 266
does it see its M 266
does he say things M 266
does he ask how M 266
does an eye for M 266
dog is old and M 264
does the one end M 264
doing the deal with M 262
doing so now for M 262
dog as they are M 262
does so for our M 262
does he then not M 262
doing it for pay M 260
doing it and with M 260
doing as you read M 260
dog is with him M 260
does it say and M 260
does he add any M 260
does he act for M 260
doing to her with M 258
doing the odd bit M 258
doing so she ran M 258
doing it than you M 258
does the new deal M 258
doing to them all M 256
dog he does not M 256
does by that act M 256
doing so she saw M 254
doing so one does M 254
doing it but they M 254
dog in its own M 254
does the dog say M 254
does so with due M 254
does it for its M 254
doing so are set M 252
dog or any dog M 252
does so that they M 252
does it not too M 252
does he not bear M 252
does he lead his M 252
doing so for her M 250
doing so and you M 250
doing so and being M 250
doing is for our M 250
dog on her arm M 250
dog is too big M 250
does so that his M 250
does he say one M 250
does he ask him M 250
does at one and M 250
doing in all that M 249
doing up his fly M 248
doing so may bring M 248
doing on new year M 248
does or did not M 248
does it say any M 248
does by far not M 248
does he add that M 246
does he act with M 246
does he act that M 245
doing so with our M 244
doing it that was M 244
doing is with his M 244
doing is its own M 244
does he own any M 244
does he let things M 244
does he earn for M 244
does he bring with M 244
doing so they saw M 242
does is get you M 242
does he not deal M 242
doing so with this M 240
doing so was now M 240
does the law and M 240
does the dead man M 240
does it put them M 240
does he then mean M 240
doing the act for M 238
doing so that was M 238
doing in all his M 238
doing he can get M 238
dog eat dog out M 238
does the heat get M 238
does it put him M 238
does it not cut M 238
does he ask that M 237
doing so for six M 236
doing in his job M 236
doing as she has M 236
does so for each M 236
does as you ask M 236
doing to her son M 235
doing so you get M 234
doing it but you M 234
doing is bad for M 234
doing as they saw M 234
does to you that M 234
does to him who M 234
does it not yet M 234
does he mean they M 234
doing it all out M 233
doing the act did M 232
doing is but one M 232
dog so that she M 232
dog he was and M 232
does the poet who M 232
does so with wit M 232
does it not owe M 232
does in old age M 232
does in his yet M 232
doing is not all M 231
does the cat say M 231
doing to get this M 230
doing so that one M 230
doing so and why M 230
does the way she M 230
does it act with M 230
does is not his M 230
does he cut with M 230
doing so they try M 228
doing or who they M 228
doing at this end M 228
dog so you can M 228
does the new man M 228
does it mean war M 228
does do things that M 228
doing so and she M 226
doing it for too M 226
doing it and has M 226
doing in one year M 226
dog to put his M 226
dog is with you M 226
dog is not yet M 226
does the earth and M 226
does so now and M 226
does so and she M 226
doing it and now M 224
dog in his way M 224
does to try and M 224
does to her and M 224
does the old one M 224
does it owe this M 224
does it mean doing M 224
doing the things and M 222
doing in his day M 222
dog in one arm M 222
does to get his M 222
does the use and M 222
does so and they M 222
does he say for M 222
doing of one man M 220
does in its way M 220
doing so with ease M 218
doing so she not M 218
doing or can not M 218
doing it and can M 218
dog on its lead M 218
does it fit any M 218
does is not for M 218
does he mean but M 218
does he mean and M 218
does he bear his M 218
doing so than did M 216
doing it our own M 216
dog to death and M 216
dog is too old M 216
dog at all things M 216
does the old song M 216
does on our own M 216
doing so has now M 214
doing of this was M 214
dog is big and M 214
does so for this M 214
does or one does M 214
does he say are M 214
does an end run M 214
doing so has had M 212
doing it but that M 212
doing is you are M 212
doing is going out M 212
dog to bring them M 212
dog to bear him M 212
does the poet bring M 212
does the act and M 212
does it put its M 212
does it may not M 212
does it long for M 212
doing in this god M 211
doing we may not M 210
does it run with M 210
does it bring him M 210
does is ask you M 210
does he put this M 210
does he cut his M 210
does an act not M 210
does on this earth M 209
doing to see how M 208
doing of this and M 208
doing it with both M 208
doing it all this M 208
doing he was but M 208
dog or two for M 208
does the law deal M 208
does the earth get M 208
does it mean going M 208
does is that you M 208
does he not buy M 208
does he not bid M 208
does by this act M 208
doing to its own M 206
doing so can add M 206
doing it they had M 206
doing if she was M 206
does the new and M 206
does the boy see M 206
does is ask for M 206
doing it now that M 205
doing at his age M 205
doing in one way M 204
dog is not one M 204
does on earth and M 204
does no mean that M 204
doing so thus far M 202
doing or who you M 202
does the new job M 202
does the fear that M 202
does he then say M 202
does he beat his M 202
does he ask this M 202
does he and his M 202
does at its own M 202
doing to you that M 200
doing the new job M 200
doing so are low M 200
dog to let him M 200
dog in heat and M 200
does the idea for M 200
does it and she M 200
does in being and M 200
does he mean you M 200
doing so that this M 198
doing it was too M 198
doing it was this M 198
doing it than they M 198
does the man see M 198
does the boy get M 198
does the big things M 198
does so are not M 198
does it for any M 198
does is cry and M 198
does he win his M 198
does he not lay M 198
doing so for our M 196
doing it for fear M 196
does the poet get M 196
does the new one M 196
doing so was this M 194
doing so was far M 194
doing so put his M 194
doing it that are M 194
doing in that old M 194
dog to get her M 194
dog to bring him M 194
dog he had had M 194
does it and who M 194
doing to get you M 192
doing the math for M 192
doing the job his M 192
doing so has its M 192
doing by his own M 192
does he see for M 192
does he may not M 192
does he let him M 192
does as you say M 192
doing at this age M 190
dog to see how M 190
dog to get off M 190
dog to death for M 190
does he not own M 190
doing so than you M 188
doing or who she M 188
doing it with and M 188
doing it was his M 188
doing it and his M 188
doing in and out M 188
doing as she does M 188
dog as that was M 188
does in all her M 188
does he see now M 188
doing we can see M 186
doing the singing and M 186
doing so has two M 186
doing so had they M 186
doing so and now M 186
doing of this act M 186
dog is not got M 186
does or can this M 186
does it set for M 186
does it her way M 186
does he lay out M 186
doing so that does M 184
doing in this age M 184
doing in and with M 184
does to all his M 184
does it not out M 184
does it and for M 184
does he pay each M 184
doing to her that M 183
doing we are doing M 182
doing the things with M 182
doing so got rid M 182
doing so and who M 182
doing in his head M 182
dog to put him M 182
dog so that they M 182
does an act bring M 182
doing it but she M 180
doing it and thus M 180
doing it and got M 180
doing in his way M 180
doing as men did M 180
does to them for M 180
does it cut off M 180
does in this age M 180
does in his way M 180
does in his new M 180
does he bear any M 180
does he act this M 180
does at any one M 180
doing so they add M 178
doing so than are M 178
doing it that has M 178
doing it that day M 178
doing in that box M 178
dog to ask for M 178
does the long and M 178
does the eye and M 178
does so they are M 178
does it with wit M 178
does he use and M 178
does he see why M 178
does he get you M 178
does do all that M 178
doing so with that M 177
doing the man any M 176
doing the job had M 176
doing the few things M 176
doing so you run M 176
doing so far and M 176
doing it any way M 176
doing in this and M 176
dog or one that M 176
dog is not eating M 176
dog in all his M 176
does the new idea M 176
does is that they M 176
doing the things his M 174
doing so they all M 174
doing so that our M 174
doing so are both M 174
doing my job with M 174
dog we had with M 174
dog to its own M 174
dog to her and M 174
dog it does not M 174
dog is not easy M 174
does it has not M 174
does it die out M 174
does he for that M 174
does as you see M 174
doing of things and M 172
doing it she had M 172
doing as they say M 172
does the air that M 172
does it with its M 172
does it put out M 172
does he see things M 172
does he now lie M 172
does he use one M 171
doing to get all M 170
doing it too and M 170
doing is for you M 170
dog at one end M 170
does to man and M 170
does or she does M 170
does it then not M 170
does he say with M 170
does he say but M 170
doing so has yet M 168
doing it and get M 168
doing is not real M 168
doing in each one M 168
does to get rid M 168
does me but too M 168
does he put off M 168
does as they did M 168
doing so long ago M 167
doing so and yet M 166
doing he can put M 166
doing as one has M 166
dog to you for M 166
dog or cat you M 166
does so and how M 166
doing so that day M 164
doing so far has M 164
doing or does not M 164
doing on his way M 164
doing it she was M 164
doing it had not M 164
dog on him and M 164
does no one cry M 164
does it pay him M 164
does it for god M 164
does he who can M 164
doing so was her M 162
doing of two things M 162
doing in that get M 162
does so and has M 162
does he with all M 162
does he lead them M 162
doing the job one M 161
dog it was not M 161
doing of this new M 160
doing it than this M 160
doing it her own M 160
doing it all year M 160
doing as you bid M 160
dog is not with M 160
does it die with M 160
does if you can M 160
doing on this one M 159
does it for two M 159
doing the job this M 158
doing the easy things M 158
doing so with two M 158
doing so but they M 158
doing is not yet M 158
doing in all its M 158
dog of its own M 158
dog in with him M 158
dog he had not M 158
does he use all M 158
does he run his M 158
does is say that M 157
doing the one job M 156
doing so each year M 156
doing so are being M 156
doing so are all M 156
doing or are not M 156
doing or are going M 156
doing it and try M 156
doing is not new M 156
dog on its head M 156
does so and his M 156
does or not own M 156
does or not may M 156
does it war with M 156
does it use this M 156
does he not fly M 156
does he end his M 156
does he earn each M 156
does he bring this M 156
doing it all that M 155
does to see that M 155
does it not that M 155
dot the area and M 154
doing we are going M 154
doing the one than M 154
doing so was all M 154
doing it with men M 154
doing it and see M 154
doing at all and M 154
dog to try and M 154
dog is not all M 154
does the age and M 154
does so now with M 154
does or can not M 154
does on his way M 154
does on both her M 154
does it mean using M 154
does it and his M 154
does in his head M 154
does he sit and M 154
does he see with M 154
does he own this M 154
does he bring her M 154
doing so was death M 153
doing to you all M 152
doing so his eye M 152
doing it not out M 152
doing it but for M 152
doing an old job M 152
does so use them M 152
does it with him M 152
dog or two with M 151
does the man pay M 151
doing the odd job M 150
doing so was both M 150
doing of any and M 150
doing in this man M 150
dog to run and M 150
does the poet let M 150
does it sit with M 150
does it lead one M 150
does it any way M 150
does it and they M 150
does in and with M 150
does if she can M 150
dot on one end M 148
doing to bring this M 148
doing so that its M 148
doing so may put M 148
doing of them was M 148
does so she can M 148
does so and thus M 148
does it with them M 148
does if one has M 148
does he buy his M 148
does at his job M 148
does he owe that M 147
doing the way you M 146
doing so she put M 146
doing so and bring M 146
doing in this out M 146
doing in all our M 146
does to men who M 146
does the law pay M 146
does so with joy M 146
does so and does M 146
does or can act M 146
does it and not M 146
does he see god M 146
does he pay this M 146
doing in any one M 145
doing to him with M 144
doing the job too M 144
doing so they got M 144
doing so than for M 144
doing so she got M 144
doing so but not M 144
doing in that bar M 144
doing as you use M 144
doing an act not M 144
dog we did not M 144
does so with real M 144
does so and goes M 144
does or not can M 144
does my son see M 144
does it with real M 144
does it say but M 144
does it run off M 144
does it not die M 144
does it not bid M 144
does it lay out M 144
does he put you M 144
does an act and M 144
dog the idea that M 143
does in his two M 143
doing the things her M 142
doing so with due M 142
doing so one was M 142
doing or was going M 142
doing it for now M 142
doing in this one M 142
doing in his old M 142
doing he was going M 142
dog is with his M 142
does to pay for M 142
does to all things M 142
does the man that M 142
does the law that M 142
does the job fit M 142
does the death and M 142
does it say she M 142
does it get all M 142
does in our sky M 142
does in man and M 142
does he bear with M 142
does as yet not M 142
doing so has long M 140
doing so had put M 140
doing so had now M 140
doing of that job M 140
doing it are all M 140
doing is for her M 140
does the red man M 140
does so act and M 140
does or who does M 140
does it see them M 140
does it bring its M 140
does is put you M 140
does is all for M 140
does in his use M 140
does he opt for M 140
does he mean than M 140
does he fear death M 140
does the idea fit M 139
doing the old job M 138
doing the law and M 138
doing so bad for M 138
doing on this job M 138
doing of this man M 138
doing of them may M 138
doing it and yet M 138
doing at her age M 138
dog to see and M 138
dog is not that M 138
dog in her own M 138
does the things for M 138
does the myth that M 138
does it see any M 138
does is that she M 138
dog is this that M 137
doing to them now M 136
doing the job god M 136
doing so with you M 136
doing so not with M 136
doing it you may M 136
doing it long ago M 136
doing it has had M 136
doing in this day M 136
doing he had put M 136
dog we can not M 136
dog at any age M 136
does it run out M 136
does it bid her M 136
does in all that M 136
does as they are M 136
does as she does M 136
does he run out M 135
doing to put them M 134
doing the day you M 134
doing so for them M 134
doing or how long M 134
doing is for his M 134
doing if they can M 134
dog if you had M 134
dog he can not M 134
does the things they M 134
does the boy with M 134
does it with you M 134
does it not try M 134
does is read and M 134
does in all but M 134
does he cry for M 134
does do this with M 134
doing to her all M 133
does to get out M 133
doing to him but M 132
doing the boy any M 132
doing so you not M 132
doing me this way M 132
doing in you and M 132
doing by any one M 132
dog to run with M 132
dog or cat but M 132
dog as she was M 132
does to our sun M 132
does on this day M 132
does it say all M 132
does he use each M 132
does he ask why M 132
dog or man that M 131
does it say god M 131
does in and out M 131
doing to bring them M 130
doing on his job M 130
doing of this one M 130
doing in you that M 130
dog on one end M 130
dog he was not M 130
does the act goes M 130
does so may not M 130
does or can mean M 130
does it lie for M 130
does it lay its M 130
does in her job M 130
does he owe any M 130
does he mean her M 130
does by her own M 130
does on any one M 129
doing to one who M 128
doing so with him M 128
doing so with both M 128
doing so one had M 128
doing so for that M 128
doing of them and M 128
doing of real things M 128
doing is that its M 128
dog to run out M 128
dog it was and M 128
dog if they did M 128
does the poet try M 128
does so for fear M 128
does or can that M 128
does it not cry M 128
does it mean his M 128
does it mean both M 128
does it get for M 128
does it aim for M 128
does he say was M 128
does he die for M 128
dot to dot and M 126
doing to that dog M 126
doing to him all M 126
doing the deal and M 126
doing so they say M 126
doing so far was M 126
doing so far off M 126
doing so can mean M 126
doing if she did M 126
doing he put his M 126
dog on its way M 126
dog in all its M 126
does the new act M 126
does the law now M 126
does the big man M 126
does on new year M 126
does no one say M 126
does it own any M 126
does is bring out M 126
does he set them M 126
does he put any M 126
does he not lead M 126
does he fear any M 126
does he ask god M 126
does the song end M 125
does no one try M 125
doing the job out M 124
doing so was out M 124
doing so had she M 124
doing so for both M 124
doing is not too M 124
doing he was led M 124
dog do not get M 124
does the head and M 124
does or not and M 124
does it say then M 124
does it mean death M 124
does in her poem M 124
does if she had M 124
does if she did M 124
dog or cat out M 123
does it with fear M 123
dot in each eye M 122
doing to our men M 122
doing to let you M 122
doing so was going M 122
doing of things with M 122
doing it than all M 122
dog to use its M 122
dog or cat they M 122
does the one now M 122
does the dear old M 122
does so for long M 122
does so and can M 122
does it act for M 122
does is not going M 122
does he not cut M 122
does the job all M 121
dot in one eye M 120
don in his own M 120
doing to bring out M 120
doing the act are M 120
doing of this job M 120
doing of things not M 120
doing me this big M 120
doing it was for M 120
doing it then and M 120
doing in this pit M 120
dog or man who M 120
dog of his was M 120
dog is with them M 120
dog if they are M 120
dog eat dog with M 120
does to own and M 120
does the two things M 120
does the earth bring M 120
does the act for M 120
does it set any M 120
does it say with M 120
does it but she M 120
does it act and M 120
does is its own M 120
does in this act M 120
does he who was M 120
does he then get M 120
does do that and M 120
does or how one M 119
doing we may put M 118
doing to put her M 118
doing to him that M 118
doing the things all M 118
doing so with each M 118
doing so all her M 118
doing or who was M 118
dog to try his M 118
dog so that its M 118
dog or cat than M 118
dog is ill and M 118
does to get them M 118
does to bring them M 118
does the singing and M 118
does the real job M 118
does so for you M 118
does so far not M 118
does so and for M 118
does on all who M 118
does at his age M 118
does at each new M 118
dog or any one M 117
does the sky end M 117
doing the act may M 116
doing so with far M 116
doing so they each M 116
doing so than she M 116
doing it that may M 116
doing as his own M 116
dog on her way M 116
does to this one M 116
does the poet put M 116
does the poet and M 116
does he read and M 116
does he pay them M 116
does he own you M 116
does do all this M 116
doing to that old M 114
doing to that kid M 114
doing to her but M 114
doing so you had M 114
doing so they pay M 114
doing so they let M 114
doing so for you M 114
doing so cut off M 114
doing of this they M 114
doing of easy things M 114
doing my old job M 114
doing my job that M 114
doing it and her M 114
doing an act may M 114
does the one man M 114
does so with new M 114
does it with both M 114
does an odd job M 114
doing of his son M 113
does it use that M 113
does it all out M 113
doing so she and M 112
doing so had set M 112
doing so and one M 112
doing of him who M 112
doing it each day M 112
doing it are both M 112
doing in this old M 112
doing in this big M 112
dog to its new M 112
does the son not M 112
does the old earth M 112
does the long run M 112
does so for god M 112
does of all his M 112
does it does for M 112
does he set for M 112
does go that far M 112
does the plea that M 111
doing the job does M 110
doing so had any M 110
doing so and all M 110
doing it now than M 110
dog to get them M 110
dog of his had M 110
dog is not his M 110
dog if you ask M 110
does the one god M 110
does the dying man M 110
does or who she M 110
does it lie and M 110
does it fit and M 110
does he mix with M 110
does he cut off M 110
does by his use M 110
doing we see that M 108
doing to bring him M 108
doing so that all M 108
doing so far this M 108
doing so but was M 108
doing it but did M 108
doing is not doing M 108
doing is not bad M 108
doing he had his M 108
dog or one with M 108
dog of this age M 108
dog is not any M 108
does the way lead M 108
does the boy not M 108
does the big one M 108
does so both for M 108
does it read now M 108
does it buy you M 108
does it and has M 108
does in war and M 108
does in all our M 108
does he not with M 108
does he let this M 108
does he act and M 108
does at his meat M 108
doing it with god M 107
doing we are led M 106
doing to get our M 106
doing so than this M 106
doing it than with M 106
doing it far too M 106
doing is that this M 106
doing if you get M 106
dog to pay for M 106
dog so that his M 106
dog is that they M 106
dog is not fit M 106
does the red and M 106
does so all too M 106
does it fit this M 106
does he pay him M 106
does he cry with M 106
does do this for M 106
doing to any one M 105
doing it and one M 105
does it ask that M 105
dot to dot with M 104
doing to this end M 104
doing to them any M 104
doing to him for M 104
doing it with joy M 104
doing he and his M 104
dog in his old M 104
dog if she did M 104
dog by day and M 104
dog as his own M 104
does to any man M 104
does so that one M 104
does it put any M 104
does it pay them M 104
does it not both M 104
does it fit him M 104
does in his old M 104
does if she has M 104
does he sit with M 104
does he put her M 104
does he hear you M 104
does he hear his M 104
doing it was one M 103
don or use them M 102
doing to his head M 102
doing so was with M 102
doing so they but M 102
doing so than men M 102
doing so may add M 102
doing so for they M 102
doing so did they M 102
doing so and see M 102
doing so all our M 102
doing it not with M 102
doing it but was M 102
doing in our way M 102
dog if you did M 102
does the real and M 102
does the law fix M 102
does the job far M 102
does it see and M 102
does is not easy M 102
does in this new M 102
does he read his M 102
does he lay any M 102
does he bid them M 102
does go with you M 102
doing it all now M 101
doing in that year M 101
does to them that M 101
does it for real M 101
does he own that M 101
doing to that cat M 100
doing to let this M 100
doing the head and M 100
doing so they won M 100
doing so but she M 100
doing of big things M 100
doing it and say M 100
doing it and does M 100
doing it and ask M 100
doing is bad and M 100
doing as god does M 100
dog to sit for M 100
dog to let you M 100
does the man owe M 100
does the man and M 100
does the heat act M 100
does so pay and M 100
does no one ask M 100
does it use each M 100
does it use and M 100
does it now with M 100
does it not deal M 100
does it fit his M 100
does it but can M 100
does it add new M 100
does he bear this M 100
does go with him M 100
does do two things M 100
doing to them was M 98
doing to let her M 98
doing so you bring M 98
doing so now than M 98
doing so can get M 98
doing so but had M 98
doing so and using M 98
doing so and does M 98
doing or you can M 98
doing is they are M 98
doing in this long M 98
doing in them and M 98
dog to sit each M 98
dog on his son M 98
dog is mad and M 98
dog in head and M 98
dog at each end M 98
does the heat thus M 98
does the ease and M 98
does the act not M 98
does so his own M 98
does so for them M 98
does so and this M 98
does or can for M 98
does it with joy M 98
does it bar any M 98
does is not yet M 98
does in all this M 98
does he say has M 98
does he not end M 98
does he hear and M 98
does he has not M 98
does go out for M 98
does do its job M 98
does as they bid M 98
dog the way she M 97
does to her son M 97
dot on his map M 96
doing so they see M 96
doing so that can M 96
doing so than his M 96
doing so can she M 96
doing so and put M 96
doing so all but M 96
doing it with real M 96
doing it with its M 96
doing it for was M 96
doing it and let M 96
doing in that big M 96
dog to put her M 96
dog to lead them M 96
dog is with her M 96
dog at all and M 96
does the mean for M 96
does so with low M 96
does so that this M 96
does it and with M 96
does it all say M 96
does it add this M 96
does he see its M 96
does he owe them M 96
does he bring any M 96
doing the way that M 95
dog or two that M 95
dog as you can M 95
does he deal out M 95
doing we may for M 94
doing to see who M 94
doing the way they M 94
doing the new things M 94
doing the job who M 94
doing the job any M 94
doing so you put M 94
doing so was being M 94
doing so they lay M 94
doing so that her M 94
doing so now are M 94
doing so but this M 94
doing so bring you M 94
doing so all that M 94
doing of each one M 94
doing it and its M 94
doing is new and M 94
doing in this year M 94
doing in things that M 94
dog to see you M 94
dog to his new M 94
dog the way they M 94
dog or his cat M 94
dog if they can M 94
does to you now M 94
does to bring out M 94
does the poet set M 94
does the new way M 94
does the law lay M 94
does the heat and M 94
does the fear and M 94
does so with fear M 94
does on its way M 94
does it not aim M 94
does in eye and M 94
does if you try M 94
does he not win M 94
does it for pay M 93
does in that one M 93
does he put that M 93
doing to her for M 92
doing the eating and M 92
doing so she set M 92
doing so had won M 92
doing so are they M 92
doing of that for M 92
doing my job too M 92
doing it but had M 92
doing is using his M 92
doing is for them M 92
doing in her job M 92
doing he has had M 92
doing as she bid M 92
dog to get its M 92
dog is one year M 92
dog is his own M 92
dog at his own M 92
does to you too M 92
does to earth and M 92
does the air act M 92
does it are not M 92
does it aid you M 92
does he fix his M 92
does he end with M 92
does he bow his M 92
does he act then M 92
does at this age M 92
doing of that one M 91
does is all that M 91
does he see out M 91
doing to our air M 90
doing the act can M 90
doing so with but M 90
doing so far with M 90
doing so are few M 90
doing or that she M 90
doing of that pet M 90
doing of his job M 90
doing it and put M 90
doing by its own M 90
doing by and for M 90
doing as they see M 90
doing an act can M 90
dog to you with M 90
dog on his oath M 90
dog on his arm M 90
dog on her own M 90
dog is and how M 90
does the war end M 90
does the poet deal M 90
does the old and M 90
does the job they M 90
does the job lead M 90
does the cat see M 90
does so they can M 90
does it far too M 90
does it all too M 90
does in one that M 90
does in his god M 90
does in her new M 90
does he say she M 90
does he get one M 90
does he ease our M 90
dot he was mad M 88
dot at one and M 88
doing so they and M 88
doing so had long M 88
doing it they set M 88
doing it and may M 88
doing is his own M 88
doing in ten and M 88
doing if you saw M 88
dog we had was M 88
dog or cat being M 88
dog as she had M 88
does the sun with M 88
does the son who M 88
does the poem get M 88
does the law set M 88
does the job too M 88
does the earth mean M 88
does the bad man M 88
does the air you M 88
does so deal with M 88
does it run its M 88
does is bring you M 88
does if you use M 88
does he see fit M 88
does go that way M 88
does go off and M 88
does by his death M 88
does at dead low M 88
dog it can not M 87
does he does out M 87
doing we are apt M 86
doing so with them M 86
doing so with new M 86
doing so set off M 86
doing so let him M 86
doing so but with M 86
doing my real job M 86
doing me that way M 86
doing it this day M 86
doing it that long M 86
doing it she did M 86
doing it now but M 86
doing is real and M 86
doing he has cut M 86
doing do not you M 86
doing at his new M 86
doing as they try M 86
dog if she had M 86
does to god and M 86
does the dog get M 86
does the cry for M 86
does so too for M 86
does so long for M 86
does it with men M 86
does it not ill M 86
does it not beat M 86
does it not ask M 86
does it bring this M 86
does if you saw M 86
does if you put M 86
does he win her M 86
does he use you M 86
does he toy with M 86
does he lead you M 86
does do for you M 86
does an old one M 86
does the act mean M 85
does in this day M 85
doing to them for M 84
doing to let him M 84
doing so with real M 84
doing so was its M 84
doing so that has M 84
doing so that any M 84
doing so and try M 84
doing so and got M 84
doing it than not M 84
doing is all that M 84
doing in this our M 84
doing in his poem M 84
doing he cut off M 84
doing as she sat M 84
dog up and put M 84
dog of his age M 84
dog in her arm M 84
does the sun act M 84
does the poet now M 84
does the path that M 84
does the earth say M 84
does so for that M 84
does so but for M 84
does or did her M 84
does it with two M 84
does is get rid M 84
does if you let M 84
does if she does M 84
does he see both M 84
does he put him M 84
does he ask any M 84
does as they say M 84
does the way one M 83
doing we are being M 82
doing to you than M 82
doing the things our M 82
doing the job not M 82
doing so that had M 82
doing so than with M 82
doing so than had M 82
doing so put him M 82
doing so but did M 82
doing so and its M 82
doing so and going M 82
doing of this for M 82
doing it with far M 82
doing it was all M 82
doing it has its M 82
doing in her head M 82
doing he had set M 82
doing he can bring M 82
doing at all she M 82
doing an old man M 82
dog is doing his M 82
does to buy them M 82
does the job using M 82
does the eye not M 82
does the day end M 82
does or not has M 82
does no one can M 82
does it set him M 82
does it not let M 82
does is put his M 82
does if one does M 82
does he pay her M 82
does he buy them M 82
does as you are M 82
doing to pay for M 80
doing so they end M 80
doing so they bear M 80
doing so than was M 80
doing so put them M 80
doing it was going M 80
doing it then you M 80
doing it but then M 80
doing he had had M 80
dog or man can M 80
dog on top and M 80
dog is that old M 80
dog in her way M 80
dog he was going M 80
does so does his M 80
does so and with M 80
does it get too M 80
does it for both M 80
does is that this M 80
does in his long M 80
does he fear his M 80
does as his own M 80
doing or being that M 75
doing of this that M 67
dog of his that M 63
does the act that M 61
does the far east M 60
does he act out M 60
does is not that M 58
doing at all that M 57
doing it that one M 55
does it add that M 55
does the sun run M 54
does he mean one M 53
dot in all that M 52
doing so mean that M 52
doing of them that M 52
does it but that M 52
dot the sky with M 48
does to him that M 47
does the war mean M 47
does the map key M 47
doing so was two M 46
doing is not one M 46
does it say one M 45
does he bring that M 45
doing to them that M 44
doing to earn that M 44
dog to run off M 44
does to all that M 44
does the man act M 44
does it fit that M 44
does in its day M 44
doing up and out M 42
dog is put out M 42
does in his day M 42
dog is all that M 41
does is that one M 41
does it bear that M 40
does he put out M 40
doing it for fun D 3192
dog in her lap D 2148
doing ye may put D 2108
dog on her lap D 1864
doth go with thee D 1390
does he not wear D 1064
dog in his lap D 990
dog on his lap D 968
doer of all things D 928
does the tax law D 906
doing in bed with D 864
does he wear his D 860
doth he now see D 839
doth on his oath D 817
does it for fun D 788
doth at this day D 785
does he hit you D 616
doer of all that D 603
doth by his own D 576
does the shoe fit D 570
doth he not say D 511
doth in its own D 500
does it lean too D 500
doth to this day D 478
doth it not then D 416
doth or doth not D 374
does the cow say D 362
does he wear that D 358
doing in her bed D 351
doth he bring his D 344
doing in that car D 326
doing in his bed D 313
does the guy who D 304
doth the man who D 300
don the red cap D 296
don the cap and D 294
doing in this car D 290
doing in this den D 272
doth on her oath D 270
doth in his death D 269
does he git his D 268
does he earn per D 258
does it hit you D 254
doing so met with D 246
dog to wag his D 242
dog in his car D 234
does he wear them D 232
doth my cup with D 226
does the fed get D 224
dog is fed with D 220
does it get hot D 218
does an egg get D 210
does he wear out D 200
doer of his own D 198
doing in that den D 196
doth in all things D 192
dog to bed with D 192
doth in eating heal D 191
doth the lad mean D 188
does the bee get D 184
doth my son and D 182
dot on each shoe D 182
dog in his bed D 182
dog as thou art D 180
does the car get D 180
doer of that act D 178
dog is too fat D 176
doer of any act D 176
does the art and D 174
doth thy death year D 172
dog or cat flea D 172
does in his art D 172
does the cap fit D 169
does my pen not D 168
does the fat man D 160
doing in his car D 158
doth in all his D 157
don king and bob D 156
does the ebb and D 154
dog is being fed D 152
dog in bed with D 150
doth it for his D 148
doth in his own D 148
doth by law and D 144
doing it for art D 144
does the egg get D 144
doer of all this D 144
doth of his own D 143
doing up his tie D 143
doth he not now D 142
does the tax and D 138
does the fed use D 138
doer of this act D 136
dog on his bed D 135
dog to wag its D 134
does the sap get D 134
doth it not for D 132
doth he say that D 132
doing the fun things D 132
doth he now say D 130
doing on this bus D 130
dog by its ears D 128
does the wear and D 128
doing in that bed D 127
doth he not win D 126
doing so they met D 126
doing in this bed D 126
doth he not then D 124
dog or his cow D 124
dog or cat fur D 124
does the old rip D 124
doth it not ask D 120
doth the earth her D 118
doth in our idea D 118
doing in his art D 118
dog is fed and D 116
doth it for fear D 115
dos if you are D 114
dog by his ears D 114
doth he not see D 113
doth it not with D 112
doing up his shoe D 112
dog or lean cow D 112
doth he get his D 108
doing in that rig D 108
does the new tax D 106
does the hot air D 106
does the cow get D 106
dog on her bed D 104
dog is not fed D 104
dog be fed with D 104
does he hit out D 104
doth it not set D 103
does it not wear D 102
does he not sow D 102
doth it with all D 100
doing it for tom D 100
does he bay you D 100
dog in her car D 98
does he pay per D 98
does he not tear D 98
doer of big things D 98
doth the law put D 96
doing it for dad D 96
doing is not art D 96
doing in her car D 96
does the bus get D 96
doth it long for D 94
does the deaf and D 94
does he wear any D 94
doth the things that D 93
doth sing for joy D 92
doth he heal men D 91
doth the old man D 90
doth the end for D 90
dog is fat and D 90
does the dean say D 90
does my car fit D 90
does he tie his D 90
does he dye his D 90
doth it with that D 88
doing it for mom D 88
doing in bed this D 88
dog to his bed D 88
does it wear out D 88
doc is not got D 86
doth he not bear D 84
dog or his ass D 84
doth it for him D 83
doth he bring with D 82
does it wax and D 82
does it irk you D 82
does he rob you D 82
doer in his own D 81
dog at bay with D 80
does it ebb and D 80
does he rub his D 80
dos so that you D 76
dos so you can D 57
dos to read and D 52
does the doc say D 51
does the old hag D 50
doth or may any D 43
doth he not bring D 43
doth of its own D 41
doth it not say D 41
doth he now that D 40
doth an act that D 40
