done by using a M 41870
down to get a M 18881
done so for a M 15118
done so with a M 14318
done it with a M 13174
down to see a M 11777
down so that i M 9441
done it for a M 8389
down to read a M 6915
door to get a M 4966
done to get a M 4274
down to being a M 4150
down so that a M 4118
done it and i M 3890
done to put a M 3878
door so that i M 3728
done us all a M 3721
door to see a M 3685
done so had i M 3566
done so that a M 3304
door he saw a M 3148
down the way i M 2495
done the things i M 2478
down the path i M 2476
down on him a M 2351
down to earth a M 2262
down is not a M 2222
done is not a M 2208
down it was a M 2157
door is not a M 2124
down the path a M 2063
done up with a M 2024
done so that i M 1974
done so than a M 1920
down he saw a M 1895
down at her a M 1746
down it with a M 1658
down as with a M 1654
done the way i M 1646
done to bring a M 1645
down to put a M 1583
down the way a M 1533
down to him a M 1532
down on them a M 1471
done so and i M 1442
down to was a M 1385
down it for a M 1384
down the things i M 1374
done it but i M 1324
down by using a M 1313
door to with a M 1305
done it was a M 1292
down to fit a M 1249
done it had i M 1230
down he was a M 1222
done so than i M 1214
down to say a M 1156
down to them a M 1132
down to buy a M 1105
down at him a M 1055
door he had a M 1049
done so was a M 1002
down the man a M 1001
done is but a M 950
down to you a M 941
done to earn a M 939
down he had a M 905
down as being a M 876
down to one a M 822
down on her a M 746
door it was a M 738
down to pay a M 724
dogs is not a M 714
down to run a M 712
down to hear a M 698
door so that a M 671
down we had a M 665
done is that a M 660
down to her a M 634
done us both a M 624
door to let a M 605
door we saw a M 596
done is that i M 594
down is that a M 588
done up for a M 576
down to two a M 557
done he had a M 552
down we saw a M 548
done to death a M 546
down to let a M 529
done the job i M 506
down to lead a M 497
door to buy a M 494
done me that i M 492
door we had a M 484
done so but i M 484
down to earth i M 482
done on both a M 454
down to earn a M 452
done up that i M 446
door to ask a M 444
down the bar a M 436
down to but a M 435
down on you a M 428
done we had a M 428
done the man a M 424
door to being a M 423
down to his t M 411
done to win a M 406
down the law a M 396
down it has a M 388
done thing for a M 378
down the heat a M 373
done is for a M 371
down to add a M 365
done or not i M 342
down to for a M 339
down as for a M 334
done to add a M 328
down to lay a M 326
door the way i M 326
done to you i M 324
done to him i M 320
dogs to get a M 308
down the day i M 307
down or that a M 305
door to say a M 302
done it all a M 300
door to beg a M 299
done or how i M 298
done by doing a M 296
done it that i M 294
down to use a M 293
door to him a M 292
door in with a M 288
done so using a M 288
down he has a M 286
down so far i M 285
down at him i M 285
down to him i M 284
down at her t M 284
down on was a M 283
down so low i M 279
done is with a M 276
door we see a M 272
done to him a M 272
down to using a M 270
done the day i M 270
done so and a M 262
done as for a M 262
down to fix a M 259
down to doing a M 256
done to them i M 256
done it than i M 256
down or use a M 254
door to hear a M 253
done to set a M 252
down to set a M 250
done or that i M 250
done in both a M 245
down on earth a M 243
done is put a M 242
done as sad a M 242
down to how i M 239
down or put a M 239
down to cut a M 236
down is that i M 234
done me and i M 234
done in with a M 228
done to fix a M 226
down in for a M 225
down on with a M 223
down to pet a M 222
down on for a M 222
down at her i M 221
down at his t M 217
door is now a M 216
done to lay a M 215
done is now a M 214
down to six a M 211
down at them i M 211
done at all i M 210
door by using a M 208
done so far i M 208
down in him a M 207
down to that i M 205
down on her i M 201
down to how a M 200
down or with a M 200
door of death i M 200
down to try a M 198
done he was a M 198
down it and a M 196
done is add a M 196
done as with a M 196
dogs or pay a M 194
down to and a M 188
done so had a M 188
done in using a M 188
down or get a M 187
door to put a M 186
down to with a M 184
done so but a M 184
done by being a M 184
down the one i M 183
done the job a M 182
down we see a M 181
down to ask a M 181
done to aid a M 180
door he was a M 178
done it has a M 178
doom is not a M 176
done to run a M 176
down to rear a M 175
doom to death a M 174
done up and i M 174
down to see i M 173
down by him a M 173
done so mad a M 172
door as with a M 170
down he got a M 168
door or with a M 168
door is but a M 168
doom of being a M 168
down to win a M 167
done to end a M 166
down the air a M 165
down by being a M 163
done or that a M 162
down me and a M 160
door he hung a M 160
door of one a M 154
down or for a M 153
down is but a M 153
done or for a M 153
down to you i M 152
down to bring a M 152
down on him i M 150
door to bring a M 150
down or has a M 149
done up and a M 148
done in not a M 148
down to them i M 145
down me and i M 144
down at them a M 144
door the day i M 144
done the boy a M 140
done in that i M 138
door to say i M 136
done to them a M 136
done or how a M 136
down to read i M 135
down the man i M 132
down by doing a M 132
door to pay a M 132
door is set a M 132
door he got a M 132
done to her a M 132
done it all i M 132
door in not a M 130
down it and i M 128
done by both a M 128
down to beg a M 126
done to her i M 126
done so for i M 126
done it and a M 126
done by not a M 126
down to why i M 124
down or using a M 124
done no man a M 122
down to beat a M 121
dots is not a M 120
door he put a M 120
done we get a M 120
done to use a M 120
down it had a M 119
dots so that a M 118
done the way a M 118
done on how a M 118
door the way a M 116
down on you i M 115
door or use a M 114
done it then i M 114
done in and i M 114
down to mean a M 112
door to him i M 112
down to her t M 111
down on them i M 111
door to earn a M 109
down on but a M 108
done to cut a M 108
done he has a M 108
done as being a M 108
down in with a M 107
dogs it was a M 107
done to near a M 106
done to fit a M 106
done is use a M 106
down as not a M 105
down to death a M 104
down to and i M 104
down so long i M 104
down to who i M 103
down to aid a M 103
down to near a M 102
door he has a M 102
done or why i M 102
done to ease a M 100
done my job i M 100
done me for a M 100
done by eating a M 100
dogs by using a M 100
down as does a M 99
done to see a M 98
done it than a M 98
done is get a M 98
dots the earth a M 96
done me but a M 96
done he and i M 96
down to her i M 95
door of this i M 94
door is hung a M 94
done to heal a M 94
done he sat a M 92
down we get a M 90
down to die i M 90
down in lead i M 90
down as but a M 90
door is that i M 90
done no one a M 90
dogs do with a M 90
down or had a M 89
down on and a M 89
done to one i M 88
done so bad a M 88
done it for i M 88
done it but a M 88
done by him a M 88
down on and i M 87
door or put a M 86
down by law a M 85
done me was a M 84
done it had a M 84
down on both a M 82
door to her a M 82
done so mean a M 82
done so ere a M 82
down or that i M 81
down he sat a M 80
done is set a M 80
done in air a M 80
done he put a M 80
down to ten a M 76
down to say i M 76
down or not i M 63
down is with a M 60
down is for a M 54
down to bear a M 53
down to die a M 52
down to low a M 51
down to end a M 51
down to was i M 48
down to eating a M 48
down the box i M 48
down to this i M 47
down in that i M 45
down as both a M 41
down to this a M 40
down the law i M 40
down so long a M 40
down by and a M 40
dogs to run a M 40
down to pen a D 1251
done by tying a D 944
down my pen i D 840
dose is not a D 662
down to tie a D 614
door he met a D 569
dome is not a D 502
doll is not a D 458
down the bay a D 374
dove is not a D 364
dock is not a D 334
dose or for a D 320
down we met a D 314
done to tie a D 292
dock to get a D 274
down the row a D 250
dose is for a D 222
dost it with a D 212
down the pen i D 203
dove in with a D 203
dove in for a D 193
down the bay i D 192
down the row i D 184
dose of con a D 184
down to pat a D 171
dome is but a D 160
down to thee a D 159
down my gun i D 156
down my pen a D 151
dose so that a D 150
dost it for a D 144
down to rub a D 137
down to sic a D 136
down to dig a D 132
dole it out a D 132
down in bed i D 127
down the gas a D 126
dose to get a D 124
down the bed a D 122
dose by using a D 116
dome to get a D 116
dole is not a D 116
down the car a D 114
dove in and i D 112
dome we had a D 110
doings of him i D 106
door or ringing a D 104
down he met a D 102
down to hem a D 101
dost go with a D 96
doping it with a D 96
door we met a D 92
dont la vie a D 92
down in bed a D 91
dock is now a D 84
dock he saw a D 82
down to hit a D 66
down to sew a D 49
down to sip a D 46
down by tying a D 44
