age was not a M 8778
ago this was a M 5469
age and had a M 5037
age and with a M 4663
ago she had a M 4362
age two and a M 4034
ago she was a M 3649
age and has a M 3525
ago they had a M 2586
age and was a M 2549
ago and now i M 2418
age and not a M 2411
ago and had a M 2326
age who had a M 2128
age and for a M 1788
ago and that i M 1623
ago and was a M 1598
ago you had a M 1435
ago you and i M 1400
ago was but a M 1354
age she was a M 1336
age who has a M 1308
ago and has a M 1298
age she had a M 1190
age one and a M 1165
age has had a M 1162
ago was not a M 1116
age who was a M 1048
age and that a M 1025
age and that i M 1011
ago and for a M 1005
ago that was a M 866
age but with a M 814
ago was now a M 800
age six and a M 762
ago and got a M 746
ago now that i M 718
ago and that a M 646
ago and then i M 644
aging man with a M 601
ago who had a M 569
ago and now a M 532
ago and not a M 519
ago and saw a M 508
ago this day i M 502
age ten and a M 437
age and got a M 428
age and then a M 411
ago who was a M 401
ago was that i M 388
ago she got a M 384
ago and with a M 369
age that had a M 364
ago that had a M 348
ago has had a M 348
ago she and i M 346
age that has a M 320
age was but a M 318
age that was a M 316
ago had had a M 312
age and are a M 311
age and being a M 304
age this was a M 296
ago but that i M 295
ago now and i M 288
age are not a M 287
ago but now i M 285
ago are now a M 283
ago you did a M 278
age had had a M 278
ago that for a M 276
age was for a M 260
ago had not a M 258
age and add a M 244
ago now has a M 226
age and die a M 222
age you are a M 219
age and thus a M 218
age but has a M 213
ago she and a M 210
ago was that a M 208
ago they got a M 206
age now and i M 206
ago but for a M 201
ago and yet i M 198
aging and that i M 198
ago and all i M 194
ago that not a M 186
aging was not a M 184
age they had a M 184
age for being a M 184
ago was for a M 180
age was that i M 178
age was that a M 176
ago and how i M 174
ago and put a M 172
age man with a M 172
aging man and a M 170
age than for a M 170
ago she saw a M 158
age they are a M 158
age and owe a M 156
ago and did a M 154
age that saw a M 152
age but not a M 151
ago and then a M 150
age she has a M 148
ago you saw a M 147
age has not a M 146
age does owe a M 146
ago you put a M 145
age now that i M 144
age and death i M 144
ago that being a M 143
age and get a M 142
age age has a M 142
age can get a M 140
age ten with a M 138
age not being a M 138
age for using a M 138
age than with a M 134
age but for a M 134
age man was a M 132
age you and i M 130
age and now i M 129
ago all but a M 128
age can use a M 128
age had not a M 126
ago and won a M 124
age and then i M 122
ago they saw a M 120
age boy with a M 120
ago man was a M 119
age but was a M 116
age has put a M 114
age and how i M 114
age six with a M 110
ago and are a M 108
ago all that i M 108
age and won a M 108
age then was a M 104
age may bring a M 104
ago they did a M 102
age was thus a M 102
age than does a M 101
ago they put a M 100
age one has a M 100
age but had a M 100
age boy and a M 100
age are but a M 100
ago you got a M 98
ago put out a M 98
ago now than i M 98
age can bring a M 96
age and now a M 96
aging and with a M 92
age that for a M 92
age and led a M 88
ago was with a M 86
ago that all i M 86
age but that a M 86
age and yet i M 86
age may bear a M 84
age was both a M 82
age and all i M 82
ago had but a M 80
age can set a M 80
ago now but i M 47
aging are not a M 46
age and sex a D 265
ago she met a D 236
ago met with a D 123
ago you met a D 120
age and sex i D 116
ago and met a D 100
ago bob and i D 84
