age before them . M 330
age before him . M 272
age around him . M 162
age behind them . M 124
ago summer day . M 115
age twenty one . M 114
ago played out . M 110
age behind him . M 110
age before this . M 104
age behind him ! M 100
age groups too . M 96
age groups are . M 94
age without them . M 90
ago without them . M 88
age without fear . M 80
