ago when we were M 15215
age when he died M 11280
age when he came M 8838
age three or four M 7084
age four or five M 6647
ago when he said M 5320
age seem to have M 4401
age when so many M 3804
age such as ours M 3527
age when he left M 2966
ago when he came M 2922
age when the mind M 2898
age range is from M 2685
age when he went M 2304
age when the great M 2108
age from the late M 1912
age from the early M 1861
age when he made M 1762
age when so much M 1720
age when the most M 1673
age more or less M 1663
ago when he went M 1660
age when the heart M 1650
age during the great M 1634
age from the time M 1569
age when we have M 1546
ago when the great M 1511
age when the young M 1494
age three to five M 1382
age will be able M 1352
age when we were M 1290
age have the same M 1243
ago some of these M 1239
age from the same M 1218
age during the last M 1194
age range of these M 1169
age will be more M 1162
ago when he left M 1097
age three to four M 1084
ago during the last M 1082
ago when we went M 1074
ago when the last M 1062
ago seem to have M 1028
age during the years M 994
age living at home M 980
age when the only M 956
ago when he made M 892
age during the early M 882
ago when he told M 876
age during the late M 864
age date of birth M 863
ago many of these M 850
age when the very M 840
age four to five M 833
ago gave up trying M 830
age when he said M 800
age when the word M 794
age range of those M 792
age over the next M 784
age were the most M 783
age when the gods M 776
age when the body M 775
ago during the time M 752
age were the same M 748
age range of from M 741
ago from the same M 728
ago when the late M 715
ago when we came M 708
ago made up their M 708
ago most of these M 674
ago more or less M 668
age when the best M 668
age range is wide M 662
age when the last M 652
age when the more M 651
age there is some M 647
ago when the city M 646
age when he must M 646
ago made it clear M 640
age when he will M 640
age were the only M 640
age into the early M 637
age during the time M 627
age when he fell M 614
age from the very M 612
age there is also M 603
age will be less M 600
age range of three M 600
ago when he used M 596
age range of their M 592
age range of five M 583
age when the true M 574
ago when the land M 571
age there is nothing M 567
age over the past M 565
age must be held M 564
age when the life M 554
ago gave the name M 548
age when it will M 536
age when he lost M 536
age from the date M 534
age during the past M 526
age during the same M 522
ago from the north M 515
age range in years M 512
age when the work M 508
age there is less M 502
age from the past M 501
ago during the early M 498
age when the need M 498
ago during the late M 493
age must be made M 488
age were at work M 466
age from the rest M 460
ago when the only M 458
age when he gave M 458
age there is only M 453
ago when it came M 446
ago during the great M 443
age range of four M 442
ago when he gave M 437
age will be like M 434
age range of your M 434
age during the next M 423
age were to have M 422
age when the baby M 420
age there is more M 419
age when the love M 418
age when we must M 416
age went to work M 410
ago when we used M 406
age when the vast M 404
age over the last M 396
ago from the south M 394
age fall in love M 386
age when the rest M 382
age will be rich M 374
age when the city M 374
age there is much M 374
age when it came M 370
ago came to mind M 368
age many of these M 366
age range of most M 364
age must be kept M 364
age when the means M 362
ago when he fell M 361
ago when the young M 359
age from the other M 354
ago when we left M 352
ago when the town M 352
ago used to call M 352
age will be very M 352
age range as well M 349
ago three or four M 346
ago when he died M 344
ago from the late M 340
age over the years M 340
age will be seen M 334
ago when the same M 333
age when the lord M 332
age when the term M 328
age when he says M 328
age will be used M 326
age will be much M 320
ago none of these M 318
ago when we made M 317
ago when he lost M 314
ago when the moon M 313
ago made the same M 308
ago were the most M 306
ago laid to rest M 306
age when the youth M 304
ago even the most M 303
age must be used M 300
age must be more M 300
ago when he heard M 298
ago from the time M 295
ago from the west M 294
age when we know M 294
age into the army M 294
age must be able M 290
age fell in love M 290
ago were the only M 289
age when the book M 289
ago gave up their M 288
age when the mass M 287
age when we find M 286
age when the name M 286
ago upon the same M 284
age knew the meaning M 284
age when the land M 282
age when the boys M 282
age owes so much M 280
age when the time M 279
age were in fact M 278
age have the duty M 278
ago when the lord M 277
ago were the same M 276
age unto an hour M 272
age range of birth M 270
age need to know M 270
aging over the life M 269
age much the same M 269
ago used to make M 268
age when he knew M 268
age show the same M 268
age five to nine M 268
age when the will M 265
age side by side M 263
ago from the other M 258
age range of young M 253
ago from the great M 252
age face to face M 252
age living in their M 250
age when the same M 248
age will be made M 246
age will be only M 245
age when the role M 244
age some of these M 244
age must be seen M 244
age when no other M 242
age will be those M 240
ago some of their M 238
age when in fact M 238
ago when he sent M 237
ago when the most M 236
ago when the other M 235
age there is very M 235
ago when so many M 234
age upon the main M 234
age were in high M 230
ago when the book M 228
ago gave up hope M 228
age when the ideas M 228
age when the ideal M 228
ago when we said M 226
ago fell in love M 226
age when the main M 226
ago when the word M 225
age just as much M 225
ago when the early M 224
age when the male M 224
age when the girl M 224
age when he felt M 224
age were in some M 222
ago when the gods M 221
age when the loss M 220
ago gone to their M 218
age when the rich M 216
age when the rate M 216
age were to take M 216
age need to have M 216
age must be very M 216
age just in time M 216
ago when the three M 213
ago laid it down M 212
age when the other M 212
age from the days M 210
ago when we heard M 209
ago from the feet M 208
age when the eyes M 208
age from the third M 207
age during the cold M 207
age when to think M 206
age when the poor M 206
age range as those M 206
age when he most M 205
age when the wealth M 204
ago from the town M 203
ago were to come M 202
age when the risk M 202
age when he told M 202
age range of nine M 202
age owes the kind M 202
age even the most M 200
age speak the truth M 198
age from the last M 198
ago when the poor M 197
ago when the wind M 195
ago from the date M 192
age when in other M 192
age were no more M 192
age till he heard M 192
ago when the lake M 190
age when no such M 190
age there is great M 190
age range is very M 190
age range is also M 190
age must be left M 188
ago when the work M 187
age when we think M 186
age upon the same M 186
age having no more M 186
age over the range M 185
age when we need M 184
age when the line M 184
age from the fact M 184
age when he heard M 182
age were the main M 182
ago when we lost M 181
age range is more M 181
age want to know M 180
age during the post M 180
ago when the boys M 178
age will be upon M 178
age felt the same M 178
age from the young M 177
age when the truth M 176
ago when he felt M 175
age into the next M 175
age range is much M 174
age leads to these M 174
age have the best M 174
ago from the city M 172
age will be even M 172
age among the three M 170
age most of these M 168
age range in their M 167
age only to find M 166
age from the base M 166
age during the life M 166
ago only the most M 165
age when the west M 164
ago some of those M 162
age when the sons M 162
age when the cult M 162
ago said is true M 160
age will be lost M 160
age when the hand M 160
age early in life M 160
ago when the main M 159
ago when the term M 158
ago when the ocean M 158
age when the call M 158
age need to learn M 158
age back to hunt M 158
ago come to think M 157
age range at risk M 157
age when the full M 156
ago when the very M 154
ago when the north M 154
age when the home M 154
age into the same M 154
aging over the past M 153
aging among the young M 153
ago what we know M 152
ago among the most M 152
age when the plan M 152
age what it means M 152
age vary in their M 151
ago when the kids M 150
age over the life M 150
ago when the cost M 148
age like the rest M 147
ago meant to look M 146
age upon my face M 146
age data on some M 146
ago when the girl M 144
ago only to find M 144
age when the cost M 144
age went to live M 144
ago most of those M 143
ago four or five M 143
ago when the need M 142
ago from the main M 142
ago during the days M 142
age when the test M 142
age take the form M 142
ago when the baby M 141
age during the most M 141
ago used to tell M 140
age will be born M 140
age when the good M 140
age when it must M 140
age from as young M 140
ago when the rate M 139
ago trying to make M 138
age will be from M 138
age when the faith M 138
age when he laid M 138
age will go down M 137
age when the theory M 136
ago when the theory M 134
ago trying to find M 134
ago have the same M 134
age when we cease M 134
age were to make M 134
age were the ones M 134
age range of youth M 134
age when we will M 132
age rich in such M 132
age during the third M 132
ago when the high M 131
age will at once M 130
age when the form M 130
age were the very M 130
age till the time M 130
age come to life M 130
age among the most M 130
ago when the west M 129
ago when the road M 129
age range in these M 129
ago said the same M 128
age will be most M 128
age from the most M 128
age when the rule M 126
age range we have M 126
age made up only M 126
age from the sixth M 126
ago when he last M 124
ago used to take M 124
ago making the same M 124
age will be left M 124
age when the pure M 124
age range at time M 124
age like to play M 124
ago when he knew M 122
ago used to have M 122
ago came to life M 122
aging time at room M 122
age when the town M 122
age range of late M 122
age over the same M 122
age must be laid M 122
age just the same M 122
ago when we gave M 121
ago when it fell M 121
ago much the same M 121
age when the soft M 121
age upon the very M 121
ago when we last M 120
ago made me feel M 120
age when we went M 120
age when we feel M 120
age when the next M 120
age when the hair M 120
age when the fire M 120
age three to nine M 120
age must be less M 120
age during the rise M 120
ago used the term M 118
age when he fled M 118
age were to come M 118
age there is need M 118
age soon to dawn M 118
age made the most M 117
ago only the rich M 116
ago full of life M 116
ago felt the same M 116
age when we look M 116
age when the birth M 116
age when he used M 116
age into the most M 116
ago when he held M 115
age when the holy M 115
age range is only M 115
ago just in time M 114
ago come to look M 114
age when he sees M 114
age were the best M 114
age used the word M 114
age made it more M 114
ago made my peace M 112
age when we learn M 112
age seem to make M 112
age range of early M 112
age felt the need M 112
age will do well M 111
age feel the most M 111
ago over the same M 110
ago from the high M 110
age when we want M 110
age when the poets M 110
age when the fate M 110
age made me feel M 110
age love to play M 110
age living in these M 110
ago many of those M 109
age will be well M 109
age when we take M 108
age when the size M 108
age what it meant M 108
age were in their M 108
age upon it must M 108
ago from the post M 107
ago much of what M 106
aging from the food M 106
age when the play M 106
age live at home M 106
age from the high M 106
age find the most M 106
age feel the same M 106
age even in those M 106
ago when the line M 104
ago when my great M 104
age will be ready M 104
ago when the army M 102
ago used the same M 102
ago cast my eyes M 102
age will be dealt M 102
age were at their M 102
age from the birth M 102
age came at last M 102
ago from the very M 101
age have to learn M 101
ago when the four M 100
ago when the best M 100
ago were in their M 100
ago during the month M 100
age were in part M 100
age span of three M 100
age range of some M 100
age range is used M 100
age must be dealt M 100
age from the size M 100
age from the next M 100
age from the great M 100
ago when we knew M 99
age were no less M 99
ago when the plan M 98
ago when he quit M 98
ago what we were M 98
ago made me think M 98
ago made by lord M 98
age will be held M 98
age when we seem M 98
age when at last M 98
age were the last M 98
age have to work M 98
age have to make M 98
age care to take M 98
age been the most M 98
age will be over M 96
age will be living M 96
age when the past M 96
age when the moon M 96
age when he last M 96
age used to tell M 96
age seem to think M 96
age when the self M 95
ago when he kept M 94
ago from the last M 94
age will be sent M 94
age when the data M 94
age when it died M 94
age were so great M 94
age learn to make M 94
age just as well M 94
age joys in their M 94
age have no other M 94
age from the work M 94
aging over the last M 93
age from the more M 93
ago used to talk M 92
ago used to keep M 92
ago most of their M 92
age when we left M 92
age prior to their M 92
age owes to those M 92
age must be done M 92
age many of those M 92
age having the same M 92
age from the data M 92
ago when the vast M 90
ago only the very M 90
ago just as well M 90
ago from the wild M 90
age when the fact M 90
age there is here M 90
age span of from M 90
age span of five M 90
age make up only M 90
age able to learn M 90
ago when the ship M 89
ago when it said M 89
ago when the bank M 88
ago used to live M 88
ago side by side M 88
ago from the face M 88
ago come to mind M 88
age when the urge M 88
age when the early M 88
age were the work M 88
age were the idle M 88
age want to have M 88
age used to make M 88
age span of more M 88
age range of only M 88
age none is more M 88
age have to think M 88
age have no such M 88
age from no face M 88
ago when no other M 87
ago when the rest M 86
ago were no less M 86
ago went to work M 86
aging such as heart M 86
age when the tree M 86
age range of many M 86
age must be well M 86
age into the late M 86
age have in their M 86
ago when the threat M 84
ago were in many M 84
ago were in fact M 84
age when the years M 84
age when the threat M 84
age says the same M 84
age look as much M 84
age have so many M 84
age along the same M 84
age range in most M 83
ago when it made M 82
ago from the most M 82
ago been so well M 82
age will be when M 82
age will be there M 82
age whom he knew M 82
age when the wars M 82
age trying to find M 82
age such as heart M 82
age making the best M 82
age from the years M 82
age from the arms M 82
ago lost the last M 80
ago from the body M 80
age will be past M 80
age when the ship M 80
age when in many M 80
age have as much M 80
age gave the most M 80
ago were no more M 75
aging over the next M 68
age have the most M 66
age from the fifth M 58
age were so much M 57
aging will be more M 56
age when the reading M 54
age were as much M 54
aging during the last M 51
age when the north M 51
ago when the post M 50
age were at once M 50
age during the five M 49
ago when the south M 48
ago when the snow M 48
age having of late M 48
age some of their M 45
ago when the name M 44
age will do much M 44
age when the well M 44
age from the north M 44
age among the poor M 44
ago when the site M 43
ago days of their M 43
age when the leading M 43
age from the land M 43
ago when my kids M 42
ago most of what M 42
ago when the holy M 41
ago when it went M 41
ago when it gave M 41
ago what we have M 41
age will in turn M 41
age span of these M 41
age site in south M 41
age range of such M 41
ago when the huge M 40
ago when so much M 40
ago when my life M 40
age when the three M 40
age when in most M 40
age think so much M 40
age make it more M 40
age when he took D 2484
age tend to have D 1349
ago when my wife D 1265
ago when he took D 1124
age when the soul D 722
age into the iron D 621
ago from the lips D 576
ago when we took D 480
age have at least D 465
age when the arts D 444
age when the laws D 352
ago when the news D 299
age when it took D 286
age from at least D 282
age when the media D 240
ago when he sold D 224
age tend to show D 222
age took the form D 206
age from the gulf D 194
age when the mere D 188
age were in paid D 188
age took the same D 180
age been the ruling D 178
ago when the firm D 174
age when the teeth D 174
age when at least D 168
age from the teeth D 164
ago when it took D 160
ago from the mouth D 158
age when he bade D 148
ago when the duke D 146
ago during the riots D 146
age must at least D 146
age range at least D 142
age need at least D 142
age bore the name D 142
age when the race D 140
ago from the duke D 136
age when the wife D 136
age when the news D 134
age when the beard D 134
age when he rode D 134
ago when he paid D 131
age were at least D 130
ago sunk to rest D 125
age when the pace D 120
age bears the same D 120
ago from the cape D 118
ago when he flew D 117
age tend to make D 116
age when the star D 113
age bent the knee D 112
age when the least D 108
ago when he rode D 106
ago into the laws D 106
age must be paid D 106
ago took to love D 102
age when the bull D 98
ago when the wall D 97
ago rose in arms D 96
age when the tide D 96
age tend to look D 96
age were the least D 92
age were the sole D 84
ago when the navy D 41
ago when the farm D 41
ago when he threw D 41
